#####################################################################
# Alchemist log file - simulation started at: 2017-05-24T21:16+0000 #
#####################################################################
# random = 16.0, targets = 1.0, density = 1.2632455339402642, gridShift = 1.0, perturbation = 0.5, connfactor = 0.5
#
# The columns have the following meaning: 
# time se[Mean] 
0.0 NaN 
1.0066017814354276 NaN 
2.0066017814354273 1.0 
3.0066017814354273 0.9955357142857143 
4.006601781435427 0.9895833333333333 
5.006601781435427 1.0208333333333335 
6.006601781435427 0.9479166666666666 
7.006601781435427 1.0848214285714284 
8.006601781435428 1.005952380952381 
9.006601781435428 1.1324404761904763 
10.006601781435428 1.09375 
11.006601781435428 1.1264880952380956 
12.006601781435428 1.0758928571428568 
13.006601781435428 1.1116071428571432 
14.006601781435428 1.0669642857142858 
15.006601781435428 1.0967261904761907 
16.006601781435428 1.0520833333333335 
17.006601781435428 1.044642857142857 
18.006601781435428 1.0327380952380953 
19.006601781435428 1.0148809523809523 
20.006601781435428 0.9910714285714284 
21.006601781435428 0.9985119047619049 
22.006601781435428 0.9241071428571428 
23.006601781435428 0.9241071428571428 
24.006601781435428 0.8883928571428572 
25.006601781435428 0.825892857142857 
26.006601781435428 0.8482142857142855 
27.006601781435428 0.75 
28.006601781435428 0.7366071428571431 
29.006601781435428 0.6785714285714284 
30.006601781435428 0.6517857142857144 
31.006601781435428 0.5833333333333331 
32.00660178143543 0.538690476190476 
33.00660178143543 0.49404761904761935 
34.00660178143543 0.41964285714285715 
35.00660178143543 0.49404761904761924 
36.00660178143543 0.34375 
37.00660178143543 0.4389880952380952 
38.00660178143543 0.4449404761904761 
39.00660178143543 1.0699404761904765 
40.00660178143543 0.4880952380952381 
41.00660178143543 4.59375 
42.00660178143543 1.8511904761904747 
43.00660178143543 7.654761904761899 
44.00660178143543 10.419642857142849 
45.00660178143543 6.217261904761905 
46.00660178143543 12.528273809523814 
47.00660178143543 5.431547619047627 
48.00660178143543 8.921130952380947 
49.00660178143543 9.623511904761909 
50.00660178143543 8.87351190476191 
51.00660178143543 10.285714285714283 
52.00660178143543 8.88392857142857 
53.00660178143543 11.63095238095236 
54.00660178143543 5.148809523809527 
55.00660178143543 5.0818452380952355 
56.00660178143543 2.200892857142854 
57.00660178143543 2.1875 
58.00660178143543 1.4538690476190494 
59.00660178143543 0.7336309523809545 
60.00660178143543 0.7202380952380922 
61.00660178143543 0.0 
62.00660178143543 0.0 
63.00660178143543 0.0 
64.00660178143542 0.0 
65.00660178143542 0.0 
66.00660178143542 0.0 
67.00660178143542 0.0 
68.00660178143542 0.0 
69.00660178143542 0.0 
70.00660178143542 0.0 
71.00660178143542 0.0 
72.00660178143542 0.0 
73.00660178143542 0.0 
74.00660178143542 0.0 
75.00660178143542 0.0 
76.00660178143542 0.0 
77.00660178143542 0.0 
78.00660178143542 0.0 
79.00660178143542 0.0 
80.00660178143542 0.0 
#####################################################################
# End of data export. Simulation finished at: 2017-05-24T21:16+0000 #
#####################################################################
