#####################################################################
# Alchemist log file - simulation started at: 2017-05-25T10:42+0000 #
#####################################################################
# random = 17.0, targets = 100.0, density = 0.6332893950589894, gridShift = 1.0, perturbation = 0.0, connfactor = 1.5
#
# The columns have the following meaning: 
# time se[Mean] 
0.0 NaN 
1.002823245690351 NaN 
2.002823245690351 1.030195 
3.002823245690351 1.051669537037037 
4.002823245690351 1.1055783024691357 
5.002823245690351 1.226621574074074 
6.002823245690351 1.2954622839506174 
7.002823245690351 1.3928996604938273 
8.002823245690351 1.500332037037037 
9.002823245690351 1.4117562654320988 
10.002823245690351 1.4816681481481482 
11.002823245690351 1.4847574382716051 
12.002823245690351 1.5005801851851854 
13.002823245690351 1.5675915740740742 
14.002823245690351 1.7136175617283953 
15.002823245690351 1.626265277777778 
16.00282324569035 1.4109020679012347 
17.00282324569035 1.3544808333333334 
18.00282324569035 1.3311948765432098 
19.00282324569035 1.285148765432099 
20.00282324569035 1.2206141975308644 
21.00282324569035 1.0322290123456792 
22.00282324569035 0.9056518827160496 
23.00282324569035 0.8847993827160496 
24.00282324569035 0.8708220987654324 
25.00282324569035 0.7125277469135805 
26.00282324569035 0.7186939197530867 
27.00282324569035 0.6575889506172843 
28.00282324569035 0.6355044135802472 
29.00282324569035 0.6116235493827163 
30.00282324569035 0.5581064506172843 
31.00282324569035 0.5455245987654324 
32.00282324569035 0.5216565432098768 
33.00282324569035 0.508887777777778 
34.00282324569035 0.5097791049382718 
35.00282324569035 0.47233219135802496 
36.00282324569035 0.4633674691358027 
37.00282324569035 0.4589727469135805 
38.00282324569035 0.4445519753086422 
39.00282324569035 0.4212213271604941 
40.00282324569035 0.4133750308641978 
41.00282324569035 0.41803478395061755 
42.00282324569035 0.41482808641975333 
43.00282324569035 0.4093478703703706 
44.00282324569035 0.40962824074074106 
45.00282324569035 0.41038172839506204 
46.00282324569035 0.40999549382716083 
47.00282324569035 0.41031574074074106 
48.00282324569035 0.40995787037037074 
49.00282324569035 0.40983858024691394 
50.00282324569035 0.40971929012345715 
51.00282324569035 0.40960000000000035 
52.00282324569035 0.40960000000000035 
53.00282324569035 0.40960000000000035 
54.00282324569035 0.40960000000000035 
55.00282324569035 0.40960000000000035 
56.00282324569035 0.40960000000000035 
57.00282324569035 0.40960000000000035 
58.00282324569035 0.40960000000000035 
59.00282324569035 0.40960000000000035 
60.00282324569035 0.40960000000000035 
61.00282324569035 0.40960000000000035 
62.00282324569035 0.40960000000000035 
63.00282324569035 0.40960000000000035 
64.00282324569035 0.40960000000000035 
65.00282324569035 0.40960000000000035 
66.00282324569035 0.40960000000000035 
67.00282324569035 0.40960000000000035 
68.00282324569035 0.40960000000000035 
#####################################################################
# End of data export. Simulation finished at: 2017-05-25T10:42+0000 #
#####################################################################
