#####################################################################
# Alchemist log file - simulation started at: 2017-05-24T10:53+0000 #
#####################################################################
# random = 6.0, targets = 100.0, density = 3.5589026259761294, gridShift = 1.0, perturbation = 0.0, connfactor = 1.0
#
# The columns have the following meaning: 
# time se[Mean] 
0.0 NaN 
1.001281360956031 NaN 
2.001281360956031 1.0114477870813396 
3.001281360956031 1.0181290470494417 
4.001281360956031 1.0251390882509304 
5.001281360956031 1.0281106459330143 
6.001281360956031 1.0282309675704413 
7.001281360956031 1.041471052631579 
8.001281360956032 1.038133499468368 
9.001281360956032 1.04309490297714 
10.001281360956032 1.0398182150451887 
11.001281360956032 1.0372231193514088 
12.001281360956032 1.035294298245614 
13.001281360956032 1.0327561802232854 
14.001281360956032 1.0261801701222755 
15.001281360956032 1.0223629917597024 
16.001281360956032 1.0107128256246678 
17.001281360956032 1.0068654771398193 
18.001281360956032 0.9953544324827219 
19.001281360956032 0.9877298312068049 
20.001281360956032 0.9806233652312599 
21.001281360956032 0.9784204146730462 
22.001281360956032 0.9718476275917065 
23.001281360956032 0.9763913676236045 
24.001281360956032 0.9764844032429558 
25.001281360956032 0.9745928229665072 
26.001281360956032 0.9755727472089314 
27.001281360956032 0.9797561868686868 
28.001281360956032 0.9815118886230728 
29.001281360956032 0.978818308080808 
30.001281360956032 0.9908930489101542 
31.001281360956032 0.9896693514088251 
32.00128136095603 0.9886808346624136 
33.00128136095603 0.9972320042530569 
34.00128136095603 1.0004782562466774 
35.00128136095603 1.007370374800638 
36.00128136095603 1.0053672846889954 
37.00128136095603 1.0089324627857523 
38.00128136095603 1.007624667729931 
39.00128136095603 1.0164296318447634 
40.00128136095603 1.0157076754385965 
41.00128136095603 1.0131414141414143 
42.00128136095603 1.019862380382775 
43.00128136095603 1.0123681751727804 
44.00128136095603 1.0144916467304625 
45.00128136095603 1.0085565590111645 
46.00128136095603 1.0000488835725678 
47.00128136095603 1.0055549906964383 
48.00128136095603 0.9894149255715047 
49.00128136095603 0.9832265018607125 
50.00128136095603 0.9704363968633707 
51.00128136095603 0.9547195972886764 
52.00128136095603 0.9368240098351942 
53.00128136095603 0.9109804492291336 
54.00128136095603 0.9045488902179692 
55.00128136095603 0.8836036018075493 
56.00128136095603 0.8637647527910687 
57.00128136095603 0.8536363968633707 
58.00128136095603 0.8416680754917598 
59.00128136095603 0.8246316520467838 
60.00128136095603 0.8160580874534823 
61.00128136095603 0.8092894005847955 
62.00128136095603 0.8036479000531633 
63.00128136095603 0.7895883506113771 
64.00128136095603 0.7793861842105265 
65.00128136095603 0.7713124601275919 
66.00128136095603 0.7630950093035621 
67.00128136095603 0.7555251329080278 
68.00128136095603 0.7473112174375335 
69.00128136095603 0.7335926501860714 
70.00128136095603 0.7344309210526319 
71.00128136095603 0.7243736111111113 
72.00128136095603 0.721754047049442 
73.00128136095603 0.7147078216374271 
74.00128136095603 0.7171469364699631 
75.00128136095603 0.7142491693248274 
76.00128136095603 0.7101020600744288 
77.00128136095603 0.705308114035088 
78.00128136095603 0.6995118354598621 
79.00128136095603 0.6964666400850614 
80.00128136095603 0.6920931220095696 
81.00128136095603 0.6848722089314198 
82.00128136095603 0.6849418128654974 
83.00128136095603 0.6780615231259971 
84.00128136095603 0.6780651648059545 
85.00128136095603 0.6758967038809146 
86.00128136095603 0.6737374003189796 
87.00128136095603 0.6753289407230199 
88.00128136095603 0.67167523923445 
89.00128136095603 0.6722111642743224 
90.00128136095603 0.6711027445507711 
91.00128136095603 0.6704506778309413 
92.00128136095603 0.6727098351940459 
93.00128136095603 0.6698460526315791 
94.00128136095603 0.6705175637958535 
95.00128136095603 0.6689612772461458 
96.00128136095603 0.6679928429027115 
97.00128136095603 0.6660911150983522 
98.00128136095603 0.6649541998936738 
99.00128136095603 0.6638723950026584 
100.00128136095603 0.6628476275917068 
101.00128136095603 0.6623699096225414 
102.00128136095603 0.661336383572568 
103.00128136095603 0.6611682947900055 
104.00128136095603 0.6611714513556621 
105.00128136095603 0.6601338184476344 
106.00128136095603 0.660428993886231 
107.00128136095603 0.6593248072833602 
108.00128136095603 0.6593290603402447 
109.00128136095603 0.6586258439659758 
110.00128136095603 0.6583513224348753 
111.00128136095603 0.6582269670388093 
112.00128136095603 0.6578311337054761 
113.00128136095603 0.6576494484316855 
114.00128136095603 0.6573963583200427 
115.00128136095603 0.6571368952684744 
116.00128136095603 0.6569228003721427 
117.00128136095603 0.6566701089845829 
118.00128136095603 0.6565273524720896 
119.00128136095603 0.6564237373737376 
120.00128136095603 0.6562941786283893 
121.00128136095603 0.6562553429027116 
122.00128136095603 0.6562035619351411 
123.00128136095603 0.6561388357256781 
124.00128136095603 0.6561258904837854 
125.00128136095603 0.6561000000000002 
126.00128136095603 0.6561000000000002 
127.00128136095603 0.6561000000000002 
128.00128136095603 0.6561000000000002 
129.00128136095603 0.6561000000000002 
130.00128136095603 0.6561000000000002 
131.00128136095603 0.6561000000000002 
132.00128136095603 0.6561000000000002 
133.00128136095603 0.6561000000000002 
134.00128136095603 0.6561000000000002 
135.00128136095603 0.6561000000000002 
136.00128136095603 0.6561000000000002 
137.00128136095603 0.6561000000000002 
138.00128136095603 0.6561000000000002 
139.00128136095603 0.6561000000000002 
140.00128136095603 0.6561000000000002 
141.00128136095603 0.6561000000000002 
142.00128136095603 0.6561000000000002 
143.00128136095603 0.6561000000000002 
144.00128136095603 0.6561000000000002 
145.00128136095603 0.6561000000000002 
146.00128136095603 0.6561000000000002 
147.00128136095603 0.6561000000000002 
148.00128136095603 0.6561000000000002 
149.00128136095603 0.6561000000000002 
150.00128136095603 0.6561000000000002 
151.00128136095603 0.6561000000000002 
152.00128136095603 0.6561000000000002 
153.00128136095603 0.6561000000000002 
154.00128136095603 0.6561000000000002 
155.00128136095603 0.6561000000000002 
156.00128136095603 0.6561000000000002 
157.00128136095603 0.6561000000000002 
158.00128136095603 0.6561000000000002 
159.00128136095603 0.6561000000000002 
160.00128136095603 0.6561000000000002 
161.00128136095603 0.6561000000000002 
162.00128136095603 0.6561000000000002 
163.00128136095603 0.6561000000000002 
164.00128136095603 0.6561000000000002 
#####################################################################
# End of data export. Simulation finished at: 2017-05-24T10:59+0000 #
#####################################################################
