0.000000000000000000e+00 nan
0.000000000000000000e+00 3.388865914397973800e-01
0.000000000000000000e+00 6.576222819981358825e-01
1.776356839400250465e-15 5.487542895721669867e-01
0.000000000000000000e+00 5.595159705893522073e-01
2.664535259100375697e-15 5.456841525324676034e-01
3.552713678800500929e-15 5.450429242626715354e-01
8.881784197001252323e-16 5.427167169610729314e-01
0.000000000000000000e+00 5.414479894175837638e-01
1.776356839400250465e-15 5.395922127062987572e-01
5.329070518200751394e-15 5.377135143390011640e-01
1.776356839400250465e-15 5.358779751178338602e-01
7.105427357601001859e-15 5.337552411697152888e-01
1.776356839400250465e-15 5.315521071212829796e-01
1.776356839400250465e-15 5.296232408061143371e-01
5.329070518200751394e-15 5.271028085061532087e-01
0.000000000000000000e+00 5.251094442550968688e-01
7.105427357601001859e-15 5.227962390450352492e-01
3.552713678800500929e-15 5.202103984264141445e-01
1.065814103640150279e-14 5.180583045554132404e-01
1.065814103640150279e-14 5.153537786368090901e-01
0.000000000000000000e+00 5.128199762103883286e-01
3.552713678800500929e-15 5.101906012032214610e-01
3.552713678800500929e-15 5.079100719511157047e-01
1.421085471520200372e-14 5.049881262943287652e-01
3.552713678800500929e-15 5.025211877153210605e-01
3.552713678800500929e-15 4.994138488906403328e-01
7.105427357601001859e-15 4.952150223236203574e-01
3.552713678800500929e-15 4.912439968392537937e-01
3.552713678800500929e-15 4.875060362531045133e-01
1.065814103640150279e-14 4.825981718823862399e-01
7.105427357601001859e-15 4.782529489700209635e-01
0.000000000000000000e+00 4.740624393487322674e-01
7.105427357601001859e-15 4.719782418042136052e-01
1.421085471520200372e-14 4.691762649010577380e-01
2.131628207280300558e-14 4.738612578991582835e-01
7.105427357601001859e-15 4.779146670089718940e-01
1.421085471520200372e-14 4.832014115211230032e-01
2.131628207280300558e-14 5.023383121811133556e-01
1.421085471520200372e-14 5.166327912187517191e-01
2.131628207280300558e-14 5.436646654571263282e-01
7.105427357601001859e-15 5.637177480424536702e-01
0.000000000000000000e+00 6.051940671830594587e-01
0.000000000000000000e+00 6.245847308834122646e-01
7.105427357601001859e-15 6.472440312582404820e-01
2.131628207280300558e-14 6.875692238980347648e-01
7.105427357601001859e-15 7.024339480215323617e-01
1.421085471520200372e-14 7.214780686501048867e-01
2.842170943040400743e-14 7.361780683704266526e-01
1.421085471520200372e-14 7.524844047160524907e-01
7.105427357601001859e-15 7.780434431443571386e-01
2.131628207280300558e-14 8.082598492106116694e-01
7.105427357601001859e-15 8.047448618249820607e-01
0.000000000000000000e+00 8.325317533494270839e-01
1.421085471520200372e-14 8.782581066384727020e-01
7.105427357601001859e-15 8.933967501483114360e-01
7.105427357601001859e-15 9.065294477502916504e-01
2.131628207280300558e-14 9.972841396111518097e-01
7.105427357601001859e-15 9.988529483694387201e-01
3.552713678800500929e-14 1.146263926865189964e+00
2.131628207280300558e-14 1.207732353280859705e+00
0.000000000000000000e+00 1.253908312202756115e+00
1.421085471520200372e-14 1.507270644831445461e+00
1.421085471520200372e-14 1.381882288313006191e+00
0.000000000000000000e+00 1.697906767444125720e+00
2.842170943040400743e-14 1.752565161769795488e+00
1.421085471520200372e-14 1.755720234447023742e+00
1.421085471520200372e-14 1.996580161118665764e+00
2.842170943040400743e-14 2.005491234045537308e+00
4.263256414560601115e-14 2.472969538956771629e+00
4.263256414560601115e-14 2.583034701032013825e+00
2.842170943040400743e-14 2.769485437202171774e+00
1.421085471520200372e-14 3.141804032528419555e+00
0.000000000000000000e+00 3.303974051832532677e+00
2.842170943040400743e-14 3.790833786787176862e+00
0.000000000000000000e+00 4.512660873866801481e+00
4.263256414560601115e-14 4.264356183696007108e+00
1.421085471520200372e-14 5.567507871652700224e+00
2.842170943040400743e-14 5.639097047163226684e+00
2.842170943040400743e-14 5.884876454418982661e+00
4.263256414560601115e-14 6.982101881611139760e+00
1.421085471520200372e-14 7.523045856218119276e+00
1.421085471520200372e-14 6.372227470032878038e+00
2.842170943040400743e-14 8.525169312127223620e+00
0.000000000000000000e+00 8.180440824726725069e+00
5.684341886080801487e-14 8.282372332263239656e+00
0.000000000000000000e+00 8.814584829019935341e+00
4.263256414560601115e-14 9.186266440427726110e+00
1.421085471520200372e-14 9.727162514834205354e+00
1.421085471520200372e-14 9.620800134170954365e+00
4.263256414560601115e-14 1.014537249419310605e+01
4.263256414560601115e-14 9.567185733480169318e+00
1.421085471520200372e-14 9.188574922498036202e+00
1.421085471520200372e-14 1.080470413205468461e+01
2.842170943040400743e-14 1.043748435911352779e+01
0.000000000000000000e+00 9.112911192096362356e+00
5.684341886080801487e-14 1.032684537300540306e+01
0.000000000000000000e+00 1.050285533813443628e+01
2.842170943040400743e-14 8.301235341092510822e+00
1.421085471520200372e-14 1.052552094484122236e+01
1.421085471520200372e-14 9.847820847622527296e+00
4.263256414560601115e-14 8.268849245856319641e+00
4.263256414560601115e-14 9.687762752838301239e+00
1.421085471520200372e-14 8.877004712583278945e+00
1.421085471520200372e-14 1.031120510091216858e+01
5.684341886080801487e-14 9.190547879133836418e+00
0.000000000000000000e+00 1.055215967301354318e+01
5.684341886080801487e-14 1.014111759475716745e+01
2.842170943040400743e-14 9.365086478725604735e+00
0.000000000000000000e+00 1.093087280780733472e+01
1.421085471520200372e-14 9.598160453855605567e+00
2.842170943040400743e-14 1.049674698480962221e+01
1.421085471520200372e-14 1.123357070711367811e+01
0.000000000000000000e+00 1.070994744977105029e+01
4.263256414560601115e-14 1.047714626247913827e+01
1.421085471520200372e-14 1.103833813510714990e+01
1.421085471520200372e-14 1.100082454928529785e+01
1.421085471520200372e-14 1.173633484010440320e+01
7.105427357601001859e-14 1.162360891067393531e+01
0.000000000000000000e+00 1.264524102870106326e+01
4.263256414560601115e-14 1.428629523825342496e+01
1.421085471520200372e-14 1.377318303384586073e+01
0.000000000000000000e+00 1.541496202806099980e+01
4.263256414560601115e-14 1.679297486248137261e+01
2.842170943040400743e-14 1.676693082301732929e+01
1.421085471520200372e-14 1.741496240332925538e+01
2.842170943040400743e-14 1.960815874501047418e+01
5.684341886080801487e-14 1.929070381970123549e+01
0.000000000000000000e+00 2.003927604059309786e+01
8.526512829121202230e-14 2.209050637074450307e+01
5.684341886080801487e-14 2.248868076785258552e+01
2.842170943040400743e-14 2.322055466848311767e+01
2.842170943040400743e-14 2.348809607311039116e+01
2.842170943040400743e-14 2.510755897023989647e+01
2.842170943040400743e-14 2.500960448570641859e+01
5.684341886080801487e-14 2.650078840927372426e+01
5.684341886080801487e-14 2.818953450038757325e+01
0.000000000000000000e+00 2.860196832150377944e+01
8.526512829121202230e-14 3.004574729814635958e+01
5.684341886080801487e-14 2.891062753168286292e+01
8.526512829121202230e-14 3.033183919394135586e+01
0.000000000000000000e+00 3.110347287553466344e+01
5.684341886080801487e-14 3.191857336201850259e+01
2.842170943040400743e-14 3.284718557839978104e+01
2.842170943040400743e-14 3.292406147406605044e+01
2.842170943040400743e-14 3.428323932910339522e+01
0.000000000000000000e+00 3.418360807427734471e+01
2.842170943040400743e-14 3.834712894546886019e+01
5.684341886080801487e-14 3.660880444201101369e+01
8.526512829121202230e-14 3.800972399598835239e+01
0.000000000000000000e+00 3.775747911684664615e+01
5.684341886080801487e-14 3.952523091698709834e+01
8.526512829121202230e-14 3.812484122034682343e+01
2.842170943040400743e-14 4.064547824177820701e+01
2.842170943040400743e-14 4.057584599291636351e+01
2.842170943040400743e-14 4.375462918481593277e+01
5.684341886080801487e-14 3.819837764444342554e+01
8.526512829121202230e-14 4.556692155636321218e+01
5.684341886080801487e-14 3.848738715815741074e+01
0.000000000000000000e+00 3.840869036944625492e+01
8.526512829121202230e-14 3.577179136813919058e+01
1.136868377216160297e-13 3.768776718160883377e+01
2.842170943040400743e-14 3.462285395729637116e+01
0.000000000000000000e+00 3.626162443679399416e+01
2.842170943040400743e-14 3.350507774322917953e+01
5.684341886080801487e-14 3.513939527857751699e+01
5.684341886080801487e-14 3.344516398204359575e+01
5.684341886080801487e-14 3.388494019226715892e+01
0.000000000000000000e+00 2.938915554385005535e+01
2.842170943040400743e-14 3.411164518715321492e+01
1.136868377216160297e-13 3.373277500363872150e+01
8.526512829121202230e-14 2.942356613049221536e+01
0.000000000000000000e+00 4.010130061227679477e+01
5.684341886080801487e-14 3.857334980081581222e+01
8.526512829121202230e-14 3.561156972499867379e+01
5.684341886080801487e-14 3.942938346498388569e+01
2.842170943040400743e-14 4.602103203014516453e+01
2.842170943040400743e-14 4.034236980414537754e+01
2.842170943040400743e-14 4.380427528670937676e+01
8.526512829121202230e-14 4.564307550678910985e+01
8.526512829121202230e-14 5.193926894945735739e+01
0.000000000000000000e+00 4.952489009984358148e+01
8.526512829121202230e-14 5.495537856195373649e+01
8.526512829121202230e-14 4.985002405037670314e+01
2.842170943040400743e-14 5.881607095460871903e+01
0.000000000000000000e+00 5.475733626937442011e+01
2.842170943040400743e-14 5.650465999841857467e+01
5.684341886080801487e-14 6.438081310807137925e+01
5.684341886080801487e-14 6.829758119084581836e+01
5.684341886080801487e-14 6.394872040966041027e+01
0.000000000000000000e+00 8.297620290523788356e+01
8.526512829121202230e-14 6.755885685418611786e+01
1.136868377216160297e-13 8.132587048204548807e+01
8.526512829121202230e-14 8.317786427336243094e+01
0.000000000000000000e+00 7.582904742147792376e+01
5.684341886080801487e-14 9.328792323426422683e+01
5.684341886080801487e-14 9.533580695777794745e+01
5.684341886080801487e-14 7.589488379133413787e+01
2.842170943040400743e-14 1.009593395460404395e+02
0.000000000000000000e+00 8.466152938911753267e+01
2.842170943040400743e-14 9.552402238725764505e+01
8.526512829121202230e-14 1.014200792953485148e+02
8.526512829121202230e-14 8.977997742175767826e+01
0.000000000000000000e+00 8.760490438096901755e+01
8.526512829121202230e-14 9.985526309433922165e+01
1.136868377216160297e-13 9.477275811958516272e+01
2.842170943040400743e-14 9.497721509133198481e+01
2.842170943040400743e-14 8.272364456189319526e+01
2.842170943040400743e-14 8.325858049605466249e+01
5.684341886080801487e-14 9.268509080288896484e+01
1.136868377216160297e-13 7.410256280231811843e+01
5.684341886080801487e-14 8.861455680898654919e+01
0.000000000000000000e+00 8.213422650910032985e+01
8.526512829121202230e-14 7.025894756698991728e+01
1.136868377216160297e-13 8.682878038999385240e+01
2.842170943040400743e-14 7.126472652211492687e+01
5.684341886080801487e-14 9.023384508096991397e+01
0.000000000000000000e+00 7.464882100065500481e+01
0.000000000000000000e+00 8.875492880205727886e+01
8.526512829121202230e-14 8.625623802614050817e+01
2.842170943040400743e-14 8.299377123590018357e+01
0.000000000000000000e+00 8.612479446140781647e+01
5.684341886080801487e-14 8.711867181279033900e+01
1.136868377216160297e-13 8.061115622163900696e+01
2.842170943040400743e-14 8.469196409372329981e+01
2.842170943040400743e-14 8.366246193192760927e+01
0.000000000000000000e+00 9.191577896720893648e+01
2.842170943040400743e-14 7.600933464906408688e+01
8.526512829121202230e-14 9.009056614361539062e+01
2.842170943040400743e-14 8.826815064738545402e+01
2.842170943040400743e-14 9.077888716713481188e+01
5.684341886080801487e-14 8.891491417354251325e+01
2.842170943040400743e-14 9.498079397700099946e+01
2.842170943040400743e-14 8.430970099908726922e+01
2.842170943040400743e-14 9.249940091403679787e+01
0.000000000000000000e+00 8.854955861852616295e+01
1.421085471520200372e-13 8.238367133333699144e+01
5.684341886080801487e-14 8.557089594747166927e+01
0.000000000000000000e+00 8.329478252809985861e+01
2.842170943040400743e-14 8.013794046495630141e+01
8.526512829121202230e-14 8.733738058016957950e+01
2.842170943040400743e-14 7.535667699915428841e+01
2.842170943040400743e-14 8.112696823750734154e+01
8.526512829121202230e-14 8.806264718834771088e+01
0.000000000000000000e+00 9.155731211284222582e+01
1.421085471520200372e-13 8.600220541736715063e+01
8.526512829121202230e-14 8.969083216839489126e+01
0.000000000000000000e+00 8.335772316595436848e+01
5.684341886080801487e-14 8.746974009593097321e+01
1.136868377216160297e-13 8.823709690045873799e+01
2.842170943040400743e-14 9.888081818813932955e+01
5.684341886080801487e-14 7.688545944999404469e+01
5.684341886080801487e-14 8.909824492926057360e+01
2.842170943040400743e-14 8.257576345665326301e+01
1.136868377216160297e-13 8.660528897529758297e+01
8.526512829121202230e-14 9.121743059324049341e+01
0.000000000000000000e+00 7.926218421368001543e+01
5.684341886080801487e-14 8.776525084344720540e+01
1.705302565824240446e-13 8.151034237130370741e+01
5.684341886080801487e-14 6.787710541712441170e+01
1.136868377216160297e-13 6.849084200726105109e+01
1.136868377216160297e-13 7.350151974165700608e+01
5.684341886080801487e-14 7.109212193967735516e+01
1.136868377216160297e-13 6.146682299439251551e+01
5.684341886080801487e-14 6.270351171587241623e+01
0.000000000000000000e+00 6.260893193332481843e+01
5.684341886080801487e-14 6.009960356594218212e+01
1.705302565824240446e-13 5.726026739235013707e+01
5.684341886080801487e-14 5.631300165674230129e+01
1.136868377216160297e-13 6.528667795607530877e+01
1.136868377216160297e-13 5.495557700583923832e+01
5.684341886080801487e-14 6.172897771374343279e+01
1.136868377216160297e-13 4.695279661590056719e+01
0.000000000000000000e+00 5.043261887784093744e+01
0.000000000000000000e+00 4.662959199341260330e+01
5.684341886080801487e-14 4.713788502876333553e+01
1.705302565824240446e-13 4.239733165226813583e+01
5.684341886080801487e-14 4.157849521345156774e+01
1.136868377216160297e-13 4.334485163239283168e+01
5.684341886080801487e-14 4.097247099281464244e+01
1.705302565824240446e-13 3.935290599792160293e+01
1.136868377216160297e-13 3.352505001900401993e+01
0.000000000000000000e+00 3.059808276377018288e+01
0.000000000000000000e+00 3.246692003941409155e+01
1.136868377216160297e-13 3.119371180382872666e+01
5.684341886080801487e-14 2.655543708371675748e+01
5.684341886080801487e-14 2.443012949670517031e+01
1.136868377216160297e-13 2.696993887964934444e+01
5.684341886080801487e-14 2.458901378824495509e+01
1.705302565824240446e-13 2.746486071827779085e+01
5.684341886080801487e-14 2.755772365553323766e+01
0.000000000000000000e+00 2.913506963255397153e+01
0.000000000000000000e+00 2.838595126498700338e+01
1.136868377216160297e-13 2.398863902421842198e+01
5.684341886080801487e-14 2.413953604805533004e+01
1.705302565824240446e-13 2.278917475203987308e+01
1.136868377216160297e-13 2.507514688354894261e+01
1.136868377216160297e-13 2.055174147402377471e+01
1.705302565824240446e-13 2.119645429453278140e+01
5.684341886080801487e-14 2.238717251701371325e+01
0.000000000000000000e+00 2.056070369176151047e+01
5.684341886080801487e-14 2.167160070260707982e+01
1.136868377216160297e-13 1.883577252866051666e+01
5.684341886080801487e-14 1.901843136521161526e+01
1.705302565824240446e-13 2.079131503359172584e+01
1.705302565824240446e-13 1.875690917905772537e+01
5.684341886080801487e-14 2.050640874536023617e+01
1.705302565824240446e-13 1.775598923118306516e+01
5.684341886080801487e-14 2.292075698797422945e+01
0.000000000000000000e+00 1.706007524575898060e+01
5.684341886080801487e-14 1.961138927184232372e+01
1.705302565824240446e-13 1.640738490985343745e+01
1.136868377216160297e-13 2.007855534546370180e+01
1.705302565824240446e-13 1.955667425241449919e+01
1.705302565824240446e-13 1.797771818366815921e+01
5.684341886080801487e-14 1.957474885181886748e+01
1.136868377216160297e-13 2.010348526918376777e+01
0.000000000000000000e+00 1.693291082431649741e+01
0.000000000000000000e+00 1.224184266557573508e+01
5.684341886080801487e-14 1.588059774112353750e+01
1.705302565824240446e-13 8.238216498438964308e+00
1.136868377216160297e-13 8.237493470636811921e+00
2.273736754432320595e-13 6.835893205206746259e+00
1.705302565824240446e-13 4.507938576145837928e+00
5.684341886080801487e-14 3.791500061296798840e+00
1.136868377216160297e-13 4.502657921666355811e+00
0.000000000000000000e+00 3.786333338558280470e+00
0.000000000000000000e+00 3.788337919318762292e+00
5.684341886080801487e-14 3.777020401306383945e+00
1.705302565824240446e-13 3.777955274525697682e+00
1.136868377216160297e-13 3.776116949304028303e+00
2.273736754432320595e-13 3.777033296432893650e+00
1.136868377216160297e-13 3.776116949304028303e+00
1.705302565824240446e-13 3.776116949304028303e+00
1.136868377216160297e-13 3.776116949304028303e+00
0.000000000000000000e+00 3.776116949304028303e+00
0.000000000000000000e+00 3.776116949304028303e+00
1.136868377216160297e-13 3.776116949304028303e+00
5.684341886080801487e-14 3.776116949304028303e+00
1.136868377216160297e-13 3.776116949304028303e+00
2.273736754432320595e-13 3.776116949304028303e+00
1.136868377216160297e-13 3.776116949304028303e+00
1.705302565824240446e-13 3.776116949304028303e+00
5.684341886080801487e-14 3.776116949304028303e+00
0.000000000000000000e+00 3.776116949304028303e+00
0.000000000000000000e+00 3.776116949304028303e+00
1.136868377216160297e-13 3.776116949304028303e+00
5.684341886080801487e-14 3.776116949304028303e+00
1.705302565824240446e-13 3.776116949304028303e+00
1.705302565824240446e-13 3.776116949304028303e+00
1.136868377216160297e-13 3.776116949304028303e+00
1.705302565824240446e-13 3.776116949304028303e+00
5.684341886080801487e-14 3.776116949304028303e+00
0.000000000000000000e+00 3.776116949304028303e+00
5.684341886080801487e-14 3.776116949304028303e+00
1.136868377216160297e-13 3.776116949304028303e+00
5.684341886080801487e-14 3.776116949304028303e+00
1.705302565824240446e-13 3.776116949304028303e+00
1.705302565824240446e-13 3.776116949304028303e+00
5.684341886080801487e-14 3.776116949304028303e+00
1.705302565824240446e-13 3.776116949304028303e+00
5.684341886080801487e-14 3.776116949304028303e+00
0.000000000000000000e+00 3.776116949304028303e+00
5.684341886080801487e-14 3.776116949304028303e+00
1.705302565824240446e-13 3.776116949304028303e+00
1.136868377216160297e-13 3.776116949304028303e+00
1.705302565824240446e-13 3.776116949304028303e+00
1.705302565824240446e-13 3.776116949304028303e+00
5.684341886080801487e-14 3.776116949304028303e+00
1.136868377216160297e-13 3.776116949304028303e+00
0.000000000000000000e+00 3.776116949304028303e+00
0.000000000000000000e+00 3.776116949304028303e+00
5.684341886080801487e-14 3.776116949304028303e+00
1.705302565824240446e-13 3.776116949304028303e+00
1.136868377216160297e-13 3.776116949304028303e+00
2.273736754432320595e-13 3.776116949304028303e+00
1.136868377216160297e-13 3.776116949304028303e+00
1.136868377216160297e-13 3.776116949304028303e+00
1.136868377216160297e-13 3.776116949304028303e+00
0.000000000000000000e+00 3.776116949304028303e+00
0.000000000000000000e+00 3.776116949304028303e+00
1.136868377216160297e-13 3.776116949304028303e+00
1.705302565824240446e-13 3.776116949304028303e+00
1.136868377216160297e-13 3.776116949304028303e+00
2.273736754432320595e-13 3.776116949304028303e+00
1.136868377216160297e-13 3.776116949304028303e+00
1.705302565824240446e-13 3.776116949304028303e+00
1.136868377216160297e-13 3.776116949304028303e+00
0.000000000000000000e+00 3.776116949304028303e+00
0.000000000000000000e+00 3.776116949304028303e+00
1.136868377216160297e-13 3.776116949304028303e+00
1.136868377216160297e-13 3.776116949304028303e+00
1.136868377216160297e-13 3.776116949304028303e+00
2.273736754432320595e-13 3.776116949304028303e+00
1.136868377216160297e-13 3.776116949304028303e+00
5.684341886080801487e-14 3.776116949304028303e+00
5.684341886080801487e-14 3.776116949304028303e+00
5.684341886080801487e-14 3.776116949304028303e+00
0.000000000000000000e+00 3.776116949304028303e+00
1.136868377216160297e-13 3.776116949304028303e+00
5.684341886080801487e-14 3.776116949304028303e+00
1.705302565824240446e-13 3.776116949304028303e+00
1.705302565824240446e-13 3.776116949304028303e+00
1.136868377216160297e-13 3.776116949304028303e+00
1.705302565824240446e-13 3.776116949304028303e+00
5.684341886080801487e-14 3.776116949304028303e+00
0.000000000000000000e+00 3.776116949304028303e+00
5.684341886080801487e-14 3.776116949304028303e+00
1.705302565824240446e-13 3.776116949304028303e+00
1.136868377216160297e-13 3.776116949304028303e+00
2.273736754432320595e-13 3.776116949304028303e+00
1.705302565824240446e-13 3.776116949304028303e+00
5.684341886080801487e-14 3.776116949304028303e+00
0.000000000000000000e+00 3.776116949304028303e+00
5.684341886080801487e-14 3.776116949304028303e+00
5.684341886080801487e-14 3.776116949304028303e+00
5.684341886080801487e-14 3.776116949304028303e+00
5.684341886080801487e-14 3.776116949304028303e+00
1.136868377216160297e-13 3.776116949304028303e+00
1.705302565824240446e-13 3.776116949304028303e+00
2.273736754432320595e-13 3.776116949304028303e+00
1.136868377216160297e-13 3.776116949304028303e+00
1.136868377216160297e-13 3.776116949304028303e+00
0.000000000000000000e+00 3.776116949304028303e+00
0.000000000000000000e+00 3.776116949304028303e+00
5.684341886080801487e-14 3.776116949304028303e+00
1.705302565824240446e-13 3.776116949304028303e+00
1.705302565824240446e-13 3.776116949304028303e+00
2.273736754432320595e-13 3.776116949304028303e+00
1.136868377216160297e-13 3.776116949304028303e+00
5.684341886080801487e-14 3.776116949304028303e+00
0.000000000000000000e+00 3.776116949304028303e+00
1.136868377216160297e-13 3.776116949304028303e+00
1.136868377216160297e-13 3.776116949304028303e+00
0.000000000000000000e+00 3.776116949304028303e+00
5.684341886080801487e-14 3.776116949304028303e+00
