#####################################################################
# Alchemist log file - simulation started at: 2017-05-22T15:36+0000 #
#####################################################################
# random = 4.0, targets = 3.1622776601683795, density = 10.026386447354522, gridShift = 0.0, perturbation = 0.5, connfactor = 0.5
#
# The columns have the following meaning: 
# time se[Mean] 
0.0 NaN 
1.0004793365590676 NaN 
2.0004793365590676 1.0 
3.0004793365590676 0.9997325732176154 
4.000479336559067 0.9986709213993563 
5.000479336559067 0.9931870628902306 
6.000479336559067 0.9877547551892631 
7.000479336559067 0.9812551585441559 
8.000479336559067 0.9709495626408281 
9.000479336559067 0.9723922163544658 
10.000479336559067 0.9603249891469575 
11.000479336559067 0.9588042005059251 
12.000479336559067 0.9492952478238703 
13.000479336559067 0.9463374425950809 
14.000479336559067 0.9444654551183888 
15.000479336559067 0.9401946819115141 
16.000479336559067 0.9393521250079641 
17.000479336559067 0.9358079154062471 
18.000479336559067 0.9358216078434074 
19.000479336559067 0.9355920394320205 
20.000479336559067 0.9359730413273996 
21.000479336559067 0.938677112210964 
22.000479336559067 0.9372481509344864 
23.000479336559067 0.9329556299791729 
24.000479336559067 0.9257455803514659 
25.000479336559067 0.9266638539970126 
26.000479336559067 0.9212855152896012 
27.000479336559067 0.9123057790464348 
28.000479336559067 0.9192105435207597 
29.000479336559067 0.9080293687136801 
30.000479336559067 0.9132860769968172 
31.000479336559067 0.9131644465725444 
32.00047933655907 0.9174432750906983 
33.00047933655907 0.9274033092842462 
34.00047933655907 0.9335758730275318 
35.00047933655907 0.9451243572928295 
36.00047933655907 0.9531286319564105 
37.00047933655907 0.9585665767832594 
38.00047933655907 0.9627833809965771 
39.00047933655907 0.9693828603175183 
40.00047933655907 0.9757986849093503 
41.00047933655907 0.978427039050919 
42.00047933655907 0.9832544135710023 
43.00047933655907 0.9842322933359858 
44.00047933655907 0.9858827677125708 
45.00047933655907 0.9899159171967795 
46.00047933655907 0.9915663915733643 
47.00047933655907 0.9936437815276052 
48.00047933655907 0.9957831957866822 
49.00047933655907 0.9970663607050486 
50.00047933655907 0.9985331803525244 
51.00047933655907 0.9995110601175081 
52.00047933655907 0.9995110601175081 
53.00047933655907 1.0 
54.00047933655907 1.0 
55.00047933655907 1.0 
56.00047933655907 1.0 
57.00047933655907 1.0 
58.00047933655907 1.0 
59.00047933655907 1.0 
60.00047933655907 1.0 
61.00047933655907 1.0 
62.00047933655907 0.9995110601175081 
63.00047933655907 1.0488167336776144 
64.00047933655907 1.2538624660379123 
65.00047933655907 1.2519067065079437 
66.00047933655907 1.4569524388682429 
67.00047933655907 1.4573866090020924 
68.00047933655907 1.4560140508247175 
69.00047933655907 1.709663059073796 
70.00047933655907 1.6563266701350352 
71.00047933655907 1.755446302620926 
72.00047933655907 1.9765111055654956 
73.00047933655907 1.9720655655361687 
74.00047933655907 1.8254454499718222 
75.00047933655907 2.174632022734082 
76.00047933655907 2.2146784741819454 
77.00047933655907 2.1750517792764255 
78.00047933655907 2.25648255315857 
79.00047933655907 2.0993538733188783 
80.00047933655907 2.361966570869162 
81.00047933655907 1.9277132668592265 
82.00047933655907 2.4076000302028966 
83.00047933655907 2.0109371721363103 
84.00047933655907 2.205148139914833 
85.00047933655907 2.014698153988222 
86.00047933655907 2.320502782639824 
87.00047933655907 2.272833106184203 
88.00047933655907 2.28599026636026 
89.00047933655907 2.162877139446662 
90.00047933655907 2.250248585996175 
91.00047933655907 2.543041050074753 
92.00047933655907 2.0801488984956875 
93.00047933655907 2.1373960694198937 
94.00047933655907 2.4035103136703895 
95.00047933655907 2.334581849325728 
96.00047933655907 1.8380107708632498 
97.00047933655907 2.3232960350727523 
98.00047933655907 2.258474034689051 
99.00047933655907 1.8067171760750786 
100.00047933655907 1.8296901278362951 
101.00047933655907 1.5706459650230442 
102.00047933655907 1.3614479346202524 
103.00047933655907 1.2788355277661951 
104.00047933655907 1.051216422108459 
105.00047933655907 1.4862406974165387 
106.00047933655907 1.3041574751610736 
107.00047933655907 0.9421570290284615 
108.00047933655907 1.054646430963712 
109.00047933655907 0.753059550561841 
110.00047933655907 0.5154634515724694 
111.00047933655907 0.321237237607061 
112.00047933655907 0.2905766024277008 
113.00047933655907 0.26741037095622044 
114.00047933655907 0.23861041716149636 
115.00047933655907 0.16845426288131232 
116.00047933655907 0.1800181047745255 
117.00047933655907 0.13590147806684033 
118.00047933655907 0.12416692088703579 
119.00047933655907 0.0842977181276168 
120.00047933655907 0.06929521827469447 
121.00047933655907 0.059199845299565484 
122.00047933655907 0.05624929462697132 
123.00047933655907 0.05774513249923033 
124.00047933655907 0.04652446597069018 
125.00047933655907 0.04618293987662402 
126.00047933655907 0.046188592922652406 
127.00047933655907 0.04087227852007752 
128.00047933655907 0.03240723368326105 
129.00047933655907 0.035198327400878374 
130.00047933655907 0.03262957937874696 
131.00047933655907 0.025459790387289568 
132.00047933655907 0.02731326497617188 
133.00047933655907 0.021975186905010394 
134.00047933655907 0.06230754618276823 
135.00047933655907 0.22714335044466355 
136.00047933655907 0.22640631334282732 
137.00047933655907 0.401739455388733 
138.00047933655907 0.3980542698795586 
139.00047933655907 0.39068389886119803 
140.00047933655907 0.606349400184865 
141.00047933655907 0.5571725956850787 
142.00047933655907 0.6415224997497762 
143.00047933655907 0.804326011064477 
144.00047933655907 0.7991667513516281 
145.00047933655907 0.6759585622128509 
146.00047933655907 0.9649184110736709 
147.00047933655907 1.0104100300642762 
148.00047933655907 0.9656554481755112 
149.00047933655907 1.0500053522401973 
150.00047933655907 0.925323088897749 
151.00047933655907 1.1328811821012237 
152.00047933655907 0.7984297142497916 
153.00047933655907 1.2150199748604085 
154.00047933655907 0.8805685070089765 
155.00047933655907 1.0477942409346932 
156.00047933655907 0.9223749404904044 
157.00047933655907 1.1732135413789782 
158.00047933655907 1.1732135413789775 
159.00047933655907 1.1732135413789795 
160.00047933655907 1.1314071078975467 
161.00047933655907 1.1745635669729726 
162.00047933655907 1.618340364617647 
163.00047933655907 1.8250091068794707 
164.00047933655907 1.9140220762183264 
165.00047933655907 2.705980887220148 
166.00047933655907 2.6641744537387253 
167.00047933655907 2.2946666803758684 
168.00047933655907 3.4400392940895164 
169.00047933655907 3.255201250897397 
170.00047933655907 3.301226074182195 
171.00047933655907 4.0931848851840105 
172.00047933655907 3.83829620751343 
173.00047933655907 3.3269385370125644 
174.00047933655907 4.264797321934396 
175.00047933655907 4.367372523757657 
176.00047933655907 4.684211682342702 
177.00047933655907 4.762592759950909 
178.00047933655907 3.914083570410578 
179.00047933655907 5.008199571484802 
180.00047933655907 3.4377822054211356 
181.00047933655907 4.926105043137274 
182.00047933655907 3.5148132574353395 
183.00047933655907 3.801044789878023 
184.00047933655907 3.4973692611902916 
185.00047933655907 4.162727059175174 
186.00047933655907 4.371759226582327 
187.00047933655907 4.203183467062611 
188.00047933655907 4.100608265239373 
189.00047933655907 4.297596538777479 
190.00047933655907 5.221955067759314 
191.00047933655907 3.9130701708592603 
192.00047933655907 4.127670753663702 
193.00047933655907 4.854979032563102 
194.00047933655907 4.697097141318423 
195.00047933655907 3.3990124491703884 
196.00047933655907 4.854979032563096 
197.00047933655907 4.701147218100427 
198.00047933655907 3.8335073806784066 
199.00047933655907 4.554065531607752 
200.00047933655907 3.676975515027729 
201.00047933655907 3.3828121420423876 
202.00047933655907 3.0899987946510574 
203.00047933655907 2.959117415286375 
204.00047933655907 4.555415557201768 
205.00047933655907 3.8132569967684122 
206.00047933655907 2.3680906181276993 
207.00047933655907 3.66617531027574 
208.00047933655907 2.210208726883026 
209.00047933655907 2.3478402342177027 
210.00047933655907 1.4640000896676915 
211.00047933655907 0.44792854015898936 
212.00047933655907 0.8783733948849893 
213.00047933655907 0.15646521836164096 
214.00047933655907 0.8797234204789878 
215.00047933655907 0.29814680247831243 
216.00047933655907 0.4452284889709824 
217.00047933655907 0.5882600986816611 
218.00047933655907 0.29679677688431644 
219.00047933655907 0.2940967256963149 
220.00047933655907 0.002633403898972407 
221.00047933655907 0.002633403898972407 
222.00047933655907 0.002633403898972407 
223.00047933655907 0.002633403898972407 
224.00047933655907 0.002633403898972407 
225.00047933655907 0.002633403898972407 
226.00047933655907 0.002633403898972407 
227.00047933655907 0.002633403898972407 
228.00047933655907 0.002633403898972407 
229.00047933655907 0.002633403898972407 
230.00047933655907 0.002633403898972407 
231.00047933655907 0.002633403898972407 
232.00047933655907 0.002633403898972407 
233.00047933655907 0.002633403898972407 
234.00047933655907 0.002633403898972407 
235.00047933655907 0.002633403898972407 
236.00047933655907 0.002633403898972407 
237.00047933655907 0.002633403898972407 
238.00047933655907 0.002633403898972407 
239.00047933655907 0.002633403898972407 
240.00047933655907 0.002633403898972407 
241.00047933655907 0.002633403898972407 
242.00047933655907 0.002633403898972407 
243.00047933655907 0.002633403898972407 
244.00047933655907 0.002633403898972407 
245.00047933655907 0.002633403898972407 
246.00047933655907 0.002633403898972407 
247.00047933655907 0.002633403898972407 
248.00047933655907 0.002633403898972407 
249.00047933655907 0.002633403898972407 
250.00047933655907 0.002633403898972407 
251.00047933655907 0.002633403898972407 
252.00047933655907 0.002633403898972407 
253.00047933655907 0.002633403898972407 
254.00047933655907 0.002633403898972407 
255.00047933655907 0.002633403898972407 
256.00047933655907 0.002633403898972407 
257.00047933655907 0.002633403898972407 
258.00047933655907 0.002633403898972407 
259.00047933655907 0.002633403898972407 
260.00047933655907 0.002633403898972407 
261.00047933655907 0.002633403898972407 
262.00047933655907 0.002633403898972407 
263.00047933655907 0.002633403898972407 
264.00047933655907 0.002633403898972407 
265.00047933655907 0.002633403898972407 
266.00047933655907 0.002633403898972407 
267.00047933655907 0.002633403898972407 
268.00047933655907 0.002633403898972407 
269.00047933655907 0.002633403898972407 
270.00047933655907 0.002633403898972407 
271.00047933655907 0.002633403898972407 
272.00047933655907 0.002633403898972407 
273.00047933655907 0.002633403898972407 
274.00047933655907 0.002633403898972407 
275.00047933655907 0.002633403898972407 
276.00047933655907 0.002633403898972407 
277.00047933655907 0.002633403898972407 
278.00047933655907 0.002633403898972407 
279.00047933655907 0.002633403898972407 
280.00047933655907 0.002633403898972407 
281.00047933655907 0.002633403898972407 
282.00047933655907 0.002633403898972407 
283.00047933655907 0.002633403898972407 
284.00047933655907 0.002633403898972407 
285.00047933655907 0.002633403898972407 
286.00047933655907 0.002633403898972407 
287.00047933655907 0.002633403898972407 
288.00047933655907 0.002633403898972407 
289.00047933655907 0.002633403898972407 
290.00047933655907 0.002633403898972407 
291.00047933655907 0.002633403898972407 
292.00047933655907 0.002633403898972407 
293.00047933655907 0.002633403898972407 
294.00047933655907 0.002633403898972407 
#####################################################################
# End of data export. Simulation finished at: 2017-05-22T15:42+0000 #
#####################################################################
