#####################################################################
# Alchemist log file - simulation started at: 2017-05-26T00:46+0000 #
#####################################################################
# random = 19.0, targets = 31.622776601683793, density = 5.0264212595847235, gridShift = 1.0, perturbation = 0.0, connfactor = 1.0
#
# The columns have the following meaning: 
# time se[Mean] 
0.0 NaN 
1.004337754240159 NaN 
2.004337754240159 1.006272291922008 
3.004337754240159 1.0120276232312457 
4.004337754240159 1.015020959693794 
5.004337754240159 1.0147778073499136 
6.004337754240159 1.006944657872925 
7.004337754240159 0.9994591777098168 
8.004337754240158 0.9960929297736292 
9.004337754240158 0.9943490862810641 
10.004337754240158 0.9950976465339034 
11.004337754240158 0.9942050653102675 
12.004337754240158 0.9960952637041058 
13.004337754240158 0.9929591154885009 
14.004337754240158 0.9900068733075299 
15.004337754240158 0.9878599739555346 
16.004337754240158 0.9824996963874799 
17.004337754240158 0.9757972202810085 
18.004337754240158 0.9685312324719096 
19.004337754240158 0.9588529691225345 
20.004337754240158 0.9560775198585199 
21.004337754240158 0.9486764495157056 
22.004337754240158 0.9436655843305327 
23.004337754240158 0.9424645516012684 
24.004337754240158 0.9362802194115739 
25.004337754240158 0.9328571228706327 
26.004337754240158 0.93005362225639 
27.004337754240158 0.9264721991870406 
28.004337754240158 0.9202468853891059 
29.004337754240158 0.9154310444708146 
30.004337754240158 0.9108412900476438 
31.004337754240158 0.9020283135150114 
32.004337754240154 0.8970959328456632 
33.004337754240154 0.8898867787666226 
34.004337754240154 0.8848533242222482 
35.004337754240154 0.8758615277657142 
36.004337754240154 0.8733619160321358 
37.004337754240154 0.8658934742229977 
38.004337754240154 0.8583888957874709 
39.004337754240154 0.8486421894335909 
40.004337754240154 0.8371339075959228 
41.004337754240154 0.8280182473307416 
42.004337754240154 0.8200860374580661 
43.004337754240154 0.8098894086525414 
44.004337754240154 0.8024639310684697 
45.004337754240154 0.7951813506499696 
46.004337754240154 0.787637743473638 
47.004337754240154 0.7829610021501817 
48.004337754240154 0.7747431370013677 
49.004337754240154 0.7691939813083732 
50.004337754240154 0.7643534604838857 
51.004337754240154 0.7558110025869357 
52.004337754240154 0.7519793379491274 
53.004337754240154 0.7449990083443127 
54.004337754240154 0.7401391697570231 
55.004337754240154 0.7338259318324569 
56.004337754240154 0.7267233422273812 
57.004337754240154 0.7214958385027538 
58.004337754240154 0.7147141387399638 
59.004337754240154 0.7093058279654064 
60.004337754240154 0.6985246581898646 
61.004337754240154 0.6925547732658426 
62.004337754240154 0.6826527393150157 
63.004337754240154 0.678167507952103 
64.00433775424015 0.6670408110315317 
65.00433775424015 0.6601980781739193 
66.00433775424015 0.6507244713713703 
67.00433775424015 0.6424401548532821 
68.00433775424015 0.6298717800752833 
69.00433775424015 0.6247501560001613 
70.00433775424015 0.6160579280413314 
71.00433775424015 0.6084384224475712 
72.00433775424015 0.601246469876215 
73.00433775424015 0.5925625590700561 
74.00433775424015 0.5863988624646155 
75.00433775424015 0.5767476485575952 
76.00433775424015 0.5691850255932139 
77.00433775424015 0.5614997543621506 
78.00433775424015 0.5532088605982807 
79.00433775424015 0.5436336399791852 
80.00433775424015 0.535878646222025 
81.00433775424015 0.5263048957730256 
82.00433775424015 0.5297684543926383 
83.00433775424015 0.5326011942908603 
84.00433775424015 0.560695617723581 
85.00433775424015 0.5750347207088474 
86.00433775424015 0.5641056996575242 
87.00433775424015 0.5904850215719468 
88.00433775424015 0.5641285361012028 
89.00433775424015 0.5151870398171634 
90.00433775424015 0.5143956075510492 
91.00433775424015 0.4854080699013482 
92.00433775424015 0.47467575709834864 
93.00433775424015 0.47285696688529205 
94.00433775424015 0.43350006070455716 
95.00433775424015 0.4088538656814613 
96.00433775424015 0.3844676013964398 
97.00433775424015 0.3722356340791552 
98.00433775424015 0.36182630379949404 
99.00433775424015 0.3346163979882214 
100.00433775424015 0.3504701060456391 
101.00433775424015 0.32526192933618403 
102.00433775424015 0.30485596285759675 
103.00433775424015 0.29633186684346174 
104.00433775424015 0.3091165674165669 
105.00433775424015 0.2766857763828108 
106.00433775424015 0.2788537015210476 
107.00433775424015 0.26123152681275863 
108.00433775424015 0.2540273216044694 
109.00433775424015 0.23770858499842823 
110.00433775424015 0.22942384771363708 
111.00433775424015 0.2234847674899335 
112.00433775424015 0.23541049205917752 
113.00433775424015 0.21715525652794754 
114.00433775424015 0.21728867783184144 
115.00433775424015 0.2131860339390873 
116.00433775424015 0.20121677290146783 
117.00433775424015 0.19807651155605663 
118.00433775424015 0.1989449350972438 
119.00433775424015 0.19837812614680603 
120.00433775424015 0.20181634380831948 
121.00433775424015 0.20041480139598164 
122.00433775424015 0.2035888645014373 
123.00433775424015 0.20146699592971068 
124.00433775424015 0.20260448003193227 
125.00433775424015 0.20297771333215445 
126.00433775424015 0.20295282140127918 
127.00433775424015 0.20232963591561154 
128.00433775424017 0.2006718513493575 
129.00433775424017 0.20043922502916015 
130.00433775424017 0.19893700511911 
131.00433775424017 0.1978388114119496 
132.00433775424017 0.1969914451859434 
133.00433775424017 0.19625789402552782 
134.00433775424017 0.19514314308068095 
135.00433775424017 0.19470313145856702 
136.00433775424017 0.19355958551379585 
137.00433775424017 0.19325196283641108 
138.00433775424017 0.19225182694351944 
139.00433775424017 0.19185624746196694 
140.00433775424017 0.19098633559333336 
141.00433775424017 0.19008005814994655 
142.00433775424017 0.189554500048252 
143.00433775424017 0.18877512139023336 
144.00433775424017 0.18836177319865366 
145.00433775424017 0.18779822138114224 
146.00433775424017 0.18744437752301926 
147.00433775424017 0.1871179918990484 
148.00433775424017 0.18670248396974426 
149.00433775424017 0.18647262514407575 
150.00433775424017 0.18624577719641813 
151.00433775424017 0.18604143410295926 
152.00433775424017 0.18594413030387988 
153.00433775424017 0.1857974461670324 
154.00433775424017 0.1857489399551384 
155.00433775424017 0.18566790201845415 
156.00433775424017 0.18562796580069477 
157.00433775424017 0.1856199785571429 
158.00433775424017 0.18560400407003916 
159.00433775424017 0.18559601682648727 
160.00433775424017 0.18558004233938352 
161.00433775424017 0.18558004233938352 
162.00433775424017 0.18558004233938352 
163.00433775424017 0.18558004233938352 
164.00433775424017 0.18558004233938352 
165.00433775424017 0.18558004233938352 
166.00433775424017 0.18558004233938352 
167.00433775424017 0.18558004233938352 
168.00433775424017 0.18558004233938352 
169.00433775424017 0.18558004233938352 
170.00433775424017 0.18558004233938352 
171.00433775424017 0.18558004233938352 
172.00433775424017 0.18558004233938352 
173.00433775424017 0.18558004233938352 
174.00433775424017 0.18558004233938352 
175.00433775424017 0.18558004233938352 
176.00433775424017 0.18558004233938352 
177.00433775424017 0.18558004233938352 
178.00433775424017 0.18558004233938352 
179.00433775424017 0.18558004233938352 
180.00433775424017 0.18558004233938352 
181.00433775424017 0.18558004233938352 
182.00433775424017 0.18558004233938352 
183.00433775424017 0.18558004233938352 
184.00433775424017 0.18558004233938352 
185.00433775424017 0.18558004233938352 
186.00433775424017 0.18558004233938352 
187.00433775424017 0.18558004233938352 
188.00433775424017 0.18558004233938352 
189.00433775424017 0.18558004233938352 
190.00433775424017 0.18558004233938352 
191.00433775424017 0.18558004233938352 
192.00433775424017 0.18558004233938352 
193.00433775424017 0.18558004233938352 
194.00433775424017 0.18558004233938352 
195.00433775424017 0.18558004233938352 
196.00433775424017 0.18558004233938352 
197.00433775424017 0.18558004233938352 
198.00433775424017 0.18558004233938352 
199.00433775424017 0.18558004233938352 
200.00433775424017 0.18558004233938352 
201.00433775424017 0.18558004233938352 
202.00433775424017 0.18558004233938352 
203.00433775424017 0.18558004233938352 
204.00433775424017 0.18558004233938352 
205.00433775424017 0.18558004233938352 
206.00433775424017 0.18558004233938352 
207.00433775424017 0.18558004233938352 
208.00433775424017 0.18558004233938352 
#####################################################################
# End of data export. Simulation finished at: 2017-05-26T00:47+0000 #
#####################################################################
