#####################################################################
# Alchemist log file - simulation started at: 2017-05-24T18:05+0000 #
#####################################################################
# random = 15.0, targets = 31.622776601683793, density = 14.160781367816199, gridShift = 0.0, perturbation = 0.5, connfactor = 1.0
#
# The columns have the following meaning: 
# time se[Mean] 
0.0 NaN 
1.0001976518064393 NaN 
2.000197651806439 1.0031339059415183 
3.000197651806439 1.0052759984194881 
4.000197651806439 1.0074283563182838 
5.000197651806439 1.0084325183844451 
6.000197651806439 1.003209756139988 
7.000197651806439 1.0016069084171648 
8.000197651806438 0.9997328394023339 
9.000197651806438 0.9974828790555853 
10.000197651806438 0.9972305500660401 
11.000197651806438 0.9967577294482208 
12.000197651806438 0.9962461602028206 
13.000197651806438 0.9953893388217672 
14.000197651806438 0.9955471999935274 
15.000197651806438 0.9933029516565638 
16.000197651806438 0.9927310740151416 
17.000197651806438 0.9906844897325162 
18.000197651806438 0.9881352951014437 
19.000197651806438 0.9875497094940866 
20.000197651806438 0.9845536241920384 
21.000197651806438 0.9840873358232994 
22.000197651806438 0.9799492753779205 
23.000197651806438 0.9787381309508938 
24.000197651806438 0.977210483263681 
25.000197651806438 0.9770632442423534 
26.000197651806438 0.9763974096553648 
27.000197651806438 0.978074613912347 
28.000197651806438 0.9784393918196029 
29.000197651806438 0.9773994162096185 
30.000197651806438 0.9797814869988042 
31.000197651806438 0.9804633650023901 
32.00019765180644 0.9806441887703099 
33.00019765180644 0.9833266715629524 
34.00019765180644 0.9852724952809984 
35.00019765180644 0.9893833922190289 
36.00019765180644 0.9899037658388216 
37.00019765180644 0.9979552842271524 
38.00019765180644 1.0015285549906174 
39.00019765180644 1.0018014129704 
40.00019765180644 1.0070671828940192 
41.00019765180644 1.008501055893771 
42.00019765180644 1.015275419906173 
43.00019765180644 1.0135303938787683 
44.00019765180644 1.0275837476350675 
45.00019765180644 1.0280086864028313 
46.00019765180644 1.027548275715581 
47.00019765180644 1.0195397710972467 
48.00019765180644 1.0339989447677922 
49.00019765180644 1.0317401810705102 
50.00019765180644 1.0262266847823311 
51.00019765180644 1.0284216017808936 
52.00019765180644 1.0266359446883688 
53.00019765180644 1.025405727348216 
54.00019765180644 1.0145735557092097 
55.00019765180644 1.0142694110502704 
56.00019765180644 1.0158354893538353 
57.00019765180644 1.0148101827218514 
58.00019765180644 1.0051523299079554 
59.00019765180644 1.0023921028835523 
60.00019765180644 1.0031259151963279 
61.00019765180644 0.9981797355945624 
62.00019765180644 0.9876138142585587 
63.00019765180644 0.9825139200049882 
64.00019765180645 0.9829852388789344 
65.00019765180645 0.9808627154329902 
66.00019765180645 0.9749765415639233 
67.00019765180645 0.9735876770383735 
68.00019765180645 0.9718461974782204 
69.00019765180645 0.973277270067483 
70.00019765180645 0.9669342185582517 
71.00019765180645 0.9633673299057092 
72.00019765180645 0.9631381032225729 
73.00019765180645 0.9610912769559952 
74.00019765180645 0.9562079035534138 
75.00019765180645 0.9573379853899393 
76.00019765180645 0.9598784855862658 
77.00019765180645 0.9526361384039578 
78.00019765180645 0.9563532829237531 
79.00019765180645 0.9544305741703886 
80.00019765180645 0.9501276713854846 
81.00019765180645 0.9527534718604804 
82.00019765180645 0.9511521273906596 
83.00019765180645 0.9489877833867387 
84.00019765180645 0.9448576065428564 
85.00019765180645 0.942423125061884 
86.00019765180645 0.9391485166165356 
87.00019765180645 0.9326358783278317 
88.00019765180645 0.926618240524687 
89.00019765180645 0.9223466991050749 
90.00019765180645 0.9153307680304698 
91.00019765180645 0.9105375162373212 
92.00019765180645 0.9052379597100166 
93.00019765180645 0.9014429428159649 
94.00019765180645 0.8927404616772721 
95.00019765180645 0.8815094903677843 
96.00019765180645 0.878262446042398 
97.00019765180645 0.8707721652495057 
98.00019765180645 0.8640917256227851 
99.00019765180645 0.8551812328764784 
100.00019765180645 0.8467359339900867 
101.00019765180645 0.8433358135540021 
102.00019765180645 0.8347126942607869 
103.00019765180645 0.8255989065879442 
104.00019765180645 0.8220714165065314 
105.00019765180645 0.8207569054948852 
106.00019765180645 0.8138571142915045 
107.00019765180645 0.8058753011609964 
108.00019765180645 0.7912855510248247 
109.00019765180645 0.7964173347095537 
110.00019765180645 0.7817662877740312 
111.00019765180645 0.7713248225949823 
112.00019765180645 0.7623631317695954 
113.00019765180645 0.760263564761318 
114.00019765180645 0.7448289599262049 
115.00019765180645 0.7353845836651213 
116.00019765180645 0.7325636693087842 
117.00019765180645 0.723886167561774 
118.00019765180645 0.7197131553078656 
119.00019765180645 0.7184017967812797 
120.00019765180645 0.7106658795616884 
121.00019765180645 0.7026162304903607 
122.00019765180645 0.6920297901210974 
123.00019765180645 0.6966226032212387 
124.00019765180645 0.7019448777374597 
125.00019765180645 0.6870310675596173 
126.00019765180645 0.7132565152656161 
127.00019765180645 0.7182165621152359 
128.00019765180645 0.7045959774421402 
129.00019765180645 0.7138301447807672 
130.00019765180645 0.7013432658695327 
131.00019765180645 0.7231065708431965 
132.00019765180645 0.7042261763160346 
133.00019765180645 0.7446784146422656 
134.00019765180645 0.7553841782599285 
135.00019765180645 0.7435150185172135 
136.00019765180645 0.6942199696698421 
137.00019765180645 0.7682655363625016 
138.00019765180645 0.7445829157780017 
139.00019765180645 0.7323622665169278 
140.00019765180645 0.7411521414143412 
141.00019765180645 0.7597523599796208 
142.00019765180645 0.7615501189917987 
143.00019765180645 0.7372419373785931 
144.00019765180645 0.7602471673922291 
145.00019765180645 0.7834630400084158 
146.00019765180645 0.7898606210617084 
147.00019765180645 0.7947582373631583 
148.00019765180645 0.7787721892677846 
149.00019765180645 0.780191976320892 
150.00019765180645 0.8082713296228649 
151.00019765180645 0.8145010048030801 
152.00019765180645 0.8301632272257963 
153.00019765180645 0.8252596491333422 
154.00019765180645 0.8269998137701018 
155.00019765180645 0.819325665230074 
156.00019765180645 0.812832493178756 
157.00019765180645 0.7909499729469539 
158.00019765180645 0.8354384293234003 
159.00019765180645 0.8333491921018121 
160.00019765180645 0.8731764881114816 
161.00019765180645 0.8520009991585354 
162.00019765180645 0.8172925757641617 
163.00019765180645 0.8598175911272773 
164.00019765180645 0.8223752086061673 
165.00019765180645 0.8506760775292307 
166.00019765180645 0.8324546571824543 
167.00019765180645 0.8020494140687388 
168.00019765180645 0.8003791813978188 
169.00019765180645 0.8173652929235465 
170.00019765180645 0.8077630291776166 
171.00019765180645 0.8391547854921945 
172.00019765180645 0.817867791899543 
173.00019765180645 0.8138709224835995 
174.00019765180645 0.8250573183324248 
175.00019765180645 0.7815115249064272 
176.00019765180645 0.8359541739238042 
177.00019765180645 0.7996386944824115 
178.00019765180645 0.8157854321079013 
179.00019765180645 0.7663912960157228 
180.00019765180645 0.7820863483061442 
181.00019765180645 0.7509028366973433 
182.00019765180645 0.7198397474008336 
183.00019765180645 0.6743029697730057 
184.00019765180645 0.6926870821686598 
185.00019765180645 0.6952286276538746 
186.00019765180645 0.6507983954204755 
187.00019765180645 0.6531147832764396 
188.00019765180645 0.6408750326187775 
189.00019765180645 0.6262907135880843 
190.00019765180645 0.6216077010321288 
191.00019765180645 0.6141028509702774 
192.00019765180645 0.6131583631514208 
193.00019765180645 0.6143145194403832 
194.00019765180645 0.6118749293968606 
195.00019765180645 0.6119969171083178 
196.00019765180645 0.6097335404741278 
197.00019765180645 0.6081050148143659 
198.00019765180645 0.6079926329151683 
199.00019765180645 0.6065837209979299 
200.00019765180645 0.5991258063437442 
201.00019765180645 0.6076771901197945 
202.00019765180645 0.6031520015406894 
203.00019765180645 0.6100882016409088 
204.00019765180645 0.6090547267836394 
205.00019765180645 0.5983055119550638 
206.00019765180645 0.6079615918601255 
207.00019765180645 0.5982858268075641 
208.00019765180645 0.603796504128458 
209.00019765180645 0.5998172012257342 
210.00019765180645 0.5921019359539182 
211.00019765180645 0.5901797735069326 
212.00019765180645 0.6042625295131261 
213.00019765180645 0.6223725987682234 
214.00019765180645 0.6066660402484575 
215.00019765180645 0.6690268363082874 
216.00019765180645 0.6921485218280327 
217.00019765180645 0.6726836750093834 
218.00019765180645 0.6957600126629506 
219.00019765180645 0.6953133985595258 
220.00019765180645 0.7426038185361663 
221.00019765180645 0.7023009351792671 
222.00019765180645 0.8065267118326795 
223.00019765180645 0.8222991305798024 
224.00019765180645 0.8065563023501959 
225.00019765180645 0.7116301632996888 
226.00019765180645 0.8587706116959342 
227.00019765180645 0.8302066264334812 
228.00019765180645 0.7969784436937383 
229.00019765180645 0.8104492364885489 
230.00019765180645 0.8460685523726306 
231.00019765180645 0.8565154135299792 
232.00019765180645 0.7962986826806662 
233.00019765180645 0.8396994816057471 
234.00019765180645 0.8623704320409628 
235.00019765180645 0.8959897860091776 
236.00019765180645 0.895750997752414 
237.00019765180645 0.8603331715764516 
238.00019765180645 0.8586114853420149 
239.00019765180645 0.9032067086909473 
240.00019765180645 0.9261803564111358 
241.00019765180645 0.9370522700947073 
242.00019765180645 0.9364674632006522 
243.00019765180645 0.9353681087866706 
244.00019765180645 0.9345795228578665 
245.00019765180645 0.9104364517239011 
246.00019765180645 0.8630695270748587 
247.00019765180645 0.9521708876191743 
248.00019765180645 0.9420915902425668 
249.00019765180645 1.020911711099972 
250.00019765180645 0.987504896543585 
251.00019765180645 0.9056103508486787 
252.00019765180645 0.9938100486152504 
253.00019765180645 0.9147564255273882 
254.00019765180645 0.9688920635766565 
255.00019765180645 0.9121453209267194 
256.00019765180645 0.8299606893352255 
257.00019765180645 0.8278028581353641 
258.00019765180645 0.8609426706944308 
259.00019765180645 0.8388329716807674 
260.00019765180645 0.906029776405835 
261.00019765180645 0.8613602543371865 
262.00019765180645 0.8595626431774873 
263.00019765180645 0.8815440869594581 
264.00019765180645 0.8127234077956502 
265.00019765180645 0.9129147480694546 
266.00019765180645 0.8343885996677728 
267.00019765180645 0.8659240355961773 
268.00019765180645 0.7857248360618876 
269.00019765180645 0.7941119014175196 
270.00019765180645 0.7367721472242108 
271.00019765180645 0.6772585544325254 
272.00019765180645 0.5842305395594352 
273.00019765180645 0.615701758260401 
274.00019765180645 0.6280027774552568 
275.00019765180645 0.5482684054202495 
276.00019765180645 0.5577460484340302 
277.00019765180645 0.5351053376109984 
278.00019765180645 0.5120116931370766 
279.00019765180645 0.5113634261161635 
280.00019765180645 0.5113071456506249 
281.00019765180645 0.5116402809970014 
282.00019765180645 0.5116360445056722 
283.00019765180645 0.5117130328376819 
284.00019765180645 0.5117900211696916 
285.00019765180645 0.5117900211696916 
286.00019765180645 0.5117900211696916 
287.00019765180645 0.5117900211696916 
288.00019765180645 0.5117900211696916 
289.00019765180645 0.5117900211696916 
290.00019765180645 0.5117900211696916 
291.00019765180645 0.5117900211696916 
292.00019765180645 0.5117900211696916 
293.00019765180645 0.5117900211696916 
294.00019765180645 0.5117900211696916 
295.00019765180645 0.5117900211696916 
296.00019765180645 0.5117900211696916 
297.00019765180645 0.5117900211696916 
298.00019765180645 0.5117900211696916 
299.00019765180645 0.5117900211696916 
300.00019765180645 0.5117900211696916 
301.00019765180645 0.5117900211696916 
302.00019765180645 0.5117900211696916 
303.00019765180645 0.5117900211696916 
304.00019765180645 0.5117900211696916 
305.00019765180645 0.5117900211696916 
306.00019765180645 0.5117900211696916 
307.00019765180645 0.5117900211696916 
308.00019765180645 0.5117900211696916 
309.00019765180645 0.5117900211696916 
310.00019765180645 0.5117900211696916 
311.00019765180645 0.5117900211696916 
312.00019765180645 0.5117900211696916 
313.00019765180645 0.5117900211696916 
314.00019765180645 0.5117900211696916 
315.00019765180645 0.5117900211696916 
316.00019765180645 0.5117900211696916 
317.00019765180645 0.5117900211696916 
318.00019765180645 0.5117900211696916 
319.00019765180645 0.5117900211696916 
320.00019765180645 0.5117900211696916 
321.00019765180645 0.5117900211696916 
322.00019765180645 0.5117900211696916 
323.00019765180645 0.5117900211696916 
324.00019765180645 0.5117900211696916 
325.00019765180645 0.5117900211696916 
326.00019765180645 0.5117900211696916 
327.00019765180645 0.5117900211696916 
328.00019765180645 0.5117900211696916 
329.00019765180645 0.5117900211696916 
330.00019765180645 0.5117900211696916 
331.00019765180645 0.5117900211696916 
332.00019765180645 0.5117900211696916 
333.00019765180645 0.5117900211696916 
334.00019765180645 0.5117900211696916 
335.00019765180645 0.5117900211696916 
336.00019765180645 0.5117900211696916 
337.00019765180645 0.5117900211696916 
338.00019765180645 0.5117900211696916 
339.00019765180645 0.5117900211696916 
340.00019765180645 0.5117900211696916 
341.00019765180645 0.5117900211696916 
342.00019765180645 0.5117900211696916 
343.00019765180645 0.5117900211696916 
344.00019765180645 0.5117900211696916 
345.00019765180645 0.5117900211696916 
346.00019765180645 0.5117900211696916 
347.00019765180645 0.5117900211696916 
348.00019765180645 0.5117900211696916 
349.00019765180645 0.5117900211696916 
350.00019765180645 0.5117900211696916 
351.00019765180645 0.5117900211696916 
352.00019765180645 0.5117900211696916 
353.00019765180645 0.5117900211696916 
354.00019765180645 0.5117900211696916 
355.00019765180645 0.5117900211696916 
356.00019765180645 0.5117900211696916 
357.00019765180645 0.5117900211696916 
358.00019765180645 0.5117900211696916 
359.00019765180645 0.5117900211696916 
360.00019765180645 0.5117900211696916 
361.00019765180645 0.5117900211696916 
362.00019765180645 0.5117900211696916 
363.00019765180645 0.5117900211696916 
364.00019765180645 0.5117900211696916 
365.00019765180645 0.5117900211696916 
366.00019765180645 0.5117900211696916 
367.00019765180645 0.5117900211696916 
368.00019765180645 0.5117900211696916 
369.00019765180645 0.5117900211696916 
370.00019765180645 0.5117900211696916 
371.00019765180645 0.5117900211696916 
372.00019765180645 0.5117900211696916 
373.00019765180645 0.5117900211696916 
#####################################################################
# End of data export. Simulation finished at: 2017-05-24T18:10+0000 #
#####################################################################
