#####################################################################
# Alchemist log file - simulation started at: 2017-05-23T13:42+0000 #
#####################################################################
# random = 12.0, targets = 1.0, density = 0.2247883923996312, gridShift = 0.0, perturbation = 0.0, connfactor = 1.0
#
# The columns have the following meaning: 
# time se[Mean] 
0.0 NaN 
1.0242474491697862 NaN 
2.024247449169786 1.0 
3.024247449169786 1.0 
4.024247449169787 1.3125 
5.024247449169787 2.604359567901235 
6.024247449169787 3.0659722222222223 
7.024247449169787 3.2424768518518516 
8.024247449169787 3.191550925925926 
9.024247449169787 1.3493441358024694 
10.024247449169787 1.427276234567901 
11.024247449169787 0.8923611111111113 
12.024247449169787 0.39351851851851855 
13.024247449169787 0.14293981481481485 
14.024247449169787 0.03202160493827158 
15.024247449169787 0.00347222222222221 
16.024247449169785 0.005208333333333315 
17.024247449169785 1.1093356479670479E-31 
18.024247449169785 1.1093356479670479E-31 
19.024247449169785 1.1093356479670479E-31 
20.024247449169785 1.1093356479670479E-31 
21.024247449169785 1.1093356479670479E-31 
22.024247449169785 1.1093356479670479E-31 
23.024247449169785 1.1093356479670479E-31 
24.024247449169785 1.1093356479670479E-31 
25.024247449169785 1.1093356479670479E-31 
#####################################################################
# End of data export. Simulation finished at: 2017-05-23T13:42+0000 #
#####################################################################
