#####################################################################
# Alchemist log file - simulation started at: 2017-05-25T21:52+0000 #
#####################################################################
# random = 19.0, targets = 3.1622776601683795, density = 3.5589026259761294, gridShift = 1.0, perturbation = 0.0, connfactor = 1.0
#
# The columns have the following meaning: 
# time se[Mean] 
0.0 NaN 
1.004337754240159 NaN 
2.004337754240159 1.0081633436846134 
3.004337754240159 1.0144484887816791 
4.004337754240159 1.0240192575572555 
5.004337754240159 1.0368497684068494 
6.004337754240159 1.0385502911596671 
7.004337754240159 1.0368672592158321 
8.004337754240158 1.0177872848881746 
9.004337754240158 1.011767260453826 
10.004337754240158 1.0014424251427831 
11.004337754240158 0.9828045427030724 
12.004337754240158 0.9657951382109928 
13.004337754240158 0.9351360884967126 
14.004337754240158 0.9074982371907986 
15.004337754240158 0.8825486326569558 
16.004337754240158 0.8822324487862903 
17.004337754240158 0.8739054200707482 
18.004337754240158 0.8670970382670761 
19.004337754240158 0.8760494301051225 
20.004337754240158 0.8690717678706934 
21.004337754240158 0.8925775703019981 
22.004337754240158 0.8974881673144944 
23.004337754240158 0.9168283576891505 
24.004337754240158 0.9122073629417908 
25.004337754240158 0.9367351571838879 
26.004337754240158 0.9380698328601639 
27.004337754240158 0.9443780595575764 
28.004337754240158 0.9524973308276784 
29.004337754240158 0.9540299685433488 
30.004337754240158 0.9753281023221391 
31.004337754240158 0.9672703896670689 
32.004337754240154 0.9731945830863845 
33.004337754240154 0.9722061682830213 
34.004337754240154 0.9723173901039286 
35.004337754240154 0.9674620563055993 
36.004337754240154 0.959139927597312 
37.004337754240154 0.9499755829160713 
38.004337754240154 0.9410280818683532 
39.004337754240154 0.9335474691319835 
40.004337754240154 0.9216200374778024 
41.004337754240154 0.9069547050626001 
42.004337754240154 0.8999630474159072 
43.004337754240154 0.8841714967709058 
44.004337754240154 0.8702630355037789 
45.004337754240154 0.8706163194293746 
46.004337754240154 0.8836483476251084 
47.004337754240154 0.8397851892801917 
48.004337754240154 0.8397285583231979 
49.004337754240154 0.8376104575440986 
50.004337754240154 0.8267952855751611 
51.004337754240154 0.7895432423870951 
52.004337754240154 0.7971596230652827 
53.004337754240154 0.7495876399649651 
54.004337754240154 0.7231501655225369 
55.004337754240154 0.7237972425025604 
56.004337754240154 0.6725360162420069 
57.004337754240154 0.6654058874270868 
58.004337754240154 0.6398267197645229 
59.004337754240154 0.6228312968593172 
60.004337754240154 0.5997389047073209 
61.004337754240154 0.5728795877139016 
62.004337754240154 0.5772942941448481 
63.004337754240154 0.560871775760588 
64.00433775424015 0.5179200874065939 
65.00433775424015 0.5247410876627758 
66.00433775424015 0.5155200797652947 
67.00433775424015 0.5058695707815952 
68.00433775424015 0.496736003103638 
69.00433775424015 0.5042446297068548 
70.00433775424015 0.45601367421735894 
71.00433775424015 0.4889329479634478 
72.00433775424015 0.4680852738257956 
73.00433775424015 0.44716555027449323 
74.00433775424015 0.43949327550805695 
75.00433775424015 0.4311221835949302 
76.00433775424015 0.4376934678196599 
77.00433775424015 0.42953293335611886 
78.00433775424015 0.4067175342336772 
79.00433775424015 0.38352158801292935 
80.00433775424015 0.374106831907663 
81.00433775424015 0.36665702382535903 
82.00433775424015 0.3513747236916265 
83.00433775424015 0.3404616022706915 
84.00433775424015 0.32764861448932653 
85.00433775424015 0.3472665900638456 
86.00433775424015 0.3907989244263591 
87.00433775424015 0.32134611683718683 
88.00433775424015 0.33889492718666453 
89.00433775424015 0.3502761004439202 
90.00433775424015 0.3683201843262572 
91.00433775424015 0.29274170283933826 
92.00433775424015 0.3393449356838031 
93.00433775424015 0.25420755778814497 
94.00433775424015 0.24517407643300332 
95.00433775424015 0.25261907667732536 
96.00433775424015 0.1741375955709934 
97.00433775424015 0.1968509512298835 
98.00433775424015 0.19812412359269244 
99.00433775424015 0.22522343494693586 
100.00433775424015 0.17147894700638752 
101.00433775424015 0.1502731672797667 
102.00433775424015 0.21926088894145454 
103.00433775424015 0.2309659368638495 
104.00433775424015 0.13108692644002068 
105.00433775424015 0.19006455979154957 
106.00433775424015 0.14253593988778082 
107.00433775424015 0.14227574227463688 
108.00433775424015 0.15638430245197615 
109.00433775424015 0.14267868940610812 
110.00433775424015 0.06881467999963548 
111.00433775424015 0.16361664063513892 
112.00433775424015 0.12152394062819047 
113.00433775424015 0.09878197709608046 
114.00433775424015 0.071200033703806 
115.00433775424015 0.10711600121352312 
116.00433775424015 0.13728264191758144 
117.00433775424015 0.09727240715536593 
118.00433775424015 0.08760508892986502 
119.00433775424015 0.05585823809044266 
120.00433775424015 0.050148074475113456 
121.00433775424015 0.04753538173033712 
122.00433775424015 0.06500649196477351 
123.00433775424015 0.0044339668899694715 
124.00433775424015 0.06562346890023106 
125.00433775424015 0.043820933924326656 
126.00433775424015 0.023170507999641467 
127.00433775424015 0.02328382982365757 
128.00433775424017 0.022748697707896306 
129.00433775424017 0.04286399151682 
130.00433775424017 0.042863991516819994 
131.00433775424017 0.0227486977078963 
132.00433775424017 0.002633403898972407 
133.00433775424017 0.002633403898972407 
134.00433775424017 0.002633403898972407 
135.00433775424017 0.002633403898972407 
136.00433775424017 0.002633403898972407 
137.00433775424017 0.002633403898972407 
138.00433775424017 0.002633403898972407 
139.00433775424017 0.002633403898972407 
140.00433775424017 0.002633403898972407 
141.00433775424017 0.002633403898972407 
142.00433775424017 0.002633403898972407 
143.00433775424017 0.002633403898972407 
144.00433775424017 0.002633403898972407 
145.00433775424017 0.002633403898972407 
146.00433775424017 0.002633403898972407 
147.00433775424017 0.002633403898972407 
148.00433775424017 0.002633403898972407 
149.00433775424017 0.002633403898972407 
150.00433775424017 0.002633403898972407 
151.00433775424017 0.002633403898972407 
152.00433775424017 0.002633403898972407 
153.00433775424017 0.002633403898972407 
154.00433775424017 0.002633403898972407 
155.00433775424017 0.002633403898972407 
156.00433775424017 0.002633403898972407 
157.00433775424017 0.002633403898972407 
158.00433775424017 0.002633403898972407 
159.00433775424017 0.002633403898972407 
160.00433775424017 0.002633403898972407 
161.00433775424017 0.002633403898972407 
162.00433775424017 0.002633403898972407 
163.00433775424017 0.002633403898972407 
164.00433775424017 0.002633403898972407 
165.00433775424017 0.002633403898972407 
166.00433775424017 0.002633403898972407 
167.00433775424017 0.002633403898972407 
168.00433775424017 0.002633403898972407 
169.00433775424017 0.002633403898972407 
170.00433775424017 0.002633403898972407 
#####################################################################
# End of data export. Simulation finished at: 2017-05-25T21:52+0000 #
#####################################################################
