#####################################################################
# Alchemist log file - simulation started at: 2017-05-20T22:31+0000 #
#####################################################################
# random = 1.0, targets = 100.0, density = 1.7841466528270753, gridShift = 0.0, perturbation = 0.0, connfactor = 0.75
#
# The columns have the following meaning: 
# time se[Mean] 
0.0 NaN 
1.0048855897957667 NaN 
2.0048855897957667 1.0086077777777778 
3.0048855897957667 1.0142975987654321 
4.004885589795767 1.0245163302469136 
5.004885589795767 1.0414040432098766 
6.004885589795767 1.038357361111111 
7.004885589795767 1.0898440524691357 
8.004885589795766 1.088586648148148 
9.004885589795766 1.1066264413580247 
10.004885589795766 1.0898689074074073 
11.004885589795766 1.1023163271604937 
12.004885589795766 1.0704132932098764 
13.004885589795766 1.0665636450617284 
14.004885589795766 1.0499643148148148 
15.004885589795766 1.0524998827160494 
16.004885589795766 1.0481272685185186 
17.004885589795766 1.0373073703703704 
18.004885589795766 1.0520223888888889 
19.004885589795766 1.0418482407407408 
20.004885589795766 1.0595451327160494 
21.004885589795766 1.0447308271604938 
22.004885589795766 1.0426259814814816 
23.004885589795766 1.0431977962962964 
24.004885589795766 1.0337869074074075 
25.004885589795766 1.033946888888889 
26.004885589795766 1.0299635432098766 
27.004885589795766 1.0380371080246913 
28.004885589795766 1.0368759320987655 
29.004885589795766 1.0177656080246913 
30.004885589795766 1.0112916728395063 
31.004885589795766 1.0063623518518519 
32.00488558979576 1.0099666666666667 
33.00488558979576 1.008760561728395 
34.00488558979576 1.0519634290123456 
35.00488558979576 0.9945057098765432 
36.00488558979576 0.9729247037037037 
37.00488558979576 0.9722178549382715 
38.00488558979576 0.9543279074074074 
39.00488558979576 0.9692878271604938 
40.00488558979576 0.9767636018518517 
41.00488558979576 1.013055972222222 
42.00488558979576 1.0333721172839505 
43.00488558979576 1.0449115339506174 
44.00488558979576 1.0608007222222222 
45.00488558979576 1.1010315061728395 
46.00488558979576 1.100676413580247 
47.00488558979576 1.11144562654321 
48.00488558979576 1.0850934290123455 
49.00488558979576 0.9903388456790122 
50.00488558979576 0.9360579228395061 
51.00488558979576 0.8827111296296296 
52.00488558979576 0.8405062037037037 
53.00488558979576 0.8356663888888889 
54.00488558979576 0.8340578734567902 
55.00488558979576 0.8292796851851851 
56.00488558979576 0.8274567561728395 
57.00488558979576 0.8256878734567901 
58.00488558979576 0.8214001172839507 
59.00488558979576 0.8198389444444444 
60.00488558979576 0.8151039043209877 
61.00488558979576 0.8153465092592592 
62.00488558979576 0.8163304074074074 
63.00488558979576 0.814249787037037 
64.00488558979576 0.8147335648148148 
65.00488558979576 0.8125832808641975 
66.00488558979576 0.8117794598765432 
67.00488558979576 0.8101318641975309 
68.00488558979576 0.8092689320987655 
69.00488558979576 0.8097535679012345 
70.00488558979576 0.8088995555555556 
71.00488558979576 0.8094978024691358 
72.00488558979576 0.8096722592592593 
73.00488558979576 0.8098673086419753 
74.00488558979576 0.81 
75.00488558979576 0.8099866790123458 
76.00488558979576 0.81 
77.00488558979576 0.81 
78.00488558979576 0.81 
79.00488558979576 0.81 
80.00488558979576 0.81 
81.00488558979576 0.81 
82.00488558979576 0.81 
83.00488558979576 0.81 
84.00488558979576 0.81 
85.00488558979576 0.81 
86.00488558979576 0.81 
87.00488558979576 0.81 
88.00488558979576 0.81 
89.00488558979576 0.81 
90.00488558979576 0.81 
91.00488558979576 0.81 
92.00488558979576 0.81 
93.00488558979576 0.81 
94.00488558979576 0.81 
95.00488558979576 0.81 
96.00488558979576 0.81 
97.00488558979576 0.81 
98.00488558979576 0.81 
99.00488558979576 0.81 
100.00488558979576 0.81 
101.00488558979576 0.81 
102.00488558979576 0.81 
103.00488558979576 0.81 
104.00488558979576 0.81 
105.00488558979576 0.81 
106.00488558979576 0.81 
107.00488558979576 0.81 
#####################################################################
# End of data export. Simulation finished at: 2017-05-20T22:34+0000 #
#####################################################################
