#####################################################################
# Alchemist log file - simulation started at: 2017-05-22T17:36+0000 #
#####################################################################
# random = 4.0, targets = 10.0, density = 0.894427190999916, gridShift = 1.0, perturbation = 0.5, connfactor = 1.5
#
# The columns have the following meaning: 
# time se[Mean] 
0.0 NaN 
1.0048193674555734 NaN 
2.0048193674555734 1.0620208333333334 
3.0048193674555734 1.1008472222222223 
4.004819367455573 1.1487824074074073 
5.004819367455573 1.1674606481481482 
6.004819367455573 1.122226851851852 
7.004819367455573 1.147351851851852 
8.004819367455573 1.0406464120370371 
9.004819367455573 1.064675925925926 
10.004819367455573 1.0432361111111113 
11.004819367455573 1.0739346064814816 
12.004819367455573 1.0467037037037037 
13.004819367455573 1.1060752314814817 
14.004819367455573 1.0753188657407409 
15.004819367455573 1.1443900462962964 
16.004819367455575 1.0737546296296296 
17.004819367455575 1.2024270833333335 
18.004819367455575 1.1869936342592595 
19.004819367455575 1.210965277777778 
20.004819367455575 1.0609328703703707 
21.004819367455575 1.1450810185185187 
22.004819367455575 1.1195208333333335 
23.004819367455575 1.0564583333333335 
24.004819367455575 0.9135231481481484 
25.004819367455575 1.0351458333333337 
26.004819367455575 0.8717083333333335 
27.004819367455575 0.8510277777777779 
28.004819367455575 0.7581226851851854 
29.004819367455575 0.7619282407407412 
30.004819367455575 0.6534560185185189 
31.004819367455575 0.6228402777777781 
32.004819367455575 0.607766203703704 
33.004819367455575 0.5657268518518522 
34.004819367455575 0.55025462962963 
35.004819367455575 0.5666851851851856 
36.004819367455575 0.5253773148148153 
37.004819367455575 0.5139722222222226 
38.004819367455575 0.5171481481481486 
39.004819367455575 0.508206018518519 
40.004819367455575 0.46787500000000043 
41.004819367455575 0.48202314814814856 
42.004819367455575 0.470842592592593 
43.004819367455575 0.44689351851851894 
44.004819367455575 0.468717592592593 
45.004819367455575 0.4462847222222226 
46.004819367455575 0.4330879629629634 
47.004819367455575 0.4402129629629634 
48.004819367455575 0.42004166666666715 
49.004819367455575 0.4106620370370375 
50.004819367455575 0.4319398148148153 
51.004819367455575 0.4202523148148153 
52.004819367455575 0.4243495370370375 
53.004819367455575 0.4338356481481486 
54.004819367455575 0.4553425925925931 
55.004819367455575 0.4653865740740745 
56.004819367455575 0.48070833333333385 
57.004819367455575 0.4888750000000005 
58.004819367455575 0.4900000000000005 
59.004819367455575 0.4900000000000005 
60.004819367455575 0.4900000000000005 
61.004819367455575 0.4900000000000005 
62.004819367455575 0.4900000000000005 
63.004819367455575 0.4900000000000005 
64.00481936745558 0.4900000000000005 
65.00481936745558 0.4900000000000005 
66.00481936745558 0.4900000000000005 
67.00481936745558 0.4900000000000005 
68.00481936745558 0.4900000000000005 
69.00481936745558 0.4900000000000005 
70.00481936745558 0.4900000000000005 
71.00481936745558 0.4900000000000005 
72.00481936745558 0.4900000000000005 
73.00481936745558 0.4900000000000005 
74.00481936745558 0.4900000000000005 
75.00481936745558 0.4900000000000005 
76.00481936745558 0.4900000000000005 
#####################################################################
# End of data export. Simulation finished at: 2017-05-22T17:36+0000 #
#####################################################################
