#####################################################################
# Alchemist log file - simulation started at: 2017-05-21T22:06+0000 #
#####################################################################
# random = 3.0, targets = 3.1622776601683795, density = 0.1591589639397027, gridShift = 0.0, perturbation = 0.0, connfactor = 2.0
#
# The columns have the following meaning: 
# time se[Mean] 
0.0 NaN 
1.0016359619213666 NaN 
2.001635961921367 1.6742099788303084 
3.001635961921367 1.866269788548716 
4.001635961921367 3.9569182057077805 
5.001635961921367 2.7671878604274145 
6.001635961921367 13.739159695352946 
7.001635961921367 15.859868461605005 
8.001635961921366 15.998415200620807 
9.001635961921366 15.23687895304408 
10.001635961921366 8.255806632275597 
11.001635961921366 6.91691364333088 
12.001635961921366 5.877513435692222 
13.001635961921366 4.749528720668736 
14.001635961921366 3.393519153871805 
15.001635961921366 7.610241355816083 
16.001635961921366 3.317351505787424 
17.001635961921366 3.286657022816223 
18.001635961921366 0.11041840037069046 
19.001635961921366 0.0745428903984549 
20.001635961921366 0.04684399915737803 
21.001635961921366 0.014002003391316365 
22.001635961921366 0.004387850695604816 
23.001635961921366 0.0033351826176253705 
24.001635961921366 0.002633403898972407 
25.001635961921366 0.002633403898972407 
26.001635961921366 0.002633403898972407 
27.001635961921366 0.002633403898972407 
28.001635961921366 0.002633403898972407 
29.001635961921366 0.002633403898972407 
30.001635961921366 0.002633403898972407 
#####################################################################
# End of data export. Simulation finished at: 2017-05-21T22:06+0000 #
#####################################################################
