#####################################################################
# Alchemist log file - simulation started at: 2017-05-25T09:09+0000 #
#####################################################################
# random = 8.0, targets = 1.0, density = 14.160781367816199, gridShift = 1.0, perturbation = 0.5, connfactor = 1.5
#
# The columns have the following meaning: 
# time se[Mean] 
0.0 NaN 
1.0009270308328329 NaN 
2.000927030832833 1.0277777777777772 
3.000927030832833 1.0412992357436808 
4.000927030832833 1.0828556731334504 
5.000927030832833 1.0826535861258086 
6.000927030832833 1.058054085831864 
7.000927030832833 1.0285861258083475 
8.000927030832834 1.0708406819517933 
9.000927030832834 1.0827821869488532 
10.000927030832834 1.0891571134626699 
11.000927030832834 1.1130401234567906 
12.000927030832834 1.0889550264550278 
13.000927030832834 1.1305665784832457 
14.000927030832834 1.0937500000000007 
15.000927030832834 1.101521164021164 
16.000927030832834 1.0864748677248683 
17.000927030832834 1.0584398883009993 
18.000927030832834 1.0469944150499697 
19.000927030832834 1.026326425631981 
20.000927030832834 1.016773221634333 
21.000927030832834 0.9750514403292184 
22.000927030832834 0.9968768371546151 
23.000927030832834 1.0041887125220461 
24.000927030832834 0.9659758965314519 
25.000927030832834 1.0014880952380953 
26.000927030832834 0.9667107583774255 
27.000927030832834 0.9831532921810701 
28.000927030832834 0.9566247795414463 
29.000927030832834 0.9524728101116994 
30.000927030832834 0.924052028218695 
31.000927030832834 0.8998750734861841 
32.000927030832834 0.9116328630217523 
33.000927030832834 0.8750918577307467 
34.000927030832834 0.8782701352145801 
35.000927030832834 0.8768004115226341 
36.000927030832834 0.8521457965902407 
37.000927030832834 0.8597516166960616 
38.000927030832834 0.8486184597295704 
39.000927030832834 0.849849353321576 
40.000927030832834 0.8566651969429742 
41.000927030832834 0.8511537330981772 
42.000927030832834 0.8679269547325101 
43.000927030832834 0.8654835390946494 
44.000927030832834 0.8731628453850673 
45.000927030832834 0.8727586713697828 
46.000927030832834 0.8744855967078193 
47.000927030832834 0.8813198118753671 
48.000927030832834 0.8772780717225155 
49.000927030832834 0.8801991475602584 
50.000927030832834 0.8831753380364491 
51.000927030832834 0.8805849500293953 
52.000927030832834 0.8801624044679609 
53.000927030832834 0.8822935038212812 
54.000927030832834 0.8810993533215743 
55.000927030832834 0.8856922398589063 
56.000927030832834 0.8866291887125209 
57.000927030832834 0.8869047619047609 
58.000927030832834 0.8912771898883004 
59.000927030832834 0.8912771898883003 
60.000927030832834 0.8924897119341552 
61.000927030832834 0.8947126690182251 
62.000927030832834 0.8945105820105828 
63.000927030832834 0.8971377131099367 
64.00092703083283 0.898754409171077 
65.00092703083283 0.900371105232217 
66.00092703083283 0.902998236331571 
67.00092703083283 0.904817019400353 
68.00092703083283 0.9068378894767769 
69.00092703083283 0.909869194591416 
70.00092703083283 0.9114858906525583 
71.00092703083283 0.914113021751912 
72.00092703083283 0.9161338918283364 
73.00092703083283 0.9203777189888303 
74.00092703083283 0.9234090241034678 
75.00092703083283 0.9264403292181062 
76.00092703083283 0.9284611992945324 
77.00092703083283 0.9310883303938857 
78.00092703083283 0.9345238095238099 
79.00092703083283 0.935938418577308 
80.00092703083283 0.9397780717225158 
81.00092703083283 0.9430114638447975 
82.00092703083283 0.9458406819517935 
83.00092703083283 0.9486699000587895 
84.00092703083283 0.9519032921810694 
85.00092703083283 0.9553387713109935 
86.00092703083283 0.9585721634332751 
87.00092703083283 0.961401381540271 
88.00092703083283 0.9636243386243389 
89.00092703083283 0.9654431216931211 
90.00092703083283 0.967261904761905 
91.00092703083283 0.969484861845973 
92.00092703083283 0.9711015579071129 
93.00092703083283 0.9739307760141088 
94.00092703083283 0.9759516460905348 
95.00092703083283 0.9783766901822457 
96.00092703083283 0.9810038212815988 
97.00092703083283 0.9826205173427397 
98.00092703083283 0.9844393004115224 
99.00092703083283 0.9872685185185184 
100.00092703083283 0.9896935626102292 
101.00092703083283 0.9919165196942973 
102.00092703083283 0.9935332157554381 
103.00092703083283 0.9955540858318636 
104.00092703083283 0.997170781893004 
105.00092703083283 0.998181216931217 
106.00092703083283 0.9993937389770723 
107.00092703083283 0.9997979129923574 
108.00092703083283 1.0 
109.00092703083283 1.0 
110.00092703083283 1.0 
111.00092703083283 1.0 
112.00092703083283 1.0 
113.00092703083283 1.0 
114.00092703083283 1.0 
115.00092703083283 1.0 
116.00092703083283 1.0 
117.00092703083283 1.0 
118.00092703083283 1.0 
119.00092703083283 1.0 
120.00092703083283 1.0 
121.00092703083283 1.712319958847742 
122.00092703083283 2.871068489124017 
123.00092703083283 6.16618900646669 
124.00092703083283 10.8002278071721 
125.00092703083283 11.870535714285715 
126.00092703083283 12.844062316284687 
127.00092703083283 18.719723691946104 
128.00092703083283 23.263870517342728 
129.00092703083283 22.722130364491747 
130.00092703083283 23.956459435626222 
131.00092703083283 35.26010435038228 
132.00092703083283 35.088679453262415 
133.00092703083283 37.461768812463006 
134.00092703083283 38.61746766607892 
135.00092703083283 43.22374706055216 
136.00092703083283 45.801054526748395 
137.00092703083283 47.020686360964376 
138.00092703083283 54.035714285714505 
139.00092703083283 51.88677616108158 
140.00092703083283 51.13708847736576 
141.00092703083283 47.19887198706629 
142.00092703083283 49.29903365667237 
143.00092703083283 50.70908656672528 
144.00092703083283 51.47804600235166 
145.00092703083283 49.94018224573787 
146.00092703083283 41.71654541446204 
147.00092703083283 41.23471487360367 
148.00092703083283 42.73067313345096 
149.00092703083283 47.24283509700166 
150.00092703083283 43.93037184009416 
151.00092703083283 42.73517416225746 
152.00092703083283 43.7868900646677 
153.00092703083283 46.876892269253624 
154.00092703083283 48.3692129629628 
155.00092703083283 47.18112507348605 
156.00092703083283 46.710115373309954 
157.00092703083283 48.82254923574381 
158.00092703083283 47.999228395061465 
159.00092703083283 44.49266975308641 
160.00092703083283 40.99149397413337 
161.00092703083283 39.627957818929424 
162.00092703083283 38.89294900058835 
163.00092703083283 31.29833553791924 
164.00092703083283 31.084233539094292 
165.00092703083283 24.48612948265682 
166.00092703083283 23.64693562610168 
167.00092703083283 22.48370443856588 
168.00092703083283 15.511353615520203 
169.00092703083283 12.106371252204626 
170.00092703083283 11.650462962962884 
171.00092703083283 10.926293356848609 
172.00092703083283 6.906929747207375 
173.00092703083283 6.80373677248692 
174.00092703083283 5.287055408583304 
175.00092703083283 2.0714101998824437 
176.00092703083283 1.1727476484421133 
177.00092703083283 0.45649617871839226 
178.00092703083283 0.007458847736625499 
179.00092703083283 0.006099353321575632 
180.00092703083283 0.004115226337448532 
181.00092703083283 0.002627131099353246 
182.00092703083283 0.0026455026455026046 
183.00092703083283 0.0010655496766607939 
184.00092703083283 4.59288653733081E-4 
185.00092703083283 2.9394473838918874E-4 
186.00092703083283 4.930380657631324E-32 
187.00092703083283 4.930380657631324E-32 
188.00092703083283 4.930380657631324E-32 
189.00092703083283 4.930380657631324E-32 
190.00092703083283 4.930380657631324E-32 
191.00092703083283 4.930380657631324E-32 
192.00092703083283 4.930380657631324E-32 
193.00092703083283 4.930380657631324E-32 
194.00092703083283 4.930380657631324E-32 
195.00092703083283 4.930380657631324E-32 
196.00092703083283 4.930380657631324E-32 
197.00092703083283 4.930380657631324E-32 
198.00092703083283 4.930380657631324E-32 
199.00092703083283 4.930380657631324E-32 
200.00092703083283 4.930380657631324E-32 
201.00092703083283 4.930380657631324E-32 
202.00092703083283 4.930380657631324E-32 
203.00092703083283 4.930380657631324E-32 
204.00092703083283 4.930380657631324E-32 
205.00092703083283 4.930380657631324E-32 
206.00092703083283 4.930380657631324E-32 
207.00092703083283 4.930380657631324E-32 
208.00092703083283 4.930380657631324E-32 
209.00092703083283 4.930380657631324E-32 
210.00092703083283 4.930380657631324E-32 
211.00092703083283 4.930380657631324E-32 
212.00092703083283 4.930380657631324E-32 
213.00092703083283 4.930380657631324E-32 
214.00092703083283 4.930380657631324E-32 
215.00092703083283 4.930380657631324E-32 
216.00092703083283 4.930380657631324E-32 
217.00092703083283 4.930380657631324E-32 
218.00092703083283 4.930380657631324E-32 
219.00092703083283 4.930380657631324E-32 
220.00092703083283 4.930380657631324E-32 
221.00092703083283 4.930380657631324E-32 
222.00092703083283 4.930380657631324E-32 
223.00092703083283 4.930380657631324E-32 
224.00092703083283 4.930380657631324E-32 
225.00092703083283 4.930380657631324E-32 
226.00092703083283 4.930380657631324E-32 
227.00092703083283 4.930380657631324E-32 
228.00092703083283 4.930380657631324E-32 
229.00092703083283 4.930380657631324E-32 
230.00092703083283 4.930380657631324E-32 
231.00092703083283 4.930380657631324E-32 
232.00092703083283 4.930380657631324E-32 
233.00092703083283 4.930380657631324E-32 
234.00092703083283 4.930380657631324E-32 
235.00092703083283 4.930380657631324E-32 
236.00092703083283 4.930380657631324E-32 
237.00092703083283 4.930380657631324E-32 
238.00092703083283 4.930380657631324E-32 
239.00092703083283 4.930380657631324E-32 
240.00092703083283 4.930380657631324E-32 
241.00092703083283 4.930380657631324E-32 
242.00092703083283 4.930380657631324E-32 
243.00092703083283 4.930380657631324E-32 
244.00092703083283 4.930380657631324E-32 
245.00092703083283 4.930380657631324E-32 
246.00092703083283 4.930380657631324E-32 
247.00092703083283 4.930380657631324E-32 
248.00092703083283 4.930380657631324E-32 
249.00092703083283 4.930380657631324E-32 
250.00092703083283 4.930380657631324E-32 
251.00092703083283 4.930380657631324E-32 
252.00092703083283 4.930380657631324E-32 
253.00092703083283 4.930380657631324E-32 
254.00092703083283 4.930380657631324E-32 
255.00092703083283 4.930380657631324E-32 
256.0009270308328 4.930380657631324E-32 
257.0009270308328 4.930380657631324E-32 
258.0009270308328 4.930380657631324E-32 
259.0009270308328 4.930380657631324E-32 
260.0009270308328 4.930380657631324E-32 
261.0009270308328 4.930380657631324E-32 
262.0009270308328 4.930380657631324E-32 
263.0009270308328 4.930380657631324E-32 
264.0009270308328 4.930380657631324E-32 
265.0009270308328 4.930380657631324E-32 
266.0009270308328 4.930380657631324E-32 
267.0009270308328 4.930380657631324E-32 
268.0009270308328 4.930380657631324E-32 
269.0009270308328 4.930380657631324E-32 
#####################################################################
# End of data export. Simulation finished at: 2017-05-25T09:28+0000 #
#####################################################################
