#####################################################################
# Alchemist log file - simulation started at: 2017-05-25T14:12+0000 #
#####################################################################
# random = 18.0, targets = 3.1622776601683795, density = 10.026386447354522, gridShift = 0.0, perturbation = 0.5, connfactor = 1.0
#
# The columns have the following meaning: 
# time se[Mean] 
0.0 NaN 
1.0000499264234746 NaN 
2.0000499264234746 1.0018800427879715 
3.0000499264234746 1.0034926587935584 
4.000049926423475 1.0051971021637 
5.000049926423475 1.0049836443748723 
6.000049926423475 1.000383420080777 
7.000049926423475 0.9960965362513441 
8.000049926423475 0.9914125399039738 
9.000049926423475 0.9910688590050601 
10.000049926423475 0.9906720151743894 
11.000049926423475 0.9921243363229055 
12.000049926423475 0.9964155156107921 
13.000049926423475 0.995972220723311 
14.000049926423475 0.9946810004936651 
15.000049926423475 0.9986966976878878 
16.000049926423475 0.9929153388804873 
17.000049926423475 0.994965509678818 
18.000049926423475 0.9935562496215042 
19.000049926423475 0.9917087299095984 
20.000049926423475 0.9915742776284232 
21.000049926423475 0.9876069803581456 
22.000049926423475 0.9822340799145237 
23.000049926423475 0.9803272559141286 
24.000049926423475 0.9772441302334147 
25.000049926423475 0.9733849366686605 
26.000049926423475 0.9637403279194469 
27.000049926423475 0.9604331679843708 
28.000049926423475 0.953395432546648 
29.000049926423475 0.9443121845806443 
30.000049926423475 0.9371947020919281 
31.000049926423475 0.9267459617905666 
32.00004992642347 0.9228218564173142 
33.00004992642347 0.9148256335272023 
34.00004992642347 0.911123472121923 
35.00004992642347 0.902213175151482 
36.00004992642347 0.8888005545519637 
37.00004992642347 0.880585538578091 
38.00004992642347 0.8627993449863305 
39.00004992642347 0.8464680564468947 
40.00004992642347 0.8248388112877146 
41.00004992642347 0.8062187564470733 
42.00004992642347 0.7811095417765087 
43.00004992642347 0.756915111354837 
44.00004992642347 0.7312050269560679 
45.00004992642347 0.7036192981966374 
46.00004992642347 0.6736899617932807 
47.00004992642347 0.6429679444213783 
48.00004992642347 0.6135657098713652 
49.00004992642347 0.5845098413240242 
50.00004992642347 0.5557553655025137 
51.00004992642347 0.52504878880391 
52.00004992642347 0.502635309101546 
53.00004992642347 0.4690734145151391 
54.00004992642347 0.47577248622543294 
55.00004992642347 0.46372569870813585 
56.00004992642347 0.4526460227038191 
57.00004992642347 0.4449105536370599 
58.00004992642347 0.4362160005316342 
59.00004992642347 0.48524670246667806 
60.00004992642347 0.427944488730881 
61.00004992642347 0.47430084771018943 
62.00004992642347 0.4471320369601044 
63.00004992642347 0.497191321418283 
64.00004992642347 0.49234875945753925 
65.00004992642347 0.516461800726394 
66.00004992642347 0.5193511703029615 
67.00004992642347 0.4915701859670381 
68.00004992642347 0.5659770167451709 
69.00004992642347 0.5370717959158517 
70.00004992642347 0.5539906343334904 
71.00004992642347 0.5557173752089424 
72.00004992642347 0.5659255526133706 
73.00004992642347 0.5896669831933192 
74.00004992642347 0.5146681445255773 
75.00004992642347 0.5565259025816234 
76.00004992642347 0.4348534689700661 
77.00004992642347 0.4307003064918975 
78.00004992642347 0.40917454428755357 
79.00004992642347 0.39418465681601067 
80.00004992642347 0.45607903515894316 
81.00004992642347 0.31528125842368165 
82.00004992642347 0.3063181891700495 
83.00004992642347 0.281079821669619 
84.00004992642347 0.2893575981849537 
85.00004992642347 0.3019264687083694 
86.00004992642347 0.300300746238466 
87.00004992642347 0.2975843802591026 
88.00004992642347 0.31024292864893915 
89.00004992642347 0.4469103821615535 
90.00004992642347 0.3690443180864804 
91.00004992642347 0.48412317418692075 
92.00004992642347 0.4607146266480037 
93.00004992642347 0.5778139481491927 
94.00004992642347 0.5898691547204009 
95.00004992642347 0.6682601658439721 
96.00004992642347 0.6957421358856783 
97.00004992642347 0.6710974153975531 
98.00004992642347 0.8240726376313905 
99.00004992642347 0.7886921235067265 
100.00004992642347 0.8395810307326537 
101.00004992642347 0.8532735530800084 
102.00004992642347 0.8937072502833142 
103.00004992642347 0.9460087377069896 
104.00004992642347 0.8158360639266429 
105.00004992642347 0.9055079235231194 
106.00004992642347 0.6898530710969383 
107.00004992642347 0.6868515069907203 
108.00004992642347 0.6476531837504486 
109.00004992642347 0.6248109031907164 
110.00004992642347 0.7408979759525782 
111.00004992642347 0.4824584386238647 
112.00004992642347 0.4403267465448109 
113.00004992642347 0.4147581099785423 
114.00004992642347 0.310049617098384 
115.00004992642347 0.28116553681779644 
116.00004992642347 0.2304570618426856 
117.00004992642347 0.18268195393745035 
118.00004992642347 0.15370148391549315 
119.00004992642347 0.16193807177148092 
120.00004992642347 0.13751270780970987 
121.00004992642347 0.13676546766736822 
122.00004992642347 0.13606440989457033 
123.00004992642347 0.135112842023746 
124.00004992642347 0.13561466651269324 
125.00004992642347 0.13449367549335797 
126.00004992642347 0.1334677343168701 
127.00004992642347 0.1351936532103741 
128.00004992642346 0.13438224457178022 
129.00004992642346 0.13428236189594628 
130.00004992642346 0.13491441126388443 
131.00004992642346 0.1348150659625835 
132.00004992642346 0.13469289816377714 
133.00004992642346 0.13502046844013216 
134.00004992642346 0.1351042404934075 
135.00004992642346 0.13496703682110855 
136.00004992642346 0.1350889359326484 
137.00004992642346 0.1350889359326484 
138.00004992642346 0.1350889359326484 
139.00004992642346 0.1350889359326484 
140.00004992642346 0.1350889359326484 
141.00004992642346 0.1350889359326484 
142.00004992642346 0.1350889359326484 
143.00004992642346 0.1350889359326484 
144.00004992642346 0.1350889359326484 
145.00004992642346 0.1350889359326484 
146.00004992642346 0.1350889359326484 
147.00004992642346 0.1350889359326484 
148.00004992642346 0.1350889359326484 
149.00004992642346 0.1350889359326484 
150.00004992642346 0.1350889359326484 
151.00004992642346 0.1350889359326484 
152.00004992642346 0.1350889359326484 
153.00004992642346 0.1350889359326484 
154.00004992642346 0.1350889359326484 
155.00004992642346 0.1350889359326484 
156.00004992642346 0.1350889359326484 
157.00004992642346 0.1350889359326484 
158.00004992642346 0.1350889359326484 
159.00004992642346 0.1350889359326484 
160.00004992642346 0.1350889359326484 
161.00004992642346 0.1350889359326484 
162.00004992642346 0.1350889359326484 
163.00004992642346 0.1350889359326484 
164.00004992642346 0.1350889359326484 
165.00004992642346 0.1350889359326484 
166.00004992642346 0.1350889359326484 
167.00004992642346 0.1350889359326484 
168.00004992642346 0.1350889359326484 
169.00004992642346 0.1350889359326484 
170.00004992642346 0.1350889359326484 
171.00004992642346 0.1350889359326484 
172.00004992642346 0.1350889359326484 
173.00004992642346 0.1350889359326484 
174.00004992642346 0.1350889359326484 
175.00004992642346 0.1350889359326484 
176.00004992642346 0.1350889359326484 
177.00004992642346 0.1350889359326484 
178.00004992642346 0.1350889359326484 
179.00004992642346 0.1350889359326484 
180.00004992642346 0.1350889359326484 
181.00004992642346 0.1350889359326484 
182.00004992642346 0.1350889359326484 
183.00004992642346 0.1350889359326484 
184.00004992642346 0.1350889359326484 
185.00004992642346 0.1350889359326484 
186.00004992642346 0.1350889359326484 
187.00004992642346 0.1350889359326484 
188.00004992642346 0.1350889359326484 
189.00004992642346 0.1350889359326484 
190.00004992642346 0.1350889359326484 
191.00004992642346 0.1350889359326484 
192.00004992642346 0.1350889359326484 
193.00004992642346 0.1350889359326484 
194.00004992642346 0.1350889359326484 
195.00004992642346 0.1350889359326484 
196.00004992642346 0.1350889359326484 
197.00004992642346 0.1350889359326484 
198.00004992642346 0.1350889359326484 
199.00004992642346 0.1350889359326484 
200.00004992642346 0.1350889359326484 
201.00004992642346 0.1350889359326484 
202.00004992642346 0.1350889359326484 
203.00004992642346 0.1350889359326484 
204.00004992642346 0.1350889359326484 
205.00004992642346 0.1350889359326484 
206.00004992642346 0.1350889359326484 
207.00004992642346 0.1350889359326484 
208.00004992642346 0.1350889359326484 
209.00004992642346 0.1350889359326484 
#####################################################################
# End of data export. Simulation finished at: 2017-05-25T14:14+0000 #
#####################################################################
