0.000000000000000000e+00 nan
1.000410760802289412e+00 7.946705220306491402e-01
2.000821521604578823e+00 9.604754766381305986e-01
3.001232282406868013e+00 9.601856421519645579e-01
4.001643043209157646e+00 9.520532322306880513e-01
5.002053804011449500e+00 9.442693067759239112e-01
6.002464564813736025e+00 9.282342921572399597e-01
7.002875325616028768e+00 9.136527715640266889e-01
8.003286086418315293e+00 9.039740001542768688e-01
9.003696847220602706e+00 8.861477896799686560e-01
1.000410760802289900e+01 8.822122247919580440e-01
1.100451836882518641e+01 8.790975796997314573e-01
1.200492912962747205e+01 8.811726785139605278e-01
1.300533989042975769e+01 8.797942200159369897e-01
1.400575065123205754e+01 8.800536073677155402e-01
1.500616141203433784e+01 8.794829551938025958e-01
1.600657217283663059e+01 8.778228761424191617e-01
1.700698293363892333e+01 8.811430342451859188e-01
1.800739369444120541e+01 8.819730737708777468e-01
1.900780445524349815e+01 8.819730737708777468e-01
2.000821521604579800e+01 8.819730737708777468e-01
2.100862597684806943e+01 8.819730737708777468e-01
