#####################################################################
# Alchemist log file - simulation started at: 2017-05-25T11:36+0000 #
#####################################################################
# random = 17.0, targets = 100.0, density = 14.160781367816199, gridShift = 1.0, perturbation = 0.0, connfactor = 0.5
#
# The columns have the following meaning: 
# time se[Mean] 
0.0 NaN 
1.0003034458253823 NaN 
2.0003034458253826 1.0 
3.0003034458253826 0.9998685515873016 
4.0003034458253826 0.9991984273956496 
5.0003034458253826 0.9980931363903586 
6.0003034458253826 0.996267208627278 
7.0003034458253826 0.9938895557760141 
8.000303445825383 0.9926429490005879 
9.000303445825383 0.9897708792621988 
10.000303445825383 0.9877330302028219 
11.000303445825383 0.9842689686213992 
12.000303445825383 0.9807627075984715 
13.000303445825383 0.9768940861992945 
14.000303445825383 0.9728094448118754 
15.000303445825383 0.9688461180922987 
16.00030344582538 0.9660055335097002 
17.00030344582538 0.9624854478982952 
18.00030344582538 0.9589992596266902 
19.00030344582538 0.9549786100088183 
20.00030344582538 0.9515789425338036 
21.00030344582538 0.9479093400940624 
22.00030344582538 0.9457947145061728 
23.00030344582538 0.9436228780864198 
24.00030344582538 0.9421841104497355 
25.00030344582538 0.9397912147266314 
26.00030344582538 0.9391398148148148 
27.00030344582538 0.937597203850676 
28.00030344582538 0.9350119470164608 
29.00030344582538 0.9320575451940035 
30.00030344582538 0.929345844356261 
31.00030344582538 0.9249744984567903 
32.00030344582538 0.9204307392710172 
33.00030344582538 0.9159966729129924 
34.00030344582538 0.9105026693856555 
35.00030344582538 0.905333678718401 
36.00030344582538 0.8984844595091123 
37.00030344582538 0.8916349243092299 
38.00030344582538 0.8836189410640799 
39.00030344582538 0.874833305776014 
40.00030344582538 0.8672971946649031 
41.00030344582538 0.8566868367871842 
42.00030344582538 0.848637657995297 
43.00030344582538 0.8405194720017636 
44.00030344582538 0.8310686103762494 
45.00030344582538 0.8232970127865962 
46.00030344582538 0.8182899746472663 
47.00030344582538 0.8079654761904758 
48.00030344582538 0.8027567129629628 
49.00030344582538 0.7962232675631981 
50.00030344582538 0.7901708351704877 
51.00030344582538 0.7835706588036446 
52.00030344582538 0.780866117357437 
53.00030344582538 0.7735804324661961 
54.00030344582538 0.7694195877425047 
55.00030344582538 0.7655822145061726 
56.00030344582538 0.7608501175778956 
57.00030344582538 0.7601454016019987 
58.00030344582538 0.7584338367136979 
59.00030344582538 0.7557928957231032 
60.00030344582538 0.7544387915196947 
61.00030344582538 0.7524426991475608 
62.00030344582538 0.7501686618165792 
63.00030344582538 0.7471430573927095 
64.00030344582538 0.7470284575249854 
65.00030344582538 0.7436644069664909 
66.00030344582538 0.7421565751763672 
67.00030344582538 0.7380174309229864 
68.00030344582538 0.7358987158289243 
69.00030344582538 0.7326738003380368 
70.00030344582538 0.7292353744121112 
71.00030344582538 0.7255027134773667 
72.00030344582538 0.72223554526749 
73.00030344582538 0.719378924162257 
74.00030344582538 0.7160313271604933 
75.00030344582538 0.7125720164609054 
76.00030344582538 0.7086774948559678 
77.00030344582538 0.7064023129776604 
78.00030344582538 0.7007134240887719 
79.00030344582538 0.6961431676219877 
80.00030344582538 0.6918003380364486 
81.00030344582538 0.6854410181510878 
82.00030344582538 0.6815018224573782 
83.00030344582538 0.6746285567313347 
84.00030344582538 0.6667261647560253 
85.00030344582538 0.6614730232216351 
86.00030344582538 0.6548279927248679 
87.00030344582538 0.6506751690182248 
88.00030344582538 0.6454457690329218 
89.00030344582538 0.6382436250734859 
90.00030344582538 0.6337697071575544 
91.00030344582538 0.6222327344209292 
92.00030344582538 0.6131075066137562 
93.00030344582538 0.606650343547913 
94.00030344582538 0.5952493661816579 
95.00030344582538 0.5808810626102295 
96.00030344582538 0.5700656268371543 
97.00030344582538 0.5614426807760134 
98.00030344582538 0.549529583700764 
99.00030344582538 0.5450535108024689 
100.00030344582538 0.5394863168724281 
101.00030344582538 0.5368051954732511 
102.00030344582538 0.5378852017195768 
103.00030344582538 0.5342759534832455 
104.00030344582538 0.5388456367577895 
105.00030344582538 0.5244132991622578 
106.00030344582538 0.521930368165785 
107.00030344582538 0.5128410806143446 
108.00030344582538 0.5037738095238095 
109.00030344582538 0.4880993643445032 
110.00030344582538 0.47372947163433254 
111.00030344582538 0.4813256080981775 
112.00030344582538 0.4849335280717229 
113.00030344582538 0.4837917548500883 
114.00030344582538 0.4881753398736036 
115.00030344582538 0.47105761684303354 
116.00030344582538 0.4720966049382715 
117.00030344582538 0.46359796994415065 
118.00030344582538 0.4592380713550855 
119.00030344582538 0.42867966453556733 
120.00030344582538 0.4166858575837745 
121.00030344582538 0.40849732326572596 
122.00030344582538 0.3977461658583187 
123.00030344582538 0.3898124081422696 
124.00030344582538 0.373116146751911 
125.00030344582538 0.36606613756613765 
126.00030344582538 0.3734413892563199 
127.00030344582538 0.35710002204585584 
128.00030344582538 0.3652403880070547 
129.00030344582538 0.3432725290270429 
130.00030344582538 0.3475795065402707 
131.00030344582538 0.3215305041152263 
132.00030344582538 0.33222420634920663 
133.00030344582538 0.3105727641828334 
134.00030344582538 0.27810724022633715 
135.00030344582538 0.2882823669900061 
136.00030344582538 0.27535724206349227 
137.00030344582538 0.26592995664315133 
138.00030344582538 0.2548699018959435 
139.00030344582538 0.2618102678571428 
140.00030344582538 0.24427110339506164 
141.00030344582538 0.23309109347442653 
142.00030344582538 0.2212336419753089 
143.00030344582538 0.2161812793944738 
144.00030344582538 0.20493872170781882 
145.00030344582538 0.20271646090534964 
146.00030344582538 0.21417097846854807 
147.00030344582538 0.1793458112874777 
148.00030344582538 0.19170263815402705 
149.00030344582538 0.19059684927983575 
150.00030344582538 0.1767470697383887 
151.00030344582538 0.16912095091122847 
152.00030344582538 0.16351533840387963 
153.00030344582538 0.1482894381981186 
154.00030344582538 0.13403099096119936 
155.00030344582538 0.1326998695620224 
156.00030344582538 0.13219639182833615 
157.00030344582538 0.123554140946502 
158.00030344582538 0.11043149985302761 
159.00030344582538 0.1219929471634333 
160.00030344582538 0.10543142452968855 
161.00030344582538 0.10173892563198113 
162.00030344582538 0.09856322567607281 
163.00030344582538 0.0920630217519104 
164.00030344582538 0.08305716490299822 
165.00030344582538 0.07882717886537337 
166.00030344582538 0.07584852476484436 
167.00030344582538 0.07222862838036445 
168.00030344582538 0.06929759332745444 
169.00030344582538 0.06617849243092312 
170.00030344582538 0.06746227035567319 
171.00030344582538 0.06260918026161107 
172.00030344582538 0.06111859016754832 
173.00030344582538 0.059753626543209835 
174.00030344582538 0.05616095862727821 
175.00030344582538 0.05461049750146973 
176.00030344582538 0.05143582635214576 
177.00030344582538 0.050423544973544954 
178.00030344582538 0.04761361699000596 
179.00030344582538 0.046566918356848945 
180.00030344582538 0.04426678057025276 
181.00030344582538 0.043403564079953015 
182.00030344582538 0.0423535457084069 
183.00030344582538 0.04147701903292181 
184.00030344582538 0.04037443599353317 
185.00030344582538 0.03960521751910652 
186.00030344582538 0.03847209362139915 
187.00030344582538 0.0376552009847149 
188.00030344582538 0.03675293761022933 
189.00030344582538 0.03603059964726633 
190.00030344582538 0.03523102954144619 
191.00030344582538 0.03455076976778365 
192.00030344582538 0.03412643114344507 
193.00030344582538 0.033752085170487965 
194.00030344582538 0.03337065145502647 
195.00030344582538 0.03311101374191651 
196.00030344582538 0.03297339616402117 
197.00030344582538 0.0328958664021164 
198.00030344582538 0.03285519179894179 
199.00030344582538 0.0328183697089947 
200.00030344582538 0.032741832010582006 
201.00030344582538 0.03277470238095238 
202.00030344582538 0.032726769179894186 
203.00030344582538 0.03272805886243386 
204.00030344582538 0.032703224206349205 
205.00030344582538 0.03270200066137567 
206.00030344582538 0.03266349206349206 
207.00030344582538 0.03261340939153439 
208.00030344582538 0.03256836970899471 
209.00030344582538 0.032521643518518516 
210.00030344582538 0.03248943452380952 
211.00030344582538 0.03243955026455026 
212.00030344582538 0.03242078373015873 
213.00030344582538 0.03240734126984127 
214.00030344582538 0.032402447089947085 
215.00030344582538 0.032402447089947085 
216.00030344582538 0.0324 
217.00030344582538 0.0324 
218.00030344582538 0.0324 
219.00030344582538 0.0324 
220.00030344582538 0.0324 
221.00030344582538 0.0324 
222.00030344582538 0.0324 
223.00030344582538 0.0324 
224.00030344582538 0.0324 
225.00030344582538 0.0324 
226.00030344582538 0.0324 
227.00030344582538 0.0324 
228.00030344582538 0.0324 
229.00030344582538 0.0324 
230.00030344582538 0.0324 
231.00030344582538 0.0324 
232.00030344582538 0.0324 
233.00030344582538 0.0324 
234.00030344582538 0.0324 
235.00030344582538 0.0324 
236.00030344582538 0.0324 
237.00030344582538 0.0324 
238.00030344582538 0.0324 
239.00030344582538 0.0324 
240.00030344582538 0.0324 
241.00030344582538 0.0324 
242.00030344582538 0.0324 
243.00030344582538 0.0324 
244.00030344582538 0.0324 
245.00030344582538 0.0324 
246.00030344582538 0.0324 
247.00030344582538 0.0324 
248.00030344582538 0.0324 
249.00030344582538 0.0324 
250.00030344582538 0.0324 
251.00030344582538 0.0324 
252.00030344582538 0.0324 
253.00030344582538 0.0324 
254.00030344582538 0.0324 
255.00030344582538 0.0324 
256.00030344582535 0.0324 
257.00030344582535 0.0324 
258.00030344582535 0.0324 
259.00030344582535 0.0324 
260.00030344582535 0.0324 
261.00030344582535 0.0324 
262.00030344582535 0.0324 
263.00030344582535 0.0324 
264.00030344582535 0.0324 
265.00030344582535 0.0324 
266.00030344582535 0.0324 
267.00030344582535 0.0324 
268.00030344582535 0.0324 
269.00030344582535 0.0324 
270.00030344582535 0.0324 
271.00030344582535 0.0324 
272.00030344582535 0.0324 
273.00030344582535 0.0324 
274.00030344582535 0.0324 
275.00030344582535 0.0324 
276.00030344582535 0.0324 
277.00030344582535 0.0324 
278.00030344582535 0.0324 
279.00030344582535 0.0324 
280.00030344582535 0.0324 
281.00030344582535 0.0324 
282.00030344582535 0.0324 
283.00030344582535 0.0324 
284.00030344582535 0.0324 
285.00030344582535 0.0324 
286.00030344582535 0.0324 
287.00030344582535 0.0324 
288.00030344582535 0.0324 
289.00030344582535 0.0324 
290.00030344582535 0.0324 
291.00030344582535 0.0324 
292.00030344582535 0.0324 
293.00030344582535 0.0324 
294.00030344582535 0.0324 
295.00030344582535 0.0324 
296.00030344582535 0.0324 
297.00030344582535 0.0324 
298.00030344582535 0.0324 
#####################################################################
# End of data export. Simulation finished at: 2017-05-25T11:39+0000 #
#####################################################################
