0.000000000000000000e+00 nan
1.000003151186767303e+00 5.207411740550950241e-32
2.000006302373534606e+00 9.609939864036864954e-01
3.000009453560302131e+00 9.687059106370111694e-01
4.000012604747069211e+00 9.796490006369823478e-01
5.000015755933834072e+00 9.900963255631002324e-01
6.000018907120604261e+00 9.924334174615041526e-01
7.000022058307368233e+00 9.974030254965154940e-01
8.000025209494138423e+00 1.000814830987895920e+00
9.000028360680907724e+00 9.994495497019918462e-01
1.000003151186766814e+01 9.898317913963059489e-01
1.100003466305443744e+01 9.842108700542243627e-01
1.200003781424120852e+01 9.763927859557489652e-01
1.300004096542797782e+01 9.701669865677463589e-01
1.400004411661473647e+01 9.731013300095664453e-01
1.500004726780150754e+01 9.661478338972198099e-01
1.600005041898827685e+01 9.666261341288145958e-01
1.700005357017505148e+01 9.681933885348645852e-01
1.800005672136181545e+01 9.652304861060581054e-01
1.900005987254859008e+01 9.653487957109031514e-01
2.000006302373533629e+01 9.580649029351004931e-01
2.100006617492211092e+01 9.634919196697843136e-01
2.200006932610887489e+01 9.588880103880577099e-01
2.300007247729564952e+01 9.529142335787519347e-01
2.400007562848241705e+01 9.483842909978804636e-01
2.500007877966918457e+01 9.441258619109422767e-01
2.600008193085595565e+01 9.428016608192578696e-01
2.700008508204270186e+01 9.448263226803603754e-01
2.800008823322947293e+01 9.504555056287332659e-01
2.900009138441624046e+01 9.513341297876000136e-01
3.000009453560301509e+01 9.475680046927574818e-01
3.100009768678978617e+01 9.556371005954464870e-01
3.200010083797655369e+01 9.554079293037500697e-01
3.300010398916332832e+01 9.559663279119398061e-01
3.400010714035010295e+01 9.576765048693007820e-01
3.500011029153687758e+01 9.617475895338004621e-01
3.600011344272363090e+01 9.570168157949633381e-01
3.700011659391040553e+01 9.616985564693273369e-01
3.800011974509718016e+01 9.572999530637091858e-01
3.900012289628394058e+01 9.612108418379174957e-01
4.000012604747067257e+01 9.439502585023240577e-01
4.100012919865744720e+01 9.362633970229352620e-01
4.200013234984422184e+01 9.130363160841088455e-01
4.300013550103097515e+01 9.102494959369848981e-01
4.400013865221774978e+01 8.969863526235254403e-01
4.500014180340452441e+01 8.877947774941705728e-01
4.600014495459129904e+01 8.741617837287943837e-01
4.700014810577806657e+01 8.567573763910130147e-01
4.800015125696483409e+01 8.486853154173165104e-01
4.900015440815160872e+01 8.376143920659739894e-01
5.000015755933836914e+01 8.345797492925267624e-01
5.100016071052513666e+01 8.329270911682907785e-01
5.200016386171191130e+01 8.281865040303503234e-01
5.300016701289868593e+01 8.277190242986667279e-01
5.400017016408540371e+01 8.225612424651878030e-01
5.500017331527217124e+01 8.189162020679595644e-01
5.600017646645894587e+01 8.150989167754865150e-01
5.700017961764572050e+01 8.133636683422653668e-01
5.800018276883248092e+01 8.089668964021392572e-01
5.900018592001925555e+01 8.066830135349077890e-01
6.000018907120603018e+01 8.041590727429821506e-01
6.100019222239280481e+01 7.998390340103526119e-01
6.200019537357957233e+01 7.971300773755015667e-01
6.300019852476633986e+01 7.975724603996980910e-01
6.400020167595310738e+01 7.927919484583164644e-01
6.500020482713988201e+01 7.919216418193687490e-01
6.600020797832665664e+01 7.864387131651361384e-01
6.700021112951343127e+01 7.864954367629888310e-01
6.800021428070020590e+01 7.870930476731428094e-01
6.900021743188698053e+01 7.834359821175439498e-01
7.000022058307375517e+01 7.918997019795411818e-01
7.100022373426048716e+01 7.841604062144530429e-01
7.200022688544726179e+01 7.816507912548811277e-01
7.300023003663402221e+01 7.821833985281934076e-01
7.400023318782081105e+01 7.842202971381367904e-01
7.500023633900758568e+01 7.872276240547338988e-01
7.600023949019436031e+01 7.905203477724825900e-01
7.700024264138110652e+01 7.843450669795704044e-01
7.800024579256788115e+01 7.914548926834317211e-01
7.900024894375457052e+01 7.689473327881714004e-01
8.000025209494134515e+01 8.069950333891509064e-01
8.100025524612811978e+01 8.240050107203835683e-01
8.200025839731489441e+01 8.286157022662137273e-01
8.300026154850166904e+01 9.117485301161116773e-01
8.400026469968844367e+01 8.649036826964533464e-01
8.500026785087517567e+01 9.063253459984110805e-01
8.600027100206195030e+01 8.780251213836689494e-01
8.700027415324872493e+01 9.187902584061959921e-01
8.800027730443549956e+01 8.663434550337480999e-01
8.900028045562227419e+01 8.657094234047957304e-01
9.000028360680904882e+01 8.869326578923050208e-01
9.100028675799582345e+01 8.656291437136527378e-01
9.200028990918259808e+01 8.814090565497306740e-01
9.300029306036935850e+01 8.347582355924906272e-01
9.400029621155613313e+01 9.784261005079820661e-01
9.500029936274289355e+01 9.561474488186584297e-01
9.600030251392966818e+01 8.980809810150334194e-01
9.700030566511644281e+01 1.001383391697342029e+00
9.800030881630321744e+01 9.662501654547739349e-01
9.900031196748999207e+01 9.875820047213207387e-01
1.000003151186767383e+02 9.383459729991945331e-01
1.010003182698635129e+02 9.977801435604288782e-01
1.020003214210502733e+02 9.275609387356916757e-01
1.030003245722370480e+02 1.029572693974559749e+00
1.040003277234238226e+02 9.558535950229912759e-01
1.050003308746105972e+02 1.029746823251136867e+00
1.060003340257973719e+02 9.916201346639174075e-01
1.070003371769841465e+02 1.078963270450643330e+00
1.080003403281708074e+02 1.008976693040870565e+00
1.090003434793575821e+02 1.156716200356691981e+00
1.100003466305443425e+02 1.171195717977283390e+00
1.110003497817311171e+02 1.069133077569551338e+00
1.120003529329178917e+02 1.256233027019898918e+00
1.130003560841046664e+02 1.201651960256365781e+00
1.140003592352914410e+02 1.188554222119483361e+00
1.150003623864782156e+02 1.251895342037841363e+00
1.160003655376649618e+02 1.010825970714222644e+00
1.170003686888517365e+02 1.072553960252515370e+00
1.180003718400385111e+02 1.115408749720256942e+00
1.190003749912252857e+02 1.023797179644225785e+00
1.200003781424120604e+02 1.055189973002930603e+00
1.210003812935988350e+02 1.003550920928963697e+00
1.220003844447856096e+02 9.908621675550226549e-01
1.230003875959723842e+02 1.021516097606700590e+00
1.240003907471591447e+02 9.728773312337447576e-01
1.250003938983459193e+02 1.007531132859302625e+00
1.260003970495326797e+02 1.030643690878308538e+00
1.270004002007194543e+02 8.590310072920818163e-01
1.280004033519062148e+02 9.955910189485021045e-01
1.290004065030929894e+02 8.521135375659277811e-01
1.300004096542797640e+02 8.234830674730786448e-01
1.310004128054665387e+02 8.307766369533094997e-01
1.320004159566533133e+02 8.770049456543922428e-01
1.330004191078400879e+02 7.900109615156538645e-01
1.340004222590268625e+02 7.815248819658807689e-01
1.350004254102136372e+02 8.021258651099046899e-01
1.360004285614004118e+02 8.518229629521159030e-01
1.370004317125871864e+02 8.212431606130823347e-01
1.380004348637739611e+02 9.074377093697556518e-01
1.390004380149607357e+02 8.488543945793621814e-01
1.400004411661475103e+02 8.134878037603793244e-01
1.410004443173342850e+02 9.364210205901870587e-01
1.420004474685209743e+02 8.118294634797744713e-01
1.430004506197077490e+02 8.532169030680843980e-01
1.440004537708945236e+02 8.404877957478714690e-01
1.450004569220812982e+02 9.468392224446038341e-01
1.460004600732680444e+02 8.189534315460421654e-01
1.470004632244548475e+02 8.758377325261434976e-01
1.480004663756416221e+02 9.472256389690404399e-01
1.490004695268283967e+02 8.685518797076341446e-01
1.500004726780151714e+02 8.505442935955450645e-01
1.510004758292019460e+02 1.009593493321809587e+00
1.520004789803887206e+02 8.282828662579018175e-01
1.530004821315754953e+02 1.130873856394571053e+00
1.540004852827622130e+02 9.585560777513513209e-01
1.550004884339488740e+02 1.101351312280572925e+00
1.560004915851357623e+02 1.264915904095181842e+00
1.570004947363224233e+02 9.399499349306736917e-01
1.580004978875091410e+02 1.142682350729177676e+00
1.590005010386959157e+02 1.274893203331681546e+00
1.600005041898826903e+02 1.000220497636067574e+00
1.610005073410694649e+02 1.062422886125102162e+00
1.620005104922562396e+02 1.065880544063077640e+00
1.630005136434430142e+02 1.085991442434446785e+00
1.640005167946297888e+02 9.264374654707903112e-01
1.650005199458165634e+02 9.527232263186360406e-01
1.660005230970033381e+02 8.876508163300876886e-01
1.670005262481901127e+02 6.956498169028505485e-01
1.680005293993768873e+02 7.150883407134221992e-01
1.690005325505635767e+02 8.136361747528976229e-01
1.700005357017503513e+02 7.157130574598767891e-01
1.710005388529371260e+02 7.206310361346847104e-01
1.720005420041239006e+02 6.180824047234950713e-01
1.730005451553106752e+02 7.152171714689662396e-01
1.740005483064974499e+02 5.648262469316077672e-01
1.750005514576842245e+02 8.171469145487221253e-01
1.760005546088709991e+02 5.837899880461723257e-01
1.770005577600577737e+02 6.316317141530749524e-01
1.780005609112445484e+02 6.267574135366529298e-01
1.790005640624313230e+02 5.578169058498679833e-01
1.800005672136180976e+02 5.883538601993483219e-01
1.810005703648048723e+02 4.962880457065592110e-01
1.820005735159916469e+02 5.221090032311246354e-01
1.830005766671784215e+02 4.243130656805773615e-01
1.840005798183651962e+02 3.949352684551981074e-01
1.850005829695519424e+02 4.172913114203327667e-01
1.860005861207387170e+02 4.600441904944032045e-01
1.870005892719254916e+02 3.600195851905662048e-01
1.880005924231122663e+02 3.612042352864530126e-01
1.890005955742990125e+02 3.841199436442886417e-01
1.900005987254857871e+02 4.023437782599280643e-01
1.910006018766725617e+02 3.160854761921588207e-01
1.920006050278593364e+02 3.510408519367932967e-01
1.930006081790461110e+02 4.379790738616458623e-01
1.940006113302328856e+02 3.140107443642728424e-01
1.950006144814196603e+02 4.178271689742137363e-01
1.960006176326064349e+02 4.935944555080796214e-01
1.970006207837932095e+02 3.749857225692876939e-01
1.980006239349799841e+02 3.478654049745010246e-01
1.990006270861667588e+02 4.491099821558259819e-01
2.000006302373534766e+02 4.783048349675841360e-01
2.010006333885403080e+02 3.240588639111265934e-01
2.020006365397270258e+02 2.164891448627310477e-01
2.030006396909138573e+02 3.352377305745988800e-01
2.040006428421005467e+02 1.706263153913431529e-01
2.050006459932873497e+02 2.171460859712355529e-01
2.060006491444740959e+02 2.647269245155741135e-01
2.070006522956608990e+02 7.629263464948489448e-02
2.080006554468476452e+02 1.513719750882852599e-01
2.090006585980344482e+02 9.668626545628086766e-02
2.100006617492211944e+02 7.432516061585109357e-02
2.110006649004079975e+02 8.180280038852620617e-02
2.120006680515947437e+02 2.364444618173061272e-02
2.130006712027815468e+02 1.064215378637264030e-02
2.140006743539682930e+02 1.399725546824804288e-02
2.150006775051550960e+02 7.046613354652331122e-03
2.160006806563416148e+02 9.879417132633053558e-03
2.170006838075286169e+02 6.601403044994833859e-03
2.180006869587151641e+02 7.829015491062874324e-03
2.190006901099021661e+02 1.950127155888529799e-03
2.200006932610886849e+02 5.064728543397787816e-03
2.210006964122755448e+02 4.218484642120451204e-03
2.220006995634622342e+02 2.192290910503170639e-03
2.230007027146490941e+02 2.286181908665921997e-03
2.240007058658357835e+02 1.190730753858758708e-03
2.250007090170226434e+02 1.075100769603444398e-03
2.260007121682093327e+02 9.949816788106012957e-04
2.270007153193961926e+02 9.537659807493916115e-04
2.280007184705828820e+02 1.591579839673790326e-04
2.290007216217697419e+02 8.799167248847143295e-04
2.300007247729564313e+02 9.348017472372392581e-05
2.310007279241432343e+02 8.037547611453241801e-05
2.320007310753299237e+02 5.940795960105793252e-05
2.330007342265167836e+02 4.193502882281906788e-05
2.340007373777034729e+02 2.795668588187965754e-05
2.350007405288903328e+02 1.747292867617480756e-05
2.360007436800770222e+02 6.989171470469916926e-06
2.370007468312638821e+02 7.977508140390691110e-32
2.380007499824505715e+02 7.976771572926746307e-32
2.390007531336374313e+02 7.976500205966345014e-32
2.400007562848241207e+02 7.976500205966345014e-32
2.410007594360109806e+02 7.976500205966345014e-32
2.420007625871976700e+02 7.976500205966345014e-32
2.430007657383845299e+02 7.976500205966345014e-32
2.440007688895712192e+02 7.976500205966345014e-32
2.450007720407580791e+02 7.976500205966345014e-32
2.460007751919447685e+02 7.976500205966345014e-32
2.470007783431316284e+02 7.976500205966345014e-32
2.480007814943182893e+02 7.976500205966345014e-32
2.490007846455049503e+02 7.976500205966345014e-32
2.500007877966918386e+02 7.976500205966345014e-32
2.510007909478784995e+02 7.976500205966345014e-32
2.520007940990653594e+02 7.976500205966345014e-32
2.530007972502520488e+02 7.976500205966345014e-32
2.540008004014389087e+02 7.976500205966345014e-32
2.550008035526255981e+02 7.976500205966345014e-32
2.560008067038124295e+02 7.976500205966345014e-32
2.570008098549990905e+02 7.976500205966345014e-32
2.580008130061859788e+02 7.976500205966345014e-32
2.590008161573726397e+02 7.976500205966345014e-32
2.600008193085595281e+02 7.976500205966345014e-32
2.610008224597461890e+02 7.976500205966345014e-32
2.620008256109330773e+02 7.976500205966345014e-32
2.630008287621197383e+02 7.976500205966345014e-32
2.640008319133066266e+02 7.976500205966345014e-32
2.650008350644932875e+02 7.976500205966345014e-32
2.660008382156801758e+02 7.976500205966345014e-32
2.670008413668668368e+02 7.976500205966345014e-32
2.680008445180537251e+02 7.976500205966345014e-32
2.690008476692403292e+02 7.976500205966345014e-32
2.700008508204272744e+02 7.976500205966345014e-32
2.710008539716138785e+02 7.976500205966345014e-32
2.720008571228008236e+02 7.976500205966345014e-32
2.730008602739874277e+02 7.976500205966345014e-32
2.740008634251743729e+02 7.976500205966345014e-32
2.750008665763609770e+02 7.976500205966345014e-32
2.760008697275479221e+02 7.976500205966345014e-32
2.770008728787343557e+02 7.976500205966345014e-32
2.780008760299214714e+02 7.976500205966345014e-32
2.790008791811079050e+02 7.976500205966345014e-32
2.800008823322950207e+02 7.976500205966345014e-32
2.810008854834814542e+02 7.976500205966345014e-32
2.820008886346685699e+02 7.976500205966345014e-32
2.830008917858550035e+02 7.976500205966345014e-32
2.840008949370419487e+02 7.976500205966345014e-32
2.850008980882285528e+02 7.976500205966345014e-32
2.860009012394154979e+02 7.976500205966345014e-32
2.870009043906021020e+02 7.976500205966345014e-32
2.880009075417890472e+02 7.976500205966345014e-32
2.890009106929756513e+02 7.976500205966345014e-32
2.900009138441625964e+02 7.976500205966345014e-32
2.910009169953492005e+02 7.976500205966345014e-32
2.920009201465360889e+02 7.976500205966345014e-32
2.930009232977227498e+02 7.976500205966345014e-32
2.940009264489096950e+02 7.976500205966345014e-32
2.950009296000962991e+02 7.976500205966345014e-32
2.960009327512832442e+02 7.976500205966345014e-32
2.970009359024698483e+02 7.976500205966345014e-32
2.980009390536567935e+02 7.976500205966345014e-32
2.990009422048433976e+02 7.976500205966345014e-32
3.000009453560303427e+02 7.976500205966345014e-32
3.010009485072169468e+02 7.976500205966345014e-32
3.020009516584038920e+02 7.976500205966345014e-32
3.030009548095904961e+02 7.976500205966345014e-32
3.040009579607774413e+02 7.976500205966345014e-32
3.050009611119640454e+02 7.976500205966345014e-32
3.060009642631509905e+02 7.976500205966345014e-32
3.070009674143375378e+02 7.976500205966345014e-32
3.080009705655244261e+02 7.976500205966345014e-32
3.090009737167110870e+02 7.976500205966345014e-32
3.100009768678977480e+02 7.976500205966345014e-32
3.110009800190846363e+02 7.976500205966345014e-32
3.120009831702715246e+02 7.976500205966345014e-32
3.130009863214581856e+02 7.976500205966345014e-32
3.140009894726448465e+02 7.976500205966345014e-32
3.150009926238316780e+02 7.976500205966345014e-32
3.160009957750182821e+02 7.976500205966345014e-32
3.170009989262052272e+02 7.976500205966345014e-32
3.180010020773918313e+02 7.976500205966345014e-32
3.190010052285787765e+02 7.976500205966345014e-32
3.200010083797653806e+02 7.976500205966345014e-32
