#####################################################################
# Alchemist log file - simulation started at: 2017-05-25T12:52+0000 #
#####################################################################
# random = 8.0, targets = 10.0, density = 0.3174802103936399, gridShift = 1.0, perturbation = 0.0, connfactor = 0.5
#
# The columns have the following meaning: 
# time se[Mean] 
0.0 NaN 
1.0447112257851685 NaN 
2.0447112257851687 1.0 
3.0447112257851687 0.9935714285714285 
4.044711225785169 0.9629017857142858 
5.044711225785169 0.941875 
6.044711225785169 0.9109375 
7.044711225785169 0.9047321428571429 
8.044711225785168 0.9027232142857142 
9.044711225785168 0.8805357142857143 
10.044711225785168 0.9008382936507936 
11.044711225785168 0.8988442460317461 
12.044711225785168 0.8798164682539682 
13.044711225785168 0.8818650793650794 
14.044711225785168 0.830828373015873 
15.044711225785168 0.8300892857142858 
16.044711225785168 0.7848214285714287 
17.044711225785168 0.7381795634920636 
18.044711225785168 0.7129811507936509 
19.044711225785168 0.6599801587301588 
20.044711225785168 0.6215426587301588 
21.044711225785168 0.5737301587301588 
22.044711225785168 0.5389384920634921 
23.044711225785168 0.4667460317460318 
24.044711225785168 0.4109424603174604 
25.044711225785168 0.39508928571428575 
26.044711225785168 0.36125 
27.044711225785168 0.3447767857142857 
28.044711225785168 0.3150545634920635 
29.044711225785168 0.2994890873015873 
30.044711225785168 0.3146031746031746 
31.044711225785168 0.31813492063492066 
32.044711225785164 0.33351190476190473 
33.044711225785164 0.345 
34.044711225785164 0.35555555555555557 
35.044711225785164 0.36 
36.044711225785164 0.36 
37.044711225785164 0.36 
38.044711225785164 0.36 
39.044711225785164 0.36 
40.044711225785164 0.36 
41.044711225785164 0.36 
42.044711225785164 0.36 
43.044711225785164 0.36 
44.044711225785164 0.36 
#####################################################################
# End of data export. Simulation finished at: 2017-05-25T12:52+0000 #
#####################################################################
