#####################################################################
# Alchemist log file - simulation started at: 2017-05-22T03:56+0000 #
#####################################################################
# random = 3.0, targets = 31.622776601683793, density = 3.5589026259761294, gridShift = 1.0, perturbation = 0.5, connfactor = 0.25
#
# The columns have the following meaning: 
# time se[Mean] 
0.0 NaN 
1.0016359619213666 NaN 
2.001635961921367 1.0 
3.001635961921367 1.0 
4.001635961921367 0.9992697900334525 
5.001635961921367 0.9988182669243375 
6.001635961921367 0.9947396174274612 
7.001635961921367 0.9903296494942051 
8.001635961921366 0.9862270765523528 
9.001635961921366 0.9796121246524687 
10.001635961921366 0.973953437997617 
11.001635961921366 0.967369282214005 
12.001635961921366 0.9659644736522099 
13.001635961921366 0.9587562628699969 
14.001635961921366 0.9542927715477417 
15.001635961921366 0.9486346936172839 
16.001635961921366 0.946459918319073 
17.001635961921366 0.9418268961762234 
18.001635961921366 0.9421067792059046 
19.001635961921366 0.9367731683170696 
20.001635961921366 0.9417022111766897 
21.001635961921366 0.9374510510668667 
22.001635961921366 0.9365874785328469 
23.001635961921366 0.9304387294477996 
24.001635961921366 0.9346788196451864 
25.001635961921366 0.9281296784955255 
26.001635961921366 0.9260395270647827 
27.001635961921366 0.9189958006050497 
28.001635961921366 0.9172907740853439 
29.001635961921366 0.9111788019778123 
30.001635961921366 0.9088057664484969 
31.001635961921366 0.9029880101610932 
32.001635961921366 0.9019067555543302 
33.001635961921366 0.8936238797509921 
34.001635961921366 0.8908232445575376 
35.001635961921366 0.8851777370739617 
36.001635961921366 0.8816367350881145 
37.001635961921366 0.8760295051165002 
38.001635961921366 0.8677640908317339 
39.001635961921366 0.8564266591888068 
40.001635961921366 0.8461752668416381 
41.001635961921366 0.8309626626433648 
42.001635961921366 0.8245283540295891 
43.001635961921366 0.8027765184842679 
44.001635961921366 0.8031844687554922 
45.001635961921366 0.7846247701349114 
46.001635961921366 0.7750290420971637 
47.001635961921366 0.7500863296289679 
48.001635961921366 0.7434232755206648 
49.001635961921366 0.7181073425249552 
50.001635961921366 0.6979712803693013 
51.001635961921366 0.6826240961547682 
52.001635961921366 0.6492596390290263 
53.001635961921366 0.639062887627602 
54.001635961921366 0.6168616530178921 
55.001635961921366 0.6013923167888608 
56.001635961921366 0.5918238324130645 
57.001635961921366 0.5717179789258274 
58.001635961921366 0.5647651402804645 
59.001635961921366 0.5477478100302912 
60.001635961921366 0.5336916425874921 
61.001635961921366 0.5165757256758 
62.001635961921366 0.5232842934731046 
63.001635961921366 0.4922540566882689 
64.00163596192137 0.5029854173924999 
65.00163596192137 0.49906108421553624 
66.00163596192137 0.49675916558986727 
67.00163596192137 0.5036705352424317 
68.00163596192137 0.4936570293555151 
69.00163596192137 0.4963538853350515 
70.00163596192137 0.5075942777408253 
71.00163596192137 0.4897120381438457 
72.00163596192137 0.49618396650145935 
73.00163596192137 0.4958972930251505 
74.00163596192137 0.4946968892773632 
75.00163596192137 0.5027250153772267 
76.00163596192137 0.4932279922880919 
77.00163596192137 0.491969193551572 
78.00163596192137 0.5089062691923112 
79.00163596192137 0.47204233783861754 
80.00163596192137 0.49374527925751005 
81.00163596192137 0.45744808940800435 
82.00163596192137 0.46344736059193425 
83.00163596192137 0.47586254596329325 
84.00163596192137 0.4748375983629621 
85.00163596192137 0.46082600879068014 
86.00163596192137 0.47123238713028476 
87.00163596192137 0.4582069844274019 
88.00163596192137 0.4537299958626922 
89.00163596192137 0.44940313647657176 
90.00163596192137 0.4314019821297234 
91.00163596192137 0.43214948447943624 
92.00163596192137 0.4136323431858533 
93.00163596192137 0.41948269687700673 
94.00163596192137 0.41647119494314017 
95.00163596192137 0.41827071077526695 
96.00163596192137 0.41952356290838605 
97.00163596192137 0.41888756746383604 
98.00163596192137 0.4202008156572503 
99.00163596192137 0.420013037890727 
100.00163596192137 0.4197373521021861 
101.00163596192137 0.4215912063224429 
102.00163596192137 0.4204325474347824 
103.00163596192137 0.42298159698763554 
104.00163596192137 0.4222864016550392 
105.00163596192137 0.4213594745449108 
106.00163596192137 0.4215912063224429 
107.00163596192137 0.42298159698763554 
108.00163596192137 0.4213594745449108 
109.00163596192137 0.42251813343257133 
110.00163596192137 0.42274986521010344 
111.00163596192137 0.42274986521010344 
112.00163596192137 0.424140255875296 
113.00163596192137 0.424140255875296 
114.00163596192137 0.42529891476295656 
115.00163596192137 0.42506718298542445 
116.00163596192137 0.42529891476295656 
117.00163596192137 0.42529891476295656 
118.00163596192137 0.42529891476295656 
119.00163596192137 0.42529891476295656 
120.00163596192137 0.42529891476295656 
121.00163596192137 0.42529891476295656 
122.00163596192137 0.42529891476295656 
123.00163596192137 0.42529891476295656 
124.00163596192137 0.42529891476295656 
125.00163596192137 0.42529891476295656 
126.00163596192137 0.42529891476295656 
127.00163596192137 0.42529891476295656 
128.00163596192135 0.42529891476295656 
129.00163596192135 0.42529891476295656 
130.00163596192135 0.42529891476295656 
131.00163596192135 0.42529891476295656 
132.00163596192135 0.42529891476295656 
133.00163596192135 0.42529891476295656 
134.00163596192135 0.42529891476295656 
135.00163596192135 0.42529891476295656 
136.00163596192135 0.42529891476295656 
137.00163596192135 0.42529891476295656 
138.00163596192135 0.42529891476295656 
139.00163596192135 0.42529891476295656 
140.00163596192135 0.42529891476295656 
141.00163596192135 0.42529891476295656 
142.00163596192135 0.42529891476295656 
143.00163596192135 0.42529891476295656 
144.00163596192135 0.42529891476295656 
145.00163596192135 0.42529891476295656 
146.00163596192135 0.42529891476295656 
147.00163596192135 0.42529891476295656 
148.00163596192135 0.42529891476295656 
149.00163596192135 0.42529891476295656 
150.00163596192135 0.42529891476295656 
151.00163596192135 0.42529891476295656 
152.00163596192135 0.42529891476295656 
153.00163596192135 0.42529891476295656 
#####################################################################
# End of data export. Simulation finished at: 2017-05-22T04:00+0000 #
#####################################################################
