#####################################################################
# Alchemist log file - simulation started at: 2017-05-19T19:56+0000 #
#####################################################################
# random = 0.0, targets = 3.1622776601683795, density = 0.1591589639397027, gridShift = 1.0, perturbation = 0.0, connfactor = 1.5
#
# The columns have the following meaning: 
# time se[Mean] 
0.0 NaN 
1.0078686373248142 NaN 
2.0078686373248145 0.9805848155988774 
3.0078686373248145 1.0391227766016837 
4.0078686373248145 1.119054503167266 
5.0078686373248145 1.226734747467304 
6.0078686373248145 1.4456820280203164 
7.0078686373248145 1.8253016474571315 
8.007868637324815 2.122991452471163 
9.007868637324815 2.329277866997165 
10.007868637324815 1.8679331892295599 
11.007868637324815 1.8598728212113775 
12.007868637324815 1.3296393187661433 
13.007868637324815 0.9971152564530094 
14.007868637324815 0.8106340318165685 
15.007868637324815 0.5130223820072488 
16.007868637324815 0.33385115972299584 
17.007868637324815 0.12980653832602415 
18.007868637324815 0.07754549534648641 
19.007868637324815 0.05589839958662782 
20.007868637324815 0.030654822737319086 
21.007868637324815 0.014124638728227876 
22.007868637324815 0.004728961022653289 
23.007868637324815 0.0023800094906295814 
24.007868637324815 0.0023702561428556117 
25.007868637324815 0.0024579720615612198 
26.007868637324815 0.0025456879802668274 
27.007868637324815 0.0025456879802668274 
28.007868637324815 0.0026334038989724354 
29.007868637324815 0.0026334038989724354 
30.007868637324815 0.0026334038989724354 
31.007868637324815 0.0026334038989724354 
32.00786863732482 0.0026334038989724354 
33.00786863732482 0.0026334038989724354 
#####################################################################
# End of data export. Simulation finished at: 2017-05-19T19:56+0000 #
#####################################################################
