#####################################################################
# Alchemist log file - simulation started at: 2017-05-24T00:02+0000 #
#####################################################################
# random = 13.0, targets = 3.1622776601683795, density = 20.0, gridShift = 0.0, perturbation = 0.5, connfactor = 2.0
#
# The columns have the following meaning: 
# time se[Mean] 
0.0 NaN 
1.0002602723432414 NaN 
2.000260272343241 NaN 
3.000260272343241 1.0125896717866127 
4.000260272343241 1.0190598823159318 
5.000260272343241 1.0357733489930163 
6.000260272343241 1.0175213436343615 
7.000260272343241 1.0227031283618848 
8.00026027234324 1.0301148199411019 
9.00026027234324 1.0217316946996853 
10.00026027234324 1.0256685897300486 
11.00026027234324 1.0236285079876648 
12.00026027234324 1.0438013243434603 
13.00026027234324 1.0380757525010353 
14.00026027234324 1.0573876997634732 
15.00026027234324 1.0511360099303984 
16.00026027234324 1.038086477153053 
17.00026027234324 1.051474041996296 
18.00026027234324 1.0375918822059456 
19.00026027234324 1.0273817393214673 
20.00026027234324 1.0310402327713242 
21.00026027234324 1.0241024257658191 
22.00026027234324 1.0133197517383907 
23.00026027234324 1.0168882527128247 
24.00026027234324 1.0139737263384812 
25.00026027234324 1.0071006759520116 
26.00026027234324 1.0107203912113236 
27.00026027234324 1.003658339933208 
28.00026027234324 0.997203123677814 
29.00026027234324 0.9987709433603088 
30.00026027234324 0.9960241903198486 
31.00026027234324 1.0006133871746337 
32.00026027234324 1.0066289535960995 
33.00026027234324 1.018599131609019 
34.00026027234324 1.0283229017428686 
35.00026027234324 1.042776384091914 
36.00026027234324 1.0709669360364287 
37.00026027234324 1.0729237407464132 
38.00026027234324 1.0737289705956035 
39.00026027234324 1.1000535534013567 
40.00026027234324 1.1166727588914758 
41.00026027234324 1.1209394296764494 
42.00026027234324 1.1625853613897905 
43.00026027234324 1.1786606387539302 
44.00026027234324 1.2000057896954015 
45.00026027234324 1.2199353325681228 
46.00026027234324 1.2242398476986043 
47.00026027234324 1.232845222643829 
48.00026027234324 1.2699067406671978 
49.00026027234324 1.2808573397244163 
50.00026027234324 1.3168227290375007 
51.00026027234324 1.3248691331417002 
52.00026027234324 1.3366305974123898 
53.00026027234324 1.3907152042554332 
54.00026027234324 1.4511695264862159 
55.00026027234324 1.58129246853132 
56.00026027234324 1.8109881643031678 
57.00026027234324 1.9542844956296976 
58.00026027234324 2.2949240013239187 
59.00026027234324 2.7134729463567013 
60.00026027234324 2.859771146693825 
61.00026027234324 3.0878398833211165 
62.00026027234324 3.308719449170648 
63.00026027234324 3.7308064649582433 
64.00026027234324 4.080913410530137 
65.00026027234324 4.683914513682302 
66.00026027234324 4.527185856628648 
67.00026027234324 4.866351809960387 
68.00026027234324 5.4028073623615915 
69.00026027234324 5.171706468137994 
70.00026027234324 5.116737933320465 
71.00026027234324 5.554951819661496 
72.00026027234324 5.541547096026584 
73.00026027234324 5.498563389616773 
74.00026027234324 5.775605914640789 
75.00026027234324 6.019901092700821 
76.00026027234324 6.4733631911133545 
77.00026027234324 6.887072824830418 
78.00026027234324 7.936788375920388 
79.00026027234324 8.967351161516065 
80.00026027234324 8.825748298505617 
81.00026027234324 9.540757657165956 
82.00026027234324 9.503554385826602 
83.00026027234324 11.205266905970836 
84.00026027234324 11.367638651339282 
85.00026027234324 13.329253034777588 
86.00026027234324 11.955285761974205 
87.00026027234324 13.267375307087587 
88.00026027234324 14.181104487393409 
89.00026027234324 12.429791891343942 
90.00026027234324 12.60743833390364 
91.00026027234324 13.382154601213077 
92.00026027234324 12.384182994033138 
93.00026027234324 12.435581434014841 
94.00026027234324 12.4071965450856 
95.00026027234324 11.721483016749005 
96.00026027234324 11.48408459311917 
97.00026027234324 12.205287677099232 
98.00026027234324 11.410291302976667 
99.00026027234324 11.927698926134633 
100.00026027234324 11.445390253330574 
101.00026027234324 12.080976529350005 
102.00026027234324 11.590269299431435 
103.00026027234324 13.174227871194674 
104.00026027234324 11.003033816858855 
105.00026027234324 13.274970436544292 
106.00026027234324 12.222762647924826 
107.00026027234324 12.48689322002914 
108.00026027234324 13.296994555209567 
109.00026027234324 13.133345174621027 
110.00026027234324 13.28751272051069 
111.00026027234324 13.422344676903178 
112.00026027234324 14.140596433396118 
113.00026027234324 13.441197762039248 
114.00026027234324 13.735229055856175 
115.00026027234324 15.43503654439707 
116.00026027234324 14.608819337096161 
117.00026027234324 13.97897527764076 
118.00026027234324 15.900189270406486 
119.00026027234324 15.629572514566783 
120.00026027234324 15.18304335945144 
121.00026027234324 15.095876857601445 
122.00026027234324 15.757377943692426 
123.00026027234324 15.124756972985024 
124.00026027234324 15.39485288430351 
125.00026027234324 13.870162858806133 
126.00026027234324 14.324578840918846 
127.00026027234324 14.599173369381901 
128.00026027234324 12.506885514892097 
129.00026027234324 11.680059649007205 
130.00026027234324 10.490399598124265 
131.00026027234324 9.845075643429707 
132.00026027234324 9.392720563012235 
133.00026027234324 8.569876764431706 
134.00026027234324 8.103447635599714 
135.00026027234324 8.000492810625854 
136.00026027234324 7.903869821429474 
137.00026027234324 7.979416309986977 
138.00026027234324 8.057981117410241 
139.00026027234324 8.107229550158573 
140.00026027234324 8.169219695733199 
141.00026027234324 8.227755446278348 
142.00026027234324 8.26559809342652 
143.00026027234324 8.304316620089015 
144.00026027234324 8.338586292862354 
145.00026027234324 8.355879237885727 
146.00026027234324 8.375687478121652 
147.00026027234324 8.379184553654403 
148.00026027234324 8.390537601158819 
149.00026027234324 8.385281491661917 
150.00026027234324 8.379571049642292 
151.00026027234324 10.765404713668927 
152.00026027234324 13.148167547032092 
153.00026027234324 20.331632763336987 
154.00026027234324 22.712555227085303 
155.00026027234324 37.089971054433555 
156.00026027234324 49.05877061415082 
157.00026027234324 46.67724941635226 
158.00026027234324 53.86158797469185 
159.00026027234324 53.87514748014688 
160.00026027234324 70.66022404979387 
161.00026027234324 77.85574211685217 
162.00026027234324 99.43364058621788 
163.00026027234324 80.30537878587403 
164.00026027234324 99.48766428418193 
165.00026027234324 111.48630758563381 
166.00026027234324 87.56593180321165 
167.00026027234324 94.77663804789125 
168.00026027234324 106.78686644646467 
169.00026027234324 94.85192748638178 
170.00026027234324 99.68165763677005 
171.00026027234324 97.3352552047613 
172.00026027234324 95.00623377979365 
173.00026027234324 90.29787114892935 
174.00026027234324 99.90317384857285 
175.00026027234324 90.41107153711262 
176.00026027234324 97.64661470178568 
177.00026027234324 92.95450133080237 
178.00026027234324 100.1927091684727 
179.00026027234324 93.10416771411299 
180.00026027234324 114.66806928820111 
181.00026027234324 86.03942467008834 
182.00026027234324 114.8844471438138 
183.00026027234324 100.47957692764226 
184.00026027234324 102.93501978410536 
185.00026027234324 112.61318282135258 
186.00026027234324 110.20891503071987 
187.00026027234324 110.23919579770293 
188.00026027234324 110.29341464728506 
189.00026027234324 119.89586702223242 
190.00026027234324 110.34510583014843 
191.00026027234324 112.8119533318574 
192.00026027234324 134.37408088134904 
193.00026027234324 122.45611811568371 
194.00026027234324 112.93123502445724 
195.00026027234324 136.94791328071946 
196.00026027234324 132.19787172768258 
197.00026027234324 125.12013293585123 
198.00026027234324 122.71456553852767 
199.00026027234324 132.43858599095438 
200.00026027234324 130.06671584579794 
201.00026027234324 134.90661465100632 
202.00026027234324 111.03837896421926 
203.00026027234324 111.09560556243937 
204.00026027234324 115.90694506411263 
205.00026027234324 82.42675122938432 
206.00026027234324 77.70844310745888 
207.00026027234324 58.55010415275573 
208.00026027234324 60.980605674473374 
209.00026027234324 49.089604342257694 
210.00026027234324 39.511245572048175 
211.00026027234324 46.68303201910182 
212.00026027234324 39.614424936730146 
213.00026027234324 39.62490602773279 
214.00026027234324 18.03639933444865 
215.00026027234324 27.647183970604836 
216.00026027234324 22.909781863534434 
217.00026027234324 15.711713953117643 
218.00026027234324 18.111022883068365 
219.00026027234324 10.88316052451709 
220.00026027234324 13.286389495727953 
221.00026027234324 13.305446691598199 
222.00026027234324 10.798026775379046 
223.00026027234324 10.758186429732914 
224.00026027234324 10.718224670912269 
225.00026027234324 10.681958993115524 
226.00026027234324 10.605366699266465 
227.00026027234324 10.548748158976814 
228.00026027234324 10.548981207024477 
229.00026027234324 10.516320095786101 
230.00026027234324 10.48861452650951 
231.00026027234324 10.430711408827468 
232.00026027234324 10.454487281586289 
233.00026027234324 10.433406517506446 
234.00026027234324 10.383672672684392 
235.00026027234324 10.378490975975 
236.00026027234324 10.363820227223975 
237.00026027234324 10.3543394153466 
238.00026027234324 10.349360123583029 
239.00026027234324 10.335578900845652 
240.00026027234324 10.330599609082084 
241.00026027234324 10.333396334618724 
242.00026027234324 10.329985449772371 
243.00026027234324 10.32718872423573 
244.00026027234324 10.32718872423573 
245.00026027234324 10.32718872423573 
246.00026027234324 10.32718872423573 
247.00026027234324 10.32718872423573 
248.00026027234324 10.32718872423573 
249.00026027234324 10.32718872423573 
250.00026027234324 10.32718872423573 
251.00026027234324 10.32718872423573 
252.00026027234324 10.32718872423573 
253.00026027234324 10.32718872423573 
254.00026027234324 10.32718872423573 
255.00026027234324 10.32718872423573 
256.0002602723432 10.32718872423573 
257.0002602723432 10.32718872423573 
258.0002602723432 10.32718872423573 
259.0002602723432 10.32718872423573 
260.0002602723432 10.32718872423573 
261.0002602723432 10.32718872423573 
262.0002602723432 10.32718872423573 
263.0002602723432 10.32718872423573 
264.0002602723432 10.32718872423573 
265.0002602723432 10.32718872423573 
266.0002602723432 10.32718872423573 
267.0002602723432 10.32718872423573 
268.0002602723432 10.32718872423573 
269.0002602723432 10.32718872423573 
270.0002602723432 10.32718872423573 
271.0002602723432 10.32718872423573 
272.0002602723432 10.32718872423573 
273.0002602723432 10.32718872423573 
274.0002602723432 10.32718872423573 
275.0002602723432 10.32718872423573 
276.0002602723432 10.32718872423573 
277.0002602723432 10.32718872423573 
278.0002602723432 10.32718872423573 
279.0002602723432 10.32718872423573 
280.0002602723432 10.32718872423573 
281.0002602723432 10.32718872423573 
282.0002602723432 10.32718872423573 
283.0002602723432 10.32718872423573 
284.0002602723432 10.32718872423573 
285.0002602723432 10.32718872423573 
286.0002602723432 10.32718872423573 
287.0002602723432 10.32718872423573 
288.0002602723432 10.32718872423573 
289.0002602723432 10.32718872423573 
290.0002602723432 10.32718872423573 
291.0002602723432 10.32718872423573 
292.0002602723432 10.32718872423573 
293.0002602723432 10.32718872423573 
294.0002602723432 10.32718872423573 
295.0002602723432 10.32718872423573 
296.0002602723432 10.32718872423573 
297.0002602723432 10.32718872423573 
298.0002602723432 10.32718872423573 
299.0002602723432 10.32718872423573 
300.0002602723432 10.32718872423573 
301.0002602723432 10.32718872423573 
302.0002602723432 10.32718872423573 
303.0002602723432 10.32718872423573 
304.0002602723432 10.32718872423573 
305.0002602723432 10.32718872423573 
306.0002602723432 10.32718872423573 
307.0002602723432 10.32718872423573 
308.0002602723432 10.32718872423573 
309.0002602723432 10.32718872423573 
310.0002602723432 10.32718872423573 
311.0002602723432 10.32718872423573 
312.0002602723432 10.32718872423573 
313.0002602723432 10.32718872423573 
314.0002602723432 10.32718872423573 
315.0002602723432 10.32718872423573 
316.0002602723432 10.32718872423573 
317.0002602723432 10.32718872423573 
318.0002602723432 10.32718872423573 
319.0002602723432 10.32718872423573 
320.0002602723432 10.32718872423573 
321.0002602723432 10.32718872423573 
322.0002602723432 10.32718872423573 
323.0002602723432 10.32718872423573 
324.0002602723432 10.32718872423573 
325.0002602723432 10.32718872423573 
326.0002602723432 10.32718872423573 
327.0002602723432 10.32718872423573 
328.0002602723432 10.32718872423573 
329.0002602723432 10.32718872423573 
330.0002602723432 10.32718872423573 
331.0002602723432 10.32718872423573 
332.0002602723432 10.32718872423573 
333.0002602723432 10.32718872423573 
334.0002602723432 10.32718872423573 
335.0002602723432 10.32718872423573 
336.0002602723432 10.32718872423573 
337.0002602723432 10.32718872423573 
338.0002602723432 10.32718872423573 
339.0002602723432 10.32718872423573 
340.0002602723432 10.32718872423573 
341.0002602723432 10.32718872423573 
342.0002602723432 10.32718872423573 
343.0002602723432 10.32718872423573 
344.0002602723432 10.32718872423573 
345.0002602723432 10.32718872423573 
346.0002602723432 10.32718872423573 
347.0002602723432 10.32718872423573 
348.0002602723432 10.32718872423573 
349.0002602723432 10.32718872423573 
#####################################################################
# End of data export. Simulation finished at: 2017-05-24T00:10+0000 #
#####################################################################
