0.000000000000000000e+00 nan
0.000000000000000000e+00 6.873546073247263632e-04
0.000000000000000000e+00 1.909618236029349270e-01
8.881784197001252323e-16 1.866233590739704851e-01
0.000000000000000000e+00 1.881186922786727833e-01
8.881784197001252323e-16 1.796905865822912007e-01
1.776356839400250465e-15 1.747231529789733118e-01
8.881784197001252323e-16 1.761173296288594536e-01
0.000000000000000000e+00 1.739356023657555039e-01
1.776356839400250465e-15 1.776473375954200906e-01
1.776356839400250465e-15 1.725219626359959513e-01
0.000000000000000000e+00 1.777716992152327258e-01
3.552713678800500929e-15 1.757781798527713879e-01
5.329070518200751394e-15 1.822539559996305125e-01
1.776356839400250465e-15 1.950342209452116393e-01
8.881784197001252323e-15 1.964652283019709955e-01
0.000000000000000000e+00 2.021575437822607235e-01
3.552713678800500929e-15 2.033347479784608225e-01
3.552713678800500929e-15 2.057334895228596638e-01
0.000000000000000000e+00 2.039056540730957434e-01
3.552713678800500929e-15 2.355005571525968233e-01
7.105427357601001859e-15 2.343014063022645088e-01
0.000000000000000000e+00 3.035979482881704938e-01
1.065814103640150279e-14 3.089910917822538128e-01
7.105427357601001859e-15 2.932615274852365950e-01
0.000000000000000000e+00 3.809834276862005265e-01
1.065814103640150279e-14 4.032277476718080234e-01
3.552713678800500929e-15 3.841147382306692171e-01
3.552713678800500929e-15 5.667549842382441083e-01
3.552713678800500929e-15 4.944772333482079230e-01
1.776356839400250465e-14 5.342321369444439361e-01
7.105427357601001859e-15 4.208384896231058270e-01
0.000000000000000000e+00 3.419035029784205926e-01
2.131628207280300558e-14 2.611559723238486841e-01
7.105427357601001859e-15 6.825711448773066348e-01
1.421085471520200372e-14 5.306508032094310323e-01
7.105427357601001859e-15 1.041844434154111321e+00
7.105427357601001859e-15 8.959719461690390796e-01
0.000000000000000000e+00 1.228153172017014683e+00
1.421085471520200372e-14 1.903939887368256256e+00
7.105427357601001859e-15 1.036159599197757464e+00
2.842170943040400743e-14 1.597809611417717379e+00
1.421085471520200372e-14 1.377184198874608967e+00
1.421085471520200372e-14 1.351008304405088012e+00
0.000000000000000000e+00 1.768180757665416269e+00
7.105427357601001859e-15 1.297583117474886638e+00
2.131628207280300558e-14 1.335084781876098914e+00
2.131628207280300558e-14 1.110685262997211264e+00
1.421085471520200372e-14 1.341947728924898886e+00
2.131628207280300558e-14 9.503261935676120542e-01
0.000000000000000000e+00 7.209984083733511628e-01
0.000000000000000000e+00 9.121066009214683357e-01
2.131628207280300558e-14 8.485831523372161511e-01
2.131628207280300558e-14 1.039370082198895595e+00
7.105427357601001859e-15 8.217857463099893511e-01
7.105427357601001859e-15 8.840872737778791013e-01
7.105427357601001859e-15 5.713009402062882991e-01
7.105427357601001859e-15 5.360317639341450890e-01
7.105427357601001859e-15 2.073038167393810582e-01
7.105427357601001859e-15 1.989540981036320988e-01
3.552713678800500929e-14 1.303424849752978232e-01
2.131628207280300558e-14 1.049309418013295858e-01
1.421085471520200372e-14 1.049309418013295858e-01
0.000000000000000000e+00 1.049309418013295858e-01
0.000000000000000000e+00 1.049309418013295858e-01
1.421085471520200372e-14 1.049309418013295858e-01
4.263256414560601115e-14 1.049309418013295858e-01
1.421085471520200372e-14 1.049309418013295858e-01
1.421085471520200372e-14 1.049309418013295858e-01
2.842170943040400743e-14 1.049309418013295858e-01
2.842170943040400743e-14 1.049309418013295858e-01
1.421085471520200372e-14 1.049309418013295858e-01
1.421085471520200372e-14 1.049309418013295858e-01
4.263256414560601115e-14 1.049309418013295858e-01
1.421085471520200372e-14 1.049309418013295858e-01
0.000000000000000000e+00 1.049309418013295858e-01
0.000000000000000000e+00 1.049309418013295858e-01
1.421085471520200372e-14 1.049309418013295858e-01
