#####################################################################
# Alchemist log file - simulation started at: 2017-05-26T03:06+0000 #
#####################################################################
# random = 9.0, targets = 3.1622776601683795, density = 0.894427190999916, gridShift = 0.0, perturbation = 0.5, connfactor = 0.75
#
# The columns have the following meaning: 
# time se[Mean] 
0.0 NaN 
1.0078258106860618 NaN 
2.007825810686062 NaN 
3.007825810686062 1.0253829958230145 
4.007825810686062 1.0334807152814651 
5.007825810686062 1.0157459748357218 
6.007825810686062 0.9435020844657958 
7.007825810686062 0.8786116378164364 
8.007825810686061 0.856633509038139 
9.007825810686061 0.8316444067925796 
10.007825810686061 0.80883983173329 
11.007825810686061 0.7821132641173882 
12.007825810686061 0.7725728909452999 
13.007825810686061 0.7709948984500811 
14.007825810686061 0.7667080146206482 
15.007825810686061 0.754668973042544 
16.00782581068606 0.7526753551415785 
17.00782581068606 0.7526753551415785 
18.00782581068606 0.7474267021697201 
19.00782581068606 0.7613167842311613 
20.00782581068606 0.7736699670290111 
21.00782581068606 0.7682618252618816 
22.00782581068606 0.770806407350175 
23.00782581068606 0.7919605080328793 
24.00782581068606 0.7838482953821848 
25.00782581068606 0.7848559782068875 
26.00782581068606 0.810091560241476 
27.00782581068606 0.8022983251813247 
28.00782581068606 0.8241411310981882 
29.00782581068606 0.8408947728384657 
30.00782581068606 0.8463029146055951 
31.00782581068606 0.8631024700281495 
32.00782581068606 0.8774951844092427 
33.00782581068606 0.8902374244137508 
34.00782581068606 0.8809532037722855 
35.00782581068606 1.0109324997147113 
36.00782581068606 1.1521872160141697 
37.00782581068606 1.012329239746072 
38.00782581068606 1.7920237788569189 
39.00782581068606 0.9903245268485381 
40.00782581068606 1.7556964311944065 
41.00782581068606 1.3414170690442482 
42.00782581068606 1.562733299589682 
43.00782581068606 2.0481862671072038 
44.00782581068606 1.8904243888564976 
45.00782581068606 1.7026301737860685 
46.00782581068606 1.9242508887298015 
47.00782581068606 3.675348283216457 
48.00782581068606 5.56124591028466 
49.00782581068606 3.072225961779834 
50.00782581068606 13.942398185346837 
51.00782581068606 3.5162455379209097 
52.00782581068606 13.633500587806475 
53.00782581068606 7.79267035772686 
54.00782581068606 11.36616422706575 
55.00782581068606 18.401736258793107 
56.00782581068606 16.58159445442384 
57.00782581068606 14.62146670100212 
58.00782581068606 18.189545174017688 
59.00782581068606 18.16310137489194 
60.00782581068606 19.948261964858307 
61.00782581068606 10.928822467387205 
62.00782581068606 12.707721821505618 
63.00782581068606 18.08471979901146 
64.00782581068606 9.082906255483458 
65.00782581068606 3.669904855717476 
66.00782581068606 3.6546300449509332 
67.00782581068606 1.8454059287011888 
68.00782581068606 1.8434268517529093 
69.00782581068606 0.03571553251350971 
70.00782581068606 0.02318104949136032 
71.00782581068606 0.016559758741390984 
72.00782581068606 0.013862926493874567 
73.00782581068606 0.010506407236980436 
74.00782581068606 0.008954982940851343 
75.00782581068606 0.005235974676388537 
76.00782581068606 0.005504202213856933 
77.00782581068606 0.006113155090307457 
78.00782581068606 0.004409528395396805 
79.00782581068606 0.00331485457693667 
80.00782581068606 0.0033148545769366693 
81.00782581068606 0.002974129237954539 
82.00782581068606 0.002974129237954539 
83.00782581068606 0.002633403898972407 
84.00782581068606 0.002633403898972407 
85.00782581068606 0.002633403898972407 
86.00782581068606 0.002633403898972407 
87.00782581068606 0.002633403898972407 
88.00782581068606 0.002633403898972407 
89.00782581068606 0.002633403898972407 
90.00782581068606 0.002633403898972407 
91.00782581068606 0.002633403898972407 
92.00782581068606 0.002633403898972407 
93.00782581068606 0.002633403898972407 
94.00782581068606 0.002633403898972407 
95.00782581068606 0.002633403898972407 
96.00782581068606 0.002633403898972407 
97.00782581068606 0.002633403898972407 
98.00782581068606 0.002633403898972407 
99.00782581068606 0.002633403898972407 
100.00782581068606 0.002633403898972407 
101.00782581068606 0.002633403898972407 
102.00782581068606 0.002633403898972407 
#####################################################################
# End of data export. Simulation finished at: 2017-05-26T03:07+0000 #
#####################################################################
