#####################################################################
# Alchemist log file - simulation started at: 2017-05-19T23:13+0000 #
#####################################################################
# random = 0.0, targets = 10.0, density = 7.099073319511142, gridShift = 0.0, perturbation = 0.5, connfactor = 0.75
#
# The columns have the following meaning: 
# time se[Mean] 
0.0 NaN 
1.0011337332612453 NaN 
2.0011337332612453 NaN 
3.0011337332612453 1.00613210388322 
4.001133733261245 1.0065037733843538 
5.001133733261245 1.006307486536281 
6.001133733261245 0.996296414399093 
7.001133733261245 0.9894376240079364 
8.001133733261245 0.9843706597222222 
9.001133733261245 0.9770345273526078 
10.001133733261245 0.973212248441043 
11.001133733261245 0.969672087585034 
12.001133733261245 0.9640051020408164 
13.001133733261245 0.9602673256802722 
14.001133733261245 0.9509931264172335 
15.001133733261245 0.9435797548185941 
16.001133733261245 0.9380022321428569 
17.001133733261245 0.929809736394558 
18.001133733261245 0.9257126913265304 
19.001133733261245 0.9233861252834465 
20.001133733261245 0.9226531498015874 
21.001133733261245 0.9199394132653061 
22.001133733261245 0.9184290851757371 
23.001133733261245 0.9125189554988664 
24.001133733261245 0.9084692106009072 
25.001133733261245 0.9023920245181406 
26.001133733261245 0.8894754464285712 
27.001133733261245 0.8807761125283448 
28.001133733261245 0.8709589356575963 
29.001133733261245 0.8537372448979592 
30.001133733261245 0.8343137932256236 
31.001133733261245 0.8212316645408164 
32.00113373326124 0.8025441113945577 
33.00113373326124 0.7921700503117917 
34.00113373326124 0.7719551622732426 
35.00113373326124 0.7624397675736964 
36.00113373326124 0.7558400651927442 
37.00113373326124 0.7456687570861678 
38.00113373326124 0.7332200432256238 
39.00113373326124 0.7239021754535145 
40.00113373326124 0.7176345486111109 
41.00113373326124 0.7152822066326535 
42.00113373326124 0.7055112670068024 
43.00113373326124 0.7038592155612249 
44.00113373326124 0.7050393282312921 
45.00113373326124 0.699300860969388 
46.00113373326124 0.6984657560941041 
47.00113373326124 0.6937148348922906 
48.00113373326124 0.6859057008219953 
49.00113373326124 0.6836233347505668 
50.00113373326124 0.6813539009353741 
51.00113373326124 0.6682676091269846 
52.00113373326124 0.667086167800454 
53.00113373326124 0.6497406462585036 
54.00113373326124 0.6452756519274379 
55.00113373326124 0.6351506696428573 
56.00113373326124 0.6162754216269842 
57.00113373326124 0.6136185515873015 
58.00113373326124 0.6017362882653059 
59.00113373326124 0.5883014455782308 
60.00113373326124 0.5660108418367346 
61.00113373326124 0.5566129003684809 
62.00113373326124 0.5292310622165528 
63.00113373326124 0.5223868870464845 
64.00113373326124 0.5055699936224496 
65.00113373326124 0.48681990504535144 
66.00113373326124 0.46666888109410404 
67.00113373326124 0.44957040107709756 
68.00113373326124 0.4645055626417235 
69.00113373326124 0.6102873441043085 
70.00113373326124 0.7558401537698415 
71.00113373326124 0.8267191043083895 
72.00113373326124 1.1920196464002275 
73.00113373326124 1.4557339498299307 
74.00113373326124 1.4226775970804992 
75.00113373326124 1.6247038867630383 
76.00113373326124 1.8883189838435375 
77.00113373326124 1.927839958900228 
78.00113373326124 2.0889184736394544 
79.00113373326124 2.2451209963151926 
80.00113373326124 2.0647646506519286 
81.00113373326124 2.4381052473072584 
82.00113373326124 2.5468421378968227 
83.00113373326124 2.26153628117914 
84.00113373326124 2.6132000248015888 
85.00113373326124 2.790179457199545 
86.00113373326124 2.83731779691043 
87.00113373326124 2.826159385629252 
88.00113373326124 3.072396276218823 
89.00113373326124 2.6508713329081646 
90.00113373326124 3.5149658978174614 
91.00113373326124 3.50749459679705 
92.00113373326124 2.827971584467119 
93.00113373326124 3.2355930236678008 
94.00113373326124 3.2759591128117918 
95.00113373326124 3.2673221371882075 
96.00113373326124 3.3208584892290234 
97.00113373326124 3.7096735048185954 
98.00113373326124 3.0458573377267584 
99.00113373326124 3.2780385487528365 
100.00113373326124 3.0214690511621334 
101.00113373326124 2.5996688988095253 
102.00113373326124 2.2291470025510214 
103.00113373326124 2.149293509070297 
104.00113373326124 2.2041961628401343 
105.00113373326124 2.1219257546768753 
106.00113373326124 2.0790876558956914 
107.00113373326124 1.919853316326536 
108.00113373326124 1.6845378047052157 
109.00113373326124 1.4214494756235798 
110.00113373326124 1.265480619331066 
111.00113373326124 0.8840168827947829 
112.00113373326124 0.7555337655895675 
113.00113373326124 0.7016261869331056 
114.00113373326124 0.8369125566893401 
115.00113373326124 0.6022568558673438 
116.00113373326124 0.4681523703231261 
117.00113373326124 0.34062464569161166 
118.00113373326124 0.3602196712018162 
119.00113373326124 0.25092881944444634 
120.00113373326124 0.17149907879818407 
121.00113373326124 0.11207987882653175 
122.00113373326124 0.11456464356576068 
123.00113373326124 0.07705419146825329 
124.00113373326124 0.052800630668934666 
125.00113373326124 0.037848373724489716 
126.00113373326124 0.03461982709750591 
127.00113373326124 0.025606664540816115 
128.00113373326124 0.013572757227891275 
129.00113373326124 0.006103847789115601 
130.00113373326124 0.003057947137188241 
131.00113373326124 0.0015292835884353803 
132.00113373326124 1.098356009070291E-5 
133.00113373326124 6.377551020408108E-6 
134.00113373326124 3.188775510204052E-6 
135.00113373326124 0.0 
136.00113373326124 0.0 
137.00113373326124 0.0 
138.00113373326124 0.0 
139.00113373326124 0.0 
140.00113373326124 0.0 
141.00113373326124 0.0 
142.00113373326124 0.0 
143.00113373326124 0.0 
144.00113373326124 0.0 
145.00113373326124 0.0 
146.00113373326124 0.0 
147.00113373326124 0.0 
148.00113373326124 0.0 
149.00113373326124 0.0 
150.00113373326124 0.0 
151.00113373326124 0.0 
152.00113373326124 0.0 
153.00113373326124 0.0 
154.00113373326124 0.0 
155.00113373326124 0.0 
156.00113373326124 0.0 
157.00113373326124 0.0 
158.00113373326124 0.0 
159.00113373326124 0.0 
160.00113373326124 0.0 
161.00113373326124 0.0 
162.00113373326124 0.0 
163.00113373326124 0.0 
164.00113373326124 0.0 
165.00113373326124 0.0 
166.00113373326124 0.0 
167.00113373326124 0.0 
168.00113373326124 0.0 
169.00113373326124 0.0 
170.00113373326124 0.0 
171.00113373326124 0.0 
172.00113373326124 0.0 
173.00113373326124 0.0 
174.00113373326124 0.0 
175.00113373326124 0.0 
176.00113373326124 0.0 
177.00113373326124 0.0 
178.00113373326124 0.0 
179.00113373326124 0.0 
180.00113373326124 0.0 
181.00113373326124 0.0 
182.00113373326124 0.0 
183.00113373326124 0.0 
184.00113373326124 0.0 
185.00113373326124 0.0 
186.00113373326124 0.0 
187.00113373326124 0.0 
188.00113373326124 0.0 
189.00113373326124 0.0 
190.00113373326124 0.0 
191.00113373326124 0.0 
192.00113373326124 0.0 
193.00113373326124 0.0 
194.00113373326124 0.0 
195.00113373326124 0.0 
196.00113373326124 0.0 
197.00113373326124 0.0 
#####################################################################
# End of data export. Simulation finished at: 2017-05-19T23:16+0000 #
#####################################################################
