#####################################################################
# Alchemist log file - simulation started at: 2017-05-24T22:38+0000 #
#####################################################################
# random = 16.0, targets = 3.1622776601683795, density = 5.0264212595847235, gridShift = 0.0, perturbation = 0.0, connfactor = 0.25
#
# The columns have the following meaning: 
# time se[Mean] 
0.0 NaN 
1.0036381828704857 NaN 
2.0036381828704855 1.0 
3.0036381828704855 1.0 
4.0036381828704855 0.9990755980346637 
5.0036381828704855 0.9972267941039913 
6.0036381828704855 0.9944535882079826 
7.0036381828704855 0.9861339705199563 
8.003638182870485 0.9741167449705852 
9.003638182870485 0.9510066958371792 
10.003638182870485 0.9371406663571354 
11.003638182870485 0.9186526270504106 
12.003638182870485 0.9066354015010395 
13.003638182870485 0.8927693720209958 
14.003638182870485 0.8770545386102796 
15.003638182870485 0.8567176953728824 
16.003638182870485 0.8520956855462012 
17.003638182870485 0.8289856364127951 
18.003638182870485 0.8151196069327513 
19.003638182870485 0.7938583617300177 
20.003638182870485 0.7883119499380006 
21.003638182870485 0.7688995086659387 
22.003638182870485 0.7615042929432495 
23.003638182870485 0.7522602732898869 
24.003638182870485 0.7467138614978697 
25.003638182870485 0.7402430477405154 
26.003638182870485 0.7309990280871528 
27.003638182870485 0.7263770182604722 
28.003638182870485 0.7152841946764377 
29.003638182870485 0.7115865868150921 
30.003638182870485 0.7026897893839511 
31.003638182870485 0.7030370116061743 
32.00363818287049 0.688593802383017 
33.00363818287049 0.6807386716185433 
34.00363818287049 0.6768065343545371 
35.00363818287049 0.6617907172700345 
36.00363818287049 0.6459586191579882 
37.00363818287049 0.6363673772824034 
38.00363818287049 0.6219241680592459 
39.00363818287049 0.6058621124263072 
40.00363818287049 0.5954637332867178 
41.00363818287049 0.5804433443204452 
42.00363818287049 0.5703967592848455 
43.00363818287049 0.5528468375887651 
44.00363818287049 0.5472958539149784 
45.00363818287049 0.5309322948775077 
46.00363818287049 0.5246640073504322 
47.00363818287049 0.5184825855769671 
48.00363818287049 0.5054419808880054 
49.00363818287049 0.5011306182293943 
50.00363818287049 0.4931049644070269 
51.00363818287049 0.4784272257812081 
52.00363818287049 0.4778180428657108 
53.00363818287049 0.45740965374467357 
54.00363818287049 0.46199508851720217 
55.00363818287049 0.45160585314115015 
56.00363818287049 0.4489681994735479 
57.00363818287049 0.45219217664780215 
58.00363818287049 0.4510743922157267 
59.00363818287049 0.46444553582449893 
60.00363818287049 0.4275622582788697 
61.00363818287049 0.4775821500306107 
62.00363818287049 0.4558061272048649 
63.00363818287049 0.4423862971212978 
64.00363818287049 0.4464448428501721 
65.00363818287049 0.4354829996127748 
66.00363818287049 0.4229784277310057 
67.00363818287049 0.41339632961895906 
68.00363818287049 0.39685149953539195 
69.00363818287049 0.40026131963751227 
70.00363818287049 0.3718835027077754 
71.00363818287049 0.36859712341341916 
72.00363818287049 0.36747019521780533 
73.00363818287049 0.35127258735646055 
74.00363818287049 0.34542924404168024 
75.00363818287049 0.33931479627008715 
76.00363818287049 0.3320779921846489 
77.00363818287049 0.3158620967962278 
78.00363818287049 0.33276489709022017 
79.00363818287049 0.30195652460492756 
80.00363818287049 0.31190573669093746 
81.00363818287049 0.28163796889460646 
82.00363818287049 0.2879839784117564 
83.00363818287049 0.2704918869540077 
84.00363818287049 0.2646972301140223 
85.00363818287049 0.25220637387756045 
86.00363818287049 0.23810581499485595 
87.00363818287049 0.216559749690002 
88.00363818287049 0.21822431491747313 
89.00363818287049 0.21306170040183026 
90.00363818287049 0.1950015729645057 
91.00363818287049 0.18243002708086573 
92.00363818287049 0.1991652719740681 
93.00363818287049 0.17929748754199254 
94.00363818287049 0.17027885352775288 
95.00363818287049 0.16709145140765103 
96.00363818287049 0.15809110492048753 
97.00363818287049 0.15080858201735903 
98.00363818287049 0.14943798065554628 
99.00363818287049 0.1283564022742449 
100.00363818287049 0.13092708193997615 
101.00363818287049 0.12260289237018088 
102.00363818287049 0.10326199698175971 
103.00363818287049 0.1134807092999179 
104.00363818287049 0.10434481058434777 
105.00363818287049 0.10171172879851492 
106.00363818287049 0.09419924837449432 
107.00363818287049 0.09317586923490392 
108.00363818287049 0.08348107830329599 
109.00363818287049 0.08141146061526994 
110.00363818287049 0.08411769250940769 
111.00363818287049 0.06475850959391038 
112.00363818287049 0.06479508464806284 
113.00363818287049 0.05856794405690799 
114.00363818287049 0.050262042014189 
115.00363818287049 0.04798532621411624 
116.00363818287049 0.045915708526090046 
117.00363818287049 0.04165920844870724 
118.00363818287049 0.03530108751091494 
119.00363818287049 0.03694736521130991 
120.00363818287049 0.03233907102993585 
121.00363818287049 0.025877401036120226 
122.00363818287049 0.02624291078541866 
123.00363818287049 0.018969531645828187 
124.00363818287049 0.015975511992465757 
125.00363818287049 0.012638841998650173 
126.00363818287049 0.009649394227056787 
127.00363818287049 0.006659946455463413 
128.00363818287047 0.004013149024323194 
129.00363818287047 0.002633403898972407 
130.00363818287047 0.002633403898972407 
131.00363818287047 0.002633403898972407 
132.00363818287047 0.002633403898972407 
133.00363818287047 0.002633403898972407 
134.00363818287047 0.002633403898972407 
135.00363818287047 0.002633403898972407 
136.00363818287047 0.002633403898972407 
137.00363818287047 0.002633403898972407 
138.00363818287047 0.002633403898972407 
139.00363818287047 0.002633403898972407 
140.00363818287047 0.002633403898972407 
141.00363818287047 0.002633403898972407 
142.00363818287047 0.002633403898972407 
143.00363818287047 0.002633403898972407 
144.00363818287047 0.002633403898972407 
145.00363818287047 0.002633403898972407 
146.00363818287047 0.002633403898972407 
147.00363818287047 0.002633403898972407 
148.00363818287047 0.002633403898972407 
149.00363818287047 0.002633403898972407 
150.00363818287047 0.002633403898972407 
151.00363818287047 0.002633403898972407 
152.00363818287047 0.002633403898972407 
153.00363818287047 0.002633403898972407 
154.00363818287047 0.002633403898972407 
155.00363818287047 0.002633403898972407 
156.00363818287047 0.002633403898972407 
157.00363818287047 0.002633403898972407 
158.00363818287047 0.002633403898972407 
159.00363818287047 0.002633403898972407 
160.00363818287047 0.002633403898972407 
161.00363818287047 0.002633403898972407 
162.00363818287047 0.002633403898972407 
163.00363818287047 0.002633403898972407 
164.00363818287047 0.002633403898972407 
165.00363818287047 0.002633403898972407 
166.00363818287047 0.002633403898972407 
167.00363818287047 0.002633403898972407 
168.00363818287047 0.002633403898972407 
169.00363818287047 0.002633403898972407 
170.00363818287047 0.002633403898972407 
171.00363818287047 0.002633403898972407 
172.00363818287047 0.002633403898972407 
173.00363818287047 0.002633403898972407 
174.00363818287047 0.002633403898972407 
175.00363818287047 0.002633403898972407 
176.00363818287047 0.002633403898972407 
177.00363818287047 0.002633403898972407 
178.00363818287047 0.002633403898972407 
179.00363818287047 0.002633403898972407 
180.00363818287047 0.002633403898972407 
181.00363818287047 0.002633403898972407 
#####################################################################
# End of data export. Simulation finished at: 2017-05-24T22:38+0000 #
#####################################################################
