#####################################################################
# Alchemist log file - simulation started at: 2017-05-21T19:59+0000 #
#####################################################################
# random = 3.0, targets = 1.0, density = 3.5589026259761294, gridShift = 0.0, perturbation = 0.5, connfactor = 1.5
#
# The columns have the following meaning: 
# time se[Mean] 
0.0 NaN 
1.0016359619213666 NaN 
2.001635961921367 1.0 
3.001635961921367 1.000625 
4.001635961921367 0.995625 
5.001635961921367 0.999375 
6.001635961921367 1.015625 
7.001635961921367 1.0200000000000002 
8.001635961921366 1.0231249999999998 
9.001635961921366 1.019375 
10.001635961921366 1.0162499999999999 
11.001635961921366 1.015625 
12.001635961921366 1.006875 
13.001635961921366 1.007986111111111 
14.001635961921366 0.9986111111111111 
15.001635961921366 0.9930555555555556 
16.001635961921366 0.9797222222222224 
17.001635961921366 0.9752777777777779 
18.001635961921366 0.9597222222222223 
19.001635961921366 0.9514583333333335 
20.001635961921366 0.9980555555555555 
21.001635961921366 1.01 
22.001635961921366 1.000625 
23.001635961921366 1.0358333333333334 
24.001635961921366 1.0596527777777778 
25.001635961921366 1.0928472222222225 
26.001635961921366 1.0998611111111116 
27.001635961921366 1.0442361111111114 
28.001635961921366 1.037291666666667 
29.001635961921366 1.0448611111111112 
30.001635961921366 1.0097916666666666 
31.001635961921366 0.9910416666666667 
32.001635961921366 0.9865972222222222 
33.001635961921366 1.0000694444444445 
34.001635961921366 0.9939583333333333 
35.001635961921366 0.9953472222222223 
36.001635961921366 0.9972222222222222 
37.001635961921366 1.0 
38.001635961921366 1.0 
39.001635961921366 1.0 
40.001635961921366 1.0 
41.001635961921366 1.0 
42.001635961921366 1.0 
43.001635961921366 1.0 
44.001635961921366 1.0 
45.001635961921366 1.0 
46.001635961921366 1.0 
47.001635961921366 1.0 
48.001635961921366 1.0 
49.001635961921366 1.0 
50.001635961921366 1.0 
51.001635961921366 1.0 
52.001635961921366 1.0 
53.001635961921366 1.0 
54.001635961921366 1.0 
55.001635961921366 1.0 
56.001635961921366 1.0 
57.001635961921366 1.0 
58.001635961921366 1.0 
59.001635961921366 1.0 
60.001635961921366 1.0 
61.001635961921366 1.0 
62.001635961921366 1.0 
63.001635961921366 1.0 
64.00163596192137 1.0 
65.00163596192137 1.0 
66.00163596192137 1.0 
67.00163596192137 1.0 
68.00163596192137 1.0 
69.00163596192137 1.0 
70.00163596192137 1.0 
71.00163596192137 1.0 
72.00163596192137 1.0 
73.00163596192137 1.0 
74.00163596192137 1.0 
75.00163596192137 1.0 
76.00163596192137 1.0 
77.00163596192137 1.0 
78.00163596192137 1.0 
79.00163596192137 1.0 
80.00163596192137 1.0 
81.00163596192137 1.0 
82.00163596192137 1.0 
83.00163596192137 1.0 
84.00163596192137 1.0 
85.00163596192137 1.0 
86.00163596192137 1.0 
87.00163596192137 1.0 
88.00163596192137 1.0 
89.00163596192137 1.0 
90.00163596192137 1.0 
91.00163596192137 1.0 
92.00163596192137 1.0 
93.00163596192137 1.0 
94.00163596192137 1.0 
95.00163596192137 1.0 
96.00163596192137 1.0 
97.00163596192137 1.0 
98.00163596192137 1.0 
99.00163596192137 1.0 
100.00163596192137 1.0 
101.00163596192137 1.0 
102.00163596192137 1.0 
103.00163596192137 1.0 
104.00163596192137 1.0 
105.00163596192137 1.0 
106.00163596192137 1.0 
107.00163596192137 1.0 
108.00163596192137 1.0 
109.00163596192137 1.0 
110.00163596192137 1.0 
111.00163596192137 1.0 
112.00163596192137 1.0 
113.00163596192137 1.0 
#####################################################################
# End of data export. Simulation finished at: 2017-05-21T20:00+0000 #
#####################################################################
