0.000000000000000000e+00 nan
2.220446049250313081e-16 3.571382098550242301e-03
4.440892098500626162e-16 2.134450648793841665e-01
1.776356839400250465e-15 2.279730116726922384e-01
8.881784197001252323e-16 2.434189120673669604e-01
8.881784197001252323e-16 2.644983973420551582e-01
3.552713678800500929e-15 2.903283226321612953e-01
0.000000000000000000e+00 3.473077306488216442e-01
1.776356839400250465e-15 3.473988422507635065e-01
1.776356839400250465e-15 4.086726267124930478e-01
1.776356839400250465e-15 3.691230226910721668e-01
3.552713678800500929e-15 3.933347881161112780e-01
7.105427357601001859e-15 3.305012974092044753e-01
5.329070518200751394e-15 3.845286444091447486e-01
0.000000000000000000e+00 3.338785394267606565e-01
3.552713678800500929e-15 4.011735552570528940e-01
3.552713678800500929e-15 3.899549165832116859e-01
7.105427357601001859e-15 4.824072337884590667e-01
3.552713678800500929e-15 5.049876444648631058e-01
1.065814103640150279e-14 6.028646732040859879e-01
3.552713678800500929e-15 6.340301578046907416e-01
0.000000000000000000e+00 7.326289614865986177e-01
7.105427357601001859e-15 7.709144169125845547e-01
3.552713678800500929e-15 8.143484411790123945e-01
1.421085471520200372e-14 7.947703691563321460e-01
7.105427357601001859e-15 8.006790746450022089e-01
1.065814103640150279e-14 7.889385472222266715e-01
3.552713678800500929e-15 7.861414550050969119e-01
0.000000000000000000e+00 7.394875619261006561e-01
3.552713678800500929e-15 7.450414937343458055e-01
7.105427357601001859e-15 7.108531529450847763e-01
1.776356839400250465e-14 6.967348299646859422e-01
7.105427357601001859e-15 6.928538451459849146e-01
7.105427357601001859e-15 6.827824194107340317e-01
1.421085471520200372e-14 7.124247765376897634e-01
0.000000000000000000e+00 6.617889130543613829e-01
7.105427357601001859e-15 6.305920745372710634e-01
1.421085471520200372e-14 5.693837802865218123e-01
2.131628207280300558e-14 5.392995655641777963e-01
7.105427357601001859e-15 5.014661058277122274e-01
7.105427357601001859e-15 4.795280696799218978e-01
2.131628207280300558e-14 4.593618255473683187e-01
0.000000000000000000e+00 4.378323215235101484e-01
1.421085471520200372e-14 4.185858555252287005e-01
1.421085471520200372e-14 3.951275268243484851e-01
2.131628207280300558e-14 3.880358842298564648e-01
7.105427357601001859e-15 3.566665493443317292e-01
7.105427357601001859e-15 3.461012592857804493e-01
2.842170943040400743e-14 3.634690486403520104e-01
0.000000000000000000e+00 3.611403331972996567e-01
1.421085471520200372e-14 3.806971173885396187e-01
1.421085471520200372e-14 4.094802315780821100e-01
2.131628207280300558e-14 4.684482716522759826e-01
1.421085471520200372e-14 4.778464931933369964e-01
7.105427357601001859e-15 5.421769145444721438e-01
2.842170943040400743e-14 6.164281760075445149e-01
0.000000000000000000e+00 6.858113683926289061e-01
0.000000000000000000e+00 7.488685659050430266e-01
7.105427357601001859e-15 7.109110682502052248e-01
2.131628207280300558e-14 6.810703073706411148e-01
1.421085471520200372e-14 6.746782789552762116e-01
2.131628207280300558e-14 6.120812787025695645e-01
3.552713678800500929e-14 5.953981722627208484e-01
0.000000000000000000e+00 5.721784129299303245e-01
1.421085471520200372e-14 6.075793460249256928e-01
1.421085471520200372e-14 6.773254652034910173e-01
1.421085471520200372e-14 7.263151814369922521e-01
2.842170943040400743e-14 7.854027282855685632e-01
2.842170943040400743e-14 8.998803593281263780e-01
4.263256414560601115e-14 9.717700603048502472e-01
0.000000000000000000e+00 1.002903615240389179e+00
1.421085471520200372e-14 1.105163522157623479e+00
1.421085471520200372e-14 1.178388560039677735e+00
1.421085471520200372e-14 1.219232010255224763e+00
2.842170943040400743e-14 1.193327443887904238e+00
4.263256414560601115e-14 1.143047710390964200e+00
4.263256414560601115e-14 1.081953391373027262e+00
0.000000000000000000e+00 1.072204153537197335e+00
1.421085471520200372e-14 1.066803732220802825e+00
2.842170943040400743e-14 1.064867059087793333e+00
1.421085471520200372e-14 1.049590910372479202e+00
2.842170943040400743e-14 9.025779547908328038e-01
4.263256414560601115e-14 8.066438832227086353e-01
4.263256414560601115e-14 7.383235894640263197e-01
0.000000000000000000e+00 6.125805746402666063e-01
1.421085471520200372e-14 5.297887137401096069e-01
2.842170943040400743e-14 4.412951873952219994e-01
1.421085471520200372e-14 4.108293957893235371e-01
2.842170943040400743e-14 4.548834337914512416e-01
4.263256414560601115e-14 4.135666746135164829e-01
4.263256414560601115e-14 3.093573514157883508e-01
0.000000000000000000e+00 3.494066325128605266e-01
1.421085471520200372e-14 2.871299018440469641e-01
2.842170943040400743e-14 2.608042228856988221e-01
1.421085471520200372e-14 2.185622096144561599e-01
2.842170943040400743e-14 2.072326336485652287e-01
5.684341886080801487e-14 2.123667088935047575e-01
4.263256414560601115e-14 2.155677078031197069e-01
0.000000000000000000e+00 2.431884460634860246e-01
2.842170943040400743e-14 2.583688336630173832e-01
2.842170943040400743e-14 2.958281039010900448e-01
1.421085471520200372e-14 2.380158265225407466e-01
2.842170943040400743e-14 2.461590022961760715e-01
5.684341886080801487e-14 2.624231354955599005e-01
4.263256414560601115e-14 2.001231746054539518e-01
0.000000000000000000e+00 2.219321867578714358e-01
2.842170943040400743e-14 2.414448174252558366e-01
2.842170943040400743e-14 2.338955242333047302e-01
1.421085471520200372e-14 2.678860320450556776e-01
0.000000000000000000e+00 2.606444186273005892e-01
5.684341886080801487e-14 2.844885083119532143e-01
4.263256414560601115e-14 3.058711219514499979e-01
0.000000000000000000e+00 3.147715343461136017e-01
2.842170943040400743e-14 3.150312363741806232e-01
0.000000000000000000e+00 3.450954893522680256e-01
2.842170943040400743e-14 3.679578051183979293e-01
1.421085471520200372e-14 3.983188760521656491e-01
7.105427357601001859e-14 4.228554875119928669e-01
4.263256414560601115e-14 4.542587480213497453e-01
0.000000000000000000e+00 5.009779134937213385e-01
2.842170943040400743e-14 5.234911646285620446e-01
1.421085471520200372e-14 5.174409769329443298e-01
4.263256414560601115e-14 5.496338446500211861e-01
1.421085471520200372e-14 5.357620775121280099e-01
7.105427357601001859e-14 4.672137459009677030e-01
4.263256414560601115e-14 4.040189920689299385e-01
0.000000000000000000e+00 3.423232492758385148e-01
2.842170943040400743e-14 2.629086819583699164e-01
2.842170943040400743e-14 2.241086050200189750e-01
5.684341886080801487e-14 1.554360849019476853e-01
2.842170943040400743e-14 1.363654421984900611e-01
8.526512829121202230e-14 1.116380230417960973e-01
2.842170943040400743e-14 1.017739073593001004e-01
0.000000000000000000e+00 1.058146857289822135e-01
5.684341886080801487e-14 1.002362137392422553e-01
2.842170943040400743e-14 1.005416188822505358e-01
5.684341886080801487e-14 9.404727466870313468e-02
2.842170943040400743e-14 8.792699680010661323e-02
8.526512829121202230e-14 8.439079203513630278e-02
2.842170943040400743e-14 6.498940900398501863e-02
0.000000000000000000e+00 6.277079368521318314e-02
5.684341886080801487e-14 5.887560660107774707e-02
2.842170943040400743e-14 5.690651732128308021e-02
5.684341886080801487e-14 6.476169266468780050e-02
2.842170943040400743e-14 5.195576261652405659e-02
8.526512829121202230e-14 6.421025382721130825e-02
2.842170943040400743e-14 5.728890041121699472e-02
0.000000000000000000e+00 5.183134960967388655e-02
5.684341886080801487e-14 6.574784783523879295e-02
2.842170943040400743e-14 5.113752054035228950e-02
8.526512829121202230e-14 5.703989361651468082e-02
5.684341886080801487e-14 6.422380709294757406e-02
8.526512829121202230e-14 6.422314463258653461e-02
2.842170943040400743e-14 5.070112645237742632e-02
0.000000000000000000e+00 6.363426137111745373e-02
5.684341886080801487e-14 5.113752054035234501e-02
2.842170943040400743e-14 5.113752054035232419e-02
8.526512829121202230e-14 5.070106329646550253e-02
5.684341886080801487e-14 5.070125278080480496e-02
8.526512829121202230e-14 5.070112645237742632e-02
2.842170943040400743e-14 5.070112645237742632e-02
0.000000000000000000e+00 5.070106329646550253e-02
5.684341886080801487e-14 5.070106329646550253e-02
2.842170943040400743e-14 5.070106329646550253e-02
8.526512829121202230e-14 5.070106329646550253e-02
5.684341886080801487e-14 5.070106329646550253e-02
8.526512829121202230e-14 5.070106329646550253e-02
2.842170943040400743e-14 5.070106329646550253e-02
0.000000000000000000e+00 5.070106329646550253e-02
5.684341886080801487e-14 5.070106329646550253e-02
2.842170943040400743e-14 5.070106329646550253e-02
8.526512829121202230e-14 5.070106329646550253e-02
5.684341886080801487e-14 5.070106329646550253e-02
8.526512829121202230e-14 5.070106329646550253e-02
2.842170943040400743e-14 5.070106329646550253e-02
0.000000000000000000e+00 5.070106329646550253e-02
5.684341886080801487e-14 5.070106329646550253e-02
2.842170943040400743e-14 5.070106329646550253e-02
8.526512829121202230e-14 5.070106329646550253e-02
5.684341886080801487e-14 5.070106329646550253e-02
8.526512829121202230e-14 5.070106329646550253e-02
2.842170943040400743e-14 5.070106329646550253e-02
0.000000000000000000e+00 5.070106329646550253e-02
5.684341886080801487e-14 5.070106329646550253e-02
2.842170943040400743e-14 5.070106329646550253e-02
8.526512829121202230e-14 5.070106329646550253e-02
5.684341886080801487e-14 5.070106329646550253e-02
8.526512829121202230e-14 5.070106329646550253e-02
2.842170943040400743e-14 5.070106329646550253e-02
0.000000000000000000e+00 5.070106329646550253e-02
5.684341886080801487e-14 5.070106329646550253e-02
5.684341886080801487e-14 5.070106329646550253e-02
1.136868377216160297e-13 5.070106329646550253e-02
5.684341886080801487e-14 5.070106329646550253e-02
8.526512829121202230e-14 5.070106329646550253e-02
2.842170943040400743e-14 5.070106329646550253e-02
0.000000000000000000e+00 5.070106329646550253e-02
5.684341886080801487e-14 5.070106329646550253e-02
5.684341886080801487e-14 5.070106329646550253e-02
1.136868377216160297e-13 5.070106329646550253e-02
5.684341886080801487e-14 5.070106329646550253e-02
8.526512829121202230e-14 5.070106329646550253e-02
2.842170943040400743e-14 5.070106329646550253e-02
0.000000000000000000e+00 5.070106329646550253e-02
5.684341886080801487e-14 5.070106329646550253e-02
5.684341886080801487e-14 5.070106329646550253e-02
1.136868377216160297e-13 5.070106329646550253e-02
5.684341886080801487e-14 5.070106329646550253e-02
8.526512829121202230e-14 5.070106329646550253e-02
2.842170943040400743e-14 5.070106329646550253e-02
0.000000000000000000e+00 5.070106329646550253e-02
0.000000000000000000e+00 5.070106329646550253e-02
5.684341886080801487e-14 5.070106329646550253e-02
1.136868377216160297e-13 5.070106329646550253e-02
5.684341886080801487e-14 5.070106329646550253e-02
8.526512829121202230e-14 5.070106329646550253e-02
2.842170943040400743e-14 5.070106329646550253e-02
0.000000000000000000e+00 5.070106329646550253e-02
0.000000000000000000e+00 5.070106329646550253e-02
5.684341886080801487e-14 5.070106329646550253e-02
1.136868377216160297e-13 5.070106329646550253e-02
0.000000000000000000e+00 5.070106329646550253e-02
8.526512829121202230e-14 5.070106329646550253e-02
2.842170943040400743e-14 5.070106329646550253e-02
0.000000000000000000e+00 5.070106329646550253e-02
