#####################################################################
# Alchemist log file - simulation started at: 2017-05-20T15:46+0000 #
#####################################################################
# random = 1.0, targets = 10.0, density = 1.7841466528270753, gridShift = 1.0, perturbation = 0.0, connfactor = 2.0
#
# The columns have the following meaning: 
# time se[Mean] 
0.0 NaN 
1.0048855897957667 NaN 
2.0048855897957667 1.0439732142857143 
3.0048855897957667 1.0768836805555555 
4.004885589795767 1.1339595734126984 
5.004885589795767 1.222094494047619 
6.004885589795767 1.229233630952381 
7.004885589795767 1.4389000496031747 
8.004885589795766 1.545561755952381 
9.004885589795766 1.5870833333333336 
10.004885589795766 1.5874813988095238 
11.004885589795766 1.5591431051587303 
12.004885589795766 1.3936036706349206 
13.004885589795766 1.487795138888889 
14.004885589795766 1.2402380952380954 
15.004885589795766 1.3444258432539684 
16.004885589795766 1.312181299603175 
17.004885589795766 1.2430084325396826 
18.004885589795766 1.317434275793651 
19.004885589795766 1.4654588293650794 
20.004885589795766 1.192981150793651 
21.004885589795766 1.1258841765873016 
22.004885589795766 1.006387648809524 
23.004885589795766 0.9392906746031746 
24.004885589795766 0.9726314484126984 
25.004885589795766 0.7971118551587303 
26.004885589795766 0.9638144841269844 
27.004885589795766 0.8740277777777778 
28.004885589795766 0.8673722718253967 
29.004885589795766 0.7819283234126986 
30.004885589795766 0.7941307043650796 
31.004885589795766 0.7866951884920638 
32.00488558979576 0.7976798115079368 
33.00488558979576 0.8008296130952384 
34.00488558979576 0.7946292162698415 
35.00488558979576 0.7958544146825399 
36.00488558979576 0.7921912202380955 
37.00488558979576 0.7809883432539685 
38.00488558979576 0.7903273809523813 
39.00488558979576 0.7644754464285718 
40.00488558979576 0.7606076388888893 
41.00488558979576 0.7558382936507939 
42.00488558979576 0.7281349206349209 
43.00488558979576 0.7327070932539687 
44.00488558979576 0.721696428571429 
45.00488558979576 0.7026190476190478 
46.00488558979576 0.6894221230158734 
47.00488558979576 0.6906758432539687 
48.00488558979576 0.6678745039682542 
49.00488558979576 0.6562214781746034 
50.00488558979576 0.6332390873015878 
51.00488558979576 0.6204414682539688 
52.00488558979576 0.5977008928571431 
53.00488558979576 0.5627690972222228 
54.00488558979576 0.5604427083333339 
55.00488558979576 0.5286210317460321 
56.00488558979576 0.5067137896825403 
57.00488558979576 0.5007291666666672 
58.00488558979576 0.4710565476190481 
59.00488558979576 0.4595461309523816 
60.00488558979576 0.4306808035714292 
61.00488558979576 0.4219568452380958 
62.00488558979576 0.39881696428571484 
63.00488558979576 0.3744977678571434 
64.00488558979576 0.35794270833333397 
65.00488558979576 0.3362326388888895 
66.00488558979576 0.31564608134920696 
67.00488558979576 0.30397445436508 
68.00488558979576 0.28769593253968323 
69.00488558979576 0.28049727182539747 
70.00488558979576 0.2681336805555562 
71.00488558979576 0.2755729166666673 
72.00488558979576 0.2644605654761912 
73.00488558979576 0.2623065476190483 
74.00488558979576 0.26207713293650853 
75.00488558979576 0.25727306547619117 
76.00488558979576 0.2563318452380959 
77.00488558979576 0.2538008432539689 
78.00488558979576 0.2524032738095245 
79.00488558979576 0.2512227182539689 
80.00488558979576 0.2510714285714292 
81.00488558979576 0.2505344742063499 
82.00488558979576 0.25045634920634985 
83.00488558979576 0.25015128968254036 
84.00488558979576 0.2500756448412705 
85.00488558979576 0.25000000000000067 
86.00488558979576 0.25000000000000067 
87.00488558979576 0.25000000000000067 
88.00488558979576 0.25000000000000067 
89.00488558979576 0.25000000000000067 
90.00488558979576 0.25000000000000067 
91.00488558979576 0.25000000000000067 
92.00488558979576 0.25000000000000067 
93.00488558979576 0.25000000000000067 
94.00488558979576 0.25000000000000067 
95.00488558979576 0.25000000000000067 
96.00488558979576 0.25000000000000067 
97.00488558979576 0.25000000000000067 
98.00488558979576 0.25000000000000067 
99.00488558979576 0.25000000000000067 
100.00488558979576 0.25000000000000067 
101.00488558979576 0.25000000000000067 
102.00488558979576 0.25000000000000067 
103.00488558979576 0.25000000000000067 
104.00488558979576 0.25000000000000067 
105.00488558979576 0.25000000000000067 
106.00488558979576 0.25000000000000067 
107.00488558979576 0.25000000000000067 
108.00488558979576 0.25000000000000067 
109.00488558979576 0.25000000000000067 
110.00488558979576 0.25000000000000067 
#####################################################################
# End of data export. Simulation finished at: 2017-05-20T15:46+0000 #
#####################################################################
