#####################################################################
# Alchemist log file - simulation started at: 2017-05-23T13:51+0000 #
#####################################################################
# random = 12.0, targets = 1.0, density = 5.0264212595847235, gridShift = 0.0, perturbation = 0.0, connfactor = 0.5
#
# The columns have the following meaning: 
# time se[Mean] 
0.0 NaN 
1.0005590746559656 NaN 
2.000559074655966 1.0 
3.000559074655966 1.0 
4.000559074655966 0.9986979166666666 
5.000559074655966 0.9973958333333334 
6.000559074655966 0.9934895833333333 
7.000559074655966 0.9856770833333333 
8.000559074655966 0.9791666666666666 
9.000559074655966 0.9752604166666666 
10.000559074655966 0.97265625 
11.000559074655966 0.98046875 
12.000559074655966 0.9791666666666667 
13.000559074655966 0.9895833333333333 
14.000559074655966 0.9787326388888888 
15.000559074655966 0.9852430555555557 
16.000559074655968 0.9644097222222221 
17.000559074655968 0.9574652777777776 
18.000559074655968 0.9283854166666666 
19.000559074655968 0.9097222222222227 
20.000559074655968 0.8836805555555549 
21.000559074655968 0.8506944444444452 
22.000559074655968 0.8194444444444453 
23.000559074655968 0.7816840277777772 
24.000559074655968 0.7426215277777772 
25.000559074655968 0.7078993055555545 
26.000559074655968 0.6766493055555545 
27.000559074655968 0.6501736111111095 
28.000559074655968 0.6280381944444456 
29.000559074655968 0.6015625 
30.000559074655968 0.574652777777779 
31.000559074655968 0.5577256944444456 
32.00055907465597 0.5407986111111092 
33.00055907465597 0.5169270833333338 
34.00055907465597 0.5026041666666664 
35.00055907465597 0.49305555555555425 
36.00055907465597 0.482638888888891 
37.00055907465597 0.4765625 
38.00055907465597 0.47135416666666824 
39.00055907465597 0.47135416666666813 
40.00055907465597 0.48090277777777707 
41.00055907465597 0.47960069444444575 
42.00055907465597 0.49001736111110966 
43.00055907465597 0.5008680555555544 
44.00055907465597 0.5208333333333325 
45.00055907465597 0.5451388888888902 
46.00055907465597 0.5694444444444455 
47.00055907465597 0.5920138888888901 
48.00055907465597 0.6180555555555545 
49.00055907465597 0.6371527777777771 
50.00055907465597 0.6649305555555545 
51.00055907465597 0.6927083333333333 
52.00055907465597 0.71875 
53.00055907465597 0.7447916666666663 
54.00055907465597 0.770833333333334 
55.00055907465597 0.796875 
56.00055907465597 0.828125 
57.00055907465597 0.8420138888888885 
58.00055907465597 0.8697916666666661 
59.00055907465597 0.8940972222222228 
60.00055907465597 0.9097222222222228 
61.00055907465597 0.9270833333333337 
62.00055907465597 0.9357638888888885 
63.00055907465597 0.953125 
64.00055907465597 0.9635416666666669 
65.00055907465597 0.9722222222222224 
66.00055907465597 1.0021701388888886 
67.00055907465597 1.14279513888889 
68.00055907465597 1.0802951388888886 
69.00055907465597 1.0902777777777772 
70.00055907465597 1.1171875 
71.00055907465597 1.1163194444444453 
72.00055907465597 1.0716145833333335 
73.00055907465597 1.1345486111111112 
74.00055907465597 1.0863715277777772 
75.00055907465597 1.3133680555555545 
76.00055907465597 3.193576388888876 
77.00055907465597 2.3684895833333384 
78.00055907465597 2.575086805555563 
79.00055907465597 2.8719618055555616 
80.00055907465597 3.10546875 
81.00055907465597 2.5390625 
82.00055907465597 3.3845486111111205 
83.00055907465597 2.84201388888888 
84.00055907465597 2.94921875 
85.00055907465597 2.505642361111112 
86.00055907465597 2.52734375 
87.00055907465597 1.7747395833333335 
88.00055907465597 2.428819444444443 
89.00055907465597 2.01953125 
90.00055907465597 1.8450520833333333 
91.00055907465597 2.30078125 
92.00055907465597 1.9435763888888902 
93.00055907465597 2.1254340277777826 
94.00055907465597 1.608940972222218 
95.00055907465597 1.4214409722222214 
96.00055907465597 1.4839409722222177 
97.00055907465597 1.6623263888888915 
98.00055907465597 1.6037326388888904 
99.00055907465597 1.125 
100.00055907465597 1.0412326388888902 
101.00055907465597 1.0633680555555545 
102.00055907465597 0.6857638888888907 
103.00055907465597 0.9535590277777783 
104.00055907465597 0.9162326388888902 
105.00055907465597 0.9505208333333335 
106.00055907465597 0.6514756944444458 
107.00055907465597 0.77734375 
108.00055907465597 0.7578125 
109.00055907465597 0.4683159722222228 
110.00055907465597 0.3993055555555546 
111.00055907465597 0.40407986111111144 
112.00055907465597 0.3767361111111114 
113.00055907465597 0.33072916666666674 
114.00055907465597 0.23480902777777776 
115.00055907465597 0.2552083333333333 
116.00055907465597 0.23828125 
117.00055907465597 0.15755208333333334 
118.00055907465597 0.1319444444444444 
119.00055907465597 0.1080729166666667 
120.00055907465597 0.07986111111111108 
121.00055907465597 0.051649305555555615 
122.00055907465597 0.03038194444444437 
123.00055907465597 0.01041666666666666 
124.00055907465597 0.004340277777777782 
125.00055907465597 4.340277777777785E-4 
126.00055907465597 0.0 
127.00055907465597 0.0 
128.00055907465597 0.0 
129.00055907465597 0.0 
130.00055907465597 0.0 
131.00055907465597 0.0 
132.00055907465597 0.0 
133.00055907465597 0.0 
134.00055907465597 0.0 
135.00055907465597 0.0 
136.00055907465597 0.0 
137.00055907465597 0.0 
138.00055907465597 0.0 
139.00055907465597 0.0 
140.00055907465597 0.0 
141.00055907465597 0.0 
142.00055907465597 0.0 
143.00055907465597 0.0 
144.00055907465597 0.0 
145.00055907465597 0.0 
146.00055907465597 0.0 
147.00055907465597 0.0 
148.00055907465597 0.0 
149.00055907465597 0.0 
150.00055907465597 0.0 
151.00055907465597 0.0 
152.00055907465597 0.0 
153.00055907465597 0.0 
154.00055907465597 0.0 
155.00055907465597 0.0 
156.00055907465597 0.0 
157.00055907465597 0.0 
158.00055907465597 0.0 
159.00055907465597 0.0 
160.00055907465597 0.0 
161.00055907465597 0.0 
162.00055907465597 0.0 
163.00055907465597 0.0 
164.00055907465597 0.0 
165.00055907465597 0.0 
166.00055907465597 0.0 
167.00055907465597 0.0 
168.00055907465597 0.0 
169.00055907465597 0.0 
170.00055907465597 0.0 
171.00055907465597 0.0 
172.00055907465597 0.0 
173.00055907465597 0.0 
174.00055907465597 0.0 
175.00055907465597 0.0 
176.00055907465597 0.0 
#####################################################################
# End of data export. Simulation finished at: 2017-05-23T13:52+0000 #
#####################################################################
