#####################################################################
# Alchemist log file - simulation started at: 2017-05-20T15:35+0000 #
#####################################################################
# random = 1.0, targets = 10.0, density = 0.4483936332993466, gridShift = 1.0, perturbation = 0.5, connfactor = 1.5
#
# The columns have the following meaning: 
# time se[Mean] 
0.0 NaN 
1.0048855897957667 NaN 
2.0048855897957667 1.148881172839506 
3.0048855897957667 1.182939814814815 
4.004885589795767 1.1998341049382717 
5.004885589795767 1.1358179012345677 
6.004885589795767 1.1279861111111111 
7.004885589795767 1.0281597222222223 
8.004885589795766 1.2663898533950617 
9.004885589795766 1.6888493441358026 
10.004885589795766 1.8830970293209879 
11.004885589795766 3.2332667824074073 
12.004885589795766 2.5326321373456793 
13.004885589795766 2.9249913194444446 
14.004885589795766 3.006586612654321 
15.004885589795766 2.712491319444444 
16.004885589795766 2.690412808641976 
17.004885589795766 2.286924189814816 
18.004885589795766 2.3652256944444447 
19.004885589795766 2.0213715277777777 
20.004885589795766 2.0626292438271605 
21.004885589795766 2.026657021604939 
22.004885589795766 1.838475115740741 
23.004885589795766 1.8650453317901234 
24.004885589795766 1.8441676311728394 
25.004885589795766 1.6563483796296297 
26.004885589795766 1.7096431327160497 
27.004885589795766 1.731407214506173 
28.004885589795766 1.5819685570987656 
29.004885589795766 1.8570534336419755 
30.004885589795766 1.7794386574074077 
31.004885589795766 1.8462779706790127 
32.00488558979576 1.9743451003086425 
33.00488558979576 2.0094135802469135 
34.00488558979576 2.114350887345679 
35.00488558979576 2.2279359567901236 
36.00488558979576 2.3420659722222226 
37.00488558979576 2.377092978395062 
38.00488558979576 2.356389853395062 
39.00488558979576 2.402062114197531 
40.00488558979576 2.357581018518519 
41.00488558979576 3.267145061728397 
42.00488558979576 2.3233410493827162 
43.00488558979576 5.015470679012348 
44.00488558979576 4.111315586419756 
45.00488558979576 8.593896604938275 
46.00488558979576 7.6893441358024734 
47.00488558979576 7.65921682098766 
48.00488558979576 11.277719907407418 
49.00488558979576 7.6572183641975355 
50.00488558979576 8.56528935185186 
51.00488558979576 7.666685956790128 
52.00488558979576 9.468418209876553 
53.00488558979576 6.761882716049383 
54.00488558979576 4.957272376543212 
55.00488558979576 4.058792438271605 
56.00488558979576 2.2521103395061735 
57.00488558979576 2.252094907407408 
58.00488558979576 2.251396604938272 
59.00488558979576 2.2500000000000004 
60.00488558979576 2.2500000000000004 
61.00488558979576 2.2500000000000004 
62.00488558979576 2.2500000000000004 
63.00488558979576 2.2500000000000004 
64.00488558979576 2.2500000000000004 
65.00488558979576 2.2500000000000004 
66.00488558979576 2.2500000000000004 
67.00488558979576 2.2500000000000004 
68.00488558979576 2.2500000000000004 
69.00488558979576 2.2500000000000004 
70.00488558979576 2.2500000000000004 
71.00488558979576 2.2500000000000004 
#####################################################################
# End of data export. Simulation finished at: 2017-05-20T15:35+0000 #
#####################################################################
