0.000000000000000000e+00 nan
0.000000000000000000e+00 1.844732365682642816e-02
0.000000000000000000e+00 1.832722941787687243e-01
8.881784197001252323e-16 1.751149873117006095e-01
0.000000000000000000e+00 1.744321071845046089e-01
1.776356839400250465e-15 1.736750085662962240e-01
1.776356839400250465e-15 1.722718220237351994e-01
2.664535259100375697e-15 1.709338712136875549e-01
0.000000000000000000e+00 1.707763587701989771e-01
0.000000000000000000e+00 1.699362932090570932e-01
3.552713678800500929e-15 1.696985980491385049e-01
1.776356839400250465e-15 1.696445496260810260e-01
3.552713678800500929e-15 1.691955440160411717e-01
7.105427357601001859e-15 1.686410602011762239e-01
5.329070518200751394e-15 1.683275905386245608e-01
0.000000000000000000e+00 1.670649029134152475e-01
0.000000000000000000e+00 1.669244874918985599e-01
7.105427357601001859e-15 1.659568324242334525e-01
0.000000000000000000e+00 1.655925948614633547e-01
7.105427357601001859e-15 1.650361787420642490e-01
7.105427357601001859e-15 1.643525336416788996e-01
1.065814103640150279e-14 1.644802130464174672e-01
3.552713678800500929e-15 1.644432377911884680e-01
3.552713678800500929e-15 1.656967016608262011e-01
7.105427357601001859e-15 1.651026629730780182e-01
0.000000000000000000e+00 1.656822818750973980e-01
1.421085471520200372e-14 1.661130022524298089e-01
7.105427357601001859e-15 1.660347914743784403e-01
1.065814103640150279e-14 1.657165283649328635e-01
7.105427357601001859e-15 1.655090546950133412e-01
0.000000000000000000e+00 1.655410671547502821e-01
3.552713678800500929e-15 1.652580452851158954e-01
0.000000000000000000e+00 1.653229696267946858e-01
1.421085471520200372e-14 1.652701676034127043e-01
1.421085471520200372e-14 1.653279953118136081e-01
2.131628207280300558e-14 1.653379814983516327e-01
0.000000000000000000e+00 1.653379814983516327e-01
7.105427357601001859e-15 1.653379814983516327e-01
1.421085471520200372e-14 1.653379814983516327e-01
7.105427357601001859e-15 1.653379814983516327e-01
1.421085471520200372e-14 1.653379814983516327e-01
2.131628207280300558e-14 1.653379814983516327e-01
2.131628207280300558e-14 1.653379814983516327e-01
0.000000000000000000e+00 1.653379814983516327e-01
2.131628207280300558e-14 1.653379814983516327e-01
