#####################################################################
# Alchemist log file - simulation started at: 2017-05-24T09:45+0000 #
#####################################################################
# random = 6.0, targets = 100.0, density = 0.05649405772326896, gridShift = 0.0, perturbation = 0.5, connfactor = 0.25
#
# The columns have the following meaning: 
# time se[Mean] 
0.0 NaN 
1.0115592716150654 NaN 
2.0115592716150656 0.998890625 
3.0115592716150656 1.0107328125 
4.011559271615066 1.0074897569444445 
5.011559271615066 0.9754149305555555 
6.011559271615066 0.9487340711805555 
7.011559271615066 0.8982616753472221 
8.011559271615067 0.8838867187499999 
9.011559271615067 0.8476668402777777 
10.011559271615067 0.8189509548611111 
11.011559271615067 0.7815986545138889 
12.011559271615067 0.7849203559027778 
13.011559271615067 0.7861484375000001 
14.011559271615067 0.7882828125 
15.011559271615067 0.7882828125 
16.011559271615067 0.7921 
17.011559271615067 0.7921 
18.011559271615067 0.7921 
19.011559271615067 0.7921 
20.011559271615067 0.7921 
21.011559271615067 0.7921 
22.011559271615067 0.7921 
#####################################################################
# End of data export. Simulation finished at: 2017-05-24T09:45+0000 #
#####################################################################
