#####################################################################
# Alchemist log file - simulation started at: 2017-05-25T09:07+0000 #
#####################################################################
# random = 17.0, targets = 31.622776601683793, density = 3.5589026259761294, gridShift = 1.0, perturbation = 0.0, connfactor = 0.75
#
# The columns have the following meaning: 
# time se[Mean] 
0.0 NaN 
1.0003034458253823 NaN 
2.0003034458253826 1.002211269190069 
3.0003034458253826 1.0047081050010458 
4.0003034458253826 1.0054134682586033 
5.0003034458253826 1.0031699795101 
6.0003034458253826 0.9962390494127596 
7.0003034458253826 0.9864667899037232 
8.000303445825383 0.9820797379669663 
9.000303445825383 0.9694881488708987 
10.000303445825383 0.9691108757109158 
11.000303445825383 0.9582003196894743 
12.000303445825383 0.9547992313105954 
13.000303445825383 0.9462077501592455 
14.000303445825383 0.9388883977336522 
15.000303445825383 0.9341489131754156 
16.00030344582538 0.9318738795860392 
17.00030344582538 0.9294083724451374 
18.00030344582538 0.9220740917673702 
19.00030344582538 0.9239435671486578 
20.00030344582538 0.9141742781762435 
21.00030344582538 0.9140207135885693 
22.00030344582538 0.897533574455848 
23.00030344582538 0.9055304210845785 
24.00030344582538 0.887960964080873 
25.00030344582538 0.8857309650363292 
26.00030344582538 0.8707592383061857 
27.00030344582538 0.8627192656468816 
28.00030344582538 0.8611938120568832 
29.00030344582538 0.848688134277175 
30.00030344582538 0.8413662738686593 
31.00030344582538 0.835855646756604 
32.00030344582538 0.825095476629289 
33.00030344582538 0.8257069855427903 
34.00030344582538 0.8218145016465028 
35.00030344582538 0.8232424321981718 
36.00030344582538 0.8257642750731922 
37.00030344582538 0.8234542623107628 
38.00030344582538 0.8303567420763147 
39.00030344582538 0.8283827938931184 
40.00030344582538 0.8301660434184266 
41.00030344582538 0.8241093406955491 
42.00030344582538 0.8151703725682956 
43.00030344582538 0.8098864455215449 
44.00030344582538 0.794825091221456 
45.00030344582538 0.776985590068886 
46.00030344582538 0.7603104810016575 
47.00030344582538 0.7359165605266912 
48.00030344582538 0.7196588049421052 
49.00030344582538 0.6915670788146646 
50.00030344582538 0.6778411468295082 
51.00030344582538 0.6503609585858149 
52.00030344582538 0.6360750127127806 
53.00030344582538 0.6114159573907383 
54.00030344582538 0.5946176617724773 
55.00030344582538 0.5734980527652248 
56.00030344582538 0.5519958268686618 
57.00030344582538 0.5254750224595061 
58.00030344582538 0.5032867190761469 
59.00030344582538 0.47755808910363523 
60.00030344582538 0.4557868005828784 
61.00030344582538 0.4241548467978316 
62.00030344582538 0.40448708072691203 
63.00030344582538 0.3786124220586963 
64.00030344582538 0.35196574172655204 
65.00030344582538 0.3228458964362151 
66.00030344582538 0.31049059994216993 
67.00030344582538 0.2859346241531741 
68.00030344582538 0.27729712384707705 
69.00030344582538 0.25834940587182137 
70.00030344582538 0.25908214890101033 
71.00030344582538 0.24016612870933637 
72.00030344582538 0.2406369913578159 
73.00030344582538 0.2269942230564062 
74.00030344582538 0.2315274513439786 
75.00030344582538 0.21882736822869203 
76.00030344582538 0.22160403778306095 
77.00030344582538 0.21280276573905316 
78.00030344582538 0.2040312379663773 
79.00030344582538 0.19628025976950864 
80.00030344582538 0.19131221904204412 
81.00030344582538 0.1859042126349103 
82.00030344582538 0.18174596477350347 
83.00030344582538 0.17577761195133187 
84.00030344582538 0.178062474282905 
85.00030344582538 0.17538087070986136 
86.00030344582538 0.17330822491279127 
87.00030344582538 0.1722689078580602 
88.00030344582538 0.17370022558036766 
89.00030344582538 0.1760596967971563 
90.00030344582538 0.17905059834570622 
91.00030344582538 0.1786931278415119 
92.00030344582538 0.18000488415468327 
93.00030344582538 0.18041040966695215 
94.00030344582538 0.18359490704330303 
95.00030344582538 0.18650338894663787 
96.00030344582538 0.1859091784315766 
97.00030344582538 0.18612210326235057 
98.00030344582538 0.18555696907307423 
99.00030344582538 0.1857722060708191 
100.00030344582538 0.18543773330267405 
101.00030344582538 0.18536650169203603 
102.00030344582538 0.18508976682363323 
103.00030344582538 0.18572771333552007 
104.00030344582538 0.18551443141204824 
105.00030344582538 0.18569053763392113 
106.00030344582538 0.1856025667039795 
107.00030344582538 0.18560203507186893 
108.00030344582538 0.18560203507186893 
109.00030344582538 0.18558004233938352 
110.00030344582538 0.18558004233938352 
111.00030344582538 0.18558004233938352 
112.00030344582538 0.18558004233938352 
113.00030344582538 0.18558004233938352 
114.00030344582538 0.18558004233938352 
115.00030344582538 0.18558004233938352 
116.00030344582538 0.18558004233938352 
117.00030344582538 0.18558004233938352 
118.00030344582538 0.18558004233938352 
119.00030344582538 0.18558004233938352 
120.00030344582538 0.18558004233938352 
121.00030344582538 0.18558004233938352 
122.00030344582538 0.18558004233938352 
123.00030344582538 0.18558004233938352 
124.00030344582538 0.18558004233938352 
125.00030344582538 0.18558004233938352 
126.00030344582538 0.18558004233938352 
127.00030344582538 0.18558004233938352 
128.00030344582538 0.18558004233938352 
129.00030344582538 0.18558004233938352 
130.00030344582538 0.18558004233938352 
131.00030344582538 0.18558004233938352 
132.00030344582538 0.18558004233938352 
133.00030344582538 0.18558004233938352 
134.00030344582538 0.18558004233938352 
135.00030344582538 0.18558004233938352 
136.00030344582538 0.18558004233938352 
137.00030344582538 0.18558004233938352 
138.00030344582538 0.18558004233938352 
139.00030344582538 0.18558004233938352 
140.00030344582538 0.18558004233938352 
141.00030344582538 0.18558004233938352 
142.00030344582538 0.18558004233938352 
143.00030344582538 0.18558004233938352 
144.00030344582538 0.18558004233938352 
145.00030344582538 0.18558004233938352 
146.00030344582538 0.18558004233938352 
147.00030344582538 0.18558004233938352 
148.00030344582538 0.18558004233938352 
#####################################################################
# End of data export. Simulation finished at: 2017-05-25T09:07+0000 #
#####################################################################
