#####################################################################
# Alchemist log file - simulation started at: 2017-05-24T10:55+0000 #
#####################################################################
# random = 6.0, targets = 100.0, density = 3.5589026259761294, gridShift = 1.0, perturbation = 0.0, connfactor = 1.5
#
# The columns have the following meaning: 
# time se[Mean] 
0.0 NaN 
1.001281360956031 NaN 
2.001281360956031 1.030291447368421 
3.001281360956031 1.0423610778841041 
4.001281360956031 1.0618723551302498 
5.001281360956031 1.0752816985645932 
6.001281360956031 1.0862863104731526 
7.001281360956031 1.1297061868686868 
8.001281360956032 1.1296192384370016 
9.001281360956032 1.1538045321637427 
10.001281360956032 1.158220966241361 
11.001281360956032 1.1595594098883573 
12.001281360956032 1.1578819444444444 
13.001281360956032 1.167338769271664 
14.001281360956032 1.1344164340776184 
15.001281360956032 1.1366407363104731 
16.001281360956032 1.0970825691121744 
17.001281360956032 1.082009595959596 
18.001281360956032 1.0502893009037746 
19.001281360956032 1.0299582203615099 
20.001281360956032 1.0128580010632642 
21.001281360956032 1.0088264154704945 
22.001281360956032 0.9905378787878789 
23.001281360956032 1.0087823165869219 
24.001281360956032 1.0104032695374803 
25.001281360956032 1.0095797115895802 
26.001281360956032 1.0158909821903244 
27.001281360956032 1.0324514088250931 
28.001281360956032 1.0385208333333333 
29.001281360956032 1.0317493354598617 
30.001281360956032 1.0676034688995217 
31.001281360956032 1.0650940457203615 
32.00128136095603 1.0594491959064327 
33.00128136095603 1.085387912014886 
34.00128136095603 1.0962808479532162 
35.00128136095603 1.1126840510366827 
36.00128136095603 1.1094343234981394 
37.00128136095603 1.1181449229133442 
38.00128136095603 1.1152271597554493 
39.00128136095603 1.1391046185539608 
40.00128136095603 1.1333339646464646 
41.00128136095603 1.1250747474747476 
42.00128136095603 1.1437904837852209 
43.00128136095603 1.1230326887293993 
44.00128136095603 1.129217955874535 
45.00128136095603 1.1162875598086126 
46.00128136095603 1.0945666068580544 
47.00128136095603 1.1227826355661883 
48.00128136095603 1.0956976608187137 
49.00128136095603 1.098243999202552 
50.00128136095603 1.0665044856459331 
51.00128136095603 1.0339824760765552 
52.00128136095603 1.0154314061669325 
53.00128136095603 0.9648116693248273 
54.00128136095603 0.956063716108453 
55.00128136095603 0.9316602804359384 
56.00128136095603 0.8996180289739502 
57.00128136095603 0.879371032695375 
58.00128136095603 0.8597722886762362 
59.00128136095603 0.8312777246145668 
60.00128136095603 0.8207369683678897 
61.00128136095603 0.8019904704944181 
62.00128136095603 0.7931221889952156 
63.00128136095603 0.7797761695906436 
64.00128136095603 0.7761115430622012 
65.00128136095603 0.7606344962785755 
66.00128136095603 0.7498608652312602 
67.00128136095603 0.7427340776182884 
68.00128136095603 0.7286466507177036 
69.00128136095603 0.7189658227006914 
70.00128136095603 0.7098582934609253 
71.00128136095603 0.7003350943646999 
72.00128136095603 0.693153767942584 
73.00128136095603 0.6795819710260503 
74.00128136095603 0.6757420122275388 
75.00128136095603 0.6669612041467308 
76.00128136095603 0.6557241294524192 
77.00128136095603 0.6510303894205213 
78.00128136095603 0.6404917264752794 
79.00128136095603 0.631962805688464 
80.00128136095603 0.6300870813397133 
81.00128136095603 0.6186339513556622 
82.00128136095603 0.6153931485911752 
83.00128136095603 0.6077340377458802 
84.00128136095603 0.6025701887293996 
85.00128136095603 0.5998939859117494 
86.00128136095603 0.599467796384902 
87.00128136095603 0.5980578282828286 
88.00128136095603 0.5953946105794793 
89.00128136095603 0.5984379518872943 
90.00128136095603 0.5952668660287085 
91.00128136095603 0.5952099681020737 
92.00128136095603 0.5962391081871349 
93.00128136095603 0.595943527379054 
94.00128136095603 0.6015249534821907 
95.00128136095603 0.5952952020202024 
96.00128136095603 0.5970603867623607 
97.00128136095603 0.5905120215311008 
98.00128136095603 0.587349368686869 
99.00128136095603 0.5821642543859652 
100.00128136095603 0.5750803030303033 
101.00128136095603 0.5745194245082406 
102.00128136095603 0.5682005715045191 
103.00128136095603 0.5649970893141948 
104.00128136095603 0.5628050039872411 
105.00128136095603 0.559195162147794 
106.00128136095603 0.5567719497607658 
107.00128136095603 0.5543816387559811 
108.00128136095603 0.5530877791068582 
109.00128136095603 0.5521143673577886 
110.00128136095603 0.5514171650717705 
111.00128136095603 0.5505952817650188 
112.00128136095603 0.5498065656565658 
113.00128136095603 0.549501508506114 
114.00128136095603 0.5490423312068051 
115.00128136095603 0.5486488171185542 
116.00128136095603 0.5484342636895271 
117.00128136095603 0.5481660220627328 
118.00128136095603 0.5478617357788412 
119.00128136095603 0.5477784290271135 
120.00128136095603 0.5476472620946307 
121.00128136095603 0.5476177232854866 
122.00128136095603 0.5476118155236578 
123.00128136095603 0.5476000000000002 
124.00128136095603 0.5476000000000002 
125.00128136095603 0.5476000000000002 
126.00128136095603 0.5476000000000002 
127.00128136095603 0.5476000000000002 
128.00128136095603 0.5476000000000002 
129.00128136095603 0.5476000000000002 
130.00128136095603 0.5476000000000002 
131.00128136095603 0.5476000000000002 
132.00128136095603 0.5476000000000002 
133.00128136095603 0.5476000000000002 
134.00128136095603 0.5476000000000002 
135.00128136095603 0.5476000000000002 
136.00128136095603 0.5476000000000002 
137.00128136095603 0.5476000000000002 
138.00128136095603 0.5476000000000002 
139.00128136095603 0.5476000000000002 
140.00128136095603 0.5476000000000002 
141.00128136095603 0.5476000000000002 
142.00128136095603 0.5476000000000002 
143.00128136095603 0.5476000000000002 
144.00128136095603 0.5476000000000002 
145.00128136095603 0.5476000000000002 
146.00128136095603 0.5476000000000002 
147.00128136095603 0.5476000000000002 
148.00128136095603 0.5476000000000002 
149.00128136095603 0.5476000000000002 
150.00128136095603 0.5476000000000002 
151.00128136095603 0.5476000000000002 
152.00128136095603 0.5476000000000002 
153.00128136095603 0.5476000000000002 
154.00128136095603 0.5476000000000002 
155.00128136095603 0.5476000000000002 
156.00128136095603 0.5476000000000002 
157.00128136095603 0.5476000000000002 
158.00128136095603 0.5476000000000002 
159.00128136095603 0.5476000000000002 
160.00128136095603 0.5476000000000002 
161.00128136095603 0.5476000000000002 
162.00128136095603 0.5476000000000002 
#####################################################################
# End of data export. Simulation finished at: 2017-05-24T11:02+0000 #
#####################################################################
