#####################################################################
# Alchemist log file - simulation started at: 2017-05-22T14:49+0000 #
#####################################################################
# random = 4.0, targets = 3.1622776601683795, density = 0.1591589639397027, gridShift = 1.0, perturbation = 0.5, connfactor = 0.75
#
# The columns have the following meaning: 
# time se[Mean] 
0.0 NaN 
1.0066708369337494 NaN 
2.0066708369337496 NaN 
3.0066708369337496 1.1933624007428747 
4.00667083693375 1.1980797462912098 
5.00667083693375 1.1639569696895262 
6.00667083693375 1.0757406765294806 
7.00667083693375 0.9303022253584728 
8.00667083693375 0.8624563025687976 
9.00667083693375 0.8158579093365487 
10.00667083693375 0.6746495215927384 
11.00667083693375 0.7227001362631468 
12.00667083693375 0.5319498990196727 
13.00667083693375 0.5363845901163432 
14.00667083693375 0.5001468139066907 
15.00667083693375 0.4232463237384893 
16.00667083693375 0.3957902138034722 
17.00667083693375 0.34494237887099816 
18.00667083693375 0.2806150388111015 
19.00667083693375 0.24306152382086493 
20.00667083693375 0.20464066720260643 
21.00667083693375 0.15358807617813916 
22.00667083693375 0.07896845674132405 
23.00667083693375 0.08664870104136212 
24.00667083693375 0.1004107964091894 
25.00667083693375 0.108656349612557 
26.00667083693375 0.12627807382595127 
27.00667083693375 0.1350889359326484 
28.00667083693375 0.1350889359326484 
29.00667083693375 0.1350889359326484 
30.00667083693375 0.1350889359326484 
31.00667083693375 0.1350889359326484 
32.00667083693375 0.1350889359326484 
33.00667083693375 0.1350889359326484 
#####################################################################
# End of data export. Simulation finished at: 2017-05-22T14:49+0000 #
#####################################################################
