0.000000000000000000e+00 nan
1.000074144114701857e+00 9.966195816070450020e-02
2.000148288229403715e+00 1.011114269994128234e+00
3.000222432344104462e+00 1.044540542135748984e+00
4.000296576458807429e+00 1.081497326933124503e+00
5.000370720573510397e+00 1.119142639105616510e+00
6.000444864688208924e+00 1.133345333518481324e+00
7.000519008802911891e+00 1.156386331888596519e+00
8.000593152917614859e+00 1.167767142443798312e+00
9.000667297032320491e+00 1.198831793804098433e+00
1.000074144114702079e+01 1.158628661141211769e+00
1.100081558526172643e+01 1.149953036128446238e+00
1.200088972937641785e+01 1.105011425224905475e+00
1.300096387349111815e+01 1.067608957268760150e+00
1.400103801760582378e+01 1.023700672130635647e+00
1.500111216172052764e+01 9.681656372372740016e-01
1.600118630583522972e+01 9.368839138793346732e-01
1.700126044994993535e+01 8.978782869089456664e-01
1.800133459406464098e+01 8.441301368236518998e-01
1.900140873817934661e+01 8.017701757848928468e-01
2.000148288229404159e+01 7.511350337872747529e-01
2.100155702640874722e+01 7.051954713785240081e-01
2.200163117052345285e+01 6.679894368222156764e-01
2.300170531463813006e+01 6.215375599049814959e-01
2.400177945875283569e+01 5.770430818859716426e-01
2.500185360286753777e+01 5.465222017576617519e-01
2.600192774698223630e+01 5.241967704406979012e-01
2.700200189109694193e+01 4.996783523495438306e-01
2.800207603521164756e+01 4.863067293535774382e-01
2.900215017932635320e+01 4.822831695558887355e-01
3.000222432344105528e+01 4.650232761049608032e-01
3.100229846755575736e+01 4.545811373293730528e-01
3.200237261167045943e+01 4.474004502459422716e-01
3.300244675578516507e+01 4.457188022831122809e-01
3.400252089989987070e+01 4.342780294398261298e-01
3.500259504401457633e+01 4.263377902734069580e-01
3.600266918812928196e+01 4.229577271838938501e-01
3.700274333224398760e+01 4.200621994528180303e-01
3.800281747635869323e+01 4.161270346526457220e-01
3.900289162047337754e+01 4.067359253875946212e-01
4.000296576458808318e+01 4.063685937380014934e-01
4.100303990870278881e+01 4.063387537583458831e-01
4.200311405281749444e+01 4.038850490417522088e-01
4.300318819693220007e+01 4.026141155186017673e-01
4.400326234104690570e+01 4.028000946644638702e-01
4.500333648516155449e+01 4.028101843813532423e-01
4.600341062927626012e+01 4.029362464392946541e-01
4.700348477339096576e+01 4.030445006657380480e-01
4.800355891750567139e+01 4.030183642648770270e-01
4.900363306162037702e+01 4.030292639156829448e-01
5.000370720573507555e+01 4.030032897700085437e-01
5.100378134984978118e+01 4.029793563420778213e-01
5.200385549396447260e+01 4.030069823243801475e-01
5.300392963807917823e+01 4.030014382119510574e-01
5.400400378219388386e+01 4.030125264368091820e-01
5.500407792630858950e+01 4.030125264368091820e-01
5.600415207042329513e+01 4.030125264368091820e-01
5.700422621453800076e+01 4.030125264368091820e-01
5.800430035865270639e+01 4.030125264368091820e-01
5.900437450276741203e+01 4.030125264368091820e-01
6.000444864688211055e+01 4.030125264368091820e-01
6.100452279099681618e+01 4.030125264368091820e-01
6.200459693511151471e+01 4.030125264368091820e-01
6.300467107922622034e+01 4.030125264368091820e-01
6.400474522334091887e+01 4.030125264368091820e-01
6.500481936745562450e+01 4.030125264368091820e-01
