#####################################################################
# Alchemist log file - simulation started at: 2017-05-23T16:30+0000 #
#####################################################################
# random = 12.0, targets = 10.0, density = 0.3174802103936399, gridShift = 0.0, perturbation = 0.5, connfactor = 2.0
#
# The columns have the following meaning: 
# time se[Mean] 
0.0 NaN 
1.0242474491697862 NaN 
2.024247449169786 1.0704591836734694 
3.024247449169786 1.112155612244898 
4.024247449169787 1.411075680272109 
5.024247449169787 1.7384679705215422 
6.024247449169787 2.106607142857143 
7.024247449169787 3.560496031746032 
8.024247449169787 3.2054974489795924 
9.024247449169787 2.4931717687074832 
10.024247449169787 3.597660147392291 
11.024247449169787 2.583748582766441 
12.024247449169787 2.41951955782313 
13.024247449169787 2.662317176870749 
14.024247449169787 2.913187358276645 
15.024247449169787 6.134963151927439 
16.024247449169785 6.952183956916099 
17.024247449169785 20.19266014739229 
18.024247449169785 15.4358985260771 
19.024247449169785 22.638829365079363 
20.024247449169785 33.926395975056685 
21.024247449169785 30.272113095238094 
22.024247449169785 35.679489795918364 
23.024247449169785 39.86892998866213 
24.024247449169785 21.882596371882087 
25.024247449169785 34.09283871882086 
26.024247449169785 28.487827380952382 
27.024247449169785 21.816318027210887 
28.024247449169785 21.826652494331064 
29.024247449169785 16.64829790249433 
30.024247449169785 18.42404761904762 
31.024247449169785 16.524573412698413 
32.024247449169785 16.04266298185941 
33.024247449169785 15.265341553287984 
34.024247449169785 15.35373015873016 
35.024247449169785 15.24576247165533 
36.024247449169785 15.305715702947847 
37.024247449169785 15.311882086167802 
38.024247449169785 15.215691609977325 
39.024247449169785 15.242244897959186 
40.024247449169785 15.226122448979593 
41.024247449169785 15.220702947845806 
42.024247449169785 15.21 
43.024247449169785 15.21 
44.024247449169785 15.21 
45.024247449169785 15.21 
46.024247449169785 15.21 
47.024247449169785 15.21 
48.024247449169785 15.21 
49.024247449169785 15.21 
50.024247449169785 15.21 
51.024247449169785 15.21 
52.024247449169785 15.21 
#####################################################################
# End of data export. Simulation finished at: 2017-05-23T16:30+0000 #
#####################################################################
