#####################################################################
# Alchemist log file - simulation started at: 2017-05-25T05:08+0000 #
#####################################################################
# random = 17.0, targets = 1.0, density = 1.7841466528270753, gridShift = 0.0, perturbation = 0.0, connfactor = 2.0
#
# The columns have the following meaning: 
# time se[Mean] 
0.0 NaN 
1.0003034458253823 NaN 
2.0003034458253826 2.3399999999999976 
3.0003034458253826 3.3859567901234557 
4.0003034458253826 4.204444444444442 
5.0003034458253826 3.1768209876543247 
6.0003034458253826 3.9471296296296283 
7.0003034458253826 4.063734567901234 
8.000303445825383 4.152499999999997 
9.000303445825383 4.132345679012343 
10.000303445825383 1.1536111111111111 
11.000303445825383 2.6216975308641985 
12.000303445825383 1.3832407407407417 
13.000303445825383 0.8824074074074074 
14.000303445825383 0.8767592592592591 
15.000303445825383 0.8821913580246913 
16.00030344582538 0.8882098765432099 
17.00030344582538 0.8868518518518521 
18.00030344582538 0.8804320987654322 
19.00030344582538 0.8967592592592595 
20.00030344582538 0.8872222222222221 
21.00030344582538 0.8872222222222221 
22.00030344582538 0.8911111111111111 
23.00030344582538 0.8852777777777778 
24.00030344582538 0.8833333333333335 
25.00030344582538 0.8852777777777778 
26.00030344582538 0.8872222222222221 
27.00030344582538 0.8930555555555555 
28.00030344582538 0.8969444444444445 
29.00030344582538 0.9053086419753087 
30.00030344582538 0.9043518518518519 
31.00030344582538 0.9088271604938272 
32.00030344582538 0.9012654320987655 
33.00030344582538 0.9019135802469135 
34.00030344582538 0.8891975308641976 
35.00030344582538 0.8813888888888888 
36.00030344582538 0.8798765432098764 
37.00030344582538 0.8663888888888891 
38.00030344582538 0.8539506172839508 
39.00030344582538 0.8516975308641977 
40.00030344582538 0.804475308641975 
41.00030344582538 0.8055246913580245 
42.00030344582538 0.8458024691358026 
43.00030344582538 1.1152777777777785 
44.00030344582538 0.9107716049382717 
45.00030344582538 1.2063888888888885 
46.00030344582538 1.3223148148148152 
47.00030344582538 1.18679012345679 
48.00030344582538 1.0537345679012342 
49.00030344582538 1.047777777777778 
50.00030344582538 0.8486111111111111 
51.00030344582538 0.8992283950617289 
52.00030344582538 0.7655246913580246 
53.00030344582538 0.8033641975308643 
54.00030344582538 0.9541975308641969 
55.00030344582538 0.7194444444444448 
56.00030344582538 1.2146604938271621 
57.00030344582538 0.9996913580246927 
58.00030344582538 1.0928086419753094 
59.00030344582538 1.0374074074074071 
60.00030344582538 1.171018518518518 
61.00030344582538 1.3826234567901234 
62.00030344582538 1.5762962962962976 
63.00030344582538 1.5972839506172862 
64.00030344582538 1.7677777777777777 
65.00030344582538 1.9293209876543218 
66.00030344582538 2.3927160493827175 
67.00030344582538 2.7407407407407414 
68.00030344582538 2.7958024691358054 
69.00030344582538 3.4170061728395056 
70.00030344582538 3.550462962962966 
71.00030344582538 3.681759259259267 
72.00030344582538 3.002376543209871 
73.00030344582538 1.840864197530862 
74.00030344582538 1.1590432098765386 
75.00030344582538 0.613611111111111 
76.00030344582538 0.06817901234567916 
77.00030344582538 0.0 
78.00030344582538 0.0 
79.00030344582538 0.0 
80.00030344582538 0.0 
81.00030344582538 0.0 
82.00030344582538 0.0 
83.00030344582538 0.0 
84.00030344582538 0.0 
85.00030344582538 0.0 
86.00030344582538 0.0 
87.00030344582538 0.0 
88.00030344582538 0.0 
89.00030344582538 0.0 
90.00030344582538 0.0 
91.00030344582538 0.0 
92.00030344582538 0.0 
93.00030344582538 0.0 
94.00030344582538 0.0 
95.00030344582538 0.0 
96.00030344582538 0.0 
97.00030344582538 0.0 
98.00030344582538 0.0 
99.00030344582538 0.0 
100.00030344582538 0.0 
101.00030344582538 0.0 
102.00030344582538 0.0 
103.00030344582538 0.0 
104.00030344582538 0.0 
105.00030344582538 0.0 
#####################################################################
# End of data export. Simulation finished at: 2017-05-25T05:08+0000 #
#####################################################################
