#####################################################################
# Alchemist log file - simulation started at: 2017-05-26T08:20+0000 #
#####################################################################
# random = 9.0, targets = 31.622776601683793, density = 0.05649405772326896, gridShift = 0.0, perturbation = 0.5, connfactor = 0.1
#
# The columns have the following meaning: 
# time se[Mean] 
0.0 NaN 
1.0274843760556778 NaN 
2.0274843760556776 NaN 
3.0274843760556776 1.0 
4.0274843760556776 1.0 
5.0274843760556776 0.9905085073119738 
6.0274843760556776 0.9792124660863424 
7.0274843760556776 0.9563391336350795 
8.027484376055678 0.9034680245821328 
9.027484376055678 0.9071708716573433 
10.027484376055678 0.8917032333565014 
11.027484376055678 0.8561355611420018 
12.027484376055678 0.8857895877436857 
13.027484376055678 0.8596821582172124 
14.027484376055678 0.8778838935932648 
15.027484376055678 0.8741185465180543 
16.02748437605568 0.8702281994428438 
17.02748437605568 0.8775088935932648 
18.02748437605568 0.8775088935932648 
19.02748437605568 0.8775088935932648 
20.02748437605568 0.8775088935932648 
21.02748437605568 0.8775088935932648 
22.02748437605568 0.8775088935932648 
23.02748437605568 0.8775088935932648 
#####################################################################
# End of data export. Simulation finished at: 2017-05-26T08:20+0000 #
#####################################################################
