#####################################################################
# Alchemist log file - simulation started at: 2017-05-23T09:57+0000 #
#####################################################################
# random = 11.0, targets = 31.622776601683793, density = 1.7841466528270753, gridShift = 1.0, perturbation = 0.5, connfactor = 0.1
#
# The columns have the following meaning: 
# time se[Mean] 
0.0 NaN 
1.0028758930102715 NaN 
2.0028758930102715 1.0 
3.0028758930102715 1.0 
4.0028758930102715 0.9991752827695978 
5.0028758930102715 0.9972568949462782 
6.0028758930102715 0.9950338394747293 
7.0028758930102715 0.9908834676084325 
8.002875893010271 0.9889382940708272 
9.002875893010271 0.9864284280939062 
10.002875893010271 0.9838917764026994 
11.002875893010271 0.9822244847990378 
12.002875893010271 0.9794367368881732 
13.002875893010271 0.977491563350568 
14.002875893010271 0.9808261465578912 
15.002875893010271 0.9764068213290792 
16.00287589301027 0.9760474860326206 
17.00287589301027 0.9749437906486169 
18.00287589301027 0.9746301944289589 
19.00287589301027 0.9660940191802486 
20.00287589301027 0.9666587116195644 
21.00287589301027 0.9592451851173727 
22.00287589301027 0.9478844514524254 
23.00287589301027 0.9447563216076171 
24.00287589301027 0.9356386929963919 
25.00287589301027 0.9216163076402378 
26.00287589301027 0.9163811937524522 
27.00287589301027 0.9087790710306028 
28.00287589301027 0.9001904205729789 
29.00287589301027 0.9006568987265802 
30.00287589301027 0.8921296520492983 
31.00287589301027 0.8863477028650542 
32.00287589301027 0.8796072666931445 
33.00287589301027 0.8680903624352799 
34.00287589301027 0.8792300742538287 
35.00287589301027 0.869730868324656 
36.00287589301027 0.8845945730202458 
37.00287589301027 0.8676830956227048 
38.00287589301027 0.8808951734181746 
39.00287589301027 0.8700958435335694 
40.00287589301027 0.8872596721845917 
41.00287589301027 0.873143775049686 
42.00287589301027 0.8815515028252574 
43.00287589301027 0.8935729507759189 
44.00287589301027 0.877212693553468 
45.00287589301027 0.906481457142817 
46.00287589301027 0.8802249107838701 
47.00287589301027 0.9047060852765202 
48.00287589301027 0.9067305197373247 
49.00287589301027 0.9172698248308433 
50.00287589301027 0.9271172450457303 
51.00287589301027 0.9265392391563545 
52.00287589301027 0.9454248682451022 
53.00287589301027 0.94995807246317 
54.00287589301027 0.9491623333863691 
55.00287589301027 0.9601256662156622 
56.00287589301027 0.9598031414245757 
57.00287589301027 0.9576693716673126 
58.00287589301027 0.9559217229207938 
59.00287589301027 0.9480406220453428 
60.00287589301027 0.9417821699164105 
61.00287589301027 0.9341889757659895 
62.00287589301027 0.9238158660564746 
63.00287589301027 0.9170116748507416 
64.00287589301027 0.906781422284084 
65.00287589301027 0.8973591260246292 
66.00287589301027 0.8873085411062008 
67.00287589301027 0.877679791484231 
68.00287589301027 0.8587961960206334 
69.00287589301027 0.8497946388379796 
70.00287589301027 0.8384249766016038 
71.00287589301027 0.8519436587742885 
72.00287589301027 0.8181519714682882 
73.00287589301027 0.904343678034091 
74.00287589301027 0.9731174267805697 
75.00287589301027 0.9117914080778433 
76.00287589301027 0.9535598035811977 
77.00287589301027 0.8417930931156623 
78.00287589301027 0.9862708780340108 
79.00287589301027 0.9014548531633705 
80.00287589301027 0.9475008129723377 
81.00287589301027 0.8879403001589874 
82.00287589301027 1.0644531950653888 
83.00287589301027 0.957815551850154 
84.00287589301027 0.9803179340626358 
85.00287589301027 1.0542017966969002 
86.00287589301027 0.87107001814545 
87.00287589301027 1.1765343422599097 
88.00287589301027 1.020290749303355 
89.00287589301027 1.0440307554712687 
90.00287589301027 1.0176269051728315 
91.00287589301027 1.068497264583871 
92.00287589301027 1.0682550969356415 
93.00287589301027 0.9912230548743948 
94.00287589301027 0.9398683601668989 
95.00287589301027 0.9141910128131505 
96.00287589301027 0.785804276044408 
97.00287589301027 0.7601269286906591 
98.00287589301027 0.7344495813369107 
99.00287589301027 0.708772233983162 
100.00287589301027 0.708772233983162 
101.00287589301027 0.708772233983162 
102.00287589301027 0.708772233983162 
103.00287589301027 0.708772233983162 
104.00287589301027 0.708772233983162 
105.00287589301027 0.708772233983162 
106.00287589301027 0.708772233983162 
107.00287589301027 0.708772233983162 
108.00287589301027 0.708772233983162 
109.00287589301027 0.708772233983162 
110.00287589301027 0.708772233983162 
111.00287589301027 0.708772233983162 
112.00287589301027 0.708772233983162 
113.00287589301027 0.708772233983162 
114.00287589301027 0.708772233983162 
115.00287589301027 0.708772233983162 
116.00287589301027 0.708772233983162 
117.00287589301027 0.708772233983162 
118.00287589301027 0.708772233983162 
119.00287589301027 0.708772233983162 
120.00287589301027 0.708772233983162 
121.00287589301027 0.708772233983162 
122.00287589301027 0.708772233983162 
123.00287589301027 0.708772233983162 
124.00287589301027 0.708772233983162 
125.00287589301027 0.708772233983162 
#####################################################################
# End of data export. Simulation finished at: 2017-05-23T09:57+0000 #
#####################################################################
