#####################################################################
# Alchemist log file - simulation started at: 2017-05-24T20:16+0000 #
#####################################################################
# random = 15.0, targets = 100.0, density = 14.160781367816199, gridShift = 1.0, perturbation = 0.5, connfactor = 0.75
#
# The columns have the following meaning: 
# time se[Mean] 
0.0 NaN 
1.0001976518064393 NaN 
2.000197651806439 1.0004113756613757 
3.000197651806439 1.000571700011023 
4.000197651806439 0.9999900614528219 
5.000197651806439 0.9990508946942974 
6.000197651806439 0.9963541368129042 
7.000197651806439 0.9941393215388007 
8.000197651806438 0.9925016911008231 
9.000197651806438 0.9905169601521164 
10.000197651806438 0.9882340865667255 
11.000197651806438 0.9862809078299529 
12.000197651806438 0.9844464060662845 
13.000197651806438 0.9830760329401823 
14.000197651806438 0.9811186618165785 
15.000197651806438 0.979435170947237 
16.000197651806438 0.9780160829107878 
17.000197651806438 0.9758927758487654 
18.000197651806438 0.9740061466600529 
19.000197651806438 0.9714739078115814 
20.000197651806438 0.9666153250845091 
21.000197651806438 0.9644041547251617 
22.000197651806438 0.9595680583112876 
23.000197651806438 0.9557437247391241 
24.000197651806438 0.9536046346818049 
25.000197651806438 0.9470219163359789 
26.000197651806438 0.9457798601925338 
27.000197651806438 0.9398062715865666 
28.000197651806438 0.9360669895465903 
29.000197651806438 0.9339842335390945 
30.000197651806438 0.9293780009920636 
31.000197651806438 0.9281054834472369 
32.00019765180644 0.9257176316321282 
33.00019765180644 0.9245437642379484 
34.00019765180644 0.9238205788874193 
35.00019765180644 0.9219893095972956 
36.00019765180644 0.9195419243276014 
37.00019765180644 0.918856257807907 
38.00019765180644 0.9170150090939155 
39.00019765180644 0.9177073504556142 
40.00019765180644 0.91661557723398 
41.00019765180644 0.9148321782223693 
42.00019765180644 0.9146948343805116 
43.00019765180644 0.9131587108686066 
44.00019765180644 0.9124364105673135 
45.00019765180644 0.9114683981848911 
46.00019765180644 0.9105088803461198 
47.00019765180644 0.9092323555077895 
48.00019765180644 0.9087044909244562 
49.00019765180644 0.9065932264109348 
50.00019765180644 0.904969958388448 
51.00019765180644 0.9050386055077896 
52.00019765180644 0.9021922210280717 
53.00019765180644 0.9015362649728101 
54.00019765180644 0.8995933889991181 
55.00019765180644 0.8978975276491769 
56.00019765180644 0.897068998015873 
57.00019765180644 0.8944918306327161 
58.00019765180644 0.8926397091784244 
59.00019765180644 0.8923282577344209 
60.00019765180644 0.8894226139954439 
61.00019765180644 0.8872919909244563 
62.00019765180644 0.8862855411338919 
63.00019765180644 0.8841542116769547 
64.00019765180645 0.8824846987985009 
65.00019765180645 0.8807430766828336 
66.00019765180645 0.8779389733980011 
67.00019765180645 0.8767728845164607 
68.00019765180645 0.8727516199110815 
69.00019765180645 0.8705143302652854 
70.00019765180645 0.868235449276161 
71.00019765180645 0.8645403508046734 
72.00019765180645 0.8605626988719867 
73.00019765180645 0.8588361749522342 
74.00019765180645 0.8537871780386537 
75.00019765180645 0.8517450686177245 
76.00019765180645 0.8499374278916816 
77.00019765180645 0.8443033996546148 
78.00019765180645 0.8434414613646386 
79.00019765180645 0.837982240685626 
80.00019765180645 0.8350668705908291 
81.00019765180645 0.8325742554930924 
82.00019765180645 0.827748641883451 
83.00019765180645 0.8237310704181362 
84.00019765180645 0.8214160489234275 
85.00019765180645 0.8172093295304229 
86.00019765180645 0.8138289264587009 
87.00019765180645 0.8124848898625809 
88.00019765180645 0.8054436691651972 
89.00019765180645 0.8061492293136389 
90.00019765180645 0.7991995889366551 
91.00019765180645 0.7947069054049091 
92.00019765180645 0.7970640317276604 
93.00019765180645 0.7873251699368019 
94.00019765180645 0.7872985537000294 
95.00019765180645 0.7816069297472074 
96.00019765180645 0.7771830825617284 
97.00019765180645 0.7755242642195763 
98.00019765180645 0.7693311755952382 
99.00019765180645 0.7657763819995592 
100.00019765180645 0.7623577445252786 
101.00019765180645 0.756015707212669 
102.00019765180645 0.7487234250992064 
103.00019765180645 0.7509842468584659 
104.00019765180645 0.7391431368496473 
105.00019765180645 0.7382704181363903 
106.00019765180645 0.7298491131136099 
107.00019765180645 0.7231517374889771 
108.00019765180645 0.7272993358686062 
109.00019765180645 0.7135628880989123 
110.00019765180645 0.714502972516167 
111.00019765180645 0.7059943084950028 
112.00019765180645 0.7047743611294827 
113.00019765180645 0.7036010136500587 
114.00019765180645 0.693626255695179 
115.00019765180645 0.6926668558935918 
116.00019765180645 0.685628941615226 
117.00019765180645 0.6836646173206933 
118.00019765180645 0.6808602021788656 
119.00019765180645 0.675303219154174 
120.00019765180645 0.6694056129666377 
121.00019765180645 0.6672167553093771 
122.00019765180645 0.6629846491953267 
123.00019765180645 0.6620680321318341 
124.00019765180645 0.6555031116806287 
125.00019765180645 0.6481212554196064 
126.00019765180645 0.6476881195803942 
127.00019765180645 0.640571376671811 
128.00019765180645 0.6372714363793357 
129.00019765180645 0.6405633584104938 
130.00019765180645 0.6209251878490593 
131.00019765180645 0.6722860559964727 
132.00019765180645 0.6555469916593182 
133.00019765180645 0.7122692244451797 
134.00019765180645 0.6900142710170489 
135.00019765180645 0.6992603666042033 
136.00019765180645 0.7221533362727812 
137.00019765180645 0.7081531782774839 
138.00019765180645 0.7246829470715758 
139.00019765180645 0.7479499131944449 
140.00019765180645 0.7136077054857438 
141.00019765180645 0.7436057737176662 
142.00019765180645 0.7725659272119346 
143.00019765180645 0.7253821506650502 
144.00019765180645 0.7242083879886831 
145.00019765180645 0.76200983566652 
146.00019765180645 0.6840318691211053 
147.00019765180645 0.7438746334876547 
148.00019765180645 0.6826889720201353 
149.00019765180645 0.7498054526748971 
150.00019765180645 0.7204817010214581 
151.00019765180645 0.670328032223692 
152.00019765180645 0.7572365974977956 
153.00019765180645 0.7144439180996471 
154.00019765180645 0.7098015960280718 
155.00019765180645 0.7681307535089653 
156.00019765180645 0.7250049828226044 
157.00019765180645 0.7588524576535862 
158.00019765180645 0.7720700800999412 
159.00019765180645 0.8439094696134628 
160.00019765180645 0.8021424323008529 
161.00019765180645 0.8969836621840095 
162.00019765180645 0.8102560552616108 
163.00019765180645 0.9152600983796297 
164.00019765180645 0.8738581923317179 
165.00019765180645 1.016495330412259 
166.00019765180645 0.9452129831716634 
167.00019765180645 0.904457390413728 
168.00019765180645 1.0387184073706648 
169.00019765180645 0.92598286715535 
170.00019765180645 0.9462910029945623 
171.00019765180645 1.0008838183421522 
172.00019765180645 0.8332455632716051 
173.00019765180645 0.9647662592776314 
174.00019765180645 0.8722396641681368 
175.00019765180645 0.9638587944591421 
176.00019765180645 0.9198353776271306 
177.00019765180645 0.7770191831092005 
178.00019765180645 0.9857928052432399 
179.00019765180645 0.9462184923390661 
180.00019765180645 0.9420924258708118 
181.00019765180645 0.9914829287000292 
182.00019765180645 0.8916077096193419 
183.00019765180645 0.8866708466527047 
184.00019765180645 1.0113206408913868 
185.00019765180645 0.8504440797692534 
186.00019765180645 0.9054608520723116 
187.00019765180645 0.9062253251763674 
188.00019765180645 0.6855510168650795 
189.00019765180645 0.8836812486221339 
190.00019765180645 0.7391052841159611 
191.00019765180645 0.8934573931694596 
192.00019765180645 0.9074575419789829 
193.00019765180645 1.0891100864381236 
194.00019765180645 1.3457058054085829 
195.00019765180645 1.5823762010398306 
196.00019765180645 1.5606489390432094 
197.00019765180645 1.6911721836419742 
198.00019765180645 1.7696977563749297 
199.00019765180645 1.8168409616585868 
200.00019765180645 2.031401943709583 
201.00019765180645 2.1036837457745374 
202.00019765180645 2.0123041193599347 
203.00019765180645 2.155116534850826 
204.00019765180645 2.353991804453258 
205.00019765180645 2.0935142834178446 
206.00019765180645 2.2092406507201603 
207.00019765180645 2.2865016396604982 
208.00019765180645 1.9037351199661974 
209.00019765180645 2.1877909552285417 
210.00019765180645 2.1270710312867442 
211.00019765180645 2.2818902621619594 
212.00019765180645 2.194169769620812 
213.00019765180645 1.9315936783509693 
214.00019765180645 2.282464745462225 
215.00019765180645 2.209832942937977 
216.00019765180645 2.204408202436063 
217.00019765180645 2.427559143977804 
218.00019765180645 2.2823197884516477 
219.00019765180645 2.076507360100678 
220.00019765180645 2.264139457028952 
221.00019765180645 2.1628462439373886 
222.00019765180645 2.284763404798646 
223.00019765180645 2.542960377167839 
224.00019765180645 2.063703195271164 
225.00019765180645 2.5738737245554097 
226.00019765180645 2.496852839322457 
227.00019765180645 2.9995144974463535 
228.00019765180645 2.7565159832451465 
229.00019765180645 2.5889531553130483 
230.00019765180645 2.9836657196134633 
231.00019765180645 2.8672788649140224 
232.00019765180645 2.9077227724500285 
233.00019765180645 2.75157615602954 
234.00019765180645 2.62826220743312 
235.00019765180645 2.7378940549676734 
236.00019765180645 2.7572611345348466 
237.00019765180645 2.637693563069511 
238.00019765180645 2.4498308012749965 
239.00019765180645 2.323992520943577 
240.00019765180645 2.7784273579879435 
241.00019765180645 2.8751609508193465 
242.00019765180645 2.879724576995158 
243.00019765180645 2.690329356352916 
244.00019765180645 2.3520365501910567 
245.00019765180645 2.783854802322183 
246.00019765180645 2.9111768527704176 
247.00019765180645 2.3669065269510794 
248.00019765180645 2.481530712172966 
249.00019765180645 1.730297400885493 
250.00019765180645 1.4182185800632043 
251.00019765180645 1.3743450341710879 
252.00019765180645 0.9559572140468922 
253.00019765180645 0.8428664723875808 
254.00019765180645 0.7021541795267551 
255.00019765180645 0.4908031213256877 
256.00019765180645 0.4705687977660215 
257.00019765180645 0.38649764476778226 
258.00019765180645 0.24329490327380815 
259.00019765180645 0.33572565218989364 
260.00019765180645 0.22672145107657357 
261.00019765180645 0.1860710689484131 
262.00019765180645 0.2115513673023235 
263.00019765180645 0.1650550925925927 
264.00019765180645 0.1599923960170488 
265.00019765180645 0.1600029412845385 
266.00019765180645 0.16000798978542036 
267.00019765180645 0.1599991273515579 
268.00019765180645 0.16000357510288066 
269.00019765180645 0.16000088367136978 
270.00019765180645 0.15999912000293945 
271.00019765180645 0.16 
272.00019765180645 0.16 
273.00019765180645 0.16 
274.00019765180645 0.16 
275.00019765180645 0.16 
276.00019765180645 0.16 
277.00019765180645 0.16 
278.00019765180645 0.16 
279.00019765180645 0.16 
280.00019765180645 0.16 
281.00019765180645 0.16 
282.00019765180645 0.16 
283.00019765180645 0.16 
284.00019765180645 0.16 
285.00019765180645 0.16 
286.00019765180645 0.16 
287.00019765180645 0.16 
288.00019765180645 0.16 
289.00019765180645 0.16 
290.00019765180645 0.16 
291.00019765180645 0.16 
292.00019765180645 0.16 
293.00019765180645 0.16 
294.00019765180645 0.16 
295.00019765180645 0.16 
296.00019765180645 0.16 
297.00019765180645 0.16 
298.00019765180645 0.16 
299.00019765180645 0.16 
300.00019765180645 0.16 
301.00019765180645 0.16 
302.00019765180645 0.16 
303.00019765180645 0.16 
304.00019765180645 0.16 
305.00019765180645 0.16 
306.00019765180645 0.16 
307.00019765180645 0.16 
308.00019765180645 0.16 
309.00019765180645 0.16 
310.00019765180645 0.16 
311.00019765180645 0.16 
312.00019765180645 0.16 
313.00019765180645 0.16 
314.00019765180645 0.16 
315.00019765180645 0.16 
316.00019765180645 0.16 
317.00019765180645 0.16 
318.00019765180645 0.16 
319.00019765180645 0.16 
320.00019765180645 0.16 
321.00019765180645 0.16 
322.00019765180645 0.16 
323.00019765180645 0.16 
324.00019765180645 0.16 
325.00019765180645 0.16 
326.00019765180645 0.16 
327.00019765180645 0.16 
328.00019765180645 0.16 
329.00019765180645 0.16 
330.00019765180645 0.16 
331.00019765180645 0.16 
332.00019765180645 0.16 
333.00019765180645 0.16 
334.00019765180645 0.16 
335.00019765180645 0.16 
336.00019765180645 0.16 
337.00019765180645 0.16 
338.00019765180645 0.16 
339.00019765180645 0.16 
340.00019765180645 0.16 
341.00019765180645 0.16 
342.00019765180645 0.16 
343.00019765180645 0.16 
344.00019765180645 0.16 
345.00019765180645 0.16 
346.00019765180645 0.16 
347.00019765180645 0.16 
348.00019765180645 0.16 
349.00019765180645 0.16 
350.00019765180645 0.16 
351.00019765180645 0.16 
352.00019765180645 0.16 
#####################################################################
# End of data export. Simulation finished at: 2017-05-24T20:21+0000 #
#####################################################################
