#####################################################################
# Alchemist log file - simulation started at: 2017-05-26T03:04+0000 #
#####################################################################
# random = 9.0, targets = 3.1622776601683795, density = 0.4483936332993466, gridShift = 0.0, perturbation = 0.0, connfactor = 0.25
#
# The columns have the following meaning: 
# time se[Mean] 
0.0 NaN 
1.0274843760556778 NaN 
2.0274843760556776 1.0 
3.0274843760556776 1.0 
4.0274843760556776 1.0 
5.0274843760556776 1.0 
6.0274843760556776 1.0 
7.0274843760556776 1.0 
8.027484376055678 1.0 
9.027484376055678 1.0 
10.027484376055678 1.0 
11.027484376055678 1.0 
12.027484376055678 1.0 
13.027484376055678 1.0 
14.027484376055678 1.0 
#####################################################################
# End of data export. Simulation finished at: 2017-05-26T03:04+0000 #
#####################################################################
