#####################################################################
# Alchemist log file - simulation started at: 2017-05-23T13:53+0000 #
#####################################################################
# random = 12.0, targets = 1.0, density = 5.0264212595847235, gridShift = 1.0, perturbation = 0.0, connfactor = 0.25
#
# The columns have the following meaning: 
# time se[Mean] 
0.0 NaN 
1.0005590746559656 NaN 
2.000559074655966 1.0 
3.000559074655966 1.0 
4.000559074655966 1.0 
5.000559074655966 1.0 
6.000559074655966 1.0 
7.000559074655966 1.0 
8.000559074655966 1.0 
9.000559074655966 1.0 
10.000559074655966 1.0 
11.000559074655966 1.0 
12.000559074655966 1.0 
13.000559074655966 1.0 
14.000559074655966 1.0 
15.000559074655966 1.0 
16.000559074655968 1.0 
17.000559074655968 1.0 
18.000559074655968 1.0 
19.000559074655968 1.0 
20.000559074655968 1.0 
21.000559074655968 1.0 
22.000559074655968 1.0 
23.000559074655968 1.0 
24.000559074655968 1.0 
25.000559074655968 1.0 
26.000559074655968 1.0 
27.000559074655968 1.0 
28.000559074655968 1.0 
29.000559074655968 1.0 
30.000559074655968 1.0 
31.000559074655968 1.0 
32.00055907465597 1.0 
33.00055907465597 1.0 
34.00055907465597 1.0 
35.00055907465597 1.0 
36.00055907465597 1.0 
37.00055907465597 1.0 
38.00055907465597 1.0 
39.00055907465597 1.0 
40.00055907465597 1.0 
41.00055907465597 1.0 
42.00055907465597 1.0 
43.00055907465597 1.0 
44.00055907465597 1.0 
45.00055907465597 1.0 
46.00055907465597 1.0 
47.00055907465597 1.0 
48.00055907465597 1.0 
#####################################################################
# End of data export. Simulation finished at: 2017-05-23T13:53+0000 #
#####################################################################
