0.000000000000000000e+00 nan
1.000058427211477641e+00 2.235794752727589429e+00
2.000116854422955281e+00 1.674903485667408320e+00
3.000175281634433144e+00 1.944017126182725042e+00
4.000233708845910563e+00 2.662433027729665724e+00
5.000292136057385761e+00 3.506675061699418006e+00
6.000350563268866289e+00 3.686669426174171704e+00
7.000408990480338822e+00 4.445319691999642941e+00
8.000467417691821126e+00 4.693142154926577270e+00
9.000525844903298989e+00 4.973309444316294403e+00
1.000058427211477152e+01 5.262968089167767261e+00
1.100064269932625116e+01 5.675132789815293677e+00
1.200070112653773258e+01 5.696315929350872942e+00
1.300075955374921399e+01 5.393144363602789149e+00
1.400081798096067764e+01 5.615562691767824965e+00
1.500087640817216261e+01 5.825992610886327583e+00
1.600093483538364225e+01 6.032563778578270863e+00
1.700099326259510590e+01 5.907132484934053629e+00
1.800105168980659798e+01 4.966338409221287442e+00
1.900111011701807229e+01 4.608534401060657260e+00
2.000116854422954304e+01 4.048050571596577107e+00
2.100122697144102801e+01 4.170585040778640895e+00
2.200128539865250232e+01 3.921326201107396159e+00
2.300134382586396953e+01 3.918828772250281034e+00
2.400140225307546515e+01 3.907043384833086552e+00
2.500146068028692881e+01 3.903885478922690666e+00
2.600151910749842799e+01 3.903885478922690666e+00
2.700157753470989164e+01 3.903885478922690666e+00
2.800163596192135529e+01 3.903885478922690666e+00
