0.000000000000000000e+00 nan
1.000109971462108005e+00 1.546304764409640875e-01
2.000219942924216010e+00 9.679381068027036461e-01
3.000329914386322017e+00 9.739646750072519232e-01
4.000439885848432020e+00 9.784246590804869248e-01
5.000549857310542023e+00 9.841413038666424473e-01
6.000659828772644033e+00 9.825573302811675402e-01
7.000769800234754925e+00 9.886182855506473466e-01
8.000879771696864040e+00 9.896184706830496447e-01
9.000989743158973155e+00 9.870632528333185274e-01
1.000109971462108405e+01 9.836835477991745513e-01
1.100120968608319316e+01 9.794808912143279089e-01
1.200131965754528807e+01 9.726041445086658355e-01
1.300142962900739718e+01 9.678521670825546153e-01
1.400153960046950985e+01 9.604308060355869481e-01
1.500164957193161896e+01 9.539002657630071269e-01
1.600175954339372808e+01 9.433353355312626976e-01
1.700186951485583720e+01 9.364991590376685604e-01
1.800197948631794631e+01 9.253279453630757212e-01
1.900208945778005898e+01 9.138343913883016922e-01
2.000219942924216809e+01 9.037643327069769805e-01
2.100230940070424879e+01 8.932757903087709117e-01
2.200241937216638632e+01 8.832534052332658980e-01
2.300252934362846702e+01 8.775319065838945720e-01
2.400263931509057613e+01 8.681902528596391333e-01
2.500274928655268525e+01 8.610247214465307497e-01
2.600285925801479436e+01 8.562547668946531854e-01
2.700296922947689993e+01 8.513546920240482319e-01
2.800307920093901970e+01 8.459104925523027729e-01
2.900318917240111816e+01 8.411736776490930101e-01
3.000329914386323793e+01 8.375464396498795150e-01
3.100340911532532928e+01 8.288198947205075440e-01
3.200351908678745616e+01 8.212711653006656842e-01
3.300362905824955106e+01 8.163696072400690174e-01
3.400373902971167439e+01 8.079686067393734294e-01
3.500384900117376930e+01 8.027161793945637447e-01
3.600395897263589262e+01 7.957844230953328157e-01
3.700406894409798753e+01 7.870226462431244574e-01
3.800417891556011796e+01 7.822086811956805441e-01
3.900428888702220576e+01 7.762773550498963671e-01
4.000439885848433619e+01 7.722780007666945057e-01
4.100450882994641688e+01 7.678535599192016781e-01
4.200461880140849757e+01 7.653582002504086823e-01
4.300472877287063511e+01 7.618246634606135048e-01
4.400483874433277265e+01 7.598896313511392941e-01
4.500494871579485334e+01 7.623095406779981653e-01
4.600505868725693404e+01 7.561769143165022466e-01
4.700516865871906447e+01 7.573753385584848230e-01
4.800527863018115227e+01 7.581617261140038977e-01
4.900538860164328270e+01 7.553638666606610208e-01
5.000549857310537050e+01 7.562121037133582302e-01
5.100560854456750093e+01 7.583127373697873264e-01
5.200571851602958873e+01 7.563346228430255502e-01
5.300582848749171916e+01 7.559346953894892085e-01
5.400593845895379985e+01 7.552770003088802309e-01
5.500604843041592318e+01 7.555705079576809924e-01
5.600615840187803940e+01 7.553683539359219434e-01
5.700626837334015562e+01 7.556909024968281319e-01
5.800637834480223631e+01 7.562191844813775932e-01
5.900648831626435253e+01 7.559659354361735195e-01
6.000659828772647586e+01 7.559252049503641935e-01
6.100670825918859208e+01 7.561316073969973628e-01
6.200681823065065856e+01 7.561288992231066652e-01
6.300692820211278899e+01 7.561388587414246132e-01
6.400703817357491232e+01 7.561388587414246132e-01
6.500714814503702144e+01 7.561388587414246132e-01
6.600725811649910213e+01 7.561388587414246132e-01
6.700736808796121124e+01 7.561388587414246132e-01
6.800747805942334878e+01 7.561388587414246132e-01
6.900758803088545790e+01 7.561388587414246132e-01
7.000769800234753859e+01 7.561388587414246132e-01
7.100780797380963349e+01 7.561388587414246132e-01
7.200791794527178524e+01 7.561388587414246132e-01
7.300802791673389436e+01 7.561388587414246132e-01
7.400813788819597505e+01 7.561388587414246132e-01
7.500824785965806996e+01 7.561388587414246132e-01
7.600835783112023591e+01 7.561388587414246132e-01
7.700846780258233082e+01 7.561388587414246132e-01
7.800857777404441151e+01 7.561388587414246132e-01
7.900868774550650642e+01 7.561388587414246132e-01
8.000879771696867238e+01 7.561388587414246132e-01
8.100890768843076728e+01 7.561388587414246132e-01
8.200901765989283376e+01 7.561388587414246132e-01
8.300912763135490025e+01 7.561388587414246132e-01
8.400923760281699515e+01 7.561388587414246132e-01
8.500934757427920374e+01 7.561388587414246132e-01
