#####################################################################
# Alchemist log file - simulation started at: 2017-05-25T03:57+0000 #
#####################################################################
# random = 16.0, targets = 100.0, density = 14.160781367816199, gridShift = 1.0, perturbation = 0.0, connfactor = 0.75
#
# The columns have the following meaning: 
# time se[Mean] 
0.0 NaN 
1.000419502192421 NaN 
2.000419502192421 1.0006170138888888 
3.000419502192421 1.0009942423574367 
4.000419502192421 1.0006332745443856 
5.000419502192421 1.0000506595385068 
6.000419502192421 0.9965742871840094 
7.000419502192421 0.9938619929453263 
8.000419502192422 0.9923605930335097 
9.000419502192422 0.9905007146531452 
10.000419502192422 0.9882029045414462 
11.000419502192422 0.9865141295561435 
12.000419502192422 0.9835742614638447 
13.000419502192422 0.9809444168871252 
14.000419502192422 0.9777529927248677 
15.000419502192422 0.9755331992210464 
16.000419502192422 0.9721062224426807 
17.000419502192422 0.9695766038359788 
18.000419502192422 0.9673844062316285 
19.000419502192422 0.9653570069077013 
20.000419502192422 0.9643384406231629 
21.000419502192422 0.9627681216931218 
22.000419502192422 0.9597943801440328 
23.000419502192422 0.955522571281599 
24.000419502192422 0.9538418522192827 
25.000419502192422 0.9479816064079952 
26.000419502192422 0.9424224371693122 
27.000419502192422 0.940498987727807 
28.000419502192422 0.9339995976631393 
29.000419502192422 0.9282747225896532 
30.000419502192422 0.9240896990740741 
31.000419502192422 0.9185634332745444 
32.00041950219242 0.9115361680629042 
33.00041950219242 0.9040315843621399 
34.00041950219242 0.9004605066872428 
35.00041950219242 0.8898983575837742 
36.00041950219242 0.8835760673868314 
37.00041950219242 0.8756770263815404 
38.00041950219242 0.867538339579659 
39.00041950219242 0.8616096028071724 
40.00041950219242 0.8531061654908878 
41.00041950219242 0.8438350841416814 
42.00041950219242 0.8360339726631395 
43.00041950219242 0.8293985192533803 
44.00041950219242 0.819002663874192 
45.00041950219242 0.8115538598618465 
46.00041950219242 0.8013945528365664 
47.00041950219242 0.7925455375514409 
48.00041950219242 0.784348357583774 
49.00041950219242 0.775694214800117 
50.00041950219242 0.7648173684597295 
51.00041950219242 0.7580890193268671 
52.00041950219242 0.7470585960464441 
53.00041950219242 0.74253673941799 
54.00041950219242 0.7350960740005875 
55.00041950219242 0.7255417750587895 
56.00041950219242 0.7229548647854199 
57.00041950219242 0.7186936489564967 
58.00041950219242 0.7112016993680192 
59.00041950219242 0.7105140634185773 
60.00041950219242 0.7038440329218102 
61.00041950219242 0.7048355746619639 
62.00041950219242 0.6996896623309821 
63.00041950219242 0.6996996233833044 
64.00041950219241 0.6961369047619044 
65.00041950219241 0.6961330155055849 
66.00041950219241 0.6893527943121691 
67.00041950219241 0.689851794900059 
68.00041950219241 0.687553993974133 
69.00041950219241 0.6834144969870667 
70.00041950219241 0.6818779486331571 
71.00041950219241 0.678552022707231 
72.00041950219241 0.6746542952674898 
73.00041950219241 0.6703244323192242 
74.00041950219241 0.6681921443268666 
75.00041950219241 0.66251896494709 
76.00041950219241 0.6604436269106411 
77.00041950219241 0.6550550080834803 
78.00041950219241 0.6512533050411526 
79.00041950219241 0.647374818121693 
80.00041950219241 0.6410054747207526 
81.00041950219241 0.638361770649618 
82.00041950219241 0.6325754280570252 
83.00041950219241 0.6270305133009993 
84.00041950219241 0.6220769492210466 
85.00041950219241 0.6158599187977659 
86.00041950219241 0.609245691872428 
87.00041950219241 0.6039708939594357 
88.00041950219241 0.5967850198412699 
89.00041950219241 0.5917671057466198 
90.00041950219241 0.5851178663286302 
91.00041950219241 0.5783375808348031 
92.00041950219241 0.5718386776161087 
93.00041950219241 0.5653970862727802 
94.00041950219241 0.557981779100529 
95.00041950219241 0.5529679545120517 
96.00041950219241 0.5440280533509699 
97.00041950219241 0.5351651271310992 
98.00041950219241 0.5278824974279838 
99.00041950219241 0.5172966214726635 
100.00041950219241 0.5093535401969435 
101.00041950219241 0.4993920983980011 
102.00041950219241 0.49095644106407993 
103.00041950219241 0.48265436140505635 
104.00041950219241 0.47284063969723716 
105.00041950219241 0.46291744745737834 
106.00041950219241 0.45502177946795946 
107.00041950219241 0.4461181510875958 
108.00041950219241 0.43935808348030536 
109.00041950219241 0.43793088256907686 
110.00041950219241 0.43837406121399164 
111.00041950219241 0.43111455210170513 
112.00041950219241 0.43179605195473264 
113.00041950219241 0.42636441615226345 
114.00041950219241 0.42791816945914213 
115.00041950219241 0.42214636059670835 
116.00041950219241 0.41177821318342156 
117.00041950219241 0.401382609494415 
118.00041950219241 0.40607137345679023 
119.00041950219241 0.39585349243092316 
120.00041950219241 0.40163541482951204 
121.00041950219241 0.3857340112433863 
122.00041950219241 0.3701429471634334 
123.00041950219241 0.3630154302616106 
124.00041950219241 0.3415767067166375 
125.00041950219241 0.33748893298059984 
126.00041950219241 0.3278943415637861 
127.00041950219241 0.3165383873456789 
128.00041950219241 0.31241331937095834 
129.00041950219241 0.3204739234273958 
130.00041950219241 0.2952975124926514 
131.00041950219241 0.2748773203262786 
132.00041950219241 0.27834075727513236 
133.00041950219241 0.2552250587889475 
134.00041950219241 0.2665208131246327 
135.00041950219241 0.2547918209876544 
136.00041950219241 0.25890524507642576 
137.00041950219241 0.25327871105232225 
138.00041950219241 0.238330921149324 
139.00041950219241 0.2370634847148737 
140.00041950219241 0.22691334509112304 
141.00041950219241 0.21829065806878312 
142.00041950219241 0.21603571061140517 
143.00041950219241 0.215164928718401 
144.00041950219241 0.20571695509994134 
145.00041950219241 0.20507627498530276 
146.00041950219241 0.2045017471340391 
147.00041950219241 0.19882209362139922 
148.00041950219241 0.1929575323339213 
149.00041950219241 0.18955249118165796 
150.00041950219241 0.18150238830099957 
151.00041950219241 0.1811058880805411 
152.00041950219241 0.17850015064667862 
153.00041950219241 0.17358803828630243 
154.00041950219241 0.17097302689594385 
155.00041950219241 0.16619591049382743 
156.00041950219241 0.16205039131393328 
157.00041950219241 0.15438435111699014 
158.00041950219241 0.15138607436801882 
159.00041950219241 0.14909288837448564 
160.00041950219241 0.14801378049676667 
161.00041950219241 0.14629617871840106 
162.00041950219241 0.14475325727513239 
163.00041950219241 0.14385774544385668 
164.00041950219241 0.14271008414168143 
165.00041950219241 0.14232199074074087 
166.00041950219241 0.141455200984715 
167.00041950219241 0.14081748971193422 
168.00041950219241 0.14027591306584375 
169.00041950219241 0.13996634700176377 
170.00041950219241 0.13881396421222822 
171.00041950219241 0.13821496546149337 
172.00041950219241 0.13736536228689017 
173.00041950219241 0.1367581845238096 
174.00041950219241 0.13635585501175787 
175.00041950219241 0.13574955908289255 
176.00041950219241 0.13529135618753682 
177.00041950219241 0.13511356738683136 
178.00041950219241 0.1343226870223399 
179.00041950219241 0.1339388135655498 
180.00041950219241 0.13354112654321 
181.00041950219241 0.13310582378012945 
182.00041950219241 0.13288356297766027 
183.00041950219241 0.13269075727513238 
184.00041950219241 0.1325121656378602 
185.00041950219241 0.13251373640505593 
186.00041950219241 0.13231541005291017 
187.00041950219241 0.13221597589653158 
188.00041950219241 0.13209087485302776 
189.00041950219241 0.13189837044385663 
190.00041950219241 0.13167534354791313 
191.00041950219241 0.13150439447383905 
192.00041950219241 0.13127685552616117 
193.00041950219241 0.13108047288359798 
194.00041950219241 0.13095575580540872 
195.00041950219241 0.13080764072604362 
196.00041950219241 0.13068554526748985 
197.00041950219241 0.13054923023221643 
198.00041950219241 0.13042398589065266 
199.00041950219241 0.13031518959435637 
200.00041950219241 0.13019798280423292 
201.00041950219241 0.13010351080246924 
202.00041950219241 0.13003549933862443 
203.00041950219241 0.12997607840975908 
204.00041950219241 0.1299149966931218 
205.00041950219241 0.1298796277924751 
206.00041950219241 0.1298403549382717 
207.00041950219241 0.12981057282480904 
208.00041950219241 0.12978008708112884 
209.00041950219241 0.1297503931510877 
210.00041950219241 0.12972315182245747 
211.00041950219241 0.1297014752351559 
212.00041950219241 0.1296846707818931 
213.00041950219241 0.1296614767048796 
214.00041950219241 0.12964869745737811 
215.00041950219241 0.12963910751028818 
216.00041950219241 0.12962793393592015 
217.00041950219241 0.12961914682539694 
218.00041950219241 0.12961196538800715 
219.00041950219241 0.1296079732510289 
220.00041950219241 0.12960318930041162 
221.00041950219241 0.12960159465020588 
222.00041950219241 0.1296000000000001 
223.00041950219241 0.1296000000000001 
224.00041950219241 0.1296000000000001 
225.00041950219241 0.1296000000000001 
226.00041950219241 0.1296000000000001 
227.00041950219241 0.1296000000000001 
228.00041950219241 0.1296000000000001 
229.00041950219241 0.1296000000000001 
230.00041950219241 0.1296000000000001 
231.00041950219241 0.1296000000000001 
232.00041950219241 0.1296000000000001 
233.00041950219241 0.1296000000000001 
234.00041950219241 0.1296000000000001 
235.00041950219241 0.1296000000000001 
236.00041950219241 0.1296000000000001 
237.00041950219241 0.1296000000000001 
238.00041950219241 0.1296000000000001 
239.00041950219241 0.1296000000000001 
240.00041950219241 0.1296000000000001 
241.00041950219241 0.1296000000000001 
242.00041950219241 0.1296000000000001 
243.00041950219241 0.1296000000000001 
244.00041950219241 0.1296000000000001 
245.00041950219241 0.1296000000000001 
246.00041950219241 0.1296000000000001 
247.00041950219241 0.1296000000000001 
248.00041950219241 0.1296000000000001 
249.00041950219241 0.1296000000000001 
250.00041950219241 0.1296000000000001 
251.00041950219241 0.1296000000000001 
252.00041950219241 0.1296000000000001 
253.00041950219241 0.1296000000000001 
254.00041950219241 0.1296000000000001 
255.00041950219241 0.1296000000000001 
256.0004195021924 0.1296000000000001 
257.0004195021924 0.1296000000000001 
258.0004195021924 0.1296000000000001 
259.0004195021924 0.1296000000000001 
260.0004195021924 0.1296000000000001 
261.0004195021924 0.1296000000000001 
262.0004195021924 0.1296000000000001 
263.0004195021924 0.1296000000000001 
264.0004195021924 0.1296000000000001 
265.0004195021924 0.1296000000000001 
266.0004195021924 0.1296000000000001 
267.0004195021924 0.1296000000000001 
268.0004195021924 0.1296000000000001 
269.0004195021924 0.1296000000000001 
270.0004195021924 0.1296000000000001 
271.0004195021924 0.1296000000000001 
272.0004195021924 0.1296000000000001 
273.0004195021924 0.1296000000000001 
274.0004195021924 0.1296000000000001 
275.0004195021924 0.1296000000000001 
276.0004195021924 0.1296000000000001 
277.0004195021924 0.1296000000000001 
278.0004195021924 0.1296000000000001 
279.0004195021924 0.1296000000000001 
280.0004195021924 0.1296000000000001 
281.0004195021924 0.1296000000000001 
282.0004195021924 0.1296000000000001 
283.0004195021924 0.1296000000000001 
284.0004195021924 0.1296000000000001 
285.0004195021924 0.1296000000000001 
286.0004195021924 0.1296000000000001 
287.0004195021924 0.1296000000000001 
288.0004195021924 0.1296000000000001 
289.0004195021924 0.1296000000000001 
290.0004195021924 0.1296000000000001 
291.0004195021924 0.1296000000000001 
292.0004195021924 0.1296000000000001 
293.0004195021924 0.1296000000000001 
294.0004195021924 0.1296000000000001 
295.0004195021924 0.1296000000000001 
296.0004195021924 0.1296000000000001 
297.0004195021924 0.1296000000000001 
298.0004195021924 0.1296000000000001 
299.0004195021924 0.1296000000000001 
300.0004195021924 0.1296000000000001 
301.0004195021924 0.1296000000000001 
302.0004195021924 0.1296000000000001 
303.0004195021924 0.1296000000000001 
304.0004195021924 0.1296000000000001 
305.0004195021924 0.1296000000000001 
#####################################################################
# End of data export. Simulation finished at: 2017-05-25T04:01+0000 #
#####################################################################
