#####################################################################
# Alchemist log file - simulation started at: 2017-05-24T11:44+0000 #
#####################################################################
# random = 14.0, targets = 100.0, density = 5.0264212595847235, gridShift = 0.0, perturbation = 0.5, connfactor = 1.0
#
# The columns have the following meaning: 
# time se[Mean] 
0.0 NaN 
1.0015837731381736 NaN 
2.0015837731381736 NaN 
3.0015837731381736 1.0078481204185956 
4.001583773138174 1.0100046296296297 
5.001583773138174 1.015556785300926 
6.001583773138174 1.0142944155092593 
7.001583773138174 1.0190865258487654 
8.001583773138174 1.029712771267361 
9.001583773138174 1.0343084780092593 
10.001583773138174 1.0451946795428242 
11.001583773138174 1.0479816333912038 
12.001583773138174 1.0502127387152778 
13.001583773138174 1.0567948652102623 
14.001583773138174 1.0537416521990741 
15.001583773138174 1.0617188416280865 
16.001583773138172 1.0590666714891976 
17.001583773138172 1.0590716724537037 
18.001583773138172 1.0570995647665895 
19.001583773138172 1.0572609809027778 
20.001583773138172 1.0604964976369597 
21.001583773138172 1.0598971354166666 
22.001583773138172 1.0599845136477624 
23.001583773138172 1.0579669632523148 
24.001583773138172 1.0568133981963734 
25.001583773138172 1.0614821385513118 
26.001583773138172 1.0681209104938272 
27.001583773138172 1.0672255582079475 
28.001583773138172 1.0826934582368826 
29.001583773138172 1.0710208405671295 
30.001583773138172 1.0668456850405093 
31.001583773138172 1.0684713204089507 
32.00158377313817 1.067505354214892 
33.00158377313817 1.072558657648534 
34.00158377313817 1.0755271086516203 
35.00158377313817 1.0675212637442129 
36.00158377313817 1.0763563741801696 
37.00158377313817 1.0783791980131172 
38.00158377313817 1.077824281442901 
39.00158377313817 1.0919792402102624 
40.00158377313817 1.0943246660397377 
41.00158377313817 1.1188799792631172 
42.00158377313817 1.1387791546103396 
43.00158377313817 1.1536727780189044 
44.00158377313817 1.1935282009548613 
45.00158377313817 1.1963879207658181 
46.00158377313817 1.273269942370756 
47.00158377313817 1.2603686354648922 
48.00158377313817 1.3039058497299383 
49.00158377313817 1.3448286084587193 
50.00158377313817 1.3289717267071757 
51.00158377313817 1.4257399221161262 
52.00158377313817 1.3910099440586419 
53.00158377313817 1.4027385693962195 
54.00158377313817 1.4813775535300926 
55.00158377313817 1.4270414207175925 
56.00158377313817 1.4861217038001544 
57.00158377313817 1.5068994068287038 
58.00158377313817 1.5055587203414356 
59.00158377313817 1.4962655261381175 
60.00158377313817 1.56810502025463 
61.00158377313817 1.5202629641685959 
62.00158377313817 1.4770110146604938 
63.00158377313817 1.542541843894676 
64.00158377313818 1.464760620418596 
65.00158377313818 1.4361080946180556 
66.00158377313818 1.3869181580343364 
67.00158377313818 1.365950819830247 
68.00158377313818 1.303806313898534 
69.00158377313818 1.2883901403356484 
70.00158377313818 1.2489505304783952 
71.00158377313818 1.2649815080054014 
72.00158377313818 1.2347566671489199 
73.00158377313818 1.2559500229070217 
74.00158377313818 1.2389990813078704 
75.00158377313818 1.2374610038097995 
76.00158377313818 1.2625010886863428 
77.00158377313818 1.2534213758680557 
78.00158377313818 1.2567581090856483 
79.00158377313818 1.2736388394579476 
80.00158377313818 1.279579599488812 
81.00158377313818 1.2922659252025466 
82.00158377313818 1.3070061041184415 
83.00158377313818 1.3143222764756946 
84.00158377313818 1.3332168921199847 
85.00158377313818 1.3516335214120372 
86.00158377313818 1.3683546513310187 
87.00158377313818 1.3806858265817903 
88.00158377313818 1.4052963035300927 
89.00158377313818 1.4083621805073303 
90.00158377313818 1.4354197759934415 
91.00158377313818 1.441831591194059 
92.00158377313818 1.4710892698688272 
93.00158377313818 1.4746584466628088 
94.00158377313818 1.4916831500771606 
95.00158377313818 1.519111656057099 
96.00158377313818 1.6248578607253088 
97.00158377313818 1.6421658299575619 
98.00158377313818 1.9602005003375766 
99.00158377313818 2.055369151475695 
100.00158377313818 2.375867875916281 
101.00158377313818 2.400452883873456 
102.00158377313818 2.309088182388117 
103.00158377313818 2.8085456790123446 
104.00158377313818 2.6481610737364973 
105.00158377313818 3.341033397231868 
106.00158377313818 3.0890483796296304 
107.00158377313818 3.230692919319058 
108.00158377313818 3.759032191599151 
109.00158377313818 3.3950018060378087 
110.00158377313818 3.60746906105324 
111.00158377313818 3.928923110773533 
112.00158377313818 3.4965465422453703 
113.00158377313818 4.109977258150076 
114.00158377313818 4.171548277150848 
115.00158377313818 4.367030320457175 
116.00158377313818 3.9258491693190583 
117.00158377313818 4.969903409529321 
118.00158377313818 4.173123777488425 
119.00158377313818 4.646967597415123 
120.00158377313818 4.375394668692128 
121.00158377313818 4.697690987895448 
122.00158377313818 4.090322831066743 
123.00158377313818 4.084498343460647 
124.00158377313818 4.083851262297453 
125.00158377313818 4.257325184461805 
126.00158377313818 4.1733740849247685 
127.00158377313818 4.336716806520061 
128.00158377313818 3.6593896978684413 
129.00158377313818 3.700836167775848 
130.00158377313818 4.166055764130015 
131.00158377313818 3.4305713662229933 
132.00158377313818 3.271745804398148 
133.00158377313818 2.874525769193673 
134.00158377313818 2.6325591953607264 
135.00158377313818 2.701731100501543 
136.00158377313818 2.5419338071469917 
137.00158377313818 2.4371442551601086 
138.00158377313818 2.5264996238425934 
139.00158377313818 2.4511514756944446 
140.00158377313818 2.423794952015818 
141.00158377313818 2.330915037856867 
142.00158377313818 2.295174496045525 
143.00158377313818 2.2149875458140436 
144.00158377313818 2.2050885211709104 
145.00158377313818 2.1735567238136575 
146.00158377313818 2.2081697193287044 
147.00158377313818 2.140357579812886 
148.00158377313818 2.1402307267554015 
149.00158377313818 2.0991311812789353 
150.00158377313818 2.0624899197048614 
151.00158377313818 2.0834492139274694 
152.00158377313818 1.995454263117284 
153.00158377313818 1.9558268096547071 
154.00158377313818 1.9227279116030096 
155.00158377313818 1.8886421043113424 
156.00158377313818 1.8935482325424382 
157.00158377313818 1.8769158661265433 
158.00158377313818 1.8769 
159.00158377313818 1.8769 
160.00158377313818 1.8769 
161.00158377313818 1.8769 
162.00158377313818 1.8769 
163.00158377313818 1.8769 
164.00158377313818 1.8769 
165.00158377313818 1.8769 
166.00158377313818 1.8769 
167.00158377313818 1.8769 
168.00158377313818 1.8769 
169.00158377313818 1.8769 
170.00158377313818 1.8769 
171.00158377313818 1.8769 
172.00158377313818 1.8769 
173.00158377313818 1.8769 
174.00158377313818 1.8769 
175.00158377313818 1.8769 
176.00158377313818 1.8769 
177.00158377313818 1.8769 
178.00158377313818 1.8769 
179.00158377313818 1.8769 
180.00158377313818 1.8769 
181.00158377313818 1.8769 
182.00158377313818 1.8769 
183.00158377313818 1.8769 
184.00158377313818 1.8769 
185.00158377313818 1.8769 
186.00158377313818 1.8769 
187.00158377313818 1.8769 
188.00158377313818 1.8769 
189.00158377313818 1.8769 
190.00158377313818 1.8769 
191.00158377313818 1.8769 
192.00158377313818 1.8769 
193.00158377313818 1.8769 
194.00158377313818 1.8769 
195.00158377313818 1.8769 
196.00158377313818 1.8769 
197.00158377313818 1.8769 
198.00158377313818 1.8769 
199.00158377313818 1.8769 
200.00158377313818 1.8769 
201.00158377313818 1.8769 
202.00158377313818 1.8769 
203.00158377313818 1.8769 
204.00158377313818 1.8769 
205.00158377313818 1.8769 
206.00158377313818 1.8769 
207.00158377313818 1.8769 
208.00158377313818 1.8769 
209.00158377313818 1.8769 
#####################################################################
# End of data export. Simulation finished at: 2017-05-24T11:46+0000 #
#####################################################################
