#####################################################################
# Alchemist log file - simulation started at: 2017-05-22T14:50+0000 #
#####################################################################
# random = 4.0, targets = 3.1622776601683795, density = 0.2247883923996312, gridShift = 1.0, perturbation = 0.0, connfactor = 1.0
#
# The columns have the following meaning: 
# time se[Mean] 
0.0 NaN 
1.0048193674555734 NaN 
2.0048193674555734 1.1137425886722792 
3.0048193674555734 1.1512042719488815 
4.004819367455573 1.0786340369338896 
5.004819367455573 1.0090852299302815 
6.004819367455573 0.9399193149695358 
7.004819367455573 0.955632189002351 
8.004819367455573 0.9473267223769433 
9.004819367455573 0.8979812230917092 
10.004819367455573 0.820544674890463 
11.004819367455573 0.6983992237105938 
12.004819367455573 0.6581040751055484 
13.004819367455573 0.5453292582862691 
14.004819367455573 0.5067049655271164 
15.004819367455573 0.39952049178311394 
16.004819367455575 0.3322064745394061 
17.004819367455575 0.20522253101602242 
18.004819367455575 0.17001653753026463 
19.004819367455575 0.11700216792623387 
20.004819367455575 0.08433030198464783 
21.004819367455575 0.06823458177415595 
22.004819367455575 0.05740896682372515 
23.004819367455575 0.03845888125384581 
24.004819367455575 0.026463690143883032 
25.004819367455575 0.014844424399801425 
26.004819367455575 0.007764267349776963 
27.004819367455575 0.004617530883099416 
28.004819367455575 0.0026403705759538427 
29.004819367455575 0.0026334038989724354 
30.004819367455575 0.0026334038989724354 
31.004819367455575 0.0026334038989724354 
32.004819367455575 0.0026334038989724354 
33.004819367455575 0.0026334038989724354 
34.004819367455575 0.0026334038989724354 
35.004819367455575 0.0026334038989724354 
#####################################################################
# End of data export. Simulation finished at: 2017-05-22T14:50+0000 #
#####################################################################
