#####################################################################
# Alchemist log file - simulation started at: 2017-05-23T01:43+0000 #
#####################################################################
# random = 4.0, targets = 100.0, density = 5.0264212595847235, gridShift = 1.0, perturbation = 0.5, connfactor = 1.0
#
# The columns have the following meaning: 
# time se[Mean] 
0.0 NaN 
1.0004793365590676 NaN 
2.0004793365590676 1.0040964597902098 
3.0004793365590676 1.0071148747086247 
4.000479336559067 1.0091949009324008 
5.000479336559067 1.0105799740190364 
6.000479336559067 1.0122338978729604 
7.000479336559067 1.0108026830808081 
8.000479336559067 1.0177489996114997 
9.000479336559067 1.0223608294483295 
10.000479336559067 1.0259085603632478 
11.000479336559067 1.0278736912393163 
12.000479336559067 1.0323539299242424 
13.000479336559067 1.0324180167055168 
14.000479336559067 1.0315546972125098 
15.000479336559067 1.0340791120337995 
16.000479336559067 1.0291602357711733 
17.000479336559067 1.0306293232808859 
18.000479336559067 1.0304583952505828 
19.000479336559067 1.0272197042540792 
20.000479336559067 1.0264360382672881 
21.000479336559067 1.0236582726301475 
22.000479336559067 1.020514584547397 
23.000479336559067 1.0204070294289045 
24.000479336559067 1.018497711489899 
25.000479336559067 1.0165153117715617 
26.000479336559067 1.0179222027972028 
27.000479336559067 1.0167772751554 
28.000479336559067 1.0187014410936286 
29.000479336559067 1.021221293463481 
30.000479336559067 1.0190741683663558 
31.000479336559067 1.0199488429972805 
32.00047933655907 1.0250012614121988 
33.00047933655907 1.0291510295260295 
34.00047933655907 1.0292256300990676 
35.00047933655907 1.0479657864704741 
36.00047933655907 1.0611074968434344 
37.00047933655907 1.0670302593240093 
38.00047933655907 1.0766438544094794 
39.00047933655907 1.1000261242229992 
40.00047933655907 1.0959946386946386 
41.00047933655907 1.1063038522241648 
42.00047933655907 1.1194702445124318 
43.00047933655907 1.0953393186674438 
44.00047933655907 1.1294702772921523 
45.00047933655907 1.1511434683372181 
46.00047933655907 1.1205089962121213 
47.00047933655907 1.1544451486013985 
48.00047933655907 1.1216313374125872 
49.00047933655907 1.1121616562257186 
50.00047933655907 1.1229184768356644 
51.00047933655907 1.1039915003399379 
52.00047933655907 1.1205839767871015 
53.00047933655907 1.0947352284867908 
54.00047933655907 1.0951335797882673 
55.00047933655907 1.0742781237859362 
56.00047933655907 1.0511360200563324 
57.00047933655907 1.038543457410645 
58.00047933655907 1.0345575259809636 
59.00047933655907 1.0196754467754467 
60.00047933655907 1.010521475573038 
61.00047933655907 1.005758861451049 
62.00047933655907 1.0036773613539238 
63.00047933655907 1.0076731934731935 
64.00047933655907 0.9958191348581974 
65.00047933655907 0.9851341868201244 
66.00047933655907 0.9998066737082363 
67.00047933655907 0.9847161118395494 
68.00047933655907 0.9975010902292153 
69.00047933655907 1.0048767142579644 
70.00047933655907 0.9978631349553226 
71.00047933655907 0.9968611912393164 
72.00047933655907 0.9960115663850041 
73.00047933655907 0.9944057048853925 
74.00047933655907 0.991566088772339 
75.00047933655907 0.992249513160451 
76.00047933655907 1.0022503848581976 
77.00047933655907 1.002033004322067 
78.00047933655907 1.0003928030303033 
79.00047933655907 1.013257303807304 
80.00047933655907 1.0038214731449109 
81.00047933655907 1.0174319335178714 
82.00047933655907 1.0139092074592078 
83.00047933655907 1.018692158362471 
84.00047933655907 1.0217958733974362 
85.00047933655907 1.0210449871309248 
86.00047933655907 1.0305380633255636 
87.00047933655907 1.0414263986013987 
88.00047933655907 1.0487645675505053 
89.00047933655907 1.0559571411227664 
90.00047933655907 1.0570535499223002 
91.00047933655907 1.078054870823621 
92.00047933655907 1.0952179511460765 
93.00047933655907 1.0927599286130538 
94.00047933655907 1.1068574628496506 
95.00047933655907 1.1235058432886562 
96.00047933655907 1.1233520019910648 
97.00047933655907 1.1316460190850817 
98.00047933655907 1.1457676306332558 
99.00047933655907 1.1266223412004663 
100.00047933655907 1.157610399669775 
101.00047933655907 1.1877401782245534 
102.00047933655907 1.1716722100815853 
103.00047933655907 1.20419064442502 
104.00047933655907 1.185715723339161 
105.00047933655907 1.1868534394425023 
106.00047933655907 1.2068749866452995 
107.00047933655907 1.2290054924242428 
108.00047933655907 1.2784708527583533 
109.00047933655907 1.2598026515151521 
110.00047933655907 1.2797271998834503 
111.00047933655907 1.3234982128982131 
112.00047933655907 1.2853874660062166 
113.00047933655907 1.2962775543900547 
114.00047933655907 1.3379570949883457 
115.00047933655907 1.2480665404040407 
116.00047933655907 1.3433111013986019 
117.00047933655907 1.3794293900543908 
118.00047933655907 1.3117120580808086 
119.00047933655907 1.3831194201631707 
120.00047933655907 1.322978161421912 
121.00047933655907 1.3032275932400939 
122.00047933655907 1.3348650398212902 
123.00047933655907 1.2738619318181823 
124.00047933655907 1.3031670648795652 
125.00047933655907 1.2714953719891224 
126.00047933655907 1.2822029574592075 
127.00047933655907 1.2838191967754475 
128.00047933655907 1.2323665549728053 
129.00047933655907 1.2314732808857818 
130.00047933655907 1.2731325223387726 
131.00047933655907 1.191181478243979 
132.00047933655907 1.2544600573038076 
133.00047933655907 1.2253008741258746 
134.00047933655907 1.2292147727272729 
135.00047933655907 1.2298635538073042 
136.00047933655907 1.2303058566433576 
137.00047933655907 1.2283238733488737 
138.00047933655907 1.1978089209401712 
139.00047933655907 1.1360049145299147 
140.00047933655907 1.117881366550117 
141.00047933655907 1.1077671959984463 
142.00047933655907 1.1099173562548565 
143.00047933655907 1.1030296911421915 
144.00047933655907 1.1034934731934736 
145.00047933655907 1.1033878545066047 
146.00047933655907 1.1030323815073817 
147.00047933655907 1.102802811771562 
148.00047933655907 1.102765146658897 
149.00047933655907 1.1026595279720282 
150.00047933655907 1.102696192696193 
151.00047933655907 1.1027084110334113 
152.00047933655907 1.1027145153457656 
153.00047933655907 1.102665486596737 
154.00047933655907 1.1025735431235433 
155.00047933655907 1.1025367715617718 
156.00047933655907 1.1025122571872574 
157.00047933655907 1.1025122571872574 
158.00047933655907 1.1025000000000003 
159.00047933655907 1.1025000000000003 
160.00047933655907 1.1025000000000003 
161.00047933655907 1.1025000000000003 
162.00047933655907 1.1025000000000003 
163.00047933655907 1.1025000000000003 
164.00047933655907 1.1025000000000003 
165.00047933655907 1.1025000000000003 
166.00047933655907 1.1025000000000003 
167.00047933655907 1.1025000000000003 
168.00047933655907 1.1025000000000003 
169.00047933655907 1.1025000000000003 
170.00047933655907 1.1025000000000003 
171.00047933655907 1.1025000000000003 
172.00047933655907 1.1025000000000003 
173.00047933655907 1.1025000000000003 
174.00047933655907 1.1025000000000003 
175.00047933655907 1.1025000000000003 
176.00047933655907 1.1025000000000003 
177.00047933655907 1.1025000000000003 
178.00047933655907 1.1025000000000003 
179.00047933655907 1.1025000000000003 
180.00047933655907 1.1025000000000003 
181.00047933655907 1.1025000000000003 
182.00047933655907 1.1025000000000003 
183.00047933655907 1.1025000000000003 
184.00047933655907 1.1025000000000003 
185.00047933655907 1.1025000000000003 
186.00047933655907 1.1025000000000003 
187.00047933655907 1.1025000000000003 
188.00047933655907 1.1025000000000003 
189.00047933655907 1.1025000000000003 
190.00047933655907 1.1025000000000003 
191.00047933655907 1.1025000000000003 
192.00047933655907 1.1025000000000003 
193.00047933655907 1.1025000000000003 
194.00047933655907 1.1025000000000003 
195.00047933655907 1.1025000000000003 
196.00047933655907 1.1025000000000003 
197.00047933655907 1.1025000000000003 
198.00047933655907 1.1025000000000003 
199.00047933655907 1.1025000000000003 
200.00047933655907 1.1025000000000003 
201.00047933655907 1.1025000000000003 
202.00047933655907 1.1025000000000003 
203.00047933655907 1.1025000000000003 
204.00047933655907 1.1025000000000003 
205.00047933655907 1.1025000000000003 
206.00047933655907 1.1025000000000003 
#####################################################################
# End of data export. Simulation finished at: 2017-05-23T01:54+0000 #
#####################################################################
