#####################################################################
# Alchemist log file - simulation started at: 2017-05-25T16:20+0000 #
#####################################################################
# random = 8.0, targets = 31.622776601683793, density = 3.5589026259761294, gridShift = 1.0, perturbation = 0.0, connfactor = 1.0
#
# The columns have the following meaning: 
# time se[Mean] 
0.0 NaN 
1.001230439556543 NaN 
2.001230439556543 1.0049766279404533 
3.001230439556543 1.008232983484163 
4.001230439556543 1.0090064656519784 
5.001230439556543 1.0118478548863552 
6.001230439556543 1.0023682933933982 
7.001230439556543 1.0087973951540061 
8.001230439556544 0.9966133884187113 
9.001230439556544 1.0078312805305687 
10.001230439556544 0.9990979966911449 
11.001230439556544 0.9983205100128975 
12.001230439556544 0.9893824260019887 
13.001230439556544 0.9787338875187795 
14.001230439556544 0.9706035374006768 
15.001230439556544 0.9557922013694895 
16.001230439556544 0.9415508511314339 
17.001230439556544 0.92402007653426 
18.001230439556544 0.9137653405300264 
19.001230439556544 0.8939422126684969 
20.001230439556544 0.8827418653379815 
21.001230439556544 0.878285383601986 
22.001230439556544 0.8692626695531221 
23.001230439556544 0.8583897894114281 
24.001230439556544 0.8493548021856997 
25.001230439556544 0.8481390690167425 
26.001230439556544 0.8355784585902319 
27.001230439556544 0.8306862170699101 
28.001230439556544 0.8155154601075222 
29.001230439556544 0.8081831456031436 
30.001230439556544 0.7977278856042342 
31.001230439556544 0.786226894144699 
32.001230439556544 0.770636782744515 
33.001230439556544 0.7577168608547418 
34.001230439556544 0.7412976395675324 
35.001230439556544 0.731106522713605 
36.001230439556544 0.7188156992353035 
37.001230439556544 0.7018769130210044 
38.001230439556544 0.6954360839000018 
39.001230439556544 0.6786045930101539 
40.001230439556544 0.6666712881192809 
41.001230439556544 0.6552118663401295 
42.001230439556544 0.643182238590112 
43.001230439556544 0.626046960338595 
44.001230439556544 0.6139457833530763 
45.001230439556544 0.5932575188748269 
46.001230439556544 0.5770224815886004 
47.001230439556544 0.5546848879897935 
48.001230439556544 0.5347261146454294 
49.001230439556544 0.513662583249948 
50.001230439556544 0.4918570447699797 
51.001230439556544 0.4744516536113526 
52.001230439556544 0.4505988862215565 
53.001230439556544 0.43248298689963216 
54.001230439556544 0.4151381955923213 
55.001230439556544 0.3904787689932213 
56.001230439556544 0.37597604508206023 
57.001230439556544 0.35284515115582576 
58.001230439556544 0.3333487227231351 
59.001230439556544 0.32115664273958755 
60.001230439556544 0.2965725957059769 
61.001230439556544 0.28248426452048797 
62.001230439556544 0.2691137473940771 
63.001230439556544 0.2556791698401995 
64.00123043955654 0.24909508125280988 
65.00123043955654 0.23758883113129878 
66.00123043955654 0.23481046438244582 
67.00123043955654 0.23056841538521183 
68.00123043955654 0.2288098439574087 
69.00123043955654 0.229565045241617 
70.00123043955654 0.2284340803062397 
71.00123043955654 0.22868692041855024 
72.00123043955654 0.2310283861436828 
73.00123043955654 0.23449027026743563 
74.00123043955654 0.23442126571761285 
75.00123043955654 0.23590574324556945 
76.00123043955654 0.237870119285697 
77.00123043955654 0.23981857781646912 
78.00123043955654 0.242413275887343 
79.00123043955654 0.2435309423650518 
80.00123043955654 0.2449631910450802 
81.00123043955654 0.24492893222790982 
82.00123043955654 0.2451331134975778 
83.00123043955654 0.24556140514888083 
84.00123043955654 0.24538223495019246 
85.00123043955654 0.2451176190740877 
86.00123043955654 0.24470150932300672 
87.00123043955654 0.2445376235474975 
88.00123043955654 0.24441131219767015 
89.00123043955654 0.24427260894730982 
90.00123043955654 0.24424742642216093 
91.00123043955654 0.24417187884671426 
92.00123043955654 0.24414669632156538 
93.00123043955654 0.24409633127126762 
94.00123043955654 0.24407114874611874 
95.00123043955654 0.24407114874611874 
96.00123043955654 0.24407114874611874 
97.00123043955654 0.24407114874611874 
98.00123043955654 0.24407114874611874 
99.00123043955654 0.24407114874611874 
100.00123043955654 0.24407114874611874 
101.00123043955654 0.24407114874611874 
102.00123043955654 0.24407114874611874 
103.00123043955654 0.24407114874611874 
104.00123043955654 0.24407114874611874 
105.00123043955654 0.24407114874611874 
106.00123043955654 0.24407114874611874 
107.00123043955654 0.24407114874611874 
108.00123043955654 0.24407114874611874 
109.00123043955654 0.24407114874611874 
110.00123043955654 0.24407114874611874 
111.00123043955654 0.24407114874611874 
112.00123043955654 0.24407114874611874 
113.00123043955654 0.24407114874611874 
114.00123043955654 0.24407114874611874 
115.00123043955654 0.24407114874611874 
116.00123043955654 0.24407114874611874 
117.00123043955654 0.24407114874611874 
118.00123043955654 0.24407114874611874 
119.00123043955654 0.24407114874611874 
120.00123043955654 0.24407114874611874 
121.00123043955654 0.24407114874611874 
122.00123043955654 0.24407114874611874 
123.00123043955654 0.24407114874611874 
124.00123043955654 0.24407114874611874 
125.00123043955654 0.24407114874611874 
126.00123043955654 0.24407114874611874 
127.00123043955654 0.24407114874611874 
128.00123043955654 0.24407114874611874 
129.00123043955654 0.24407114874611874 
130.00123043955654 0.24407114874611874 
131.00123043955654 0.24407114874611874 
132.00123043955654 0.24407114874611874 
133.00123043955654 0.24407114874611874 
#####################################################################
# End of data export. Simulation finished at: 2017-05-25T16:23+0000 #
#####################################################################
