#####################################################################
# Alchemist log file - simulation started at: 2017-05-24T08:13+0000 #
#####################################################################
# random = 14.0, targets = 10.0, density = 2.519842099789746, gridShift = 0.0, perturbation = 0.5, connfactor = 1.5
#
# The columns have the following meaning: 
# time se[Mean] 
0.0 NaN 
1.0015837731381736 NaN 
2.0015837731381736 1.0418598615916954 
3.0015837731381736 1.0743997500961169 
4.001583773138174 1.0955298442906576 
5.001583773138174 1.0924918300653594 
6.001583773138174 1.0394516532103037 
7.001583773138174 1.0331776239907728 
8.001583773138174 1.0646919454056132 
9.001583773138174 1.0676251922337563 
10.001583773138174 1.084913014225298 
11.001583773138174 1.0716772395232603 
12.001583773138174 1.0970960688196847 
13.001583773138174 1.1207187139561707 
14.001583773138174 1.13027561514802 
15.001583773138174 1.1855187908496734 
16.001583773138172 1.21069108035371 
17.001583773138172 1.2619956266820456 
18.001583773138172 1.305480344098424 
19.001583773138172 1.383443867743176 
20.001583773138172 1.3699560265282584 
21.001583773138172 1.314508362168397 
22.001583773138172 1.31976331218762 
23.001583773138172 1.309736880046136 
24.001583773138172 1.2710892445213382 
25.001583773138172 1.2478887927720106 
26.001583773138172 1.2532372164552095 
27.001583773138172 1.2650901095732408 
28.001583773138172 1.2634332948865816 
29.001583773138172 1.2871515763168015 
30.001583773138172 1.2850026432141486 
31.001583773138172 1.3128380911188002 
32.00158377313817 1.2813057477893117 
33.00158377313817 1.2355406574394465 
34.00158377313817 1.2447914263744713 
35.00158377313817 1.2735383025759324 
36.00158377313817 1.2782417820069205 
37.00158377313817 1.285173731257209 
38.00158377313817 1.3603613994617456 
39.00158377313817 1.3135469530949637 
40.00158377313817 1.3468495290272973 
41.00158377313817 1.3671806516724339 
42.00158377313817 1.340360198000769 
43.00158377313817 1.329452133794695 
44.00158377313817 1.3635668973471746 
45.00158377313817 1.4017767204921185 
46.00158377313817 1.419740484429066 
47.00158377313817 1.4580887158785085 
48.00158377313817 1.4991037101114961 
49.00158377313817 1.5326117358708196 
50.00158377313817 1.5824139753940796 
51.00158377313817 1.6306511918492892 
52.00158377313817 1.6647551422529803 
53.00158377313817 1.738862937331796 
54.00158377313817 1.756178152633603 
55.00158377313817 1.8730284025374864 
56.00158377313817 1.897638408304499 
57.00158377313817 1.9519062379853909 
58.00158377313817 2.1499908688965794 
59.00158377313817 2.389528546712804 
60.00158377313817 2.5409931276432145 
61.00158377313817 2.790175173010382 
62.00158377313817 3.0671566224529045 
63.00158377313817 3.329182285659365 
64.00158377313818 3.3008804306036175 
65.00158377313818 3.1006689734717425 
66.00158377313818 2.9308232410611317 
67.00158377313818 3.015354671280278 
68.00158377313818 3.0419619857747033 
69.00158377313818 2.8610236447520205 
70.00158377313818 3.3281149077278003 
71.00158377313818 2.9561127931564792 
72.00158377313818 2.895111255286431 
73.00158377313818 3.305364763552481 
74.00158377313818 2.656466022683584 
75.00158377313818 2.284491541714729 
76.00158377313818 2.352205161476359 
77.00158377313818 1.8799678008458298 
78.00158377313818 1.9857559592464438 
79.00158377313818 1.8298800941945421 
80.00158377313818 1.7581480680507509 
81.00158377313818 1.7063948961937723 
82.00158377313818 1.687517301038063 
83.00158377313818 1.6897039600153796 
84.00158377313818 1.6897039600153796 
85.00158377313818 1.6900000000000008 
86.00158377313818 1.6900000000000008 
87.00158377313818 1.6900000000000008 
88.00158377313818 1.6900000000000008 
89.00158377313818 1.6900000000000008 
90.00158377313818 1.6900000000000008 
91.00158377313818 1.6900000000000008 
92.00158377313818 1.6900000000000008 
93.00158377313818 1.6900000000000008 
94.00158377313818 1.6900000000000008 
95.00158377313818 1.6900000000000008 
96.00158377313818 1.6900000000000008 
97.00158377313818 1.6900000000000008 
98.00158377313818 1.6900000000000008 
99.00158377313818 1.6900000000000008 
100.00158377313818 1.6900000000000008 
101.00158377313818 1.6900000000000008 
102.00158377313818 1.6900000000000008 
103.00158377313818 1.6900000000000008 
104.00158377313818 1.6900000000000008 
105.00158377313818 1.6900000000000008 
106.00158377313818 1.6900000000000008 
107.00158377313818 1.6900000000000008 
108.00158377313818 1.6900000000000008 
109.00158377313818 1.6900000000000008 
110.00158377313818 1.6900000000000008 
111.00158377313818 1.6900000000000008 
112.00158377313818 1.6900000000000008 
113.00158377313818 1.6900000000000008 
114.00158377313818 1.6900000000000008 
115.00158377313818 1.6900000000000008 
116.00158377313818 1.6900000000000008 
117.00158377313818 1.6900000000000008 
118.00158377313818 1.6900000000000008 
119.00158377313818 1.6900000000000008 
120.00158377313818 1.6900000000000008 
#####################################################################
# End of data export. Simulation finished at: 2017-05-24T08:14+0000 #
#####################################################################
