#####################################################################
# Alchemist log file - simulation started at: 2017-05-24T06:13+0000 #
#####################################################################
# random = 14.0, targets = 1.0, density = 14.160781367816199, gridShift = 1.0, perturbation = 0.5, connfactor = 2.0
#
# The columns have the following meaning: 
# time se[Mean] 
0.0 NaN 
1.0015837731381736 NaN 
2.0015837731381736 NaN 
3.0015837731381736 0.9996325690770135 
4.001583773138174 1.0004776601998824 
5.001583773138174 1.0037661669606113 
6.001583773138174 1.0051072898295121 
7.001583773138174 1.024011610817166 
8.001583773138174 1.0190329218107 
9.001583773138174 1.0331973838918287 
10.001583773138174 1.0289351851851858 
11.001583773138174 1.0388374485596714 
12.001583773138174 1.0278512639623743 
13.001583773138174 1.0362838036449151 
14.001583773138174 1.0362838036449151 
15.001583773138174 1.0359163727219276 
16.001583773138172 1.0338403880070557 
17.001583773138172 1.0265101410934738 
18.001583773138172 1.0293209876543206 
19.001583773138172 1.0219907407407403 
20.001583773138172 1.0219907407407403 
21.001583773138172 1.0146604938271604 
22.001583773138172 1.0122170781893003 
23.001583773138172 1.00244341563786 
24.001583773138172 1.0 
25.001583773138172 1.0 
26.001583773138172 1.0 
27.001583773138172 1.0 
28.001583773138172 1.0 
29.001583773138172 1.0 
30.001583773138172 1.0 
31.001583773138172 1.0 
32.00158377313817 1.0 
33.00158377313817 1.0 
34.00158377313817 1.0 
35.00158377313817 1.0 
36.00158377313817 1.0 
37.00158377313817 1.0 
38.00158377313817 1.0 
39.00158377313817 1.0 
40.00158377313817 1.0 
41.00158377313817 1.0 
42.00158377313817 1.0 
43.00158377313817 1.0 
44.00158377313817 1.0 
45.00158377313817 1.0 
46.00158377313817 1.0 
47.00158377313817 1.0 
48.00158377313817 1.0 
49.00158377313817 0.9996325690770135 
50.00158377313817 0.9988977072310405 
51.00158377313817 0.9988977072310405 
52.00158377313817 0.9963256907701351 
53.00158377313817 0.9959582598471487 
54.00158377313817 0.9955908289241623 
55.00158377313817 0.9941211052322164 
56.00158377313817 0.9933862433862435 
57.00158377313817 0.9915490887713109 
58.00158377313817 1.0237544091710755 
59.00158377313817 1.0888999118165787 
60.00158377313817 1.0907370664315106 
61.00158377313817 1.3183788947677837 
62.00158377313817 1.355728248089362 
63.00158377313817 1.3827895355673165 
64.00158377313818 1.5196942974720697 
65.00158377313818 1.5841049382716101 
66.00158377313818 1.748438418577314 
67.00158377313818 1.844319517930635 
68.00158377313818 1.9804894179894241 
69.00158377313818 1.8106444738389162 
70.00158377313818 2.312463256907712 
71.00158377313818 1.9394657554379773 
72.00158377313818 2.5115740740740873 
73.00158377313818 2.17519106407995 
74.00158377313818 2.3768738977072252 
75.00158377313818 2.5781893004115304 
76.00158377313818 2.9408987360376164 
77.00158377313818 2.6740703997648416 
78.00158377313818 2.974353321575534 
79.00158377313818 2.767324368018813 
80.00158377313818 3.3620664315108795 
81.00158377313818 2.8250110229276855 
82.00158377313818 3.1150977366255113 
83.00158377313818 2.907186948853614 
84.00158377313818 2.6964653145208697 
85.00158377313818 2.98537624926514 
86.00158377313818 2.6701021457965908 
87.00158377313818 2.4626690182245756 
88.00158377313818 2.6916335978835972 
89.00158377313818 2.616053057025278 
90.00158377313818 2.336419753086419 
91.00158377313818 2.4703483245149704 
92.00158377313818 2.344080687830694 
93.00158377313818 2.237507348618456 
94.00158377313818 2.2963514109347307 
95.00158377313818 1.9273772780717158 
96.00158377313818 1.9900058788947792 
97.00158377313818 1.6830540858318628 
98.00158377313818 1.6033766901822464 
99.00158377313818 1.5836640211640218 
100.00158377313818 1.6959325396825442 
101.00158377313818 1.3718768371546168 
102.00158377313818 1.7630254262198757 
103.00158377313818 1.4950947971781323 
104.00158377313818 1.529578189300415 
105.00158377313818 1.6735192533803709 
106.00158377313818 1.799217372134046 
107.00158377313818 1.7296810699588507 
108.00158377313818 1.9025389476778396 
109.00158377313818 1.849573780129341 
110.00158377313818 2.1101006760729013 
111.00158377313818 1.9132128159906014 
112.00158377313818 2.0766093474426834 
113.00158377313818 2.0039682539682584 
114.00158377313818 1.9169606114050628 
115.00158377313818 2.0606628453850746 
116.00158377313818 1.91784244562023 
117.00158377313818 1.8634626690182277 
118.00158377313818 1.9692276601998888 
119.00158377313818 1.9181180188124698 
120.00158377313818 1.8175705467372156 
121.00158377313818 1.8551036155202918 
122.00158377313818 1.7875514403292279 
123.00158377313818 1.7197788065843582 
124.00158377313818 1.716343327454449 
125.00158377313818 1.5338220164609169 
126.00158377313818 1.5128049676660862 
127.00158377313818 1.3201241916519704 
128.00158377313818 1.2330430629041813 
129.00158377313818 1.213826425631978 
130.00158377313818 1.136555702527927 
131.00158377313818 1.0617100235155812 
132.00158377313818 1.1130768665490895 
133.00158377313818 1.0424015285126398 
134.00158377313818 1.0103799235743687 
135.00158377313818 1.0259589947089962 
136.00158377313818 1.0002572016460916 
137.00158377313818 0.9966563786008238 
138.00158377313818 0.9979240152851273 
139.00158377313818 0.9988609641387428 
140.00158377313818 0.9974279835390956 
141.00158377313818 0.9990630511463854 
142.00158377313818 1.0000000000000009 
143.00158377313818 0.9996325690770144 
144.00158377313818 1.0000000000000009 
145.00158377313818 1.0000000000000009 
146.00158377313818 1.0000000000000009 
147.00158377313818 1.0000000000000009 
148.00158377313818 1.0000000000000009 
149.00158377313818 1.0000000000000009 
150.00158377313818 1.0000000000000009 
151.00158377313818 1.0000000000000009 
152.00158377313818 1.0000000000000009 
153.00158377313818 1.0000000000000009 
154.00158377313818 1.0000000000000009 
155.00158377313818 1.0000000000000009 
156.00158377313818 1.0000000000000009 
157.00158377313818 1.0000000000000009 
158.00158377313818 1.0000000000000009 
159.00158377313818 1.0000000000000009 
160.00158377313818 1.0000000000000009 
161.00158377313818 1.0000000000000009 
162.00158377313818 1.0000000000000009 
163.00158377313818 1.0000000000000009 
164.00158377313818 1.0000000000000009 
165.00158377313818 1.0000000000000009 
166.00158377313818 1.0000000000000009 
167.00158377313818 1.0000000000000009 
168.00158377313818 1.0000000000000009 
169.00158377313818 1.0000000000000009 
170.00158377313818 1.0000000000000009 
171.00158377313818 1.0000000000000009 
172.00158377313818 1.0000000000000009 
173.00158377313818 1.0000000000000009 
174.00158377313818 1.0000000000000009 
175.00158377313818 1.0000000000000009 
176.00158377313818 1.0000000000000009 
177.00158377313818 1.0000000000000009 
178.00158377313818 1.0000000000000009 
179.00158377313818 1.0000000000000009 
180.00158377313818 1.0000000000000009 
181.00158377313818 1.0000000000000009 
182.00158377313818 1.0000000000000009 
183.00158377313818 1.0000000000000009 
184.00158377313818 1.0000000000000009 
185.00158377313818 1.0000000000000009 
186.00158377313818 1.0000000000000009 
187.00158377313818 1.0000000000000009 
188.00158377313818 1.0000000000000009 
189.00158377313818 1.0000000000000009 
190.00158377313818 1.0000000000000009 
191.00158377313818 1.0000000000000009 
192.00158377313818 1.0000000000000009 
193.00158377313818 1.0000000000000009 
194.00158377313818 1.0000000000000009 
195.00158377313818 1.0000000000000009 
196.00158377313818 1.0000000000000009 
197.00158377313818 1.0000000000000009 
198.00158377313818 1.0000000000000009 
199.00158377313818 1.0000000000000009 
200.00158377313818 1.0000000000000009 
201.00158377313818 1.0000000000000009 
202.00158377313818 1.0000000000000009 
203.00158377313818 1.0000000000000009 
204.00158377313818 1.0000000000000009 
205.00158377313818 1.0000000000000009 
206.00158377313818 1.0000000000000009 
207.00158377313818 1.0000000000000009 
208.00158377313818 1.0000000000000009 
209.00158377313818 1.0000000000000009 
210.00158377313818 1.0000000000000009 
211.00158377313818 1.0000000000000009 
212.00158377313818 1.0000000000000009 
213.00158377313818 1.0000000000000009 
214.00158377313818 1.0000000000000009 
215.00158377313818 1.0000000000000009 
216.00158377313818 1.0000000000000009 
217.00158377313818 1.0000000000000009 
218.00158377313818 1.0000000000000009 
219.00158377313818 1.0000000000000009 
220.00158377313818 1.0000000000000009 
221.00158377313818 1.0000000000000009 
222.00158377313818 1.0000000000000009 
223.00158377313818 1.0000000000000009 
224.00158377313818 1.0000000000000009 
225.00158377313818 1.0000000000000009 
226.00158377313818 1.0000000000000009 
227.00158377313818 1.0000000000000009 
#####################################################################
# End of data export. Simulation finished at: 2017-05-24T06:17+0000 #
#####################################################################
