#####################################################################
# Alchemist log file - simulation started at: 2017-05-25T05:26+0000 #
#####################################################################
# random = 17.0, targets = 1.0, density = 10.026386447354522, gridShift = 1.0, perturbation = 0.5, connfactor = 0.25
#
# The columns have the following meaning: 
# time se[Mean] 
0.0 NaN 
1.0003034458253823 NaN 
2.0003034458253826 NaN 
3.0003034458253826 1.0 
4.0003034458253826 1.0 
5.0003034458253826 1.0 
6.0003034458253826 1.0 
7.0003034458253826 1.0 
8.000303445825383 0.9990783410138249 
9.000303445825383 0.9953917050691243 
10.000303445825383 0.989861751152074 
11.000303445825383 0.9815668202764976 
12.000303445825383 0.9723502304147462 
13.000303445825383 0.9686635944700458 
14.000303445825383 0.9603686635944703 
15.000303445825383 0.95483870967742 
16.00030344582538 0.9502304147465445 
17.00030344582538 0.9447004608294923 
18.00030344582538 0.9382488479262671 
19.00030344582538 0.9327188940092156 
20.00030344582538 0.92442396313364 
21.00030344582538 0.916129032258065 
22.00030344582538 0.90967741935484 
23.00030344582538 0.9059907834101374 
24.00030344582538 0.9013824884792617 
25.00030344582538 0.9004608294930888 
26.00030344582538 0.9032258064516119 
27.00030344582538 0.9023041474654389 
28.00030344582538 0.9069124423963146 
29.00030344582538 0.9142857142857155 
30.00030344582538 0.9207373271889404 
31.00030344582538 0.9225806451612909 
32.00030344582538 0.9281105990783399 
33.00030344582538 0.935483870967742 
34.00030344582538 0.9400921658986165 
35.00030344582538 0.9456221198156688 
36.00030344582538 0.9483870967741933 
37.00030344582538 0.95483870967742 
38.00030344582538 0.96221198156682 
39.00030344582538 0.9705069124423966 
40.00030344582538 0.9741935483870968 
41.00030344582538 0.9788018433179722 
42.00030344582538 0.9843317972350228 
43.00030344582538 0.989861751152074 
44.00030344582538 0.9926267281105992 
45.00030344582538 0.9981566820276497 
46.00030344582538 0.9990783410138249 
47.00030344582538 1.0 
48.00030344582538 1.0 
49.00030344582538 0.9990783410138249 
50.00030344582538 1.017511520737327 
51.00030344582538 1.112442396313363 
52.00030344582538 1.0267281105990789 
53.00030344582538 1.2092165898617533 
54.00030344582538 1.3741935483870962 
55.00030344582538 1.286635944700458 
56.00030344582538 1.3428571428571372 
57.00030344582538 1.5548387096774134 
58.00030344582538 2.0368663594470053 
59.00030344582538 1.611981566820265 
60.00030344582538 2.5520737327189162 
61.00030344582538 3.2949308755760445 
62.00030344582538 2.751152073732716 
63.00030344582538 3.328110599078335 
64.00030344582538 3.4682027649769833 
65.00030344582538 3.7050691244239555 
66.00030344582538 3.971428571428597 
67.00030344582538 3.714285714285704 
68.00030344582538 3.8663594470045837 
69.00030344582538 4.192626728110626 
70.00030344582538 4.821198156682058 
71.00030344582538 4.0617511520737075 
72.00030344582538 4.741935483870961 
73.00030344582538 4.785253456221199 
74.00030344582538 5.1714285714285655 
75.00030344582538 3.9769585253456174 
76.00030344582538 5.0294930875576185 
77.00030344582538 4.753917050691261 
78.00030344582538 5.621198156682002 
79.00030344582538 5.113364055299532 
80.00030344582538 4.221198156682033 
81.00030344582538 4.76313364055301 
82.00030344582538 4.908755760368677 
83.00030344582538 4.080184331797242 
84.00030344582538 4.299539170506897 
85.00030344582538 4.652534562212009 
86.00030344582538 3.7548387096774234 
87.00030344582538 3.9751152073733165 
88.00030344582538 3.8921658986174874 
89.00030344582538 4.24423963133645 
90.00030344582538 3.4562211981566526 
91.00030344582538 4.385253456221245 
92.00030344582538 3.782488479262701 
93.00030344582538 3.514285714285752 
94.00030344582538 3.3889400921659236 
95.00030344582538 2.90599078341016 
96.00030344582538 3.6433179723502103 
97.00030344582538 2.529032258064538 
98.00030344582538 2.4248847926267465 
99.00030344582538 2.729953917050708 
100.00030344582538 2.2552995391705357 
101.00030344582538 1.9069124423962966 
102.00030344582538 1.4497695852534422 
103.00030344582538 0.6691244239631393 
104.00030344582538 0.33456221198156966 
105.00030344582538 0.0 
106.00030344582538 0.0 
107.00030344582538 0.0 
108.00030344582538 0.0 
109.00030344582538 0.0 
110.00030344582538 0.0 
111.00030344582538 0.0 
112.00030344582538 0.0 
113.00030344582538 0.0 
114.00030344582538 0.0 
115.00030344582538 0.0 
116.00030344582538 0.0 
117.00030344582538 0.0 
118.00030344582538 0.0 
119.00030344582538 0.0 
120.00030344582538 0.0 
121.00030344582538 0.0 
122.00030344582538 0.0 
123.00030344582538 0.0 
124.00030344582538 0.0 
125.00030344582538 0.0 
126.00030344582538 0.0 
127.00030344582538 0.0 
128.00030344582538 0.0 
129.00030344582538 0.0 
130.00030344582538 0.0 
131.00030344582538 0.0 
132.00030344582538 0.0 
133.00030344582538 0.0 
134.00030344582538 0.0 
135.00030344582538 0.0 
136.00030344582538 0.0 
137.00030344582538 0.0 
138.00030344582538 0.0 
139.00030344582538 0.0 
140.00030344582538 0.0 
141.00030344582538 0.0 
142.00030344582538 0.0 
143.00030344582538 0.0 
144.00030344582538 0.0 
145.00030344582538 0.0 
146.00030344582538 0.0 
147.00030344582538 0.0 
148.00030344582538 0.0 
149.00030344582538 0.0 
150.00030344582538 0.0 
151.00030344582538 0.0 
152.00030344582538 0.0 
153.00030344582538 0.0 
154.00030344582538 0.0 
155.00030344582538 0.0 
156.00030344582538 0.0 
157.00030344582538 0.0 
158.00030344582538 0.0 
159.00030344582538 0.0 
160.00030344582538 0.0 
161.00030344582538 0.0 
162.00030344582538 0.0 
163.00030344582538 0.0 
164.00030344582538 0.0 
165.00030344582538 0.0 
166.00030344582538 0.0 
167.00030344582538 0.0 
168.00030344582538 0.0 
169.00030344582538 0.0 
170.00030344582538 0.0 
171.00030344582538 0.0 
172.00030344582538 0.0 
173.00030344582538 0.0 
174.00030344582538 0.0 
175.00030344582538 0.0 
#####################################################################
# End of data export. Simulation finished at: 2017-05-25T05:27+0000 #
#####################################################################
