#####################################################################
# Alchemist log file - simulation started at: 2017-05-23T07:51+0000 #
#####################################################################
# random = 5.0, targets = 3.1622776601683795, density = 0.894427190999916, gridShift = 0.0, perturbation = 0.5, connfactor = 1.0
#
# The columns have the following meaning: 
# time se[Mean] 
0.0 NaN 
1.0052461206074068 NaN 
2.005246120607407 1.016920385091744 
3.005246120607407 1.022497986688877 
4.005246120607406 1.0072096572102383 
5.005246120607406 1.0135264158014672 
6.005246120607406 0.89276602184411 
7.005246120607406 0.950403379466941 
8.005246120607406 0.9483085756731118 
9.005246120607406 1.0327063077469825 
10.005246120607406 1.150370888975875 
11.005246120607406 1.1863502567432087 
12.005246120607406 1.2034156215178329 
13.005246120607406 1.178256745228985 
14.005246120607406 1.1473341944284958 
15.005246120607406 1.0969814259229627 
16.005246120607406 0.9891719715923277 
17.005246120607406 0.9260168545009032 
18.005246120607406 0.8231080891670959 
19.005246120607406 0.7245680799126912 
20.005246120607406 0.6608251451868324 
21.005246120607406 0.5661228539738197 
22.005246120607406 0.5044158553934004 
23.005246120607406 0.48198584434852526 
24.005246120607406 0.42364896333782986 
25.005246120607406 0.37155574653057377 
26.005246120607406 0.34639781288158117 
27.005246120607406 0.28577495233890815 
28.005246120607406 0.2549478880213659 
29.005246120607406 0.21748091141811948 
30.005246120607406 0.17689390839212873 
31.005246120607406 0.1533151604109065 
32.00524612060741 0.23705366297000896 
33.00524612060741 0.7195971252861233 
34.00524612060741 0.32317088322520465 
35.00524612060741 1.2116519425495444 
36.00524612060741 1.7119349498419048 
37.00524612060741 1.5172922141947836 
38.00524612060741 1.9131457283997872 
39.00524612060741 1.817466371303916 
40.00524612060741 1.22368609999641 
41.00524612060741 1.4216128570989126 
42.00524612060741 0.7288692072401542 
43.00524612060741 0.4319790715864017 
44.00524612060741 0.4319790715864019 
45.00524612060741 0.13508893593264834 
46.00524612060741 0.13508893593264834 
47.00524612060741 0.13508893593264834 
48.00524612060741 0.13508893593264834 
49.00524612060741 0.13508893593264834 
50.00524612060741 0.13508893593264834 
51.00524612060741 0.13508893593264834 
52.00524612060741 0.13508893593264834 
53.00524612060741 0.13508893593264834 
54.00524612060741 0.13508893593264834 
55.00524612060741 0.13508893593264834 
56.00524612060741 0.13508893593264834 
57.00524612060741 0.13508893593264834 
58.00524612060741 0.13508893593264834 
59.00524612060741 0.13508893593264834 
60.00524612060741 0.13508893593264834 
61.00524612060741 0.13508893593264834 
62.00524612060741 0.13508893593264834 
63.00524612060741 0.13508893593264834 
64.00524612060741 0.13508893593264834 
65.00524612060741 0.13508893593264834 
#####################################################################
# End of data export. Simulation finished at: 2017-05-23T07:52+0000 #
#####################################################################
