#####################################################################
# Alchemist log file - simulation started at: 2017-05-20T15:28+0000 #
#####################################################################
# random = 1.0, targets = 10.0, density = 0.1591589639397027, gridShift = 1.0, perturbation = 0.5, connfactor = 2.0
#
# The columns have the following meaning: 
# time se[Mean] 
0.0 NaN 
1.0048855897957667 NaN 
2.0048855897957667 1.544 
3.0048855897957667 1.9083981481481482 
4.004885589795767 2.7059166666666665 
5.004885589795767 2.0978449074074073 
6.004885589795767 3.1923449074074077 
7.004885589795767 2.754300925925926 
8.004885589795766 2.1511342592592593 
9.004885589795766 3.002662037037037 
10.004885589795766 2.8193912037037037 
11.004885589795766 2.069465277777778 
12.004885589795766 3.3433495370370374 
13.004885589795766 2.4232731481481484 
14.004885589795766 2.4012824074074075 
15.004885589795766 3.183069444444445 
16.004885589795766 1.7198958333333336 
17.004885589795766 2.256460648148148 
18.004885589795766 1.1669143518518519 
19.004885589795766 2.02825462962963 
20.004885589795766 2.3556759259259263 
21.004885589795766 1.4440625 
22.004885589795766 3.7831643518518527 
23.004885589795766 2.8284259259259263 
24.004885589795766 3.4548217592592594 
25.004885589795766 5.258648148148149 
26.004885589795766 3.457787037037038 
27.004885589795766 2.9846134259259265 
28.004885589795766 1.1630092592592596 
29.004885589795766 1.0449537037037038 
30.004885589795766 0.45513888888888904 
31.004885589795766 0.4784560185185187 
32.00488558979576 0.4834467592592594 
33.00488558979576 0.49000000000000016 
34.00488558979576 0.49000000000000016 
35.00488558979576 0.49000000000000016 
36.00488558979576 0.49000000000000016 
37.00488558979576 0.49000000000000016 
38.00488558979576 0.49000000000000016 
#####################################################################
# End of data export. Simulation finished at: 2017-05-20T15:29+0000 #
#####################################################################
