#####################################################################
# Alchemist log file - simulation started at: 2017-05-24T13:25+0000 #
#####################################################################
# random = 15.0, targets = 1.0, density = 0.07978946395100113, gridShift = 1.0, perturbation = 0.0, connfactor = 1.5
#
# The columns have the following meaning: 
# time se[Mean] 
0.0 NaN 
1.033500917323147 NaN 
2.0335009173231473 1.0 
3.0335009173231473 0.9513888888888888 
4.033500917323147 0.8875 
5.033500917323147 0.7861111111111111 
6.033500917323147 0.7541666666666667 
7.033500917323147 0.6250000000000001 
8.033500917323147 0.5041666666666668 
9.033500917323147 0.42361111111111127 
10.033500917323147 0.26944444444444454 
11.033500917323147 0.24861111111111125 
12.033500917323147 0.13750000000000007 
13.033500917323147 0.12083333333333338 
14.033500917323147 0.08333333333333334 
15.033500917323147 0.041666666666666685 
16.033500917323146 0.030555555555555527 
17.033500917323146 0.012499999999999983 
18.033500917323146 4.930380657631324E-32 
19.033500917323146 4.930380657631324E-32 
20.033500917323146 4.930380657631324E-32 
21.033500917323146 4.930380657631324E-32 
22.033500917323146 4.930380657631324E-32 
#####################################################################
# End of data export. Simulation finished at: 2017-05-24T13:25+0000 #
#####################################################################
