#####################################################################
# Alchemist log file - simulation started at: 2017-05-24T00:22+0000 #
#####################################################################
# random = 13.0, targets = 10.0, density = 0.6332893950589894, gridShift = 0.0, perturbation = 0.5, connfactor = 2.0
#
# The columns have the following meaning: 
# time se[Mean] 
0.0 NaN 
1.0093475742791087 NaN 
2.0093475742791087 1.1854938271604938 
3.0093475742791087 1.2748988340192045 
4.009347574279109 1.482883230452675 
5.009347574279109 1.6381224279835391 
6.009347574279109 2.1526483196159125 
7.009347574279109 2.700830761316873 
8.009347574279108 2.355814471879287 
9.009347574279108 2.7773139574759944 
10.009347574279108 3.934855109739369 
11.009347574279108 4.02070816186557 
12.009347574279108 4.305128600823045 
13.009347574279108 4.662518861454047 
14.009347574279108 5.598028120713306 
15.009347574279108 6.748440500685872 
16.009347574279108 6.904933127572018 
17.009347574279108 9.155655006858712 
18.009347574279108 11.463188443072704 
19.009347574279108 12.283028978052128 
20.009347574279108 12.510528120713309 
21.009347574279108 13.341315157750344 
22.009347574279108 14.967583161865571 
23.009347574279108 11.784942558299042 
24.009347574279108 15.508507373113856 
25.009347574279108 15.998979766803842 
26.009347574279108 15.890799039780521 
27.009347574279108 16.363839163237312 
28.009347574279108 14.92207218792867 
29.009347574279108 15.969072359396433 
30.009347574279108 12.305529835390947 
31.009347574279108 14.165753600823047 
32.009347574279104 12.710579561042525 
33.009347574279104 12.317163065843621 
34.009347574279104 11.69536608367627 
35.009347574279104 10.329705075445817 
36.009347574279104 10.29213220164609 
37.009347574279104 10.229522462277092 
38.009347574279104 10.25017232510288 
39.009347574279104 10.23212962962963 
40.009347574279104 10.234097222222223 
41.009347574279104 10.24 
42.009347574279104 10.24 
43.009347574279104 10.24 
44.009347574279104 10.24 
45.009347574279104 10.24 
46.009347574279104 10.24 
47.009347574279104 10.24 
48.009347574279104 10.24 
49.009347574279104 10.24 
50.009347574279104 10.24 
51.009347574279104 10.24 
52.009347574279104 10.24 
53.009347574279104 10.24 
54.009347574279104 10.24 
55.009347574279104 10.24 
56.009347574279104 10.24 
57.009347574279104 10.24 
58.009347574279104 10.24 
#####################################################################
# End of data export. Simulation finished at: 2017-05-24T00:22+0000 #
#####################################################################
