#####################################################################
# Alchemist log file - simulation started at: 2017-05-23T21:52+0000 #
#####################################################################
# random = 13.0, targets = 1.0, density = 1.7841466528270753, gridShift = 1.0, perturbation = 0.5, connfactor = 0.5
#
# The columns have the following meaning: 
# time se[Mean] 
0.0 NaN 
1.0093475742791087 NaN 
2.0093475742791087 1.0 
3.0093475742791087 1.0 
4.009347574279109 0.9966517857142857 
5.009347574279109 0.9866071428571429 
6.009347574279109 0.9899553571428571 
7.009347574279109 0.9497767857142858 
8.009347574279108 0.9765625 
9.009347574279108 0.9296875 
10.009347574279108 0.9430803571428571 
11.009347574279108 0.90625 
12.009347574279108 0.8861607142857142 
13.009347574279108 0.8895089285714284 
14.009347574279108 0.8694196428571429 
15.009347574279108 0.9029017857142858 
16.009347574279108 0.8962053571428572 
17.009347574279108 0.9296875 
18.009347574279108 0.953125 
19.009347574279108 0.9665178571428571 
20.009347574279108 0.9799107142857142 
21.009347574279108 0.9966517857142857 
22.009347574279108 1.0 
23.009347574279108 1.0 
24.009347574279108 1.0 
25.009347574279108 1.0 
26.009347574279108 1.0 
27.009347574279108 1.0502232142857144 
28.009347574279108 1.1506696428571432 
29.009347574279108 1.0 
30.009347574279108 1.200892857142857 
31.009347574279108 1.3013392857142863 
32.009347574279104 1.0 
33.009347574279104 1.3515625 
34.009347574279104 1.2008928571428568 
35.009347574279104 1.3515625 
36.009347574279104 1.2511160714285712 
37.009347574279104 1.3515625 
38.009347574279104 1.652901785714286 
39.009347574279104 1.4475446428571428 
40.009347574279104 1.435267857142857 
41.009347574279104 1.6395089285714284 
42.009347574279104 1.521205357142857 
43.009347574279104 1.4988839285714288 
44.009347574279104 1.455357142857143 
45.009347574279104 1.3236607142857137 
46.009347574279104 1.2131696428571432 
47.009347574279104 2.0290178571428563 
48.009347574279104 3.106026785714289 
49.009347574279104 1.1618303571428568 
50.009347574279104 3.6328125 
51.009347574279104 4.965401785714283 
52.009347574279104 0.9944196428571429 
53.009347574279104 5.6774553571428585 
54.009347574279104 3.6484375 
55.009347574279104 5.400669642857141 
56.009347574279104 4.352678571428572 
57.009347574279104 5.5200892857142865 
58.009347574279104 9.4375 
59.009347574279104 6.813616071428575 
60.009347574279104 7.095982142857136 
61.009347574279104 9.796875 
62.009347574279104 8.330357142857137 
63.009347574279104 9.024553571428571 
64.0093475742791 10.5 
65.0093475742791 10.446428571428578 
66.0093475742791 7.885044642857143 
67.0093475742791 13.84486607142858 
68.0093475742791 7.284598214285726 
69.0093475742791 9.283482142857148 
70.0093475742791 6.7991071428571495 
71.0093475742791 6.362723214285707 
72.0093475742791 5.1796875 
73.0093475742791 4.860491071428578 
74.0093475742791 3.4966517857142914 
75.0093475742791 1.5133928571428548 
76.0093475742791 1.362723214285712 
77.0093475742791 1.1517857142857137 
78.0093475742791 0.3850446428571432 
79.0093475742791 0.3683035714285708 
80.0093475742791 0.26785714285714285 
81.0093475742791 0.3649553571428569 
82.0093475742791 0.18973214285714315 
83.0093475742791 0.234375 
84.0093475742791 0.17299107142857134 
85.0093475742791 0.15959821428571455 
86.0093475742791 0.12723214285714302 
87.0093475742791 0.12053571428571468 
88.0093475742791 0.08147321428571445 
89.0093475742791 0.0256696428571429 
90.0093475742791 0.025669642857142815 
91.0093475742791 0.022321428571428638 
92.0093475742791 0.001116071428571431 
93.0093475742791 0.0011160714285714311 
94.0093475742791 0.0011160714285714311 
95.0093475742791 0.0 
96.0093475742791 0.0 
97.0093475742791 0.0 
98.0093475742791 0.0 
99.0093475742791 0.0 
100.0093475742791 0.0 
101.0093475742791 0.0 
102.0093475742791 0.0 
103.0093475742791 0.0 
104.0093475742791 0.0 
105.0093475742791 0.0 
106.0093475742791 0.0 
107.0093475742791 0.0 
108.0093475742791 0.0 
109.0093475742791 0.0 
110.0093475742791 0.0 
111.0093475742791 0.0 
112.0093475742791 0.0 
113.0093475742791 0.0 
114.0093475742791 0.0 
115.0093475742791 0.0 
116.0093475742791 0.0 
117.0093475742791 0.0 
118.0093475742791 0.0 
119.0093475742791 0.0 
#####################################################################
# End of data export. Simulation finished at: 2017-05-23T21:52+0000 #
#####################################################################
