#####################################################################
# Alchemist log file - simulation started at: 2017-05-23T00:33+0000 #
#####################################################################
# random = 10.0, targets = 10.0, density = 1.2632455339402642, gridShift = 1.0, perturbation = 0.5, connfactor = 1.5
#
# The columns have the following meaning: 
# time se[Mean] 
0.0 NaN 
1.0036005446229952 NaN 
2.003600544622995 1.0707142857142857 
3.003600544622995 1.0952215608465607 
4.003600544622995 1.1096064814814814 
5.003600544622995 1.1424007936507936 
6.003600544622995 1.057726521164021 
7.003600544622995 1.1777666170634924 
8.003600544622994 1.2799900793650796 
9.003600544622994 1.3155774636243385 
10.003600544622994 1.4064537863756614 
11.003600544622994 1.4319783399470902 
12.003600544622994 1.3993055555555556 
13.003600544622994 1.4266637731481477 
14.003600544622994 1.4630609292328045 
15.003600544622994 1.4973363095238095 
16.003600544622994 1.4919990079365082 
17.003600544622994 1.5134561011904764 
18.003600544622994 1.5109829695767198 
19.003600544622994 1.5789285714285717 
20.003600544622994 1.5699937996031745 
21.003600544622994 1.740522900132275 
22.003600544622994 2.0727438822751316 
23.003600544622994 2.2189699074074083 
24.003600544622994 2.7573259755291013 
25.003600544622994 2.879237764550264 
26.003600544622994 2.837662863756614 
27.003600544622994 3.5847271825396834 
28.003600544622994 2.5365133101851858 
29.003600544622994 3.265326554232805 
30.003600544622994 3.079132771164021 
31.003600544622994 3.3411867559523807 
32.003600544623 3.867930720899471 
33.003600544623 3.267705439814815 
34.003600544623 3.902214368386243 
35.003600544623 3.9536557539682544 
36.003600544623 4.047827794312169 
37.003600544623 3.9150818452380953 
38.003600544623 3.9659544477513236 
39.003600544623 3.814737103174603 
40.003600544623 3.2487748015873024 
41.003600544623 2.9688029100529105 
42.003600544623 2.9871428571428575 
43.003600544623 2.8139517195767203 
44.003600544623 2.9348726851851854 
45.003600544623 2.908773148148149 
46.003600544623 2.794594907407408 
47.003600544623 2.8607043650793655 
48.003600544623 2.7317890211640217 
49.003600544623 2.8159738756613764 
50.003600544623 2.6679662698412705 
51.003600544623 2.6572685185185194 
52.003600544623 2.6146246693121697 
53.003600544623 2.4461855158730166 
54.003600544623 2.426296296296297 
55.003600544623 2.315884589947091 
56.003600544623 2.4274470899470906 
57.003600544623 2.4405042989417995 
58.003600544623 2.380524140211641 
59.003600544623 2.4859341931216936 
60.003600544623 2.384255952380953 
61.003600544623 2.448652447089948 
62.003600544623 2.408905423280424 
63.003600544623 2.347536375661376 
64.003600544623 2.431537698412699 
65.003600544623 2.379821428571429 
66.003600544623 2.3846908068783073 
67.003600544623 2.386832010582011 
68.003600544623 2.446416997354498 
69.003600544623 2.456240079365079 
70.003600544623 2.462303240740741 
71.003600544623 2.5406630291005294 
72.003600544623 2.54953373015873 
73.003600544623 2.5603191137566137 
74.003600544623 2.56 
75.003600544623 2.56 
76.003600544623 2.56 
77.003600544623 2.56 
78.003600544623 2.56 
79.003600544623 2.56 
80.003600544623 2.56 
81.003600544623 2.56 
82.003600544623 2.56 
83.003600544623 2.56 
84.003600544623 2.56 
85.003600544623 2.56 
86.003600544623 2.56 
87.003600544623 2.56 
88.003600544623 2.56 
89.003600544623 2.56 
90.003600544623 2.56 
91.003600544623 2.56 
92.003600544623 2.56 
93.003600544623 2.56 
94.003600544623 2.56 
95.003600544623 2.56 
#####################################################################
# End of data export. Simulation finished at: 2017-05-23T00:33+0000 #
#####################################################################
