#####################################################################
# Alchemist log file - simulation started at: 2017-05-24T05:36+0000 #
#####################################################################
# random = 14.0, targets = 1.0, density = 0.2247883923996312, gridShift = 1.0, perturbation = 0.0, connfactor = 0.25
#
# The columns have the following meaning: 
# time se[Mean] 
0.0 NaN 
1.011133799227012 NaN 
2.0111337992270117 1.0 
3.0111337992270117 1.0 
4.011133799227012 1.0 
5.011133799227012 1.0 
6.011133799227012 1.0 
7.011133799227012 1.0 
8.01113379922701 1.0 
9.01113379922701 1.0 
#####################################################################
# End of data export. Simulation finished at: 2017-05-24T05:36+0000 #
#####################################################################
