#####################################################################
# Alchemist log file - simulation started at: 2017-05-23T03:42+0000 #
#####################################################################
# random = 10.0, targets = 100.0, density = 0.05649405772326896, gridShift = 0.0, perturbation = 0.0, connfactor = 1.0
#
# The columns have the following meaning: 
# time se[Mean] 
0.0 NaN 
1.0036005446229952 NaN 
2.003600544622995 1.7712515625 
3.003600544622995 1.9287160156249998 
4.003600544622995 2.2280514756944445 
5.003600544622995 1.9873047743055554 
6.003600544622995 1.5337653645833331 
7.003600544622995 1.1514039496527777 
8.003600544622994 0.8279247395833332 
9.003600544622994 0.45396553819444446 
10.003600544622994 0.2645036458333334 
11.003600544622994 0.19074513888888894 
12.003600544622994 0.05727361111111115 
13.003600544622994 0.023747916666666695 
14.003600544622994 0.031138194444444475 
15.003600544622994 0.009287500000000025 
16.003600544622994 0.011031250000000029 
17.003600544622994 0.012100000000000031 
18.003600544622994 0.012100000000000031 
19.003600544622994 0.012100000000000031 
20.003600544622994 0.012100000000000031 
21.003600544622994 0.012100000000000031 
22.003600544622994 0.012100000000000031 
23.003600544622994 0.012100000000000031 
24.003600544622994 0.012100000000000031 
25.003600544622994 0.012100000000000031 
#####################################################################
# End of data export. Simulation finished at: 2017-05-23T03:42+0000 #
#####################################################################
