#####################################################################
# Alchemist log file - simulation started at: 2017-05-26T02:29+0000 #
#####################################################################
# random = 19.0, targets = 100.0, density = 3.5589026259761294, gridShift = 0.0, perturbation = 0.5, connfactor = 1.0
#
# The columns have the following meaning: 
# time se[Mean] 
0.0 NaN 
1.004337754240159 NaN 
2.004337754240159 1.006248375 
3.004337754240159 1.0106541111111111 
4.004337754240159 1.014809640625 
5.004337754240159 1.0237934375 
6.004337754240159 1.021524232638889 
7.004337754240159 1.0287640381944445 
8.004337754240158 1.0333702586805555 
9.004337754240158 1.0339759270833333 
10.004337754240158 1.0444052777777777 
11.004337754240158 1.0472331527777778 
12.004337754240158 1.0575844756944444 
13.004337754240158 1.068264501736111 
14.004337754240158 1.0725206631944444 
15.004337754240158 1.0880113802083333 
16.004337754240158 1.0873372552083334 
17.004337754240158 1.0941167100694444 
18.004337754240158 1.1020300121527777 
19.004337754240158 1.1014610659722222 
20.004337754240158 1.106779703125 
21.004337754240158 1.1091183333333332 
22.004337754240158 1.1112327569444445 
23.004337754240158 1.1198386614583333 
24.004337754240158 1.1206485104166666 
25.004337754240158 1.1274327395833332 
26.004337754240158 1.1309106128472222 
27.004337754240158 1.1269143333333331 
28.004337754240158 1.1300217777777777 
29.004337754240158 1.129833807291667 
30.004337754240158 1.1288690364583331 
31.004337754240158 1.135187578125 
32.004337754240154 1.1290907256944445 
33.004337754240154 1.1704848663194445 
34.004337754240154 1.1615292881944446 
35.004337754240154 1.1997141458333334 
36.004337754240154 1.22319784375 
37.004337754240154 1.1982569479166667 
38.004337754240154 1.2474787552083335 
39.004337754240154 1.2255944895833333 
40.004337754240154 1.2650975312500001 
41.004337754240154 1.2910535972222226 
42.004337754240154 1.2711342083333332 
43.004337754240154 1.3512719878472224 
44.004337754240154 1.3297923697916665 
45.004337754240154 1.360323998263889 
46.004337754240154 1.400895385416667 
47.004337754240154 1.3650004895833332 
48.004337754240154 1.4331184687499998 
49.004337754240154 1.3784029722222222 
50.004337754240154 1.4591584878472221 
51.004337754240154 1.4769363142361114 
52.004337754240154 1.4537998055555557 
53.004337754240154 1.51566428125 
54.004337754240154 1.4948502881944445 
55.004337754240154 1.5396766493055556 
56.004337754240154 1.5325356111111113 
57.004337754240154 1.5035118229166666 
58.004337754240154 1.5259097517361113 
59.004337754240154 1.522342309027778 
60.004337754240154 1.483899684027778 
61.004337754240154 1.5059110850694446 
62.004337754240154 1.4594662118055557 
63.004337754240154 1.4796659270833337 
64.00433775424015 1.4789555572916668 
65.00433775424015 1.4675537829861112 
66.00433775424015 1.5541830069444444 
67.00433775424015 1.5716696128472223 
68.00433775424015 1.5738340850694446 
69.00433775424015 1.620585576388889 
70.00433775424015 1.6166178697916664 
71.00433775424015 1.6816137795138888 
72.00433775424015 1.687423083333333 
73.00433775424015 1.7175176805555559 
74.00433775424015 1.8066552743055553 
75.00433775424015 1.8573392222222218 
76.00433775424015 1.8430880190972223 
77.00433775424015 2.393668987847222 
78.00433775424015 2.396055074652777 
79.00433775424015 2.334330821180555 
80.00433775424015 2.5984174635416664 
81.00433775424015 2.5461171909722218 
82.00433775424015 2.837006368055555 
83.00433775424015 2.761347418402777 
84.00433775424015 3.025540140624999 
85.00433775424015 3.3862553940972213 
86.00433775424015 2.920737727430555 
87.00433775424015 3.404016557291666 
88.00433775424015 3.692556782986111 
89.00433775424015 3.560244428819444 
90.00433775424015 3.583150451388888 
91.00433775424015 3.231994005208333 
92.00433775424015 4.078975401041666 
93.00433775424015 3.7401377743055546 
94.00433775424015 3.6801712065972216 
95.00433775424015 3.9778454913194436 
96.00433775424015 3.602788486111111 
97.00433775424015 4.175053031250001 
98.00433775424015 3.916124720486111 
99.00433775424015 3.8660655642361106 
100.00433775424015 4.027748685763888 
101.00433775424015 4.554184411458333 
102.00433775424015 4.056070475694444 
103.00433775424015 6.4440051944444425 
104.00433775424015 6.747929090277781 
105.00433775424015 5.674487048611106 
106.00433775424015 6.564912279513894 
107.00433775424015 5.6457321684027795 
108.00433775424015 7.1080261371527795 
109.00433775424015 5.942592645833332 
110.00433775424015 7.364491539930553 
111.00433775424015 9.056579430555558 
112.00433775424015 5.988004494791665 
113.00433775424015 8.570619545138891 
114.00433775424015 10.131098574652782 
115.00433775424015 9.11844122916667 
116.00433775424015 9.132796746527777 
117.00433775424015 7.0889914861111105 
118.00433775424015 11.724031920138893 
119.00433775424015 9.685101244791667 
120.00433775424015 9.690878152777778 
121.00433775424015 11.76198965277778 
122.00433775424015 9.712719942708338 
123.00433775424015 12.805870600694448 
124.00433775424015 11.794652371527786 
125.00433775424015 11.286106463541671 
126.00433775424015 12.328105024305549 
127.00433775424015 12.339058847222226 
128.00433775424017 12.34794665798611 
129.00433775424017 11.33061926562499 
130.00433775424017 12.88013555034722 
131.00433775424017 9.807136534722222 
132.00433775424017 6.21188897743056 
133.00433775424017 6.733088453125003 
134.00433775424017 6.222940005208333 
135.00433775424017 2.626903217013889 
136.00433775424017 4.683645107638894 
137.00433775424017 2.630105173611111 
138.00433775424017 2.625158477430556 
139.00433775424017 2.6284691909722224 
140.00433775424017 2.625894104166667 
141.00433775424017 2.625559640625 
142.00433775424017 2.6254565052083336 
143.00433775424017 2.6243810572916666 
144.00433775424017 2.624846357638889 
145.00433775424017 2.624157354166667 
146.00433775424017 2.6245421024305555 
147.00433775424017 2.6244 
148.00433775424017 2.6243730069444444 
149.00433775424017 2.6244 
150.00433775424017 2.6244 
151.00433775424017 2.6244 
152.00433775424017 2.6244 
153.00433775424017 2.6244 
154.00433775424017 2.6244 
155.00433775424017 2.6244 
156.00433775424017 2.6244 
157.00433775424017 2.6244 
158.00433775424017 2.6244 
159.00433775424017 2.6244 
160.00433775424017 2.6244 
161.00433775424017 2.6244 
162.00433775424017 2.6244 
163.00433775424017 2.6244 
164.00433775424017 2.6244 
165.00433775424017 2.6244 
166.00433775424017 2.6244 
167.00433775424017 2.6244 
168.00433775424017 2.6244 
169.00433775424017 2.6244 
170.00433775424017 2.6244 
171.00433775424017 2.6244 
172.00433775424017 2.6244 
173.00433775424017 2.6244 
174.00433775424017 2.6244 
175.00433775424017 2.6244 
176.00433775424017 2.6244 
177.00433775424017 2.6244 
178.00433775424017 2.6244 
179.00433775424017 2.6244 
180.00433775424017 2.6244 
181.00433775424017 2.6244 
182.00433775424017 2.6244 
183.00433775424017 2.6244 
184.00433775424017 2.6244 
185.00433775424017 2.6244 
186.00433775424017 2.6244 
187.00433775424017 2.6244 
188.00433775424017 2.6244 
189.00433775424017 2.6244 
190.00433775424017 2.6244 
191.00433775424017 2.6244 
192.00433775424017 2.6244 
193.00433775424017 2.6244 
#####################################################################
# End of data export. Simulation finished at: 2017-05-26T02:30+0000 #
#####################################################################
