#####################################################################
# Alchemist log file - simulation started at: 2017-05-21T08:17+0000 #
#####################################################################
# random = 2.0, targets = 10.0, density = 0.894427190999916, gridShift = 0.0, perturbation = 0.5, connfactor = 1.5
#
# The columns have the following meaning: 
# time se[Mean] 
0.0 NaN 
1.003288451303821 NaN 
2.003288451303821 NaN 
3.003288451303821 1.0693394168962351 
4.0032884513038205 1.1078357438016528 
5.0032884513038205 1.1726589761248851 
6.0032884513038205 1.1536197199265381 
7.0032884513038205 1.3099374426078974 
8.00328845130382 1.341104797979798 
9.00328845130382 1.5298266758494032 
10.00328845130382 1.6747842056932967 
11.00328845130382 1.7183643250688707 
12.00328845130382 1.7623278236914601 
13.00328845130382 1.6105343204775022 
14.00328845130382 1.605013200183655 
15.00328845130382 1.5554092056932967 
16.00328845130382 1.5049902433425162 
17.00328845130382 1.5045110192837468 
18.00328845130382 1.4782231404958677 
19.00328845130382 1.4827875344352617 
20.00328845130382 1.4317091368227732 
21.00328845130382 1.4028236914600551 
22.00328845130382 1.3800223829201101 
23.00328845130382 1.3078058999081728 
24.00328845130382 1.3037809917355372 
25.00328845130382 1.4062270431588613 
26.00328845130382 1.7206227043158864 
27.00328845130382 1.6707575757575754 
28.00328845130382 2.352926997245179 
29.00328845130382 2.800145775941231 
30.00328845130382 4.042523530762168 
31.00328845130382 3.9443606519742898 
32.00328845130382 6.3542257805326 
33.00328845130382 6.174361225895319 
34.00328845130382 8.252413337924704 
35.00328845130382 8.329408287419653 
36.00328845130382 8.180964761248852 
37.00328845130382 7.593691460055098 
38.00328845130382 9.14560720844812 
39.00328845130382 8.079310146923785 
40.00328845130382 9.748997933884299 
41.00328845130382 9.206178833792473 
42.00328845130382 7.1593164600550985 
43.00328845130382 6.3805825298438945 
44.00328845130382 5.095403466483012 
45.00328845130382 4.468895202020202 
46.00328845130382 4.305841368227733 
47.00328845130382 3.7786971992653813 
48.00328845130382 3.7679097796143255 
49.00328845130382 3.6086116850321397 
50.00328845130382 3.599635560146924 
51.00328845130382 3.618351124885216 
52.00328845130382 3.5938946280991737 
53.00328845130382 3.603875688705234 
54.00328845130382 3.6166236225895316 
55.00328845130382 3.611317722681359 
56.00328845130382 3.6117516069788795 
57.00328845130382 3.610087235996327 
58.00328845130382 3.6095339761248852 
59.00328845130382 3.611590909090909 
60.00328845130382 3.61 
61.00328845130382 3.61 
62.00328845130382 3.61 
63.00328845130382 3.61 
64.00328845130382 3.61 
65.00328845130382 3.61 
66.00328845130382 3.61 
67.00328845130382 3.61 
68.00328845130382 3.61 
69.00328845130382 3.61 
70.00328845130382 3.61 
71.00328845130382 3.61 
72.00328845130382 3.61 
73.00328845130382 3.61 
74.00328845130382 3.61 
75.00328845130382 3.61 
76.00328845130382 3.61 
77.00328845130382 3.61 
78.00328845130382 3.61 
79.00328845130382 3.61 
#####################################################################
# End of data export. Simulation finished at: 2017-05-21T08:18+0000 #
#####################################################################
