#####################################################################
# Alchemist log file - simulation started at: 2017-05-24T19:21+0000 #
#####################################################################
# random = 15.0, targets = 100.0, density = 3.5589026259761294, gridShift = 1.0, perturbation = 0.0, connfactor = 0.75
#
# The columns have the following meaning: 
# time se[Mean] 
0.0 NaN 
1.0003675412420963 NaN 
2.0003675412420963 1.0045474282296651 
3.0003675412420963 1.0073190457203616 
4.000367541242096 1.0104615497076024 
5.000367541242096 1.0119615497076022 
6.000367541242096 1.0076511562998405 
7.000367541242096 1.0051636430090378 
8.000367541242095 1.0029027844231793 
9.000367541242095 1.00104716241361 
10.000367541242095 0.9996913875598087 
11.000367541242095 0.9966333532695375 
12.000367541242095 0.9966252990430622 
13.000367541242095 0.9935528973950027 
14.000367541242095 0.9913698232323233 
15.000367541242095 0.9899441852737906 
16.000367541242095 0.986223903508772 
17.000367541242095 0.9836702551834131 
18.000367541242095 0.9820862174375332 
19.000367541242095 0.9789442716640085 
20.000367541242095 0.977676129718235 
21.000367541242095 0.9751544191919191 
22.000367541242095 0.9718177033492823 
23.000367541242095 0.9715301368952685 
24.000367541242095 0.9697007044125465 
25.000367541242095 0.9688400983519404 
26.000367541242095 0.9682813862307283 
27.000367541242095 0.9680135101010101 
28.000367541242095 0.9678436536416799 
29.000367541242095 0.9676677365762891 
30.000367541242095 0.9665322966507177 
31.000367541242095 0.963381937799043 
32.0003675412421 0.9641440257841574 
33.0003675412421 0.9636058612440191 
34.0003675412421 0.9584248803827751 
35.0003675412421 0.9557985247208931 
36.0003675412421 0.9543412878787879 
37.0003675412421 0.9506718367889421 
38.0003675412421 0.9500682947900053 
39.0003675412421 0.9463850544922914 
40.0003675412421 0.9433985645933014 
41.0003675412421 0.9420636230728336 
42.0003675412421 0.9366386164274323 
43.0003675412421 0.9318782695374801 
44.0003675412421 0.9291972488038278 
45.0003675412421 0.9257091307814993 
46.0003675412421 0.9230585858585859 
47.0003675412421 0.918573817118554 
48.0003675412421 0.9144188596491228 
49.0003675412421 0.9103221624136099 
50.0003675412421 0.9044496876661351 
51.0003675412421 0.8976379319510899 
52.0003675412421 0.8869307283359915 
53.0003675412421 0.880108466241361 
54.0003675412421 0.8729298843700161 
55.0003675412421 0.862981532429559 
56.0003675412421 0.8548232854864435 
57.0003675412421 0.8407546717171718 
58.0003675412421 0.8382156366294525 
59.0003675412421 0.8287687400318979 
60.0003675412421 0.8129326953748008 
61.0003675412421 0.8115865629984051 
62.0003675412421 0.8059649787347156 
63.0003675412421 0.7958063928761299 
64.0003675412421 0.7944106791600214 
65.0003675412421 0.785688490164806 
66.0003675412421 0.7811630316321108 
67.0003675412421 0.7730315922381713 
68.0003675412421 0.7661765417331208 
69.0003675412421 0.76043937400319 
70.0003675412421 0.7461342105263159 
71.0003675412421 0.7481466307814992 
72.0003675412421 0.7366615364167998 
73.0003675412421 0.7250920454545455 
74.0003675412421 0.7234172049441787 
75.0003675412421 0.716264167995747 
76.0003675412421 0.7024851608187135 
77.0003675412421 0.6966816055289741 
78.0003675412421 0.6899649720893143 
79.0003675412421 0.6817514287612972 
80.0003675412421 0.6772928296119086 
81.0003675412421 0.6692418926103137 
82.0003675412421 0.6636101940457205 
83.0003675412421 0.6523047713981925 
84.0003675412421 0.6501876461988304 
85.0003675412421 0.6445300704412548 
86.0003675412421 0.6276417464114834 
87.0003675412421 0.6345832336523127 
88.0003675412421 0.6280876461988304 
89.0003675412421 0.6131238437001595 
90.0003675412421 0.6176886961722489 
91.0003675412421 0.6065209130781501 
92.0003675412421 0.5984783825093036 
93.0003675412421 0.5967074694311539 
94.0003675412421 0.5938059343434344 
95.0003675412421 0.5871149787347159 
96.0003675412421 0.5799248803827752 
97.0003675412421 0.5807247208931421 
98.0003675412421 0.5735653508771931 
99.0003675412421 0.5687388157894738 
100.0003675412421 0.5699912546517812 
101.0003675412421 0.5651392876129719 
102.0003675412421 0.5581725412014887 
103.0003675412421 0.560129465709729 
104.0003675412421 0.5546443580542267 
105.0003675412421 0.5549334396597556 
106.0003675412421 0.5521061469962788 
107.0003675412421 0.5491275983519407 
108.0003675412421 0.5475493487506647 
109.0003675412421 0.5465736310473155 
110.0003675412421 0.5463131711855398 
111.0003675412421 0.5450056951089848 
112.0003675412421 0.5451600744284957 
113.0003675412421 0.5438698697501331 
114.0003675412421 0.5441074295587455 
115.0003675412421 0.5450529572036152 
116.0003675412421 0.5462220295055823 
117.0003675412421 0.5458807549175972 
118.0003675412421 0.5469865297713984 
119.0003675412421 0.5472489234449762 
120.0003675412421 0.5474249601275919 
121.0003675412421 0.547541321105795 
122.0003675412421 0.5476000000000002 
123.0003675412421 0.5476000000000002 
124.0003675412421 0.5476000000000002 
125.0003675412421 0.5476000000000002 
126.0003675412421 0.5476000000000002 
127.0003675412421 0.5476000000000002 
128.0003675412421 0.5476000000000002 
129.0003675412421 0.5476000000000002 
130.0003675412421 0.5476000000000002 
131.0003675412421 0.5476000000000002 
132.0003675412421 0.5476000000000002 
133.0003675412421 0.5476000000000002 
134.0003675412421 0.5476000000000002 
135.0003675412421 0.5476000000000002 
136.0003675412421 0.5476000000000002 
137.0003675412421 0.5476000000000002 
138.0003675412421 0.5476000000000002 
139.0003675412421 0.5476000000000002 
140.0003675412421 0.5476000000000002 
141.0003675412421 0.5476000000000002 
142.0003675412421 0.5476000000000002 
143.0003675412421 0.5476000000000002 
144.0003675412421 0.5476000000000002 
145.0003675412421 0.5476000000000002 
146.0003675412421 0.5476000000000002 
147.0003675412421 0.5476000000000002 
148.0003675412421 0.5476000000000002 
149.0003675412421 0.5476000000000002 
150.0003675412421 0.5476000000000002 
151.0003675412421 0.5476000000000002 
152.0003675412421 0.5476000000000002 
153.0003675412421 0.5476000000000002 
154.0003675412421 0.5476000000000002 
155.0003675412421 0.5476000000000002 
156.0003675412421 0.5476000000000002 
157.0003675412421 0.5476000000000002 
158.0003675412421 0.5476000000000002 
159.0003675412421 0.5476000000000002 
160.0003675412421 0.5476000000000002 
161.0003675412421 0.5476000000000002 
162.0003675412421 0.5476000000000002 
#####################################################################
# End of data export. Simulation finished at: 2017-05-24T19:21+0000 #
#####################################################################
