#####################################################################
# Alchemist log file - simulation started at: 2017-05-20T12:23+0000 #
#####################################################################
# random = 1.0, targets = 1.0, density = 20.0, gridShift = 1.0, perturbation = 0.0, connfactor = 0.5
#
# The columns have the following meaning: 
# time se[Mean] 
0.0 NaN 
1.0000417374280275 NaN 
2.0000417374280275 1.0 
3.0000417374280275 0.9996440436639772 
4.0000417374280275 0.9996440436639772 
5.0000417374280275 0.9977456098718557 
6.0000417374280275 0.9981015662078785 
7.0000417374280275 0.9939487422876129 
8.000041737428027 0.9963217845277645 
9.000041737428027 0.9926435690555293 
10.000041737428027 0.9933554817275749 
11.000041737428027 0.9900332225913618 
12.000041737428027 0.985761746559089 
13.000041737428027 0.9819648789748455 
14.000041737428027 0.9767441860465121 
15.000041737428027 0.9767441860465121 
16.000041737428027 0.97437114380636 
17.000041737428027 0.9757949691504512 
18.000041737428027 0.9772187944945416 
19.000041737428027 0.9791172282866634 
20.000041737428027 0.985761746559089 
21.000041737428027 0.9867109634551496 
22.000041737428027 0.9909824394874227 
23.000041737428027 0.9928808732795444 
24.000041737428027 0.9957285239677265 
25.000041737428027 0.9971523493118178 
26.000041737428027 0.9995253915519696 
27.000041737428027 1.0 
28.000041737428027 1.0 
29.000041737428027 1.0 
30.000041737428027 1.0 
31.000041737428027 1.0 
32.00004173742803 1.0 
33.00004173742803 1.0 
34.00004173742803 1.0 
35.00004173742803 1.0 
36.00004173742803 1.0 
37.00004173742803 1.0 
38.00004173742803 1.0 
39.00004173742803 1.0 
40.00004173742803 1.0 
41.00004173742803 1.0 
42.00004173742803 1.0 
43.00004173742803 1.0 
44.00004173742803 1.0 
45.00004173742803 1.0 
46.00004173742803 1.0 
47.00004173742803 1.0 
48.00004173742803 1.0 
49.00004173742803 1.0 
50.00004173742803 1.0 
51.00004173742803 1.0 
52.00004173742803 1.0 
53.00004173742803 1.0 
54.00004173742803 1.0 
55.00004173742803 1.0 
56.00004173742803 1.0 
57.00004173742803 1.0 
58.00004173742803 1.0 
59.00004173742803 1.0 
60.00004173742803 1.0 
61.00004173742803 1.0 
62.00004173742803 1.0 
63.00004173742803 1.0 
64.00004173742803 1.0 
65.00004173742803 0.9996440436639772 
66.00004173742803 0.9985761746559089 
67.00004173742803 0.9975083056478404 
68.00004173742803 0.9966777408637875 
69.00004173742803 0.9938300901756052 
70.00004173742803 0.992406264831514 
71.00004173742803 0.9880161366872332 
72.00004173742803 0.9865923113431421 
73.00004173742803 0.9864736592311346 
74.00004173742803 0.986355007119127 
75.00004173742803 1.0060512577123872 
76.00004173742803 1.0441385856668253 
77.00004173742803 1.087683910773613 
78.00004173742803 1.1385856668248717 
79.00004173742803 1.1419079259610834 
80.00004173742803 1.2354057902230633 
81.00004173742803 1.1996915045087784 
82.00004173742803 1.2677978168011417 
83.00004173742803 1.2463217845277637 
84.00004173742803 1.2044375889890826 
85.00004173742803 1.2342192691029872 
86.00004173742803 1.203725676317037 
87.00004173742803 1.1960132890365434 
88.00004173742803 1.1563834836260107 
89.00004173742803 1.1413146654010446 
90.00004173742803 1.08234456573327 
91.00004173742803 1.071784527764595 
92.00004173742803 1.0174418604651168 
93.00004173742803 1.0493592785951595 
94.00004173742803 0.9880161366872321 
95.00004173742803 0.9753203607024188 
96.00004173742803 0.9323682961556725 
97.00004173742803 0.8992643569055545 
98.00004173742803 0.8181063122923565 
99.00004173742803 0.8277171333649753 
100.00004173742803 0.7622211675367844 
101.00004173742803 0.7299477930707138 
102.00004173742803 0.662909349786423 
103.00004173742803 0.650569530137633 
104.00004173742803 0.6162790697674478 
105.00004173742803 0.5649027052681543 
106.00004173742803 0.5415282392026629 
107.00004173742803 0.5141196013289064 
108.00004173742803 0.5234931181775075 
109.00004173742803 0.5175605125771269 
110.00004173742803 0.4889653535832916 
111.00004173742803 0.4851684859990477 
112.00004173742803 0.4454200284764995 
113.00004173742803 0.4771001423825302 
114.00004173742803 0.4827954437588963 
115.00004173742803 0.5808020882771678 
116.00004173742803 0.5836497389653513 
117.00004173742803 0.6153298528713809 
118.00004173742803 0.5444945420028513 
119.00004173742803 0.7543901281442819 
120.00004173742803 0.6688419553868075 
121.00004173742803 0.5380873279544393 
122.00004173742803 0.6256525866160398 
123.00004173742803 0.554579971523496 
124.00004173742803 0.4373516848599928 
125.00004173742803 0.46796392975794965 
126.00004173742803 0.451945894636923 
127.00004173742803 0.3616516373991433 
128.00004173742803 0.30659705742762405 
129.00004173742803 0.3074276222116771 
130.00004173742803 0.43177503559563457 
131.00004173742803 0.3012577123872808 
132.00004173742803 0.3179876601803499 
133.00004173742803 0.35156620787849874 
134.00004173742803 0.34978642619838385 
135.00004173742803 0.1905552918841922 
136.00004173742803 0.2808495491219775 
137.00004173742803 0.2745609871855733 
138.00004173742803 0.25071191267204573 
139.00004173742803 0.1923350735643079 
140.00004173742803 0.21855719031798823 
141.00004173742803 0.22413383958234218 
142.00004173742803 0.1887755102040788 
143.00004173742803 0.18818224964404032 
144.00004173742803 0.12244897959183627 
145.00004173742803 0.15614617940199685 
146.00004173742803 0.21428571428571216 
147.00004173742803 0.20491219743710942 
148.00004173742803 0.21440436639771937 
149.00004173742803 0.1753678215472249 
150.00004173742803 0.2292358803986678 
151.00004173742803 0.11070242050308267 
152.00004173742803 0.16836734693877756 
153.00004173742803 0.14202657807309205 
154.00004173742803 0.06905552918842069 
155.00004173742803 0.1601803512102505 
156.00004173742803 0.0999050783103906 
157.00004173742803 0.09646416706216983 
158.00004173742803 0.12897484575225518 
159.00004173742803 0.12470336971998094 
160.00004173742803 0.15721404841005895 
161.00004173742803 0.004271476032273436 
162.00004173742803 0.0021357380161367134 
163.00004173742803 0.005339345040341704 
164.00004173742803 0.0032036070242049343 
165.00004173742803 0.0032036070242049343 
166.00004173742803 0.004271476032273385 
167.00004173742803 0.004271476032273382 
168.00004173742803 0.005339345040341668 
169.00004173742803 0.0 
170.00004173742803 0.0 
171.00004173742803 0.0 
172.00004173742803 0.0 
173.00004173742803 0.0 
174.00004173742803 0.0 
175.00004173742803 0.0 
176.00004173742803 0.0 
177.00004173742803 0.0 
178.00004173742803 0.0 
179.00004173742803 0.0 
180.00004173742803 0.0 
181.00004173742803 0.0 
182.00004173742803 0.0 
183.00004173742803 0.0 
184.00004173742803 0.0 
185.00004173742803 0.0 
186.00004173742803 0.0 
187.00004173742803 0.0 
188.00004173742803 0.0 
189.00004173742803 0.0 
190.00004173742803 0.0 
191.00004173742803 0.0 
192.00004173742803 0.0 
193.00004173742803 0.0 
194.00004173742803 0.0 
195.00004173742803 0.0 
196.00004173742803 0.0 
197.00004173742803 0.0 
198.00004173742803 0.0 
199.00004173742803 0.0 
200.00004173742803 0.0 
201.00004173742803 0.0 
202.00004173742803 0.0 
203.00004173742803 0.0 
204.00004173742803 0.0 
205.00004173742803 0.0 
206.00004173742803 0.0 
207.00004173742803 0.0 
208.00004173742803 0.0 
209.00004173742803 0.0 
210.00004173742803 0.0 
211.00004173742803 0.0 
212.00004173742803 0.0 
213.00004173742803 0.0 
214.00004173742803 0.0 
215.00004173742803 0.0 
216.00004173742803 0.0 
217.00004173742803 0.0 
218.00004173742803 0.0 
219.00004173742803 0.0 
220.00004173742803 0.0 
221.00004173742803 0.0 
222.00004173742803 0.0 
223.00004173742803 0.0 
224.00004173742803 0.0 
225.00004173742803 0.0 
226.00004173742803 0.0 
227.00004173742803 0.0 
228.00004173742803 0.0 
229.00004173742803 0.0 
230.00004173742803 0.0 
231.00004173742803 0.0 
232.00004173742803 0.0 
233.00004173742803 0.0 
234.00004173742803 0.0 
235.00004173742803 0.0 
236.00004173742803 0.0 
237.00004173742803 0.0 
238.00004173742803 0.0 
239.00004173742803 0.0 
240.00004173742803 0.0 
241.00004173742803 0.0 
242.00004173742803 0.0 
243.00004173742803 0.0 
244.00004173742803 0.0 
245.00004173742803 0.0 
246.00004173742803 0.0 
247.00004173742803 0.0 
248.00004173742803 0.0 
249.00004173742803 0.0 
250.00004173742803 0.0 
251.00004173742803 0.0 
252.00004173742803 0.0 
253.00004173742803 0.0 
254.00004173742803 0.0 
255.00004173742803 0.0 
256.00004173742803 0.0 
257.00004173742803 0.0 
258.00004173742803 0.0 
259.00004173742803 0.0 
260.00004173742803 0.0 
261.00004173742803 0.0 
262.00004173742803 0.0 
263.00004173742803 0.0 
264.00004173742803 0.0 
265.00004173742803 0.0 
266.00004173742803 0.0 
267.00004173742803 0.0 
268.00004173742803 0.0 
269.00004173742803 0.0 
270.00004173742803 0.0 
#####################################################################
# End of data export. Simulation finished at: 2017-05-20T12:51+0000 #
#####################################################################
