0.000000000000000000e+00 nan
1.000173092737573599e+00 1.298028938599025787e-02
2.000346185475147198e+00 1.534986780345920288e+00
3.000519278212721463e+00 1.795150309342624206e+00
4.000692370950294396e+00 2.263996343961300006e+00
5.000865463687872214e+00 3.285015466545920138e+00
6.001038556425442927e+00 3.996230206570359211e+00
7.001211649163021633e+00 5.097760993156122744e+00
8.001384741900588793e+00 5.083934377669470983e+00
9.001557834638164834e+00 4.973537169098528388e+00
1.000173092737574443e+01 4.345603854048334824e+00
1.100190402011332225e+01 3.836670452220927174e+00
1.200207711285088585e+01 3.740914680227865663e+00
1.300225020558846190e+01 3.416372523601903577e+00
1.400242329832604327e+01 3.300180815597283601e+00
1.500259639106360687e+01 3.231551353128511828e+00
1.600276948380117759e+01 2.700852366235055424e+00
1.700294257653876784e+01 2.882573004264056937e+00
1.800311566927632967e+01 2.321351520121293088e+00
1.900328876201389505e+01 2.566583742354664466e+00
2.000346185475148886e+01 2.279357955822891579e+00
2.100363494748905069e+01 2.400032853699622049e+00
2.200380804022664449e+01 2.110353067350599243e+00
2.300398113296420988e+01 2.541985352433583145e+00
2.400415422570177171e+01 2.547973684842201880e+00
2.500432731843933709e+01 2.041310497754373010e+00
2.600450041117692379e+01 1.325584811685668107e+00
2.700467350391449983e+01 1.176301246289017888e+00
2.800484659665208653e+01 1.151137717497735302e+00
2.900501968938965192e+01 6.494789689170162861e-01
3.000519278212721375e+01 3.509976186269426202e-01
3.100536587486479689e+01 2.096674253976574254e-01
3.200553896760235517e+01 1.583939066941116580e-01
3.300571206033995253e+01 2.061864138652640677e-01
3.400588515307753568e+01 2.583256942441167769e-01
3.500605824581509040e+01 2.513587826543920989e-01
3.600623133855265934e+01 2.848735462334616719e-01
3.700640443129023538e+01 2.158028408317423374e-01
3.800657752402779010e+01 6.050431833642599261e-02
3.900675061676540167e+01 4.324892694805747978e-02
4.000692370950297772e+01 4.324892694805747978e-02
4.100709680224053244e+01 4.324892694805747978e-02
4.200726989497810138e+01 4.324892694805747978e-02
4.300744298771567742e+01 4.324892694805747978e-02
4.400761608045328899e+01 4.324892694805747978e-02
4.500778917319084371e+01 4.324892694805747978e-02
4.600796226592841975e+01 4.324892694805747978e-02
4.700813535866598158e+01 4.324892694805747978e-02
4.800830845140354342e+01 4.324892694805747978e-02
4.900848154414111946e+01 4.324892694805747978e-02
5.000865463687867418e+01 4.324892694805747978e-02
5.100882772961629286e+01 4.324892694805747978e-02
5.200900082235384758e+01 4.324892694805747978e-02
