#####################################################################
# Alchemist log file - simulation started at: 2017-05-25T10:18+0000 #
#####################################################################
# random = 8.0, targets = 3.1622776601683795, density = 0.04, gridShift = 0.0, perturbation = 0.5, connfactor = 1.0
#
# The columns have the following meaning: 
# time se[Mean] 
0.0 NaN 
1.0490773234798803 NaN 
2.0490773234798803 1.067105206128157 
3.0490773234798803 1.067105206128157 
4.04907732347988 1.018768287527076 
5.04907732347988 0.9704313689259952 
6.04907732347988 0.7879023255956763 
7.04907732347988 0.9428363460228667 
8.04907732347988 0.930848035592662 
9.04907732347988 0.7793496623335414 
10.04907732347988 0.9261696793562002 
11.04907732347988 0.795376867533105 
12.04907732347988 0.8415941185389257 
13.04907732347988 0.7352713296189592 
14.04907732347988 0.7153517706588719 
15.04907732347988 0.6171609114821751 
16.049077323479878 0.5478631284426785 
17.049077323479878 0.5867331278239275 
18.049077323479878 0.4530159972142196 
19.049077323479878 0.455592732590272 
20.049077323479878 0.4675444679663244 
21.049077323479878 0.4675444679663244 
#####################################################################
# End of data export. Simulation finished at: 2017-05-25T10:18+0000 #
#####################################################################
