#####################################################################
# Alchemist log file - simulation started at: 2017-05-25T07:55+0000 #
#####################################################################
# random = 8.0, targets = 1.0, density = 0.3174802103936399, gridShift = 1.0, perturbation = 0.5, connfactor = 0.75
#
# The columns have the following meaning: 
# time se[Mean] 
0.0 NaN 
1.0490773234798803 NaN 
2.0490773234798803 1.0 
3.0490773234798803 0.9900793650793651 
4.04907732347988 0.9246031746031746 
5.04907732347988 0.8174603174603176 
6.04907732347988 0.6964285714285714 
7.04907732347988 0.5535714285714286 
8.04907732347988 0.46825396825396814 
9.04907732347988 0.3809523809523808 
10.04907732347988 0.2698412698412699 
11.04907732347988 0.2539682539682539 
12.04907732347988 0.13293650793650788 
13.04907732347988 0.11111111111111106 
14.04907732347988 0.12499999999999993 
15.04907732347988 0.16071428571428567 
16.049077323479878 0.08928571428571418 
17.049077323479878 0.03571428571428575 
18.049077323479878 0.0 
19.049077323479878 0.0 
20.049077323479878 0.0 
21.049077323479878 0.0 
22.049077323479878 0.0 
23.049077323479878 0.0 
24.049077323479878 0.0 
25.049077323479878 0.0 
26.049077323479878 0.0 
27.049077323479878 0.0 
#####################################################################
# End of data export. Simulation finished at: 2017-05-25T07:55+0000 #
#####################################################################
