#####################################################################
# Alchemist log file - simulation started at: 2017-05-26T13:05+0000 #
#####################################################################
# random = 9.0, targets = 100.0, density = 2.519842099789746, gridShift = 0.0, perturbation = 0.5, connfactor = 0.5
#
# The columns have the following meaning: 
# time se[Mean] 
0.0 NaN 
1.0015323036356916 NaN 
2.001532303635692 1.001113321799308 
3.001532303635692 1.001477864282968 
4.001532303635692 0.9999271049596309 
5.001532303635692 0.9960790561322568 
6.001532303635692 0.9899108996539793 
7.001532303635692 0.9808133314109958 
8.001532303635692 0.9762613417916186 
9.001532303635692 0.9713079777008843 
10.001532303635692 0.9674619088811995 
11.001532303635692 0.9655391676278354 
12.001532303635692 0.9643282679738562 
13.001532303635692 0.9647142541330258 
14.001532303635692 0.9639070934256055 
15.001532303635692 0.958899740484429 
16.001532303635692 0.9572163206459054 
17.001532303635692 0.951182583621684 
18.001532303635692 0.9399640811226452 
19.001532303635692 0.9305468665897731 
20.001532303635692 0.9224563629373318 
21.001532303635692 0.9021270857362552 
22.001532303635692 0.8825178585159554 
23.001532303635692 0.876172385620915 
24.001532303635692 0.8660390907343329 
25.001532303635692 0.8500814302191465 
26.001532303635692 0.8466536524413687 
27.001532303635692 0.8507423298731257 
28.001532303635692 0.842418031526336 
29.001532303635692 0.8405313629373317 
30.001532303635692 0.8435353325643984 
31.001532303635692 0.8420573337178009 
32.00153230363569 0.8352936274509805 
33.00153230363569 0.8382351787773933 
34.00153230363569 0.8324679546328335 
35.00153230363569 0.81974261822376 
36.00153230363569 0.821659265667051 
37.00153230363569 0.8127879373317954 
38.00153230363569 0.8081327782583622 
39.00153230363569 0.8008517132833526 
40.00153230363569 0.7991395040369089 
41.00153230363569 0.797165676662822 
42.00153230363569 0.7875178200692041 
43.00153230363569 0.7742409626105344 
44.00153230363569 0.7598581266820454 
45.00153230363569 0.7486057045367167 
46.00153230363569 0.7299276816608997 
47.00153230363569 0.7000744833717801 
48.00153230363569 0.685854200307574 
49.00153230363569 0.6689425821799309 
50.00153230363569 0.6468617983467898 
51.00153230363569 0.623368394367551 
52.00153230363569 0.6043899389657824 
53.00153230363569 0.5827899437716264 
54.00153230363569 0.5551635116301423 
55.00153230363569 0.5607641844482892 
56.00153230363569 0.5408272130911188 
57.00153230363569 0.53006639994233 
58.00153230363569 0.5360580906382161 
59.00153230363569 0.5233790345059594 
60.00153230363569 0.5153225730488274 
61.00153230363569 0.5252769151287967 
62.00153230363569 0.506320648308343 
63.00153230363569 0.5172281334102269 
64.00153230363568 0.517716493656286 
65.00153230363568 0.5567229623221839 
66.00153230363568 0.6113262927720108 
67.00153230363568 0.615500718473664 
68.00153230363568 0.6516721477316417 
69.00153230363568 0.7444804570357556 
70.00153230363568 0.7467721837754709 
71.00153230363568 0.7158649678008461 
72.00153230363568 0.7086035226835834 
73.00153230363568 0.7453538687043447 
74.00153230363568 0.6956505070165322 
75.00153230363568 0.6501084462706652 
76.00153230363568 0.7616170511341792 
77.00153230363568 0.6962125144175318 
78.00153230363568 0.730990825643983 
79.00153230363568 0.7301213787966168 
80.00153230363568 0.7178051831026532 
81.00153230363568 0.6997927527873894 
82.00153230363568 0.620811024605921 
83.00153230363568 0.548317118415994 
84.00153230363568 0.5500611591695503 
85.00153230363568 0.5270991445597849 
86.00153230363568 0.5150034025374856 
87.00153230363568 0.5159579392541331 
88.00153230363568 0.50405153787005 
89.00153230363568 0.5039857939254133 
90.00153230363568 0.5040264994232987 
91.00153230363568 0.5041000961168781 
92.00153230363568 0.5040754998077662 
93.00153230363568 0.5040918396770473 
94.00153230363568 0.5041000192233757 
95.00153230363568 0.5040918204536716 
96.00153230363568 0.5041 
97.00153230363568 0.5041 
98.00153230363568 0.5041 
99.00153230363568 0.5041 
100.00153230363568 0.5041 
101.00153230363568 0.5041 
102.00153230363568 0.5041 
103.00153230363568 0.5041 
104.00153230363568 0.5041 
105.00153230363568 0.5041 
106.00153230363568 0.5041 
107.00153230363568 0.5041 
108.00153230363568 0.5041 
109.00153230363568 0.5041 
110.00153230363568 0.5041 
111.00153230363568 0.5041 
112.00153230363568 0.5041 
113.00153230363568 0.5041 
114.00153230363568 0.5041 
115.00153230363568 0.5041 
116.00153230363568 0.5041 
117.00153230363568 0.5041 
118.00153230363568 0.5041 
119.00153230363568 0.5041 
120.00153230363568 0.5041 
121.00153230363568 0.5041 
122.00153230363568 0.5041 
123.00153230363568 0.5041 
124.00153230363568 0.5041 
125.00153230363568 0.5041 
126.00153230363568 0.5041 
127.00153230363568 0.5041 
128.00153230363568 0.5041 
129.00153230363568 0.5041 
130.00153230363568 0.5041 
131.00153230363568 0.5041 
132.00153230363568 0.5041 
133.00153230363568 0.5041 
#####################################################################
# End of data export. Simulation finished at: 2017-05-26T13:07+0000 #
#####################################################################
