#####################################################################
# Alchemist log file - simulation started at: 2017-05-25T02:12+0000 #
#####################################################################
# random = 7.0, targets = 31.622776601683793, density = 20.0, gridShift = 1.0, perturbation = 0.5, connfactor = 1.0
#
# The columns have the following meaning: 
# time se[Mean] 
0.0 NaN 
1.0008200817491508 NaN 
2.0008200817491506 1.001995412308885 
3.0008200817491506 1.0036804523252523 
4.000820081749151 1.0047790305699271 
5.000820081749151 1.0043965317717982 
6.000820081749151 1.0004046958885189 
7.000820081749151 0.9959861010709007 
8.00082008174915 0.9958694482954842 
9.00082008174915 0.993626577263447 
10.00082008174915 0.9934442875480549 
11.00082008174915 0.9909867195714179 
12.00082008174915 0.9891819674039138 
13.00082008174915 0.9866553002178355 
14.00082008174915 0.9834964947696643 
15.00082008174915 0.9811447780052767 
16.00082008174915 0.978008809747062 
17.00082008174915 0.9765169967986089 
18.00082008174915 0.9742031421862761 
19.00082008174915 0.9720701659440636 
20.00082008174915 0.9688527366864713 
21.00082008174915 0.9668370557884542 
22.00082008174915 0.9634958170126342 
23.00082008174915 0.9615287208128797 
24.00082008174915 0.9587834448558579 
25.00082008174915 0.9555128536552234 
26.00082008174915 0.9527963633154359 
27.00082008174915 0.9501540995377983 
28.00082008174915 0.9470790877925969 
29.00082008174915 0.9442978781847785 
30.00082008174915 0.942320494848308 
31.00082008174915 0.9379429475198111 
32.000820081749154 0.9359005981208707 
33.000820081749154 0.9331853419361311 
34.000820081749154 0.9294551820439072 
35.000820081749154 0.9275202892626553 
36.000820081749154 0.9256853178106097 
37.000820081749154 0.9237670496000324 
38.000820081749154 0.9237565261159335 
39.000820081749154 0.9196636296009914 
40.000820081749154 0.9202548941311565 
41.000820081749154 0.9165189637968004 
42.000820081749154 0.9143523260502098 
43.000820081749154 0.9137857932466575 
44.000820081749154 0.9102238067256533 
45.000820081749154 0.9088451044782474 
46.000820081749154 0.9072211187964094 
47.000820081749154 0.9076884330945219 
48.000820081749154 0.9055983838722632 
49.000820081749154 0.9057383358606319 
50.000820081749154 0.9034458940922673 
51.000820081749154 0.9003030138735965 
52.000820081749154 0.9001300708507887 
53.000820081749154 0.8963708985050945 
54.000820081749154 0.8954975549914467 
55.000820081749154 0.8909550214363772 
56.000820081749154 0.8898887140194849 
57.000820081749154 0.8894121698454105 
58.000820081749154 0.8838966753444164 
59.000820081749154 0.8839164329687572 
60.000820081749154 0.8786100851023256 
61.000820081749154 0.878299447619099 
62.000820081749154 0.878703100367062 
63.000820081749154 0.8725511435765219 
64.00082008174915 0.8733931224187984 
65.00082008174915 0.8715126826203892 
66.00082008174915 0.8696250443335294 
67.00082008174915 0.8710093841468194 
68.00082008174915 0.8672655847766022 
69.00082008174915 0.8647371684318406 
70.00082008174915 0.8659447560009785 
71.00082008174915 0.8636415208859599 
72.00082008174915 0.8619358886919064 
73.00082008174915 0.8625111013982223 
74.00082008174915 0.8599790770047125 
75.00082008174915 0.8585915725446853 
76.00082008174915 0.8586329374667729 
77.00082008174915 0.857679537981512 
78.00082008174915 0.8529168830472617 
79.00082008174915 0.8536062108959376 
80.00082008174915 0.853561933440354 
81.00082008174915 0.846204527483269 
82.00082008174915 0.8500506642310403 
83.00082008174915 0.8435110615198467 
84.00082008174915 0.8446055906581037 
85.00082008174915 0.846653184606753 
86.00082008174915 0.8437115470562017 
87.00082008174915 0.8464475693531366 
88.00082008174915 0.8433567766369265 
89.00082008174915 0.843755099958563 
90.00082008174915 0.8472463179394405 
91.00082008174915 0.8436805454884813 
92.00082008174915 0.8444074453306604 
93.00082008174915 0.8449404491208897 
94.00082008174915 0.8444377706818612 
95.00082008174915 0.846567598752947 
96.00082008174915 0.8508136247754925 
97.00082008174915 0.8486109302223233 
98.00082008174915 0.8503608757230552 
99.00082008174915 0.8511933747640862 
100.00082008174915 0.8514869294384209 
101.00082008174915 0.8500543474037072 
102.00082008174915 0.8522410183147217 
103.00082008174915 0.8574820328385745 
104.00082008174915 0.8496927684859721 
105.00082008174915 0.8892778186393278 
106.00082008174915 0.8931118923237454 
107.00082008174915 0.8687860464678805 
108.00082008174915 0.9310288171745642 
109.00082008174915 0.8994315594106396 
110.00082008174915 0.9442818441803399 
111.00082008174915 0.9285626135239718 
112.00082008174915 0.9040209018951584 
113.00082008174915 0.9649096267636977 
114.00082008174915 0.9260189941188856 
115.00082008174915 0.9391502775929933 
116.00082008174915 0.9480384579057686 
117.00082008174915 0.9032557047606644 
118.00082008174915 0.9458606958302865 
119.00082008174915 0.9662454910928366 
120.00082008174915 0.9327218458968695 
121.00082008174915 0.956507478100229 
122.00082008174915 0.9641221270700419 
123.00082008174915 0.9325107393003158 
124.00082008174915 0.9704195785942463 
125.00082008174915 0.975529926277508 
126.00082008174915 0.9467579736639135 
127.00082008174915 0.9588011392204212 
128.00082008174917 0.9892734614687264 
129.00082008174917 0.9611135030251856 
130.00082008174917 0.9672889620153743 
131.00082008174917 1.015815929528457 
132.00082008174917 0.9670264476029575 
133.00082008174917 1.0223995194351683 
134.00082008174917 1.0160940475626532 
135.00082008174917 0.9911166146513846 
136.00082008174917 0.9991797071061967 
137.00082008174917 0.9818438682835937 
138.00082008174917 1.0063662512915053 
139.00082008174917 1.0067150858891667 
140.00082008174917 1.0026055321099974 
141.00082008174917 1.016582741979438 
142.00082008174917 0.9948511367850383 
143.00082008174917 1.022865993221184 
144.00082008174917 1.0281908945440201 
145.00082008174917 1.0280548484747083 
146.00082008174917 0.9808623933283155 
147.00082008174917 0.9963586306743542 
148.00082008174917 0.9899254344931572 
149.00082008174917 1.040165986750791 
150.00082008174917 1.0234629845500798 
151.00082008174917 1.0019080402731384 
152.00082008174917 0.9798328070453911 
153.00082008174917 1.0255031715000793 
154.00082008174917 1.0066119549990333 
155.00082008174917 0.9784389018076949 
156.00082008174917 0.9814850482255599 
157.00082008174917 1.0821394377919933 
158.00082008174917 0.9611909273644412 
159.00082008174917 1.3410972077860035 
160.00082008174917 1.24712881662281 
161.00082008174917 1.1604690206449595 
162.00082008174917 1.6223960514681846 
163.00082008174917 1.346843849015353 
164.00082008174917 1.6838471159986388 
165.00082008174917 1.5135825382714203 
166.00082008174917 1.290602781514721 
167.00082008174917 1.7499223256939391 
168.00082008174917 1.3722809592243457 
169.00082008174917 1.5189464798221404 
170.00082008174917 1.5517461427897863 
171.00082008174917 1.215319950960323 
172.00082008174917 1.4965287599595416 
173.00082008174917 1.6538638711686027 
174.00082008174917 1.385130193026296 
175.00082008174917 1.599653513480325 
176.00082008174917 1.6806484912244597 
177.00082008174917 1.4253311962270285 
178.00082008174917 1.698745644452637 
179.00082008174917 1.7352903669419373 
180.00082008174917 1.5213941904443729 
181.00082008174917 1.598314799045532 
182.00082008174917 1.806193105372566 
183.00082008174917 1.6031448424740469 
184.00082008174917 1.6384384807200132 
185.00082008174917 2.0123027040806956 
186.00082008174917 1.6288390949209512 
187.00082008174917 2.015331939449712 
188.00082008174917 1.9588444632022162 
189.00082008174917 1.7957434711596874 
190.00082008174917 1.8781132836516057 
191.00082008174917 1.6816521361064654 
192.00082008174917 1.9707513179933371 
193.00082008174917 1.9190139191412166 
194.00082008174917 2.3681846447652077 
195.00082008174917 2.6001231862572323 
196.00082008174917 2.1203356286014037 
197.00082008174917 3.169741501533172 
198.00082008174917 2.8641478129720057 
199.00082008174917 3.445266205109189 
200.00082008174917 2.9183029067590702 
201.00082008174917 2.816011783017906 
202.00082008174917 3.5750484635038298 
203.00082008174917 3.5026566756971538 
204.00082008174917 3.664862030899872 
205.00082008174917 3.612629136907751 
206.00082008174917 3.1550916262887068 
207.00082008174917 4.208347661182536 
208.00082008174917 4.150255394479603 
209.00082008174917 3.9258690361866604 
210.00082008174917 4.221135581704299 
211.00082008174917 5.007154850715795 
212.00082008174917 4.059464665917809 
213.00082008174917 5.263751884544824 
214.00082008174917 4.671435656895018 
215.00082008174917 4.935824998227702 
216.00082008174917 5.220645217207993 
217.00082008174917 5.411547870560871 
218.00082008174917 4.9104523022657744 
219.00082008174917 4.838546648086127 
220.00082008174917 5.391316034371349 
221.00082008174917 4.566616250245934 
222.00082008174917 4.786216599375862 
223.00082008174917 5.21475077371089 
224.00082008174917 4.451404036103318 
225.00082008174917 4.730288019556839 
226.00082008174917 4.235504282682629 
227.00082008174917 4.633332464525481 
228.00082008174917 4.541500412975363 
229.00082008174917 4.963107217252867 
230.00082008174917 5.055744711660393 
231.00082008174917 4.696544671530207 
232.00082008174917 5.493343717770588 
233.00082008174917 5.383332362209567 
234.00082008174917 5.487468070959904 
235.00082008174917 4.75768006919084 
236.00082008174917 4.983600249150164 
237.00082008174917 5.136971612641384 
238.00082008174917 5.560451686225721 
239.00082008174917 5.566278771690659 
240.00082008174917 5.301325653045971 
241.00082008174917 4.96057383969619 
242.00082008174917 5.822869277947731 
243.00082008174917 5.3210389804275335 
244.00082008174917 5.182968468097954 
245.00082008174917 5.4818190573572 
246.00082008174917 6.078121786969905 
247.00082008174917 5.069210140102858 
248.00082008174917 6.610893578771732 
249.00082008174917 4.744086755865107 
250.00082008174917 6.604937050078957 
251.00082008174917 6.569533723529532 
252.00082008174917 5.942400855635723 
253.00082008174917 6.093576991346918 
254.00082008174917 5.433124567617691 
255.00082008174917 4.956695436085935 
256.00082008174917 4.74119501387321 
257.00082008174917 3.662990775296475 
258.00082008174917 4.709924526343166 
259.00082008174917 3.7812578349366834 
260.00082008174917 4.229444561899573 
261.00082008174917 3.0116689585822747 
262.00082008174917 3.9159168318651534 
263.00082008174917 3.5758229741793954 
264.00082008174917 3.869635645579752 
265.00082008174917 3.9697330468493304 
266.00082008174917 3.186824734804487 
267.00082008174917 3.2299053359155314 
268.00082008174917 3.1904661333619693 
269.00082008174917 2.2415336557734293 
270.00082008174917 2.4483120626963375 
271.00082008174917 2.1184616922923563 
272.00082008174917 2.3047667188982888 
273.00082008174917 1.7744402284064213 
274.00082008174917 1.709140850189282 
275.00082008174917 1.6041899857769004 
276.00082008174917 1.6080288047708649 
277.00082008174917 1.501751265100134 
278.00082008174917 1.2433643309364684 
279.00082008174917 1.3085572022915317 
280.00082008174917 1.1784960404280205 
281.00082008174917 0.9755109869616329 
282.00082008174917 0.8898904034482576 
283.00082008174917 0.7472564081057984 
284.00082008174917 0.8489349480125461 
285.00082008174917 0.6938358476926941 
286.00082008174917 0.5859348664553611 
287.00082008174917 0.6362145597091419 
288.00082008174917 0.4715112547309554 
289.00082008174917 0.4069922452560254 
290.00082008174917 0.37302871642305063 
291.00082008174917 0.30341295355432896 
292.00082008174917 0.2703447083126959 
293.00082008174917 0.2358568377175708 
294.00082008174917 0.19125614006757172 
295.00082008174917 0.16768996136825795 
296.00082008174917 0.14522345616219431 
297.00082008174917 0.12795902092512865 
298.00082008174917 0.15165070205657843 
299.00082008174917 0.15228228238014263 
300.00082008174917 0.13495149262757725 
301.00082008174917 0.1417521039082157 
302.00082008174917 0.14075670654307898 
303.00082008174917 0.12305413657168224 
304.00082008174917 0.11554500052169842 
305.00082008174917 0.1094292281979097 
306.00082008174917 0.12151412258637877 
307.00082008174917 0.10479549569704574 
308.00082008174917 0.09494499940802956 
309.00082008174917 0.09882066275784336 
310.00082008174917 0.08553925779256925 
311.00082008174917 0.08138124274159235 
312.00082008174917 0.07629367113895603 
313.00082008174917 0.07633722610224254 
314.00082008174917 0.06746719145556503 
315.00082008174917 0.06743289527580297 
316.00082008174917 0.06277643209409484 
317.00082008174917 0.06278273004784378 
318.00082008174917 0.05841593003803246 
319.00082008174917 0.058462263153172295 
320.00082008174917 0.05844215065636902 
321.00082008174917 0.058422176235281856 
322.00082008174917 0.05838139753181923 
323.00082008174917 0.05835799679004335 
324.00082008174917 0.058329060356698624 
325.00082008174917 0.058313956208744154 
326.00082008174917 0.05830022939189789 
327.00082008174917 0.05828252878454301 
328.00082008174917 0.058276274940265986 
329.00082008174917 0.058261170792311516 
330.00082008174917 0.058233875361435004 
331.00082008174917 0.058222586801173155 
332.00082008174917 0.05821625385548813 
333.00082008174917 0.058224866854941555 
334.00082008174917 0.05820260614004987 
335.00082008174917 0.05819147578260403 
336.00082008174917 0.058201307910349664 
337.00082008174917 0.058180345425158195 
338.00082008174917 0.05816685591253595 
339.00082008174917 0.05816068116966693 
340.00082008174917 0.058159462041374725 
341.00082008174917 0.05814955081222109 
342.00082008174917 0.05814101691417567 
343.00082008174917 0.05813606129959885 
344.00082008174917 0.058131184786430035 
345.00082008174917 0.05812257178697661 
346.00082008174917 0.0581189144021 
347.00082008174917 0.05811769527380779 
348.00082008174917 0.058114037888931186 
349.00082008174917 0.05811159963234678 
350.00082008174917 0.05811038050405457 
351.00082008174917 0.05810916137576237 
352.00082008174917 0.058107942247470165 
353.00082008174917 0.058106723119177965 
354.00082008174917 0.058106723119177965 
355.00082008174917 0.058106723119177965 
356.00082008174917 0.058106723119177965 
357.00082008174917 0.058106723119177965 
358.00082008174917 0.058106723119177965 
359.00082008174917 0.058106723119177965 
360.00082008174917 0.058106723119177965 
361.00082008174917 0.058106723119177965 
362.00082008174917 0.058106723119177965 
363.00082008174917 0.058106723119177965 
364.00082008174917 0.058106723119177965 
365.00082008174917 0.058106723119177965 
366.00082008174917 0.058106723119177965 
367.00082008174917 0.058106723119177965 
368.00082008174917 0.058106723119177965 
369.00082008174917 0.058106723119177965 
370.00082008174917 0.058106723119177965 
371.00082008174917 0.058106723119177965 
372.00082008174917 0.058106723119177965 
373.00082008174917 0.058106723119177965 
374.00082008174917 0.058106723119177965 
375.00082008174917 0.058106723119177965 
376.00082008174917 0.058106723119177965 
377.00082008174917 0.058106723119177965 
378.00082008174917 0.058106723119177965 
379.00082008174917 0.058106723119177965 
380.00082008174917 0.058106723119177965 
381.00082008174917 0.058106723119177965 
382.00082008174917 0.058106723119177965 
383.00082008174917 0.058106723119177965 
384.00082008174917 0.058106723119177965 
385.00082008174917 0.058106723119177965 
386.00082008174917 0.058106723119177965 
387.00082008174917 0.058106723119177965 
388.00082008174917 0.058106723119177965 
389.00082008174917 0.058106723119177965 
390.00082008174917 0.058106723119177965 
391.00082008174917 0.058106723119177965 
392.00082008174917 0.058106723119177965 
393.00082008174917 0.058106723119177965 
394.00082008174917 0.058106723119177965 
395.00082008174917 0.058106723119177965 
396.00082008174917 0.058106723119177965 
397.00082008174917 0.058106723119177965 
398.00082008174917 0.058106723119177965 
399.00082008174917 0.058106723119177965 
400.00082008174917 0.058106723119177965 
401.00082008174917 0.058106723119177965 
402.00082008174917 0.058106723119177965 
403.00082008174917 0.058106723119177965 
404.00082008174917 0.058106723119177965 
405.00082008174917 0.058106723119177965 
406.00082008174917 0.058106723119177965 
407.00082008174917 0.058106723119177965 
408.00082008174917 0.058106723119177965 
409.00082008174917 0.058106723119177965 
410.00082008174917 0.058106723119177965 
411.00082008174917 0.058106723119177965 
412.00082008174917 0.058106723119177965 
413.00082008174917 0.058106723119177965 
414.00082008174917 0.058106723119177965 
415.00082008174917 0.058106723119177965 
416.00082008174917 0.058106723119177965 
417.00082008174917 0.058106723119177965 
418.00082008174917 0.058106723119177965 
419.00082008174917 0.058106723119177965 
420.00082008174917 0.058106723119177965 
421.00082008174917 0.058106723119177965 
422.00082008174917 0.058106723119177965 
423.00082008174917 0.058106723119177965 
424.00082008174917 0.058106723119177965 
425.00082008174917 0.058106723119177965 
426.00082008174917 0.058106723119177965 
427.00082008174917 0.058106723119177965 
428.00082008174917 0.058106723119177965 
429.00082008174917 0.058106723119177965 
430.00082008174917 0.058106723119177965 
431.00082008174917 0.058106723119177965 
432.00082008174917 0.058106723119177965 
433.00082008174917 0.058106723119177965 
434.00082008174917 0.058106723119177965 
435.00082008174917 0.058106723119177965 
436.00082008174917 0.058106723119177965 
437.00082008174917 0.058106723119177965 
438.00082008174917 0.058106723119177965 
439.00082008174917 0.058106723119177965 
440.00082008174917 0.058106723119177965 
441.00082008174917 0.058106723119177965 
442.00082008174917 0.058106723119177965 
443.00082008174917 0.058106723119177965 
444.00082008174917 0.058106723119177965 
445.00082008174917 0.058106723119177965 
446.00082008174917 0.058106723119177965 
447.00082008174917 0.058106723119177965 
448.00082008174917 0.058106723119177965 
449.00082008174917 0.058106723119177965 
450.00082008174917 0.058106723119177965 
451.00082008174917 0.058106723119177965 
452.00082008174917 0.058106723119177965 
453.00082008174917 0.058106723119177965 
#####################################################################
# End of data export. Simulation finished at: 2017-05-25T02:55+0000 #
#####################################################################
