#####################################################################
# Alchemist log file - simulation started at: 2017-05-23T15:08+0000 #
#####################################################################
# random = 12.0, targets = 3.1622776601683795, density = 3.5589026259761294, gridShift = 0.0, perturbation = 0.5, connfactor = 2.0
#
# The columns have the following meaning: 
# time se[Mean] 
0.0 NaN 
1.0005590746559656 NaN 
2.000559074655966 1.0382916377715994 
3.000559074655966 1.0648382203992761 
4.000559074655966 1.105980642848995 
5.000559074655966 1.145285352590571 
6.000559074655966 1.1452577649118307 
7.000559074655966 1.1525137877561542 
8.000559074655966 1.1844537385128926 
9.000559074655966 1.2485060443888034 
10.000559074655966 1.3533347600898453 
11.000559074655966 1.4228718993578937 
12.000559074655966 1.6290721849119425 
13.000559074655966 1.8884818108172747 
14.000559074655966 1.9590850125412196 
15.000559074655966 2.4649840544926978 
16.000559074655968 2.8640679748517788 
17.000559074655968 3.0329896705249833 
18.000559074655968 2.8853317060851715 
19.000559074655968 3.0145947960511528 
20.000559074655968 3.5211943341864655 
21.000559074655968 3.1615671216872108 
22.000559074655968 2.7759647898564697 
23.000559074655968 2.9272733796460377 
24.000559074655968 2.5901803575986477 
25.000559074655968 2.5380873439155747 
26.000559074655968 2.4585283209536417 
27.000559074655968 2.5796608440595166 
28.000559074655968 2.4750958078849483 
29.000559074655968 2.4058787867722926 
30.000559074655968 2.4195538464380366 
31.000559074655968 2.5586768600298315 
32.00055907465597 2.731118230446135 
33.00055907465597 2.727349862317074 
34.00055907465597 3.4473409109336735 
35.00055907465597 4.607413135639742 
36.00055907465597 4.692609370310137 
37.00055907465597 7.0600734796123525 
38.00055907465597 10.19053547856179 
39.00055907465597 11.082068416387633 
40.00055907465597 14.169010119857276 
41.00055907465597 17.235406494339017 
42.00055907465597 21.511330208356718 
43.00055907465597 19.9629922262149 
44.00055907465597 20.13245189860582 
45.00055907465597 27.777167784446554 
46.00055907465597 26.676754300037683 
47.00055907465597 25.840653638036777 
48.00055907465597 30.012181082253903 
49.00055907465597 29.898964870709587 
50.00055907465597 31.1869156277091 
51.00055907465597 26.94752724321653 
52.00055907465597 30.558467571382963 
53.00055907465597 25.5336915349126 
54.00055907465597 25.49208156667682 
55.00055907465597 29.593497431632198 
56.00055907465597 23.997539811043843 
57.00055907465597 24.641837017956654 
58.00055907465597 28.73807033866716 
59.00055907465597 30.020285808825083 
60.00055907465597 25.177520724340226 
61.00055907465597 24.3831780921226 
62.00055907465597 22.45711481144935 
63.00055907465597 24.970777949117384 
64.00055907465597 24.451143605623116 
65.00055907465597 20.89938470645392 
66.00055907465597 26.004173330014975 
67.00055907465597 24.50946985738726 
68.00055907465597 25.12840495707007 
69.00055907465597 21.402459540839597 
70.00055907465597 22.81888374379231 
71.00055907465597 20.69015790031031 
72.00055907465597 19.212244147735206 
73.00055907465597 21.27649182193677 
74.00055907465597 16.540590666337653 
75.00055907465597 17.86587988934455 
76.00055907465597 18.62480032656218 
77.00055907465597 18.75836972766396 
78.00055907465597 14.43187076991387 
79.00055907465597 15.24138768340507 
80.00055907465597 13.519820991848214 
81.00055907465597 12.804433433652585 
82.00055907465597 12.78279089688997 
83.00055907465597 12.409701289274665 
84.00055907465597 12.442381103697448 
85.00055907465597 12.444227594418589 
86.00055907465597 12.45872101090884 
87.00055907465597 12.45964425626941 
88.00055907465597 12.45964425626941 
89.00055907465597 12.45964425626941 
90.00055907465597 12.45964425626941 
91.00055907465597 12.45964425626941 
92.00055907465597 12.45964425626941 
93.00055907465597 12.45964425626941 
94.00055907465597 12.45964425626941 
95.00055907465597 12.45964425626941 
96.00055907465597 12.45964425626941 
97.00055907465597 12.45964425626941 
98.00055907465597 12.45964425626941 
99.00055907465597 12.45964425626941 
100.00055907465597 12.45964425626941 
101.00055907465597 12.45964425626941 
102.00055907465597 12.45964425626941 
103.00055907465597 12.45964425626941 
104.00055907465597 12.45964425626941 
105.00055907465597 12.45964425626941 
106.00055907465597 12.45964425626941 
107.00055907465597 12.45964425626941 
108.00055907465597 12.45964425626941 
109.00055907465597 12.45964425626941 
110.00055907465597 12.45964425626941 
111.00055907465597 12.45964425626941 
112.00055907465597 12.45964425626941 
113.00055907465597 12.45964425626941 
114.00055907465597 12.45964425626941 
115.00055907465597 12.45964425626941 
116.00055907465597 12.45964425626941 
117.00055907465597 12.45964425626941 
118.00055907465597 12.45964425626941 
119.00055907465597 12.45964425626941 
120.00055907465597 12.45964425626941 
121.00055907465597 12.45964425626941 
122.00055907465597 12.45964425626941 
123.00055907465597 12.45964425626941 
124.00055907465597 12.45964425626941 
125.00055907465597 12.45964425626941 
126.00055907465597 12.45964425626941 
127.00055907465597 12.45964425626941 
128.00055907465597 12.45964425626941 
129.00055907465597 12.45964425626941 
#####################################################################
# End of data export. Simulation finished at: 2017-05-23T15:09+0000 #
#####################################################################
