#####################################################################
# Alchemist log file - simulation started at: 2017-05-24T14:38+0000 #
#####################################################################
# random = 15.0, targets = 3.1622776601683795, density = 0.11269076455391362, gridShift = 0.0, perturbation = 0.5, connfactor = 0.75
#
# The columns have the following meaning: 
# time se[Mean] 
0.0 NaN 
1.0284742536538987 NaN 
2.028474253653899 0.9787017787186529 
3.028474253653899 1.0136491106406735 
4.028474253653899 1.0739063678613698 
5.028474253653899 1.008596519616206 
6.028474253653899 0.7711232003960007 
7.028474253653899 0.7176612769790752 
8.028474253653899 0.5836847620672451 
9.028474253653899 0.43432825185979074 
10.028474253653899 0.5003982448032269 
11.028474253653899 0.4560357284800839 
12.028474253653899 0.4737549861712178 
13.028474253653899 0.4675444679663244 
14.028474253653899 0.4675444679663244 
15.028474253653899 0.4675444679663244 
16.028474253653897 0.4675444679663244 
17.028474253653897 0.4675444679663244 
18.028474253653897 0.4675444679663244 
#####################################################################
# End of data export. Simulation finished at: 2017-05-24T14:38+0000 #
#####################################################################
