0.000000000000000000e+00 nan
6.661338147750939243e-16 1.673957941816490991e-02
1.332267629550187849e-15 1.768464789983201779e-01
4.440892098500626162e-16 1.768421457573862710e-01
2.664535259100375697e-15 1.768230160027109144e-01
0.000000000000000000e+00 1.767773337816708201e-01
8.881784197001252323e-16 1.767247796990419617e-01
8.881784197001252323e-16 1.766339690124418826e-01
5.329070518200751394e-15 1.765917692818101126e-01
1.776356839400250465e-15 1.765019020480625145e-01
0.000000000000000000e+00 1.764128309256168814e-01
0.000000000000000000e+00 1.763169781758688603e-01
1.776356839400250465e-15 1.762062886355694469e-01
1.776356839400250465e-15 1.761037566271802246e-01
1.776356839400250465e-15 1.760143764542773936e-01
0.000000000000000000e+00 1.759406298265359658e-01
1.065814103640150279e-14 1.758516984004360184e-01
7.105427357601001859e-15 1.757743279543190207e-01
3.552713678800500929e-15 1.756821926560181435e-01
3.552713678800500929e-15 1.756240782721150417e-01
0.000000000000000000e+00 1.755402348550798575e-01
0.000000000000000000e+00 1.754501849517093037e-01
0.000000000000000000e+00 1.753745250859006510e-01
0.000000000000000000e+00 1.752879136012270855e-01
3.552713678800500929e-15 1.751456869408645478e-01
7.105427357601001859e-15 1.750274079065999577e-01
3.552713678800500929e-15 1.748574416701022538e-01
1.065814103640150279e-14 1.746917452071242716e-01
3.552713678800500929e-15 1.745593132943799308e-01
1.065814103640150279e-14 1.743883752916789431e-01
0.000000000000000000e+00 1.742864622845848310e-01
1.421085471520200372e-14 1.741158350651879905e-01
2.131628207280300558e-14 1.740024046429164972e-01
2.131628207280300558e-14 1.738625926015437140e-01
1.421085471520200372e-14 1.737761507605281308e-01
7.105427357601001859e-15 1.736440426201425469e-01
7.105427357601001859e-15 1.735460334541411298e-01
1.421085471520200372e-14 1.734251387212029372e-01
7.105427357601001859e-15 1.733310464433812648e-01
2.131628207280300558e-14 1.732968223860473500e-01
0.000000000000000000e+00 1.731902778056090275e-01
2.131628207280300558e-14 1.731539973428178614e-01
0.000000000000000000e+00 1.730239173326762470e-01
2.842170943040400743e-14 1.729652502698740824e-01
0.000000000000000000e+00 1.728967491652344535e-01
2.131628207280300558e-14 1.727301451203213101e-01
0.000000000000000000e+00 1.727248786851593998e-01
1.421085471520200372e-14 1.725810111657455070e-01
7.105427357601001859e-15 1.724985115997299812e-01
1.421085471520200372e-14 1.724714402908330835e-01
1.421085471520200372e-14 1.723749599605739757e-01
7.105427357601001859e-15 1.723551900064725639e-01
7.105427357601001859e-15 1.722873258539350805e-01
2.131628207280300558e-14 1.721996133676833018e-01
2.131628207280300558e-14 1.722089501172004433e-01
0.000000000000000000e+00 1.721156138871413055e-01
7.105427357601001859e-15 1.720152152585585625e-01
1.421085471520200372e-14 1.718589075076288053e-01
2.131628207280300558e-14 1.717284975272288516e-01
1.421085471520200372e-14 1.715643164338360727e-01
0.000000000000000000e+00 1.713466507852109688e-01
0.000000000000000000e+00 1.711220118443366189e-01
2.842170943040400743e-14 1.708879749127734660e-01
2.842170943040400743e-14 1.706753731187240497e-01
4.263256414560601115e-14 1.704026482169599399e-01
0.000000000000000000e+00 1.702337040996321493e-01
4.263256414560601115e-14 1.701485273054581804e-01
2.842170943040400743e-14 1.697947863384440814e-01
2.842170943040400743e-14 1.696497683907249310e-01
0.000000000000000000e+00 1.694347419654710085e-01
1.421085471520200372e-14 1.690452650792044764e-01
2.842170943040400743e-14 1.689675065715799118e-01
1.421085471520200372e-14 1.686849119054247559e-01
1.421085471520200372e-14 1.685111197709214248e-01
2.842170943040400743e-14 1.681992328681476412e-01
2.842170943040400743e-14 1.680660381679695281e-01
1.421085471520200372e-14 1.678166408934001208e-01
1.421085471520200372e-14 1.676151648442962272e-01
4.263256414560601115e-14 1.674535802623780267e-01
1.421085471520200372e-14 1.671755338703639349e-01
0.000000000000000000e+00 1.670271987917995860e-01
2.842170943040400743e-14 1.668233709917129881e-01
4.263256414560601115e-14 1.664773587002022215e-01
4.263256414560601115e-14 1.663950841695604477e-01
0.000000000000000000e+00 1.660589812975021284e-01
4.263256414560601115e-14 1.659225996770632705e-01
5.684341886080801487e-14 1.656964143890607977e-01
4.263256414560601115e-14 1.654059649956261535e-01
0.000000000000000000e+00 1.652834882946364881e-01
1.421085471520200372e-14 1.649840508635821712e-01
4.263256414560601115e-14 1.647845937770185398e-01
2.842170943040400743e-14 1.647098184285640254e-01
0.000000000000000000e+00 1.644258616743232704e-01
1.421085471520200372e-14 1.640788374158259344e-01
2.842170943040400743e-14 1.638497354741076939e-01
1.421085471520200372e-14 1.636054569921383262e-01
1.421085471520200372e-14 1.633004051385535393e-01
2.842170943040400743e-14 1.631041424704105236e-01
2.842170943040400743e-14 1.628224079461088325e-01
0.000000000000000000e+00 1.626520646293798111e-01
2.842170943040400743e-14 1.623026381143820862e-01
4.263256414560601115e-14 1.621999735282727007e-01
1.421085471520200372e-14 1.619781641585543164e-01
0.000000000000000000e+00 1.617498437780955645e-01
1.421085471520200372e-14 1.616742353454476144e-01
5.684341886080801487e-14 1.612526598336710693e-01
4.263256414560601115e-14 1.612419138614031022e-01
1.421085471520200372e-14 1.610339750969488615e-01
4.263256414560601115e-14 1.607581849662286511e-01
5.684341886080801487e-14 1.605372113111623589e-01
0.000000000000000000e+00 1.602944127771385452e-01
0.000000000000000000e+00 1.601512352348197499e-01
1.421085471520200372e-14 1.598815059274378003e-01
1.421085471520200372e-14 1.598003049292968381e-01
2.842170943040400743e-14 1.594749277968101620e-01
2.842170943040400743e-14 1.593721290850266814e-01
4.263256414560601115e-14 1.590825025669477810e-01
4.263256414560601115e-14 1.587718533515627972e-01
2.842170943040400743e-14 1.587936256082994047e-01
1.421085471520200372e-14 1.584726731773736241e-01
0.000000000000000000e+00 1.583686897081131306e-01
1.421085471520200372e-14 1.582309912071554470e-01
0.000000000000000000e+00 1.580065306715952855e-01
1.421085471520200372e-14 1.579033125223054668e-01
5.684341886080801487e-14 1.578411256186083578e-01
2.842170943040400743e-14 1.576924382854706930e-01
5.684341886080801487e-14 1.576067174806196625e-01
4.263256414560601115e-14 1.575807060960907058e-01
8.526512829121202230e-14 1.574769736942755738e-01
2.842170943040400743e-14 1.573940542711624313e-01
0.000000000000000000e+00 1.573110523609153599e-01
2.842170943040400743e-14 1.572409575051715303e-01
8.526512829121202230e-14 1.571894071410464000e-01
2.842170943040400743e-14 1.570782055266785882e-01
5.684341886080801487e-14 1.570940242104334472e-01
5.684341886080801487e-14 1.570740148916496548e-01
5.684341886080801487e-14 1.569992096118907887e-01
5.684341886080801487e-14 1.569911597121586011e-01
0.000000000000000000e+00 1.569705114660046308e-01
2.842170943040400743e-14 1.569287425483352760e-01
2.842170943040400743e-14 1.569369342338799156e-01
0.000000000000000000e+00 1.568739668202074333e-01
5.684341886080801487e-14 1.568960216513829997e-01
5.684341886080801487e-14 1.568577202485053890e-01
2.842170943040400743e-14 1.568540615248997794e-01
5.684341886080801487e-14 1.568733733075043379e-01
2.842170943040400743e-14 1.568620872421349066e-01
8.526512829121202230e-14 1.568711338502531971e-01
5.684341886080801487e-14 1.568771229162526926e-01
0.000000000000000000e+00 1.568712926975302235e-01
5.684341886080801487e-14 1.568687813180562884e-01
8.526512829121202230e-14 1.568637719029607747e-01
2.842170943040400743e-14 1.568616150023489086e-01
5.684341886080801487e-14 1.568574872097218131e-01
2.842170943040400743e-14 1.568550588608199625e-01
5.684341886080801487e-14 1.568559313145247713e-01
8.526512829121202230e-14 1.568541306911731270e-01
0.000000000000000000e+00 1.568541306911731270e-01
2.842170943040400743e-14 1.568538249158474007e-01
2.842170943040400743e-14 1.568538249158474007e-01
0.000000000000000000e+00 1.568538249158474007e-01
8.526512829121202230e-14 1.568538249158474007e-01
5.684341886080801487e-14 1.568538249158474007e-01
5.684341886080801487e-14 1.568538249158474007e-01
8.526512829121202230e-14 1.568538249158474007e-01
0.000000000000000000e+00 1.568538249158474007e-01
8.526512829121202230e-14 1.568538249158474007e-01
5.684341886080801487e-14 1.568538249158474007e-01
0.000000000000000000e+00 1.568538249158474007e-01
5.684341886080801487e-14 1.568538249158474007e-01
8.526512829121202230e-14 1.568538249158474007e-01
2.842170943040400743e-14 1.568538249158474007e-01
1.136868377216160297e-13 1.568538249158474007e-01
2.842170943040400743e-14 1.568538249158474007e-01
8.526512829121202230e-14 1.568538249158474007e-01
5.684341886080801487e-14 1.568538249158474007e-01
0.000000000000000000e+00 1.568538249158474007e-01
2.842170943040400743e-14 1.568538249158474007e-01
2.842170943040400743e-14 1.568538249158474007e-01
0.000000000000000000e+00 1.568538249158474007e-01
8.526512829121202230e-14 1.568538249158474007e-01
5.684341886080801487e-14 1.568538249158474007e-01
5.684341886080801487e-14 1.568538249158474007e-01
8.526512829121202230e-14 1.568538249158474007e-01
0.000000000000000000e+00 1.568538249158474007e-01
2.842170943040400743e-14 1.568538249158474007e-01
2.842170943040400743e-14 1.568538249158474007e-01
0.000000000000000000e+00 1.568538249158474007e-01
5.684341886080801487e-14 1.568538249158474007e-01
8.526512829121202230e-14 1.568538249158474007e-01
2.842170943040400743e-14 1.568538249158474007e-01
1.136868377216160297e-13 1.568538249158474007e-01
2.842170943040400743e-14 1.568538249158474007e-01
8.526512829121202230e-14 1.568538249158474007e-01
5.684341886080801487e-14 1.568538249158474007e-01
0.000000000000000000e+00 1.568538249158474007e-01
5.684341886080801487e-14 1.568538249158474007e-01
8.526512829121202230e-14 1.568538249158474007e-01
0.000000000000000000e+00 1.568538249158474007e-01
8.526512829121202230e-14 1.568538249158474007e-01
5.684341886080801487e-14 1.568538249158474007e-01
5.684341886080801487e-14 1.568538249158474007e-01
8.526512829121202230e-14 1.568538249158474007e-01
0.000000000000000000e+00 1.568538249158474007e-01
2.842170943040400743e-14 1.568538249158474007e-01
2.842170943040400743e-14 1.568538249158474007e-01
0.000000000000000000e+00 1.568538249158474007e-01
