#####################################################################
# Alchemist log file - simulation started at: 2017-05-23T07:42+0000 #
#####################################################################
# random = 5.0, targets = 3.1622776601683795, density = 0.2247883923996312, gridShift = 0.0, perturbation = 0.5, connfactor = 2.0
#
# The columns have the following meaning: 
# time se[Mean] 
0.0 NaN 
1.0628592424154633 NaN 
2.0628592424154633 1.3873047725163703 
3.0628592424154633 1.8547477895562943 
4.062859242415463 2.240359148612756 
5.062859242415463 2.703492367086696 
6.062859242415463 2.591434114997516 
7.062859242415463 2.8814335427289364 
8.062859242415463 2.4648199207335795 
9.062859242415463 2.8784833972286537 
10.062859242415463 4.671046058376073 
11.062859242415463 5.689569268820194 
12.062859242415463 5.268647692923463 
13.062859242415463 8.518961387308151 
14.062859242415463 8.215169280512901 
15.062859242415463 9.025462867207862 
16.062859242415463 12.412849010559208 
17.062859242415463 8.555897401493857 
18.062859242415463 6.4230204410238905 
19.062859242415463 6.83940263504715 
20.062859242415463 5.379252501307807 
21.062859242415463 5.153392653806138 
22.062859242415463 5.75435689243206 
23.062859242415463 5.788938990544107 
24.062859242415463 5.9800502272613585 
25.062859242415463 6.127723167252443 
26.062859242415463 6.626306673167443 
27.062859242415463 6.563744765656859 
28.062859242415463 6.355160740982663 
29.062859242415463 6.678996101363058 
30.062859242415463 6.618320562056333 
31.062859242415463 6.550648803777152 
32.06285924241546 6.639951888890135 
33.06285924241546 6.66227766016838 
34.06285924241546 6.66227766016838 
35.06285924241546 6.66227766016838 
36.06285924241546 6.66227766016838 
37.06285924241546 6.66227766016838 
38.06285924241546 6.66227766016838 
39.06285924241546 6.66227766016838 
40.06285924241546 6.66227766016838 
41.06285924241546 6.66227766016838 
#####################################################################
# End of data export. Simulation finished at: 2017-05-23T07:42+0000 #
#####################################################################
