0.000000000000000000e+00 nan
1.000032392378892299e+00 4.152780826831045484e-03
2.000064784757784597e+00 1.492183650786078175e+00
3.000097177136678894e+00 1.676332806440793854e+00
4.000129569515569194e+00 2.168772317399549010e+00
5.000161961894463047e+00 2.808455790766498428e+00
6.000194354273357789e+00 3.662911101752332588e+00
7.000226746652248089e+00 3.952401824486712290e+00
8.000259139031138389e+00 3.715636558777664522e+00
9.000291531410029577e+00 3.339767333991858322e+00
1.000032392378892609e+01 2.382408408625754870e+00
1.100035631616782261e+01 1.794344952286007322e+00
1.200038870854671558e+01 1.395010834654287102e+00
1.300042110092559966e+01 1.348865769327678432e+00
1.400045349330449618e+01 9.831151660170424078e-01
1.500048588568338204e+01 6.810208201542427009e-01
1.600051827806227678e+01 8.621989015894072628e-01
1.700055067044116086e+01 5.211651650620047205e-01
1.800058306282005915e+01 5.730702415655497539e-01
1.900061545519895745e+01 3.486734711218040239e-01
2.000064784757785219e+01 3.051272683724700618e-01
2.100068023995674693e+01 2.828965125011720372e-01
2.200071263233564522e+01 1.402609202163138946e-01
2.300074502471453286e+01 1.586144319802980374e-01
2.400077741709343115e+01 6.159200194082966803e-03
2.500080980947230103e+01 6.016030242053712479e-03
2.600084220185119932e+01 6.052134303074790771e-03
2.700087459423009406e+01 6.052134303074790771e-03
2.800090698660899236e+01 6.052134303074790771e-03
2.900093937898789420e+01 6.052134303074790771e-03
3.000097177136676407e+01 6.052134303074790771e-03
3.100100416374566237e+01 6.052134303074790771e-03
3.200103655612455356e+01 6.052134303074790771e-03
3.300106894850344474e+01 6.052134303074790771e-03
3.400110134088232172e+01 6.052134303074790771e-03
3.500113373326122002e+01 6.052134303074790771e-03
