#####################################################################
# Alchemist log file - simulation started at: 2017-05-20T02:31+0000 #
#####################################################################
# random = 0.0, targets = 31.622776601683793, density = 7.099073319511142, gridShift = 1.0, perturbation = 0.5, connfactor = 0.75
#
# The columns have the following meaning: 
# time se[Mean] 
0.0 NaN 
1.0011337332612453 NaN 
2.0011337332612453 0.9999201980087137 
3.0011337332612453 0.9995304112239203 
4.001133733261245 0.9973952201849857 
5.001133733261245 0.9961070663885897 
6.001133733261245 0.9930642832660734 
7.001133733261245 0.9904826361683651 
8.001133733261245 0.991706955919931 
9.001133733261245 0.98695694518145 
10.001133733261245 0.989624093701398 
11.001133733261245 0.9873516258393794 
12.001133733261245 0.9860058037176653 
13.001133733261245 0.9837342964439378 
14.001133733261245 0.9788517178135205 
15.001133733261245 0.9766654776300407 
16.001133733261245 0.9718563033148311 
17.001133733261245 0.9667564063121149 
18.001133733261245 0.9613384255145506 
19.001133733261245 0.9566053986299611 
20.001133733261245 0.9499643248129691 
21.001133733261245 0.9436879948138394 
22.001133733261245 0.9331200394031103 
23.001133733261245 0.9304555501931717 
24.001133733261245 0.9232745362519817 
25.001133733261245 0.919205363099983 
26.001133733261245 0.9173046193786206 
27.001133733261245 0.9161735662542797 
28.001133733261245 0.9133961081710859 
29.001133733261245 0.9122438577774227 
30.001133733261245 0.9040239828057894 
31.001133733261245 0.9029340934591554 
32.00113373326124 0.8958531695183223 
33.00113373326124 0.8917988650938745 
34.00113373326124 0.8813172171571351 
35.00113373326124 0.8778280549207853 
36.00113373326124 0.865099207888266 
37.00113373326124 0.8564153994074389 
38.00113373326124 0.851367294377003 
39.00113373326124 0.8339500046170564 
40.00113373326124 0.8308707511040528 
41.00113373326124 0.8205558883205958 
42.00113373326124 0.8078077110356341 
43.00113373326124 0.8047774478101496 
44.00113373326124 0.7973668492970248 
45.00113373326124 0.7842348627357411 
46.00113373326124 0.7830194047479784 
47.00113373326124 0.7763112120190432 
48.00113373326124 0.7734199203095612 
49.00113373326124 0.768063580763495 
50.00113373326124 0.7570082016510451 
51.00113373326124 0.7554496448938296 
52.00113373326124 0.7512185995027839 
53.00113373326124 0.7536276538060436 
54.00113373326124 0.7692713855734464 
55.00113373326124 0.7695947911384402 
56.00113373326124 0.7938634469806232 
57.00113373326124 0.786518629190779 
58.00113373326124 0.8125820204972547 
59.00113373326124 0.7847165952754108 
60.00113373326124 0.820368571223935 
61.00113373326124 0.7883269628101006 
62.00113373326124 0.8097373506376229 
63.00113373326124 0.7909141782243853 
64.00113373326124 0.7991802927004861 
65.00113373326124 0.7506705733820445 
66.00113373326124 0.7898973807280038 
67.00113373326124 0.7845573434563778 
68.00113373326124 0.7755270808548126 
69.00113373326124 0.7782010053297261 
70.00113373326124 0.7574711347754027 
71.00113373326124 0.7899516018910635 
72.00113373326124 0.7650270644978677 
73.00113373326124 0.7665959204191061 
74.00113373326124 0.7903360794477272 
75.00113373326124 0.752052141780119 
76.00113373326124 0.7705550504604355 
77.00113373326124 0.7811496600967243 
78.00113373326124 0.7501316342888944 
79.00113373326124 0.7677499312760839 
80.00113373326124 0.7685232823005282 
81.00113373326124 0.7745550161971442 
82.00113373326124 0.7586036922083855 
83.00113373326124 0.7191716908499131 
84.00113373326124 0.6994555329129483 
85.00113373326124 0.6461989567991852 
86.00113373326124 0.6730043946896349 
87.00113373326124 0.6318836133933853 
88.00113373326124 0.6078302072138335 
89.00113373326124 0.6408942751922878 
90.00113373326124 0.5774549623792671 
91.00113373326124 0.5990763260635853 
92.00113373326124 0.562181003141909 
93.00113373326124 0.539616188649451 
94.00113373326124 0.550105813539414 
95.00113373326124 0.5137902606386018 
96.00113373326124 0.5026052054304729 
97.00113373326124 0.503029198702383 
98.00113373326124 0.49278528961842133 
99.00113373326124 0.4882818028758848 
100.00113373326124 0.479067186621958 
101.00113373326124 0.46275786032826904 
102.00113373326124 0.4566359080843761 
103.00113373326124 0.4413639906497367 
104.00113373326124 0.4319999005639402 
105.00113373326124 0.4273362702929268 
106.00113373326124 0.4089583446161716 
107.00113373326124 0.4088496391592634 
108.00113373326124 0.3939352451281885 
109.00113373326124 0.38882026785116697 
110.00113373326124 0.3778721705104906 
111.00113373326124 0.37074850626523786 
112.00113373326124 0.3626193984467415 
113.00113373326124 0.35592281690700894 
114.00113373326124 0.34425228583699813 
115.00113373326124 0.33903091696381926 
116.00113373326124 0.32016669810721654 
117.00113373326124 0.315199023168278 
118.00113373326124 0.30197282789900276 
119.00113373326124 0.2930287140533586 
120.00113373326124 0.2875333600978024 
121.00113373326124 0.2867834564965438 
122.00113373326124 0.33662221601866826 
123.00113373326124 0.39301002396938456 
124.00113373326124 0.47537894512939055 
125.00113373326124 0.5578217072286153 
126.00113373326124 0.6313242129626934 
127.00113373326124 0.6730630579754496 
128.00113373326124 0.7073489541174063 
129.00113373326124 0.7368491570840453 
130.00113373326124 0.7409508668152794 
131.00113373326124 0.7570117288082696 
132.00113373326124 0.7591922441772353 
133.00113373326124 0.6975524974620534 
134.00113373326124 0.6572134356720919 
135.00113373326124 1.042463990808114 
136.00113373326124 2.0347413722311147 
137.00113373326124 2.3648881927998064 
138.00113373326124 3.9477482422576258 
139.00113373326124 3.9968660282976143 
140.00113373326124 5.633888855975944 
141.00113373326124 4.696362897499838 
142.00113373326124 6.6318539121094355 
143.00113373326124 5.407846611346527 
144.00113373326124 6.628535426623942 
145.00113373326124 6.055920720289067 
146.00113373326124 6.690194896901612 
147.00113373326124 4.45241514207815 
148.00113373326124 6.685818775839853 
149.00113373326124 6.772351170600026 
150.00113373326124 6.805243822777781 
151.00113373326124 7.080965089230171 
152.00113373326124 6.383413420982759 
153.00113373326124 8.177000531760083 
154.00113373326124 7.166845307532469 
155.00113373326124 7.491072782552373 
156.00113373326124 9.09300640801765 
157.00113373326124 7.238062314508291 
158.00113373326124 8.486294645101442 
159.00113373326124 9.105625541016863 
160.00113373326124 7.795835383384827 
161.00113373326124 8.559511913219325 
162.00113373326124 8.781355951051346 
163.00113373326124 9.669599903097735 
164.00113373326124 8.94691331083581 
165.00113373326124 8.268006038929016 
166.00113373326124 7.590167741275353 
167.00113373326124 5.969358794865684 
168.00113373326124 6.57197380021368 
169.00113373326124 6.856303335712102 
170.00113373326124 6.505130872275303 
171.00113373326124 7.754357816405622 
172.00113373326124 5.866365676256325 
173.00113373326124 7.427169717301087 
174.00113373326124 4.5821851653079735 
175.00113373326124 2.968882786049878 
176.00113373326124 3.8987293288543055 
177.00113373326124 1.3706978522755742 
178.00113373326124 1.978522211979157 
179.00113373326124 1.3492126173123822 
180.00113373326124 1.0254946353728975 
181.00113373326124 1.0215453929302143 
182.00113373326124 0.7025195486194532 
183.00113373326124 0.06450112588611943 
184.00113373326124 0.05817305216996009 
185.00113373326124 0.05811056927302406 
186.00113373326124 0.058167282939190865 
187.00113373326124 0.058147096332519875 
188.00113373326124 0.058137003029184384 
189.00113373326124 0.058137003029184384 
190.00113373326124 0.05812690972584889 
191.00113373326124 0.05810672311917791 
192.00113373326124 0.05810672311917791 
193.00113373326124 0.05810672311917791 
194.00113373326124 0.05810672311917791 
195.00113373326124 0.05810672311917791 
196.00113373326124 0.05810672311917791 
197.00113373326124 0.05810672311917791 
198.00113373326124 0.05810672311917791 
199.00113373326124 0.05810672311917791 
200.00113373326124 0.05810672311917791 
201.00113373326124 0.05810672311917791 
202.00113373326124 0.05810672311917791 
203.00113373326124 0.05810672311917791 
204.00113373326124 0.05810672311917791 
205.00113373326124 0.05810672311917791 
206.00113373326124 0.05810672311917791 
207.00113373326124 0.05810672311917791 
208.00113373326124 0.05810672311917791 
209.00113373326124 0.05810672311917791 
210.00113373326124 0.05810672311917791 
211.00113373326124 0.05810672311917791 
212.00113373326124 0.05810672311917791 
213.00113373326124 0.05810672311917791 
214.00113373326124 0.05810672311917791 
215.00113373326124 0.05810672311917791 
216.00113373326124 0.05810672311917791 
217.00113373326124 0.05810672311917791 
218.00113373326124 0.05810672311917791 
219.00113373326124 0.05810672311917791 
220.00113373326124 0.05810672311917791 
221.00113373326124 0.05810672311917791 
222.00113373326124 0.05810672311917791 
223.00113373326124 0.05810672311917791 
224.00113373326124 0.05810672311917791 
225.00113373326124 0.05810672311917791 
226.00113373326124 0.05810672311917791 
227.00113373326124 0.05810672311917791 
228.00113373326124 0.05810672311917791 
229.00113373326124 0.05810672311917791 
230.00113373326124 0.05810672311917791 
231.00113373326124 0.05810672311917791 
232.00113373326124 0.05810672311917791 
233.00113373326124 0.05810672311917791 
234.00113373326124 0.05810672311917791 
235.00113373326124 0.05810672311917791 
236.00113373326124 0.05810672311917791 
237.00113373326124 0.05810672311917791 
238.00113373326124 0.05810672311917791 
239.00113373326124 0.05810672311917791 
240.00113373326124 0.05810672311917791 
241.00113373326124 0.05810672311917791 
242.00113373326124 0.05810672311917791 
243.00113373326124 0.05810672311917791 
244.00113373326124 0.05810672311917791 
245.00113373326124 0.05810672311917791 
246.00113373326124 0.05810672311917791 
247.00113373326124 0.05810672311917791 
248.00113373326124 0.05810672311917791 
249.00113373326124 0.05810672311917791 
#####################################################################
# End of data export. Simulation finished at: 2017-05-20T02:39+0000 #
#####################################################################
