#####################################################################
# Alchemist log file - simulation started at: 2017-05-22T01:01+0000 #
#####################################################################
# random = 3.0, targets = 10.0, density = 5.0264212595847235, gridShift = 0.0, perturbation = 0.5, connfactor = 0.75
#
# The columns have the following meaning: 
# time se[Mean] 
0.0 NaN 
1.0016359619213666 NaN 
2.001635961921367 1.0 
3.001635961921367 0.9998890817901235 
4.001635961921367 0.9965297067901234 
5.001635961921367 0.9904118441358025 
6.001635961921367 0.9796841242283951 
7.001635961921367 0.968651138117284 
8.001635961921366 0.95750675154321 
9.001635961921366 0.9493484760802468 
10.001635961921366 0.9425631751543209 
11.001635961921366 0.9397583912037037 
12.001635961921366 0.9334760802469136 
13.001635961921366 0.9222714120370371 
14.001635961921366 0.908190586419753 
15.001635961921366 0.8963049768518518 
16.001635961921366 0.8885599922839507 
17.001635961921366 0.8698451967592593 
18.001635961921366 0.860853587962963 
19.001635961921366 0.8479885223765432 
20.001635961921366 0.8396484375000001 
21.001635961921366 0.8309042245370369 
22.001635961921366 0.8288271604938273 
23.001635961921366 0.8182344714506172 
24.001635961921366 0.8044507137345679 
25.001635961921366 0.8055324074074074 
26.001635961921366 0.7842293595679012 
27.001635961921366 0.7703317901234568 
28.001635961921366 0.7663724922839505 
29.001635961921366 0.7436308834876544 
30.001635961921366 0.7454205246913581 
31.001635961921366 0.7172386188271606 
32.001635961921366 0.6962712191358026 
33.001635961921366 0.685143229166666 
34.001635961921366 0.6679277584876541 
35.001635961921366 0.6508058449074071 
36.001635961921366 0.6400578703703709 
37.001635961921366 0.6297164351851853 
38.001635961921366 0.6079885223765438 
39.001635961921366 0.5942626350308647 
40.001635961921366 0.5900057870370367 
41.001635961921366 0.576968557098765 
42.001635961921366 0.5621117862654317 
43.001635961921366 0.5538585069444444 
44.001635961921366 0.5403057484567905 
45.001635961921366 0.5310484182098764 
46.001635961921366 0.5058309220679013 
47.001635961921366 0.49797598379629665 
48.001635961921366 0.4928009259259263 
49.001635961921366 0.4500858410493829 
50.001635961921366 0.44570698302469125 
51.001635961921366 0.44002989969135825 
52.001635961921366 0.3934958526234568 
53.001635961921366 0.3899840856481481 
54.001635961921366 0.37349295910493857 
55.001635961921366 0.3995486111111113 
56.001635961921366 0.3301663773148145 
57.001635961921366 0.5042592592592593 
58.001635961921366 0.4766358024691359 
59.001635961921366 0.6572391010802469 
60.001635961921366 0.593152488425926 
61.001635961921366 0.8391685956790136 
62.001635961921366 1.0541792052469137 
63.001635961921366 0.8218557098765433 
64.00163596192137 1.183819444444444 
65.00163596192137 1.447854938271604 
66.00163596192137 1.1092814429012334 
67.00163596192137 1.3183680555555553 
68.00163596192137 1.213084972993827 
69.00163596192137 1.3049136766975307 
70.00163596192137 1.2195814043209876 
71.00163596192137 1.548794849537037 
72.00163596192137 1.3792872299382712 
73.00163596192137 1.273850790895061 
74.00163596192137 1.197620563271605 
75.00163596192137 1.3340108989197528 
76.00163596192137 1.2624262152777774 
77.00163596192137 1.0338339120370375 
78.00163596192137 1.2687876157407403 
79.00163596192137 1.2026340663580248 
80.00163596192137 1.1994492669753098 
81.00163596192137 1.5851075424382721 
82.00163596192137 1.387086709104938 
83.00163596192137 0.9704239004629641 
84.00163596192137 1.129802276234568 
85.00163596192137 1.0168687307098772 
86.00163596192137 0.9482826967592589 
87.00163596192137 0.8521778549382718 
88.00163596192137 1.0310551697530868 
89.00163596192137 0.8541763117283959 
90.00163596192137 0.8855155285493826 
91.00163596192137 0.7664612268518521 
92.00163596192137 0.8224580439814815 
93.00163596192137 0.6902666859567915 
94.00163596192137 0.626801215277777 
95.00163596192137 0.6202334104938296 
96.00163596192137 0.5004026813271614 
97.00163596192137 0.5385845871913566 
98.00163596192137 0.5803650655864188 
99.00163596192137 0.4537336033950642 
100.00163596192137 0.33199218749999715 
101.00163596192137 0.27075761959876377 
102.00163596192137 0.20505015432098903 
103.00163596192137 0.12571855709876617 
104.00163596192137 0.10692949459876488 
105.00163596192137 0.07271556712962918 
106.00163596192137 0.02736834490740731 
107.00163596192137 0.026154996141975355 
108.00163596192137 0.008744695216049378 
109.00163596192137 0.007539062499999981 
110.00163596192137 0.008740837191358026 
111.00163596192137 0.007233796296296293 
112.00163596192137 0.005726755401234549 
113.00163596192137 0.0063295717592592145 
114.00163596192137 0.0051239390432098915 
115.00163596192137 0.005425347222222159 
116.00163596192137 0.006630979938271583 
117.00163596192137 0.004521122685185207 
118.00163596192137 0.002109857253086407 
119.00163596192137 0.0021098572530864087 
120.00163596192137 0.0021098572530864074 
121.00163596192137 9.042245370370373E-4 
122.00163596192137 6.02816358024692E-4 
123.00163596192137 6.028163580246931E-4 
124.00163596192137 0.0 
125.00163596192137 0.0 
126.00163596192137 0.0 
127.00163596192137 0.0 
128.00163596192135 0.0 
129.00163596192135 0.0 
130.00163596192135 0.0 
131.00163596192135 0.0 
132.00163596192135 0.0 
133.00163596192135 0.0 
134.00163596192135 0.0 
135.00163596192135 0.0 
136.00163596192135 0.0 
137.00163596192135 0.0 
138.00163596192135 0.0 
139.00163596192135 0.0 
140.00163596192135 0.0 
141.00163596192135 0.0 
142.00163596192135 0.0 
143.00163596192135 0.0 
144.00163596192135 0.0 
145.00163596192135 0.0 
146.00163596192135 0.0 
147.00163596192135 0.0 
148.00163596192135 0.0 
149.00163596192135 0.0 
150.00163596192135 0.0 
151.00163596192135 0.0 
152.00163596192135 0.0 
153.00163596192135 0.0 
154.00163596192135 0.0 
155.00163596192135 0.0 
156.00163596192135 0.0 
157.00163596192135 0.0 
158.00163596192135 0.0 
159.00163596192135 0.0 
160.00163596192135 0.0 
161.00163596192135 0.0 
162.00163596192135 0.0 
163.00163596192135 0.0 
164.00163596192135 0.0 
165.00163596192135 0.0 
166.00163596192135 0.0 
167.00163596192135 0.0 
168.00163596192135 0.0 
169.00163596192135 0.0 
170.00163596192135 0.0 
171.00163596192135 0.0 
172.00163596192135 0.0 
173.00163596192135 0.0 
174.00163596192135 0.0 
#####################################################################
# End of data export. Simulation finished at: 2017-05-22T01:03+0000 #
#####################################################################
