#####################################################################
# Alchemist log file - simulation started at: 2017-05-23T23:06+0000 #
#####################################################################
# random = 13.0, targets = 3.1622776601683795, density = 1.2632455339402642, gridShift = 0.0, perturbation = 0.5, connfactor = 0.1
#
# The columns have the following meaning: 
# time se[Mean] 
0.0 NaN 
1.0093475742791087 NaN 
2.0093475742791087 NaN 
3.0093475742791087 1.0 
4.009347574279109 1.0 
5.009347574279109 1.0 
6.009347574279109 1.0 
7.009347574279109 1.0 
8.009347574279108 1.0 
9.009347574279108 1.0 
10.009347574279108 1.0 
11.009347574279108 1.0 
12.009347574279108 1.0 
13.009347574279108 1.0 
14.009347574279108 1.0 
15.009347574279108 1.0 
16.009347574279108 1.0 
17.009347574279108 1.0 
18.009347574279108 1.0 
19.009347574279108 1.0 
20.009347574279108 1.0 
21.009347574279108 1.0 
22.009347574279108 1.0 
23.009347574279108 1.0 
24.009347574279108 1.0 
25.009347574279108 1.0 
26.009347574279108 1.0 
#####################################################################
# End of data export. Simulation finished at: 2017-05-23T23:06+0000 #
#####################################################################
