#####################################################################
# Alchemist log file - simulation started at: 2017-05-22T21:51+0000 #
#####################################################################
# random = 10.0, targets = 1.0, density = 0.04, gridShift = 1.0, perturbation = 0.0, connfactor = 0.25
#
# The columns have the following meaning: 
# time se[Mean] 
0.0 NaN 
1.0311320617417066 NaN 
2.0311320617417064 1.0 
3.0311320617417064 1.0 
#####################################################################
# End of data export. Simulation finished at: 2017-05-22T21:51+0000 #
#####################################################################
