#####################################################################
# Alchemist log file - simulation started at: 2017-05-20T18:38+0000 #
#####################################################################
# random = 1.0, targets = 31.622776601683793, density = 1.2632455339402642, gridShift = 1.0, perturbation = 0.5, connfactor = 0.5
#
# The columns have the following meaning: 
# time se[Mean] 
0.0 NaN 
1.0048855897957667 NaN 
2.0048855897957667 1.0 
3.0048855897957667 0.9984391005886053 
4.004885589795767 0.989933019564925 
5.004885589795767 0.9790706313141946 
6.004885589795767 0.9781371613292272 
7.004885589795767 0.9544290758277142 
8.004885589795766 0.9550839523440886 
9.004885589795766 0.9462193495090125 
10.004885589795766 0.9344801237700724 
11.004885589795766 0.9290947778624933 
12.004885589795766 0.9148899746259839 
13.004885589795766 0.9068777196745057 
14.004885589795766 0.8920742987621325 
15.004885589795766 0.8801328155929402 
16.004885589795766 0.8691900338481933 
17.004885589795766 0.859433946294763 
18.004885589795766 0.842748362830989 
19.004885589795766 0.8465059817105944 
20.004885589795766 0.8442108616143537 
21.004885589795766 0.8481231894606659 
22.004885589795766 0.8333814573564892 
23.004885589795766 0.8390326607521682 
24.004885589795766 0.8361780544316997 
25.004885589795766 0.8416697450641177 
26.004885589795766 0.8347112467368971 
27.004885589795766 0.8375733276789632 
28.004885589795766 0.8346505290812994 
29.004885589795766 0.8249335134241932 
30.004885589795766 0.8153543769464653 
31.004885589795766 0.8054302724468955 
32.00488558979576 0.7900669078354602 
33.00488558979576 0.7759211864614135 
34.00488558979576 0.759213742308777 
35.00488558979576 0.7466950986749263 
36.00488558979576 0.7246672072481132 
37.00488558979576 0.708640709953298 
38.00488558979576 0.6867323226487508 
39.00488558979576 0.6624877186370046 
40.00488558979576 0.6359944442563592 
41.00488558979576 0.6053865071352976 
42.00488558979576 0.5876338692124861 
43.00488558979576 0.5512566163156718 
44.00488558979576 0.5279049477072362 
45.00488558979576 0.5171505167703272 
46.00488558979576 0.5078763865283258 
47.00488558979576 0.4834260025693374 
48.00488558979576 0.46190348270152737 
49.00488558979576 0.4505836530379938 
50.00488558979576 0.42810721691765785 
51.00488558979576 0.40431591912762815 
52.00488558979576 0.39430558107144253 
53.00488558979576 0.3885401822048065 
54.00488558979576 0.36856278392989505 
55.00488558979576 0.36338900862149826 
56.00488558979576 0.35472257946698504 
57.00488558979576 0.3513586396882807 
58.00488558979576 0.3418704293044923 
59.00488558979576 0.3383881793371025 
60.00488558979576 0.3461389465979129 
61.00488558979576 0.5158549151956172 
62.00488558979576 0.6809214595646773 
63.00488558979576 1.0270709571505034 
64.00488558979576 1.0228676277065565 
65.00488558979576 1.1989114192821708 
66.00488558979576 1.9159746925961596 
67.00488558979576 1.7337001532399017 
68.00488558979576 1.5626819625818726 
69.00488558979576 1.2343320417529748 
70.00488558979576 2.2837016822337803 
71.00488558979576 1.5779849426305435 
72.00488558979576 2.079724551853629 
73.00488558979576 1.9434399761645968 
74.00488558979576 2.776855484467438 
75.00488558979576 1.9482964656544093 
76.00488558979576 2.2668199256796626 
77.00488558979576 2.506644735877653 
78.00488558979576 1.9205805018091968 
79.00488558979576 2.3220566858493026 
80.00488558979576 1.416718504468392 
81.00488558979576 1.9295187848422202 
82.00488558979576 0.8904537559153817 
83.00488558979576 0.4706989741792303 
84.00488558979576 0.5096990307925804 
85.00488558979576 0.24775761477045227 
86.00488558979576 0.24563361168298425 
87.00488558979576 0.21187610771366697 
88.00488558979576 0.1912062930009363 
89.00488558979576 0.1912062930009363 
90.00488558979576 0.18558004233938344 
91.00488558979576 0.18558004233938344 
92.00488558979576 0.18558004233938344 
93.00488558979576 0.18558004233938344 
94.00488558979576 0.18558004233938344 
95.00488558979576 0.18558004233938344 
96.00488558979576 0.18558004233938344 
97.00488558979576 0.18558004233938344 
98.00488558979576 0.18558004233938344 
99.00488558979576 0.18558004233938344 
100.00488558979576 0.18558004233938344 
101.00488558979576 0.18558004233938344 
102.00488558979576 0.18558004233938344 
103.00488558979576 0.18558004233938344 
104.00488558979576 0.18558004233938344 
105.00488558979576 0.18558004233938344 
106.00488558979576 0.18558004233938344 
107.00488558979576 0.18558004233938344 
108.00488558979576 0.18558004233938344 
109.00488558979576 0.18558004233938344 
110.00488558979576 0.18558004233938344 
111.00488558979576 0.18558004233938344 
112.00488558979576 0.18558004233938344 
#####################################################################
# End of data export. Simulation finished at: 2017-05-20T18:38+0000 #
#####################################################################
