#####################################################################
# Alchemist log file - simulation started at: 2017-05-25T08:57+0000 #
#####################################################################
# random = 17.0, targets = 31.622776601683793, density = 0.11269076455391362, gridShift = 0.0, perturbation = 0.5, connfactor = 0.75
#
# The columns have the following meaning: 
# time se[Mean] 
0.0 NaN 
1.0045647570182237 NaN 
2.0045647570182235 1.0311378655376164 
3.0045647570182235 1.036840257926353 
4.0045647570182235 1.0696775827310692 
5.0045647570182235 1.116184121935047 
6.0045647570182235 1.1083576260229415 
7.0045647570182235 1.2105922151656583 
8.004564757018223 1.1834426900786794 
9.004564757018223 1.1198032699263827 
10.004564757018223 1.0303575767898587 
11.004564757018223 0.9720838307743611 
12.004564757018223 0.9755937714837394 
13.004564757018223 0.9678751274626888 
14.004564757018223 1.006025800423394 
15.004564757018223 0.9222876407848566 
16.004564757018223 0.7698428761224623 
17.004564757018223 0.7109220561112968 
18.004564757018223 0.708772233983162 
19.004564757018223 0.708772233983162 
20.004564757018223 0.708772233983162 
21.004564757018223 0.708772233983162 
22.004564757018223 0.708772233983162 
23.004564757018223 0.708772233983162 
24.004564757018223 0.708772233983162 
25.004564757018223 0.708772233983162 
26.004564757018223 0.708772233983162 
#####################################################################
# End of data export. Simulation finished at: 2017-05-25T08:57+0000 #
#####################################################################
