#####################################################################
# Alchemist log file - simulation started at: 2017-05-23T11:39+0000 #
#####################################################################
# random = 11.0, targets = 100.0, density = 0.894427190999916, gridShift = 0.0, perturbation = 0.0, connfactor = 1.5
#
# The columns have the following meaning: 
# time se[Mean] 
0.0 NaN 
1.0028758930102715 NaN 
2.0028758930102715 1.1615851239669421 
3.0028758930102715 1.2172668617998164 
4.0028758930102715 1.4282254591368229 
5.0028758930102715 1.2711237029384757 
6.0028758930102715 2.1981906106519746 
7.0028758930102715 2.3897090966483017 
8.002875893010271 2.1654451848025715 
9.002875893010271 2.168732724977043 
10.002875893010271 2.0061751721763086 
11.002875893010271 1.9468454889807165 
12.002875893010271 1.4754428776400366 
13.002875893010271 1.4302529556932966 
14.002875893010271 1.3573302169421486 
15.002875893010271 1.2963745523415977 
16.00287589301027 1.1893434056473828 
17.00287589301027 1.0657194731404958 
18.00287589301027 1.1170018308080807 
19.00287589301027 1.0952662362258951 
20.00287589301027 1.0679329832415059 
21.00287589301027 0.9194953512396691 
22.00287589301027 0.764363349403122 
23.00287589301027 0.7592361283287419 
24.00287589301027 0.7042510789715334 
25.00287589301027 0.6557724919651056 
26.00287589301027 0.7110357495408632 
27.00287589301027 0.7412586604683196 
28.00287589301027 0.7450907598714417 
29.00287589301027 0.6693031221303947 
30.00287589301027 0.5462943698347107 
31.00287589301027 0.553902157943067 
32.00287589301027 0.5483581382001835 
33.00287589301027 0.548040604912764 
34.00287589301027 0.5474168388429752 
35.00287589301027 0.5476408631772268 
36.00287589301027 0.5476 
37.00287589301027 0.5476 
38.00287589301027 0.5476 
39.00287589301027 0.5476 
40.00287589301027 0.5476 
41.00287589301027 0.5476 
42.00287589301027 0.5476 
43.00287589301027 0.5476 
44.00287589301027 0.5476 
45.00287589301027 0.5476 
46.00287589301027 0.5476 
47.00287589301027 0.5476 
48.00287589301027 0.5476 
49.00287589301027 0.5476 
50.00287589301027 0.5476 
51.00287589301027 0.5476 
52.00287589301027 0.5476 
53.00287589301027 0.5476 
54.00287589301027 0.5476 
55.00287589301027 0.5476 
56.00287589301027 0.5476 
57.00287589301027 0.5476 
#####################################################################
# End of data export. Simulation finished at: 2017-05-23T11:40+0000 #
#####################################################################
