#####################################################################
# Alchemist log file - simulation started at: 2017-05-24T19:29+0000 #
#####################################################################
# random = 15.0, targets = 100.0, density = 7.099073319511142, gridShift = 0.0, perturbation = 0.0, connfactor = 0.75
#
# The columns have the following meaning: 
# time se[Mean] 
0.0 NaN 
1.0001976518064393 NaN 
2.000197651806439 1.0020095982142858 
3.000197651806439 1.0037794120252268 
4.000197651806439 1.0048216207837302 
5.000197651806439 1.0048063430059524 
6.000197651806439 1.0036195401077097 
7.000197651806439 1.00378391174178 
8.000197651806438 1.0047195542800453 
9.000197651806438 1.0049439776431406 
10.000197651806438 1.003198222257653 
11.000197651806438 1.0016967288477892 
12.000197651806438 0.9972657773526077 
13.000197651806438 0.9967965632086168 
14.000197651806438 0.993819389526644 
15.000197651806438 0.9911418748228458 
16.000197651806438 0.9885886585884354 
17.000197651806438 0.9846754180839002 
18.000197651806438 0.9835123786493764 
19.000197651806438 0.9785408898455216 
20.000197651806438 0.9756362032312925 
21.000197651806438 0.9712944825325963 
22.000197651806438 0.967526031923186 
23.000197651806438 0.9638718289399093 
24.000197651806438 0.9608715012046486 
25.000197651806438 0.955739629393424 
26.000197651806438 0.9510631979875284 
27.000197651806438 0.9477886275864513 
28.000197651806438 0.9414641528486394 
29.000197651806438 0.9376070046768707 
30.000197651806438 0.9317268025439343 
31.000197651806438 0.9275915329152494 
32.00019765180644 0.9202647170847505 
33.00019765180644 0.9160802517361112 
34.00019765180644 0.9072913982780613 
35.00019765180644 0.8998946091978458 
36.00019765180644 0.8890839126275509 
37.00019765180644 0.8809237962372449 
38.00019765180644 0.8708997200963718 
39.00019765180644 0.8631788575325965 
40.00019765180644 0.8518144584396259 
41.00019765180644 0.8473525625354308 
42.00019765180644 0.8392373069019275 
43.00019765180644 0.8336086911848074 
44.00019765180644 0.8270534917091837 
45.00019765180644 0.8193610774518142 
46.00019765180644 0.8126801711309524 
47.00019765180644 0.8075674479166667 
48.00019765180644 0.7960166826105443 
49.00019765180644 0.7854011293579932 
50.00019765180644 0.7775670254039116 
51.00019765180644 0.7679052481930273 
52.00019765180644 0.7574617364654195 
53.00019765180644 0.7492919687145692 
54.00019765180644 0.7437678775155896 
55.00019765180644 0.7358457199546485 
56.00019765180644 0.7341872741284013 
57.00019765180644 0.7319322278911565 
58.00019765180644 0.7279450600552722 
59.00019765180644 0.7224060117276078 
60.00019765180644 0.7195745234552154 
61.00019765180644 0.7133446995464853 
62.00019765180644 0.7085833058744331 
63.00019765180644 0.695897766971372 
64.00019765180645 0.6900996359481293 
65.00019765180645 0.6802336619543651 
66.00019765180645 0.6705302349064625 
67.00019765180645 0.662460405151644 
68.00019765180645 0.6492608772675736 
69.00019765180645 0.6422721345308957 
70.00019765180645 0.6357120597718253 
71.00019765180645 0.6236390341553288 
72.00019765180645 0.6145922326743197 
73.00019765180645 0.6097307628259637 
74.00019765180645 0.6028662175807823 
75.00019765180645 0.6007054855796485 
76.00019765180645 0.5944330419146825 
77.00019765180645 0.5901270000708617 
78.00019765180645 0.5868588453089569 
79.00019765180645 0.5811957119827097 
80.00019765180645 0.5740997785572562 
81.00019765180645 0.5712661493764173 
82.00019765180645 0.5631935400722788 
83.00019765180645 0.5556217554209183 
84.00019765180645 0.5533835795776644 
85.00019765180645 0.5447795546343537 
86.00019765180645 0.5427431219883787 
87.00019765180645 0.5333240938562925 
88.00019765180645 0.5247939342403628 
89.00019765180645 0.5201984941893424 
90.00019765180645 0.5127654930201246 
91.00019765180645 0.5073575795422335 
92.00019765180645 0.5007239229024943 
93.00019765180645 0.49654394929846934 
94.00019765180645 0.49057327983276633 
95.00019765180645 0.48271739919926304 
96.00019765180645 0.47877699741354873 
97.00019765180645 0.4744173495960884 
98.00019765180645 0.4691859437003968 
99.00019765180645 0.462520380704365 
100.00019765180645 0.46303361323696146 
101.00019765180645 0.4594285678854875 
102.00019765180645 0.45398706242913833 
103.00019765180645 0.452492366425737 
104.00019765180645 0.44998721743905895 
105.00019765180645 0.44701994136196144 
106.00019765180645 0.4443975605867347 
107.00019765180645 0.44430586026077096 
108.00019765180645 0.4455519061791383 
109.00019765180645 0.4448300559807256 
110.00019765180645 0.4456958023313492 
111.00019765180645 0.44251701831774376 
112.00019765180645 0.4384573589852608 
113.00019765180645 0.43574027246315195 
114.00019765180645 0.4334069754464286 
115.00019765180645 0.4322631590136055 
116.00019765180645 0.43001772339143995 
117.00019765180645 0.4269800595238096 
118.00019765180645 0.4266319789895125 
119.00019765180645 0.42379386869331076 
120.00019765180645 0.42124910271400234 
121.00019765180645 0.4191392644557824 
122.00019765180645 0.4183910971159298 
123.00019765180645 0.4145996297477325 
124.00019765180645 0.41224214675453524 
125.00019765180645 0.411084840029762 
126.00019765180645 0.4095510655824831 
127.00019765180645 0.40851326973497737 
128.00019765180645 0.4074017750850341 
129.00019765180645 0.4052327168367348 
130.00019765180645 0.4037536573483561 
131.00019765180645 0.4021487891510772 
132.00019765180645 0.40133440157312933 
133.00019765180645 0.40073222877692755 
134.00019765180645 0.40020773100907037 
135.00019765180645 0.399813461947279 
136.00019765180645 0.3995405975410999 
137.00019765180645 0.3992322952097507 
138.00019765180645 0.3989511727607711 
139.00019765180645 0.3986484941893425 
140.00019765180645 0.398282851473923 
141.00019765180645 0.39791458687641734 
142.00019765180645 0.3974965623228459 
143.00019765180645 0.3972637498228459 
144.00019765180645 0.3970608161493765 
145.00019765180645 0.39697704347363955 
146.00019765180645 0.396912077487245 
147.00019765180645 0.3969000000000001 
148.00019765180645 0.3969000000000001 
149.00019765180645 0.3969000000000001 
150.00019765180645 0.3969000000000001 
151.00019765180645 0.3969000000000001 
152.00019765180645 0.3969000000000001 
153.00019765180645 0.3969000000000001 
154.00019765180645 0.3969000000000001 
155.00019765180645 0.3969000000000001 
156.00019765180645 0.3969000000000001 
157.00019765180645 0.3969000000000001 
158.00019765180645 0.3969000000000001 
159.00019765180645 0.3969000000000001 
160.00019765180645 0.3969000000000001 
161.00019765180645 0.3969000000000001 
162.00019765180645 0.3969000000000001 
163.00019765180645 0.3969000000000001 
164.00019765180645 0.3969000000000001 
165.00019765180645 0.3969000000000001 
166.00019765180645 0.3969000000000001 
167.00019765180645 0.3969000000000001 
168.00019765180645 0.3969000000000001 
169.00019765180645 0.3969000000000001 
170.00019765180645 0.3969000000000001 
171.00019765180645 0.3969000000000001 
172.00019765180645 0.3969000000000001 
173.00019765180645 0.3969000000000001 
174.00019765180645 0.3969000000000001 
175.00019765180645 0.3969000000000001 
176.00019765180645 0.3969000000000001 
177.00019765180645 0.3969000000000001 
178.00019765180645 0.3969000000000001 
179.00019765180645 0.3969000000000001 
180.00019765180645 0.3969000000000001 
181.00019765180645 0.3969000000000001 
182.00019765180645 0.3969000000000001 
183.00019765180645 0.3969000000000001 
184.00019765180645 0.3969000000000001 
185.00019765180645 0.3969000000000001 
186.00019765180645 0.3969000000000001 
187.00019765180645 0.3969000000000001 
188.00019765180645 0.3969000000000001 
189.00019765180645 0.3969000000000001 
190.00019765180645 0.3969000000000001 
191.00019765180645 0.3969000000000001 
192.00019765180645 0.3969000000000001 
193.00019765180645 0.3969000000000001 
194.00019765180645 0.3969000000000001 
195.00019765180645 0.3969000000000001 
196.00019765180645 0.3969000000000001 
197.00019765180645 0.3969000000000001 
198.00019765180645 0.3969000000000001 
199.00019765180645 0.3969000000000001 
200.00019765180645 0.3969000000000001 
201.00019765180645 0.3969000000000001 
202.00019765180645 0.3969000000000001 
203.00019765180645 0.3969000000000001 
204.00019765180645 0.3969000000000001 
205.00019765180645 0.3969000000000001 
206.00019765180645 0.3969000000000001 
207.00019765180645 0.3969000000000001 
208.00019765180645 0.3969000000000001 
#####################################################################
# End of data export. Simulation finished at: 2017-05-24T19:31+0000 #
#####################################################################
