#####################################################################
# Alchemist log file - simulation started at: 2017-05-22T03:16+0000 #
#####################################################################
# random = 3.0, targets = 31.622776601683793, density = 0.04, gridShift = 1.0, perturbation = 0.0, connfactor = 0.75
#
# The columns have the following meaning: 
# time se[Mean] 
0.0 NaN 
1.0016359619213666 NaN 
2.001635961921367 0.987094676415965 
3.001635961921367 0.9865380252140664 
4.001635961921367 0.9723655258021134 
5.001635961921367 1.0384893659445102 
6.001635961921367 0.9532577337356616 
7.001635961921367 0.8170042528112118 
8.001635961921366 0.7365457254924579 
9.001635961921366 0.4722749068602993 
10.001635961921366 0.2943383245740368 
11.001635961921366 0.12559196467499673 
12.001635961921366 0.12529952476992792 
13.001635961921366 0.11650128422520285 
14.001635961921366 0.11292233347724179 
15.001635961921366 0.1094691238620528 
16.001635961921366 0.11115625329566678 
17.001635961921366 0.11284338272928074 
18.001635961921366 0.11284338272928074 
19.001635961921366 0.11284338272928074 
20.001635961921366 0.11284338272928074 
#####################################################################
# End of data export. Simulation finished at: 2017-05-22T03:16+0000 #
#####################################################################
