#####################################################################
# Alchemist log file - simulation started at: 2017-05-24T03:38+0000 #
#####################################################################
# random = 13.0, targets = 100.0, density = 0.6332893950589894, gridShift = 1.0, perturbation = 0.5, connfactor = 0.5
#
# The columns have the following meaning: 
# time se[Mean] 
0.0 NaN 
1.0093475742791087 NaN 
2.0093475742791087 1.0043597222222223 
3.0093475742791087 1.008535462962963 
4.009347574279109 1.0100785185185186 
5.009347574279109 1.01222012345679 
6.009347574279109 1.0079979320987655 
7.009347574279109 0.9918888966049383 
8.009347574279108 0.9772124459876543 
9.009347574279108 0.960825563271605 
10.009347574279108 0.9443334953703704 
11.009347574279108 0.9396900848765432 
12.009347574279108 0.9435552083333333 
13.009347574279108 0.9315813425925925 
14.009347574279108 0.9347383641975309 
15.009347574279108 0.9419575462962962 
16.009347574279108 0.9394694598765432 
17.009347574279108 0.939180625 
18.009347574279108 0.930431211419753 
19.009347574279108 0.9387863425925925 
20.009347574279108 0.9321754552469136 
21.009347574279108 0.9281890509259259 
22.009347574279108 0.9233961111111111 
23.009347574279108 0.9209553395061728 
24.009347574279108 0.9075945138888889 
25.009347574279108 0.9016155246913581 
26.009347574279108 0.8887294830246913 
27.009347574279108 0.8745518132716049 
28.009347574279108 0.8683578549382717 
29.009347574279108 0.8427941820987654 
30.009347574279108 0.8510866358024692 
31.009347574279108 0.8242656481481482 
32.009347574279104 0.8111238271604939 
33.009347574279104 0.8079312345679014 
34.009347574279104 0.7596155169753087 
35.009347574279104 0.7459348996913582 
36.009347574279104 0.7353457561728396 
37.009347574279104 0.712488125 
38.009347574279104 0.7226053086419754 
39.009347574279104 0.694188425925926 
40.009347574279104 0.7203447222222222 
41.009347574279104 0.7194172530864198 
42.009347574279104 0.6954690432098766 
43.009347574279104 0.7236035185185186 
44.009347574279104 0.7287679938271605 
45.009347574279104 0.7654243518518519 
46.009347574279104 0.7736528086419753 
47.009347574279104 0.7743025 
48.009347574279104 0.7744 
49.009347574279104 0.7744 
50.009347574279104 0.7744 
51.009347574279104 0.7744 
52.009347574279104 0.7744 
53.009347574279104 0.7744 
54.009347574279104 0.7744 
55.009347574279104 0.7744 
56.009347574279104 0.7744 
57.009347574279104 0.7744 
58.009347574279104 0.7744 
59.009347574279104 0.7744 
60.009347574279104 0.7744 
61.009347574279104 0.7744 
62.009347574279104 0.7744 
63.009347574279104 0.7744 
64.0093475742791 0.7744 
#####################################################################
# End of data export. Simulation finished at: 2017-05-24T03:38+0000 #
#####################################################################
