#####################################################################
# Alchemist log file - simulation started at: 2017-05-24T21:12+0000 #
#####################################################################
# random = 16.0, targets = 1.0, density = 0.04, gridShift = 1.0, perturbation = 0.0, connfactor = 1.5
#
# The columns have the following meaning: 
# time se[Mean] 
0.0 NaN 
1.0623398408578844 NaN 
2.0623398408578844 1.4583333333333333 
3.0623398408578844 1.9375 
4.062339840857884 2.516203703703704 
5.062339840857884 3.7731481481481497 
6.062339840857884 2.159722222222223 
7.062339840857884 1.9837962962962974 
8.062339840857884 0.4629629629629632 
9.062339840857884 0.03703703703703708 
10.062339840857884 4.930380657631324E-32 
11.062339840857884 4.930380657631324E-32 
#####################################################################
# End of data export. Simulation finished at: 2017-05-24T21:12+0000 #
#####################################################################
