#####################################################################
# Alchemist log file - simulation started at: 2017-05-23T03:43+0000 #
#####################################################################
# random = 10.0, targets = 100.0, density = 0.07978946395100113, gridShift = 1.0, perturbation = 0.5, connfactor = 1.0
#
# The columns have the following meaning: 
# time se[Mean] 
0.0 NaN 
1.0036005446229952 NaN 
2.003600544622995 1.2522325 
3.003600544622995 1.412228888888889 
4.003600544622995 1.3744783333333332 
5.003600544622995 1.4154720833333334 
6.003600544622995 1.3298620833333337 
7.003600544622995 1.2464833333333338 
8.003600544622994 1.3425761111111119 
9.003600544622994 1.4137536111111118 
10.003600544622994 1.0039065277777783 
11.003600544622994 0.7148602777777782 
12.003600544622994 0.7115022222222226 
13.003600544622994 0.6539198611111114 
14.003600544622994 0.6167744444444448 
15.003600544622994 0.6436219444444449 
16.003600544622994 0.6563702777777782 
17.003600544622994 0.6561000000000005 
18.003600544622994 0.6561000000000005 
19.003600544622994 0.6561000000000005 
20.003600544622994 0.6561000000000005 
21.003600544622994 0.6561000000000005 
22.003600544622994 0.6561000000000005 
23.003600544622994 0.6561000000000005 
24.003600544622994 0.6561000000000005 
#####################################################################
# End of data export. Simulation finished at: 2017-05-23T03:43+0000 #
#####################################################################
