#####################################################################
# Alchemist log file - simulation started at: 2017-05-24T10:42+0000 #
#####################################################################
# random = 6.0, targets = 100.0, density = 2.519842099789746, gridShift = 1.0, perturbation = 0.5, connfactor = 2.0
#
# The columns have the following meaning: 
# time se[Mean] 
0.0 NaN 
1.001281360956031 NaN 
2.001281360956031 1.0482515625 
3.001281360956031 1.0735081071820176 
4.001281360956031 1.1234714638157894 
5.001281360956031 1.212041063596491 
6.001281360956031 1.2599624703033625 
7.001281360956031 1.3319413628472223 
8.001281360956032 1.3940202439692984 
9.001281360956032 1.4386976996527778 
10.001281360956032 1.5053344777960527 
11.001281360956032 1.5603122761330408 
12.001281360956032 1.607053871984649 
13.001281360956032 1.6793182976973682 
14.001281360956032 1.5690172743055555 
15.001281360956032 1.6995873469480993 
16.001281360956032 1.6365031135782162 
17.001281360956032 1.6526843612938595 
18.001281360956032 1.6724890693530705 
19.001281360956032 1.656477690972222 
20.001281360956032 1.6809329244334794 
21.001281360956032 1.6589452211257307 
22.001281360956032 1.6979853207236841 
23.001281360956032 1.6171471468384504 
24.001281360956032 1.651175507127193 
25.001281360956032 1.653814078490497 
26.001281360956032 1.6727892498172514 
27.001281360956032 1.7924221673976608 
28.001281360956032 1.956180295138889 
29.001281360956032 2.2881550781249995 
30.001281360956032 2.76734867278874 
31.001281360956032 2.7856924410635964 
32.00128136095603 3.701516392543859 
33.00128136095603 4.070145460983187 
34.00128136095603 3.9241593156067247 
35.00128136095603 5.3055169636330435 
36.00128136095603 5.2831813185307 
37.00128136095603 5.3454431058114 
38.00128136095603 6.762519533534356 
39.00128136095603 6.479207810215642 
40.00128136095603 6.689566033899855 
41.00128136095603 8.20007323647661 
42.00128136095603 7.809136414930557 
43.00128136095603 7.960630640076753 
44.00128136095603 9.187030292854532 
45.00128136095603 8.771643948739035 
46.00128136095603 8.69694226516813 
47.00128136095603 9.711394748263888 
48.00128136095603 9.287708698830409 
49.00128136095603 8.897466159539473 
50.00128136095603 9.576338955135233 
51.00128136095603 9.41701923885234 
52.00128136095603 8.791098327850877 
53.00128136095603 9.325055391081872 
54.00128136095603 9.083476194718566 
55.00128136095603 8.243244848775584 
56.00128136095603 9.620901701845758 
57.00128136095603 9.385301955409355 
58.00128136095603 8.882553744060674 
59.00128136095603 9.727283456688594 
60.00128136095603 9.279354438505116 
61.00128136095603 9.29381248629386 
62.00128136095603 9.74179716968202 
63.00128136095603 9.720033310489766 
64.00128136095603 9.960357115771199 
65.00128136095603 10.238577645285087 
66.00128136095603 10.199308982090644 
67.00128136095603 10.404949458607456 
68.00128136095603 10.88494047880117 
69.00128136095603 10.546554481907894 
70.00128136095603 10.192371566611842 
71.00128136095603 10.414997048611111 
72.00128136095603 10.162572028051901 
73.00128136095603 9.902013966557018 
74.00128136095603 9.42839018640351 
75.00128136095603 8.63069974186769 
76.00128136095603 8.118197222222223 
77.00128136095603 7.872960224780702 
78.00128136095603 7.2638810307017545 
79.00128136095603 6.739958004385966 
80.00128136095603 6.781584585160819 
81.00128136095603 6.6245176991959065 
82.00128136095603 6.424360718201754 
83.00128136095603 6.416406423611111 
84.00128136095603 6.416171271929825 
85.00128136095603 6.403485855263158 
86.00128136095603 6.400720175438597 
87.00128136095603 6.377954623538012 
88.00128136095603 6.343742945906433 
89.00128136095603 6.321841895102339 
90.00128136095603 6.325732437865497 
91.00128136095603 6.320289172149122 
92.00128136095603 6.302168082967836 
93.00128136095603 6.3013135964912275 
94.00128136095603 6.300210709064327 
95.00128136095603 6.30026524122807 
96.00128136095603 6.300320321637426 
97.00128136095603 6.300320321637426 
98.00128136095603 6.3001 
99.00128136095603 6.3001 
100.00128136095603 6.3001 
101.00128136095603 6.3001 
102.00128136095603 6.3001 
103.00128136095603 6.3001 
104.00128136095603 6.3001 
105.00128136095603 6.3001 
106.00128136095603 6.3001 
107.00128136095603 6.3001 
108.00128136095603 6.3001 
109.00128136095603 6.3001 
110.00128136095603 6.3001 
111.00128136095603 6.3001 
112.00128136095603 6.3001 
113.00128136095603 6.3001 
114.00128136095603 6.3001 
115.00128136095603 6.3001 
116.00128136095603 6.3001 
117.00128136095603 6.3001 
118.00128136095603 6.3001 
119.00128136095603 6.3001 
120.00128136095603 6.3001 
121.00128136095603 6.3001 
122.00128136095603 6.3001 
123.00128136095603 6.3001 
124.00128136095603 6.3001 
125.00128136095603 6.3001 
126.00128136095603 6.3001 
127.00128136095603 6.3001 
128.00128136095603 6.3001 
129.00128136095603 6.3001 
130.00128136095603 6.3001 
131.00128136095603 6.3001 
132.00128136095603 6.3001 
#####################################################################
# End of data export. Simulation finished at: 2017-05-24T10:46+0000 #
#####################################################################
