#####################################################################
# Alchemist log file - simulation started at: 2017-05-26T02:07+0000 #
#####################################################################
# random = 9.0, targets = 1.0, density = 20.0, gridShift = 0.0, perturbation = 0.0, connfactor = 0.25
#
# The columns have the following meaning: 
# time se[Mean] 
0.0 NaN 
1.0003374459614243 NaN 
2.0003374459614243 1.0 
3.0003374459614243 1.0 
4.000337445961424 0.9995274102079396 
5.000337445961424 0.9966918714555767 
6.000337445961424 0.9985822306238186 
7.000337445961424 0.9924385633270322 
8.000337445961424 0.991493383742911 
9.000337445961424 0.9858223062381851 
10.000337445961424 0.982986767485822 
11.000337445961424 0.9782608695652172 
12.000337445961424 0.9730623818525516 
13.000337445961424 0.97164461247637 
14.000337445961424 0.966918714555765 
15.000337445961424 0.9669187145557651 
16.000337445961424 0.9645557655954631 
17.000337445961424 0.9688090737240077 
18.000337445961424 0.9702268431001887 
19.000337445961424 0.9801512287334596 
20.000337445961424 0.981568998109641 
21.000337445961424 0.9886578449905481 
22.000337445961424 0.9924385633270322 
23.000337445961424 0.9976370510396976 
24.000337445961424 0.999054820415879 
25.000337445961424 0.9995274102079396 
26.000337445961424 1.0 
27.000337445961424 1.0 
28.000337445961424 1.0 
29.000337445961424 1.0 
30.000337445961424 1.0 
31.000337445961424 1.0 
32.00033744596142 1.0 
33.00033744596142 1.0 
34.00033744596142 1.0 
35.00033744596142 1.0 
36.00033744596142 1.0 
37.00033744596142 1.0 
38.00033744596142 1.0 
39.00033744596142 1.0 
40.00033744596142 1.0 
41.00033744596142 1.0 
42.00033744596142 1.0 
43.00033744596142 1.0 
44.00033744596142 1.0 
45.00033744596142 1.0 
46.00033744596142 1.0 
47.00033744596142 1.0 
48.00033744596142 1.0 
49.00033744596142 1.0 
50.00033744596142 1.0 
51.00033744596142 1.0 
52.00033744596142 0.9995274102079396 
53.00033744596142 0.996219281663516 
54.00033744596142 0.9957466918714555 
55.00033744596142 0.9948015122873345 
56.00033744596142 0.9957466918714555 
57.00033744596142 0.9933837429111533 
58.00033744596142 0.9891304347826088 
59.00033744596142 0.9891304347826088 
60.00033744596142 0.9862948960302457 
61.00033744596142 0.9834593572778826 
62.00033744596142 0.9853497164461247 
63.00033744596142 0.9792060491493384 
64.00033744596142 0.9829867674858221 
65.00033744596142 0.9862948960302458 
66.00033744596142 0.985822306238185 
67.00033744596142 0.9872400756143667 
68.00033744596142 0.9886578449905481 
69.00033744596142 0.9862948960302459 
70.00033744596142 0.9820415879017014 
71.00033744596142 0.9872400756143668 
72.00033744596142 1.064744801512286 
73.00033744596142 1.0680529300567114 
74.00033744596142 1.0793950850661622 
75.00033744596142 1.0467863894139888 
76.00033744596142 1.0831758034026477 
77.00033744596142 1.078922495274103 
78.00033744596142 0.9749527410207942 
79.00033744596142 0.963137996219282 
80.00033744596142 0.9730623818525521 
81.00033744596142 0.9102079395085053 
82.00033744596142 0.8969754253308124 
83.00033744596142 0.8700378071833643 
84.00033744596142 0.8761814744801527 
85.00033744596142 0.8161625708884707 
86.00033744596142 0.8293950850661613 
87.00033744596142 0.8024574669187153 
88.00033744596142 0.7844990548204166 
89.00033744596142 0.7651228733459374 
90.00033744596142 0.7703213610585995 
91.00033744596142 0.7362948960302466 
92.00033744596142 0.8884688090737246 
93.00033744596142 0.8894139886578434 
94.00033744596142 0.935727788279775 
95.00033744596142 0.8449905482041582 
96.00033744596142 0.9106805293005654 
97.00033744596142 0.9314744801512302 
98.00033744596142 0.6743856332703224 
99.00033744596142 0.6852551984877142 
100.00033744596142 0.6899810964083178 
101.00033744596142 0.5860113421550089 
102.00033744596142 0.5344990548204165 
103.00033744596142 0.4877126654064262 
104.00033744596142 0.5160680529300564 
105.00033744596142 0.41257088846880946 
106.00033744596142 0.44092627599243833 
107.00033744596142 0.4158790170132329 
108.00033744596142 0.39035916824196665 
109.00033744596142 0.37665406427221204 
110.00033744596142 0.40170132325141816 
111.00033744596142 0.3275047258979204 
112.00033744596142 0.34168241965973595 
113.00033744596142 0.31947069943289164 
114.00033744596142 0.3643667296786394 
115.00033744596142 0.30671077504725974 
116.00033744596142 0.28686200378071797 
117.00033744596142 0.38752362948960334 
118.00033744596142 0.28638941398865747 
119.00033744596142 0.3520793950850661 
120.00033744596142 0.33223062381852353 
121.00033744596142 0.716918714555759 
122.00033744596142 0.6942344045368563 
123.00033744596142 0.7244801512287227 
124.00033744596142 0.6148393194706954 
125.00033744596142 0.8156899810964157 
126.00033744596142 0.7821361058601182 
127.00033744596142 0.4007561436672933 
128.0003374459614 0.37051039697543003 
129.0003374459614 0.4588846880907398 
130.0003374459614 0.2206994328922519 
131.0003374459614 0.25047258979206355 
132.0003374459614 0.19045368620037562 
133.0003374459614 0.2608695652173909 
134.0003374459614 0.0945179584120987 
135.0003374459614 0.25236294896030387 
136.0003374459614 0.15831758034026386 
137.0003374459614 0.18903591682419735 
138.0003374459614 0.18998109640831787 
139.0003374459614 0.29773156899811204 
140.0003374459614 0.11909262759924641 
141.0003374459614 0.1890359168241974 
142.0003374459614 0.18147448015122966 
143.0003374459614 0.26795841209830074 
144.0003374459614 0.19612476370510332 
145.0003374459614 0.16540642722117266 
146.0003374459614 0.2911153119092608 
147.0003374459614 0.06285444234404414 
148.0003374459614 0.22826086956521652 
149.0003374459614 0.15737240075614264 
150.0003374459614 0.23534971644612301 
151.0003374459614 0.10207939508506567 
152.0003374459614 0.11011342155009296 
153.0003374459614 0.10255198487712801 
154.0003374459614 0.14933837429111338 
155.0003374459614 0.04773156899811209 
156.0003374459614 0.10255198487712813 
157.0003374459614 0.05482041587901798 
158.0003374459614 0.047731568998109576 
159.0003374459614 0.008034026465028259 
160.0003374459614 0.055293005671078456 
161.0003374459614 0.04725897920604935 
162.0003374459614 0.008034026465028259 
163.0003374459614 0.05482041587901798 
164.0003374459614 0.055293005671078456 
165.0003374459614 4.7258979206049004E-4 
166.0003374459614 0.05482041587901798 
167.0003374459614 0.047731568998109576 
168.0003374459614 0.054820415879017974 
169.0003374459614 0.00803402646502826 
170.0003374459614 0.04725897920604935 
171.0003374459614 0.008034026465028262 
172.0003374459614 0.04725897920604935 
173.0003374459614 0.05482041587901798 
174.0003374459614 0.0 
175.0003374459614 0.054820415879017974 
176.0003374459614 0.0 
177.0003374459614 0.04725897920604935 
178.0003374459614 0.0 
179.0003374459614 0.04725897920604935 
180.0003374459614 0.0 
181.0003374459614 0.0 
182.0003374459614 0.0 
183.0003374459614 0.0 
184.0003374459614 0.0 
185.0003374459614 0.0 
186.0003374459614 0.0 
187.0003374459614 0.0 
188.0003374459614 0.0 
189.0003374459614 0.0 
190.0003374459614 0.0 
191.0003374459614 0.0 
192.0003374459614 0.0 
193.0003374459614 0.0 
194.0003374459614 0.0 
195.0003374459614 0.0 
196.0003374459614 0.0 
197.0003374459614 0.0 
198.0003374459614 0.0 
199.0003374459614 0.0 
200.0003374459614 0.0 
201.0003374459614 0.0 
202.0003374459614 0.0 
203.0003374459614 0.0 
204.0003374459614 0.0 
205.0003374459614 0.0 
206.0003374459614 0.0 
207.0003374459614 0.0 
208.0003374459614 0.0 
209.0003374459614 0.0 
210.0003374459614 0.0 
211.0003374459614 0.0 
212.0003374459614 0.0 
213.0003374459614 0.0 
214.0003374459614 0.0 
215.0003374459614 0.0 
216.0003374459614 0.0 
217.0003374459614 0.0 
218.0003374459614 0.0 
219.0003374459614 0.0 
220.0003374459614 0.0 
221.0003374459614 0.0 
222.0003374459614 0.0 
223.0003374459614 0.0 
224.0003374459614 0.0 
225.0003374459614 0.0 
226.0003374459614 0.0 
227.0003374459614 0.0 
228.0003374459614 0.0 
229.0003374459614 0.0 
230.0003374459614 0.0 
231.0003374459614 0.0 
232.0003374459614 0.0 
233.0003374459614 0.0 
234.0003374459614 0.0 
235.0003374459614 0.0 
236.0003374459614 0.0 
237.0003374459614 0.0 
238.0003374459614 0.0 
239.0003374459614 0.0 
240.0003374459614 0.0 
241.0003374459614 0.0 
242.0003374459614 0.0 
243.0003374459614 0.0 
244.0003374459614 0.0 
245.0003374459614 0.0 
246.0003374459614 0.0 
247.0003374459614 0.0 
248.0003374459614 0.0 
249.0003374459614 0.0 
250.0003374459614 0.0 
251.0003374459614 0.0 
252.0003374459614 0.0 
253.0003374459614 0.0 
254.0003374459614 0.0 
255.0003374459614 0.0 
256.0003374459614 0.0 
257.0003374459614 0.0 
258.0003374459614 0.0 
259.0003374459614 0.0 
260.0003374459614 0.0 
261.0003374459614 0.0 
262.0003374459614 0.0 
263.0003374459614 0.0 
264.0003374459614 0.0 
265.0003374459614 0.0 
266.0003374459614 0.0 
267.0003374459614 0.0 
268.0003374459614 0.0 
269.0003374459614 0.0 
270.0003374459614 0.0 
271.0003374459614 0.0 
272.0003374459614 0.0 
273.0003374459614 0.0 
274.0003374459614 0.0 
275.0003374459614 0.0 
276.0003374459614 0.0 
277.0003374459614 0.0 
278.0003374459614 0.0 
279.0003374459614 0.0 
280.0003374459614 0.0 
281.0003374459614 0.0 
282.0003374459614 0.0 
283.0003374459614 0.0 
284.0003374459614 0.0 
285.0003374459614 0.0 
#####################################################################
# End of data export. Simulation finished at: 2017-05-26T02:23+0000 #
#####################################################################
