0.000000000000000000e+00 nan
1.000019950755138831e+00 9.558782246525336646e-02
2.000039901510277662e+00 9.553561810594398684e-01
3.000059852265416271e+00 9.552758407126634710e-01
4.000079803020555325e+00 9.400179268734459859e-01
5.000099753775696598e+00 9.242888459438890481e-01
6.000119704530832543e+00 8.972720968868395097e-01
7.000139655285976481e+00 8.703940223274955201e-01
8.000159606041110649e+00 8.546079511803469364e-01
9.000179556796249258e+00 8.211765206647784199e-01
1.000019950755139320e+01 7.971797962864557441e-01
1.100021945830653003e+01 7.697852748283987578e-01
1.200023940906166509e+01 7.364788806848217018e-01
1.300025935981680192e+01 7.084677582103218185e-01
1.400027931057195296e+01 6.815944672401891280e-01
1.500029926132708624e+01 6.450539018980948613e-01
1.600031921208222130e+01 6.210700457349450643e-01
1.700033916283735280e+01 5.891520858308229025e-01
1.800035911359249852e+01 5.633541382253914875e-01
1.900037906434763357e+01 5.314174193186489425e-01
2.000039901510278639e+01 5.016528692961292890e-01
2.100041896585792855e+01 4.856719494337025100e-01
2.200043891661306006e+01 4.649807826441417213e-01
2.300045886736819867e+01 4.449807034617276336e-01
2.400047881812333017e+01 4.527184643005955911e-01
2.500049876887847233e+01 4.223589026119844991e-01
2.600051871963360384e+01 4.184487643714608907e-01
2.700053867038876731e+01 4.260669124382898687e-01
2.800055862114390592e+01 3.982604436305322571e-01
2.900057857189903743e+01 3.911891727945865926e-01
3.000059852265417248e+01 3.694568740737727564e-01
3.100061847340930754e+01 3.663047071640327945e-01
3.200063842416444260e+01 3.851801644114054568e-01
3.300065837491957410e+01 3.919131543122047479e-01
3.400067832567470560e+01 3.725138343547441111e-01
3.500069827642985842e+01 4.364965161106433289e-01
3.600071822718499703e+01 4.003324605433029593e-01
3.700073817794012143e+01 4.897338552834396008e-01
3.800075812869526715e+01 5.125680346599836845e-01
3.900077807945044128e+01 4.937422695161482467e-01
4.000079803020557279e+01 4.232965096947474692e-01
4.100081798096072561e+01 5.379629676181286735e-01
4.200083793171585711e+01 4.991643089523024046e-01
4.300085788247098861e+01 5.490081623638812802e-01
4.400087783322612012e+01 4.567476997804043037e-01
4.500089778398125873e+01 4.492174697198377809e-01
4.600091773473639734e+01 3.179780469539328913e-01
4.700093768549152884e+01 3.804051663768427960e-01
4.800095763624666034e+01 4.118588402600538156e-01
4.900097758700180606e+01 2.934274171995828184e-01
5.000099753775694467e+01 4.436762417756299204e-01
5.100101748851207617e+01 2.798049351099459181e-01
5.200103743926720767e+01 2.700640799443800311e-01
5.300105739002239602e+01 1.892290844581294429e-01
5.400107734077753463e+01 2.076501671539273675e-01
5.500109729153266613e+01 1.610741815192710258e-01
5.600111724228781185e+01 1.487458864916965662e-01
5.700113719304294335e+01 1.532729755745126932e-01
5.800115714379807486e+01 1.606402229272733406e-01
5.900117709455320636e+01 1.514712139973872773e-01
6.000119704530834497e+01 1.490828090135696837e-01
6.100121699606348358e+01 1.539271461042876210e-01
6.200123694681861508e+01 1.356067440157544546e-01
6.300125689757374658e+01 1.424005597902521514e-01
6.400127684832888519e+01 1.358885963555780396e-01
6.500129679908401670e+01 1.357476701856662471e-01
6.600131674983914820e+01 1.358885963555780396e-01
6.700133670059427971e+01 1.358885963555780396e-01
6.800135665134941121e+01 1.358885963555780396e-01
6.900137660210458534e+01 1.358885963555780396e-01
7.000139655285971685e+01 1.358885963555780396e-01
7.100141650361486256e+01 1.358885963555780396e-01
7.200143645436999407e+01 1.358885963555780396e-01
7.300145640512512557e+01 1.358885963555780396e-01
7.400147635588024286e+01 1.358885963555780396e-01
7.500149630663545963e+01 1.358885963555780396e-01
7.600151625739053429e+01 1.358885963555780396e-01
7.700153620814575106e+01 1.358885963555780396e-01
7.800155615890088256e+01 1.358885963555780396e-01
7.900157610965601407e+01 1.358885963555780396e-01
8.000159606041114557e+01 1.358885963555780396e-01
8.100161601116627708e+01 1.358885963555780396e-01
8.200163596192145121e+01 1.358885963555780396e-01
