#####################################################################
# Alchemist log file - simulation started at: 2017-05-25T04:25+0000 #
#####################################################################
# random = 7.0, targets = 100.0, density = 7.099073319511142, gridShift = 1.0, perturbation = 0.5, connfactor = 0.25
#
# The columns have the following meaning: 
# time se[Mean] 
0.0 NaN 
1.000984151344496 NaN 
2.000984151344496 1.0 
3.000984151344496 0.9999234615384616 
4.000984151344496 0.9991806588319089 
5.000984151344496 0.9978397044159544 
6.000984151344496 0.9964690028490029 
7.000984151344496 0.9924534366096867 
8.000984151344497 0.9923728205128205 
9.000984151344497 0.9900141631054131 
10.000984151344497 0.9882683440170941 
11.000984151344497 0.9860975925925926 
12.000984151344497 0.9843485398860399 
13.000984151344497 0.9813712393162393 
14.000984151344497 0.9784242272079772 
15.000984151344497 0.9737809223646723 
16.000984151344497 0.9699433725071225 
17.000984151344497 0.9660064494301994 
18.000984151344497 0.9615317022792023 
19.000984151344497 0.9578043839031339 
20.000984151344497 0.9530503062678063 
21.000984151344497 0.9495864423076923 
22.000984151344497 0.9472490064102564 
23.000984151344497 0.9437788782051282 
24.000984151344497 0.9406897756410256 
25.000984151344497 0.9390079487179488 
26.000984151344497 0.9358694871794871 
27.000984151344497 0.9339126923076924 
28.000984151344497 0.9326979487179488 
29.000984151344497 0.9301116666666667 
30.000984151344497 0.9278625641025642 
31.000984151344497 0.9260423076923077 
32.0009841513445 0.9241785897435898 
33.0009841513445 0.9219639743589744 
34.0009841513445 0.9172321794871795 
35.0009841513445 0.9127166666666666 
36.0009841513445 0.9103201282051282 
37.0009841513445 0.9063916987179488 
38.0009841513445 0.8981419871794872 
39.0009841513445 0.8996622756410256 
40.0009841513445 0.8881424358974359 
41.0009841513445 0.8935748005698007 
42.0009841513445 0.8832234259259258 
43.0009841513445 0.8817278454415953 
44.0009841513445 0.8773894266381767 
45.0009841513445 0.8709287856125356 
46.0009841513445 0.8711877670940171 
47.0009841513445 0.8577691951566953 
48.0009841513445 0.8558937464387464 
49.0009841513445 0.8504414565527065 
50.0009841513445 0.8421254131054131 
51.0009841513445 0.8414940313390313 
52.0009841513445 0.8321902136752137 
53.0009841513445 0.8234970156695157 
54.0009841513445 0.8250487357549858 
55.0009841513445 0.8252535363247863 
56.0009841513445 0.8251549430199431 
57.0009841513445 0.8131887143874644 
58.0009841513445 0.8075100747863249 
59.0009841513445 0.8100949928774929 
60.0009841513445 0.7972618162393162 
61.0009841513445 0.7984046225071225 
62.0009841513445 0.7862369943019943 
63.0009841513445 0.783805113960114 
64.0009841513445 0.7752361823361824 
65.0009841513445 0.767095933048433 
66.0009841513445 0.7604567877492878 
67.0009841513445 0.7531439814814814 
68.0009841513445 0.7484300854700855 
69.0009841513445 0.7354621438746439 
70.0009841513445 0.7284409971509972 
71.0009841513445 0.7176710220797721 
72.0009841513445 0.7104656125356126 
73.0009841513445 0.7017695655270655 
74.0009841513445 0.6942849180911681 
75.0009841513445 0.6889564921652422 
76.0009841513445 0.6840553454415954 
77.0009841513445 0.6961517236467237 
78.0009841513445 0.7025810042735042 
79.0009841513445 0.6951136502849004 
80.0009841513445 0.6936973504273505 
81.0009841513445 0.7160576709401709 
82.0009841513445 0.6862054700854701 
83.0009841513445 0.7293784437321937 
84.0009841513445 0.6700778311965812 
85.0009841513445 0.705550405982906 
86.0009841513445 0.6824310470085471 
87.0009841513445 0.6876324857549858 
88.0009841513445 0.6901113319088319 
89.0009841513445 0.6674389921652422 
90.0009841513445 0.7146326531339031 
91.0009841513445 0.6984905840455841 
92.0009841513445 0.708534821937322 
93.0009841513445 0.727288839031339 
94.0009841513445 0.6936339743589743 
95.0009841513445 0.7297855662393162 
96.0009841513445 0.7163266702279202 
97.0009841513445 0.7043142272079772 
98.0009841513445 0.6592138710826212 
99.0009841513445 0.6446670868945868 
100.0009841513445 0.6655040598290598 
101.0009841513445 0.653832589031339 
102.0009841513445 0.6387000676638176 
103.0009841513445 0.6545454415954416 
104.0009841513445 0.6147953632478633 
105.0009841513445 0.6417814494301994 
106.0009841513445 0.6121847222222222 
107.0009841513445 0.618263628917379 
108.0009841513445 0.6422299715099714 
109.0009841513445 0.5837181837606837 
110.0009841513445 0.5802600961538462 
111.0009841513445 0.554071396011396 
112.0009841513445 0.5414067236467237 
113.0009841513445 0.5312165064102564 
114.0009841513445 0.519799472934473 
115.0009841513445 0.522238133903134 
116.0009841513445 0.49095710470085463 
117.0009841513445 0.5061020477207977 
118.0009841513445 0.4785909615384616 
119.0009841513445 0.4905125 
120.0009841513445 0.4900405591168091 
121.0009841513445 0.47446218304843313 
122.0009841513445 0.4826049145299145 
123.0009841513445 0.46548017094017097 
124.0009841513445 0.4611480591168091 
125.0009841513445 0.4626372898860399 
126.0009841513445 0.4527418945868946 
127.0009841513445 0.45402911324786327 
128.00098415134448 0.4504613319088319 
129.00098415134448 0.4480807692307692 
130.00098415134448 0.44796256410256413 
131.00098415134448 0.44638833333333333 
132.00098415134448 0.4473446153846154 
133.00098415134448 0.44759551282051285 
134.00098415134448 0.44790089743589745 
135.00098415134448 0.447914358974359 
136.00098415134448 0.44798102564102565 
137.00098415134448 0.448014358974359 
138.00098415134448 0.448099358974359 
139.00098415134448 0.448303717948718 
140.00098415134448 0.44837141025641025 
141.00098415134448 0.44845666666666667 
142.00098415134448 0.4485930769230769 
143.00098415134448 0.4486612820512821 
144.00098415134448 0.4487465384615385 
145.00098415134448 0.4488147435897436 
146.00098415134448 0.44886589743589744 
147.00098415134448 0.4489 
148.00098415134448 0.4489 
149.00098415134448 0.4489 
150.00098415134448 0.4489 
151.00098415134448 0.4489 
152.00098415134448 0.4489 
153.00098415134448 0.4489 
154.00098415134448 0.4489 
155.00098415134448 0.4489 
156.00098415134448 0.4489 
157.00098415134448 0.4489 
158.00098415134448 0.4489 
159.00098415134448 0.4489 
160.00098415134448 0.4489 
161.00098415134448 0.4489 
162.00098415134448 0.4489 
163.00098415134448 0.4489 
164.00098415134448 0.4489 
165.00098415134448 0.4489 
166.00098415134448 0.4489 
167.00098415134448 0.4489 
168.00098415134448 0.4489 
169.00098415134448 0.4489 
170.00098415134448 0.4489 
171.00098415134448 0.4489 
172.00098415134448 0.4489 
173.00098415134448 0.4489 
174.00098415134448 0.4489 
175.00098415134448 0.4489 
176.00098415134448 0.4489 
177.00098415134448 0.4489 
178.00098415134448 0.4489 
179.00098415134448 0.4489 
180.00098415134448 0.4489 
181.00098415134448 0.4489 
182.00098415134448 0.4489 
183.00098415134448 0.4489 
184.00098415134448 0.4489 
185.00098415134448 0.4489 
186.00098415134448 0.4489 
187.00098415134448 0.4489 
188.00098415134448 0.4489 
189.00098415134448 0.4489 
190.00098415134448 0.4489 
191.00098415134448 0.4489 
192.00098415134448 0.4489 
193.00098415134448 0.4489 
194.00098415134448 0.4489 
195.00098415134448 0.4489 
196.00098415134448 0.4489 
197.00098415134448 0.4489 
198.00098415134448 0.4489 
199.00098415134448 0.4489 
200.00098415134448 0.4489 
201.00098415134448 0.4489 
202.00098415134448 0.4489 
203.00098415134448 0.4489 
204.00098415134448 0.4489 
#####################################################################
# End of data export. Simulation finished at: 2017-05-25T04:31+0000 #
#####################################################################
