#####################################################################
# Alchemist log file - simulation started at: 2017-05-24T00:43+0000 #
#####################################################################
# random = 6.0, targets = 3.1622776601683795, density = 1.2632455339402642, gridShift = 0.0, perturbation = 0.0, connfactor = 0.5
#
# The columns have the following meaning: 
# time se[Mean] 
0.0 NaN 
1.0043581642399184 NaN 
2.0043581642399184 1.0 
3.0043581642399184 0.9968493755500966 
4.004358164239918 0.9716443799508694 
5.004358164239918 0.9452576837624896 
6.004358164239918 0.899180017603091 
7.004358164239918 0.8842158499886824 
8.004358164239918 0.8806811364022858 
9.004358164239918 0.8865827138940078 
10.004358164239918 0.8870118184817655 
11.004358164239918 0.8909513975667774 
12.004358164239918 0.8948927080152994 
13.004358164239918 0.883067045306223 
14.004358164239918 0.9000105249624436 
15.004358164239918 0.8255737760268941 
16.004358164239918 0.8424912852304618 
17.004358164239918 0.7940675315278599 
18.004358164239918 0.7617532873951055 
19.004358164239918 0.7495521923670867 
20.004358164239918 0.7129160113763373 
21.004358164239918 0.6845482717826357 
22.004358164239918 0.6776155311395576 
23.004358164239918 0.6436335292092338 
24.004358164239918 0.6125753431089812 
25.004358164239918 0.6341196003359225 
26.004358164239918 0.5742748670476825 
27.004358164239918 0.5800623569229103 
28.004358164239918 0.556969988355778 
29.004358164239918 0.5307371099570386 
30.004358164239918 0.5108333646494453 
31.004358164239918 0.4842892055692282 
32.00435816423992 0.5687159171557982 
33.00435816423992 0.9830228961370475 
34.00435816423992 0.7803376437210274 
35.00435816423992 1.9312258104048496 
36.00435816423992 1.2034253653231584 
37.00435816423992 1.5762741359639896 
38.00435816423992 1.8862973136782626 
39.00435816423992 1.2179850321893049 
40.00435816423992 1.2870394303110073 
41.00435816423992 1.140261154649314 
42.00435816423992 0.4656890857972062 
43.00435816423992 0.3866897404757478 
44.00435816423992 0.37520670536650874 
45.00435816423992 0.24939605169528042 
46.00435816423992 0.1255734580710036 
47.00435816423992 0.17326721468543096 
48.00435816423992 0.05733936150276919 
49.00435816423992 0.028909292822701153 
50.00435816423992 0.03428143783066396 
51.00435816423992 0.031264037183455384 
52.00435816423992 0.02577078791736902 
53.00435816423992 0.017533511063504613 
54.00435816423992 0.008244294696162205 
55.00435816423992 0.003932746019228323 
56.00435816423992 0.0030226871259961294 
57.00435816423992 0.002633403898972407 
58.00435816423992 0.002633403898972407 
59.00435816423992 0.002633403898972407 
60.00435816423992 0.002633403898972407 
61.00435816423992 0.002633403898972407 
62.00435816423992 0.002633403898972407 
63.00435816423992 0.002633403898972407 
64.00435816423992 0.002633403898972407 
65.00435816423992 0.002633403898972407 
66.00435816423992 0.002633403898972407 
67.00435816423992 0.002633403898972407 
68.00435816423992 0.002633403898972407 
69.00435816423992 0.002633403898972407 
70.00435816423992 0.002633403898972407 
71.00435816423992 0.002633403898972407 
72.00435816423992 0.002633403898972407 
73.00435816423992 0.002633403898972407 
74.00435816423992 0.002633403898972407 
75.00435816423992 0.002633403898972407 
76.00435816423992 0.002633403898972407 
77.00435816423992 0.002633403898972407 
78.00435816423992 0.002633403898972407 
79.00435816423992 0.002633403898972407 
80.00435816423992 0.002633403898972407 
#####################################################################
# End of data export. Simulation finished at: 2017-05-24T00:44+0000 #
#####################################################################
