#####################################################################
# Alchemist log file - simulation started at: 2017-05-21T22:48+0000 #
#####################################################################
# random = 3.0, targets = 3.1622776601683795, density = 10.026386447354522, gridShift = 0.0, perturbation = 0.5, connfactor = 0.25
#
# The columns have the following meaning: 
# time se[Mean] 
0.0 NaN 
1.0016359619213666 NaN 
2.001635961921367 1.0 
3.001635961921367 1.0 
4.001635961921367 0.9995110601175081 
5.001635961921367 0.9980442404700325 
6.001635961921367 0.996272135669174 
7.001635961921367 0.995110601175081 
8.001635961921366 0.9894890016191235 
9.001635961921366 0.9857015311688604 
10.001635961921366 0.9817304059894878 
11.001635961921366 0.9819760850234329 
12.001635961921366 0.9810602295632852 
13.001635961921366 0.9839318445534001 
14.001635961921366 0.9857039493542584 
15.001635961921366 0.9880866244618824 
16.001635961921366 0.9857039493542584 
17.001635961921366 0.9896750745336312 
18.001635961921366 0.9888808494977566 
19.001635961921366 0.9920577496412549 
20.001635961921366 0.9915688097587629 
21.001635961921366 0.9919957253364188 
22.001635961921366 0.9916284158782005 
23.001635961921366 0.987044302206664 
24.001635961921366 0.9824601885351277 
25.001635961921366 0.9764092552161158 
26.001635961921366 0.9706636070504859 
27.001635961921366 0.9603958695181565 
28.001635961921366 0.9491502522208428 
29.001635961921366 0.937415695041037 
30.001635961921366 0.9222585586837887 
31.001635961921366 0.9061235425615557 
32.001635961921366 0.8914553460867989 
33.001635961921366 0.8762982097295497 
34.001635961921366 0.8626078930197771 
35.001635961921366 0.8523401554874463 
36.001635961921366 0.84256135783761 
37.001635961921366 0.832293620305279 
38.001635961921366 0.8239816423029171 
39.001635961921366 0.8146917845355713 
40.001635961921366 0.8073576862981935 
41.001635961921366 0.8005125279433059 
42.001635961921366 0.7902447904109746 
43.001635961921366 0.7863332713510415 
44.001635961921366 0.7809549326436298 
45.001635961921366 0.7775323534661873 
46.001635961921366 0.7706871951113009 
47.001635961921366 0.7672646159338591 
48.001635961921366 0.7687314355813345 
49.001635961921366 0.7662867361688716 
50.001635961921366 0.7653088564038899 
51.001635961921366 0.7643309766389046 
52.001635961921366 0.764819916521396 
53.001635961921366 0.7633530968739204 
54.001635961921366 0.7657977962863809 
55.001635961921366 0.7677535558163472 
56.001635961921366 0.7682424956988411 
57.001635961921366 0.7711761349937923 
58.001635961921366 0.7745987141712372 
59.001635961921366 0.7775323534661884 
60.001635961921366 0.7843775118210728 
61.001635961921366 0.7873111511160238 
62.001635961921366 0.7926894898234347 
63.001635961921366 0.7980678285308469 
64.00163596192137 0.8014904077082917 
65.00163596192137 0.8068687464157004 
66.00163596192137 0.8127360250056035 
67.00163596192137 0.8166475440655383 
68.00163596192137 0.8220258827729507 
69.00163596192137 0.8274042214803586 
70.00163596192137 0.8313157405402969 
71.00163596192137 0.8376719590126902 
72.00163596192137 0.8435392376025925 
73.00163596192137 0.8479396965450192 
74.00163596192137 0.8547848548999073 
75.00163596192137 0.8591853138423338 
76.00163596192137 0.8655415323147275 
77.00163596192137 0.8733645704345995 
78.00163596192137 0.8782539692595164 
79.00163596192137 0.8841212478494215 
80.00163596192137 0.8894995865568303 
81.00163596192137 0.8948779252642415 
82.00163596192137 0.9041677830315888 
83.00163596192137 0.9075903622090307 
84.00163596192137 0.9144355205639176 
85.00163596192137 0.9203027991538206 
86.00163596192137 0.9237253783312644 
87.00163596192137 0.9291037170386757 
88.00163596192137 0.9369267551585447 
89.00163596192137 0.9413272141009715 
90.00163596192137 0.9437719135134319 
91.00163596192137 0.9486613123383509 
92.00163596192137 0.9530617712807772 
93.00163596192137 1.0555628737923397 
94.00163596192137 1.05660277786216 
95.00163596192137 1.1948118494235471 
96.00163596192137 1.3920530406316363 
97.00163596192137 1.5251914768243982 
98.00163596192137 2.0891284166045243 
99.00163596192137 1.628959665472056 
100.00163596192137 2.3005046159133387 
101.00163596192137 2.513883241429066 
102.00163596192137 2.483208913812549 
103.00163596192137 2.9237008574064536 
104.00163596192137 3.136934519159444 
105.00163596192137 2.8398641069185433 
106.00163596192137 3.43785370500112 
107.00163596192137 2.9834902081537082 
108.00163596192137 3.7451315275005572 
109.00163596192137 4.118858507341997 
110.00163596192137 3.726173260096192 
111.00163596192137 5.374810708983497 
112.00163596192137 4.351387285424099 
113.00163596192137 5.071287478215428 
114.00163596192137 4.77242234898955 
115.00163596192137 4.334457323111642 
116.00163596192137 4.524240367472683 
117.00163596192137 3.7393780309855695 
118.00163596192137 5.173944914262367 
119.00163596192137 4.05729090047557 
120.00163596192137 4.444624536414521 
121.00163596192137 4.712171634275883 
122.00163596192137 4.550252605691746 
123.00163596192137 4.655526304953264 
124.00163596192137 4.903249213327944 
125.00163596192137 4.255496438212953 
126.00163596192137 4.745923971156922 
127.00163596192137 4.343367186700609 
128.00163596192135 4.856811166902675 
129.00163596192135 5.129735033801583 
130.00163596192135 6.074178820772271 
131.00163596192135 5.464263883585763 
132.00163596192135 5.9190035141174455 
133.00163596192135 6.682358901815581 
134.00163596192135 6.30883975855724 
135.00163596192135 6.338336472897425 
136.00163596192135 6.977638712287983 
137.00163596192135 6.900664047452738 
138.00163596192135 6.663626967961968 
139.00163596192135 6.991348501842112 
140.00163596192135 7.510366439046515 
141.00163596192135 8.472089128181391 
142.00163596192135 6.849747438997927 
143.00163596192135 9.646877054606886 
144.00163596192135 7.170988578434829 
145.00163596192135 7.544410273122879 
146.00163596192135 6.562604776024877 
147.00163596192135 5.691499680603744 
148.00163596192135 5.626952234197459 
149.00163596192135 4.501747096776176 
150.00163596192135 7.120522940050518 
151.00163596192135 5.381909310373228 
152.00163596192135 5.182014013499733 
153.00163596192135 6.328042262686874 
154.00163596192135 6.125182738623773 
155.00163596192135 5.933672686468898 
156.00163596192135 6.49865194850423 
157.00163596192135 4.947143075668593 
158.00163596192135 5.715839680777638 
159.00163596192135 5.129727312813393 
160.00163596192135 5.118975471769363 
161.00163596192135 5.495318714825357 
162.00163596192135 5.492475269544511 
163.00163596192135 6.055004995796596 
164.00163596192135 5.088701459691117 
165.00163596192135 4.887949913476895 
166.00163596192135 5.261187953435833 
167.00163596192135 4.294407568374842 
168.00163596192135 4.289627709047205 
169.00163596192135 6.012385856231782 
170.00163596192135 3.697194546876013 
171.00163596192135 4.841629509620619 
172.00163596192135 4.448488328572381 
173.00163596192135 4.053701509518345 
174.00163596192135 3.279623299000957 
175.00163596192135 3.273629553615977 
176.00163596192135 1.7241021918341517 
177.00163596192135 1.7252274535472747 
178.00163596192135 0.3738015201695084 
179.00163596192135 0.5566081030097941 
180.00163596192135 0.17337859244712206 
181.00163596192135 0.17194961525049732 
182.00163596192135 0.16206853265957402 
183.00163596192135 0.16507785685622714 
184.00163596192135 0.1593966511808322 
185.00163596192135 0.15444522805107733 
186.00163596192135 0.15294939017881956 
187.00163596192135 0.15037338760049268 
188.00163596192135 0.1463305653746901 
189.00163596192135 0.14545255236539312 
190.00163596192135 0.1411713056618409 
191.00163596192135 0.13957076466309934 
192.00163596192135 0.13724044111871764 
193.00163596192135 0.13552794243729677 
194.00163596192135 0.1356399001199761 
195.00163596192135 0.13496972369377344 
196.00163596192135 0.13508893593264829 
197.00163596192135 0.13508893593264829 
198.00163596192135 0.13508893593264829 
199.00163596192135 0.13508893593264829 
200.00163596192135 0.13508893593264829 
201.00163596192135 0.13508893593264829 
202.00163596192135 0.13508893593264829 
203.00163596192135 0.13508893593264829 
204.00163596192135 0.13508893593264829 
205.00163596192135 0.13508893593264829 
206.00163596192135 0.13508893593264829 
207.00163596192135 0.13508893593264829 
208.00163596192135 0.13508893593264829 
209.00163596192135 0.13508893593264829 
210.00163596192135 0.13508893593264829 
211.00163596192135 0.13508893593264829 
212.00163596192135 0.13508893593264829 
213.00163596192135 0.13508893593264829 
214.00163596192135 0.13508893593264829 
215.00163596192135 0.13508893593264829 
216.00163596192135 0.13508893593264829 
217.00163596192135 0.13508893593264829 
218.00163596192135 0.13508893593264829 
219.00163596192135 0.13508893593264829 
220.00163596192135 0.13508893593264829 
221.00163596192135 0.13508893593264829 
222.00163596192135 0.13508893593264829 
223.00163596192135 0.13508893593264829 
224.00163596192135 0.13508893593264829 
225.00163596192135 0.13508893593264829 
226.00163596192135 0.13508893593264829 
227.00163596192135 0.13508893593264829 
228.00163596192135 0.13508893593264829 
229.00163596192135 0.13508893593264829 
230.00163596192135 0.13508893593264829 
231.00163596192135 0.13508893593264829 
232.00163596192135 0.13508893593264829 
233.00163596192135 0.13508893593264829 
234.00163596192135 0.13508893593264829 
235.00163596192135 0.13508893593264829 
236.00163596192135 0.13508893593264829 
237.00163596192135 0.13508893593264829 
238.00163596192135 0.13508893593264829 
239.00163596192135 0.13508893593264829 
240.00163596192135 0.13508893593264829 
241.00163596192135 0.13508893593264829 
242.00163596192135 0.13508893593264829 
243.00163596192135 0.13508893593264829 
244.00163596192135 0.13508893593264829 
245.00163596192135 0.13508893593264829 
246.00163596192135 0.13508893593264829 
247.00163596192135 0.13508893593264829 
248.00163596192135 0.13508893593264829 
249.00163596192135 0.13508893593264829 
250.00163596192135 0.13508893593264829 
251.00163596192135 0.13508893593264829 
252.00163596192135 0.13508893593264829 
253.00163596192135 0.13508893593264829 
254.00163596192135 0.13508893593264829 
255.00163596192135 0.13508893593264829 
256.00163596192135 0.13508893593264829 
257.00163596192135 0.13508893593264829 
258.00163596192135 0.13508893593264829 
259.00163596192135 0.13508893593264829 
260.00163596192135 0.13508893593264829 
261.00163596192135 0.13508893593264829 
262.00163596192135 0.13508893593264829 
263.00163596192135 0.13508893593264829 
264.00163596192135 0.13508893593264829 
265.00163596192135 0.13508893593264829 
266.00163596192135 0.13508893593264829 
267.00163596192135 0.13508893593264829 
268.00163596192135 0.13508893593264829 
269.00163596192135 0.13508893593264829 
270.00163596192135 0.13508893593264829 
271.00163596192135 0.13508893593264829 
#####################################################################
# End of data export. Simulation finished at: 2017-05-21T22:53+0000 #
#####################################################################
