#####################################################################
# Alchemist log file - simulation started at: 2017-05-24T21:28+0000 #
#####################################################################
# random = 7.0, targets = 10.0, density = 20.0, gridShift = 0.0, perturbation = 0.0, connfactor = 0.5
#
# The columns have the following meaning: 
# time se[Mean] 
0.0 NaN 
1.0008200817491508 NaN 
2.0008200817491506 1.0 
3.0008200817491506 0.9999102079395085 
4.000820081749151 0.9991942344045369 
5.000820081749151 0.9981994328922495 
6.000820081749151 0.9959806238185256 
7.000820081749151 0.9940370982986767 
8.00082008174915 0.9930269376181475 
9.00082008174915 0.9924267485822307 
10.00082008174915 0.9910219754253308 
11.00082008174915 0.9906817107750473 
12.00082008174915 0.9867214083175804 
13.00082008174915 0.9862440926275993 
14.00082008174915 0.9799491965973536 
15.00082008174915 0.9780564744801512 
16.00082008174915 0.9714213137996219 
17.00082008174915 0.9672270793950849 
18.00082008174915 0.9622400756143665 
19.00082008174915 0.9547861531190928 
20.00082008174915 0.9548794896030244 
21.00082008174915 0.947677221172023 
22.00082008174915 0.9498003308128541 
23.00082008174915 0.9436661153119096 
24.00082008174915 0.9443773629489602 
25.00082008174915 0.9418702741020797 
26.00082008174915 0.9392769376181472 
27.00082008174915 0.9413244328922492 
28.00082008174915 0.9353579867674856 
29.00082008174915 0.9380931001890361 
30.00082008174915 0.9309971644612476 
31.00082008174915 0.9312559073724009 
32.000820081749154 0.9279702268431006 
33.000820081749154 0.9263173440453686 
34.000820081749154 0.9251335066162568 
35.000820081749154 0.9175697069943287 
36.000820081749154 0.9174267485822304 
37.000820081749154 0.9114354914933837 
38.000820081749154 0.9119836956521739 
39.000820081749154 0.9058010396975426 
40.000820081749154 0.9048168714555765 
41.000820081749154 0.9017403119092626 
42.000820081749154 0.8952197542533081 
43.000820081749154 0.8965701795841208 
44.000820081749154 0.8889886578449909 
45.000820081749154 0.892319234404537 
46.000820081749154 0.8814189508506619 
47.000820081749154 0.8816434310018906 
48.000820081749154 0.8747577977315689 
49.000820081749154 0.8708908317580342 
50.000820081749154 0.8648381379962192 
51.000820081749154 0.8594269848771264 
52.000820081749154 0.8533069470699434 
53.000820081749154 0.8473275047258982 
54.000820081749154 0.8421892722117204 
55.000820081749154 0.8347294423440456 
56.000820081749154 0.8286271266540642 
57.000820081749154 0.8230836483931946 
58.000820081749154 0.8183837429111531 
59.000820081749154 0.8135385160680529 
60.000820081749154 0.8086826559546316 
61.000820081749154 0.8026228733459355 
62.000820081749154 0.7985538752362947 
63.000820081749154 0.7936483931947067 
64.00082008174915 0.7894624291115314 
65.00082008174915 0.785493856332703 
66.00082008174915 0.7815134688090738 
67.00082008174915 0.7782561436672966 
68.00082008174915 0.77539224952741 
69.00082008174915 0.7728875236294899 
70.00082008174915 0.7706864366729681 
71.00082008174915 0.7688775992438563 
72.00082008174915 0.7670498582230625 
73.00082008174915 0.7654761342155009 
74.00082008174915 0.7634888941398867 
75.00082008174915 0.7624054820415879 
76.00082008174915 0.7608943761814744 
77.00082008174915 0.7600035444234404 
78.00082008174915 0.758920132325142 
79.00082008174915 0.7582915879017015 
80.00082008174915 0.7578698015122872 
81.00082008174915 0.7576618620037804 
82.00082008174915 0.7574196597353495 
83.00082008174915 0.7574598298676748 
84.00082008174915 0.7578721644612478 
85.00082008174915 0.758023393194707 
86.00082008174915 0.7587051039697542 
87.00082008174915 0.7592284971644613 
88.00082008174915 0.7598275047258977 
89.00082008174915 0.7606060964083176 
90.00082008174915 0.7613775992438563 
91.00082008174915 0.7624456521739134 
92.00082008174915 0.7632726843100189 
93.00082008174915 0.7642237712665407 
94.00082008174915 0.7653402646502836 
95.00082008174915 0.7664567580340266 
96.00082008174915 0.7675318998109641 
97.00082008174915 0.7686070415879016 
98.00082008174915 0.7695994801512285 
99.00082008174915 0.7707159735349716 
100.00082008174915 0.771749763705104 
101.00082008174915 0.7729076086956526 
102.00082008174915 0.77398275047259 
103.00082008174915 0.7752646502835536 
104.00082008174915 0.7767533081285445 
105.00082008174915 0.7777870982986764 
106.00082008174915 0.779110349716446 
107.00082008174915 0.7801027882797729 
108.00082008174915 0.7815500945179583 
109.00082008174915 0.7827492911153124 
110.00082008174915 0.7839484877126653 
111.00082008174915 0.7852303875236292 
112.00082008174915 0.7866776937618153 
113.00082008174915 0.7877528355387527 
114.00082008174915 0.7891587901701321 
115.00082008174915 0.7902339319470705 
116.00082008174915 0.7917639413988663 
117.00082008174915 0.7928414461247641 
118.00082008174915 0.7940016540642724 
119.00082008174915 0.7944777882797732 
120.00082008174915 0.7953969754253306 
121.00082008174915 0.7954111531190924 
122.00082008174915 0.7954194234404539 
123.00082008174915 0.7944636105860112 
124.00082008174915 0.7938456994328922 
125.00082008174915 0.7929052457466919 
126.00082008174915 0.7906734404536863 
127.00082008174915 0.7893360113421549 
128.00082008174917 0.7869588846880909 
129.00082008174917 0.7833742911153119 
130.00082008174917 0.7810775047258983 
131.00082008174917 0.7776346880907377 
132.00082008174917 0.7743974480151238 
133.00082008174917 0.7700342627599238 
134.00082008174917 0.7652894612476365 
135.00082008174917 0.7620427693761822 
136.00082008174917 0.7558471172022673 
137.00082008174917 0.7514933837429113 
138.00082008174917 0.7461661153119102 
139.00082008174917 0.7399787334593579 
140.00082008174917 0.7336023156899828 
141.00082008174917 0.7279489603024586 
142.00082008174917 0.8033849243856332 
143.00082008174917 0.7961070415879016 
144.00082008174917 1.2830021266540654 
145.00082008174917 0.8639815689981104 
146.00082008174917 1.1858884688090743 
147.00082008174917 1.4248735822306355 
148.00082008174917 1.1742190453686152 
149.00082008174917 1.5938456994328798 
150.00082008174917 1.278452268431007 
151.00082008174917 1.5106391776937569 
152.00082008174917 1.120272920604916 
153.00082008174917 1.0134546313799588 
154.00082008174917 1.1313114366729684 
155.00082008174917 0.9384239130434803 
156.00082008174917 0.8925472589792036 
157.00082008174917 0.9314732986767492 
158.00082008174917 0.9372707939508499 
159.00082008174917 0.8636082230623825 
160.00082008174917 0.9204997637051048 
161.00082008174917 0.8134439981096417 
162.00082008174917 0.7709605387523625 
163.00082008174917 0.7403319943289236 
164.00082008174917 0.6632963137996225 
165.00082008174917 0.8170120510396967 
166.00082008174917 0.7218123818525506 
167.00082008174917 0.7717166824196592 
168.00082008174917 0.8192344045368629 
169.00082008174917 0.8311117674858226 
170.00082008174917 0.9256131852551999 
171.00082008174917 0.8625460775047314 
172.00082008174917 1.2449456521739166 
173.00082008174917 1.1842438563326971 
174.00082008174917 1.2612074669187185 
175.00082008174917 1.256987240075612 
176.00082008174917 1.3705741965973404 
177.00082008174917 1.0326654064272205 
178.00082008174917 1.3860337901701356 
179.00082008174917 1.2017332230623778 
180.00082008174917 1.1245675803402784 
181.00082008174917 1.2179300567107774 
182.00082008174917 1.183592863894151 
183.00082008174917 1.1845876654064225 
184.00082008174917 0.9991138941398836 
185.00082008174917 1.1224562854442248 
186.00082008174917 0.9656179111531208 
187.00082008174917 0.8318809073724036 
188.00082008174917 0.9150531663516044 
189.00082008174917 0.7438303402646483 
190.00082008174917 0.70615193761815 
191.00082008174917 0.6447932419659722 
192.00082008174917 0.6387370037807173 
193.00082008174917 0.6419777882797718 
194.00082008174917 0.5537476370510416 
195.00082008174917 0.7062641776937645 
196.00082008174917 0.558101370510399 
197.00082008174917 0.5898086011342142 
198.00082008174917 0.49424149338374346 
199.00082008174917 0.5129253308128527 
200.00082008174917 0.574371455576557 
201.00082008174917 0.5035621455576578 
202.00082008174917 0.4537169187145544 
203.00082008174917 0.4062121928166357 
204.00082008174917 0.3847837901701311 
205.00082008174917 0.313145085066163 
206.00082008174917 0.40406190926276103 
207.00082008174917 0.5175886105860109 
208.00082008174917 0.3848936672967871 
209.00082008174917 0.33161153119092796 
210.00082008174917 0.3189130434782627 
211.00082008174917 0.23508861058601166 
212.00082008174917 0.32417414933837513 
213.00082008174917 0.3573286862003778 
214.00082008174917 0.3133861058601134 
215.00082008174917 0.3445569470699421 
216.00082008174917 0.3373747637051055 
217.00082008174917 0.24029655009451725 
218.00082008174917 0.2915264650283526 
219.00082008174917 0.25280954631379976 
220.00082008174917 0.32120982986767355 
221.00082008174917 0.3136885633270349 
222.00082008174917 0.31804702268430995 
223.00082008174917 0.2232159735349734 
224.00082008174917 0.19248936672968034 
225.00082008174917 0.2336684782608703 
226.00082008174917 0.2146833648393197 
227.00082008174917 0.1989295841209848 
228.00082008174917 0.17500118147448013 
229.00082008174917 0.18173086011342296 
230.00082008174917 0.19708175803402642 
231.00082008174917 0.12966564272211772 
232.00082008174917 0.1263976843100182 
233.00082008174917 0.1271880907372418 
234.00082008174917 0.1458423913043488 
235.00082008174917 0.08092036862003772 
236.00082008174917 0.05012996219281714 
237.00082008174917 0.04908553875236192 
238.00082008174917 0.019543950850661795 
239.00082008174917 0.04974243856332643 
240.00082008174917 0.009367911153119116 
241.00082008174917 0.04893431001890366 
242.00082008174917 0.03957112476370542 
243.00082008174917 0.009363185255198594 
244.00082008174917 9.451795841210007E-6 
245.00082008174917 0.009358459357277736 
246.00082008174917 0.009363185255198594 
247.00082008174917 4.7258979206050035E-6 
248.00082008174917 0.0 
249.00082008174917 0.0 
250.00082008174917 0.0 
251.00082008174917 0.0 
252.00082008174917 0.0 
253.00082008174917 0.0 
254.00082008174917 0.0 
255.00082008174917 0.0 
256.00082008174917 0.0 
257.00082008174917 0.0 
258.00082008174917 0.0 
259.00082008174917 0.0 
260.00082008174917 0.0 
261.00082008174917 0.0 
262.00082008174917 0.0 
263.00082008174917 0.0 
264.00082008174917 0.0 
265.00082008174917 0.0 
266.00082008174917 0.0 
267.00082008174917 0.0 
268.00082008174917 0.0 
269.00082008174917 0.0 
270.00082008174917 0.0 
271.00082008174917 0.0 
272.00082008174917 0.0 
273.00082008174917 0.0 
274.00082008174917 0.0 
275.00082008174917 0.0 
276.00082008174917 0.0 
277.00082008174917 0.0 
278.00082008174917 0.0 
279.00082008174917 0.0 
280.00082008174917 0.0 
281.00082008174917 0.0 
282.00082008174917 0.0 
283.00082008174917 0.0 
284.00082008174917 0.0 
285.00082008174917 0.0 
286.00082008174917 0.0 
287.00082008174917 0.0 
288.00082008174917 0.0 
289.00082008174917 0.0 
290.00082008174917 0.0 
291.00082008174917 0.0 
292.00082008174917 0.0 
293.00082008174917 0.0 
294.00082008174917 0.0 
295.00082008174917 0.0 
296.00082008174917 0.0 
297.00082008174917 0.0 
298.00082008174917 0.0 
299.00082008174917 0.0 
300.00082008174917 0.0 
301.00082008174917 0.0 
302.00082008174917 0.0 
303.00082008174917 0.0 
304.00082008174917 0.0 
305.00082008174917 0.0 
306.00082008174917 0.0 
307.00082008174917 0.0 
308.00082008174917 0.0 
309.00082008174917 0.0 
310.00082008174917 0.0 
311.00082008174917 0.0 
312.00082008174917 0.0 
313.00082008174917 0.0 
314.00082008174917 0.0 
315.00082008174917 0.0 
316.00082008174917 0.0 
317.00082008174917 0.0 
318.00082008174917 0.0 
319.00082008174917 0.0 
320.00082008174917 0.0 
321.00082008174917 0.0 
322.00082008174917 0.0 
323.00082008174917 0.0 
324.00082008174917 0.0 
325.00082008174917 0.0 
326.00082008174917 0.0 
327.00082008174917 0.0 
328.00082008174917 0.0 
329.00082008174917 0.0 
330.00082008174917 0.0 
331.00082008174917 0.0 
332.00082008174917 0.0 
333.00082008174917 0.0 
334.00082008174917 0.0 
335.00082008174917 0.0 
336.00082008174917 0.0 
337.00082008174917 0.0 
338.00082008174917 0.0 
339.00082008174917 0.0 
340.00082008174917 0.0 
341.00082008174917 0.0 
342.00082008174917 0.0 
343.00082008174917 0.0 
344.00082008174917 0.0 
345.00082008174917 0.0 
346.00082008174917 0.0 
347.00082008174917 0.0 
348.00082008174917 0.0 
349.00082008174917 0.0 
350.00082008174917 0.0 
351.00082008174917 0.0 
352.00082008174917 0.0 
353.00082008174917 0.0 
354.00082008174917 0.0 
#####################################################################
# End of data export. Simulation finished at: 2017-05-24T21:53+0000 #
#####################################################################
