#####################################################################
# Alchemist log file - simulation started at: 2017-05-22T14:48+0000 #
#####################################################################
# random = 4.0, targets = 3.1622776601683795, density = 0.07978946395100113, gridShift = 0.0, perturbation = 0.5, connfactor = 0.25
#
# The columns have the following meaning: 
# time se[Mean] 
0.0 NaN 
1.1124924963623202 NaN 
2.11249249636232 1.0 
3.11249249636232 0.9817982646239476 
4.11249249636232 0.9121163231197381 
5.11249249636232 0.8455593816155287 
6.11249249636232 0.7878291754873715 
7.11249249636232 0.730647233983162 
8.11249249636232 0.6495618217268478 
9.11249249636232 0.5898031448465859 
10.11249249636232 0.47176599721421936 
11.11249249636232 0.39380558495790513 
12.11249249636232 0.3963823203339575 
13.11249249636232 0.41403579108606225 
14.11249249636232 0.44676599721421933 
15.11249249636232 0.4675444679663241 
16.11249249636232 0.4675444679663241 
17.11249249636232 0.4675444679663241 
18.11249249636232 0.4675444679663241 
#####################################################################
# End of data export. Simulation finished at: 2017-05-22T14:48+0000 #
#####################################################################
