#####################################################################
# Alchemist log file - simulation started at: 2017-05-21T03:08+0000 #
#####################################################################
# random = 2.0, targets = 1.0, density = 0.2247883923996312, gridShift = 0.0, perturbation = 0.5, connfactor = 2.0
#
# The columns have the following meaning: 
# time se[Mean] 
0.0 NaN 
1.003288451303821 NaN 
2.003288451303821 2.541666666666667 
3.003288451303821 3.7278163580246915 
4.0032884513038205 4.387731481481482 
5.0032884513038205 4.847029320987656 
6.0032884513038205 5.789737654320989 
7.0032884513038205 6.808449074074075 
8.00328845130382 5.393325617283953 
9.00328845130382 7.485532407407409 
10.00328845130382 6.1529706790123475 
11.00328845130382 3.8107638888888897 
12.00328845130382 2.2046682098765435 
13.00328845130382 1.9726080246913587 
14.00328845130382 1.7110339506172842 
15.00328845130382 1.2908950617283954 
16.00328845130382 1.2791280864197536 
17.00328845130382 1.278163580246914 
18.00328845130382 1.049575617283951 
19.00328845130382 1.0279706790123462 
20.00328845130382 1.0279706790123462 
21.00328845130382 1.0000000000000004 
22.00328845130382 1.0000000000000004 
23.00328845130382 1.0000000000000004 
24.00328845130382 1.0000000000000004 
25.00328845130382 1.0000000000000004 
26.00328845130382 1.0000000000000004 
27.00328845130382 1.0000000000000004 
28.00328845130382 1.0000000000000004 
#####################################################################
# End of data export. Simulation finished at: 2017-05-21T03:08+0000 #
#####################################################################
