#####################################################################
# Alchemist log file - simulation started at: 2017-05-21T11:03+0000 #
#####################################################################
# random = 2.0, targets = 31.622776601683793, density = 0.04, gridShift = 1.0, perturbation = 0.0, connfactor = 2.0
#
# The columns have the following meaning: 
# time se[Mean] 
0.0 NaN 
1.003288451303821 NaN 
2.003288451303821 1.1217115239554725 
3.003288451303821 1.231113109770017 
4.0032884513038205 1.532325278541371 
5.0032884513038205 1.0043167911688737 
6.0032884513038205 1.1191981180026749 
7.0032884513038205 0.7447283439181791 
8.00328845130382 1.0042782928194993 
9.00328845130382 0.909256970298043 
10.00328845130382 0.47820760064970447 
11.00328845130382 0.7209226906940938 
12.00328845130382 0.3739656777465138 
13.00328845130382 0.30058201869344264 
14.00328845130382 0.20160859335556378 
15.00328845130382 0.20060208233712493 
16.00328845130382 0.13052236815154494 
17.00328845130382 0.15439950503375402 
18.00328845130382 0.10516835576099656 
19.00328845130382 0.010358558546652874 
20.00328845130382 0.03439441342123976 
21.00328845130382 3.878506956048353E-4 
22.00328845130382 3.878506956048353E-4 
23.00328845130382 3.878506956048353E-4 
24.00328845130382 3.878506956048353E-4 
#####################################################################
# End of data export. Simulation finished at: 2017-05-21T11:03+0000 #
#####################################################################
