#####################################################################
# Alchemist log file - simulation started at: 2017-05-25T02:33+0000 #
#####################################################################
# random = 7.0, targets = 100.0, density = 0.07978946395100113, gridShift = 1.0, perturbation = 0.0, connfactor = 1.5
#
# The columns have the following meaning: 
# time se[Mean] 
0.0 NaN 
1.001616958347866 NaN 
2.0016169583478662 1.8526275 
3.0016169583478662 2.1911556944444444 
4.001616958347866 2.2427602777777778 
5.001616958347866 1.9284608333333333 
6.001616958347866 1.2660376388888888 
7.001616958347866 2.2993063888888887 
8.001616958347867 1.3472527777777774 
9.001616958347867 1.9738080555555555 
10.001616958347867 1.2640179166666665 
11.001616958347867 1.1287220833333331 
12.001616958347867 1.0585979166666666 
13.001616958347867 0.5830419444444445 
14.001616958347867 0.4669102777777779 
15.001616958347867 0.406503888888889 
16.001616958347867 0.335296388888889 
17.001616958347867 0.3222754166666668 
18.001616958347867 0.2860027777777779 
19.001616958347867 0.2185056944444445 
20.001616958347867 0.1342619444444445 
21.001616958347867 0.15096805555555554 
22.001616958347867 0.15716874999999986 
23.001616958347867 0.07071374999999992 
24.001616958347867 0.08061472222222212 
25.001616958347867 0.10363777777777766 
26.001616958347867 0.02590944444444441 
27.001616958347867 8.077935669463161E-32 
28.001616958347867 8.077935669463161E-32 
29.001616958347867 8.077935669463161E-32 
30.001616958347867 8.077935669463161E-32 
31.001616958347867 8.077935669463161E-32 
32.00161695834787 8.077935669463161E-32 
33.00161695834787 8.077935669463161E-32 
#####################################################################
# End of data export. Simulation finished at: 2017-05-25T02:33+0000 #
#####################################################################
