#####################################################################
# Alchemist log file - simulation started at: 2017-05-23T06:58+0000 #
#####################################################################
# random = 11.0, targets = 3.1622776601683795, density = 1.2632455339402642, gridShift = 0.0, perturbation = 0.0, connfactor = 0.5
#
# The columns have the following meaning: 
# time se[Mean] 
0.0 NaN 
1.0028758930102715 NaN 
2.0028758930102715 1.0 
3.0028758930102715 1.0 
4.0028758930102715 0.995126134331062 
5.0028758930102715 0.9919755098811587 
6.0028758930102715 0.957858450198593 
7.0028758930102715 0.914933139852608 
8.002875893010271 0.8776654557201389 
9.002875893010271 0.8256516189941605 
10.002875893010271 0.7794511286115763 
11.002875893010271 0.750031472301294 
12.002875893010271 0.7097118172436556 
13.002875893010271 0.7229786798963367 
14.002875893010271 0.6811278281879102 
15.002875893010271 0.7121669122973083 
16.00287589301027 0.678932266684055 
17.00287589301027 0.7046614892780625 
18.00287589301027 0.6801676053466772 
19.00287589301027 0.680463463334843 
20.00287589301027 0.698848142934668 
21.00287589301027 0.7024659277742071 
22.00287589301027 0.6925105695964933 
23.00287589301027 0.6709441010035817 
24.00287589301027 0.7028344346391089 
25.00287589301027 0.7212191142389339 
26.00287589301027 0.7265808824642842 
27.00287589301027 0.7404394610932965 
28.00287589301027 0.722568688697882 
29.00287589301027 0.7007426865551727 
30.00287589301027 0.7358150143558604 
31.00287589301027 0.6630858559770625 
32.00287589301027 0.6394173195098449 
33.00287589301027 0.622236916615496 
34.00287589301027 0.5609060819168725 
35.00287589301027 0.5170879351251688 
36.00287589301027 0.45735062616369954 
37.00287589301027 0.3945197593574713 
38.00287589301027 0.33982761846641024 
39.00287589301027 0.29950796340877195 
40.00287589301027 0.25948406375326244 
41.00287589301027 0.25615181711151913 
42.00287589301027 0.21806920789128895 
43.00287589301027 0.21429580550790797 
44.00287589301027 0.20394593581729406 
45.00287589301027 0.20328157096422672 
46.00287589301027 0.20328683344544854 
47.00287589301027 0.1807289774681208 
48.00287589301027 0.17133417072355506 
49.00287589301027 0.16137881254584097 
50.00287589301027 0.15144419653490335 
51.00287589301027 0.14446300051043764 
52.00287589301027 0.1375337111959315 
53.00287589301027 0.1321251961558066 
54.00287589301027 0.13915313899504694 
55.00287589301027 0.1348242424876657 
56.00287589301027 0.132929698867161 
57.00287589301027 0.136983479553153 
58.00287589301027 0.13400931739990465 
59.00287589301027 0.13508893593264829 
60.00287589301027 0.13508893593264829 
61.00287589301027 0.13508893593264829 
62.00287589301027 0.13508893593264829 
63.00287589301027 0.13508893593264829 
64.00287589301027 0.13508893593264829 
65.00287589301027 0.13508893593264829 
66.00287589301027 0.13508893593264829 
67.00287589301027 0.13508893593264829 
68.00287589301027 0.13508893593264829 
69.00287589301027 0.13508893593264829 
70.00287589301027 0.13508893593264829 
71.00287589301027 0.13508893593264829 
72.00287589301027 0.13508893593264829 
73.00287589301027 0.13508893593264829 
74.00287589301027 0.13508893593264829 
75.00287589301027 0.13508893593264829 
76.00287589301027 0.13508893593264829 
77.00287589301027 0.13508893593264829 
78.00287589301027 0.13508893593264829 
79.00287589301027 0.13508893593264829 
80.00287589301027 0.13508893593264829 
81.00287589301027 0.13508893593264829 
82.00287589301027 0.13508893593264829 
#####################################################################
# End of data export. Simulation finished at: 2017-05-23T06:58+0000 #
#####################################################################
