0.000000000000000000e+00 nan
6.661338147750939243e-16 1.783786163415844728e-01
1.332267629550187849e-15 1.303206767927409526e-01
8.881784197001252323e-16 1.579797939974957877e-01
2.664535259100375697e-15 1.813993049383532674e-01
1.776356839400250465e-15 1.945331235759324151e-01
1.776356839400250465e-15 1.631299714782484533e-01
0.000000000000000000e+00 1.623120699785470800e-01
5.329070518200751394e-15 1.981504467263129343e-01
3.552713678800500929e-15 2.031130803124277517e-01
3.552713678800500929e-15 2.344097983219088910e-01
1.776356839400250465e-15 3.004945483768591830e-01
3.552713678800500929e-15 2.649366833404595556e-01
5.329070518200751394e-15 2.209662325682840989e-01
0.000000000000000000e+00 2.354815287745303798e-01
5.329070518200751394e-15 2.142834163187342100e-01
1.065814103640150279e-14 2.186750976138343294e-01
3.552713678800500929e-15 2.288162644546562763e-01
7.105427357601001859e-15 2.327341541648460244e-01
3.552713678800500929e-15 2.475277846854790909e-01
7.105427357601001859e-15 2.618373484112480609e-01
0.000000000000000000e+00 2.706222565504484701e-01
3.552713678800500929e-15 3.251947738923251507e-01
1.065814103640150279e-14 2.999787919642457057e-01
7.105427357601001859e-15 4.042281890840386249e-01
1.421085471520200372e-14 3.963326136359117124e-01
1.065814103640150279e-14 4.933626458096690981e-01
7.105427357601001859e-15 4.600252553210895101e-01
0.000000000000000000e+00 6.876809104679840745e-01
0.000000000000000000e+00 7.486382749742378495e-01
1.065814103640150279e-14 7.071110206922139874e-01
1.065814103640150279e-14 9.292110164341306211e-01
2.131628207280300558e-14 8.952654819350117643e-01
7.105427357601001859e-15 9.708868412600534237e-01
7.105427357601001859e-15 1.033596346556344248e+00
1.421085471520200372e-14 9.718986245038878646e-01
1.421085471520200372e-14 9.331461928969791986e-01
1.421085471520200372e-14 8.685987811514185308e-01
7.105427357601001859e-15 7.764155011706520559e-01
2.131628207280300558e-14 6.142787913827761903e-01
1.421085471520200372e-14 5.728145850813640694e-01
7.105427357601001859e-15 6.983726352420458472e-01
0.000000000000000000e+00 5.899617677416202355e-01
0.000000000000000000e+00 7.337819783889115710e-01
7.105427357601001859e-15 6.530446274829675435e-01
1.421085471520200372e-14 5.325872855574423914e-01
2.131628207280300558e-14 5.440164278124899333e-01
1.421085471520200372e-14 5.272903132107485957e-01
1.421085471520200372e-14 5.311927914841033660e-01
2.131628207280300558e-14 5.276063836946409680e-01
2.842170943040400743e-14 5.285014013311957193e-01
2.131628207280300558e-14 5.291300874160626000e-01
2.131628207280300558e-14 5.302725118437223717e-01
2.131628207280300558e-14 5.291950403975237416e-01
1.421085471520200372e-14 5.300225778973316482e-01
7.105427357601001859e-15 5.299565213704602318e-01
0.000000000000000000e+00 5.299565213704602318e-01
0.000000000000000000e+00 5.299565213704602318e-01
0.000000000000000000e+00 5.299565213704602318e-01
7.105427357601001859e-15 5.299565213704602318e-01
2.131628207280300558e-14 5.299565213704602318e-01
1.421085471520200372e-14 5.299565213704602318e-01
2.131628207280300558e-14 5.299565213704602318e-01
2.842170943040400743e-14 5.299565213704602318e-01
4.263256414560601115e-14 5.299565213704602318e-01
