#####################################################################
# Alchemist log file - simulation started at: 2017-05-24T09:43+0000 #
#####################################################################
# random = 14.0, targets = 31.622776601683793, density = 2.519842099789746, gridShift = 1.0, perturbation = 0.0, connfactor = 0.1
#
# The columns have the following meaning: 
# time se[Mean] 
0.0 NaN 
1.0015837731381736 NaN 
2.0015837731381736 1.0 
3.0015837731381736 1.0 
4.001583773138174 1.0 
5.001583773138174 1.0 
6.001583773138174 1.0 
7.001583773138174 1.0 
8.001583773138174 1.0 
9.001583773138174 1.0 
10.001583773138174 1.0 
11.001583773138174 1.0 
12.001583773138174 1.0 
13.001583773138174 1.0 
14.001583773138174 1.0 
15.001583773138174 1.0 
16.001583773138172 1.0 
17.001583773138172 1.0 
18.001583773138172 1.0 
19.001583773138172 1.0 
20.001583773138172 1.0 
21.001583773138172 1.0 
22.001583773138172 1.0 
23.001583773138172 1.0 
24.001583773138172 1.0 
25.001583773138172 1.0 
26.001583773138172 1.0 
27.001583773138172 1.0 
28.001583773138172 1.0 
29.001583773138172 1.0 
30.001583773138172 1.0 
31.001583773138172 1.0 
32.00158377313817 1.0 
33.00158377313817 1.0 
#####################################################################
# End of data export. Simulation finished at: 2017-05-24T09:43+0000 #
#####################################################################
