#####################################################################
# Alchemist log file - simulation started at: 2017-05-22T14:50+0000 #
#####################################################################
# random = 4.0, targets = 3.1622776601683795, density = 0.2247883923996312, gridShift = 1.0, perturbation = 0.5, connfactor = 0.75
#
# The columns have the following meaning: 
# time se[Mean] 
0.0 NaN 
1.0048193674555734 NaN 
2.0048193674555734 1.0 
3.0048193674555734 0.9827694452845116 
4.004819367455573 0.8849277391931738 
5.004819367455573 0.8785785328439674 
6.004819367455573 0.8147941441097997 
7.004819367455573 0.811612574258215 
8.004819367455573 0.8642928185582531 
9.004819367455573 0.8666668042622241 
10.004819367455573 0.854518392123856 
11.004819367455573 0.8592733302087795 
12.004819367455573 0.8223059599415565 
13.004819367455573 0.790761870097614 
14.004819367455573 0.7576931328940167 
15.004819367455573 0.6864178283590363 
16.004819367455575 0.6537807958023574 
17.004819367455575 0.5898782487506204 
18.004819367455575 0.5090164804641837 
19.004819367455575 0.45118456441276844 
20.004819367455575 0.3476201025183213 
21.004819367455575 0.3524518575107834 
22.004819367455575 0.3071026164972863 
23.004819367455575 0.2443484245178366 
24.004819367455575 0.2556198150647058 
25.004819367455575 0.19166107594525972 
26.004819367455575 0.16746861422768752 
27.004819367455575 0.12804356640234513 
28.004819367455575 0.12764674100551973 
29.004819367455575 0.12310066563448119 
30.004819367455575 0.1540948925139364 
31.004819367455575 0.21865226133673973 
32.004819367455575 0.22036487137933508 
33.004819367455575 0.2539280133226832 
34.004819367455575 0.1945084746276658 
35.004819367455575 0.2926289853938173 
36.004819367455575 0.35804265923791834 
37.004819367455575 0.29434159543641264 
38.004819367455575 0.35804265923791834 
39.004819367455575 0.23064053163490691 
40.004819367455575 0.198789999734154 
41.004819367455575 0.13508893593264834 
42.004819367455575 0.13508893593264834 
43.004819367455575 0.13508893593264834 
44.004819367455575 0.13508893593264834 
45.004819367455575 0.13508893593264834 
46.004819367455575 0.13508893593264834 
47.004819367455575 0.13508893593264834 
48.004819367455575 0.13508893593264834 
#####################################################################
# End of data export. Simulation finished at: 2017-05-22T14:50+0000 #
#####################################################################
