#####################################################################
# Alchemist log file - simulation started at: 2017-05-24T01:55+0000 #
#####################################################################
# random = 6.0, targets = 3.1622776601683795, density = 14.160781367816199, gridShift = 1.0, perturbation = 0.5, connfactor = 1.5
#
# The columns have the following meaning: 
# time se[Mean] 
0.0 NaN 
1.0010083797655576 NaN 
2.0010083797655573 1.0164821643896236 
3.0010083797655573 1.031613924651903 
4.001008379765557 1.0368003050671606 
5.001008379765557 1.034011893947369 
6.001008379765557 1.0121466781133204 
7.001008379765557 0.9952657556868864 
8.001008379765558 0.9926798198863805 
9.001008379765558 0.994087271292158 
10.001008379765558 0.9964923944132461 
11.001008379765558 0.9901946347634227 
12.001008379765558 0.9869436477182781 
13.001008379765558 0.9886599358922021 
14.001008379765558 0.9830150421724644 
15.001008379765558 0.9825323555797827 
16.00100837976556 0.9902677377325084 
17.00100837976556 0.9874238249366593 
18.00100837976556 0.9852352925413281 
19.00100837976556 0.988161780535447 
20.00100837976556 0.9902980985263399 
21.00100837976556 0.9800247375638355 
22.00100837976556 0.979005600549561 
23.00100837976556 0.9813074559746027 
24.00100837976556 0.9795285110249659 
25.00100837976556 0.981253114137342 
26.00100837976556 0.9812511802233245 
27.00100837976556 0.9797460680707151 
28.00100837976556 0.9791131205631864 
29.00100837976556 0.9794987295135171 
30.00100837976556 0.977834462225226 
31.00100837976556 0.977430868766356 
32.00100837976556 0.9780201116007364 
33.00100837976556 0.9776308283411759 
34.00100837976556 0.9771483339932666 
35.00100837976556 0.9778733327503468 
36.00100837976556 0.9763521700032161 
37.00100837976556 0.9745159842563416 
38.00100837976556 0.9751970848214693 
39.00100837976556 0.9728321855831042 
40.00100837976556 0.9700770367651873 
41.00100837976556 0.9693015652729132 
42.00100837976556 0.9648674519297856 
43.00100837976556 0.9594538461727238 
44.00100837976556 0.9565138220545163 
45.00100837976556 0.9520746810445554 
46.00100837976556 0.9465491056153862 
47.00100837976556 0.9425537819470193 
48.00100837976556 0.9369131430929266 
49.00100837976556 0.9320410141502573 
50.00100837976556 0.9262278762811661 
51.00100837976556 0.919537933137773 
52.00100837976556 0.9142566025129861 
53.00100837976556 0.906178158792346 
54.00100837976556 0.898248427836114 
55.00100837976556 0.888974094494588 
56.00100837976556 0.8795845042093342 
57.00100837976556 0.8692840735467179 
58.00100837976556 0.8575110202321783 
59.00100837976556 0.848338407710292 
60.00100837976556 0.8365845000171215 
61.00100837976556 0.8246577062713429 
62.00100837976556 0.8173439059081263 
63.00100837976556 0.8875054530596321 
64.00100837976555 1.295258330894855 
65.00100837976555 1.281549113957079 
66.00100837976555 1.5180139925979925 
67.00100837976555 1.929494954958289 
68.00100837976555 1.7474565253502776 
69.00100837976555 2.148712859088043 
70.00100837976555 2.553798794459461 
71.00100837976555 2.530146721063332 
72.00100837976555 2.931595668305522 
73.00100837976555 2.9979570439701515 
74.00100837976555 2.889559538835523 
75.00100837976555 3.7904732884993244 
76.00100837976555 3.264837014225151 
77.00100837976555 3.902261945625437 
78.00100837976555 4.221851737980854 
79.00100837976555 3.5243989279772636 
80.00100837976555 4.92429692090282 
81.00100837976555 4.3218940703201065 
82.00100837976555 4.873798651017306 
83.00100837976555 4.868128475131881 
84.00100837976555 5.086872381904681 
85.00100837976555 5.905879572218687 
86.00100837976555 5.383931335543248 
87.00100837976555 5.782647568134533 
88.00100837976555 6.105959629258623 
89.00100837976555 4.752565931884647 
90.00100837976555 4.747870035475184 
91.00100837976555 3.816022392006855 
92.00100837976555 4.705227813959168 
93.00100837976555 4.110772357650928 
94.00100837976555 4.00029938753954 
95.00100837976555 4.589204302279966 
96.00100837976555 3.1604026808100536 
97.00100837976555 3.3979415822472347 
98.00100837976555 3.405081700220636 
99.00100837976555 2.7128321210508353 
100.00100837976555 2.3808866615379 
101.00100837976555 1.6334680228246918 
102.00100837976555 1.6180604366423843 
103.00100837976555 1.2882341397385841 
104.00100837976555 1.1091698215200854 
105.00100837976555 1.1903452837223985 
106.00100837976555 0.9425856275255904 
107.00100837976555 0.6872888513375055 
108.00100837976555 0.6954010360609004 
109.00100837976555 0.538481552323674 
110.00100837976555 0.42749246045163686 
111.00100837976555 0.35132571478958496 
112.00100837976555 0.37854166255011895 
113.00100837976555 0.3557815203435222 
114.00100837976555 0.3286126450600145 
115.00100837976555 0.3939242112479471 
116.00100837976555 0.4584157918575991 
117.00100837976555 0.458127221725167 
118.00100837976555 0.5437518821485954 
119.00100837976555 0.5531208830656384 
120.00100837976555 0.5450533808016801 
121.00100837976555 0.6993322313119705 
122.00100837976555 0.611127458153366 
123.00100837976555 0.7224639119217628 
124.00100837976555 0.781744416541774 
125.00100837976555 0.6783967545155676 
126.00100837976555 0.9055870463495027 
127.00100837976555 0.8144357009488589 
128.00100837976555 0.8981422965181703 
129.00100837976555 0.9294706184601116 
130.00100837976555 0.9416916634496331 
131.00100837976555 1.0879331073569651 
132.00100837976555 1.0213340503672819 
133.00100837976555 1.054078201952715 
134.00100837976555 1.149138830053244 
135.00100837976555 0.9261293817142092 
136.00100837976555 0.9430352193850602 
137.00100837976555 0.8046019531554386 
138.00100837976555 0.9467108256468953 
139.00100837976555 0.8893645390016238 
140.00100837976555 0.8567291484043362 
141.00100837976555 0.9559263191465286 
142.00100837976555 0.7564651609268401 
143.00100837976555 0.7464747484626307 
144.00100837976555 0.7468804894035607 
145.00100837976555 0.6152015717359207 
146.00100837976555 0.5978129052501922 
147.00100837976555 0.4663470373701543 
148.00100837976555 0.46270992988422327 
149.00100837976555 0.4357969032244886 
150.00100837976555 0.3626992083657539 
151.00100837976555 0.3841937502610685 
152.00100837976555 0.348640297381877 
153.00100837976555 0.28903363478663757 
154.00100837976555 0.2786790277768392 
155.00100837976555 0.22880872031147162 
156.00100837976555 0.20485044236502106 
157.00100837976555 0.18195269246327914 
158.00100837976555 0.1763965499811443 
159.00100837976555 0.1675729678686205 
160.00100837976555 0.1595355017213977 
161.00100837976555 0.15107587832438277 
162.00100837976555 0.15141584741351521 
163.00100837976555 0.14607706845832374 
164.00100837976555 0.14045130761962626 
165.00100837976555 0.13768512950385428 
166.00100837976555 0.13785511404842038 
167.00100837976555 0.1350450377406951 
168.00100837976555 0.1350450377406951 
169.00100837976555 0.13508893593264842 
170.00100837976555 0.13508893593264842 
171.00100837976555 0.13508893593264842 
172.00100837976555 0.13508893593264842 
173.00100837976555 0.13508893593264842 
174.00100837976555 0.13508893593264842 
175.00100837976555 0.13508893593264842 
176.00100837976555 0.13508893593264842 
177.00100837976555 0.13508893593264842 
178.00100837976555 0.13508893593264842 
179.00100837976555 0.13508893593264842 
180.00100837976555 0.13508893593264842 
181.00100837976555 0.13508893593264842 
182.00100837976555 0.13508893593264842 
183.00100837976555 0.13508893593264842 
184.00100837976555 0.13508893593264842 
185.00100837976555 0.13508893593264842 
186.00100837976555 0.13508893593264842 
187.00100837976555 0.13508893593264842 
188.00100837976555 0.13508893593264842 
189.00100837976555 0.13508893593264842 
190.00100837976555 0.13508893593264842 
191.00100837976555 0.13508893593264842 
192.00100837976555 0.13508893593264842 
193.00100837976555 0.13508893593264842 
194.00100837976555 0.13508893593264842 
195.00100837976555 0.13508893593264842 
196.00100837976555 0.13508893593264842 
197.00100837976555 0.13508893593264842 
198.00100837976555 0.13508893593264842 
199.00100837976555 0.13508893593264842 
200.00100837976555 0.13508893593264842 
201.00100837976555 0.13508893593264842 
202.00100837976555 0.13508893593264842 
203.00100837976555 0.13508893593264842 
204.00100837976555 0.13508893593264842 
205.00100837976555 0.13508893593264842 
206.00100837976555 0.13508893593264842 
207.00100837976555 0.13508893593264842 
208.00100837976555 0.13508893593264842 
209.00100837976555 0.13508893593264842 
210.00100837976555 0.13508893593264842 
211.00100837976555 0.13508893593264842 
212.00100837976555 0.13508893593264842 
213.00100837976555 0.13508893593264842 
214.00100837976555 0.13508893593264842 
215.00100837976555 0.13508893593264842 
216.00100837976555 0.13508893593264842 
217.00100837976555 0.13508893593264842 
218.00100837976555 0.13508893593264842 
219.00100837976555 0.13508893593264842 
220.00100837976555 0.13508893593264842 
221.00100837976555 0.13508893593264842 
222.00100837976555 0.13508893593264842 
223.00100837976555 0.13508893593264842 
224.00100837976555 0.13508893593264842 
225.00100837976555 0.13508893593264842 
226.00100837976555 0.13508893593264842 
227.00100837976555 0.13508893593264842 
228.00100837976555 0.13508893593264842 
229.00100837976555 0.13508893593264842 
230.00100837976555 0.13508893593264842 
231.00100837976555 0.13508893593264842 
232.00100837976555 0.13508893593264842 
233.00100837976555 0.13508893593264842 
234.00100837976555 0.13508893593264842 
235.00100837976555 0.13508893593264842 
236.00100837976555 0.13508893593264842 
237.00100837976555 0.13508893593264842 
238.00100837976555 0.13508893593264842 
239.00100837976555 0.13508893593264842 
240.00100837976555 0.13508893593264842 
241.00100837976555 0.13508893593264842 
242.00100837976555 0.13508893593264842 
243.00100837976555 0.13508893593264842 
244.00100837976555 0.13508893593264842 
245.00100837976555 0.13508893593264842 
246.00100837976555 0.13508893593264842 
247.00100837976555 0.13508893593264842 
248.00100837976555 0.13508893593264842 
249.00100837976555 0.13508893593264842 
250.00100837976555 0.13508893593264842 
#####################################################################
# End of data export. Simulation finished at: 2017-05-24T02:07+0000 #
#####################################################################
