#####################################################################
# Alchemist log file - simulation started at: 2017-05-21T03:43+0000 #
#####################################################################
# random = 2.0, targets = 1.0, density = 10.026386447354522, gridShift = 0.0, perturbation = 0.0, connfactor = 0.1
#
# The columns have the following meaning: 
# time se[Mean] 
0.0 NaN 
1.0002668521400264 NaN 
2.0002668521400264 1.0 
3.0002668521400264 1.0 
4.000266852140026 1.0 
5.000266852140026 1.0 
6.000266852140026 1.0 
7.000266852140026 1.0 
8.000266852140026 1.0 
9.000266852140026 1.0 
10.000266852140026 1.0 
11.000266852140026 1.0 
12.000266852140026 1.0 
13.000266852140026 1.0 
14.000266852140026 1.0 
15.000266852140026 1.0 
16.000266852140026 1.0 
17.000266852140026 1.0 
18.000266852140026 1.0 
19.000266852140026 1.0 
20.000266852140026 0.9990817263544536 
21.000266852140026 0.9972451790633609 
22.000266852140026 0.9954086317722681 
23.000266852140026 0.9889807162534434 
24.000266852140026 0.9908172635445363 
25.000266852140026 0.9926538108356291 
26.000266852140026 0.9944903581267217 
27.000266852140026 0.9954086317722681 
28.000266852140026 0.9935720844811755 
29.000266852140026 0.9898989898989901 
30.000266852140026 0.9761248852157945 
31.000266852140026 0.9641873278236919 
32.00026685214003 0.9485766758494037 
33.00026685214003 0.9357208448117532 
34.00026685214003 0.9237832874196499 
35.00026685214003 0.9155188246097336 
36.00026685214003 0.90358126721763 
37.00026685214003 0.8898071625344334 
38.00026685214003 0.8806244260789718 
39.00026685214003 0.8613406795224967 
40.00026685214003 0.8503213957759425 
41.00026685214003 0.8319559228650111 
42.00026685214003 0.81726354453627 
43.00026685214003 0.8034894398530745 
44.00026685214003 0.7869605142332401 
45.00026685214003 0.7640036730945836 
46.00026685214003 0.7465564738292005 
47.00026685214003 0.7281910009182734 
48.00026685214003 0.7061524334251612 
49.00026685214003 0.687786960514233 
50.00026685214003 0.671258034894399 
51.00026685214003 0.6501377410468331 
52.00026685214003 0.6308539944903594 
53.00026685214003 0.6088154269972484 
54.00026685214003 0.5922865013774102 
55.00026685214003 0.5647382920110218 
56.00026685214003 0.5436179981634507 
57.00026685214003 0.5243342516069821 
58.00026685214003 0.4958677685950376 
59.00026685214003 0.47107438016529035 
60.00026685214003 0.44811753902662943 
61.00026685214003 0.4242424242424245 
62.00026685214003 0.40128558310376133 
63.00026685214003 0.37465564738291784 
64.00026685214003 0.3535353535353556 
65.00026685214003 0.3296602387511496 
66.00026685214003 0.29935720844811997 
67.00026685214003 0.28007346189164156 
68.00026685214003 0.2516069788797055 
69.00026685214003 0.221303948576676 
70.00026685214003 0.20110192837465635 
71.00026685214003 0.1781450872359987 
72.00026685214003 0.15977961432506804 
73.00026685214003 0.14416896235078003 
74.00026685214003 0.1331496786042226 
75.00026685214003 0.11386593204774927 
76.00026685214003 0.09825528007346303 
77.00026685214003 0.08172635445362599 
78.00026685214003 0.06887052341597674 
79.00026685214003 0.054178145087236534 
80.00026685214003 0.044077134986226535 
81.00026685214003 0.03305785123966955 
82.00026685214003 0.021120293847566616 
83.00026685214003 0.01836547291092742 
84.00026685214003 0.013774104683195804 
85.00026685214003 0.007346189164370905 
86.00026685214003 0.004591368227731856 
87.00026685214003 0.011019283746556585 
88.00026685214003 0.02571166207529815 
89.00026685214003 0.04407713498622654 
90.00026685214003 0.10101010101009951 
91.00026685214003 0.08448117539026648 
92.00026685214003 0.06887052341597677 
93.00026685214003 0.05050505050504956 
94.00026685214003 0.03581267217630821 
95.00026685214003 0.025711662075298194 
96.00026685214003 0.01836547291092742 
97.00026685214003 0.027548209366391508 
98.00026685214003 9.182736455463698E-4 
99.00026685214003 0.027548209366391463 
100.00026685214003 0.02662993572084497 
101.00026685214003 0.00918273645546371 
102.00026685214003 0.01836547291092742 
103.00026685214003 0.019283746556473785 
104.00026685214003 0.013774104683195803 
105.00026685214003 0.03673094582185484 
106.00026685214003 0.03673094582185484 
107.00026685214003 0.062442607897153 
108.00026685214003 0.06336088154269985 
109.00026685214003 0.04040404040404003 
110.00026685214003 0.04866850321395837 
111.00026685214003 0.023875114784205773 
112.00026685214003 0.030303030303030085 
113.00026685214003 0.03489439853076211 
114.00026685214003 0.01928374655647379 
115.00026685214003 0.025711662075298285 
116.00026685214003 0.027548209366391227 
117.00026685214003 0.019283746556473844 
118.00026685214003 0.020202020202020218 
119.00026685214003 0.03213957759412318 
120.00026685214003 0.023875114784205738 
121.00026685214003 0.011937557392102885 
122.00026685214003 0.027548209366391154 
123.00026685214003 0.024793388429752178 
124.00026685214003 0.026629935720844926 
125.00026685214003 0.040404040404040505 
126.00026685214003 0.03122130394857656 
127.00026685214003 0.02846648301193735 
128.00026685214004 0.03581267217630848 
129.00026685214004 0.03764921946740143 
130.00026685214004 0.014692378328742005 
131.00026685214004 0.014692378328742053 
132.00026685214004 0.012855831037649174 
133.00026685214004 0.01010101010101015 
134.00026685214004 0.0036730945821854656 
135.00026685214004 0.010101010101010137 
136.00026685214004 0.01377410468319558 
137.00026685214004 0.008264462809917359 
138.00026685214004 0.005509641873278229 
139.00026685214004 0.009182736455463712 
140.00026685214004 0.008264462809917394 
141.00026685214004 0.01010101010101012 
142.00026685214004 0.012855831037649146 
143.00026685214004 0.00918273645546371 
144.00026685214004 0.006427915518824539 
145.00026685214004 0.011937557392102888 
146.00026685214004 0.013774104683195672 
147.00026685214004 9.182736455463723E-4 
148.00026685214004 0.005509641873278282 
149.00026685214004 0.0027548209366391016 
150.00026685214004 9.182736455463698E-4 
151.00026685214004 0.002754820936639103 
152.00026685214004 0.001836547291092753 
153.00026685214004 9.182736455463664E-4 
154.00026685214004 0.001836547291092753 
155.00026685214004 0.0027548209366391107 
156.00026685214004 0.0018365472910927528 
157.00026685214004 9.182736455463619E-4 
158.00026685214004 0.001836547291092753 
159.00026685214004 0.0018365472910927205 
160.00026685214004 0.0018365472910927528 
161.00026685214004 0.002754820936639124 
162.00026685214004 0.0018365472910927144 
163.00026685214004 9.182736455463597E-4 
164.00026685214004 0.0027548209366391294 
165.00026685214004 0.002754820936639132 
166.00026685214004 0.0 
167.00026685214004 9.182736455463598E-4 
168.00026685214004 0.0 
169.00026685214004 0.0 
170.00026685214004 0.0 
171.00026685214004 0.0 
172.00026685214004 0.0 
173.00026685214004 0.0 
174.00026685214004 0.0 
175.00026685214004 0.0 
176.00026685214004 0.0 
177.00026685214004 0.0 
178.00026685214004 0.0 
179.00026685214004 0.0 
180.00026685214004 0.0 
181.00026685214004 0.0 
182.00026685214004 0.0 
183.00026685214004 0.0 
184.00026685214004 0.0 
185.00026685214004 0.0 
186.00026685214004 0.0 
187.00026685214004 0.0 
188.00026685214004 0.0 
189.00026685214004 0.0 
190.00026685214004 0.0 
191.00026685214004 0.0 
192.00026685214004 0.0 
193.00026685214004 0.0 
194.00026685214004 0.0 
195.00026685214004 0.0 
196.00026685214004 0.0 
197.00026685214004 0.0 
198.00026685214004 0.0 
199.00026685214004 0.0 
200.00026685214004 0.0 
201.00026685214004 0.0 
202.00026685214004 0.0 
203.00026685214004 0.0 
204.00026685214004 0.0 
205.00026685214004 0.0 
206.00026685214004 0.0 
207.00026685214004 0.0 
208.00026685214004 0.0 
209.00026685214004 0.0 
210.00026685214004 0.0 
211.00026685214004 0.0 
212.00026685214004 0.0 
213.00026685214004 0.0 
214.00026685214004 0.0 
215.00026685214004 0.0 
216.00026685214004 0.0 
217.00026685214004 0.0 
218.00026685214004 0.0 
219.00026685214004 0.0 
220.00026685214004 0.0 
221.00026685214004 0.0 
222.00026685214004 0.0 
223.00026685214004 0.0 
224.00026685214004 0.0 
225.00026685214004 0.0 
226.00026685214004 0.0 
227.00026685214004 0.0 
228.00026685214004 0.0 
229.00026685214004 0.0 
230.00026685214004 0.0 
231.00026685214004 0.0 
232.00026685214004 0.0 
233.00026685214004 0.0 
234.00026685214004 0.0 
235.00026685214004 0.0 
236.00026685214004 0.0 
237.00026685214004 0.0 
238.00026685214004 0.0 
239.00026685214004 0.0 
240.00026685214004 0.0 
241.00026685214004 0.0 
#####################################################################
# End of data export. Simulation finished at: 2017-05-21T03:50+0000 #
#####################################################################
