#####################################################################
# Alchemist log file - simulation started at: 2017-05-21T09:35+0000 #
#####################################################################
# random = 2.0, targets = 10.0, density = 14.160781367816199, gridShift = 1.0, perturbation = 0.0, connfactor = 2.0
#
# The columns have the following meaning: 
# time se[Mean] 
0.0 NaN 
1.0002668521400264 NaN 
2.0002668521400264 1.0167757936507937 
3.0002668521400264 1.0292232510288066 
4.000266852140026 1.0431624779541446 
5.000266852140026 1.0564715608465607 
6.000266852140026 1.0507839138741917 
7.000266852140026 1.0755336934156379 
8.000266852140026 1.0452987213403881 
9.000266852140026 1.0701252939447383 
10.000266852140026 1.0544242357436804 
11.000266852140026 1.051811985596708 
12.000266852140026 1.0583629115226338 
13.000266852140026 1.0615395355673134 
14.000266852140026 1.0652019032921813 
15.000266852140026 1.0703055188124635 
16.000266852140026 1.0669056804820702 
17.000266852140026 1.0637852733686057 
18.000266852140026 1.0606154467960025 
19.000266852140026 1.0626655276308046 
20.000266852140026 1.057920340975897 
21.000266852140026 1.0542355599647262 
22.000266852140026 1.0508021017048799 
23.000266852140026 1.0483667695473249 
24.000266852140026 1.0408698927101712 
25.000266852140026 1.0392054306290412 
26.000266852140026 1.0200391313932984 
27.000266852140026 1.0158239638447968 
28.000266852140026 1.0120897633744856 
29.000266852140026 1.0041106334509111 
30.000266852140026 1.006815292475015 
31.000266852140026 0.9955744782480892 
32.00026685214003 0.996094209288654 
33.00026685214003 0.9905785199882425 
34.00026685214003 0.984672067901234 
35.00026685214003 0.9840542328042323 
36.00026685214003 0.9756986699000593 
37.00026685214003 0.9733535420340977 
38.00026685214003 0.9706775426219875 
39.00026685214003 0.9657758303938858 
40.00026685214003 0.955282003233392 
41.00026685214003 0.9531995884773659 
42.00026685214003 0.9433406819517932 
43.00026685214003 0.9339836860670195 
44.00026685214003 0.9250661375661376 
45.00026685214003 0.9141014476778364 
46.00026685214003 0.9040384332745444 
47.00026685214003 0.8920133377425046 
48.00026685214003 0.8808287404467963 
49.00026685214003 0.8641003453850677 
50.00026685214003 0.8469754923574369 
51.00026685214003 0.830259957378013 
52.00026685214003 0.8069866990005883 
53.00026685214003 0.7952437904174017 
54.00026685214003 0.7765876690182246 
55.00026685214003 0.7612046222810115 
56.00026685214003 0.7477151308054084 
57.00026685214003 0.7348802175191065 
58.00026685214003 0.7246586566725455 
59.00026685214003 0.7145655129335681 
60.00026685214003 0.7002748383303935 
61.00026685214003 0.6904120737801293 
62.00026685214003 0.6754142783656678 
63.00026685214003 0.6669400352733695 
64.00026685214003 0.6499553571428566 
65.00026685214003 0.6392770796590244 
66.00026685214003 0.6276524838330394 
67.00026685214003 0.6135741843033513 
68.00026685214003 0.6031013007054679 
69.00026685214003 0.5875529100529102 
70.00026685214003 0.5778937022339802 
71.00026685214003 0.5617412551440336 
72.00026685214003 0.549550264550264 
73.00026685214003 0.536455761316872 
74.00026685214003 0.5206790123456791 
75.00026685214003 0.5096059303350973 
76.00026685214003 0.4915816064079947 
77.00026685214003 0.48032517636684335 
78.00026685214003 0.46686563051146407 
79.00026685214003 0.45150297619047597 
80.00026685214003 0.43883744855967155 
81.00026685214003 0.4241888962375067 
82.00026685214003 0.41195087448559764 
83.00026685214003 0.39653622868900656 
84.00026685214003 0.3823006687242806 
85.00026685214003 0.3676420120517347 
86.00026685214003 0.3552030055849497 
87.00026685214003 0.3406387786596124 
88.00026685214003 0.32983337007642605 
89.00026685214003 0.3177346046443272 
90.00026685214003 0.30473251028806614 
91.00026685214003 0.29449147560258687 
92.00026685214003 0.28373401675484966 
93.00026685214003 0.2732306363903585 
94.00026685214003 0.2642958186360958 
95.00026685214003 0.2542111258083485 
96.00026685214003 0.2489500661375664 
97.00026685214003 0.2380065035273367 
98.00026685214003 0.23073228982951274 
99.00026685214003 0.22307484567901223 
100.00026685214003 0.2127865961199289 
101.00026685214003 0.20674033656672605 
102.00026685214003 0.1996944811875376 
103.00026685214003 0.19387106848912383 
104.00026685214003 0.18735541593180477 
105.00026685214003 0.18288947677836567 
106.00026685214003 0.17619690623162873 
107.00026685214003 0.17396476337448555 
108.00026685214003 0.16893279688418578 
109.00026685214003 0.16650793650793658 
110.00026685214003 0.1612415490887713 
111.00026685214003 0.15771604938271622 
112.00026685214003 0.15503031305114653 
113.00026685214003 0.15181621105232215 
114.00026685214003 0.14991659318048217 
115.00026685214003 0.147755180776014 
116.00026685214003 0.14480599647266343 
117.00026685214003 0.14227274397413314 
118.00026685214003 0.1417429085831865 
119.00026685214003 0.13962246472663156 
120.00026685214003 0.1382749118165787 
121.00026685214003 0.1367814888300999 
122.00026685214003 0.1339763374485598 
123.00026685214003 0.13410144767783674 
124.00026685214003 0.13082231040564388 
125.00026685214003 0.13060883303938875 
126.00026685214003 0.12806161816578493 
127.00026685214003 0.12539204879482677 
128.00026685214004 0.1249042842445623 
129.00026685214004 0.12189594356261045 
130.00026685214004 0.23263723544973552 
131.00026685214004 0.34462154614932333 
132.00026685214004 0.570281268371547 
133.00026685214004 1.2552239491475559 
134.00026685214004 1.0366459068195224 
135.00026685214004 1.3868163947677823 
136.00026685214004 1.7613767636684234 
137.00026685214004 1.6371502057613119 
138.00026685214004 1.4316249632569114 
139.00026685214004 1.5571252204585504 
140.00026685214004 1.097874595825983 
141.00026685214004 1.3095884773662556 
142.00026685214004 1.0849345972957116 
143.00026685214004 1.1754166666666654 
144.00026685214004 1.1817441945914144 
145.00026685214004 0.8318481775426175 
146.00026685214004 1.0590173059964678 
147.00026685214004 1.284554490005877 
148.00026685214004 0.8130972589653134 
149.00026685214004 1.387179783950617 
150.00026685214004 0.9421314667842435 
151.00026685214004 1.1439816651969419 
152.00026685214004 1.282552542621984 
153.00026685214004 1.1438914609053508 
154.00026685214004 1.0373375955320379 
155.00026685214004 0.927574404761901 
156.00026685214004 1.2571753747795402 
157.00026685214004 1.0225503380364487 
158.00026685214004 0.8997628233392104 
159.00026685214004 1.0242651381540266 
160.00026685214004 0.6692280276308008 
161.00026685214004 0.6574819958847717 
162.00026685214004 0.888128674309229 
163.00026685214004 0.4147442680776009 
164.00026685214004 0.9798745223397963 
165.00026685214004 0.6503988462668986 
166.00026685214004 0.7427353395061724 
167.00026685214004 0.8815839947089951 
168.00026685214004 0.6378984788359714 
169.00026685214004 0.8684496252204532 
170.00026685214004 0.7600722001763668 
171.00026685214004 0.5214785420340926 
172.00026685214004 0.5288471854791247 
173.00026685214004 0.7485559964726693 
174.00026685214004 0.39489124044679663 
175.00026685214004 0.6165533142269274 
176.00026685214004 0.513201425631987 
177.00026685214004 0.1580954218107019 
178.00026685214004 0.3902674897119264 
179.00026685214004 0.15695344650205606 
180.00026685214004 0.47596432245737236 
181.00026685214004 0.2595899470899497 
182.00026685214004 0.24724114491475055 
183.00026685214004 0.14615024250441078 
184.00026685214004 0.24898662551440273 
185.00026685214004 0.021637455908288493 
186.00026685214004 0.010596340388006912 
187.00026685214004 0.012334104938271322 
188.00026685214004 2.208259847148705E-4 
189.00026685214004 1.7434597295707907E-4 
190.00026685214004 8.432539682539515E-5 
191.00026685214004 4.7031158142270876E-5 
192.00026685214004 3.9866255144034034E-5 
193.00026685214004 1.0288065843621788E-5 
194.00026685214004 3.490593768371556E-6 
195.00026685214004 3.674309229864658E-7 
196.00026685214004 1.262177448353619E-31 
197.00026685214004 1.262177448353619E-31 
198.00026685214004 1.262177448353619E-31 
199.00026685214004 1.262177448353619E-31 
200.00026685214004 1.262177448353619E-31 
201.00026685214004 1.262177448353619E-31 
202.00026685214004 1.262177448353619E-31 
203.00026685214004 1.262177448353619E-31 
204.00026685214004 1.262177448353619E-31 
205.00026685214004 1.262177448353619E-31 
206.00026685214004 1.262177448353619E-31 
207.00026685214004 1.262177448353619E-31 
208.00026685214004 1.262177448353619E-31 
209.00026685214004 1.262177448353619E-31 
210.00026685214004 1.262177448353619E-31 
211.00026685214004 1.262177448353619E-31 
212.00026685214004 1.262177448353619E-31 
213.00026685214004 1.262177448353619E-31 
214.00026685214004 1.262177448353619E-31 
215.00026685214004 1.262177448353619E-31 
216.00026685214004 1.262177448353619E-31 
217.00026685214004 1.262177448353619E-31 
218.00026685214004 1.262177448353619E-31 
219.00026685214004 1.262177448353619E-31 
220.00026685214004 1.262177448353619E-31 
221.00026685214004 1.262177448353619E-31 
222.00026685214004 1.262177448353619E-31 
223.00026685214004 1.262177448353619E-31 
224.00026685214004 1.262177448353619E-31 
225.00026685214004 1.262177448353619E-31 
226.00026685214004 1.262177448353619E-31 
227.00026685214004 1.262177448353619E-31 
228.00026685214004 1.262177448353619E-31 
229.00026685214004 1.262177448353619E-31 
230.00026685214004 1.262177448353619E-31 
231.00026685214004 1.262177448353619E-31 
232.00026685214004 1.262177448353619E-31 
233.00026685214004 1.262177448353619E-31 
234.00026685214004 1.262177448353619E-31 
235.00026685214004 1.262177448353619E-31 
236.00026685214004 1.262177448353619E-31 
237.00026685214004 1.262177448353619E-31 
238.00026685214004 1.262177448353619E-31 
239.00026685214004 1.262177448353619E-31 
240.00026685214004 1.262177448353619E-31 
241.00026685214004 1.262177448353619E-31 
242.00026685214004 1.262177448353619E-31 
243.00026685214004 1.262177448353619E-31 
244.00026685214004 1.262177448353619E-31 
245.00026685214004 1.262177448353619E-31 
246.00026685214004 1.262177448353619E-31 
247.00026685214004 1.262177448353619E-31 
248.00026685214004 1.262177448353619E-31 
249.00026685214004 1.262177448353619E-31 
250.00026685214004 1.262177448353619E-31 
251.00026685214004 1.262177448353619E-31 
252.00026685214004 1.262177448353619E-31 
253.00026685214004 1.262177448353619E-31 
254.00026685214004 1.262177448353619E-31 
255.00026685214004 1.262177448353619E-31 
256.00026685214004 1.262177448353619E-31 
257.00026685214004 1.262177448353619E-31 
258.00026685214004 1.262177448353619E-31 
259.00026685214004 1.262177448353619E-31 
260.00026685214004 1.262177448353619E-31 
261.00026685214004 1.262177448353619E-31 
262.00026685214004 1.262177448353619E-31 
263.00026685214004 1.262177448353619E-31 
264.00026685214004 1.262177448353619E-31 
265.00026685214004 1.262177448353619E-31 
266.00026685214004 1.262177448353619E-31 
267.00026685214004 1.262177448353619E-31 
268.00026685214004 1.262177448353619E-31 
269.00026685214004 1.262177448353619E-31 
270.00026685214004 1.262177448353619E-31 
271.00026685214004 1.262177448353619E-31 
272.00026685214004 1.262177448353619E-31 
273.00026685214004 1.262177448353619E-31 
274.00026685214004 1.262177448353619E-31 
275.00026685214004 1.262177448353619E-31 
276.00026685214004 1.262177448353619E-31 
277.00026685214004 1.262177448353619E-31 
278.00026685214004 1.262177448353619E-31 
#####################################################################
# End of data export. Simulation finished at: 2017-05-21T09:46+0000 #
#####################################################################
