#####################################################################
# Alchemist log file - simulation started at: 2017-05-25T07:13+0000 #
#####################################################################
# random = 17.0, targets = 3.1622776601683795, density = 20.0, gridShift = 1.0, perturbation = 0.0, connfactor = 0.75
#
# The columns have the following meaning: 
# time se[Mean] 
0.0 NaN 
1.0002469869236763 NaN 
2.0002469869236763 1.0 
3.0002469869236763 0.9999052171810314 
4.000246986923676 0.9997156515430943 
5.000246986923676 0.9997156515430943 
6.000246986923676 0.9989573889913457 
7.000246986923676 0.99933652026722 
8.000246986923676 0.9983399823112499 
9.000246986923676 0.9989060425114612 
10.000246986923676 0.9986164206273552 
11.000246986923676 0.998613783913755 
12.000246986923676 0.9975119162844155 
13.000246986923676 0.9967049439663825 
14.000246986923676 0.9950343794232321 
15.000246986923676 0.9934230715007661 
16.000246986923678 0.9916221979403635 
17.000246986923678 0.9898503282295621 
18.000246986923678 0.9883154850015013 
19.000246986923678 0.9867004303145916 
20.000246986923678 0.9855988404265277 
21.000246986923678 0.9838551422557595 
22.000246986923678 0.9827166383772922 
23.000246986923678 0.9806452942811731 
24.000246986923678 0.9795029047676237 
25.000246986923678 0.9777221537358166 
26.000246986923678 0.9739610946624134 
27.000246986923678 0.9737568187937179 
28.000246986923678 0.9683743215553627 
29.000246986923678 0.9660209879746615 
30.000246986923678 0.9628885758746847 
31.000246986923678 0.9579693070061327 
32.00024698692368 0.9554513871313778 
33.00024698692368 0.9500108821938151 
34.00024698692368 0.9479142810125374 
35.00024698692368 0.942801422000329 
36.00024698692368 0.9387822427353828 
37.00024698692368 0.9374067123741754 
38.00024698692368 0.9323900239730549 
39.00024698692368 0.9309462167995218 
40.00024698692368 0.9295357157225783 
41.00024698692368 0.9284091464906302 
42.00024698692368 0.9282001526772857 
43.00024698692368 0.9300244789188185 
44.00024698692368 0.934487458378159 
45.00024698692368 0.9357022880803924 
46.00024698692368 0.9387031422416338 
47.00024698692368 0.9424159081606649 
48.00024698692368 0.9457364981064609 
49.00024698692368 0.9508772509174264 
50.00024698692368 0.9523052378093638 
51.00024698692368 0.9565891984851687 
52.00024698692368 0.9600163670258118 
53.00024698692368 0.9643003277016203 
54.00024698692368 0.9660139119719404 
55.00024698692368 0.9708690674045205 
56.00024698692368 0.9728682490532308 
57.00024698692368 0.9765810149722625 
58.00024698692368 0.9794369887561324 
59.00024698692368 0.9825785599183895 
60.00024698692368 0.9845777415670985 
61.00024698692368 0.986576923215809 
62.00024698692368 0.9900040917564529 
63.00024698692368 0.9914320786483883 
64.00024698692368 0.9931456629187111 
65.00024698692368 0.9948592471890331 
66.00024698692368 0.9965728314593556 
67.00024698692368 0.9971440262161296 
68.00024698692368 0.9988576104864518 
69.00024698692368 0.9997144026216129 
70.00024698692368 0.9997144026216129 
71.00024698692368 1.0 
72.00024698692368 1.0 
73.00024698692368 1.0 
74.00024698692368 1.0 
75.00024698692368 1.0 
76.00024698692368 1.0 
77.00024698692368 1.0 
78.00024698692368 1.0 
79.00024698692368 1.0 
80.00024698692368 1.0 
81.00024698692368 1.0 
82.00024698692368 1.0 
83.00024698692368 1.0 
84.00024698692368 1.0 
85.00024698692368 1.0 
86.00024698692368 1.0 
87.00024698692368 1.0 
88.00024698692368 1.0 
89.00024698692368 1.0 
90.00024698692368 1.0 
91.00024698692368 1.0 
92.00024698692368 1.0 
93.00024698692368 1.0 
94.00024698692368 1.0 
95.00024698692368 1.0 
96.00024698692368 1.0 
97.00024698692368 1.0 
98.00024698692368 0.9995374659833829 
99.00024698692368 0.9973201342018155 
100.00024698692368 0.9972389533912727 
101.00024698692368 0.9945454855846625 
102.00024698692368 0.9909129384385291 
103.00024698692368 0.9890088182643196 
104.00024698692368 0.9865182403627972 
105.00024698692368 0.98140746715292 
106.00024698692368 0.9801043788089115 
107.00024698692368 0.9775581503519977 
108.00024698692368 0.9771468230303708 
109.00024698692368 0.9748409502944742 
110.00024698692368 0.9791490516048008 
111.00024698692368 0.979587436758591 
112.00024698692368 0.9805551088213404 
113.00024698692368 0.9789786354867394 
114.00024698692368 0.9828801310771151 
115.00024698692368 0.9775312240764211 
116.00024698692368 0.9784245126758165 
117.00024698692368 0.9814110704754452 
118.00024698692368 0.9788504067862812 
119.00024698692368 0.9775793756173871 
120.00024698692368 0.9759540490745829 
121.00024698692368 0.9721624658886145 
122.00024698692368 0.9723792282293544 
123.00024698692368 0.9698922536503574 
124.00024698692368 0.9671453572185568 
125.00024698692368 0.9651352130177907 
126.00024698692368 0.9847915090947221 
127.00024698692368 1.079317037534857 
128.00024698692368 1.0012412983206733 
129.00024698692368 1.199824621205538 
130.00024698692368 1.2269384067380245 
131.00024698692368 1.222662907114299 
132.00024698692368 1.3576478665677796 
133.00024698692368 1.4037115601601917 
134.00024698692368 1.3517097527689668 
135.00024698692368 1.4463829517988156 
136.00024698692368 1.3882407792872327 
137.00024698692368 1.391897363853247 
138.00024698692368 1.2828330368490424 
139.00024698692368 1.4078879537863915 
140.00024698692368 1.3043771093350018 
141.00024698692368 1.3194693966977111 
142.00024698692368 1.4019361201364087 
143.00024698692368 1.3981702380751946 
144.00024698692368 1.4240937209814186 
145.00024698692368 1.2982972141971456 
146.00024698692368 1.3679517378690045 
147.00024698692368 1.176150761401879 
148.00024698692368 1.1715395750696596 
149.00024698692368 1.2257442160228385 
150.00024698692368 1.0339950035617622 
151.00024698692368 1.1018304817333489 
152.00024698692368 1.1460414162595447 
153.00024698692368 1.0109024557651674 
154.00024698692368 1.129268185626127 
155.00024698692368 0.9195404775325218 
156.00024698692368 0.9547253621521256 
157.00024698692368 0.9880118285219684 
158.00024698692368 0.9750809958425111 
159.00024698692368 0.9490750987466087 
160.00024698692368 0.9899920863757772 
161.00024698692368 0.8963639012112107 
162.00024698692368 0.883377565989562 
163.00024698692368 0.9037203888395622 
164.00024698692368 0.788330846278972 
165.00024698692368 0.8379493990008144 
166.00024698692368 0.7632289719630811 
167.00024698692368 0.8100917304755054 
168.00024698692368 0.8342499089896626 
169.00024698692368 0.7461720114389826 
170.00024698692368 0.7688305613546136 
171.00024698692368 0.712159307789849 
172.00024698692368 0.6655605422630201 
173.00024698692368 0.6895255125036919 
174.00024698692368 0.5587335709256245 
175.00024698692368 0.6045900760229844 
176.00024698692368 0.5672603345522386 
177.00024698692368 0.5112367248962959 
178.00024698692368 0.5641318784850697 
179.00024698692368 0.5232980935671477 
180.00024698692368 0.4353902092364615 
181.00024698692368 0.4307848636993184 
182.00024698692368 0.4151627869719715 
183.00024698692368 0.3616180900840061 
184.00024698692368 0.34530700245446616 
185.00024698692368 0.31870895850639697 
186.00024698692368 0.3579162465860636 
187.00024698692368 0.23495407445111569 
188.00024698692368 0.31594937008751384 
189.00024698692368 0.2702855196095915 
190.00024698692368 0.1991325551018104 
191.00024698692368 0.21101805421523215 
192.00024698692368 0.2131977959383303 
193.00024698692368 0.17622816869442184 
194.00024698692368 0.16285588656458713 
195.00024698692368 0.15420291339545397 
196.00024698692368 0.16095056866724705 
197.00024698692368 0.11131388606131205 
198.00024698692368 0.13776223761527862 
199.00024698692368 0.10827810324012038 
200.00024698692368 0.07713838680831077 
201.00024698692368 0.0696766435613369 
202.00024698692368 0.059891685205391676 
203.00024698692368 0.05277659944726626 
204.00024698692368 0.04417926769095758 
205.00024698692368 0.03758319790015461 
206.00024698692368 0.03200836583941504 
207.00024698692368 0.02636969808397813 
208.00024698692368 0.022409087486324683 
209.00024698692368 0.018614731458887226 
210.00024698692368 0.015378939360003866 
211.00024698692368 0.01279580331248206 
212.00024698692368 0.010554467024262802 
213.00024698692368 0.00904613345986607 
214.00024698692368 0.00770585886971752 
215.00024698692368 0.006466471006793829 
216.00024698692368 0.005414012068207428 
217.00024698692368 0.004462857383015055 
218.00024698692368 0.0037093164329415613 
219.00024698692368 0.0032048745685091247 
220.00024698692368 0.0028523890841677135 
221.00024698692368 0.002798129063664198 
222.00024698692368 0.0026839180692881212 
223.00024698692368 0.002662546619211767 
224.00024698692368 0.002633403898972407 
225.00024698692368 0.0026309060560097412 
226.00024698692368 0.002632154977491074 
227.00024698692368 0.002633403898972407 
228.00024698692368 0.002633403898972407 
229.00024698692368 0.002633403898972407 
230.00024698692368 0.002633403898972407 
231.00024698692368 0.002633403898972407 
232.00024698692368 0.002633403898972407 
233.00024698692368 0.002633403898972407 
234.00024698692368 0.002633403898972407 
235.00024698692368 0.002633403898972407 
236.00024698692368 0.002633403898972407 
237.00024698692368 0.002633403898972407 
238.00024698692368 0.002633403898972407 
239.00024698692368 0.002633403898972407 
240.00024698692368 0.002633403898972407 
241.00024698692368 0.002633403898972407 
242.00024698692368 0.002633403898972407 
243.00024698692368 0.002633403898972407 
244.00024698692368 0.002633403898972407 
245.00024698692368 0.002633403898972407 
246.00024698692368 0.002633403898972407 
247.00024698692368 0.002633403898972407 
248.00024698692368 0.002633403898972407 
249.00024698692368 0.002633403898972407 
250.00024698692368 0.002633403898972407 
251.00024698692368 0.002633403898972407 
252.00024698692368 0.002633403898972407 
253.00024698692368 0.002633403898972407 
254.00024698692368 0.002633403898972407 
255.00024698692368 0.002633403898972407 
256.0002469869237 0.002633403898972407 
257.0002469869237 0.002633403898972407 
258.0002469869237 0.002633403898972407 
259.0002469869237 0.002633403898972407 
260.0002469869237 0.002633403898972407 
261.0002469869237 0.002633403898972407 
262.0002469869237 0.002633403898972407 
263.0002469869237 0.002633403898972407 
264.0002469869237 0.002633403898972407 
265.0002469869237 0.002633403898972407 
266.0002469869237 0.002633403898972407 
267.0002469869237 0.002633403898972407 
268.0002469869237 0.002633403898972407 
269.0002469869237 0.002633403898972407 
270.0002469869237 0.002633403898972407 
271.0002469869237 0.002633403898972407 
272.0002469869237 0.002633403898972407 
273.0002469869237 0.002633403898972407 
274.0002469869237 0.002633403898972407 
275.0002469869237 0.002633403898972407 
276.0002469869237 0.002633403898972407 
277.0002469869237 0.002633403898972407 
278.0002469869237 0.002633403898972407 
279.0002469869237 0.002633403898972407 
280.0002469869237 0.002633403898972407 
281.0002469869237 0.002633403898972407 
282.0002469869237 0.002633403898972407 
283.0002469869237 0.002633403898972407 
284.0002469869237 0.002633403898972407 
285.0002469869237 0.002633403898972407 
286.0002469869237 0.002633403898972407 
287.0002469869237 0.002633403898972407 
288.0002469869237 0.002633403898972407 
289.0002469869237 0.002633403898972407 
290.0002469869237 0.002633403898972407 
291.0002469869237 0.002633403898972407 
292.0002469869237 0.002633403898972407 
293.0002469869237 0.002633403898972407 
294.0002469869237 0.002633403898972407 
295.0002469869237 0.002633403898972407 
296.0002469869237 0.002633403898972407 
297.0002469869237 0.002633403898972407 
298.0002469869237 0.002633403898972407 
299.0002469869237 0.002633403898972407 
300.0002469869237 0.002633403898972407 
301.0002469869237 0.002633403898972407 
302.0002469869237 0.002633403898972407 
303.0002469869237 0.002633403898972407 
304.0002469869237 0.002633403898972407 
305.0002469869237 0.002633403898972407 
306.0002469869237 0.002633403898972407 
307.0002469869237 0.002633403898972407 
308.0002469869237 0.002633403898972407 
309.0002469869237 0.002633403898972407 
310.0002469869237 0.002633403898972407 
311.0002469869237 0.002633403898972407 
312.0002469869237 0.002633403898972407 
313.0002469869237 0.002633403898972407 
314.0002469869237 0.002633403898972407 
315.0002469869237 0.002633403898972407 
316.0002469869237 0.002633403898972407 
317.0002469869237 0.002633403898972407 
318.0002469869237 0.002633403898972407 
319.0002469869237 0.002633403898972407 
320.0002469869237 0.002633403898972407 
321.0002469869237 0.002633403898972407 
322.0002469869237 0.002633403898972407 
323.0002469869237 0.002633403898972407 
324.0002469869237 0.002633403898972407 
325.0002469869237 0.002633403898972407 
#####################################################################
# End of data export. Simulation finished at: 2017-05-25T07:19+0000 #
#####################################################################
