#####################################################################
# Alchemist log file - simulation started at: 2017-05-24T22:47+0000 #
#####################################################################
# random = 7.0, targets = 31.622776601683793, density = 0.11269076455391362, gridShift = 1.0, perturbation = 0.0, connfactor = 0.1
#
# The columns have the following meaning: 
# time se[Mean] 
0.0 NaN 
1.0080802511496205 NaN 
2.0080802511496207 1.0 
3.0080802511496207 1.0 
4.008080251149621 1.0 
5.008080251149621 1.0 
6.008080251149621 1.0 
7.008080251149621 0.9975101778718652 
8.008080251149622 0.982571245103057 
9.008080251149622 0.9726119565905182 
10.008080251149622 0.9502035574373059 
11.008080251149622 0.9427340910529017 
12.008080251149622 0.9377544467966323 
13.008080251149622 0.9377544467966323 
14.008080251149622 0.9377544467966323 
15.008080251149622 0.9377544467966323 
16.00808025114962 0.9377544467966323 
17.00808025114962 0.9377544467966323 
18.00808025114962 0.9377544467966323 
19.00808025114962 0.9377544467966323 
20.00808025114962 0.9377544467966323 
21.00808025114962 0.9377544467966323 
#####################################################################
# End of data export. Simulation finished at: 2017-05-24T22:47+0000 #
#####################################################################
