#####################################################################
# Alchemist log file - simulation started at: 2017-05-24T22:35+0000 #
#####################################################################
# random = 16.0, targets = 3.1622776601683795, density = 2.519842099789746, gridShift = 1.0, perturbation = 0.0, connfactor = 2.0
#
# The columns have the following meaning: 
# time se[Mean] 
0.0 NaN 
1.0066017814354276 NaN 
2.0066017814354273 1.0494747973904286 
3.0066017814354273 1.0852607794556317 
4.006601781435427 1.1067375636677936 
5.006601781435427 1.1587256410432334 
6.006601781435427 1.0911260513610195 
7.006601781435427 1.1677111004414964 
8.006601781435428 1.1779632870873138 
9.006601781435428 1.1134732973822998 
10.006601781435428 1.1291810028018425 
11.006601781435428 1.0927275073221843 
12.006601781435428 1.0287174826597631 
13.006601781435428 1.0764503939305303 
14.006601781435428 0.9813471872973814 
15.006601781435428 0.9999750129827736 
16.006601781435428 0.9627530174786789 
17.006601781435428 0.9613246913779124 
18.006601781435428 0.9574523473749146 
19.006601781435428 0.9594731561354439 
20.006601781435428 0.9484495819609134 
21.006601781435428 0.9375135383863259 
22.006601781435428 0.9254338726970283 
23.006601781435428 0.9100108776001783 
24.006601781435428 0.8878011869063948 
25.006601781435428 0.8756503468047417 
26.006601781435428 0.861606621919168 
27.006601781435428 0.8413754279430363 
28.006601781435428 0.8162764106923674 
29.006601781435428 0.8048709832542246 
30.006601781435428 0.7786783686163983 
31.006601781435428 0.7675625210378123 
32.00660178143543 0.7584607130265923 
33.00660178143543 0.7402388221503512 
34.00660178143543 0.7351959693591159 
35.00660178143543 0.722306485787116 
36.00660178143543 0.7132873705221636 
37.00660178143543 0.7047232396192155 
38.00660178143543 0.6913076479659573 
39.00660178143543 0.6651861317008363 
40.00660178143543 0.6378893068136264 
41.00660178143543 0.6206879519291629 
42.00660178143543 0.588632933880312 
43.00660178143543 0.5409355717958968 
44.00660178143543 0.5124105260547713 
45.00660178143543 0.4828755381741813 
46.00660178143543 0.4402884103173932 
47.00660178143543 0.41636762721291204 
48.00660178143543 0.37399982928492603 
49.00660178143543 0.34822367994218917 
50.00660178143543 0.30693409838847124 
51.00660178143543 0.2839155079569482 
52.00660178143543 0.24485162757118561 
53.00660178143543 0.2132169311597611 
54.00660178143543 0.174123213229822 
55.00660178143543 0.14155453625186265 
56.00660178143543 0.13281442600406554 
57.00660178143543 0.11303720953204989 
58.00660178143543 0.08736297761753206 
59.00660178143543 0.08868072377725386 
60.00660178143543 0.0701673407118816 
61.00660178143543 0.06974418226327955 
62.00660178143543 0.06157341028458167 
63.00660178143543 0.05495505105083317 
64.00660178143542 0.054628073041724776 
65.00660178143542 0.04448454767073808 
66.00660178143542 0.04808474456266855 
67.00660178143542 0.04668433100322896 
68.00660178143542 0.03766808423263943 
69.00660178143542 0.03875402596485896 
70.00660178143542 0.035347215819715956 
71.00660178143542 0.03545784011722306 
72.00660178143542 0.028258497547712254 
73.00660178143542 0.028531683199854777 
74.00660178143542 0.027046620208109794 
75.00660178143542 0.019642410577723392 
76.00660178143542 0.04022375230017817 
77.00660178143542 0.09505885052626273 
78.00660178143542 0.09232532880412518 
79.00660178143542 0.12997343362747174 
80.00660178143542 0.16420604678293801 
81.00660178143542 0.18412179375714974 
82.00660178143542 0.20088366568860996 
83.00660178143542 0.199972816839464 
84.00660178143542 0.277433133899547 
85.00660178143542 0.17811995437224057 
86.00660178143542 0.27571722898172496 
87.00660178143542 0.3503670495522139 
88.00660178143542 0.33265681656258134 
89.00660178143542 0.42892770784606676 
90.00660178143542 0.4659563736331118 
91.00660178143542 0.5446439934021478 
92.00660178143542 0.5624494506664881 
93.00660178143542 0.639665457117179 
94.00660178143542 0.6975774619551982 
95.00660178143542 0.7168814635678704 
96.00660178143542 0.7554894667932156 
97.00660178143542 0.7361854651805433 
98.00660178143542 0.7361854651805455 
99.00660178143542 0.8327054732439058 
100.00660178143542 0.6782734603425268 
101.00660178143542 0.7168814635678731 
102.00660178143542 0.6203614555045083 
103.00660178143542 0.44662544099044826 
104.00660178143542 0.272889426476393 
105.00660178143542 0.1377614151876826 
106.00660178143542 0.15706541680035638 
107.00660178143542 0.1377614151876826 
108.00660178143542 0.09915341196233673 
109.00660178143542 0.021937405511645507 
110.00660178143542 0.021937405511645507 
111.00660178143542 0.0026334038989724497 
112.00660178143542 0.0026334038989724497 
113.00660178143542 0.0026334038989724497 
114.00660178143542 0.0026334038989724497 
115.00660178143542 0.0026334038989724497 
116.00660178143542 0.0026334038989724497 
117.00660178143542 0.0026334038989724497 
118.00660178143542 0.0026334038989724497 
119.00660178143542 0.0026334038989724497 
120.00660178143542 0.0026334038989724497 
121.00660178143542 0.0026334038989724497 
122.00660178143542 0.0026334038989724497 
123.00660178143542 0.0026334038989724497 
124.00660178143542 0.0026334038989724497 
125.00660178143542 0.0026334038989724497 
126.00660178143542 0.0026334038989724497 
127.00660178143542 0.0026334038989724497 
128.00660178143542 0.0026334038989724497 
129.00660178143542 0.0026334038989724497 
130.00660178143542 0.0026334038989724497 
131.00660178143542 0.0026334038989724497 
132.00660178143542 0.0026334038989724497 
133.00660178143542 0.0026334038989724497 
134.00660178143542 0.0026334038989724497 
135.00660178143542 0.0026334038989724497 
136.00660178143542 0.0026334038989724497 
137.00660178143542 0.0026334038989724497 
138.00660178143542 0.0026334038989724497 
139.00660178143542 0.0026334038989724497 
140.00660178143542 0.0026334038989724497 
141.00660178143542 0.0026334038989724497 
142.00660178143542 0.0026334038989724497 
143.00660178143542 0.0026334038989724497 
#####################################################################
# End of data export. Simulation finished at: 2017-05-24T22:35+0000 #
#####################################################################
