#####################################################################
# Alchemist log file - simulation started at: 2017-05-23T07:00+0000 #
#####################################################################
# random = 11.0, targets = 3.1622776601683795, density = 2.519842099789746, gridShift = 1.0, perturbation = 0.0, connfactor = 0.5
#
# The columns have the following meaning: 
# time se[Mean] 
0.0 NaN 
1.0028758930102715 NaN 
2.0028758930102715 1.0 
3.0028758930102715 1.0 
4.0028758930102715 0.9963325293945153 
5.0028758930102715 0.9905846129599725 
6.0028758930102715 0.9714537475443354 
7.0028758930102715 0.9496422536284773 
8.002875893010271 0.9264370646532419 
9.002875893010271 0.8887841790059575 
10.002875893010271 0.8715981417680075 
11.002875893010271 0.842945127693811 
12.002875893010271 0.8285464805746143 
13.002875893010271 0.8041611197770664 
14.002875893010271 0.7928586166250307 
15.002875893010271 0.7796689973609874 
16.00287589301027 0.7705537016565402 
17.00287589301027 0.7617962093533549 
18.00287589301027 0.7477842216682592 
19.00287589301027 0.7337722339831622 
20.00287589301027 0.7145057509161545 
21.00287589301027 0.7057482586129691 
22.00287589301027 0.6934877693885094 
23.00287589301027 0.6934877693885094 
24.00287589301027 0.6794757817034115 
25.00287589301027 0.6864817755459605 
26.00287589301027 0.6742212863215007 
27.00287589301027 0.6794757817034115 
28.00287589301027 0.6689667909395901 
29.00287589301027 0.6637122955576785 
30.00287589301027 0.6637122955576785 
31.00287589301027 0.6532033047938558 
32.00287589301027 0.6508227676292163 
33.00287589301027 0.6448036158919304 
34.00287589301027 0.6351458495820006 
35.00287589301027 0.61851094546236 
36.00287589301027 0.6001822549477631 
37.00287589301027 0.5838561046765295 
38.00287589301027 0.5872985780675004 
39.00287589301027 0.6661796859695244 
40.00287589301027 0.7415577969502737 
41.00287589301027 0.7111417534082523 
42.00287589301027 0.6411971820843883 
43.00287589301027 0.6820098318424505 
44.00287589301027 0.5727387249666197 
45.00287589301027 0.5726089583634493 
46.00287589301027 0.5080054505200146 
47.00287589301027 0.5921121977711102 
48.00287589301027 0.5407560212573984 
49.00287589301027 0.5241297796505842 
50.00287589301027 0.5091194188530358 
51.00287589301027 0.45983502565555684 
52.00287589301027 0.4108882423393242 
53.00287589301027 0.3599100627468872 
54.00287589301027 0.38089637677706834 
55.00287589301027 0.36949577451932486 
56.00287589301027 0.39460546166195704 
57.00287589301027 0.42059522929132076 
58.00287589301027 0.24204306875771808 
59.00287589301027 0.3426202464442437 
60.00287589301027 0.3058877712939792 
61.00287589301027 0.23616819718462953 
62.00287589301027 0.20102274681079302 
63.00287589301027 0.13378180897178965 
64.00287589301027 0.132474682010931 
65.00287589301027 0.13291039099788388 
66.00287589301027 0.13378180897178965 
67.00287589301027 0.1342175179587425 
68.00287589301027 0.13508893593264829 
69.00287589301027 0.13508893593264829 
70.00287589301027 0.13508893593264829 
71.00287589301027 0.13508893593264829 
72.00287589301027 0.13508893593264829 
73.00287589301027 0.13508893593264829 
74.00287589301027 0.13508893593264829 
75.00287589301027 0.13508893593264829 
76.00287589301027 0.13508893593264829 
77.00287589301027 0.13508893593264829 
78.00287589301027 0.13508893593264829 
79.00287589301027 0.13508893593264829 
80.00287589301027 0.13508893593264829 
81.00287589301027 0.13508893593264829 
82.00287589301027 0.13508893593264829 
83.00287589301027 0.13508893593264829 
84.00287589301027 0.13508893593264829 
85.00287589301027 0.13508893593264829 
86.00287589301027 0.13508893593264829 
87.00287589301027 0.13508893593264829 
88.00287589301027 0.13508893593264829 
89.00287589301027 0.13508893593264829 
90.00287589301027 0.13508893593264829 
91.00287589301027 0.13508893593264829 
92.00287589301027 0.13508893593264829 
93.00287589301027 0.13508893593264829 
94.00287589301027 0.13508893593264829 
95.00287589301027 0.13508893593264829 
96.00287589301027 0.13508893593264829 
97.00287589301027 0.13508893593264829 
98.00287589301027 0.13508893593264829 
99.00287589301027 0.13508893593264829 
#####################################################################
# End of data export. Simulation finished at: 2017-05-23T07:00+0000 #
#####################################################################
