#####################################################################
# Alchemist log file - simulation started at: 2017-05-26T03:02+0000 #
#####################################################################
# random = 9.0, targets = 3.1622776601683795, density = 0.07978946395100113, gridShift = 0.0, perturbation = 0.0, connfactor = 1.0
#
# The columns have the following meaning: 
# time se[Mean] 
0.0 NaN 
1.034185494435238 1.0 
2.034185494435238 1.0 
3.034185494435238 0.9790684615057167 
4.034185494435238 0.9228780765628835 
5.034185494435238 0.7441343992569384 
6.034185494435238 0.5724541557175458 
7.034185494435238 0.26493900862670317 
8.034185494435238 0.1524779599188247 
9.034185494435238 0.012940345403181893 
10.034185494435238 0.00778687465107715 
11.034185494435238 0.002633403898972407 
12.034185494435238 0.002633403898972407 
13.034185494435238 0.002633403898972407 
14.034185494435238 0.002633403898972407 
15.034185494435238 0.002633403898972407 
#####################################################################
# End of data export. Simulation finished at: 2017-05-26T03:02+0000 #
#####################################################################
