#####################################################################
# Alchemist log file - simulation started at: 2017-05-23T22:23+0000 #
#####################################################################
# random = 6.0, targets = 1.0, density = 1.7841466528270753, gridShift = 1.0, perturbation = 0.0, connfactor = 1.5
#
# The columns have the following meaning: 
# time se[Mean] 
0.0 NaN 
1.0043581642399184 NaN 
2.0043581642399184 1.1395089285714286 
3.0043581642399184 1.2683531746031746 
4.004358164239918 1.2749255952380956 
5.004358164239918 1.2450396825396821 
6.004358164239918 1.1666666666666665 
7.004358164239918 1.1060267857142856 
8.004358164239918 1.1107390873015877 
9.004358164239918 1.0463789682539684 
10.004358164239918 1.0308779761904763 
11.004358164239918 1.0063244047619049 
12.004358164239918 0.9725942460317459 
13.004358164239918 0.9645337301587301 
14.004358164239918 0.9522569444444443 
15.004358164239918 0.9468005952380953 
16.004358164239918 0.9440724206349207 
17.004358164239918 0.9536210317460317 
18.004358164239918 0.9590773809523809 
19.004358164239918 0.9672619047619047 
20.004358164239918 0.9768105158730159 
21.004358164239918 0.9781746031746033 
22.004358164239918 0.9877232142857142 
23.004358164239918 0.9904513888888888 
24.004358164239918 0.9931795634920635 
25.004358164239918 0.9972718253968254 
26.004358164239918 0.9986359126984127 
27.004358164239918 1.0 
28.004358164239918 0.9955357142857143 
29.004358164239918 0.9732142857142858 
30.004358164239918 0.982638888888889 
31.004358164239918 0.9404761904761904 
32.00435816423992 0.9554811507936508 
33.00435816423992 0.911954365079365 
34.00435816423992 0.8881448412698413 
35.00435816423992 0.8637152777777777 
36.00435816423992 0.810391865079365 
37.00435816423992 0.7456597222222224 
38.00435816423992 0.6899801587301588 
39.00435816423992 0.6423611111111112 
40.00435816423992 0.5404265873015872 
41.00435816423992 0.5442708333333333 
42.00435816423992 0.3938492063492064 
43.00435816423992 0.38442460317460303 
44.00435816423992 0.29724702380952395 
45.00435816423992 0.25719246031746035 
46.00435816423992 0.2126736111111112 
47.00435816423992 0.14707341269841265 
48.00435816423992 0.11619543650793644 
49.00435816423992 0.08097718253968249 
50.00435816423992 0.06795634920634927 
51.00435816423992 0.0479910714285714 
52.00435816423992 0.041790674603174684 
53.00435816423992 0.025545634920634934 
54.00435816423992 0.01525297619047617 
55.00435816423992 0.00830853174603175 
56.00435816423992 0.004464285714285722 
57.00435816423992 0.0022321428571428644 
58.00435816423992 0.0011160714285714322 
59.00435816423992 5.122973652070047E-32 
60.00435816423992 5.040433797310595E-32 
61.00435816423992 4.985407227470959E-32 
62.00435816423992 4.957893942551142E-32 
63.00435816423992 4.930380657631324E-32 
64.00435816423992 4.930380657631324E-32 
65.00435816423992 4.930380657631324E-32 
66.00435816423992 4.930380657631324E-32 
67.00435816423992 4.930380657631324E-32 
68.00435816423992 4.930380657631324E-32 
69.00435816423992 4.930380657631324E-32 
70.00435816423992 4.930380657631324E-32 
71.00435816423992 4.930380657631324E-32 
72.00435816423992 4.930380657631324E-32 
73.00435816423992 4.930380657631324E-32 
74.00435816423992 4.930380657631324E-32 
75.00435816423992 4.930380657631324E-32 
76.00435816423992 4.930380657631324E-32 
77.00435816423992 4.930380657631324E-32 
78.00435816423992 4.930380657631324E-32 
79.00435816423992 4.930380657631324E-32 
80.00435816423992 4.930380657631324E-32 
81.00435816423992 4.930380657631324E-32 
82.00435816423992 4.930380657631324E-32 
83.00435816423992 4.930380657631324E-32 
84.00435816423992 4.930380657631324E-32 
85.00435816423992 4.930380657631324E-32 
86.00435816423992 4.930380657631324E-32 
87.00435816423992 4.930380657631324E-32 
88.00435816423992 4.930380657631324E-32 
89.00435816423992 4.930380657631324E-32 
#####################################################################
# End of data export. Simulation finished at: 2017-05-23T22:24+0000 #
#####################################################################
