#####################################################################
# Alchemist log file - simulation started at: 2017-05-26T02:29+0000 #
#####################################################################
# random = 19.0, targets = 100.0, density = 3.5589026259761294, gridShift = 0.0, perturbation = 0.5, connfactor = 0.25
#
# The columns have the following meaning: 
# time se[Mean] 
0.0 NaN 
1.004337754240159 NaN 
2.004337754240159 0.99995025 
3.004337754240159 0.99995025 
4.004337754240159 0.99925775 
5.004337754240159 0.9967115625 
6.004337754240159 0.9943840625 
7.004337754240159 0.98877175 
8.004337754240158 0.9861985 
9.004337754240158 0.9838460625 
10.004337754240158 0.9810694375 
11.004337754240158 0.977368125 
12.004337754240158 0.9769065 
13.004337754240158 0.9729189652777778 
14.004337754240158 0.9708329930555556 
15.004337754240158 0.9660137013888889 
16.004337754240158 0.9648908125 
17.004337754240158 0.9611893263888889 
18.004337754240158 0.9547513819444444 
19.004337754240158 0.9516666874999999 
20.004337754240158 0.9443648333333333 
21.004337754240158 0.9401878333333333 
22.004337754240158 0.9332037013888889 
23.004337754240158 0.9298594166666666 
24.004337754240158 0.9273167777777778 
25.004337754240158 0.9255800069444444 
26.004337754240158 0.9256644374999999 
27.004337754240158 0.9257610555555555 
28.004337754240158 0.924452375 
29.004337754240158 0.9234631249999999 
30.004337754240158 0.9233489374999999 
31.004337754240158 0.9214159375 
32.004337754240154 0.9220606874999999 
33.004337754240154 0.9159118749999999 
34.004337754240154 0.9160023749999999 
35.004337754240154 0.913350125 
36.004337754240154 0.9082272499999999 
37.004337754240154 0.9108960625 
38.004337754240154 0.9060024444444444 
39.004337754240154 0.9073684027777777 
40.004337754240154 0.9012300972222222 
41.004337754240154 0.895467673611111 
42.004337754240154 0.8995502916666667 
43.004337754240154 0.8887883472222222 
44.004337754240154 0.8874677916666667 
45.004337754240154 0.8861411319444444 
46.004337754240154 0.8804425833333333 
47.004337754240154 0.8835676319444444 
48.004337754240154 0.8731048402777777 
49.004337754240154 0.8808710972222222 
50.004337754240154 0.8729937777777778 
51.004337754240154 0.8647715625 
52.004337754240154 0.8698813819444444 
53.004337754240154 0.8619278263888889 
54.004337754240154 0.863791423611111 
55.004337754240154 0.8576475625 
56.004337754240154 0.8561315972222222 
57.004337754240154 0.8597691111111111 
58.004337754240154 0.8549325416666667 
59.004337754240154 0.8551906041666667 
60.004337754240154 0.8568720069444444 
61.004337754240154 0.8533896597222222 
62.004337754240154 0.8583441458333334 
63.004337754240154 0.8537902291666667 
64.00433775424015 0.8495755416666667 
65.00433775424015 0.8489565347222222 
66.00433775424015 0.8370920069444444 
67.00433775424015 0.827216861111111 
68.00433775424015 0.8256363472222222 
69.00433775424015 0.8184362430555554 
70.00433775424015 0.8139416388888888 
71.00433775424015 0.8010942638888888 
72.00433775424015 0.7942404444444446 
73.00433775424015 0.7882494999999999 
74.00433775424015 0.7688575416666668 
75.00433775424015 0.7654567222222224 
76.00433775424015 0.7553648680555556 
77.00433775424015 0.7320690694444444 
78.00433775424015 0.7240869444444444 
79.00433775424015 0.7148380763888889 
80.00433775424015 0.7119129722222223 
81.00433775424015 0.6930519722222223 
82.00433775424015 0.6757693055555556 
83.00433775424015 0.6740989027777778 
84.00433775424015 0.656849375 
85.00433775424015 0.6497716458333334 
86.00433775424015 0.6395278263888889 
87.00433775424015 0.6262286111111112 
88.00433775424015 0.6187566527777778 
89.00433775424015 0.6106921319444445 
90.00433775424015 0.6054008194444445 
91.00433775424015 0.6000668958333334 
92.00433775424015 0.5912816805555555 
93.00433775424015 0.59269375 
94.00433775424015 0.5966976944444444 
95.00433775424015 0.6063453125 
96.00433775424015 0.6156637916666666 
97.00433775424015 0.6072644305555556 
98.00433775424015 0.6161798194444444 
99.00433775424015 0.6185132222222223 
100.00433775424015 0.6169558402777778 
101.00433775424015 0.6862559027777776 
102.00433775424015 0.6117846527777778 
103.00433775424015 0.9682142222222215 
104.00433775424015 0.9582936180555548 
105.00433775424015 0.8911437013888898 
106.00433775424015 1.108242694444444 
107.00433775424015 0.960825534722223 
108.00433775424015 1.1708300069444446 
109.00433775424015 1.1033552499999995 
110.00433775424015 1.237253861111111 
111.00433775424015 1.5214604374999998 
112.00433775424015 1.0901791249999997 
113.00433775424015 1.4422514375000006 
114.00433775424015 1.6503350625000006 
115.00433775424015 1.5041316875000001 
116.00433775424015 1.499786 
117.00433775424015 1.2108396875000003 
118.00433775424015 1.8496628125000005 
119.00433775424015 1.5606603124999998 
120.00433775424015 1.5586036249999997 
121.00433775424015 1.8389136874999998 
122.00433775424015 1.5532664375 
123.00433775424015 1.9785592500000002 
124.00433775424015 1.8316674999999998 
125.00433775424015 1.76010225 
126.00433775424015 1.8995440000000008 
127.00433775424015 1.89706275 
128.00433775424017 1.8958815000000007 
129.00433775424017 1.7505800000000011 
130.00433775424017 1.9626332499999988 
131.00433775424017 1.533237 
132.00433775424017 1.0338282500000004 
133.00433775424017 1.1030467500000007 
134.00433775424017 1.0309892500000015 
135.00433775424017 0.532359 
136.00433775424017 0.8159762500000003 
137.00433775424017 0.531 
138.00433775424017 0.532871 
139.00433775424017 0.5314760000000001 
140.00433775424017 0.5322020000000001 
141.00433775424017 0.5329 
142.00433775424017 0.532332 
143.00433775424017 0.5329 
144.00433775424017 0.5329 
145.00433775424017 0.5329 
146.00433775424017 0.5329 
147.00433775424017 0.5329 
148.00433775424017 0.5329 
149.00433775424017 0.5329 
150.00433775424017 0.5329 
151.00433775424017 0.5329 
152.00433775424017 0.5329 
153.00433775424017 0.5329 
154.00433775424017 0.5329 
155.00433775424017 0.5329 
156.00433775424017 0.5329 
157.00433775424017 0.5329 
158.00433775424017 0.5329 
159.00433775424017 0.5329 
160.00433775424017 0.5329 
161.00433775424017 0.5329 
162.00433775424017 0.5329 
163.00433775424017 0.5329 
164.00433775424017 0.5329 
165.00433775424017 0.5329 
166.00433775424017 0.5329 
167.00433775424017 0.5329 
168.00433775424017 0.5329 
169.00433775424017 0.5329 
170.00433775424017 0.5329 
171.00433775424017 0.5329 
172.00433775424017 0.5329 
173.00433775424017 0.5329 
174.00433775424017 0.5329 
175.00433775424017 0.5329 
176.00433775424017 0.5329 
177.00433775424017 0.5329 
178.00433775424017 0.5329 
179.00433775424017 0.5329 
180.00433775424017 0.5329 
181.00433775424017 0.5329 
182.00433775424017 0.5329 
183.00433775424017 0.5329 
184.00433775424017 0.5329 
185.00433775424017 0.5329 
186.00433775424017 0.5329 
#####################################################################
# End of data export. Simulation finished at: 2017-05-26T02:29+0000 #
#####################################################################
