#####################################################################
# Alchemist log file - simulation started at: 2017-05-26T14:35+0000 #
#####################################################################
# random = 9.0, targets = 100.0, density = 10.026386447354522, gridShift = 0.0, perturbation = 0.5, connfactor = 1.5
#
# The columns have the following meaning: 
# time se[Mean] 
0.0 NaN 
1.0015323036356916 NaN 
2.001532303635692 1.0091225436179982 
3.001532303635692 1.0154542916539129 
4.001532303635692 1.022056207912458 
5.001532303635692 1.0288086783236405 
6.001532303635692 1.0286361449086827 
7.001532303635692 1.032038492245689 
8.001532303635692 1.0359015865727987 
9.001532303635692 1.041530278160392 
10.001532303635692 1.0459008946791144 
11.001532303635692 1.0551591565911642 
12.001532303635692 1.064596936537088 
13.001532303635692 1.0745482967299256 
14.001532303635692 1.0808118718753188 
15.001532303635692 1.0921070165034181 
16.001532303635692 1.0989726144015917 
17.001532303635692 1.110792459315376 
18.001532303635692 1.123036774946434 
19.001532303635692 1.1239596476124885 
20.001532303635692 1.1309278696051424 
21.001532303635692 1.142727862590552 
22.001532303635692 1.1490100633863891 
23.001532303635692 1.1537582198245078 
24.001532303635692 1.1618523785838177 
25.001532303635692 1.166310767396184 
26.001532303635692 1.1684721112641567 
27.001532303635692 1.176115710131619 
28.001532303635692 1.1756071803897563 
29.001532303635692 1.1831106054229157 
30.001532303635692 1.1908721450617283 
31.001532303635692 1.1989029945923884 
32.00153230363569 1.2033986551117237 
33.00153230363569 1.222713408708295 
34.00153230363569 1.2258106271043776 
35.00153230363569 1.2464172233700646 
36.00153230363569 1.252694658070605 
37.00153230363569 1.258625845576982 
38.00153230363569 1.2822157885674932 
39.00153230363569 1.3031563501173347 
40.00153230363569 1.3321222432659938 
41.00153230363569 1.3528925619834706 
42.00153230363569 1.3682683061677374 
43.00153230363569 1.4047501192480363 
44.00153230363569 1.4449215870829508 
45.00153230363569 1.4657968804203654 
46.00153230363569 1.481485188373636 
47.00153230363569 1.5223323461891638 
48.00153230363569 1.5866083218549123 
49.00153230363569 1.6128411303693497 
50.00153230363569 1.6590681135853482 
51.00153230363569 1.7774767230384656 
52.00153230363569 1.7258577472961936 
53.00153230363569 1.9877817996888083 
54.00153230363569 2.0203590080093856 
55.00153230363569 2.109325795837161 
56.00153230363569 2.280320223701662 
57.00153230363569 2.254899765967758 
58.00153230363569 2.334078370191818 
59.00153230363569 2.5523000076522804 
60.00153230363569 2.5294116984236314 
61.00153230363569 2.638540470360167 
62.00153230363569 2.756532827645139 
63.00153230363569 2.798014650928477 
64.00153230363568 2.947874037088052 
65.00153230363568 3.1653647746403424 
66.00153230363568 3.097386272446688 
67.00153230363568 3.3967149551066216 
68.00153230363568 3.334407435465768 
69.00153230363568 3.4097961381491677 
70.00153230363568 3.6672960125242353 
71.00153230363568 3.6009995026017747 
72.00153230363568 3.567034215896337 
73.00153230363568 3.7366254093969995 
74.00153230363568 3.679981827109479 
75.00153230363568 3.7730919478879716 
76.00153230363568 3.8483140342822164 
77.00153230363568 3.7120112271706973 
78.00153230363568 3.9687092681869194 
79.00153230363568 3.8929904034027145 
80.00153230363568 3.861443188195082 
81.00153230363568 3.8679773530762174 
82.00153230363568 3.9767885853484337 
83.00153230363568 3.918920899653097 
84.00153230363568 3.7971003615702474 
85.00153230363568 3.853084637409448 
86.00153230363568 3.983613846801347 
87.00153230363568 4.086304791602897 
88.00153230363568 4.047626357642077 
89.00153230363568 3.944097840143863 
90.00153230363568 3.9741818092541576 
91.00153230363568 4.007780430568309 
92.00153230363568 4.090856076548311 
93.00153230363568 3.936485625828997 
94.00153230363568 4.238869609606163 
95.00153230363568 4.024847087669626 
96.00153230363568 4.1961108968472605 
97.00153230363568 4.311726017115601 
98.00153230363568 4.243454341393735 
99.00153230363568 4.149497041118253 
100.00153230363568 4.209660495102541 
101.00153230363568 4.220268440082645 
102.00153230363568 4.446050163886339 
103.00153230363568 4.420311185083154 
104.00153230363568 4.217795978088971 
105.00153230363568 4.497568235384144 
106.00153230363568 4.689928015636159 
107.00153230363568 4.350074968753188 
108.00153230363568 5.118752138174675 
109.00153230363568 5.258337423477194 
110.00153230363568 5.583877214697477 
111.00153230363568 5.956861797265585 
112.00153230363568 5.55736154792878 
113.00153230363568 5.638903039868378 
114.00153230363568 6.43528716903887 
115.00153230363568 6.405540147051321 
116.00153230363568 6.746424893505761 
117.00153230363568 6.562332014590345 
118.00153230363568 6.590808444929087 
119.00153230363568 7.110093343153757 
120.00153230363568 7.1729923305019865 
121.00153230363568 7.122922075553512 
122.00153230363568 8.024738742857865 
123.00153230363568 6.834005905009689 
124.00153230363568 7.493103036679926 
125.00153230363568 8.471701541296799 
126.00153230363568 7.735017185108658 
127.00153230363568 8.123164835220892 
128.00153230363568 8.075078616977857 
129.00153230363568 8.634962147357408 
130.00153230363568 9.514250249336797 
131.00153230363568 9.327743521706964 
132.00153230363568 8.413915659754103 
133.00153230363568 9.835215129195994 
134.00153230363568 8.780463229517391 
135.00153230363568 9.595243544663806 
136.00153230363568 8.214110301244768 
137.00153230363568 9.770630640368326 
138.00153230363568 9.51020551155494 
139.00153230363568 11.493844888914392 
140.00153230363568 10.900814849250075 
141.00153230363568 12.746610537190076 
142.00153230363568 12.218426906693194 
143.00153230363568 12.45935086917151 
144.00153230363568 13.099364534868881 
145.00153230363568 14.029569296500354 
146.00153230363568 13.677218214340366 
147.00153230363568 14.17701024321497 
148.00153230363568 13.708965426359551 
149.00153230363568 14.433839668783797 
150.00153230363568 14.837743219441888 
151.00153230363568 13.576966299357206 
152.00153230363568 15.895377782879292 
153.00153230363568 15.947342309458211 
154.00153230363568 15.402434870803996 
155.00153230363568 15.335275528007344 
156.00153230363568 16.913866765508622 
157.00153230363568 16.136704004693396 
158.00153230363568 16.985665333894495 
159.00153230363568 16.318923139858175 
160.00153230363568 17.483711907585956 
161.00153230363568 17.936089472375265 
162.00153230363568 18.247577893199672 
163.00153230363568 17.706981811804916 
164.00153230363568 18.77325818602693 
165.00153230363568 17.12067449813794 
166.00153230363568 19.3767924063871 
167.00153230363568 15.15257744872972 
168.00153230363568 17.380319987756344 
169.00153230363568 17.777009448653203 
170.00153230363568 17.042309095372914 
171.00153230363568 15.687751189929589 
172.00153230363568 15.730969880624427 
173.00153230363568 15.616318841189676 
174.00153230363568 16.766281267217625 
175.00153230363568 16.753804685108655 
176.00153230363568 15.25806728395062 
177.00153230363568 16.277184690337723 
178.00153230363568 14.590663015253542 
179.00153230363568 14.79831544676563 
180.00153230363568 12.550876981302924 
181.00153230363568 12.813678305147443 
182.00153230363568 11.483640301372303 
183.00153230363568 12.215842163427194 
184.00153230363568 10.313387445796346 
185.00153230363568 10.692422828665446 
186.00153230363568 10.007372067263544 
187.00153230363568 10.16338358330783 
188.00153230363568 10.123493555504517 
189.00153230363568 10.11635509004184 
190.00153230363568 9.954696046321803 
191.00153230363568 9.943722104887252 
192.00153230363568 9.279746932710948 
193.00153230363568 9.44600537445158 
194.00153230363568 7.955167582389556 
195.00153230363568 7.299514492143654 
196.00153230363568 7.633506396668699 
197.00153230363568 6.640105778747073 
198.00153230363568 6.478826801474336 
199.00153230363568 6.314448680619328 
200.00153230363568 6.149634439087849 
201.00153230363568 6.150453534078156 
202.00153230363568 6.150540705667789 
203.00153230363568 6.150384950515254 
204.00153230363568 6.150422842056933 
205.00153230363568 6.150400034435262 
206.00153230363568 6.150388619146006 
207.00153230363568 6.1504 
208.00153230363568 6.1504 
209.00153230363568 6.1504 
210.00153230363568 6.1504 
211.00153230363568 6.1504 
212.00153230363568 6.1504 
213.00153230363568 6.1504 
214.00153230363568 6.1504 
215.00153230363568 6.1504 
216.00153230363568 6.1504 
217.00153230363568 6.1504 
218.00153230363568 6.1504 
219.00153230363568 6.1504 
220.00153230363568 6.1504 
221.00153230363568 6.1504 
222.00153230363568 6.1504 
223.00153230363568 6.1504 
224.00153230363568 6.1504 
225.00153230363568 6.1504 
226.00153230363568 6.1504 
227.00153230363568 6.1504 
228.00153230363568 6.1504 
229.00153230363568 6.1504 
230.00153230363568 6.1504 
231.00153230363568 6.1504 
232.00153230363568 6.1504 
233.00153230363568 6.1504 
234.00153230363568 6.1504 
235.00153230363568 6.1504 
236.00153230363568 6.1504 
237.00153230363568 6.1504 
238.00153230363568 6.1504 
239.00153230363568 6.1504 
240.00153230363568 6.1504 
241.00153230363568 6.1504 
242.00153230363568 6.1504 
243.00153230363568 6.1504 
244.00153230363568 6.1504 
245.00153230363568 6.1504 
246.00153230363568 6.1504 
247.00153230363568 6.1504 
248.00153230363568 6.1504 
249.00153230363568 6.1504 
250.00153230363568 6.1504 
251.00153230363568 6.1504 
252.00153230363568 6.1504 
253.00153230363568 6.1504 
254.00153230363568 6.1504 
255.00153230363568 6.1504 
256.0015323036357 6.1504 
257.0015323036357 6.1504 
258.0015323036357 6.1504 
259.0015323036357 6.1504 
260.0015323036357 6.1504 
261.0015323036357 6.1504 
262.0015323036357 6.1504 
263.0015323036357 6.1504 
264.0015323036357 6.1504 
265.0015323036357 6.1504 
266.0015323036357 6.1504 
267.0015323036357 6.1504 
268.0015323036357 6.1504 
269.0015323036357 6.1504 
270.0015323036357 6.1504 
271.0015323036357 6.1504 
272.0015323036357 6.1504 
273.0015323036357 6.1504 
274.0015323036357 6.1504 
275.0015323036357 6.1504 
276.0015323036357 6.1504 
277.0015323036357 6.1504 
278.0015323036357 6.1504 
279.0015323036357 6.1504 
280.0015323036357 6.1504 
281.0015323036357 6.1504 
282.0015323036357 6.1504 
#####################################################################
# End of data export. Simulation finished at: 2017-05-26T14:43+0000 #
#####################################################################
