#####################################################################
# Alchemist log file - simulation started at: 2017-05-20T10:31+0000 #
#####################################################################
# random = 1.0, targets = 1.0, density = 0.1591589639397027, gridShift = 1.0, perturbation = 0.0, connfactor = 1.0
#
# The columns have the following meaning: 
# time se[Mean] 
0.0 NaN 
1.0048855897957667 NaN 
2.0048855897957667 1.0 
3.0048855897957667 1.025925925925926 
4.004885589795767 1.025925925925926 
5.004885589795767 1.0518518518518518 
6.004885589795767 1.1555555555555557 
7.004885589795767 1.1555555555555557 
8.004885589795766 1.1972222222222224 
9.004885589795766 1.1166666666666667 
10.004885589795766 0.9898148148148148 
11.004885589795766 0.9722222222222223 
12.004885589795766 1.0444444444444447 
13.004885589795766 1.9222222222222225 
14.004885589795766 3.0268518518518523 
15.004885589795766 3.477777777777778 
16.004885589795766 6.576851851851852 
17.004885589795766 3.0166666666666666 
18.004885589795766 3.3601851851851845 
19.004885589795766 1.9194444444444447 
20.004885589795766 0.04074074074074072 
21.004885589795766 0.014814814814814798 
22.004885589795766 4.930380657631324E-32 
23.004885589795766 4.930380657631324E-32 
24.004885589795766 4.930380657631324E-32 
25.004885589795766 4.930380657631324E-32 
26.004885589795766 4.930380657631324E-32 
27.004885589795766 4.930380657631324E-32 
28.004885589795766 4.930380657631324E-32 
#####################################################################
# End of data export. Simulation finished at: 2017-05-20T10:31+0000 #
#####################################################################
