#####################################################################
# Alchemist log file - simulation started at: 2017-05-25T16:01+0000 #
#####################################################################
# random = 8.0, targets = 31.622776601683793, density = 0.894427190999916, gridShift = 0.0, perturbation = 0.5, connfactor = 0.1
#
# The columns have the following meaning: 
# time se[Mean] 
0.0 NaN 
1.041605243232502 NaN 
2.0416052432325023 NaN 
3.0416052432325023 1.0 
4.041605243232502 1.0 
5.041605243232502 1.0 
6.041605243232502 1.0 
7.041605243232502 1.0 
8.041605243232503 0.999485573940468 
9.041605243232503 0.9969134436428082 
10.041605243232503 0.9938268872856164 
11.041605243232503 0.9891970527498287 
12.041605243232503 0.9830239400354451 
13.041605243232503 0.9794229576187214 
14.041605243232503 0.9742786970234018 
15.041605243232503 0.972220992785274 
16.041605243232503 0.9691344364280822 
17.041605243232503 0.9670767321899543 
18.041605243232503 0.9665623061304224 
19.041605243232503 0.9665623061304224 
20.041605243232503 0.9665623061304224 
21.041605243232503 0.9691344364280822 
22.041605243232503 0.9701632885471461 
23.041605243232503 0.9706777146066781 
24.041605243232503 0.971706566725742 
25.041605243232503 0.971706566725742 
26.041605243232503 0.9742786970234018 
27.041605243232503 0.9747931230829338 
28.041605243232503 0.9763364012615297 
29.041605243232503 0.9789085315591894 
30.041605243232503 0.9804518097377853 
31.041605243232503 0.9835383660949771 
32.0416052432325 0.9866249224521689 
33.0416052432325 0.9897114788093607 
34.0416052432325 0.9943413133451484 
35.0416052432325 0.9963990175832762 
36.0416052432325 0.9974278697023402 
37.0416052432325 0.9969299725684281 
38.0416052432325 0.9911970527498287 
39.0416052432325 0.9896868324224726 
40.0416052432325 0.976694243532298 
41.0416052432325 0.9684222512672785 
42.0416052432325 0.9641995517760354 
43.0416052432325 0.9690935551186572 
44.0416052432325 0.9363135475494051 
45.0416052432325 0.9384785428025204 
46.0416052432325 0.9347206825939497 
47.0416052432325 0.9407838869218625 
48.0416052432325 0.9022213727571516 
49.0416052432325 0.9080781125163581 
50.0416052432325 0.8934926586707281 
51.0416052432325 0.8796115665277165 
52.0416052432325 0.8842495185247726 
53.0416052432325 0.8921143757452474 
54.0416052432325 0.9009750272335465 
55.0416052432325 0.9165809217338889 
56.0416052432325 0.9274662196090762 
57.0416052432325 0.9373557232164392 
58.0416052432325 0.9367917103800477 
59.0416052432325 0.9367586525288081 
60.0416052432325 0.9377544467966323 
61.0416052432325 0.9377544467966323 
62.0416052432325 0.9377544467966323 
63.0416052432325 0.9377544467966323 
64.04160524323251 0.9377544467966323 
65.04160524323251 0.9377544467966323 
66.04160524323251 0.9377544467966323 
67.04160524323251 0.9377544467966323 
68.04160524323251 0.9377544467966323 
69.04160524323251 0.9377544467966323 
70.04160524323251 0.9377544467966323 
71.04160524323251 0.9377544467966323 
72.04160524323251 0.9377544467966323 
73.04160524323251 0.9377544467966323 
74.04160524323251 0.9377544467966323 
75.04160524323251 0.9377544467966323 
76.04160524323251 0.9377544467966323 
77.04160524323251 0.9377544467966323 
78.04160524323251 0.9377544467966323 
79.04160524323251 0.9377544467966323 
#####################################################################
# End of data export. Simulation finished at: 2017-05-25T16:01+0000 #
#####################################################################
