#####################################################################
# Alchemist log file - simulation started at: 2017-05-24T10:34+0000 #
#####################################################################
# random = 6.0, targets = 100.0, density = 2.519842099789746, gridShift = 0.0, perturbation = 0.5, connfactor = 1.5
#
# The columns have the following meaning: 
# time se[Mean] 
0.0 NaN 
1.001281360956031 NaN 
2.001281360956031 NaN 
3.001281360956031 1.0559764249327181 
4.001281360956031 1.087001475394079 
5.001281360956031 1.1424212298154555 
6.001281360956031 1.1840598591887734 
7.001281360956031 1.2638504253171856 
8.001281360956032 1.3399479046520568 
9.001281360956032 1.3855282799884658 
10.001281360956032 1.4716059976931948 
11.001281360956032 1.5300873197808538 
12.001281360956032 1.5548120626682045 
13.001281360956032 1.6106523068050749 
14.001281360956032 1.6293374255094193 
15.001281360956032 1.7085390210495965 
16.001281360956032 1.7451506800269125 
17.001281360956032 1.8270181180315264 
18.001281360956032 1.9872416450403692 
19.001281360956032 2.078215609381007 
20.001281360956032 2.338841796424452 
21.001281360956032 2.3988244689542486 
22.001281360956032 2.6794147995963096 
23.001281360956032 2.697149834198385 
24.001281360956032 2.87138371059208 
25.001281360956032 2.790797683583237 
26.001281360956032 2.8625466142829685 
27.001281360956032 2.8582592079969236 
28.001281360956032 2.7126526504229136 
29.001281360956032 2.8607874519415613 
30.001281360956032 2.720072969530949 
31.001281360956032 2.5667159289696277 
32.00128136095603 2.553462326989619 
33.00128136095603 2.586321746443675 
34.00128136095603 2.5787664023452526 
35.00128136095603 2.652417401960785 
36.00128136095603 2.591976907920031 
37.00128136095603 2.673676821414841 
38.00128136095603 2.629192425990004 
39.00128136095603 2.675357518742792 
40.00128136095603 2.696219485294118 
41.00128136095603 2.6817622549019613 
42.00128136095603 2.800218795655517 
43.00128136095603 2.8114300509419454 
44.00128136095603 2.8638828647635526 
45.00128136095603 3.171956543156479 
46.00128136095603 3.2557103902345252 
47.00128136095603 4.570038711072664 
48.00128136095603 5.214480291234143 
49.00128136095603 8.254348007977699 
50.00128136095603 10.73687351259131 
51.00128136095603 14.57947728517878 
52.00128136095603 18.595841517685507 
53.00128136095603 20.06276604190695 
54.00128136095603 23.40011572231836 
55.00128136095603 20.57327144848136 
56.00128136095603 25.28467632641292 
57.00128136095603 21.725264958189157 
58.00128136095603 23.583116438389087 
59.00128136095603 28.653010995770856 
60.00128136095603 26.303782232795083 
61.00128136095603 33.31275851114956 
62.00128136095603 32.82596331939639 
63.00128136095603 36.45978113465975 
64.00128136095603 36.92409356016916 
65.00128136095603 34.48155607218378 
66.00128136095603 37.04046141147636 
67.00128136095603 29.942972582660516 
68.00128136095603 34.16760320309497 
69.00128136095603 27.140545086024602 
70.00128136095603 25.355021318723566 
71.00128136095603 20.288052119377163 
72.00128136095603 20.741553734140716 
73.00128136095603 19.504276542675893 
74.00128136095603 16.6099975802576 
75.00128136095603 18.227983484717413 
76.00128136095603 14.873304445405614 
77.00128136095603 15.00231885092272 
78.00128136095603 12.998340816032298 
79.00128136095603 11.951417272202999 
80.00128136095603 10.489000281141868 
81.00128136095603 10.620398810553633 
82.00128136095603 10.883391457612458 
83.00128136095603 10.315350576701269 
84.00128136095603 10.451940989042676 
85.00128136095603 10.202993531334103 
86.00128136095603 9.964948973952325 
87.00128136095603 9.748176573913879 
88.00128136095603 9.75113918685121 
89.00128136095603 9.759001737312571 
90.00128136095603 9.744613026239907 
91.00128136095603 9.748824173394848 
92.00128136095603 9.74440175893887 
93.00128136095603 9.737530545943867 
94.00128136095603 9.731885231641677 
95.00128136095603 9.732656153883122 
96.00128136095603 9.733537158785083 
97.00128136095603 9.733501028450597 
98.00128136095603 9.733716887735486 
99.00128136095603 9.734040445982314 
100.00128136095603 9.733968512110728 
101.00128136095603 9.734112322183776 
102.00128136095603 9.734292128027683 
103.00128136095603 9.7344 
104.00128136095603 9.7344 
105.00128136095603 9.7344 
106.00128136095603 9.7344 
107.00128136095603 9.7344 
108.00128136095603 9.7344 
109.00128136095603 9.7344 
110.00128136095603 9.7344 
111.00128136095603 9.7344 
112.00128136095603 9.7344 
113.00128136095603 9.7344 
114.00128136095603 9.7344 
115.00128136095603 9.7344 
116.00128136095603 9.7344 
117.00128136095603 9.7344 
118.00128136095603 9.7344 
119.00128136095603 9.7344 
120.00128136095603 9.7344 
121.00128136095603 9.7344 
122.00128136095603 9.7344 
123.00128136095603 9.7344 
124.00128136095603 9.7344 
125.00128136095603 9.7344 
126.00128136095603 9.7344 
127.00128136095603 9.7344 
128.00128136095603 9.7344 
129.00128136095603 9.7344 
130.00128136095603 9.7344 
131.00128136095603 9.7344 
132.00128136095603 9.7344 
133.00128136095603 9.7344 
134.00128136095603 9.7344 
135.00128136095603 9.7344 
136.00128136095603 9.7344 
137.00128136095603 9.7344 
138.00128136095603 9.7344 
139.00128136095603 9.7344 
140.00128136095603 9.7344 
#####################################################################
# End of data export. Simulation finished at: 2017-05-24T10:41+0000 #
#####################################################################
