#####################################################################
# Alchemist log file - simulation started at: 2017-05-25T23:06+0000 #
#####################################################################
# random = 19.0, targets = 10.0, density = 0.05649405772326896, gridShift = 0.0, perturbation = 0.5, connfactor = 2.0
#
# The columns have the following meaning: 
# time se[Mean] 
0.0 NaN 
1.029399693434633 NaN 
2.029399693434633 1.32625 
3.029399693434633 1.6212499999999999 
4.029399693434633 3.453025173611111 
5.029399693434633 10.053945312499998 
6.029399693434633 8.55328125 
7.029399693434633 15.368732638888886 
8.029399693434634 17.104813368055552 
9.029399693434634 14.20766927083333 
10.029399693434634 13.082005208333332 
11.029399693434634 8.990325520833332 
12.029399693434634 6.486848958333333 
13.029399693434634 10.892278645833333 
14.029399693434634 11.2611328125 
15.029399693434634 11.959835069444445 
16.029399693434634 12.251514756944443 
17.029399693434634 20.588563368055553 
18.029399693434634 21.036276041666664 
19.029399693434634 24.819470486111108 
20.029399693434634 15.887109374999998 
21.029399693434634 7.0654817708333315 
22.029399693434634 7.112734374999998 
23.029399693434634 7.284383680555553 
24.029399693434634 7.289999999999997 
25.029399693434634 7.289999999999997 
26.029399693434634 7.289999999999997 
27.029399693434634 7.289999999999997 
28.029399693434634 7.289999999999997 
#####################################################################
# End of data export. Simulation finished at: 2017-05-25T23:06+0000 #
#####################################################################
