#####################################################################
# Alchemist log file - simulation started at: 2017-05-24T12:30+0000 #
#####################################################################
# random = 14.0, targets = 100.0, density = 14.160781367816199, gridShift = 1.0, perturbation = 0.5, connfactor = 0.5
#
# The columns have the following meaning: 
# time se[Mean] 
0.0 NaN 
1.0015837731381736 NaN 
2.0015837731381736 NaN 
3.0015837731381736 0.9998553350970018 
4.001583773138174 0.9991089965461494 
5.001583773138174 0.9976940733392122 
6.001583773138174 0.995885486478542 
7.001583773138174 0.9921706294091711 
8.001583773138174 0.9912863609641388 
9.001583773138174 0.9891928185626102 
10.001583773138174 0.9877174695032334 
11.001583773138174 0.9868365244708994 
12.001583773138174 0.9847980562904174 
13.001583773138174 0.9826940678277484 
14.001583773138174 0.9805585170487948 
15.001583773138174 0.9784549603174603 
16.001583773138172 0.9751256044238683 
17.001583773138172 0.9718826113315696 
18.001583773138172 0.9697431253674309 
19.001583773138172 0.9658071024397413 
20.001583773138172 0.9633574368018812 
21.001583773138172 0.9605495554085832 
22.001583773138172 0.9574604460611404 
23.001583773138172 0.9545497299382716 
24.001583773138172 0.9509829089506172 
25.001583773138172 0.9485086052322164 
26.001583773138172 0.945669446281599 
27.001583773138172 0.9417636390358612 
28.001583773138172 0.9351451517489712 
29.001583773138172 0.9303246252204586 
30.001583773138172 0.9251560093327454 
31.001583773138172 0.9174165049970605 
32.00158377313817 0.9090276987801293 
33.00158377313817 0.9002032499265138 
34.00158377313817 0.8882740005878894 
35.00158377313817 0.8799494304820694 
36.00158377313817 0.87030949441505 
37.00158377313817 0.8580175466637273 
38.00158377313817 0.848330443489124 
39.00158377313817 0.8423713201793063 
40.00158377313817 0.8302405276308055 
41.00158377313817 0.8249288194444444 
42.00158377313817 0.8187528586125808 
43.00158377313817 0.8073832543356849 
44.00158377313817 0.8012204218106995 
45.00158377313817 0.7947879941945915 
46.00158377313817 0.7942605948706644 
47.00158377313817 0.7858737415490888 
48.00158377313817 0.7834737158289242 
49.00158377313817 0.7843884277630806 
50.00158377313817 0.7837263576572605 
51.00158377313817 0.7771496582892417 
52.00158377313817 0.7791421865814226 
53.00158377313817 0.778350181878307 
54.00158377313817 0.773280042989418 
55.00158377313817 0.7795890726043504 
56.00158377313817 0.7691341012639622 
57.00158377313817 0.7635886923133453 
58.00158377313817 0.7630113940329216 
59.00158377313817 0.7527010306437387 
60.00158377313817 0.7559326609347441 
61.00158377313817 0.7461078023956501 
62.00158377313817 0.7399941651969426 
63.00158377313817 0.728622446355085 
64.00158377313818 0.7252347001763672 
65.00158377313818 0.710064214065256 
66.00158377313818 0.7066739454732506 
67.00158377313818 0.6980538727219285 
68.00158377313818 0.6861220752498534 
69.00158377313818 0.6820216141240446 
70.00158377313818 0.669872966269841 
71.00158377313818 0.6590167695473256 
72.00158377313818 0.6592578905790708 
73.00158377313818 0.6466108098177552 
74.00158377313818 0.6354250679747198 
75.00158377313818 0.6328969833921226 
76.00158377313818 0.6184941835684887 
77.00158377313818 0.6155614693562618 
78.00158377313818 0.6107342813051142 
79.00158377313818 0.6023115740740747 
80.00158377313818 0.5987188914609043 
81.00158377313818 0.596104657186949 
82.00158377313818 0.5944834950029394 
83.00158377313818 0.5956474794238686 
84.00158377313818 0.5938896715167543 
85.00158377313818 0.5878764972810114 
86.00158377313818 0.587554613095238 
87.00158377313818 0.5834360137419163 
88.00158377313818 0.5763122097295702 
89.00158377313818 0.5766439116696068 
90.00158377313818 0.5645503417107589 
91.00158377313818 0.5651063988095235 
92.00158377313818 0.5603595256466791 
93.00158377313818 0.5505798243680192 
94.00158377313818 0.5487672508818339 
95.00158377313818 0.5422393095972957 
96.00158377313818 0.5365419808201057 
97.00158377313818 0.5319488021751909 
98.00158377313818 0.5269774544385657 
99.00158377313818 0.5236592408877132 
100.00158377313818 0.5213131062610223 
101.00158377313818 0.513695724941211 
102.00158377313818 0.5126883781599055 
103.00158377313818 0.5110268812463254 
104.00158377313818 0.5060844686948852 
105.00158377313818 0.503974717078189 
106.00158377313818 0.5048702362580834 
107.00158377313818 0.5027142269253378 
108.00158377313818 0.49844943599353314 
109.00158377313818 0.49625823228982946 
110.00158377313818 0.49241058201058197 
111.00158377313818 0.49052415123456794 
112.00158377313818 0.48395378637566117 
113.00158377313818 0.4802124375367429 
114.00158377313818 0.4781707396384481 
115.00158377313818 0.47553528806584366 
116.00158377313818 0.46933887602880636 
117.00158377313818 0.46595249669312155 
118.00158377313818 0.4635592463991769 
119.00158377313818 0.45745458186360966 
120.00158377313818 0.4505971064814816 
121.00158377313818 0.4460130989124044 
122.00158377313818 0.44068680371840113 
123.00158377313818 0.43764089689888314 
124.00158377313818 0.4323623695620225 
125.00158377313818 0.42708235229276886 
126.00158377313818 0.4198700892857142 
127.00158377313818 0.41005512382422105 
128.00158377313818 0.40106772670487956 
129.00158377313818 0.4095108190035272 
130.00158377313818 0.41024094282774853 
131.00158377313818 0.4810692258230452 
132.00158377313818 0.5509705026455023 
133.00158377313818 0.5169881430041153 
134.00158377313818 0.617404159318047 
135.00158377313818 0.7579261776161069 
136.00158377313818 0.7729129721487352 
137.00158377313818 0.8311699478248067 
138.00158377313818 0.9338058035714266 
139.00158377313818 0.962321123603759 
140.00158377313818 1.0687608171663707 
141.00158377313818 1.716505371840091 
142.00158377313818 2.2695877737360317 
143.00158377313818 2.2323971487360326 
144.00158377313818 2.720090816064083 
145.00158377313818 3.7477485780423145 
146.00158377313818 3.905252331349211 
147.00158377313818 4.28591003453852 
148.00158377313818 4.88805252241328 
149.00158377313818 4.666206536596128 
150.00158377313818 4.9448366163286535 
151.00158377313818 5.924117050631999 
152.00158377313818 6.395992825911223 
153.00158377313818 7.0646013907260325 
154.00158377313818 6.303039300411524 
155.00158377313818 6.734995434670794 
156.00158377313818 6.636144887198709 
157.00158377313818 6.508560828189298 
158.00158377313818 6.114603249926506 
159.00158377313818 6.460349875073481 
160.00158377313818 6.673661318709574 
161.00158377313818 5.393225681584357 
162.00158377313818 6.1929918742651475 
163.00158377313818 6.0758687114197585 
164.00158377313818 6.262589056069959 
165.00158377313818 7.096439429012341 
166.00158377313818 6.211767203115814 
167.00158377313818 6.13633913506762 
168.00158377313818 6.829176379703126 
169.00158377313818 6.411370217886537 
170.00158377313818 6.127029963991764 
171.00158377313818 6.397877333186363 
172.00158377313818 6.702223954659023 
173.00158377313818 6.540830559229873 
174.00158377313818 6.256873572530875 
175.00158377313818 6.266833103689008 
176.00158377313818 7.261210065770144 
177.00158377313818 7.218402450764259 
178.00158377313818 6.330849623383306 
179.00158377313818 6.351900699955917 
180.00158377313818 6.22910217702824 
181.00158377313818 4.8500585170487875 
182.00158377313818 5.010966222075265 
183.00158377313818 5.798727044753063 
184.00158377313818 5.849086291152239 
185.00158377313818 5.1093001359494385 
186.00158377313818 4.568436711860702 
187.00158377313818 4.797242853468556 
188.00158377313818 3.7625629409171157 
189.00158377313818 2.346227294606098 
190.00158377313818 1.6706447016461108 
191.00158377313818 1.8466147854203647 
192.00158377313818 1.8305235982510257 
193.00158377313818 1.6332562022339656 
194.00158377313818 1.5398457524985318 
195.00158377313818 1.0075708498677154 
196.00158377313818 0.49165149360669813 
197.00158377313818 0.17373927652851118 
198.00158377313818 0.0417481077307466 
199.00158377313818 0.041874281672545574 
200.00158377313818 0.042121441431510837 
201.00158377313818 0.04226331937095824 
202.00158377313818 0.04244506356554965 
203.00158377313818 0.042411765138153985 
204.00158377313818 0.04290379923574366 
205.00158377313818 0.04297251984126986 
206.00158377313818 0.04306233098177541 
207.00158377313818 0.04306382642563198 
208.00158377313818 0.04336204071134626 
209.00158377313818 0.04351980636390358 
210.00158377313818 0.04349179343033508 
211.00158377313818 0.04372571649029982 
212.00158377313818 0.043812275867136985 
213.00158377313818 0.043885414829512054 
214.00158377313818 0.043929541446208115 
215.00158377313818 0.04399743165784832 
216.00158377313818 0.04403484714873604 
217.00158377313818 0.044052380952380954 
218.00158377313818 0.04407883597883598 
219.00158377313818 0.04408941798941799 
220.00158377313818 0.0441 
221.00158377313818 0.0441 
222.00158377313818 0.0441 
223.00158377313818 0.0441 
224.00158377313818 0.0441 
225.00158377313818 0.0441 
226.00158377313818 0.0441 
227.00158377313818 0.0441 
228.00158377313818 0.0441 
229.00158377313818 0.0441 
230.00158377313818 0.0441 
231.00158377313818 0.0441 
232.00158377313818 0.0441 
233.00158377313818 0.0441 
234.00158377313818 0.0441 
235.00158377313818 0.0441 
236.00158377313818 0.0441 
237.00158377313818 0.0441 
238.00158377313818 0.0441 
239.00158377313818 0.0441 
240.00158377313818 0.0441 
241.00158377313818 0.0441 
242.00158377313818 0.0441 
243.00158377313818 0.0441 
244.00158377313818 0.0441 
245.00158377313818 0.0441 
246.00158377313818 0.0441 
247.00158377313818 0.0441 
248.00158377313818 0.0441 
249.00158377313818 0.0441 
250.00158377313818 0.0441 
251.00158377313818 0.0441 
252.00158377313818 0.0441 
253.00158377313818 0.0441 
254.00158377313818 0.0441 
255.00158377313818 0.0441 
256.0015837731382 0.0441 
257.0015837731382 0.0441 
258.0015837731382 0.0441 
259.0015837731382 0.0441 
260.0015837731382 0.0441 
261.0015837731382 0.0441 
262.0015837731382 0.0441 
263.0015837731382 0.0441 
264.0015837731382 0.0441 
265.0015837731382 0.0441 
266.0015837731382 0.0441 
267.0015837731382 0.0441 
268.0015837731382 0.0441 
269.0015837731382 0.0441 
270.0015837731382 0.0441 
271.0015837731382 0.0441 
272.0015837731382 0.0441 
273.0015837731382 0.0441 
274.0015837731382 0.0441 
275.0015837731382 0.0441 
276.0015837731382 0.0441 
277.0015837731382 0.0441 
278.0015837731382 0.0441 
279.0015837731382 0.0441 
280.0015837731382 0.0441 
281.0015837731382 0.0441 
282.0015837731382 0.0441 
283.0015837731382 0.0441 
284.0015837731382 0.0441 
285.0015837731382 0.0441 
286.0015837731382 0.0441 
287.0015837731382 0.0441 
288.0015837731382 0.0441 
289.0015837731382 0.0441 
290.0015837731382 0.0441 
291.0015837731382 0.0441 
292.0015837731382 0.0441 
293.0015837731382 0.0441 
294.0015837731382 0.0441 
295.0015837731382 0.0441 
296.0015837731382 0.0441 
297.0015837731382 0.0441 
298.0015837731382 0.0441 
299.0015837731382 0.0441 
300.0015837731382 0.0441 
301.0015837731382 0.0441 
302.0015837731382 0.0441 
303.0015837731382 0.0441 
#####################################################################
# End of data export. Simulation finished at: 2017-05-24T12:34+0000 #
#####################################################################
