#####################################################################
# Alchemist log file - simulation started at: 2017-05-22T17:32+0000 #
#####################################################################
# random = 4.0, targets = 10.0, density = 0.4483936332993466, gridShift = 0.0, perturbation = 0.5, connfactor = 0.5
#
# The columns have the following meaning: 
# time se[Mean] 
0.0 NaN 
1.0048193674555734 NaN 
2.0048193674555734 1.0 
3.0048193674555734 1.0 
4.004819367455573 0.9901953125 
5.004819367455573 0.9676171875 
6.004819367455573 0.9587109375 
7.004819367455573 0.880078125 
8.004819367455573 0.8968359375 
9.004819367455573 0.8246875 
10.004819367455573 0.7671875 
11.004819367455573 0.7217491319444445 
12.004819367455573 0.6129036458333335 
13.004819367455573 0.5752387152777778 
14.004819367455573 0.49947482638888885 
15.004819367455573 0.4662065972222222 
16.004819367455575 0.411640625 
17.004819367455575 0.3335416666666667 
18.004819367455575 0.2961111111111111 
19.004819367455575 0.22658420138888888 
20.004819367455575 0.23516493055555557 
21.004819367455575 0.1924956597222222 
22.004819367455575 0.15923177083333334 
23.004819367455575 0.1503949652777778 
24.004819367455575 0.1571918402777778 
25.004819367455575 0.16628472222222224 
26.004819367455575 0.18009548611111112 
27.004819367455575 0.17039062500000002 
28.004819367455575 0.172890625 
29.004819367455575 0.1714453125 
30.004819367455575 0.15308593750000002 
31.004819367455575 0.1622265625 
32.004819367455575 0.1460546875 
33.004819367455575 0.143125 
34.004819367455575 0.14933593750000002 
35.004819367455575 0.14933593750000002 
36.004819367455575 0.156953125 
37.004819367455575 0.1584765625 
38.004819367455575 0.16 
39.004819367455575 0.16 
40.004819367455575 0.16 
41.004819367455575 0.16 
42.004819367455575 0.16 
43.004819367455575 0.16 
44.004819367455575 0.16 
45.004819367455575 0.16 
46.004819367455575 0.16 
47.004819367455575 0.16 
48.004819367455575 0.16 
49.004819367455575 0.16 
50.004819367455575 0.16 
51.004819367455575 0.16 
#####################################################################
# End of data export. Simulation finished at: 2017-05-22T17:32+0000 #
#####################################################################
