#####################################################################
# Alchemist log file - simulation started at: 2017-05-22T14:33+0000 #
#####################################################################
# random = 4.0, targets = 1.0, density = 20.0, gridShift = 1.0, perturbation = 0.0, connfactor = 1.0
#
# The columns have the following meaning: 
# time se[Mean] 
0.0 NaN 
1.000075526147678 NaN 
2.000075526147678 1.003559563360228 
3.000075526147678 1.0071191267204553 
4.000075526147678 1.0126034910088062 
5.000075526147678 1.0130121816168325 
6.000075526147678 1.0053525286083425 
7.000075526147678 1.0176132468491275 
8.000075526147679 1.0109291778726999 
9.000075526147679 1.0222406792174232 
10.000075526147679 1.0225570848494436 
11.000075526147679 1.0239018087855298 
12.000075526147679 1.0156093445129992 
13.000075526147679 1.0015556610240997 
14.000075526147679 0.989795918367347 
15.000075526147679 0.9842192691029902 
16.00007552614768 0.9793808996466804 
17.00007552614768 0.9732373569582877 
18.00007552614768 0.9714839424141751 
19.00007552614768 0.9671597321098976 
20.00007552614768 0.9662500659178392 
21.00007552614768 0.964193429309708 
22.00007552614768 0.9637715551336808 
23.00007552614768 0.9620181405895682 
24.00007552614768 0.9642461635817112 
25.00007552614768 0.9680166640299523 
26.00007552614768 0.969756895006064 
27.00007552614768 0.9731055212782791 
28.00007552614768 0.9748193851183888 
29.00007552614768 0.9790381268786592 
30.00007552614768 0.9823472024468696 
31.00007552614768 0.995372567631704 
32.00007552614768 1.013341770816854 
33.00007552614768 1.0193139271212361 
34.00007552614768 1.041646891314665 
35.00007552614768 1.048766018035119 
36.00007552614768 1.026195749617676 
37.00007552614768 1.0393661340505198 
38.00007552614768 1.0534725518114212 
39.00007552614768 1.016861783473079 
40.00007552614768 1.0373622317143922 
41.00007552614768 1.0153061224489799 
42.00007552614768 1.0245214364815682 
43.00007552614768 1.0201181247692879 
44.00007552614768 1.0143305384169168 
45.00007552614768 1.034896904498234 
46.00007552614768 1.0148051468649473 
47.00007552614768 1.0097822074566263 
48.00007552614768 1.027448188577756 
49.00007552614768 1.0049306544323158 
50.00007552614768 1.0091625797605868 
51.00007552614768 1.0107709750566893 
52.00007552614768 0.9688604123820059 
53.00007552614768 0.9943574328956384 
54.00007552614768 0.9731055212782795 
55.00007552614768 0.9524468702209572 
56.00007552614768 0.9568501819332395 
57.00007552614768 0.9209249591309372 
58.00007552614768 0.9281100036913975 
59.00007552614768 0.9206085534989183 
60.00007552614768 0.9045246005378911 
61.00007552614768 0.8963771555133694 
62.00007552614768 0.8592258608869866 
63.00007552614768 0.8327137056372884 
64.00007552614768 0.830156093445124 
65.00007552614768 0.8158123714602158 
66.00007552614768 0.7776723092337727 
67.00007552614768 0.7665849285450609 
68.00007552614768 0.7478510784158607 
69.00007552614768 0.7282339292306038 
70.00007552614768 0.7033565364130164 
71.00007552614768 0.6972393608606244 
72.00007552614768 0.6823814797236702 
73.00007552614768 0.6646759478985351 
74.00007552614768 0.646772662553386 
75.00007552614768 0.6355798133206871 
76.00007552614768 0.6278015082001885 
77.00007552614768 0.612284448663193 
78.00007552614768 0.5995754891103796 
79.00007552614768 0.5931550914939677 
80.00007552614768 0.5806438854611655 
81.00007552614768 0.5697015240204639 
82.00007552614768 0.5613299583399336 
83.00007552614768 0.5497679692031917 
84.00007552614768 0.5430443495227603 
85.00007552614768 0.5321019880820593 
86.00007552614768 0.5232953646574939 
87.00007552614768 0.5194721299372488 
88.00007552614768 0.505958972736381 
89.00007552614768 0.5028740178241832 
90.00007552614768 0.4956757896957213 
91.00007552614768 0.4882798080472477 
92.00007552614768 0.4788271897906412 
93.00007552614768 0.4729473184622637 
94.00007552614768 0.46614459737382846 
95.00007552614768 0.45467489321309196 
96.00007552614768 0.44828086273268175 
97.00007552614768 0.4384327374360494 
98.00007552614768 0.4307203501555611 
99.00007552614768 0.42110952908294447 
100.00007552614768 0.4138058324104756 
101.00007552614768 0.4058825080419686 
102.00007552614768 0.39893476770552255 
103.00007552614768 0.39197384380107564 
104.00007552614768 0.3836813795285437 
105.00007552614768 0.37705004482411797 
106.00007552614768 0.3729499551758818 
107.00007552614768 0.36550123925540345 
108.00007552614768 0.3570110214628585 
109.00007552614768 0.35147392290250307 
110.00007552614768 0.34303643938196293 
111.00007552614768 0.3331223962453262 
112.00007552614768 0.3271634235089439 
113.00007552614768 0.31830406581237486 
114.00007552614768 0.30817908558773266 
115.00007552614768 0.2987396508991265 
116.00007552614768 0.29109318145863594 
117.00007552614768 0.2797025787059066 
118.00007552614768 0.26699361915309056 
119.00007552614768 0.25781785582450206 
120.00007552614768 0.24885302958392633 
121.00007552614768 0.23946632916732366 
122.00007552614768 0.2270210409745251 
123.00007552614768 0.21526129831777263 
124.00007552614768 0.20724568897325818 
125.00007552614768 0.19374571534039237 
126.00007552614768 0.18161683277962537 
127.00007552614768 0.17112271265095358 
128.00007552614767 0.1601012498022477 
129.00007552614767 0.14834150714549768 
130.00007552614767 0.13869113536887887 
131.00007552614767 0.12360913357591065 
132.00007552614767 0.11411696461530146 
133.00007552614767 0.0999314454463922 
134.00007552614767 0.0904392764857882 
135.00007552614767 0.07662289722090437 
136.00007552614767 0.06570690291620591 
137.00007552614767 0.05289247481938378 
138.00007552614767 0.042029214786689535 
139.00007552614767 0.031956968834045404 
140.00007552614767 0.021937457153403835 
141.00007552614767 0.01017771449665125 
142.00007552614767 0.0030058535041922432 
143.00007552614767 5.273427200337572E-4 
144.00007552614767 1.0546854400675008E-4 
145.00007552614767 5.27342720033744E-5 
146.00007552614767 5.27342720033744E-5 
147.00007552614767 1.0546854400674903E-4 
148.00007552614767 4.930380657631324E-32 
149.00007552614767 5.27342720033744E-5 
150.00007552614767 4.930380657631324E-32 
151.00007552614767 5.27342720033744E-5 
152.00007552614767 5.27342720033744E-5 
153.00007552614767 4.930380657631324E-32 
154.00007552614767 5.27342720033744E-5 
155.00007552614767 4.930380657631324E-32 
156.00007552614767 5.27342720033744E-5 
157.00007552614767 5.27342720033744E-5 
158.00007552614767 4.930380657631324E-32 
159.00007552614767 5.2734272003374326E-5 
160.00007552614767 5.2734272003374265E-5 
161.00007552614767 5.273427200337419E-5 
162.00007552614767 4.930380657631324E-32 
163.00007552614767 5.2734272003374116E-5 
164.00007552614767 5.273427200337405E-5 
165.00007552614767 5.273427200337398E-5 
166.00007552614767 5.273427200337391E-5 
167.00007552614767 4.930380657631324E-32 
168.00007552614767 5.273427200337387E-5 
169.00007552614767 5.273427200337384E-5 
170.00007552614767 4.930380657631324E-32 
171.00007552614767 5.273427200337381E-5 
172.00007552614767 4.930380657631324E-32 
173.00007552614767 5.273427200337377E-5 
174.00007552614767 5.273427200337374E-5 
175.00007552614767 5.2734272003373696E-5 
176.00007552614767 4.930380657631324E-32 
177.00007552614767 4.930380657631324E-32 
178.00007552614767 4.930380657631324E-32 
179.00007552614767 4.930380657631324E-32 
180.00007552614767 4.930380657631324E-32 
181.00007552614767 4.930380657631324E-32 
182.00007552614767 4.930380657631324E-32 
183.00007552614767 4.930380657631324E-32 
184.00007552614767 4.930380657631324E-32 
185.00007552614767 4.930380657631324E-32 
186.00007552614767 4.930380657631324E-32 
187.00007552614767 4.930380657631324E-32 
188.00007552614767 4.930380657631324E-32 
189.00007552614767 4.930380657631324E-32 
190.00007552614767 4.930380657631324E-32 
191.00007552614767 4.930380657631324E-32 
192.00007552614767 4.930380657631324E-32 
193.00007552614767 4.930380657631324E-32 
194.00007552614767 4.930380657631324E-32 
195.00007552614767 4.930380657631324E-32 
196.00007552614767 4.930380657631324E-32 
197.00007552614767 4.930380657631324E-32 
198.00007552614767 4.930380657631324E-32 
199.00007552614767 4.930380657631324E-32 
200.00007552614767 4.930380657631324E-32 
201.00007552614767 4.930380657631324E-32 
202.00007552614767 4.930380657631324E-32 
203.00007552614767 4.930380657631324E-32 
204.00007552614767 4.930380657631324E-32 
205.00007552614767 4.930380657631324E-32 
206.00007552614767 4.930380657631324E-32 
207.00007552614767 4.930380657631324E-32 
208.00007552614767 4.930380657631324E-32 
209.00007552614767 4.930380657631324E-32 
210.00007552614767 4.930380657631324E-32 
211.00007552614767 4.930380657631324E-32 
212.00007552614767 4.930380657631324E-32 
213.00007552614767 4.930380657631324E-32 
214.00007552614767 4.930380657631324E-32 
215.00007552614767 4.930380657631324E-32 
216.00007552614767 4.930380657631324E-32 
217.00007552614767 4.930380657631324E-32 
218.00007552614767 4.930380657631324E-32 
219.00007552614767 4.930380657631324E-32 
220.00007552614767 4.930380657631324E-32 
221.00007552614767 4.930380657631324E-32 
222.00007552614767 4.930380657631324E-32 
223.00007552614767 4.930380657631324E-32 
224.00007552614767 4.930380657631324E-32 
225.00007552614767 4.930380657631324E-32 
226.00007552614767 4.930380657631324E-32 
227.00007552614767 4.930380657631324E-32 
228.00007552614767 4.930380657631324E-32 
229.00007552614767 4.930380657631324E-32 
230.00007552614767 4.930380657631324E-32 
231.00007552614767 4.930380657631324E-32 
232.00007552614767 4.930380657631324E-32 
233.00007552614767 4.930380657631324E-32 
234.00007552614767 4.930380657631324E-32 
235.00007552614767 4.930380657631324E-32 
236.00007552614767 4.930380657631324E-32 
237.00007552614767 4.930380657631324E-32 
238.00007552614767 4.930380657631324E-32 
239.00007552614767 4.930380657631324E-32 
240.00007552614767 4.930380657631324E-32 
241.00007552614767 4.930380657631324E-32 
242.00007552614767 4.930380657631324E-32 
243.00007552614767 4.930380657631324E-32 
244.00007552614767 4.930380657631324E-32 
245.00007552614767 4.930380657631324E-32 
246.00007552614767 4.930380657631324E-32 
247.00007552614767 4.930380657631324E-32 
248.00007552614767 4.930380657631324E-32 
249.00007552614767 4.930380657631324E-32 
250.00007552614767 4.930380657631324E-32 
251.00007552614767 4.930380657631324E-32 
252.00007552614767 4.930380657631324E-32 
253.00007552614767 4.930380657631324E-32 
254.00007552614767 4.930380657631324E-32 
255.00007552614767 4.930380657631324E-32 
256.00007552614767 4.930380657631324E-32 
257.00007552614767 4.930380657631324E-32 
258.00007552614767 4.930380657631324E-32 
259.00007552614767 4.930380657631324E-32 
260.00007552614767 4.930380657631324E-32 
261.00007552614767 4.930380657631324E-32 
262.00007552614767 4.930380657631324E-32 
263.00007552614767 4.930380657631324E-32 
264.00007552614767 4.930380657631324E-32 
265.00007552614767 4.930380657631324E-32 
266.00007552614767 4.930380657631324E-32 
267.00007552614767 4.930380657631324E-32 
268.00007552614767 4.930380657631324E-32 
269.00007552614767 4.930380657631324E-32 
270.00007552614767 4.930380657631324E-32 
271.00007552614767 4.930380657631324E-32 
272.00007552614767 4.930380657631324E-32 
273.00007552614767 4.930380657631324E-32 
274.00007552614767 4.930380657631324E-32 
275.00007552614767 4.930380657631324E-32 
276.00007552614767 4.930380657631324E-32 
277.00007552614767 4.930380657631324E-32 
#####################################################################
# End of data export. Simulation finished at: 2017-05-22T14:52+0000 #
#####################################################################
