#####################################################################
# Alchemist log file - simulation started at: 2017-05-23T22:32+0000 #
#####################################################################
# random = 13.0, targets = 1.0, density = 20.0, gridShift = 0.0, perturbation = 0.0, connfactor = 1.5
#
# The columns have the following meaning: 
# time se[Mean] 
0.0 NaN 
1.0002602723432414 NaN 
2.000260272343241 1.0148865784499057 
3.000260272343241 1.0279648445704679 
4.000260272343241 1.0513678848981318 
5.000260272343241 1.0556671392564592 
6.000260272343241 1.0653224112581403 
7.000260272343241 1.072549096828398 
8.00026027234324 1.0858013022474258 
9.00026027234324 1.0616696859903376 
10.00026027234324 1.0697135580760355 
11.00026027234324 1.0482632325141767 
12.00026027234324 1.0375380697332488 
13.00026027234324 1.0107251627809282 
14.00026027234324 1.0241316162570884 
15.00026027234324 1.0 
16.00026027234324 1.0080438720856963 
17.00026027234324 1.0 
18.00026027234324 1.002681290695232 
19.00026027234324 1.0 
20.00026027234324 1.0 
21.00026027234324 1.0 
22.00026027234324 1.0 
23.00026027234324 1.0 
24.00026027234324 1.0 
25.00026027234324 1.0 
26.00026027234324 1.0 
27.00026027234324 1.0 
28.00026027234324 1.0 
29.00026027234324 1.0 
30.00026027234324 1.0 
31.00026027234324 1.0 
32.00026027234324 1.0 
33.00026027234324 1.0 
34.00026027234324 1.0 
35.00026027234324 1.0 
36.00026027234324 1.0 
37.00026027234324 1.0 
38.00026027234324 1.0 
39.00026027234324 1.0 
40.00026027234324 1.0 
41.00026027234324 1.0 
42.00026027234324 1.0 
43.00026027234324 1.0 
44.00026027234324 1.0 
45.00026027234324 1.0 
46.00026027234324 1.0 
47.00026027234324 1.0 
48.00026027234324 1.0 
49.00026027234324 0.9997932419659735 
50.00026027234324 0.9987594517958411 
51.00026027234324 0.9986117674858223 
52.00026027234324 0.9958057655954631 
53.00026027234324 0.9957466918714555 
54.00026027234324 0.9927339319470698 
55.00026027234324 0.9913456994328923 
56.00026027234324 0.9917592155009451 
57.00026027234324 0.9889236767485823 
58.00026027234324 0.9915360480991389 
59.00026027234324 0.9895931789540013 
60.00026027234324 0.9919725372820837 
61.00026027234324 0.9916837324091577 
62.00026027234324 0.9923171340054612 
63.00026027234324 0.9916673230413778 
64.00026027234324 0.9932754410838059 
65.00026027234324 0.9916902961562697 
66.00026027234324 0.99058102289435 
67.00026027234324 0.990177352446965 
68.00026027234324 0.9851823408947701 
69.00026027234324 0.9867313852131904 
70.00026027234324 0.9829769218651543 
71.00026027234324 0.9846670867464817 
72.00026027234324 0.9822089634530563 
73.00026027234324 0.9802759399285861 
74.00026027234324 0.9827110901071207 
75.00026027234324 0.9777882797731569 
76.00026027234324 0.9791371298046629 
77.00026027234324 0.9808076034446546 
78.00026027234324 0.9843060806553244 
79.00026027234324 0.9814213137996222 
80.00026027234324 0.9833412098298676 
81.00026027234324 0.9835906322201219 
82.00026027234324 0.9856221119512707 
83.00026027234324 0.984250288804873 
84.00026027234324 0.9866591839949591 
85.00026027234324 0.9865935465238396 
86.00026027234324 0.9851724952741022 
87.00026027234324 0.9893273471959673 
88.00026027234324 0.9882968388993909 
89.00026027234324 0.9887825561856752 
90.00026027234324 0.9916837324091577 
91.00026027234324 0.9919889466498635 
92.00026027234324 0.9898065007351396 
93.00026027234324 0.9897671182524679 
94.00026027234324 0.988264020163831 
95.00026027234324 0.9893568840579711 
96.00026027234324 0.9843750000000001 
97.00026027234324 0.983843336483932 
98.00026027234324 0.9794784446544845 
99.00026027234324 0.9719924910733037 
100.00026027234324 0.9679525047258984 
101.00026027234324 0.9563871823146401 
102.00026027234324 0.9686088794370932 
103.00026027234324 0.9548611111111115 
104.00026027234324 0.9604402961562692 
105.00026027234324 0.9643096250787649 
106.00026027234324 0.9528165038857378 
107.00026027234324 0.9532529930686836 
108.00026027234324 0.9233813799621925 
109.00026027234324 0.9266008979206044 
110.00026027234324 0.9091249212350344 
111.00026027234324 0.896125420079816 
112.00026027234324 0.8980715710985089 
113.00026027234324 0.9224329185045164 
114.00026027234324 0.9175757456416714 
115.00026027234324 0.923299333123293 
116.00026027234324 0.9513921707624445 
117.00026027234324 0.9170801827347191 
118.00026027234324 0.9542113001470287 
119.00026027234324 0.9440604652383949 
120.00026027234324 0.9668662045788703 
121.00026027234324 0.9575981936567945 
122.00026027234324 0.982891593152699 
123.00026027234324 0.9905547679059007 
124.00026027234324 0.9917493698802777 
125.00026027234324 1.072831337954213 
126.00026027234324 1.2943807760974642 
127.00026027234324 1.3260541377861852 
128.00026027234324 1.7899666561646794 
129.00026027234324 1.8343868147448135 
130.00026027234324 2.1131655639571383 
131.00026027234324 2.258273603234602 
132.00026027234324 2.033586693971851 
133.00026027234324 2.3263823251417737 
134.00026027234324 1.927644533711405 
135.00026027234324 2.1781958884688133 
136.00026027234324 2.0320212402856535 
137.00026027234324 2.1421576349506397 
138.00026027234324 2.0558443604284817 
139.00026027234324 2.2614373293425727 
140.00026027234324 2.22737804557866 
141.00026027234324 2.2425403014072685 
142.00026027234324 2.257784604074773 
143.00026027234324 2.2178606122663247 
144.00026027234324 2.076805686830502 
145.00026027234324 1.9905482041587816 
146.00026027234324 2.101144061121616 
147.00026027234324 1.8472583228313317 
148.00026027234324 1.8469366992228538 
149.00026027234324 1.9369158265070374 
150.00026027234324 1.6462829500104987 
151.00026027234324 1.802907083595884 
152.00026027234324 1.758936541692925 
153.00026027234324 1.70113290275153 
154.00026027234324 1.7437939771056479 
155.00026027234324 1.6930037019533681 
156.00026027234324 1.682518115942034 
157.00026027234324 1.5760016278092792 
158.00026027234324 1.6394632167611936 
159.00026027234324 1.573067632850243 
160.00026027234324 1.4358754725897973 
161.00026027234324 1.606805293005676 
162.00026027234324 1.386893509766853 
163.00026027234324 1.4579198172652734 
164.00026027234324 1.301830629069526 
165.00026027234324 1.2951454526359962 
166.00026027234324 1.2492025047258986 
167.00026027234324 1.2163607960512501 
168.00026027234324 1.2019861898760782 
169.00026027234324 1.0535503308128502 
170.00026027234324 1.0648071571098485 
171.00026027234324 0.9276149968494029 
172.00026027234324 0.9056723902541483 
173.00026027234324 0.7601442711615197 
174.00026027234324 0.5955025204788915 
175.00026027234324 0.5325496219281651 
176.00026027234324 0.2923394507456415 
177.00026027234324 0.28541141566897826 
178.00026027234324 0.14721500210039773 
179.00026027234324 0.11248293425750806 
180.00026027234324 0.07594583595883135 
181.00026027234324 0.09079631379961965 
182.00026027234324 0.05609378281873614 
183.00026027234324 0.09058627389203928 
184.00026027234324 0.06371429321571147 
185.00026027234324 0.10393365364419377 
186.00026027234324 0.001368541272841842 
187.00026027234324 0.1037236137366115 
188.00026027234324 0.04158790170132239 
189.00026027234324 0.06297587166561745 
190.00026027234324 0.10351357382902544 
191.00026027234324 0.014715921024995169 
192.00026027234324 0.04825995064062264 
193.00026027234324 0.014295841209830096 
194.00026027234324 0.014505881117412541 
195.00026027234324 0.014295841209830096 
196.00026027234324 2.1003990758243854E-4 
197.00026027234324 0.014505881117412541 
198.00026027234324 2.1003990758243854E-4 
199.00026027234324 0.014295841209830096 
200.00026027234324 0.014505881117412541 
201.00026027234324 2.1003990758243854E-4 
202.00026027234324 0.01450588111741254 
203.00026027234324 0.0 
204.00026027234324 2.1003990758243854E-4 
205.00026027234324 0.0 
206.00026027234324 2.1003990758243854E-4 
207.00026027234324 2.1003990758243854E-4 
208.00026027234324 0.0 
209.00026027234324 2.1003990758243854E-4 
210.00026027234324 0.0 
211.00026027234324 0.0 
212.00026027234324 0.0 
213.00026027234324 0.0 
214.00026027234324 0.0 
215.00026027234324 0.0 
216.00026027234324 0.0 
217.00026027234324 0.0 
218.00026027234324 0.0 
219.00026027234324 0.0 
220.00026027234324 0.0 
221.00026027234324 0.0 
222.00026027234324 0.0 
223.00026027234324 0.0 
224.00026027234324 0.0 
225.00026027234324 0.0 
226.00026027234324 0.0 
227.00026027234324 0.0 
228.00026027234324 0.0 
229.00026027234324 0.0 
230.00026027234324 0.0 
231.00026027234324 0.0 
232.00026027234324 0.0 
233.00026027234324 0.0 
234.00026027234324 0.0 
235.00026027234324 0.0 
236.00026027234324 0.0 
237.00026027234324 0.0 
238.00026027234324 0.0 
239.00026027234324 0.0 
240.00026027234324 0.0 
241.00026027234324 0.0 
242.00026027234324 0.0 
243.00026027234324 0.0 
244.00026027234324 0.0 
245.00026027234324 0.0 
246.00026027234324 0.0 
247.00026027234324 0.0 
248.00026027234324 0.0 
249.00026027234324 0.0 
250.00026027234324 0.0 
251.00026027234324 0.0 
252.00026027234324 0.0 
253.00026027234324 0.0 
254.00026027234324 0.0 
255.00026027234324 0.0 
256.0002602723432 0.0 
257.0002602723432 0.0 
258.0002602723432 0.0 
259.0002602723432 0.0 
260.0002602723432 0.0 
261.0002602723432 0.0 
262.0002602723432 0.0 
263.0002602723432 0.0 
264.0002602723432 0.0 
265.0002602723432 0.0 
266.0002602723432 0.0 
267.0002602723432 0.0 
268.0002602723432 0.0 
269.0002602723432 0.0 
270.0002602723432 0.0 
271.0002602723432 0.0 
272.0002602723432 0.0 
273.0002602723432 0.0 
274.0002602723432 0.0 
275.0002602723432 0.0 
276.0002602723432 0.0 
277.0002602723432 0.0 
278.0002602723432 0.0 
279.0002602723432 0.0 
280.0002602723432 0.0 
281.0002602723432 0.0 
282.0002602723432 0.0 
283.0002602723432 0.0 
284.0002602723432 0.0 
285.0002602723432 0.0 
286.0002602723432 0.0 
287.0002602723432 0.0 
288.0002602723432 0.0 
289.0002602723432 0.0 
290.0002602723432 0.0 
291.0002602723432 0.0 
292.0002602723432 0.0 
293.0002602723432 0.0 
294.0002602723432 0.0 
295.0002602723432 0.0 
296.0002602723432 0.0 
297.0002602723432 0.0 
298.0002602723432 0.0 
299.0002602723432 0.0 
300.0002602723432 0.0 
301.0002602723432 0.0 
302.0002602723432 0.0 
303.0002602723432 0.0 
304.0002602723432 0.0 
305.0002602723432 0.0 
306.0002602723432 0.0 
307.0002602723432 0.0 
308.0002602723432 0.0 
309.0002602723432 0.0 
310.0002602723432 0.0 
311.0002602723432 0.0 
312.0002602723432 0.0 
313.0002602723432 0.0 
314.0002602723432 0.0 
#####################################################################
# End of data export. Simulation finished at: 2017-05-23T22:39+0000 #
#####################################################################
