#####################################################################
# Alchemist log file - simulation started at: 2017-05-22T14:52+0000 #
#####################################################################
# random = 4.0, targets = 3.1622776601683795, density = 0.4483936332993466, gridShift = 0.0, perturbation = 0.5, connfactor = 0.25
#
# The columns have the following meaning: 
# time se[Mean] 
0.0 NaN 
1.0048193674555734 NaN 
2.0048193674555734 1.0 
3.0048193674555734 1.0 
4.004819367455573 1.0 
5.004819367455573 0.9916803823119739 
6.004819367455573 1.0 
7.004819367455573 0.9500822938718428 
8.004819367455573 0.9251234408077643 
9.004819367455573 0.9168038231197382 
10.004819367455573 0.8336076462394764 
11.004819367455573 0.8003291754873716 
12.004819367455573 0.7587310870472407 
13.004819367455573 0.7088133809190835 
14.004819367455573 0.692174145543031 
15.004819367455573 0.683854527855005 
16.004819367455575 0.692174145543031 
17.004819367455575 0.692174145543031 
18.004819367455575 0.7254526162951358 
19.004819367455575 0.7504114693592144 
20.004819367455575 0.7920095577993452 
21.004819367455575 0.8086487931753978 
22.004819367455575 0.8752057346796072 
23.004819367455575 0.8835253523676333 
24.004819367455575 0.9001645877436857 
25.004819367455575 0.9168038231197382 
26.004819367455575 0.9168038231197381 
27.004819367455575 0.9084842054317119 
28.004819367455575 0.8918449700556595 
29.004819367455575 0.8866503523676333 
30.004819367455575 1.2786599101669784 
31.004819367455575 2.1595128788297484 
32.004819367455575 1.7158451727015906 
33.004819367455575 2.507046229804491 
34.004819367455575 1.6037566420608051 
35.004819367455575 2.345930787603836 
36.004819367455575 2.33164919846726 
37.004819367455575 3.1479325494420034 
38.004819367455575 2.6886809902497677 
39.004819367455575 3.9353235466562233 
40.004819367455575 3.1060197235364844 
41.004819367455575 3.0101589589125375 
42.004819367455575 2.5391336065449037 
43.004819367455575 2.503620930361087 
44.004819367455575 0.7307584038989725 
45.004819367455575 1.0358707277151562 
46.004819367455575 0.19264119986015074 
47.004819367455575 0.13099084749251735 
48.004819367455575 0.1309497005565959 
49.004819367455575 0.13508893593264829 
50.004819367455575 0.13508893593264829 
51.004819367455575 0.13508893593264829 
52.004819367455575 0.13508893593264829 
53.004819367455575 0.13508893593264829 
54.004819367455575 0.13508893593264829 
55.004819367455575 0.13508893593264829 
56.004819367455575 0.13508893593264829 
57.004819367455575 0.13508893593264829 
58.004819367455575 0.13508893593264829 
59.004819367455575 0.13508893593264829 
60.004819367455575 0.13508893593264829 
61.004819367455575 0.13508893593264829 
62.004819367455575 0.13508893593264829 
#####################################################################
# End of data export. Simulation finished at: 2017-05-22T14:52+0000 #
#####################################################################
