#####################################################################
# Alchemist log file - simulation started at: 2017-05-23T12:13+0000 #
#####################################################################
# random = 5.0, targets = 10.0, density = 20.0, gridShift = 0.0, perturbation = 0.0, connfactor = 2.0
#
# The columns have the following meaning: 
# time se[Mean] 
0.0 NaN 
1.0000808414316675 NaN 
2.0000808414316675 1.019085538752363 
3.0000808414316675 1.0331350425330812 
4.000080841431668 1.048266415931527 
5.000080841431668 1.0786705786599458 
6.000080841431668 1.0753981240810755 
7.000080841431668 1.1202268759189233 
8.000080841431668 1.109757797731568 
9.000080841431668 1.1181735389098915 
10.000080841431668 1.1062949616677162 
11.000080841431668 1.0853522106700266 
12.000080841431668 1.0850583845305601 
13.000080841431668 1.0683797718441503 
14.000080841431668 1.0679887694286918 
15.000080841431668 1.0566047048939295 
16.000080841431668 1.0634762917454317 
17.000080841431668 1.0598242556710773 
18.000080841431668 1.062595010239446 
19.000080841431668 1.0662770098193652 
20.000080841431668 1.069383401596303 
21.000080841431668 1.0746850385948332 
22.000080841431668 1.0665406099033812 
23.000080841431668 1.0749534630329762 
24.000080841431668 1.0653401661940767 
25.000080841431668 1.0682499409262756 
26.000080841431668 1.0689879358328085 
27.000080841431668 1.066523150336064 
28.000080841431668 1.068355059336274 
29.000080841431668 1.0570463137996222 
30.000080841431668 1.0666588886263393 
31.000080841431668 1.056654720646923 
32.00008084143167 1.0613099598298676 
33.00008084143167 1.0551216590527197 
34.00008084143167 1.056498667559336 
35.00008084143167 1.0506847629174538 
36.00008084143167 1.0470410299831965 
37.00008084143167 1.0349698067632849 
38.00008084143167 1.0331164999474898 
39.00008084143167 1.0317731306448223 
40.00008084143167 1.019943420499895 
41.00008084143167 1.02002874921235 
42.00008084143167 0.9964576769586223 
43.00008084143167 1.00241411336904 
44.00008084143167 0.9749643260344464 
45.00008084143167 0.9840031309073719 
46.00008084143167 0.9649608800672125 
47.00008084143167 0.9627594977420708 
48.00008084143167 0.9595013849506405 
49.00008084143167 0.949261676906112 
50.00008084143167 0.9639794685990338 
51.00008084143167 0.9396941622033185 
52.00008084143167 0.954472898288175 
53.00008084143167 0.9313344754253304 
54.00008084143167 0.9461692002730516 
55.00008084143167 0.9237692317790377 
56.00008084143167 0.935313779930687 
57.00008084143167 0.9252617622348244 
58.00008084143167 0.9159034013337534 
59.00008084143167 0.9220376496534339 
60.00008084143167 0.9023702675383322 
61.00008084143167 0.9244358787544628 
62.00008084143167 0.8959129844045368 
63.00008084143167 0.9047360717286282 
64.00008084143167 0.8837608958202053 
65.00008084143167 0.8962375616992225 
66.00008084143167 0.8732673020373867 
67.00008084143167 0.8821959344150385 
68.00008084143167 0.8625962245326612 
69.00008084143167 0.8528134189245955 
70.00008084143167 0.8457464949590416 
71.00008084143167 0.826274646870405 
72.00008084143167 0.8432448212035287 
73.00008084143167 0.8114586615206889 
74.00008084143167 0.8188399233354338 
75.00008084143167 0.7962371678743964 
76.00008084143167 0.8083939495379117 
77.00008084143167 0.7847248805398026 
78.00008084143167 0.8020559625078764 
79.00008084143167 0.7826328830602813 
80.00008084143167 0.7867532424910731 
81.00008084143167 0.7808818394244904 
82.00008084143167 0.7714452714765805 
83.00008084143167 0.786877264492753 
84.00008084143167 0.761218100189036 
85.00008084143167 0.7722908790170129 
86.00008084143167 0.7503661914513755 
87.00008084143167 0.7645213715605964 
88.00008084143167 0.7397966879332071 
89.00008084143167 0.7532452478470905 
90.00008084143167 0.7377529011762233 
91.00008084143167 0.7389951887733668 
92.00008084143167 0.7306463978155847 
93.00008084143167 0.7266789080550302 
94.00008084143167 0.7242125144402434 
95.00008084143167 0.7160014308968701 
96.00008084143167 0.7108901097458514 
97.00008084143167 0.7030483026149966 
98.00008084143167 0.702042867832388 
99.00008084143167 0.6887212507876493 
100.00008084143167 0.6917301052825034 
101.00008084143167 0.6745440164881324 
102.00008084143167 0.6765327662255827 
103.00008084143167 0.6649589437618145 
104.00008084143167 0.6627039356227681 
105.00008084143167 0.6518379476475528 
106.00008084143167 0.6452592680109219 
107.00008084143167 0.6381988749737446 
108.00008084143167 0.6317122518903588 
109.00008084143167 0.6252429899180842 
110.00008084143167 0.6161569260659523 
111.00008084143167 0.610754765280403 
112.00008084143167 0.6021076848351185 
113.00008084143167 0.5946421445074561 
114.00008084143167 0.5881680253623185 
115.00008084143167 0.5804514545263598 
116.00008084143167 0.5714192462192814 
117.00008084143167 0.5760912557760971 
118.00008084143167 0.5895129371455574 
119.00008084143167 0.6036141304347822 
120.00008084143167 0.6610364813064487 
121.00008084143167 0.5884303126969123 
122.00008084143167 0.6351129620877966 
123.00008084143167 0.628590008664146 
124.00008084143167 0.6314694588846884 
125.00008084143167 0.580421687933207 
126.00008084143167 0.5851016724427641 
127.00008084143167 0.5454748214660781 
128.00008084143167 0.5386243698802771 
129.00008084143167 0.5645293465133373 
130.00008084143167 0.513966308286074 
131.00008084143167 0.5111819011237131 
132.00008084143167 0.526521246849401 
133.00008084143167 0.5065574459147235 
134.00008084143167 0.5026289119932784 
135.00008084143167 0.4922518247216968 
136.00008084143167 0.5135342824511656 
137.00008084143167 0.5119757535181682 
138.00008084143167 0.5672875643247217 
139.00008084143167 0.5052164067422807 
140.00008084143167 0.5224218257718966 
141.00008084143167 0.5466004712770426 
142.00008084143167 0.5251061357908 
143.00008084143167 0.4833383545998736 
144.00008084143167 0.47554311725477827 
145.00008084143167 0.45125262549884465 
146.00008084143167 0.4243452005881114 
147.00008084143167 0.4778407897500523 
148.00008084143167 0.3998968178953997 
149.00008084143167 0.40742707676958606 
150.00008084143167 0.4273307209619824 
151.00008084143167 0.3684902725267798 
152.00008084143167 0.39557472169712243 
153.00008084143167 0.3601406282818733 
154.00008084143167 0.3496857277882794 
155.00008084143167 0.34787823592732586 
156.00008084143167 0.34091580681579464 
157.00008084143167 0.34459609982146566 
158.00008084143167 0.3214143890464186 
159.00008084143167 0.34528010790800223 
160.00008084143167 0.31129335354967413 
161.00008084143167 0.3207686804242803 
162.00008084143167 0.30007840395925184 
163.00008084143167 0.3225127008506613 
164.00008084143167 0.31133089818315435 
165.00008084143167 0.3398579933312325 
166.00008084143167 0.32657470856962784 
167.00008084143167 0.32534551564797276 
168.00008084143167 0.3520233078659939 
169.00008084143167 0.3189948277672755 
170.00008084143167 0.3398345607540427 
171.00008084143167 0.33697040406427187 
172.00008084143167 0.3293011906637256 
173.00008084143167 0.3570477578239857 
174.00008084143167 0.3555743278722955 
175.00008084143167 0.36975034787859656 
176.00008084143167 0.39071475924175564 
177.00008084143167 0.40529789566267505 
178.00008084143167 0.3945292808758657 
179.00008084143167 0.42242317134005386 
180.00008084143167 0.4191946282293629 
181.00008084143167 0.4424403027200161 
182.00008084143167 0.45900007876496435 
183.00008084143167 0.47207739314219643 
184.00008084143167 0.49091593809073625 
185.00008084143167 0.5001360336588944 
186.00008084143167 0.521651077767275 
187.00008084143167 0.5456767551459765 
188.00008084143167 0.5499993764440237 
189.00008084143167 0.5765768746061735 
190.00008084143167 0.5724265844885522 
191.00008084143167 0.6009114747426997 
192.00008084143167 0.5960690046733876 
193.00008084143167 0.5929795801827339 
194.00008084143167 0.5874333779668128 
195.00008084143167 0.5719874698067624 
196.00008084143167 0.5459218454631375 
197.00008084143167 0.5317582309388775 
198.00008084143167 0.510615942028985 
199.00008084143167 0.49631786914513715 
200.00008084143167 0.4840179649758445 
201.00008084143167 0.4822791955471533 
202.00008084143167 0.4715412662780921 
203.00008084143167 0.47300147027935247 
204.00008084143167 0.47006560465238295 
205.00008084143167 0.47273809992648536 
206.00008084143167 0.472994184520058 
207.00008084143167 0.47354258559126156 
208.00008084143167 0.47306566372610703 
209.00008084143167 0.47059608669397146 
210.00008084143167 0.4716040157004823 
211.00008084143167 0.4676902502100394 
212.00008084143167 0.46221664303717597 
213.00008084143167 0.4598349873976046 
214.00008084143167 0.4505427890674218 
215.00008084143167 0.44579352420709806 
216.00008084143167 0.44183919475950273 
217.00008084143167 0.4345543215710979 
218.00008084143167 0.42658393063432015 
219.00008084143167 0.41361304741650873 
220.00008084143167 0.4070045027305176 
221.00008084143167 0.39187388416299057 
222.00008084143167 0.3687193473009865 
223.00008084143167 0.3473416824196587 
224.00008084143167 0.3135899758454102 
225.00008084143167 0.2903011118987598 
226.00008084143167 0.2590471736504928 
227.00008084143167 0.2325094846145761 
228.00008084143167 0.20876079736399838 
229.00008084143167 0.18967791692921657 
230.00008084143167 0.17692534394034815 
231.00008084143167 0.17039510475740358 
232.00008084143167 0.16402387234824575 
233.00008084143167 0.16266809756353673 
234.00008084143167 0.16242372925855877 
235.00008084143167 0.16210640490443148 
236.00008084143167 0.16175550698382657 
237.00008084143167 0.16155954631379926 
238.00008084143167 0.16119991860953548 
239.00008084143167 0.16094547495274067 
240.00008084143167 0.16063356568998075 
241.00008084143167 0.16037039224952704 
242.00008084143167 0.16022418478260833 
243.00008084143167 0.16012671313799587 
244.00008084143167 0.16001949432892215 
245.00008084143167 0.15999999999999964 
246.00008084143167 0.15999999999999964 
247.00008084143167 0.15999999999999964 
248.00008084143167 0.15999999999999964 
249.00008084143167 0.15999999999999964 
250.00008084143167 0.15999999999999964 
251.00008084143167 0.15999999999999964 
252.00008084143167 0.15999999999999964 
253.00008084143167 0.15999999999999964 
254.00008084143167 0.15999999999999964 
255.00008084143167 0.15999999999999964 
256.00008084143167 0.15999999999999964 
257.00008084143167 0.15999999999999964 
258.00008084143167 0.15999999999999964 
259.00008084143167 0.15999999999999964 
260.00008084143167 0.15999999999999964 
261.00008084143167 0.15999999999999964 
262.00008084143167 0.15999999999999964 
263.00008084143167 0.15999999999999964 
264.00008084143167 0.15999999999999964 
265.00008084143167 0.15999999999999964 
266.00008084143167 0.15999999999999964 
267.00008084143167 0.15999999999999964 
268.00008084143167 0.15999999999999964 
269.00008084143167 0.15999999999999964 
270.00008084143167 0.15999999999999964 
271.00008084143167 0.15999999999999964 
272.00008084143167 0.15999999999999964 
273.00008084143167 0.15999999999999964 
274.00008084143167 0.15999999999999964 
275.00008084143167 0.15999999999999964 
276.00008084143167 0.15999999999999964 
277.00008084143167 0.15999999999999964 
278.00008084143167 0.15999999999999964 
279.00008084143167 0.15999999999999964 
280.00008084143167 0.15999999999999964 
281.00008084143167 0.15999999999999964 
282.00008084143167 0.15999999999999964 
283.00008084143167 0.15999999999999964 
284.00008084143167 0.15999999999999964 
285.00008084143167 0.15999999999999964 
286.00008084143167 0.15999999999999964 
287.00008084143167 0.15999999999999964 
288.00008084143167 0.15999999999999964 
289.00008084143167 0.15999999999999964 
290.00008084143167 0.15999999999999964 
291.00008084143167 0.15999999999999964 
292.00008084143167 0.15999999999999964 
293.00008084143167 0.15999999999999964 
294.00008084143167 0.15999999999999964 
295.00008084143167 0.15999999999999964 
296.00008084143167 0.15999999999999964 
297.00008084143167 0.15999999999999964 
298.00008084143167 0.15999999999999964 
299.00008084143167 0.15999999999999964 
300.00008084143167 0.15999999999999964 
301.00008084143167 0.15999999999999964 
302.00008084143167 0.15999999999999964 
303.00008084143167 0.15999999999999964 
304.00008084143167 0.15999999999999964 
305.00008084143167 0.15999999999999964 
306.00008084143167 0.15999999999999964 
307.00008084143167 0.15999999999999964 
308.00008084143167 0.15999999999999964 
309.00008084143167 0.15999999999999964 
310.00008084143167 0.15999999999999964 
311.00008084143167 0.15999999999999964 
312.00008084143167 0.15999999999999964 
313.00008084143167 0.15999999999999964 
314.00008084143167 0.15999999999999964 
315.00008084143167 0.15999999999999964 
316.00008084143167 0.15999999999999964 
317.00008084143167 0.15999999999999964 
318.00008084143167 0.15999999999999964 
319.00008084143167 0.15999999999999964 
320.00008084143167 0.15999999999999964 
321.00008084143167 0.15999999999999964 
322.00008084143167 0.15999999999999964 
323.00008084143167 0.15999999999999964 
324.00008084143167 0.15999999999999964 
325.00008084143167 0.15999999999999964 
326.00008084143167 0.15999999999999964 
327.00008084143167 0.15999999999999964 
328.00008084143167 0.15999999999999964 
329.00008084143167 0.15999999999999964 
330.00008084143167 0.15999999999999964 
331.00008084143167 0.15999999999999964 
332.00008084143167 0.15999999999999964 
333.00008084143167 0.15999999999999964 
334.00008084143167 0.15999999999999964 
335.00008084143167 0.15999999999999964 
336.00008084143167 0.15999999999999964 
337.00008084143167 0.15999999999999964 
338.00008084143167 0.15999999999999964 
339.00008084143167 0.15999999999999964 
340.00008084143167 0.15999999999999964 
341.00008084143167 0.15999999999999964 
342.00008084143167 0.15999999999999964 
343.00008084143167 0.15999999999999964 
344.00008084143167 0.15999999999999964 
345.00008084143167 0.15999999999999964 
346.00008084143167 0.15999999999999964 
347.00008084143167 0.15999999999999964 
348.00008084143167 0.15999999999999964 
349.00008084143167 0.15999999999999964 
350.00008084143167 0.15999999999999964 
351.00008084143167 0.15999999999999964 
352.00008084143167 0.15999999999999964 
#####################################################################
# End of data export. Simulation finished at: 2017-05-23T12:42+0000 #
#####################################################################
