#####################################################################
# Alchemist log file - simulation started at: 2017-05-25T20:45+0000 #
#####################################################################
# random = 19.0, targets = 1.0, density = 5.0264212595847235, gridShift = 0.0, perturbation = 0.5, connfactor = 2.0
#
# The columns have the following meaning: 
# time se[Mean] 
0.0 NaN 
1.004337754240159 NaN 
2.004337754240159 1.179253472222223 
3.004337754240159 1.2974657600308641 
4.004337754240159 1.6389250578703678 
5.004337754240159 2.220003858024689 
6.004337754240159 2.995081018518526 
7.004337754240159 3.1820143711419675 
8.004337754240158 2.6319444444444375 
9.004337754240158 2.3086781442901203 
10.004337754240158 2.791847511574073 
11.004337754240158 2.405828028549391 
12.004337754240158 3.0376398533950706 
13.004337754240158 2.865053530092588 
14.004337754240158 2.7822747878086385 
15.004337754240158 2.770688657407412 
16.004337754240158 2.6653043016975393 
17.004337754240158 2.7281298225308586 
18.004337754240158 3.913278838734575 
19.004337754240158 3.7754750192901367 
20.004337754240158 3.576834972993821 
21.004337754240158 4.149594907407417 
22.004337754240158 4.8767722800925855 
23.004337754240158 4.812222704475324 
24.004337754240158 4.971848476080245 
25.004337754240158 4.243815104166678 
26.004337754240158 4.952787422839517 
27.004337754240158 5.004099151234583 
28.004337754240158 5.688090760030879 
29.004337754240158 5.885995370370389 
30.004337754240158 5.953510802469127 
31.004337754240158 6.0520833333333215 
32.004337754240154 6.40277777777776 
33.004337754240154 6.58121141975308 
34.004337754240154 6.8052179783950795 
35.004337754240154 7.018856095679031 
36.004337754240154 7.083622685185178 
37.004337754240154 7.428964120370385 
38.004337754240154 7.6044560185185315 
39.004337754240154 7.8496817129629735 
40.004337754240154 8.130835262345673 
41.004337754240154 8.536892361111128 
42.004337754240154 8.818287037037038 
43.004337754240154 8.985146604938267 
44.004337754240154 9.193721064814822 
45.004337754240154 9.292824074074074 
46.004337754240154 9.521894290123468 
47.004337754240154 9.756269290123466 
48.004337754240154 10.063464506172844 
49.004337754240154 10.396942515432094 
50.004337754240154 10.724874614197539 
51.004337754240154 10.88136574074075 
52.004337754240154 11.13117283950617 
53.004337754240154 11.427999614197537 
54.004337754240154 11.66261574074075 
55.004337754240154 11.876012731481488 
56.004337754240154 12.193817515432093 
57.004337754240154 12.558400848765439 
58.004337754240154 12.860532407407414 
59.004337754240154 13.172791280864196 
60.004337754240154 13.474681712962976 
61.004337754240154 13.84432870370371 
62.004337754240154 14.136332947530875 
63.004337754240154 14.427854938271611 
64.00433775424015 14.787133487654332 
65.00433775424015 15.146170910493831 
66.00433775424015 15.312789351851857 
67.00433775424015 15.619984567901243 
68.00433775424015 15.739824459876552 
69.00433775424015 15.828317901234575 
70.00433775424015 15.973958333333341 
71.00433775424015 15.979263117283958 
72.00433775424015 15.979263117283958 
73.00433775424015 16.000000000000007 
74.00433775424015 16.000000000000007 
75.00433775424015 16.000000000000007 
76.00433775424015 16.000000000000007 
77.00433775424015 16.000000000000007 
78.00433775424015 16.000000000000007 
79.00433775424015 16.000000000000007 
80.00433775424015 16.000000000000007 
81.00433775424015 16.000000000000007 
82.00433775424015 16.000000000000007 
83.00433775424015 16.000000000000007 
84.00433775424015 16.000000000000007 
85.00433775424015 16.000000000000007 
86.00433775424015 16.000000000000007 
87.00433775424015 16.000000000000007 
88.00433775424015 16.000000000000007 
89.00433775424015 16.000000000000007 
90.00433775424015 16.000000000000007 
91.00433775424015 16.000000000000007 
92.00433775424015 16.000000000000007 
93.00433775424015 16.000000000000007 
94.00433775424015 16.000000000000007 
95.00433775424015 16.000000000000007 
96.00433775424015 16.000000000000007 
97.00433775424015 16.000000000000007 
98.00433775424015 16.000000000000007 
99.00433775424015 16.000000000000007 
100.00433775424015 16.000000000000007 
101.00433775424015 16.000000000000007 
102.00433775424015 16.000000000000007 
103.00433775424015 16.000000000000007 
104.00433775424015 16.000000000000007 
105.00433775424015 16.000000000000007 
106.00433775424015 16.000000000000007 
107.00433775424015 16.000000000000007 
108.00433775424015 16.000000000000007 
109.00433775424015 16.000000000000007 
110.00433775424015 16.000000000000007 
111.00433775424015 16.000000000000007 
112.00433775424015 16.000000000000007 
113.00433775424015 16.000000000000007 
114.00433775424015 16.000000000000007 
115.00433775424015 16.000000000000007 
116.00433775424015 16.000000000000007 
117.00433775424015 16.000000000000007 
118.00433775424015 16.000000000000007 
119.00433775424015 16.000000000000007 
120.00433775424015 16.000000000000007 
121.00433775424015 16.000000000000007 
122.00433775424015 16.000000000000007 
123.00433775424015 16.000000000000007 
124.00433775424015 16.000000000000007 
#####################################################################
# End of data export. Simulation finished at: 2017-05-25T20:45+0000 #
#####################################################################
