#####################################################################
# Alchemist log file - simulation started at: 2017-05-20T20:26+0000 #
#####################################################################
# random = 1.0, targets = 31.622776601683793, density = 14.160781367816199, gridShift = 1.0, perturbation = 0.5, connfactor = 2.0
#
# The columns have the following meaning: 
# time se[Mean] 
0.0 NaN 
1.0000417374280275 NaN 
2.0000417374280275 1.0117809343149005 
3.0000417374280275 1.0179565837087543 
4.0000417374280275 1.0247286821122645 
5.0000417374280275 1.0279740926676246 
6.0000417374280275 1.0257443121218934 
7.0000417374280275 1.0311111210508968 
8.000041737428027 1.0299296665636126 
9.000041737428027 1.0390431487440965 
10.000041737428027 1.0363774118984093 
11.000041737428027 1.0374439504135835 
12.000041737428027 1.0421266185413782 
13.000041737428027 1.0390573358715482 
14.000041737428027 1.0482178503276351 
15.000041737428027 1.0557396121613083 
16.000041737428027 1.065098396147096 
17.000041737428027 1.0655119834625415 
18.000041737428027 1.0736337269071674 
19.000041737428027 1.085621892683734 
20.000041737428027 1.0907164142507844 
21.000041737428027 1.100293922914174 
22.000041737428027 1.1042057829522451 
23.000041737428027 1.1121277672323653 
24.000041737428027 1.123648626694421 
25.000041737428027 1.128304731262623 
26.000041737428027 1.127987558085899 
27.000041737428027 1.1255361949599554 
28.000041737428027 1.1426141688737979 
29.000041737428027 1.1526114261926566 
30.000041737428027 1.1404484962215686 
31.000041737428027 1.1497132822012062 
32.00004173742803 1.155463945735009 
33.00004173742803 1.1473916718749853 
34.00004173742803 1.1575377835485035 
35.00004173742803 1.160484289646139 
36.00004173742803 1.1597865193537171 
37.00004173742803 1.1591707034403755 
38.00004173742803 1.162240612595486 
39.00004173742803 1.1481569399437643 
40.00004173742803 1.1515540140927176 
41.00004173742803 1.1463517242024701 
42.00004173742803 1.1444710684816217 
43.00004173742803 1.1495070883302414 
44.00004173742803 1.138882344019481 
45.00004173742803 1.1332712203390376 
46.00004173742803 1.1298463181701706 
47.00004173742803 1.1278503561844504 
48.00004173742803 1.1311750528331945 
49.00004173742803 1.124555757774944 
50.00004173742803 1.136667486012557 
51.00004173742803 1.1276834634514763 
52.00004173742803 1.132430119272853 
53.00004173742803 1.132807482849579 
54.00004173742803 1.1329283721524266 
55.00004173742803 1.13459669317052 
56.00004173742803 1.1349309905004132 
57.00004173742803 1.139136320704526 
58.00004173742803 1.1365919341270327 
59.00004173742803 1.1455875223311114 
60.00004173742803 1.1508600840126735 
61.00004173742803 1.1538514807576867 
62.00004173742803 1.158377439096938 
63.00004173742803 1.1706685926578084 
64.00004173742803 1.1820914855563245 
65.00004173742803 1.1852789453830659 
66.00004173742803 1.1985106592477035 
67.00004173742803 1.208194622531614 
68.00004173742803 1.2229766327295981 
69.00004173742803 1.2313512250875291 
70.00004173742803 1.2475253481064987 
71.00004173742803 1.2646439090508903 
72.00004173742803 1.2778268529493502 
73.00004173742803 1.3152074370836517 
74.00004173742803 1.3447263577135848 
75.00004173742803 1.423111832389608 
76.00004173742803 1.4433003983664119 
77.00004173742803 1.5408308397679118 
78.00004173742803 1.575506648373889 
79.00004173742803 1.6298663464624414 
80.00004173742803 1.7071807617728856 
81.00004173742803 1.7713242822145043 
82.00004173742803 1.832849890935466 
83.00004173742803 1.9396834455876328 
84.00004173742803 1.9688222952507328 
85.00004173742803 2.061689626106169 
86.00004173742803 2.2651144409306974 
87.00004173742803 2.2707405522509783 
88.00004173742803 2.63031807623522 
89.00004173742803 2.588244802236681 
90.00004173742803 2.925369159802799 
91.00004173742803 3.0388431464534933 
92.00004173742803 3.1707562509723446 
93.00004173742803 3.3709392271262546 
94.00004173742803 3.6166532330774204 
95.00004173742803 3.6486640240601296 
96.00004173742803 3.860508942298782 
97.00004173742803 4.0770514304252465 
98.00004173742803 4.194736865988264 
99.00004173742803 4.528258872725766 
100.00004173742803 4.448466369272654 
101.00004173742803 5.0037389684750595 
102.00004173742803 4.842578681101495 
103.00004173742803 5.194802081440804 
104.00004173742803 5.495859890879533 
105.00004173742803 5.369131204670916 
106.00004173742803 5.496555068024991 
107.00004173742803 5.815596265355536 
108.00004173742803 6.1406838857858155 
109.00004173742803 6.087582692601288 
110.00004173742803 6.616934427418448 
111.00004173742803 6.834478208600221 
112.00004173742803 6.926089119844138 
113.00004173742803 7.263120573651707 
114.00004173742803 7.6276235642175765 
115.00004173742803 7.605381035297354 
116.00004173742803 7.502147734983186 
117.00004173742803 7.661156561509962 
118.00004173742803 7.609845883887482 
119.00004173742803 7.53908344765093 
120.00004173742803 7.80122085345786 
121.00004173742803 9.14468416840637 
122.00004173742803 8.343098633079524 
123.00004173742803 10.534082205924507 
124.00004173742803 10.702362956281503 
125.00004173742803 11.25898411439376 
126.00004173742803 11.812666582756977 
127.00004173742803 12.49098674502569 
128.00004173742803 12.956124862332102 
129.00004173742803 14.522570249985876 
130.00004173742803 14.310729697015429 
131.00004173742803 14.22044081682646 
132.00004173742803 15.524516980746322 
133.00004173742803 15.732778821355675 
134.00004173742803 16.828620895516995 
135.00004173742803 15.29154988196201 
136.00004173742803 18.303248346617064 
137.00004173742803 16.01617131860727 
138.00004173742803 17.514881656224432 
139.00004173742803 19.479611568944573 
140.00004173742803 17.604445164463108 
141.00004173742803 16.7936138312228 
142.00004173742803 19.380726625976916 
143.00004173742803 19.579774175463015 
144.00004173742803 17.53669579161362 
145.00004173742803 19.752569536756077 
146.00004173742803 18.772112272794576 
147.00004173742803 19.30011542327696 
148.00004173742803 19.832552049747747 
149.00004173742803 18.362802013876493 
150.00004173742803 18.477850577534554 
151.00004173742803 16.037575398567558 
152.00004173742803 14.131103148464948 
153.00004173742803 12.709883823464098 
154.00004173742803 10.040528801033721 
155.00004173742803 10.121759894117757 
156.00004173742803 9.031145198756775 
157.00004173742803 7.903586905971005 
158.00004173742803 8.695920534482841 
159.00004173742803 6.561642648482123 
160.00004173742803 6.4450389350437725 
161.00004173742803 5.3685843033590945 
162.00004173742803 6.178976715644713 
163.00004173742803 5.553376721458091 
164.00004173742803 4.434695030369633 
165.00004173742803 4.380432789316841 
166.00004173742803 4.160350443618753 
167.00004173742803 3.932268995517997 
168.00004173742803 3.922041284241489 
169.00004173742803 3.921889072187708 
170.00004173742803 3.921764545073639 
171.00004173742803 3.9218196210083263 
172.00004173742803 3.921833408363544 
173.00004173742803 3.92172277883397 
174.00004173742803 3.9216674456976373 
175.00004173742803 3.921653621599327 
176.00004173742803 3.9216259734027066 
177.00004173742803 3.9216121493043965 
178.00004173742803 3.9216121493043965 
179.00004173742803 3.9216121493043965 
180.00004173742803 3.9216121493043965 
181.00004173742803 3.9216121493043965 
182.00004173742803 3.9216121493043965 
183.00004173742803 3.9216121493043965 
184.00004173742803 3.9216121493043965 
185.00004173742803 3.9216121493043965 
186.00004173742803 3.9216121493043965 
187.00004173742803 3.9216121493043965 
188.00004173742803 3.9216121493043965 
189.00004173742803 3.9216121493043965 
190.00004173742803 3.9216121493043965 
191.00004173742803 3.9216121493043965 
192.00004173742803 3.9216121493043965 
193.00004173742803 3.9216121493043965 
194.00004173742803 3.9216121493043965 
195.00004173742803 3.9216121493043965 
196.00004173742803 3.9216121493043965 
197.00004173742803 3.9216121493043965 
198.00004173742803 3.9216121493043965 
199.00004173742803 3.9216121493043965 
200.00004173742803 3.9216121493043965 
201.00004173742803 3.9216121493043965 
202.00004173742803 3.9216121493043965 
203.00004173742803 3.9216121493043965 
204.00004173742803 3.9216121493043965 
205.00004173742803 3.9216121493043965 
206.00004173742803 3.9216121493043965 
207.00004173742803 3.9216121493043965 
208.00004173742803 3.9216121493043965 
209.00004173742803 3.9216121493043965 
210.00004173742803 3.9216121493043965 
211.00004173742803 3.9216121493043965 
212.00004173742803 3.9216121493043965 
213.00004173742803 3.9216121493043965 
214.00004173742803 3.9216121493043965 
215.00004173742803 3.9216121493043965 
216.00004173742803 3.9216121493043965 
217.00004173742803 3.9216121493043965 
218.00004173742803 3.9216121493043965 
219.00004173742803 3.9216121493043965 
220.00004173742803 3.9216121493043965 
221.00004173742803 3.9216121493043965 
222.00004173742803 3.9216121493043965 
223.00004173742803 3.9216121493043965 
224.00004173742803 3.9216121493043965 
225.00004173742803 3.9216121493043965 
226.00004173742803 3.9216121493043965 
227.00004173742803 3.9216121493043965 
228.00004173742803 3.9216121493043965 
229.00004173742803 3.9216121493043965 
230.00004173742803 3.9216121493043965 
231.00004173742803 3.9216121493043965 
232.00004173742803 3.9216121493043965 
233.00004173742803 3.9216121493043965 
234.00004173742803 3.9216121493043965 
235.00004173742803 3.9216121493043965 
236.00004173742803 3.9216121493043965 
237.00004173742803 3.9216121493043965 
238.00004173742803 3.9216121493043965 
239.00004173742803 3.9216121493043965 
240.00004173742803 3.9216121493043965 
241.00004173742803 3.9216121493043965 
242.00004173742803 3.9216121493043965 
243.00004173742803 3.9216121493043965 
244.00004173742803 3.9216121493043965 
245.00004173742803 3.9216121493043965 
246.00004173742803 3.9216121493043965 
247.00004173742803 3.9216121493043965 
248.00004173742803 3.9216121493043965 
249.00004173742803 3.9216121493043965 
250.00004173742803 3.9216121493043965 
251.00004173742803 3.9216121493043965 
252.00004173742803 3.9216121493043965 
253.00004173742803 3.9216121493043965 
254.00004173742803 3.9216121493043965 
255.00004173742803 3.9216121493043965 
256.00004173742803 3.9216121493043965 
257.00004173742803 3.9216121493043965 
258.00004173742803 3.9216121493043965 
259.00004173742803 3.9216121493043965 
260.00004173742803 3.9216121493043965 
#####################################################################
# End of data export. Simulation finished at: 2017-05-20T20:43+0000 #
#####################################################################
