0.000000000000000000e+00 nan
1.000144922420112215e+00 1.660109692757769095e-01
2.000289844840224429e+00 9.553183542812316853e-01
3.000434767260336866e+00 9.634420033504569325e-01
4.000579689680448858e+00 9.613233131013746435e-01
5.000724612100558630e+00 9.580006835307881552e-01
6.000869534520673731e+00 9.491462787800846179e-01
7.001014456940785280e+00 9.434554984037625269e-01
8.001159379360897717e+00 9.412322774404089376e-01
9.001304301781006600e+00 9.338650548737924550e-01
1.000144922420111726e+01 9.296250926341894649e-01
1.100159414662123680e+01 9.201647945349271662e-01
1.200173906904134746e+01 9.121261480404623256e-01
1.300188399146145635e+01 9.058553309905960083e-01
1.400202891388157056e+01 8.963808307374353523e-01
1.500217383630168300e+01 8.925788430365758641e-01
1.600231875872179543e+01 8.814159533655424594e-01
1.700246368114191498e+01 8.759811728065663994e-01
1.800260860356201320e+01 8.684300266124513890e-01
1.900275352598213985e+01 8.614775629007244140e-01
2.000289844840223452e+01 8.544335322514204911e-01
2.100304337082235762e+01 8.398300457739508174e-01
2.200318829324247361e+01 8.387620271977979103e-01
2.300333321566257894e+01 8.399939554668449659e-01
2.400347813808269493e+01 8.272053325571326887e-01
2.500362306050281802e+01 8.255764622204332381e-01
2.600376798292291269e+01 8.257735126877271403e-01
2.700391290534303224e+01 8.230872376768592069e-01
2.800405782776314112e+01 8.270721821852471400e-01
2.900420275018325356e+01 8.284071078890943296e-01
3.000434767260336599e+01 8.267121453841952405e-01
3.100449259502347843e+01 8.320109514094866654e-01
3.200463751744359087e+01 8.338934340079763308e-01
3.300478243986368199e+01 8.352706521958708219e-01
3.400492736228382995e+01 8.367245269684303599e-01
3.500507228470393528e+01 8.376217925314052293e-01
3.600521720712402640e+01 8.391947060632382049e-01
3.700536212954416726e+01 8.395616013101471209e-01
3.800550705196427970e+01 8.399602136183710321e-01
3.900565197438437082e+01 8.405100691636452348e-01
4.000579689680446904e+01 8.408922435449572852e-01
4.100594181922462411e+01 8.407283127529244782e-01
4.200608674164471523e+01 8.410812649877535963e-01
4.300623166406481346e+01 8.410896383486242689e-01
4.400637658648494721e+01 8.410896383486242689e-01
4.500652150890505254e+01 8.410896383486242689e-01
4.600666643132515787e+01 8.410896383486242689e-01
4.700681135374529163e+01 8.410896383486242689e-01
4.800695627616538985e+01 8.410896383486242689e-01
4.900710119858548097e+01 8.410896383486242689e-01
5.000724612100563604e+01 8.410896383486242689e-01
5.100739104342573427e+01 8.410896383486242689e-01
5.200753596584582539e+01 8.410896383486242689e-01
5.300768088826591651e+01 8.410896383486242689e-01
5.400782581068606447e+01 8.410896383486242689e-01
