#####################################################################
# Alchemist log file - simulation started at: 2017-05-23T19:45+0000 #
#####################################################################
# random = 12.0, targets = 100.0, density = 0.1591589639397027, gridShift = 0.0, perturbation = 0.5, connfactor = 2.0
#
# The columns have the following meaning: 
# time se[Mean] 
0.0 NaN 
1.0005590746559656 NaN 
2.000559074655966 1.366133 
3.000559074655966 1.515508361111111 
4.000559074655966 1.7848840277777778 
5.000559074655966 2.084278861111111 
6.000559074655966 1.861440111111111 
7.000559074655966 2.4274501388888887 
8.000559074655966 3.3097493333333334 
9.000559074655966 2.9317128611111114 
10.000559074655966 2.669241444444445 
11.000559074655966 3.247877722222223 
12.000559074655966 3.268279444444446 
13.000559074655966 3.279676777777779 
14.000559074655966 2.4819344166666677 
15.000559074655966 2.0009228611111123 
16.000559074655968 1.9883971666666675 
17.000559074655968 2.3467006666666674 
18.000559074655968 2.225631916666667 
19.000559074655968 2.483820416666667 
20.000559074655968 2.5648535277777778 
21.000559074655968 2.702572611111111 
22.000559074655968 3.921150222222221 
23.000559074655968 6.476722166666662 
24.000559074655968 3.7663449166666654 
25.000559074655968 6.330700805555551 
26.000559074655968 6.110469555555552 
27.000559074655968 9.976699555555548 
28.000559074655968 7.251932222222217 
29.000559074655968 4.646106777777775 
30.000559074655968 3.2286205555555543 
31.000559074655968 3.215043999999999 
32.00055907465597 1.918372 
33.00055907465597 1.9338208888888888 
34.00055907465597 1.916651111111111 
35.00055907465597 1.9321 
36.00055907465597 1.9321 
37.00055907465597 1.9321 
38.00055907465597 1.9321 
39.00055907465597 1.9321 
40.00055907465597 1.9321 
41.00055907465597 1.9321 
42.00055907465597 1.9321 
43.00055907465597 1.9321 
44.00055907465597 1.9321 
45.00055907465597 1.9321 
46.00055907465597 1.9321 
#####################################################################
# End of data export. Simulation finished at: 2017-05-23T19:46+0000 #
#####################################################################
