#####################################################################
# Alchemist log file - simulation started at: 2017-05-25T08:57+0000 #
#####################################################################
# random = 17.0, targets = 31.622776601683793, density = 0.11269076455391362, gridShift = 1.0, perturbation = 0.0, connfactor = 1.5
#
# The columns have the following meaning: 
# time se[Mean] 
0.0 NaN 
1.0045647570182237 NaN 
2.0045647570182235 1.1853933493928233 
3.0045647570182235 1.2936862345182114 
4.0045647570182235 1.4317729634764753 
5.0045647570182235 1.4201021049385536 
6.0045647570182235 1.5331553096331043 
7.0045647570182235 1.470869838836412 
8.004564757018223 1.0743931424029538 
9.004564757018223 1.0611590198798597 
10.004564757018223 0.5258183419718174 
11.004564757018223 0.28618082617598095 
12.004564757018223 0.21115498892923168 
13.004564757018223 0.07953253895327424 
14.004564757018223 0.06769210550724415 
15.004564757018223 0.03638466441273188 
16.004564757018223 0.020421462719156572 
17.004564757018223 0.011065257318949567 
18.004564757018223 0.003998636884390194 
19.004564757018223 7.761466782760567E-4 
20.004564757018223 3.8785069560482203E-4 
21.004564757018223 3.8785069560482203E-4 
22.004564757018223 3.8785069560482203E-4 
23.004564757018223 3.8785069560482203E-4 
24.004564757018223 3.8785069560482203E-4 
25.004564757018223 3.8785069560482203E-4 
26.004564757018223 3.8785069560482203E-4 
27.004564757018223 3.8785069560482203E-4 
28.004564757018223 3.8785069560482203E-4 
#####################################################################
# End of data export. Simulation finished at: 2017-05-25T08:57+0000 #
#####################################################################
