#####################################################################
# Alchemist log file - simulation started at: 2017-05-21T05:37+0000 #
#####################################################################
# random = 2.0, targets = 3.1622776601683795, density = 1.7841466528270753, gridShift = 1.0, perturbation = 0.0, connfactor = 1.5
#
# The columns have the following meaning: 
# time se[Mean] 
0.0 NaN 
1.003288451303821 NaN 
2.003288451303821 1.0394227417429507 
3.003288451303821 1.0526759159260917 
4.0032884513038205 1.0568282224212064 
5.0032884513038205 1.069644111796457 
6.0032884513038205 1.01417345401689 
7.0032884513038205 0.988892833443858 
8.00328845130382 1.036693286687009 
9.00328845130382 1.06086436709114 
10.00328845130382 1.0949586863200513 
11.00328845130382 1.126472342817386 
12.00328845130382 1.0611541572268772 
13.00328845130382 0.9918194121457229 
14.00328845130382 0.9707002332316214 
15.00328845130382 0.9229533019188755 
16.00328845130382 0.9032791377282137 
17.00328845130382 0.8769777333200144 
18.00328845130382 0.8717759312463511 
19.00328845130382 0.8620589426315873 
20.00328845130382 0.8700241623114765 
21.00328845130382 0.8426406318255455 
22.00328845130382 0.8149399057124299 
23.00328845130382 0.7957983311225076 
24.00328845130382 0.7508174471193001 
25.00328845130382 0.7229000293804184 
26.00328845130382 0.6699656819647279 
27.00328845130382 0.6334029688727862 
28.00328845130382 0.594739958371814 
29.00328845130382 0.5478676396734602 
30.00328845130382 0.5123283401199986 
31.00328845130382 0.4706252015958476 
32.00328845130382 0.43299606324854933 
33.00328845130382 0.3993730085772575 
34.00328845130382 0.3485376007203297 
35.00328845130382 0.3280607279697026 
36.00328845130382 0.29213892019235527 
37.00328845130382 0.25444712475083636 
38.00328845130382 0.23046008827384393 
39.00328845130382 0.2142372462744602 
40.00328845130382 0.2015336171680338 
41.00328845130382 0.19540375794707365 
42.00328845130382 0.18730146781133644 
43.00328845130382 0.17951773975277416 
44.00328845130382 0.17084369825744397 
45.00328845130382 0.1571427978506627 
46.00328845130382 0.14597953985885906 
47.00328845130382 0.13513471494839527 
48.00328845130382 0.12354454476667232 
49.00328845130382 0.11335761504566765 
50.00328845130382 0.10903171463888642 
51.00328845130382 0.13056999403047026 
52.00328845130382 0.18911617763126906 
53.00328845130382 0.24751356030798066 
54.00328845130382 0.3381908963825641 
55.00328845130382 0.40384732382648164 
56.00328845130382 0.2041305053050481 
57.00328845130382 0.43983588804802076 
58.00328845130382 0.3827544075466178 
59.00328845130382 0.4825156300340854 
60.00328845130382 0.39120135899904307 
61.00328845130382 0.34657159017469336 
62.00328845130382 0.26734486171822897 
63.00328845130382 0.37504913200159706 
64.00328845130382 0.2953132662811492 
65.00328845130382 0.38794727225007924 
66.00328845130382 0.2794911856338376 
67.00328845130382 0.2511298916293385 
68.00328845130382 0.3447585735941995 
69.00328845130382 0.25382025372420564 
70.00328845130382 0.13852408522268353 
71.00328845130382 0.0366913114684559 
72.00328845130382 0.08021943783356501 
73.00328845130382 0.029203801608632923 
74.00328845130382 0.015474129260413954 
75.00328845130382 0.003420532032675495 
76.00328845130382 0.006651269641551931 
77.00328845130382 0.0026334038989724354 
78.00328845130382 0.0026334038989724354 
79.00328845130382 0.0026334038989724354 
80.00328845130382 0.0026334038989724354 
81.00328845130382 0.0026334038989724354 
82.00328845130382 0.0026334038989724354 
83.00328845130382 0.0026334038989724354 
84.00328845130382 0.0026334038989724354 
85.00328845130382 0.0026334038989724354 
86.00328845130382 0.0026334038989724354 
87.00328845130382 0.0026334038989724354 
88.00328845130382 0.0026334038989724354 
89.00328845130382 0.0026334038989724354 
90.00328845130382 0.0026334038989724354 
91.00328845130382 0.0026334038989724354 
92.00328845130382 0.0026334038989724354 
93.00328845130382 0.0026334038989724354 
94.00328845130382 0.0026334038989724354 
95.00328845130382 0.0026334038989724354 
96.00328845130382 0.0026334038989724354 
97.00328845130382 0.0026334038989724354 
98.00328845130382 0.0026334038989724354 
99.00328845130382 0.0026334038989724354 
100.00328845130382 0.0026334038989724354 
101.00328845130382 0.0026334038989724354 
102.00328845130382 0.0026334038989724354 
103.00328845130382 0.0026334038989724354 
#####################################################################
# End of data export. Simulation finished at: 2017-05-21T05:37+0000 #
#####################################################################
