#####################################################################
# Alchemist log file - simulation started at: 2017-05-23T10:20+0000 #
#####################################################################
# random = 5.0, targets = 10.0, density = 0.3174802103936399, gridShift = 1.0, perturbation = 0.0, connfactor = 1.0
#
# The columns have the following meaning: 
# time se[Mean] 
0.0 NaN 
1.0183713707442061 NaN 
2.018371370744206 1.0092410714285713 
3.018371370744206 1.0185714285714287 
4.018371370744206 1.0309474206349207 
5.018371370744206 1.053794642857143 
6.018371370744206 1.117609126984127 
7.018371370744206 1.1643005952380954 
8.018371370744205 1.221155753968254 
9.018371370744205 1.1971974206349207 
10.018371370744205 1.1620337301587302 
11.018371370744205 1.0936011904761906 
12.018371370744205 0.9537103174603175 
13.018371370744205 0.8341865079365081 
14.018371370744205 0.7403174603174604 
15.018371370744205 0.679513888888889 
16.018371370744205 0.5890128968253969 
17.018371370744205 0.5574454365079367 
18.018371370744205 0.4765029761904763 
19.018371370744205 0.4746428571428573 
20.018371370744205 0.4376934523809526 
21.018371370744205 0.42357638888888904 
22.018371370744205 0.39082341269841286 
23.018371370744205 0.3890773809523811 
24.018371370744205 0.37443452380952397 
25.018371370744205 0.3481101190476191 
26.018371370744205 0.3545833333333334 
27.018371370744205 0.3361011904761906 
28.018371370744205 0.3262053571428572 
29.018371370744205 0.34073908730158736 
30.018371370744205 0.32732638888888893 
31.018371370744205 0.32900297619047625 
32.018371370744205 0.34295138888888893 
33.018371370744205 0.33014384920634926 
34.018371370744205 0.3323462301587302 
35.018371370744205 0.33380456349206356 
36.018371370744205 0.3200248015873017 
37.018371370744205 0.31123015873015875 
38.018371370744205 0.3074007936507937 
39.018371370744205 0.2924553571428572 
40.018371370744205 0.2546230158730159 
41.018371370744205 0.29075396825396826 
42.018371370744205 0.20915674603174608 
43.018371370744205 0.2278720238095238 
44.018371370744205 0.22928075396825395 
45.018371370744205 0.14839285714285722 
46.018371370744205 0.1988740079365079 
47.018371370744205 0.20669146825396822 
48.018371370744205 0.1640228174603175 
49.018371370744205 0.18153273809523812 
50.018371370744205 0.18719742063492065 
51.018371370744205 0.17252976190476194 
52.018371370744205 0.17513392857142862 
53.018371370744205 0.1595337301587302 
54.018371370744205 0.15976686507936513 
55.018371370744205 0.15976686507936513 
56.018371370744205 0.16000000000000006 
57.018371370744205 0.16000000000000006 
58.018371370744205 0.16000000000000006 
59.018371370744205 0.16000000000000006 
60.018371370744205 0.16000000000000006 
61.018371370744205 0.16000000000000006 
62.018371370744205 0.16000000000000006 
63.018371370744205 0.16000000000000006 
64.0183713707442 0.16000000000000006 
65.0183713707442 0.16000000000000006 
66.0183713707442 0.16000000000000006 
#####################################################################
# End of data export. Simulation finished at: 2017-05-23T10:20+0000 #
#####################################################################
