#####################################################################
# Alchemist log file - simulation started at: 2017-05-21T16:25+0000 #
#####################################################################
# random = 2.0, targets = 100.0, density = 7.099073319511142, gridShift = 0.0, perturbation = 0.5, connfactor = 0.75
#
# The columns have the following meaning: 
# time se[Mean] 
0.0 NaN 
1.0002668521400264 NaN 
2.0002668521400264 1.0016780293367347 
3.0002668521400264 1.002932563598356 
4.000266852140026 1.0030908234126985 
5.000266852140026 1.0033443408092404 
6.000266852140026 0.998352735260771 
7.000266852140026 0.9956398898100907 
8.000266852140026 0.9945483294359411 
9.000266852140026 0.9910998387896826 
10.000266852140026 0.9897274969883787 
11.000266852140026 0.9876951194019274 
12.000266852140026 0.9867818328373016 
13.000266852140026 0.9854909403344672 
14.000266852140026 0.9848146975977892 
15.000266852140026 0.9831290231717688 
16.000266852140026 0.982380220734127 
17.000266852140026 0.9819973072562358 
18.000266852140026 0.9802226969954649 
19.000266852140026 0.9797571118551588 
20.000266852140026 0.9785450361394558 
21.000266852140026 0.978529545776644 
22.000266852140026 0.9773315795068027 
23.000266852140026 0.9767680874433108 
24.000266852140026 0.9744627232142857 
25.000266852140026 0.9737251851261337 
26.000266852140026 0.9722805564413265 
27.000266852140026 0.971963634672619 
28.000266852140026 0.9705071260274944 
29.000266852140026 0.9679065502763605 
30.000266852140026 0.9658247493268141 
31.000266852140026 0.9621598426870749 
32.00026685214003 0.9578315157312925 
33.00026685214003 0.9509603555484695 
34.00026685214003 0.9449330162273243 
35.00026685214003 0.9330382006448413 
36.00026685214003 0.9245370323129253 
37.00026685214003 0.9152863732993197 
38.00026685214003 0.9026472603103742 
39.00026685214003 0.898150467687075 
40.00026685214003 0.8844068053784014 
41.00026685214003 0.8738973090277776 
42.00026685214003 0.865710862209467 
43.00026685214003 0.8513916702097507 
44.00026685214003 0.846181602536848 
45.00026685214003 0.8376859773596939 
46.00026685214003 0.8287494791666665 
47.00026685214003 0.8208548903415531 
48.00026685214003 0.8129926569586167 
49.00026685214003 0.807360234197846 
50.00026685214003 0.80460018158305 
51.00026685214003 0.7956595494968821 
52.00026685214003 0.7985924505739797 
53.00026685214003 0.7841399332128686 
54.00026685214003 0.7861374167375283 
55.00026685214003 0.7750439829577664 
56.00026685214003 0.7678430466978459 
57.00026685214003 0.7705892113095238 
58.00026685214003 0.7608953984197846 
59.00026685214003 0.7688432699121316 
60.00026685214003 0.7591557690263606 
61.00026685214003 0.7599328284438777 
62.00026685214003 0.7548771161068596 
63.00026685214003 0.7484377471301021 
64.00026685214003 0.7444490008503402 
65.00026685214003 0.7387624441964286 
66.00026685214003 0.728773115965136 
67.00026685214003 0.7249273853812358 
68.00026685214003 0.7137143184878117 
69.00026685214003 0.7014392325680272 
70.00026685214003 0.6948382272179706 
71.00026685214003 0.6783385806405896 
72.00026685214003 0.6743825804280046 
73.00026685214003 0.6605020115858844 
74.00026685214003 0.6499141422193878 
75.00026685214003 0.6474318523242631 
76.00026685214003 0.6362434638959751 
77.00026685214003 0.6261503179917801 
78.00026685214003 0.6181922140731294 
79.00026685214003 0.6105058930342971 
80.00026685214003 0.6058623724489796 
81.00026685214003 0.6052178332270408 
82.00026685214003 0.5948836743551588 
83.00026685214003 0.5892052738803855 
84.00026685214003 0.5854323332979026 
85.00026685214003 0.5795199422477325 
86.00026685214003 0.5808197190334468 
87.00026685214003 0.5708567327451814 
88.00026685214003 0.5748451397746599 
89.00026685214003 0.564438139526644 
90.00026685214003 0.5579424071712018 
91.00026685214003 0.5542952301232994 
92.00026685214003 0.5503802437641724 
93.00026685214003 0.5563382103883221 
94.00026685214003 0.5681813288336168 
95.00026685214003 0.5766125646612812 
96.00026685214003 0.6157019283234126 
97.00026685214003 0.6238050728103741 
98.00026685214003 0.6325979131235827 
99.00026685214003 0.6797367683531745 
100.00026685214003 0.6356190042162697 
101.00026685214003 0.6841693328373014 
102.00026685214003 0.7358873077876982 
103.00026685214003 0.7175023278061223 
104.00026685214003 0.7669898588081066 
105.00026685214003 0.7578268105158728 
106.00026685214003 0.7396920059169498 
107.00026685214003 0.7736034793083898 
108.00026685214003 0.778435221797052 
109.00026685214003 0.78317783446712 
110.00026685214003 0.7816249158517571 
111.00026685214003 0.7364495774872448 
112.00026685214003 0.7858318089214851 
113.00026685214003 0.6973057707979022 
114.00026685214003 0.7543617160926871 
115.00026685214003 0.7609041950113373 
116.00026685214003 0.7529677295918363 
117.00026685214003 0.7449695870535711 
118.00026685214003 0.708181564448696 
119.00026685214003 0.7080241594033444 
120.00026685214003 0.6420276351686507 
121.00026685214003 0.6492263835742629 
122.00026685214003 0.5981353148030043 
123.00026685214003 0.6052571490575398 
124.00026685214003 0.6054427304776074 
125.00026685214003 0.5762392068806691 
126.00026685214003 0.5617571224844102 
127.00026685214003 0.5254168624220519 
128.00026685214004 0.5327403672406462 
129.00026685214004 0.5108857311153628 
130.00026685214004 0.5036695914824263 
131.00026685214004 0.5037892679988663 
132.00026685214004 0.5038981106505102 
133.00026685214004 0.5039747289540816 
134.00026685214004 0.5040102838010204 
135.00026685214004 0.5041138472576531 
136.00026685214004 0.5040820471938775 
137.00026685214004 0.5041091198979591 
138.00026685214004 0.5041045360331633 
139.00026685214004 0.5041 
140.00026685214004 0.5041 
141.00026685214004 0.5041 
142.00026685214004 0.5041 
143.00026685214004 0.5041 
144.00026685214004 0.5041 
145.00026685214004 0.5041 
146.00026685214004 0.5041 
147.00026685214004 0.5041 
148.00026685214004 0.5041 
149.00026685214004 0.5041 
150.00026685214004 0.5041 
151.00026685214004 0.5041 
152.00026685214004 0.5041 
153.00026685214004 0.5041 
154.00026685214004 0.5041 
155.00026685214004 0.5041 
156.00026685214004 0.5041 
157.00026685214004 0.5041 
158.00026685214004 0.5041 
159.00026685214004 0.5041 
160.00026685214004 0.5041 
161.00026685214004 0.5041 
162.00026685214004 0.5041 
163.00026685214004 0.5041 
164.00026685214004 0.5041 
165.00026685214004 0.5041 
166.00026685214004 0.5041 
167.00026685214004 0.5041 
168.00026685214004 0.5041 
169.00026685214004 0.5041 
170.00026685214004 0.5041 
171.00026685214004 0.5041 
172.00026685214004 0.5041 
173.00026685214004 0.5041 
174.00026685214004 0.5041 
175.00026685214004 0.5041 
176.00026685214004 0.5041 
177.00026685214004 0.5041 
178.00026685214004 0.5041 
179.00026685214004 0.5041 
180.00026685214004 0.5041 
181.00026685214004 0.5041 
182.00026685214004 0.5041 
183.00026685214004 0.5041 
184.00026685214004 0.5041 
185.00026685214004 0.5041 
186.00026685214004 0.5041 
187.00026685214004 0.5041 
188.00026685214004 0.5041 
189.00026685214004 0.5041 
190.00026685214004 0.5041 
191.00026685214004 0.5041 
192.00026685214004 0.5041 
193.00026685214004 0.5041 
194.00026685214004 0.5041 
195.00026685214004 0.5041 
196.00026685214004 0.5041 
197.00026685214004 0.5041 
198.00026685214004 0.5041 
199.00026685214004 0.5041 
200.00026685214004 0.5041 
201.00026685214004 0.5041 
#####################################################################
# End of data export. Simulation finished at: 2017-05-21T16:29+0000 #
#####################################################################
