#####################################################################
# Alchemist log file - simulation started at: 2017-05-23T00:35+0000 #
#####################################################################
# random = 10.0, targets = 10.0, density = 2.519842099789746, gridShift = 1.0, perturbation = 0.5, connfactor = 0.75
#
# The columns have the following meaning: 
# time se[Mean] 
0.0 NaN 
1.0036005446229952 NaN 
2.003600544622995 1.0 
3.003600544622995 0.9996792763157895 
4.003600544622995 0.9973318713450292 
5.003600544622995 0.9919864766081872 
6.003600544622995 0.9867626096491228 
7.003600544622995 0.9727560763888888 
8.003600544622994 0.9625057108918128 
9.003600544622994 0.9577551626461988 
10.003600544622994 0.9504050164473683 
11.003600544622994 0.9442852247807019 
12.003600544622994 0.9406700018274853 
13.003600544622994 0.9222791027046784 
14.003600544622994 0.916142635233918 
15.003600544622994 0.8945431286549708 
16.003600544622994 0.8837655336257311 
17.003600544622994 0.8709772478070177 
18.003600544622994 0.8516906524122808 
19.003600544622994 0.8534189967105263 
20.003600544622994 0.8385624543128656 
21.003600544622994 0.8217166940789474 
22.003600544622994 0.8315147569444445 
23.003600544622994 0.8037088815789474 
24.003600544622994 0.8003389985380117 
25.003600544622994 0.798991913377193 
26.003600544622994 0.7756928453947368 
27.003600544622994 0.7584123720760233 
28.003600544622994 0.766552677266082 
29.003600544622994 0.7347471217105261 
30.003600544622994 0.7560309301900584 
31.003600544622994 0.7930589820906432 
32.003600544623 0.7272263340643275 
33.003600544623 0.7784733644005847 
34.003600544623 0.7533915844298245 
35.003600544623 0.6366403965643274 
36.003600544623 0.7227473958333333 
37.003600544623 0.6712253289473684 
38.003600544623 0.5923117690058478 
39.003600544623 0.6607040387426898 
40.003600544623 0.6042710617690058 
41.003600544623 0.5972747624269006 
42.003600544623 0.5531026133040933 
43.003600544623 0.469361293859649 
44.003600544623 0.41319809941520447 
45.003600544623 0.4409872989766081 
46.003600544623 0.3408609740497077 
47.003600544623 0.3803047331871344 
48.003600544623 0.3754054733187133 
49.003600544623 0.41371779057017527 
50.003600544623 0.4451592196637426 
51.003600544623 0.34721902412280703 
52.003600544623 0.5026137609649123 
53.003600544623 0.4474949744152046 
54.003600544623 0.2890688961988304 
55.003600544623 0.4896801900584795 
56.003600544623 0.4229349415204678 
57.003600544623 0.3434192251461989 
58.003600544623 0.49983735380116956 
59.003600544623 0.4660782163742691 
60.003600544623 0.5171418128654973 
61.003600544623 0.4506460160818716 
62.003600544623 0.3726900584795321 
63.003600544623 0.3228051900584795 
64.003600544623 0.41583150584795325 
65.003600544623 0.2774881213450293 
66.003600544623 0.3552695540935672 
67.003600544623 0.3956396198830409 
68.003600544623 0.36446363304093565 
69.003600544623 0.31149214181286544 
70.003600544623 0.22161915204678367 
71.003600544623 0.22905793128654975 
72.003600544623 0.2639300073099415 
73.003600544623 0.16008589181286545 
74.003600544623 0.17713358918128638 
75.003600544623 0.16196911549707596 
76.003600544623 0.12750730994152043 
77.003600544623 0.1379979897660818 
78.003600544623 0.12266812865497062 
79.003600544623 0.09446271929824557 
80.003600544623 0.08150584795321629 
81.003600544623 0.10403143274853799 
82.003600544623 0.06812499999999994 
83.003600544623 0.08615497076023387 
84.003600544623 0.09184941520467838 
85.003600544623 0.08558114035087719 
86.003600544623 0.0625146198830409 
87.003600544623 0.03913011695906436 
88.003600544623 0.05062134502923974 
89.003600544623 0.04479897660818719 
90.003600544623 0.021611842105263186 
91.003600544623 0.03326023391812878 
92.003600544623 0.015815058479532185 
93.003600544623 0.010000000000000035 
94.003600544623 0.010000000000000035 
95.003600544623 0.010000000000000035 
96.003600544623 0.010000000000000035 
97.003600544623 0.010000000000000035 
98.003600544623 0.010000000000000035 
99.003600544623 0.010000000000000035 
100.003600544623 0.010000000000000035 
101.003600544623 0.010000000000000035 
102.003600544623 0.010000000000000035 
103.003600544623 0.010000000000000035 
104.003600544623 0.010000000000000035 
105.003600544623 0.010000000000000035 
106.003600544623 0.010000000000000035 
107.003600544623 0.010000000000000035 
108.003600544623 0.010000000000000035 
109.003600544623 0.010000000000000035 
110.003600544623 0.010000000000000035 
111.003600544623 0.010000000000000035 
112.003600544623 0.010000000000000035 
113.003600544623 0.010000000000000035 
114.003600544623 0.010000000000000035 
115.003600544623 0.010000000000000035 
116.003600544623 0.010000000000000035 
117.003600544623 0.010000000000000035 
118.003600544623 0.010000000000000035 
119.003600544623 0.010000000000000035 
120.003600544623 0.010000000000000035 
121.003600544623 0.010000000000000035 
122.003600544623 0.010000000000000035 
123.003600544623 0.010000000000000035 
124.003600544623 0.010000000000000035 
125.003600544623 0.010000000000000035 
#####################################################################
# End of data export. Simulation finished at: 2017-05-23T00:35+0000 #
#####################################################################
