#####################################################################
# Alchemist log file - simulation started at: 2017-05-25T05:19+0000 #
#####################################################################
# random = 17.0, targets = 1.0, density = 7.099073319511142, gridShift = 1.0, perturbation = 0.5, connfactor = 0.5
#
# The columns have the following meaning: 
# time se[Mean] 
0.0 NaN 
1.0003034458253823 NaN 
2.0003034458253826 1.0 
3.0003034458253826 1.0 
4.0003034458253826 1.0 
5.0003034458253826 1.0 
6.0003034458253826 1.0 
7.0003034458253826 1.0 
8.000303445825383 1.0 
9.000303445825383 1.0 
10.000303445825383 1.0 
11.000303445825383 1.0 
12.000303445825383 1.0 
13.000303445825383 1.0 
14.000303445825383 1.0 
15.000303445825383 1.0 
16.00030344582538 1.0 
17.00030344582538 1.0 
18.00030344582538 1.0 
19.00030344582538 1.0 
20.00030344582538 1.0 
21.00030344582538 1.0 
22.00030344582538 1.0 
23.00030344582538 1.0 
24.00030344582538 1.0 
25.00030344582538 1.0 
26.00030344582538 1.0 
27.00030344582538 1.0 
28.00030344582538 1.0 
29.00030344582538 1.0 
30.00030344582538 1.0 
31.00030344582538 1.0 
32.00030344582538 1.0 
33.00030344582538 1.0 
34.00030344582538 1.0 
35.00030344582538 1.0 
36.00030344582538 1.0 
37.00030344582538 1.0 
38.00030344582538 1.0 
39.00030344582538 1.0 
40.00030344582538 1.0 
41.00030344582538 1.0 
42.00030344582538 1.0 
43.00030344582538 1.0 
44.00030344582538 1.0 
45.00030344582538 1.0 
46.00030344582538 1.0 
47.00030344582538 1.0 
48.00030344582538 1.0 
49.00030344582538 1.0 
50.00030344582538 1.0 
51.00030344582538 1.0 
52.00030344582538 1.0 
53.00030344582538 1.0 
54.00030344582538 1.0 
55.00030344582538 1.0 
56.00030344582538 1.0 
57.00030344582538 1.0 
58.00030344582538 1.0 
59.00030344582538 1.0 
#####################################################################
# End of data export. Simulation finished at: 2017-05-25T05:20+0000 #
#####################################################################
