#####################################################################
# Alchemist log file - simulation started at: 2017-05-24T04:25+0000 #
#####################################################################
# random = 13.0, targets = 100.0, density = 14.160781367816199, gridShift = 0.0, perturbation = 0.5, connfactor = 0.1
#
# The columns have the following meaning: 
# time se[Mean] 
0.0 NaN 
1.0002602723432414 NaN 
2.000260272343241 1.0 
3.000260272343241 1.0 
4.000260272343241 0.9999869165023011 
5.000260272343241 0.9999345825115056 
6.000260272343241 0.9998822485207101 
7.000260272343241 0.9997514135437212 
8.00026027234324 0.9996990795529257 
9.00026027234324 0.9995159105851413 
10.00026027234324 0.9993328731097962 
11.00026027234324 0.9991238001314925 
12.00026027234324 0.9987976331360947 
13.00026027234324 0.9985362261669954 
14.00026027234324 0.9981710716633794 
15.00026027234324 0.9978055226824457 
16.00026027234324 0.9974005917159763 
17.00026027234324 0.9971135437212361 
18.00026027234324 0.9968243918474687 
19.00026027234324 0.9963939513477975 
20.00026027234324 0.9964180144641683 
21.00026027234324 0.996351939513478 
22.00026027234324 0.9960644970414201 
23.00026027234324 0.9961025641025641 
24.00026027234324 0.9959331360946746 
25.00026027234324 0.9956853385930309 
26.00026027234324 0.9954919789612098 
27.00026027234324 0.9952711374095989 
28.00026027234324 0.9951418803418803 
29.00026027234324 0.9947664036817883 
30.00026027234324 0.994584681130835 
31.00026027234324 0.9940947403024326 
32.00026027234324 0.9941299145299145 
33.00026027234324 0.9936008547008547 
34.00026027234324 0.9932537804076266 
35.00026027234324 0.9927638395792242 
36.00026027234324 0.9923999342537804 
37.00026027234324 0.991566600920447 
38.00026027234324 0.9914007232084155 
39.00026027234324 0.9903428007889546 
40.00026027234324 0.9892917817225511 
41.00026027234324 0.9886165680473372 
42.00026027234324 0.988351939513478 
43.00026027234324 0.9867413543721235 
44.00026027234324 0.9858726495726495 
45.00026027234324 0.9847994082840238 
46.00026027234324 0.9846819855358317 
47.00026027234324 0.9824817882971729 
48.00026027234324 0.9820716633793558 
49.00026027234324 0.9808900065746221 
50.00026027234324 0.9784411571334648 
51.00026027234324 0.979350821827745 
52.00026027234324 0.9780439842209072 
53.00026027234324 0.9769534516765285 
54.00026027234324 0.97533063773833 
55.00026027234324 0.9762328731097962 
56.00026027234324 0.9748213017751478 
57.00026027234324 0.974243721236029 
58.00026027234324 0.9737443786982249 
59.00026027234324 0.9718976988823141 
60.00026027234324 0.9712631821170281 
61.00026027234324 0.9709055884286653 
62.00026027234324 0.9700046679815909 
63.00026027234324 0.9689955292570676 
64.00026027234324 0.9682335305719921 
65.00026027234324 0.9666357659434582 
66.00026027234324 0.9652229454306378 
67.00026027234324 0.964084220907298 
68.00026027234324 0.9627664694280079 
69.00026027234324 0.9615188691650229 
70.00026027234324 0.9600314924391847 
71.00026027234324 0.9582268902038132 
72.00026027234324 0.9580919789612097 
73.00026027234324 0.9570159105851413 
74.00026027234324 0.9556295200525969 
75.00026027234324 0.9547694280078896 
76.00026027234324 0.953688888888889 
77.00026027234324 0.9524349112426035 
78.00026027234324 0.9519505588428666 
79.00026027234324 0.9511229454306376 
80.00026027234324 0.9504760026298487 
81.00026027234324 0.9499721893491123 
82.00026027234324 0.9490952662721894 
83.00026027234324 0.948169493754109 
84.00026027234324 0.9469170282708745 
85.00026027234324 0.9452337278106507 
86.00026027234324 0.9435464825772516 
87.00026027234324 0.942148060486522 
88.00026027234324 0.940303747534517 
89.00026027234324 0.9382015121630507 
90.00026027234324 0.9360378698224852 
91.00026027234324 0.9347183431952661 
92.00026027234324 0.9338042077580538 
93.00026027234324 0.9317969756738989 
94.00026027234324 0.9305631163708086 
95.00026027234324 0.9300126232741617 
96.00026027234324 0.92877738330046 
97.00026027234324 0.9273628533859304 
98.00026027234324 0.9272499013806705 
99.00026027234324 0.9230417488494413 
100.00026027234324 0.9236884944115713 
101.00026027234324 0.925757922419461 
102.00026027234324 0.9243429322813937 
103.00026027234324 0.9240196581196581 
104.00026027234324 0.9250131492439184 
105.00026027234324 0.9273332018408941 
106.00026027234324 0.9277647600262985 
107.00026027234324 0.9297919132149901 
108.00026027234324 0.9282763971071663 
109.00026027234324 0.9259293228139381 
110.00026027234324 0.927085798816568 
111.00026027234324 0.9266691650230111 
112.00026027234324 0.927568047337278 
113.00026027234324 0.9276604207758055 
114.00026027234324 0.9261726495726494 
115.00026027234324 0.9269527942143327 
116.00026027234324 0.9249811308349769 
117.00026027234324 0.9242595660749505 
118.00026027234324 0.9267516107823799 
119.00026027234324 0.9262683103221566 
120.00026027234324 0.9247056541748848 
121.00026027234324 0.926069690992768 
122.00026027234324 0.9258119000657463 
123.00026027234324 0.9277848783694936 
124.00026027234324 0.9312568047337278 
125.00026027234324 0.9323911900065747 
126.00026027234324 0.9340332675871136 
127.00026027234324 0.9351980933596318 
128.00026027234324 0.9370388560157791 
129.00026027234324 0.9374653517422747 
130.00026027234324 0.9369036160420774 
131.00026027234324 0.9364446416831033 
132.00026027234324 0.9368135437212359 
133.00026027234324 0.937745956607495 
134.00026027234324 0.9374952662721893 
135.00026027234324 0.9380437869822486 
136.00026027234324 0.9381053911900066 
137.00026027234324 0.9379781065088757 
138.00026027234324 0.9388816568047337 
139.00026027234324 0.9392923734385272 
140.00026027234324 0.9390738330046022 
141.00026027234324 0.9386553583168967 
142.00026027234324 0.9381611439842208 
143.00026027234324 0.9377299802761341 
144.00026027234324 0.9370840236686391 
145.00026027234324 0.9366773175542406 
146.00026027234324 0.9354207100591716 
147.00026027234324 0.9340615384615385 
148.00026027234324 0.931149835634451 
149.00026027234324 0.9293699539776461 
150.00026027234324 0.9274901380670613 
151.00026027234324 0.9239159763313611 
152.00026027234324 0.9222005917159763 
153.00026027234324 0.9161358316896776 
154.00026027234324 0.9189833004602235 
155.00026027234324 0.9131461538461537 
156.00026027234324 0.912065483234714 
157.00026027234324 0.9097015121630505 
158.00026027234324 0.9106415516107823 
159.00026027234324 0.9041040105193949 
160.00026027234324 0.9068011834319526 
161.00026027234324 0.902743129520053 
162.00026027234324 0.8925053254437871 
163.00026027234324 0.9046305719921104 
164.00026027234324 0.8980543063773833 
165.00026027234324 0.8998631163708085 
166.00026027234324 0.8953839579224194 
167.00026027234324 0.9041918474687706 
168.00026027234324 0.9019276791584484 
169.00026027234324 0.9050080210387902 
170.00026027234324 0.9078866535174227 
171.00026027234324 0.898077120315582 
172.00026027234324 0.9002017094017094 
173.00026027234324 0.9010057199211045 
174.00026027234324 0.8978251808021038 
175.00026027234324 0.9048859960552267 
176.00026027234324 0.8963376725838266 
177.00026027234324 0.9000119000657463 
178.00026027234324 0.8992743589743589 
179.00026027234324 0.8926070348454963 
180.00026027234324 0.8973143326758712 
181.00026027234324 0.9008506903353057 
182.00026027234324 0.8942216962524655 
183.00026027234324 0.8959144641683106 
184.00026027234324 0.8982047994740304 
185.00026027234324 0.8945285996055223 
186.00026027234324 0.9053545693622614 
187.00026027234324 0.9053420118343193 
188.00026027234324 0.9095277449046681 
189.00026027234324 0.9107738987508222 
190.00026027234324 0.9137260355029584 
191.00026027234324 0.9167660749506903 
192.00026027234324 0.9150098619329389 
193.00026027234324 0.9150224194608808 
194.00026027234324 0.913228533859303 
195.00026027234324 0.9168163050624589 
196.00026027234324 0.9162183431952661 
197.00026027234324 0.9162183431952661 
198.00026027234324 0.9186101906640369 
199.00026027234324 0.9168163050624589 
200.00026027234324 0.9192081525312293 
201.00026027234324 0.9210020381328073 
202.00026027234324 0.9216 
203.00026027234324 0.9216 
204.00026027234324 0.9216 
205.00026027234324 0.9216 
206.00026027234324 0.9216 
207.00026027234324 0.9216 
208.00026027234324 0.9216 
209.00026027234324 0.9216 
210.00026027234324 0.9216 
211.00026027234324 0.9216 
212.00026027234324 0.9216 
213.00026027234324 0.9216 
214.00026027234324 0.9216 
215.00026027234324 0.9216 
216.00026027234324 0.9216 
217.00026027234324 0.9216 
218.00026027234324 0.9216 
219.00026027234324 0.9216 
220.00026027234324 0.9216 
221.00026027234324 0.9216 
222.00026027234324 0.9216 
223.00026027234324 0.9216 
224.00026027234324 0.9216 
225.00026027234324 0.9216 
226.00026027234324 0.9216 
227.00026027234324 0.9216 
228.00026027234324 0.9216 
229.00026027234324 0.9216 
230.00026027234324 0.9216 
231.00026027234324 0.9216 
232.00026027234324 0.9216 
233.00026027234324 0.9216 
234.00026027234324 0.9216 
235.00026027234324 0.9216 
236.00026027234324 0.9216 
237.00026027234324 0.9216 
238.00026027234324 0.9216 
239.00026027234324 0.9216 
240.00026027234324 0.9216 
241.00026027234324 0.9216 
242.00026027234324 0.9216 
243.00026027234324 0.9216 
244.00026027234324 0.9216 
245.00026027234324 0.9216 
246.00026027234324 0.9216 
247.00026027234324 0.9216 
248.00026027234324 0.9216 
249.00026027234324 0.9216 
250.00026027234324 0.9216 
251.00026027234324 0.9216 
252.00026027234324 0.9216 
253.00026027234324 0.9216 
254.00026027234324 0.9216 
255.00026027234324 0.9216 
256.0002602723432 0.9216 
257.0002602723432 0.9216 
258.0002602723432 0.9216 
259.0002602723432 0.9216 
260.0002602723432 0.9216 
261.0002602723432 0.9216 
262.0002602723432 0.9216 
263.0002602723432 0.9216 
264.0002602723432 0.9216 
265.0002602723432 0.9216 
266.0002602723432 0.9216 
267.0002602723432 0.9216 
268.0002602723432 0.9216 
269.0002602723432 0.9216 
270.0002602723432 0.9216 
271.0002602723432 0.9216 
272.0002602723432 0.9216 
273.0002602723432 0.9216 
274.0002602723432 0.9216 
275.0002602723432 0.9216 
276.0002602723432 0.9216 
277.0002602723432 0.9216 
278.0002602723432 0.9216 
279.0002602723432 0.9216 
280.0002602723432 0.9216 
281.0002602723432 0.9216 
282.0002602723432 0.9216 
283.0002602723432 0.9216 
284.0002602723432 0.9216 
285.0002602723432 0.9216 
286.0002602723432 0.9216 
287.0002602723432 0.9216 
288.0002602723432 0.9216 
289.0002602723432 0.9216 
290.0002602723432 0.9216 
291.0002602723432 0.9216 
292.0002602723432 0.9216 
#####################################################################
# End of data export. Simulation finished at: 2017-05-24T04:29+0000 #
#####################################################################
