#####################################################################
# Alchemist log file - simulation started at: 2017-05-25T15:13+0000 #
#####################################################################
# random = 18.0, targets = 10.0, density = 0.05649405772326896, gridShift = 1.0, perturbation = 0.0, connfactor = 0.25
#
# The columns have the following meaning: 
# time se[Mean] 
0.0 NaN 
1.0067713218599703 NaN 
2.0067713218599703 0.9775 
3.0067713218599703 1.0 
4.00677132185997 0.98265625 
5.00677132185997 0.9653125 
6.00677132185997 0.91328125 
7.00677132185997 0.7946875 
8.00677132185997 0.73734375 
9.00677132185997 0.6590625 
10.00677132185997 0.53828125 
11.00677132185997 0.50109375 
12.00677132185997 0.4921875 
13.00677132185997 0.46953125 
14.00677132185997 0.47734375 
15.00677132185997 0.473125 
16.006771321859972 0.48578125 
17.006771321859972 0.4815625 
18.006771321859972 0.49 
19.006771321859972 0.49 
20.006771321859972 0.49 
21.006771321859972 0.49 
22.006771321859972 0.49 
#####################################################################
# End of data export. Simulation finished at: 2017-05-25T15:13+0000 #
#####################################################################
