#####################################################################
# Alchemist log file - simulation started at: 2017-05-26T02:25+0000 #
#####################################################################
# random = 9.0, targets = 1.0, density = 20.0, gridShift = 0.0, perturbation = 0.5, connfactor = 2.0
#
# The columns have the following meaning: 
# time se[Mean] 
0.0 NaN 
1.0003374459614243 NaN 
2.0003374459614243 NaN 
3.0003374459614243 1.0681842049989507 
4.000337445961424 1.0896246849401396 
5.000337445961424 1.1140451060701548 
6.000337445961424 1.153736084856124 
7.000337445961424 1.0953252993068705 
8.000337445961424 1.2796418819575777 
9.000337445961424 1.2544338111741222 
10.000337445961424 1.4116158632640123 
11.000337445961424 1.572847747321983 
12.000337445961424 1.6830530613316628 
13.000337445961424 2.2875938615837232 
14.000337445961424 2.4884182682209475 
15.000337445961424 3.0931461352657204 
16.000337445961424 3.823001995379148 
17.000337445961424 4.010905665826444 
18.000337445961424 4.910729757403967 
19.000337445961424 4.769691241335918 
20.000337445961424 4.665097931106861 
21.000337445961424 4.889594491703402 
22.000337445961424 4.716853077084647 
23.000337445961424 4.680407871245474 
24.000337445961424 4.2562093047679594 
25.000337445961424 4.130480728838529 
26.000337445961424 3.9683069470699808 
27.000337445961424 3.9471716813694515 
28.000337445961424 3.716849795211067 
29.000337445961424 3.4500827032136367 
30.000337445961424 3.601688852131934 
31.000337445961424 3.2562060228943714 
32.00033744596142 2.5758079972694596 
33.00033744596142 2.900155560806576 
34.00033744596142 2.507659892879618 
35.00033744596142 2.0364484877126707 
36.00033744596142 2.3243508454106143 
37.00033744596142 1.8637070730938796 
38.00033744596142 1.6909656584751103 
39.00033744596142 1.9212875446334767 
40.00033744596142 1.5758047153959254 
41.00033744596142 1.4030633007771471 
42.00033744596142 1.518224243856341 
43.00033744596142 1.4606437723167365 
44.00033744596142 1.230321886158368 
45.00033744596142 1.345482829237555 
46.00033744596142 1.1727414146187771 
47.00033744596142 1.0575804715395918 
48.00033744596142 0.999855597563537 
49.00033744596142 0.9992779878176854 
50.00033744596142 0.9989891829447595 
51.00033744596142 0.9982671707624449 
52.00033744596142 0.997978365889519 
53.00033744596142 0.9978339634530561 
54.00033744596142 0.9972563537072043 
55.00033744596142 0.9965343415248896 
56.00033744596142 0.9958123293425751 
57.00033744596142 0.9954053770216342 
58.00033744596142 0.9937513127494225 
59.00033744596142 0.9895898970804455 
60.00033744596142 0.9860618830077712 
61.00033744596142 0.9816805818105436 
62.00033744596142 0.9816772999369883 
63.00033744596142 0.9855991388363792 
64.00033744596142 0.9917723429951691 
65.00033744596142 1.0003183417349297 
66.00033744596142 1.0671504148288176 
67.00033744596142 1.3336746481831592 
68.00033744596142 1.5333930634320447 
69.00033744596142 1.9438832440663787 
70.00033744596142 2.194316451375747 
71.00033744596142 2.3941398865784382 
72.00033744596142 2.751089582020604 
73.00033744596142 3.1942540957781924 
74.00033744596142 3.6402771214030882 
75.00033744596142 3.696889440243641 
76.00033744596142 3.791656821045989 
77.00033744596142 4.203659945389648 
78.00033744596142 4.096208123293452 
79.00033744596142 4.431648419449722 
80.00033744596142 4.994082781978578 
81.00033744596142 5.020889125183811 
82.00033744596142 5.5284636893509775 
83.00033744596142 5.844242281033414 
84.00033744596142 6.301627152909036 
85.00033744596142 6.501677037387113 
86.00033744596142 6.937165248897301 
87.00033744596142 6.897349558916183 
88.00033744596142 7.4774929111530835 
89.00033744596142 7.808200745641659 
90.00033744596142 7.9838663095988425 
91.00033744596142 8.810281453476156 
92.00033744596142 9.14592194391935 
93.00033744596142 9.288804872925846 
94.00033744596142 9.655813510817064 
95.00033744596142 10.426564797311487 
96.00033744596142 10.715107120352867 
97.00033744596142 11.522559598823777 
98.00033744596142 11.654169292165513 
99.00033744596142 11.820438852131911 
100.00033744596142 12.866910181684524 
101.00033744596142 12.879867018483523 
102.00033744596142 13.002464687040538 
103.00033744596142 13.111938143247219 
104.00033744596142 13.082434099978984 
105.00033744596142 12.660769139886582 
106.00033744596142 13.474572043688298 
107.00033744596142 13.421953764965354 
108.00033744596142 13.757673020373879 
109.00033744596142 13.675403014072685 
110.00033744596142 13.706446256038646 
111.00033744596142 13.735733695652163 
112.00033744596142 13.957309388783878 
113.00033744596142 14.610408790170148 
114.00033744596142 15.184877783028778 
115.00033744596142 16.047426354757395 
116.00033744596142 16.34535483616888 
117.00033744596142 16.74904825666877 
118.00033744596142 17.47846434572569 
119.00033744596142 18.40749711195131 
120.00033744596142 19.10869893404751 
121.00033744596142 19.15850136525941 
122.00033744596142 19.418173046628887 
123.00033744596142 20.31810872190719 
124.00033744596142 20.209587009031722 
125.00033744596142 20.799280613316558 
126.00033744596142 21.82542729993701 
127.00033744596142 21.775286835748826 
128.0003374459614 22.64173099138837 
129.0003374459614 23.150004594622946 
130.0003374459614 23.76221513337534 
131.0003374459614 23.95383388468808 
132.0003374459614 24.582585066162604 
133.0003374459614 24.431165984036962 
134.0003374459614 25.341702110901064 
135.0003374459614 25.738214792060496 
136.0003374459614 25.808673335433713 
137.0003374459614 26.993022736819995 
138.0003374459614 27.206794134635608 
139.0003374459614 26.990702452215917 
140.0003374459614 27.41117937408108 
141.0003374459614 28.339289933837424 
142.0003374459614 28.31509924385635 
143.0003374459614 29.07990705734091 
144.0003374459614 28.836418294475944 
145.0003374459614 28.64128465658476 
146.0003374459614 29.980676328502394 
147.0003374459614 29.32440335538749 
148.0003374459614 28.967512733669388 
149.0003374459614 28.758162019533707 
150.0003374459614 38.25536586326395 
151.0003374459614 75.43755250997744 
152.0003374459614 95.96661350031552 
153.0003374459614 143.78904773157035 
154.0003374459614 163.21362699538045 
155.0003374459614 172.0681382587709 
156.0003374459614 210.78168648918435 
157.0003374459614 258.5999002310416 
158.0003374459614 297.180059992648 
159.0003374459614 268.78527685885257 
160.0003374459614 259.1176650126041 
161.0003374459614 306.9812309651322 
162.0003374459614 258.33868606910147 
163.0003374459614 287.54472865469324 
164.0003374459614 355.08223062381836 
165.0003374459614 315.95118213085624 
166.0003374459614 364.9939219701743 
167.0003374459614 382.9512215133376 
168.0003374459614 413.3632082283129 
169.0003374459614 401.4604501417767 
170.0003374459614 431.0948559913865 
171.0003374459614 382.3612686410405 
172.0003374459614 439.74131944444923 
173.0003374459614 448.6371462140301 
174.0003374459614 419.5584534499068 
175.0003374459614 505.60656571623457 
176.0003374459614 495.37010672652474 
177.0003374459614 447.37737935832814 
178.0003374459614 456.8950752205424 
179.0003374459614 524.0231339266982 
180.0003374459614 495.2180739340445 
181.0003374459614 552.742573120147 
182.0003374459614 504.7716997479516 
183.0003374459614 466.4416876706599 
184.0003374459614 581.5223692501563 
185.0003374459614 504.7759103917202 
186.0003374459614 456.760721880906 
187.0003374459614 427.9091380487307 
188.0003374459614 408.6998103077095 
189.0003374459614 283.9620320048302 
190.0003374459614 408.6855768220956 
191.0003374459614 389.47725661625714 
192.0003374459614 408.64667349296377 
193.0003374459614 331.86652948435204 
194.0003374459614 360.6868304977945 
195.0003374459614 341.45444759504306 
196.0003374459614 360.65354573619027 
197.0003374459614 399.05755421655124 
198.0003374459614 389.385616860954 
199.0003374459614 379.7710269638736 
200.0003374459614 312.6547994118884 
201.0003374459614 351.04577557235706 
202.0003374459614 389.3429032766233 
203.0003374459614 312.64136670342396 
204.0003374459614 418.09903709829666 
205.0003374459614 293.45670880592394 
206.0003374459614 456.528309441296 
207.0003374459614 226.16381471854692 
208.0003374459614 312.5609509556815 
209.0003374459614 235.82592286284324 
210.0003374459614 216.6314357540433 
211.0003374459614 149.46447371875414 
212.0003374459614 120.76949761079482 
213.0003374459614 91.85454736400006 
214.0003374459614 34.29495510396976 
215.0003374459614 34.275103050829564 
216.0003374459614 24.743331232934256 
217.0003374459614 24.719268536021843 
218.0003374459614 24.735310333963454 
219.0003374459614 24.719268536021843 
220.0003374459614 24.687184940138625 
221.0003374459614 24.69520583910943 
222.0003374459614 24.70322673808024 
223.0003374459614 24.759373030875867 
224.0003374459614 24.727289434992652 
225.0003374459614 24.69520583910943 
226.0003374459614 24.759373030875867 
227.0003374459614 24.67114314219702 
228.0003374459614 24.775414828817475 
229.0003374459614 24.6390595463138 
230.0003374459614 24.831561121613106 
231.0003374459614 24.759373030875867 
232.0003374459614 24.8235402226423 
233.0003374459614 24.839582020583908 
234.0003374459614 24.895728313379546 
235.0003374459614 24.919791010291956 
236.0003374459614 24.94385370720437 
237.0003374459614 24.991979101029195 
238.0003374459614 24.991979101029195 
239.0003374459614 25.0 
240.0003374459614 25.0 
241.0003374459614 25.0 
242.0003374459614 25.0 
243.0003374459614 25.0 
244.0003374459614 25.0 
245.0003374459614 25.0 
246.0003374459614 25.0 
247.0003374459614 25.0 
248.0003374459614 25.0 
249.0003374459614 25.0 
250.0003374459614 25.0 
251.0003374459614 25.0 
252.0003374459614 25.0 
253.0003374459614 25.0 
254.0003374459614 25.0 
255.0003374459614 25.0 
256.0003374459614 25.0 
257.0003374459614 25.0 
258.0003374459614 25.0 
259.0003374459614 25.0 
260.0003374459614 25.0 
261.0003374459614 25.0 
262.0003374459614 25.0 
263.0003374459614 25.0 
264.0003374459614 25.0 
265.0003374459614 25.0 
266.0003374459614 25.0 
267.0003374459614 25.0 
268.0003374459614 25.0 
269.0003374459614 25.0 
270.0003374459614 25.0 
271.0003374459614 25.0 
272.0003374459614 25.0 
273.0003374459614 25.0 
274.0003374459614 25.0 
275.0003374459614 25.0 
276.0003374459614 25.0 
277.0003374459614 25.0 
278.0003374459614 25.0 
279.0003374459614 25.0 
280.0003374459614 25.0 
281.0003374459614 25.0 
282.0003374459614 25.0 
283.0003374459614 25.0 
284.0003374459614 25.0 
285.0003374459614 25.0 
286.0003374459614 25.0 
287.0003374459614 25.0 
288.0003374459614 25.0 
289.0003374459614 25.0 
290.0003374459614 25.0 
291.0003374459614 25.0 
292.0003374459614 25.0 
293.0003374459614 25.0 
294.0003374459614 25.0 
295.0003374459614 25.0 
296.0003374459614 25.0 
297.0003374459614 25.0 
298.0003374459614 25.0 
299.0003374459614 25.0 
300.0003374459614 25.0 
301.0003374459614 25.0 
302.0003374459614 25.0 
303.0003374459614 25.0 
304.0003374459614 25.0 
305.0003374459614 25.0 
306.0003374459614 25.0 
307.0003374459614 25.0 
308.0003374459614 25.0 
309.0003374459614 25.0 
310.0003374459614 25.0 
311.0003374459614 25.0 
312.0003374459614 25.0 
313.0003374459614 25.0 
314.0003374459614 25.0 
315.0003374459614 25.0 
316.0003374459614 25.0 
317.0003374459614 25.0 
318.0003374459614 25.0 
319.0003374459614 25.0 
320.0003374459614 25.0 
321.0003374459614 25.0 
322.0003374459614 25.0 
323.0003374459614 25.0 
324.0003374459614 25.0 
325.0003374459614 25.0 
326.0003374459614 25.0 
327.0003374459614 25.0 
328.0003374459614 25.0 
329.0003374459614 25.0 
330.0003374459614 25.0 
331.0003374459614 25.0 
332.0003374459614 25.0 
333.0003374459614 25.0 
334.0003374459614 25.0 
335.0003374459614 25.0 
336.0003374459614 25.0 
337.0003374459614 25.0 
338.0003374459614 25.0 
339.0003374459614 25.0 
340.0003374459614 25.0 
341.0003374459614 25.0 
342.0003374459614 25.0 
343.0003374459614 25.0 
344.0003374459614 25.0 
345.0003374459614 25.0 
#####################################################################
# End of data export. Simulation finished at: 2017-05-26T02:47+0000 #
#####################################################################
