#####################################################################
# Alchemist log file - simulation started at: 2017-05-25T15:59+0000 #
#####################################################################
# random = 8.0, targets = 31.622776601683793, density = 0.6332893950589894, gridShift = 1.0, perturbation = 0.0, connfactor = 1.0
#
# The columns have the following meaning: 
# time se[Mean] 
0.0 NaN 
1.0447112257851685 NaN 
2.0447112257851687 1.0297840853482008 
3.0447112257851687 1.0486215435207724 
4.044711225785169 1.0533405289563118 
5.044711225785169 1.0563198148643564 
6.044711225785169 1.0330257498744921 
7.044711225785169 1.0136613102335068 
8.044711225785168 0.9892726403837772 
9.044711225785168 0.9722882686309587 
10.044711225785168 0.9679208944241399 
11.044711225785168 0.9324564575769154 
12.044711225785168 0.9278519331861148 
13.044711225785168 0.9130209400254076 
14.044711225785168 0.8698687256617595 
15.044711225785168 0.8609675512045865 
16.044711225785168 0.8364652538394671 
17.044711225785168 0.8318005277938642 
18.044711225785168 0.8026314878351184 
19.044711225785168 0.788317599599615 
20.044711225785168 0.7680148267559734 
21.044711225785168 0.7336005503241699 
22.044711225785168 0.6987781833225397 
23.044711225785168 0.676913050470644 
24.044711225785168 0.6633579975651046 
25.044711225785168 0.6445646443961431 
26.044711225785168 0.6257014106645754 
27.044711225785168 0.6236043696081419 
28.044711225785168 0.6173262423410387 
29.044711225785168 0.6099520966207556 
30.044711225785168 0.6185029316370944 
31.044711225785168 0.5973981508069307 
32.044711225785164 0.6047498809503364 
33.044711225785164 0.5874444785554715 
34.044711225785164 0.5613018213911815 
35.044711225785164 0.5624398337629958 
36.044711225785164 0.5447908963799952 
37.044711225785164 0.5503444167775349 
38.044711225785164 0.5461751907188641 
39.044711225785164 0.5309669425273775 
40.044711225785164 0.5166550708398976 
41.044711225785164 0.4969669051271738 
42.044711225785164 0.46683507118238726 
43.044711225785164 0.4547102322511937 
44.044711225785164 0.44212155383996277 
45.044711225785164 0.4330401324692094 
46.044711225785164 0.42861075202421245 
47.044711225785164 0.42768677676784134 
48.044711225785164 0.42668487764751334 
49.044711225785164 0.4262228900193278 
50.044711225785164 0.4257609023911422 
51.044711225785164 0.4254529106390185 
52.044711225785164 0.42529891476295667 
53.044711225785164 0.42529891476295667 
54.044711225785164 0.42529891476295667 
55.044711225785164 0.42529891476295667 
56.044711225785164 0.42529891476295667 
57.044711225785164 0.42529891476295667 
58.044711225785164 0.42529891476295667 
59.044711225785164 0.42529891476295667 
60.044711225785164 0.42529891476295667 
61.044711225785164 0.42529891476295667 
62.044711225785164 0.42529891476295667 
63.044711225785164 0.42529891476295667 
64.04471122578516 0.42529891476295667 
65.04471122578516 0.42529891476295667 
66.04471122578516 0.42529891476295667 
67.04471122578516 0.42529891476295667 
68.04471122578516 0.42529891476295667 
#####################################################################
# End of data export. Simulation finished at: 2017-05-25T16:00+0000 #
#####################################################################
