#####################################################################
# Alchemist log file - simulation started at: 2017-05-26T02:16+0000 #
#####################################################################
# random = 9.0, targets = 1.0, density = 20.0, gridShift = 0.0, perturbation = 0.5, connfactor = 0.25
#
# The columns have the following meaning: 
# time se[Mean] 
0.0 NaN 
1.0003374459614243 NaN 
2.0003374459614243 NaN 
3.0003374459614243 1.0 
4.000337445961424 0.9995274102079396 
5.000337445961424 0.9976370510396976 
6.000337445961424 0.9985822306238186 
7.000337445961424 0.9938563327032137 
8.000337445961424 0.9943289224952739 
9.000337445961424 0.989603024574669 
10.000337445961424 0.9891304347826086 
11.000337445961424 0.9877126654064274 
12.000337445961424 0.9867674858223064 
13.000337445961424 0.9886578449905481 
14.000337445961424 0.9881852551984878 
15.000337445961424 0.9886578449905481 
16.000337445961424 0.9924385633270322 
17.000337445961424 0.991493383742911 
18.000337445961424 0.9976370510396976 
19.000337445961424 0.9962192816635161 
20.000337445961424 0.9957466918714555 
21.000337445961424 0.9985822306238186 
22.000337445961424 0.9985822306238186 
23.000337445961424 0.9976370510396976 
24.000337445961424 0.9985822306238186 
25.000337445961424 0.999054820415879 
26.000337445961424 0.9985822306238186 
27.000337445961424 0.9995274102079396 
28.000337445961424 0.9995274102079396 
29.000337445961424 0.9985822306238186 
30.000337445961424 0.9995274102079396 
31.000337445961424 0.9995274102079396 
32.00033744596142 0.999054820415879 
33.00033744596142 1.0 
34.00033744596142 0.9995274102079396 
35.00033744596142 1.0 
36.00033744596142 1.0 
37.00033744596142 1.0 
38.00033744596142 1.0 
39.00033744596142 1.0 
40.00033744596142 1.0 
41.00033744596142 1.0 
42.00033744596142 1.0 
43.00033744596142 1.0 
44.00033744596142 1.0 
45.00033744596142 1.0 
46.00033744596142 1.0 
47.00033744596142 1.0 
48.00033744596142 1.0 
49.00033744596142 1.0 
50.00033744596142 1.0 
51.00033744596142 1.0 
52.00033744596142 1.0 
53.00033744596142 1.0 
54.00033744596142 1.0 
55.00033744596142 1.0 
56.00033744596142 1.0 
57.00033744596142 1.0 
58.00033744596142 1.0 
59.00033744596142 1.0 
60.00033744596142 1.0 
61.00033744596142 1.0 
62.00033744596142 1.0 
63.00033744596142 1.0 
64.00033744596142 1.0 
65.00033744596142 1.0 
66.00033744596142 1.0 
67.00033744596142 1.0 
68.00033744596142 1.0014177693761814 
69.00033744596142 1.0066162570888466 
70.00033744596142 1.0070888468809076 
71.00033744596142 1.0108695652173914 
72.00033744596142 1.0080340264650285 
73.00033744596142 1.0028355387523629 
74.00033744596142 1.0014177693761814 
75.00033744596142 0.9995274102079396 
76.00033744596142 0.9938563327032137 
77.00033744596142 0.9763705103969753 
78.00033744596142 0.9631379962192821 
79.00033744596142 0.9588846880907377 
80.00033744596142 0.9380907372400765 
81.00033744596142 0.9310018903591673 
82.00033744596142 0.9281663516068055 
83.00033744596142 0.906427221172022 
84.00033744596142 0.8993383742911156 
85.00033744596142 0.8856332703213596 
86.00033744596142 0.8724007561436682 
87.00033744596142 0.8520793950850657 
88.00033744596142 0.8379017013232523 
89.00033744596142 0.8109640831758026 
90.00033744596142 0.8019848771266523 
91.00033744596142 0.7830812854442325 
92.00033744596142 0.7580340264650299 
93.00033744596142 0.7514177693761841 
94.00033744596142 0.7263705103969753 
95.00033744596142 0.6961247637051049 
96.00033744596142 0.6767485822306212 
97.00033744596142 0.6654064272211727 
98.00033744596142 0.6365784499054795 
99.00033744596142 0.6219281663516053 
100.00033744596142 0.5888468809073728 
101.00033744596142 0.5595463137996243 
102.00033744596142 0.5548204158790162 
103.00033744596142 0.5160680529300578 
104.00033744596142 0.48393194706994475 
105.00033744596142 0.45982986767485934 
106.00033744596142 0.4343100189035905 
107.00033744596142 0.39886578449905513 
108.00033744596142 0.40170132325141833 
109.00033744596142 0.3733459357277873 
110.00033744596142 0.35586011342155077 
111.00033744596142 0.3270321361058592 
112.00033744596142 0.3086011342155014 
113.00033744596142 0.29395085066162535 
114.00033744596142 0.2811909262759926 
115.00033744596142 0.2566162570888467 
116.00033744596142 0.24810964083175854 
117.00033744596142 0.24054820415878955 
118.00033744596142 0.2202268431001887 
119.00033744596142 0.21739130434782655 
120.00033744596142 0.2069943289224956 
121.00033744596142 0.19234404536861982 
122.00033744596142 0.18336483931947062 
123.00033744596142 0.17202268431001874 
124.00033744596142 0.16209829867674855 
125.00033744596142 0.15595463137996188 
126.00033744596142 0.14697542533081273 
127.00033744596142 0.13752362948960326 
128.0003374459614 0.12570888468809094 
129.0003374459614 0.11767485822306284 
130.0003374459614 0.1091682419659732 
131.0003374459614 0.10160680529300552 
132.0003374459614 0.09120982986767465 
133.0003374459614 0.08128544423440477 
134.0003374459614 0.07277882797731533 
135.0003374459614 0.06521739130434795 
136.0003374459614 0.05245746691871464 
137.0003374459614 0.042060491493383714 
138.0003374459614 0.03308128544423441 
139.0003374459614 0.02646502835538765 
140.0003374459614 0.01843100189035897 
141.0003374459614 0.01228733459357269 
142.0003374459614 0.00850661625708894 
143.0003374459614 0.006143667296786321 
144.0003374459614 0.002362948960302429 
145.0003374459614 0.0014177693761815045 
146.0003374459614 0.0 
147.0003374459614 0.0 
148.0003374459614 0.0 
149.0003374459614 0.0 
150.0003374459614 0.3445179584120987 
151.0003374459614 1.7225897920604936 
152.0003374459614 2.4116257088846664 
153.0003374459614 4.134215500945185 
154.0003374459614 4.823251417769356 
155.0003374459614 5.167769376181399 
156.0003374459614 6.545841209829831 
157.0003374459614 8.268431001890368 
158.0003374459614 9.646502835538763 
159.0003374459614 8.612948960302345 
160.0003374459614 8.26843100189037 
161.0003374459614 9.991020793950739 
162.0003374459614 8.26843100189037 
163.0003374459614 9.301984877126635 
164.0003374459614 11.713610586011248 
165.0003374459614 10.335538752362895 
166.0003374459614 12.058128544423443 
167.0003374459614 12.747164461247522 
168.0003374459614 13.780718336483947 
169.0003374459614 13.436200378071812 
170.0003374459614 14.46975425330811 
171.0003374459614 12.747164461247568 
172.0003374459614 14.814272211720205 
173.0003374459614 15.158790170132344 
174.0003374459614 14.125236294895917 
175.0003374459614 17.225897920604933 
176.0003374459614 16.881379962192707 
177.0003374459614 15.158790170132342 
178.0003374459614 15.503308128544374 
179.0003374459614 17.914933837429132 
180.0003374459614 16.881379962192703 
181.0003374459614 18.948487712665464 
182.0003374459614 17.225897920604876 
183.0003374459614 15.847826086956417 
184.0003374459614 19.98204158790154 
185.0003374459614 17.225897920604652 
186.0003374459614 15.503308128544319 
187.0003374459614 14.469754253308144 
188.0003374459614 13.780718336483947 
189.0003374459614 9.30198487712663 
190.0003374459614 13.780718336483947 
191.0003374459614 13.091682419659705 
192.0003374459614 13.780718336483947 
193.0003374459614 11.024574669187158 
194.0003374459614 12.058128544423452 
195.0003374459614 11.369092627599256 
196.0003374459614 12.058128544423454 
197.0003374459614 13.43620037807181 
198.0003374459614 13.091682419659746 
199.0003374459614 12.747164461247548 
200.0003374459614 10.33553875236296 
201.0003374459614 11.713610586011354 
202.0003374459614 13.091682419659746 
203.0003374459614 10.335538752362961 
204.0003374459614 14.125236294895918 
205.0003374459614 9.646502835538763 
206.0003374459614 15.503308128544345 
207.0003374459614 7.2348771266540535 
208.0003374459614 10.335538752362961 
209.0003374459614 7.579395085066172 
210.0003374459614 6.890359168241974 
211.0003374459614 4.478733459357154 
212.0003374459614 3.445179584120987 
213.0003374459614 2.411625708884676 
214.0003374459614 0.34451795841209876 
215.0003374459614 0.3445179584120987 
216.0003374459614 0.0 
217.0003374459614 0.0 
218.0003374459614 0.0 
219.0003374459614 0.0 
220.0003374459614 0.0 
221.0003374459614 0.0 
222.0003374459614 0.0 
223.0003374459614 0.0 
224.0003374459614 0.0 
225.0003374459614 0.0 
226.0003374459614 0.0 
227.0003374459614 0.0 
228.0003374459614 0.0 
229.0003374459614 0.0 
230.0003374459614 0.0 
231.0003374459614 0.0 
232.0003374459614 0.0 
233.0003374459614 0.0 
234.0003374459614 0.0 
235.0003374459614 0.0 
236.0003374459614 0.0 
237.0003374459614 0.0 
238.0003374459614 0.0 
239.0003374459614 0.0 
240.0003374459614 0.0 
241.0003374459614 0.0 
242.0003374459614 0.0 
243.0003374459614 0.0 
244.0003374459614 0.0 
245.0003374459614 0.0 
246.0003374459614 0.0 
247.0003374459614 0.0 
248.0003374459614 0.0 
249.0003374459614 0.0 
250.0003374459614 0.0 
251.0003374459614 0.0 
252.0003374459614 0.0 
253.0003374459614 0.0 
254.0003374459614 0.0 
255.0003374459614 0.0 
256.0003374459614 0.0 
257.0003374459614 0.0 
258.0003374459614 0.0 
259.0003374459614 0.0 
260.0003374459614 0.0 
261.0003374459614 0.0 
262.0003374459614 0.0 
263.0003374459614 0.0 
264.0003374459614 0.0 
265.0003374459614 0.0 
266.0003374459614 0.0 
267.0003374459614 0.0 
268.0003374459614 0.0 
269.0003374459614 0.0 
270.0003374459614 0.0 
271.0003374459614 0.0 
272.0003374459614 0.0 
273.0003374459614 0.0 
274.0003374459614 0.0 
275.0003374459614 0.0 
276.0003374459614 0.0 
277.0003374459614 0.0 
278.0003374459614 0.0 
279.0003374459614 0.0 
280.0003374459614 0.0 
281.0003374459614 0.0 
282.0003374459614 0.0 
283.0003374459614 0.0 
284.0003374459614 0.0 
285.0003374459614 0.0 
286.0003374459614 0.0 
287.0003374459614 0.0 
288.0003374459614 0.0 
289.0003374459614 0.0 
290.0003374459614 0.0 
291.0003374459614 0.0 
292.0003374459614 0.0 
293.0003374459614 0.0 
294.0003374459614 0.0 
295.0003374459614 0.0 
296.0003374459614 0.0 
297.0003374459614 0.0 
298.0003374459614 0.0 
299.0003374459614 0.0 
300.0003374459614 0.0 
301.0003374459614 0.0 
302.0003374459614 0.0 
303.0003374459614 0.0 
304.0003374459614 0.0 
305.0003374459614 0.0 
306.0003374459614 0.0 
307.0003374459614 0.0 
308.0003374459614 0.0 
309.0003374459614 0.0 
310.0003374459614 0.0 
311.0003374459614 0.0 
312.0003374459614 0.0 
313.0003374459614 0.0 
314.0003374459614 0.0 
315.0003374459614 0.0 
316.0003374459614 0.0 
317.0003374459614 0.0 
318.0003374459614 0.0 
319.0003374459614 0.0 
320.0003374459614 0.0 
321.0003374459614 0.0 
322.0003374459614 0.0 
323.0003374459614 0.0 
#####################################################################
# End of data export. Simulation finished at: 2017-05-26T02:39+0000 #
#####################################################################
