#####################################################################
# Alchemist log file - simulation started at: 2017-05-23T15:14+0000 #
#####################################################################
# random = 12.0, targets = 3.1622776601683795, density = 7.099073319511142, gridShift = 0.0, perturbation = 0.0, connfactor = 1.0
#
# The columns have the following meaning: 
# time se[Mean] 
0.0 NaN 
1.0005590746559656 NaN 
2.000559074655966 1.0196081555340868 
3.000559074655966 1.0378442530563423 
4.000559074655966 1.0461124997134106 
5.000559074655966 1.0529823503314677 
6.000559074655966 1.0700789344985635 
7.000559074655966 1.0606891176367181 
8.000559074655966 1.0239495069187903 
9.000559074655966 1.0249803116887486 
10.000559074655966 1.003316326530612 
11.000559074655966 0.9998948295845718 
12.000559074655966 0.993828328431834 
13.000559074655966 0.9897276790214646 
14.000559074655966 0.9882026625420772 
15.000559074655966 0.9844801900719367 
16.000559074655968 0.9836913886141201 
17.000559074655968 0.9814905761468852 
18.000559074655968 0.9817277761607816 
19.000559074655968 0.97845508873855 
20.000559074655968 0.9817982646239477 
21.000559074655968 0.9791980167130832 
22.000559074655968 0.9817982646239479 
23.000559074655968 0.9825411925984803 
24.000559074655968 0.985884368483878 
25.000559074655968 0.9836555845602792 
26.000559074655968 0.9874339999431474 
27.000559074655968 0.9859481439940817 
28.000559074655968 0.9837305491444418 
29.000559074655968 0.9811414903075352 
30.000559074655968 0.9880605659712302 
31.000559074655968 0.9796668234324277 
32.00055907465597 0.978869304834691 
33.00055907465597 0.9833973611450537 
34.00055907465597 0.9772282100055778 
35.00055907465597 0.9665242896027768 
36.00055907465597 0.9767678877811453 
37.00055907465597 0.962562896528506 
38.00055907465597 0.9512281181269818 
39.00055907465597 0.9453017093581333 
40.00055907465597 0.9458067878783986 
41.00055907465597 0.9393834241546763 
42.00055907465597 0.94747994297427 
43.00055907465597 0.9183244273617808 
44.00055907465597 0.9449140983330705 
45.00055907465597 0.9293980408565162 
46.00055907465597 0.9170394591488478 
47.00055907465597 0.9047464097509521 
48.00055907465597 0.91608288973282 
49.00055907465597 0.910272583884333 
50.00055907465597 0.8856667728532731 
51.00055907465597 0.8777701019151574 
52.00055907465597 0.9034831923591348 
53.00055907465597 0.8584001113738884 
54.00055907465597 0.8699318489274879 
55.00055907465597 0.8765409827293272 
56.00055907465597 0.8661979578420627 
57.00055907465597 0.8666874982880586 
58.00055907465597 0.831579154279236 
59.00055907465597 0.7294528417527648 
60.00055907465597 0.7104656394112138 
61.00055907465597 0.5929120907894029 
62.00055907465597 0.49722107141233435 
63.00055907465597 0.409220913482746 
64.00055907465597 0.3576523801015358 
65.00055907465597 0.287818426616011 
66.00055907465597 0.2631903442545939 
67.00055907465597 0.22507107492574802 
68.00055907465597 0.23216109152039754 
69.00055907465597 0.20263523027192107 
70.00055907465597 0.20432129257492107 
71.00055907465597 0.20611488549570123 
72.00055907465597 0.187799409858703 
73.00055907465597 0.1878681415223003 
74.00055907465597 0.19028415644154373 
75.00055907465597 0.16053127634030046 
76.00055907465597 0.17032452538099271 
77.00055907465597 0.14521573144518576 
78.00055907465597 0.1468616903525144 
79.00055907465597 0.13690295130903912 
80.00055907465597 0.13648696612801187 
81.00055907465597 0.1350889359326484 
82.00055907465597 0.1350889359326484 
83.00055907465597 0.1350889359326484 
84.00055907465597 0.1350889359326484 
85.00055907465597 0.1350889359326484 
86.00055907465597 0.1350889359326484 
87.00055907465597 0.1350889359326484 
88.00055907465597 0.1350889359326484 
89.00055907465597 0.1350889359326484 
90.00055907465597 0.1350889359326484 
91.00055907465597 0.1350889359326484 
92.00055907465597 0.1350889359326484 
93.00055907465597 0.1350889359326484 
94.00055907465597 0.1350889359326484 
95.00055907465597 0.1350889359326484 
96.00055907465597 0.1350889359326484 
97.00055907465597 0.1350889359326484 
98.00055907465597 0.1350889359326484 
99.00055907465597 0.1350889359326484 
100.00055907465597 0.1350889359326484 
101.00055907465597 0.1350889359326484 
102.00055907465597 0.1350889359326484 
103.00055907465597 0.1350889359326484 
104.00055907465597 0.1350889359326484 
105.00055907465597 0.1350889359326484 
106.00055907465597 0.1350889359326484 
107.00055907465597 0.1350889359326484 
108.00055907465597 0.1350889359326484 
109.00055907465597 0.1350889359326484 
110.00055907465597 0.1350889359326484 
111.00055907465597 0.1350889359326484 
112.00055907465597 0.1350889359326484 
113.00055907465597 0.1350889359326484 
114.00055907465597 0.1350889359326484 
115.00055907465597 0.1350889359326484 
116.00055907465597 0.1350889359326484 
117.00055907465597 0.1350889359326484 
118.00055907465597 0.1350889359326484 
119.00055907465597 0.1350889359326484 
120.00055907465597 0.1350889359326484 
121.00055907465597 0.1350889359326484 
122.00055907465597 0.1350889359326484 
123.00055907465597 0.1350889359326484 
124.00055907465597 0.1350889359326484 
125.00055907465597 0.1350889359326484 
126.00055907465597 0.1350889359326484 
127.00055907465597 0.1350889359326484 
128.00055907465597 0.1350889359326484 
129.00055907465597 0.1350889359326484 
130.00055907465597 0.1350889359326484 
131.00055907465597 0.1350889359326484 
132.00055907465597 0.1350889359326484 
133.00055907465597 0.1350889359326484 
134.00055907465597 0.1350889359326484 
135.00055907465597 0.1350889359326484 
136.00055907465597 0.1350889359326484 
137.00055907465597 0.1350889359326484 
138.00055907465597 0.1350889359326484 
139.00055907465597 0.1350889359326484 
140.00055907465597 0.1350889359326484 
141.00055907465597 0.1350889359326484 
142.00055907465597 0.1350889359326484 
#####################################################################
# End of data export. Simulation finished at: 2017-05-23T15:14+0000 #
#####################################################################
