#####################################################################
# Alchemist log file - simulation started at: 2017-05-24T17:43+0000 #
#####################################################################
# random = 7.0, targets = 3.1622776601683795, density = 5.0264212595847235, gridShift = 0.0, perturbation = 0.5, connfactor = 1.0
#
# The columns have the following meaning: 
# time se[Mean] 
0.0 NaN 
1.001616958347866 NaN 
2.0016169583478662 NaN 
3.0016169583478662 1.0094785490560232 
4.001616958347866 1.0156483372966802 
5.001616958347866 1.0161255138588041 
6.001616958347866 1.0125431387513368 
7.001616958347866 1.0007497782248351 
8.001616958347867 0.983673975136689 
9.001616958347867 0.9728537498710287 
10.001616958347867 0.9682698123043978 
11.001616958347867 0.9616929028680319 
12.001616958347867 0.9606857558977093 
13.001616958347867 0.9590288372278781 
14.001616958347867 0.9567033647219451 
15.001616958347867 0.9522798406409907 
16.001616958347867 0.9435140135234787 
17.001616958347867 0.9395712185683548 
18.001616958347867 0.9241731515784222 
19.001616958347867 0.920422749871003 
20.001616958347867 0.9051251940489234 
21.001616958347867 0.9046109578561392 
22.001616958347867 0.8948912889455789 
23.001616958347867 0.8908845277777259 
24.001616958347867 0.8777469544516081 
25.001616958347867 0.869703995632525 
26.001616958347867 0.8605305326437687 
27.001616958347867 0.8440649083788274 
28.001616958347867 0.8291648320350654 
29.001616958347867 0.8152805518156465 
30.001616958347867 0.8047105968567341 
31.001616958347867 0.7946584707863505 
32.00161695834787 0.7860592299166123 
33.00161695834787 0.7812017248785907 
34.00161695834787 0.7653062989698003 
35.00161695834787 0.7606066574501298 
36.00161695834787 0.7491885654420949 
37.00161695834787 0.7386557403449089 
38.00161695834787 0.7300955877089477 
39.00161695834787 0.7217643665871422 
40.00161695834787 0.7107523931784353 
41.00161695834787 0.7026358899716255 
42.00161695834787 0.694504227422993 
43.00161695834787 0.684636373499175 
44.00161695834787 0.6767838629330931 
45.00161695834787 0.6702836662017473 
46.00161695834787 0.6641047843625993 
47.00161695834787 0.6603600139870494 
48.00161695834787 0.6549633780556087 
49.00161695834787 0.6492037723091862 
50.00161695834787 0.6443507889878867 
51.00161695834787 0.6391328039041518 
52.00161695834787 0.6268129820567838 
53.00161695834787 0.6209096795704603 
54.00161695834787 0.614435791137236 
55.00161695834787 0.6019565918439368 
56.00161695834787 0.5932120633869787 
57.00161695834787 0.5818201994129896 
58.00161695834787 0.5704303907968087 
59.00161695834787 0.555937873404553 
60.00161695834787 0.5454521539678523 
61.00161695834787 0.5343323803253744 
62.00161695834787 0.5229978720462196 
63.00161695834787 0.5119842241817824 
64.00161695834787 0.4993410287400718 
65.00161695834787 0.48754511155757185 
66.00161695834787 0.491868609047181 
67.00161695834787 0.5320225350160886 
68.00161695834787 0.575149673242985 
69.00161695834787 0.5805158834720154 
70.00161695834787 0.6758649886251958 
71.00161695834787 0.6609435534228238 
72.00161695834787 0.7194444421569464 
73.00161695834787 0.5957144654641765 
74.00161695834787 0.6888599447275325 
75.00161695834787 0.5475099408072194 
76.00161695834787 0.6251766199570915 
77.00161695834787 0.587294349985643 
78.00161695834787 0.5528447127044492 
79.00161695834787 0.650918313868489 
80.00161695834787 0.5639162476609395 
81.00161695834787 0.5606161226222481 
82.00161695834787 0.6630695877516952 
83.00161695834787 0.6958805872014612 
84.00161695834787 0.5356358872892034 
85.00161695834787 0.7933693787864288 
86.00161695834787 0.7671266797510462 
87.00161695834787 0.6456947743726232 
88.00161695834787 0.7737772004618696 
89.00161695834787 0.7936861753062405 
90.00161695834787 0.7690592580377762 
91.00161695834787 0.7815379593772215 
92.00161695834787 0.749360502802034 
93.00161695834787 0.6064510468029003 
94.00161695834787 0.8096995611860663 
95.00161695834787 0.5356374747921859 
96.00161695834787 0.4576784192796381 
97.00161695834787 0.49399058951415586 
98.00161695834787 0.4451083772905689 
99.00161695834787 0.37263175732429954 
100.00161695834787 0.4657803146078637 
101.00161695834787 0.564533127299125 
102.00161695834787 0.29956429882332963 
103.00161695834787 0.41404723135191435 
104.00161695834787 0.36903623475644515 
105.00161695834787 0.3481632985137993 
106.00161695834787 0.40541082383274857 
107.00161695834787 0.5203779644754651 
108.00161695834787 0.6063687629640662 
109.00161695834787 0.7243680657512608 
110.00161695834787 0.9042322247835511 
111.00161695834787 0.8727019765631993 
112.00161695834787 1.0609269537288184 
113.00161695834787 0.754941801815128 
114.00161695834787 1.0372792675635594 
115.00161695834787 0.7078855575237215 
116.00161695834787 0.9904621513112767 
117.00161695834787 0.8566977244139035 
118.00161695834787 0.8254066042326761 
119.00161695834787 1.091978945870933 
120.00161695834787 0.8879888445951339 
121.00161695834787 0.8958714066502215 
122.00161695834787 1.1232700660521622 
123.00161695834787 1.1703263103435666 
124.00161695834787 0.7468201117209189 
125.00161695834787 1.3114950432177828 
126.00161695834787 1.2644387989263772 
127.00161695834787 0.887988844595134 
128.00161695834788 1.3585512875091892 
129.00161695834788 1.311495043217782 
130.00161695834788 1.4056075318005945 
131.00161695834788 1.358551287509193 
132.00161695834788 1.3114950432177868 
133.00161695834788 0.9821013331779451 
134.00161695834788 1.4056075318005976 
135.00161695834788 0.7938763560123251 
136.00161695834788 0.6056513788467025 
137.00161695834788 0.6056513788467 
138.00161695834788 0.4644826459724851 
139.00161695834788 0.4644826459724852 
140.00161695834788 0.464482645972487 
141.00161695834788 0.7468201117209207 
142.00161695834788 0.22920142451545877 
143.00161695834788 0.3233139130982695 
144.00161695834788 0.22920142451545916 
145.00161695834788 0.1350889359326484 
146.00161695834788 0.18214518022405418 
147.00161695834788 0.1350889359326484 
148.00161695834788 0.1350889359326484 
149.00161695834788 0.1350889359326484 
150.00161695834788 0.1350889359326484 
151.00161695834788 0.1350889359326484 
152.00161695834788 0.1350889359326484 
153.00161695834788 0.1350889359326484 
154.00161695834788 0.1350889359326484 
155.00161695834788 0.1350889359326484 
156.00161695834788 0.1350889359326484 
157.00161695834788 0.1350889359326484 
158.00161695834788 0.1350889359326484 
159.00161695834788 0.1350889359326484 
160.00161695834788 0.1350889359326484 
161.00161695834788 0.1350889359326484 
162.00161695834788 0.1350889359326484 
163.00161695834788 0.1350889359326484 
164.00161695834788 0.1350889359326484 
165.00161695834788 0.1350889359326484 
166.00161695834788 0.1350889359326484 
167.00161695834788 0.1350889359326484 
168.00161695834788 0.1350889359326484 
169.00161695834788 0.1350889359326484 
170.00161695834788 0.1350889359326484 
171.00161695834788 0.1350889359326484 
172.00161695834788 0.1350889359326484 
173.00161695834788 0.1350889359326484 
174.00161695834788 0.1350889359326484 
175.00161695834788 0.1350889359326484 
176.00161695834788 0.1350889359326484 
177.00161695834788 0.1350889359326484 
178.00161695834788 0.1350889359326484 
179.00161695834788 0.1350889359326484 
180.00161695834788 0.1350889359326484 
181.00161695834788 0.1350889359326484 
182.00161695834788 0.1350889359326484 
183.00161695834788 0.1350889359326484 
184.00161695834788 0.1350889359326484 
185.00161695834788 0.1350889359326484 
186.00161695834788 0.1350889359326484 
187.00161695834788 0.1350889359326484 
188.00161695834788 0.1350889359326484 
189.00161695834788 0.1350889359326484 
190.00161695834788 0.1350889359326484 
191.00161695834788 0.1350889359326484 
192.00161695834788 0.1350889359326484 
193.00161695834788 0.1350889359326484 
194.00161695834788 0.1350889359326484 
195.00161695834788 0.1350889359326484 
196.00161695834788 0.1350889359326484 
#####################################################################
# End of data export. Simulation finished at: 2017-05-24T17:46+0000 #
#####################################################################
