#####################################################################
# Alchemist log file - simulation started at: 2017-05-25T08:58+0000 #
#####################################################################
# random = 17.0, targets = 31.622776601683793, density = 0.2247883923996312, gridShift = 1.0, perturbation = 0.0, connfactor = 0.75
#
# The columns have the following meaning: 
# time se[Mean] 
0.0 NaN 
1.0045647570182237 NaN 
2.0045647570182235 1.0172405505210012 
3.0045647570182235 1.0397310611634472 
4.0045647570182235 1.0510643147396697 
5.0045647570182235 1.079782369315147 
6.0045647570182235 1.0566123481186926 
7.0045647570182235 1.0967709801742378 
8.004564757018223 1.0702804388262739 
9.004564757018223 1.1066625145657722 
10.004564757018223 1.3080508024761073 
11.004564757018223 1.4245936034606521 
12.004564757018223 1.6075112435308636 
13.004564757018223 1.6081464465020785 
14.004564757018223 1.5875763590280467 
15.004564757018223 1.4477706710911984 
16.004564757018223 1.3325873545976668 
17.004564757018223 1.1622891058938336 
18.004564757018223 0.9164024996418193 
19.004564757018223 0.8551443051302935 
20.004564757018223 0.8251940109946002 
21.004564757018223 0.7595797937980708 
22.004564757018223 0.7164603071287315 
23.004564757018223 0.6723008954619708 
24.004564757018223 0.6274102140659493 
25.004564757018223 0.6049924240407366 
26.004564757018223 0.5794125002754138 
27.004564757018223 0.5538410685175785 
28.004564757018223 0.5290293502289619 
29.004564757018223 0.5181927237768775 
30.004564757018223 0.5083325302587223 
31.004564757018223 0.49232854964531014 
32.00456475701822 0.4910468036135641 
33.00456475701822 0.4772426597394792 
34.00456475701822 0.4706080613194081 
35.00456475701822 0.46963886822571715 
36.00456475701822 0.4719094368687748 
37.00456475701822 0.46841111254046514 
38.00456475701822 0.467890332145187 
39.00456475701822 0.467890332145187 
40.00456475701822 0.46754446796632426 
41.00456475701822 0.46754446796632426 
42.00456475701822 0.46754446796632426 
43.00456475701822 0.46754446796632426 
44.00456475701822 0.46754446796632426 
45.00456475701822 0.46754446796632426 
46.00456475701822 0.46754446796632426 
47.00456475701822 0.46754446796632426 
48.00456475701822 0.46754446796632426 
49.00456475701822 0.46754446796632426 
#####################################################################
# End of data export. Simulation finished at: 2017-05-25T08:58+0000 #
#####################################################################
