#####################################################################
# Alchemist log file - simulation started at: 2017-05-25T06:13+0000 #
#####################################################################
# random = 17.0, targets = 3.1622776601683795, density = 1.7841466528270753, gridShift = 0.0, perturbation = 0.0, connfactor = 1.0
#
# The columns have the following meaning: 
# time se[Mean] 
0.0 NaN 
1.0003034458253823 NaN 
2.0003034458253826 1.061446343744991 
3.0003034458253826 1.1116100458805696 
4.0003034458253826 1.1568302831872315 
5.0003034458253826 1.151606929495562 
6.0003034458253826 1.109430231457786 
7.0003034458253826 1.1014581824932368 
8.000303445825383 1.0857499443502412 
9.000303445825383 1.0512597319440204 
10.000303445825383 0.993973561195348 
11.000303445825383 0.9115123051246103 
12.000303445825383 0.8240502384152668 
13.000303445825383 0.7858032157886071 
14.000303445825383 0.7282813456692525 
15.000303445825383 0.673098340061054 
16.00030344582538 0.6490907406057623 
17.00030344582538 0.6210699848328528 
18.00030344582538 0.5961112868473478 
19.00030344582538 0.5813262133221176 
20.00030344582538 0.5552945812934876 
21.00030344582538 0.542541013627472 
22.00030344582538 0.5101338180044936 
23.00030344582538 0.5133889983862195 
24.00030344582538 0.5052415175842593 
25.00030344582538 0.4797087284016775 
26.00030344582538 0.4935667359700327 
27.00030344582538 0.4948662748207523 
28.00030344582538 0.49877042255073395 
29.00030344582538 0.47293939496380244 
30.00030344582538 0.45928264206033076 
31.00030344582538 0.4638986255645782 
32.00030344582538 0.4563802674614806 
33.00030344582538 0.44300991421411284 
34.00030344582538 0.4515937159514569 
35.00030344582538 0.4532446254077656 
36.00030344582538 0.45643191311642517 
37.00030344582538 0.46076718855781196 
38.00030344582538 0.46104155480424425 
39.00030344582538 0.465376830245631 
40.00030344582538 0.46586935695975495 
41.00030344582538 0.4644309249393958 
42.00030344582538 0.4642368056065438 
43.00030344582538 0.45915526680809504 
44.00030344582538 0.45981104865754013 
45.00030344582538 0.45223536186775576 
46.00030344582538 0.45105960063800143 
47.00030344582538 0.4372092353324444 
48.00030344582538 0.43046282012146275 
49.00030344582538 0.42426827091135616 
50.00030344582538 0.6507654947332975 
51.00030344582538 1.3370014595105204 
52.00030344582538 1.3163717145260825 
53.00030344582538 2.4838017666432557 
54.00030344582538 1.5608497975439284 
55.00030344582538 2.3014510485139588 
56.00030344582538 1.2632823689941228 
57.00030344582538 1.2229052611760747 
58.00030344582538 1.19867091362077 
59.00030344582538 0.7777769319928147 
60.00030344582538 0.901482975688926 
61.00030344582538 0.5681987299253044 
62.00030344582538 0.7420978556613343 
63.00030344582538 0.8542358548304588 
64.00030344582538 0.4804028252049651 
65.00030344582538 0.6408777382156919 
66.00030344582538 0.5615473180444391 
67.00030344582538 0.323922644169854 
68.00030344582538 0.24939915908168414 
69.00030344582538 0.039213888281485705 
70.00030344582538 0.007911198799752907 
71.00030344582538 0.004200663471856751 
72.00030344582538 0.004200663471856751 
73.00030344582538 0.0034170336854145934 
74.00030344582538 0.0034170336854145934 
75.00030344582538 0.0026334038989724354 
76.00030344582538 0.0026334038989724354 
77.00030344582538 0.0026334038989724354 
78.00030344582538 0.0026334038989724354 
79.00030344582538 0.0026334038989724354 
80.00030344582538 0.0026334038989724354 
81.00030344582538 0.0026334038989724354 
82.00030344582538 0.0026334038989724354 
83.00030344582538 0.0026334038989724354 
84.00030344582538 0.0026334038989724354 
85.00030344582538 0.0026334038989724354 
86.00030344582538 0.0026334038989724354 
87.00030344582538 0.0026334038989724354 
88.00030344582538 0.0026334038989724354 
89.00030344582538 0.0026334038989724354 
90.00030344582538 0.0026334038989724354 
91.00030344582538 0.0026334038989724354 
92.00030344582538 0.0026334038989724354 
93.00030344582538 0.0026334038989724354 
94.00030344582538 0.0026334038989724354 
95.00030344582538 0.0026334038989724354 
96.00030344582538 0.0026334038989724354 
97.00030344582538 0.0026334038989724354 
98.00030344582538 0.0026334038989724354 
99.00030344582538 0.0026334038989724354 
100.00030344582538 0.0026334038989724354 
101.00030344582538 0.0026334038989724354 
102.00030344582538 0.0026334038989724354 
103.00030344582538 0.0026334038989724354 
#####################################################################
# End of data export. Simulation finished at: 2017-05-25T06:13+0000 #
#####################################################################
