#####################################################################
# Alchemist log file - simulation started at: 2017-05-24T09:03+0000 #
#####################################################################
# random = 14.0, targets = 10.0, density = 20.0, gridShift = 0.0, perturbation = 0.0, connfactor = 2.0
#
# The columns have the following meaning: 
# time se[Mean] 
0.0 NaN 
1.000243821151474 NaN 
2.000243821151474 1.0184558128544423 
3.000243821151474 1.0348796208779665 
4.000243821151474 1.0474579263810126 
5.000243821151474 1.0648566477630739 
6.000243821151474 1.0543329920184827 
7.000243821151474 1.0649416482881742 
8.000243821151475 1.0551091551144713 
9.000243821151475 1.062663502940559 
10.000243821151475 1.0591350950430583 
11.000243821151475 1.0465781873555977 
12.000243821151475 1.0518535693656794 
13.000243821151475 1.0370167113001472 
14.000243821151475 1.0378760370720437 
15.000243821151475 1.036149902856543 
16.000243821151475 1.0381802011132113 
17.000243821151475 1.0316239366729678 
18.000243821151475 1.0293124803087585 
19.000243821151475 1.0127606463978156 
20.000243821151475 1.012278900178534 
21.000243821151475 0.9983872216971226 
22.000243821151475 0.9868120208464609 
23.000243821151475 0.9851280915248898 
24.000243821151475 0.9747566490758246 
25.000243821151475 0.9724134898130647 
26.000243821151475 0.9688637497374502 
27.000243821151475 0.9632485625393823 
28.000243821151475 0.9604652712140305 
29.000243821151475 0.9584840041482878 
30.000243821151475 0.9561098311804244 
31.000243821151475 0.9551408251942867 
32.00024382115147 0.9526466012917455 
33.00024382115147 0.9503739694917037 
34.00024382115147 0.9493868803822725 
35.00024382115147 0.9466455970384372 
36.00024382115147 0.9443888166876707 
37.00024382115147 0.9417300068262967 
38.00024382115147 0.939642833700903 
39.00024382115147 0.9370113618462507 
40.00024382115147 0.9338243672547785 
41.00024382115147 0.9313434349401384 
42.00024382115147 0.9275569733249317 
43.00024382115147 0.9250621586851502 
44.00024382115147 0.921178028512917 
45.00024382115147 0.9183786231884058 
46.00024382115147 0.9133648393194703 
47.00024382115147 0.9097859562066792 
48.00024382115147 0.9052436791115313 
49.00024382115147 0.9003280560806552 
50.00024382115147 0.896194470699433 
51.00024382115147 0.8910190217391307 
52.00024382115147 0.8872495930476787 
53.00024382115147 0.8823723351186724 
54.00024382115147 0.8792626942869145 
55.00024382115147 0.8741269231779036 
56.00024382115147 0.8710768811699223 
57.00024382115147 0.8667332558811175 
58.00024382115147 0.8628797784078974 
59.00024382115147 0.8588756301197227 
60.00024382115147 0.8552262195442134 
61.00024382115147 0.85020111321151 
62.00024382115147 0.8457376339004411 
63.00024382115147 0.8386228602184415 
64.00024382115147 0.832648275047259 
65.00024382115147 0.8273465724112581 
66.00024382115147 0.8164161940768745 
67.00024382115147 0.8114199682314638 
68.00024382115147 0.8064014912833437 
69.00024382115147 0.7948963256143666 
70.00024382115147 0.7892557695337116 
71.00024382115147 0.7874847721067002 
72.00024382115147 0.7746336772736819 
73.00024382115147 0.7667254778407894 
74.00024382115147 0.7648392538332284 
75.00024382115147 0.7511840343415249 
76.00024382115147 0.7423961615206888 
77.00024382115147 0.7345890109745855 
78.00024382115147 0.724558292638101 
79.00024382115147 0.7135399600924178 
80.00024382115147 0.7042919685990339 
81.00024382115147 0.6969650874291113 
82.00024382115147 0.6892444142512077 
83.00024382115147 0.6779761013967652 
84.00024382115147 0.6690184572568778 
85.00024382115147 0.6564556093782815 
86.00024382115147 0.6439482908002516 
87.00024382115147 0.6345054544738498 
88.00024382115147 0.6184171195652167 
89.00024382115147 0.6002065283028776 
90.00024382115147 0.5931076060701522 
91.00024382115147 0.5754253308128547 
92.00024382115147 0.5605472195967228 
93.00024382115147 0.5470937368725051 
94.00024382115147 0.5306905390149119 
95.00024382115147 0.5156271003990767 
96.00024382115147 0.5024043005671078 
97.00024382115147 0.4878331101659316 
98.00024382115147 0.4712913844255417 
99.00024382115147 0.4574407293635784 
100.00024382115147 0.43916459908632455 
101.00024382115147 0.43743140884268017 
102.00024382115147 0.42178724270111406 
103.00024382115147 0.41204427903801616 
104.00024382115147 0.40271794922285237 
105.00024382115147 0.3822521200903163 
106.00024382115147 0.3692867832388163 
107.00024382115147 0.3664258427851294 
108.00024382115147 0.3424201191976477 
109.00024382115147 0.3239230531926063 
110.00024382115147 0.3236823277672755 
111.00024382115147 0.30098443079185055 
112.00024382115147 0.29540590212140216 
113.00024382115147 0.28467220646922925 
114.00024382115147 0.2707197476895609 
115.00024382115147 0.26070511053350165 
116.00024382115147 0.2527821098508714 
117.00024382115147 0.24128662570888473 
118.00024382115147 0.23539585958832154 
119.00024382115147 0.23036064508506587 
120.00024382115147 0.21496380093467718 
121.00024382115147 0.22628045578659903 
122.00024382115147 0.2156594924910731 
123.00024382115147 0.2158987082545682 
124.00024382115147 0.21939127809283773 
125.00024382115147 0.2062553822726316 
126.00024382115147 0.20826992753623172 
127.00024382115147 0.25590251522789337 
128.00024382115146 0.3302704591997477 
129.00024382115146 0.3297439154064279 
130.00024382115146 0.4343013219386688 
131.00024382115146 0.44482944103129674 
132.00024382115146 0.42945648892039556 
133.00024382115146 0.48805716367359764 
134.00024382115146 0.5996190072988865 
135.00024382115146 0.43278565427431287 
136.00024382115146 0.47840586273892133 
137.00024382115146 0.5967019468073926 
138.00024382115146 0.4310039907582433 
139.00024382115146 0.47536455051459875 
140.00024382115146 0.5572240272526786 
141.00024382115146 0.4210873503465663 
142.00024382115146 0.35080684861373673 
143.00024382115146 0.43960647054190244 
144.00024382115146 0.3551576283868924 
145.00024382115146 0.343857382902751 
146.00024382115146 0.34822933076034385 
147.00024382115146 0.28162209882377637 
148.00024382115146 0.2803252993068677 
149.00024382115146 0.2478524404011758 
150.00024382115146 0.25043530770846445 
151.00024382115146 0.2276031164671285 
152.00024382115146 0.19350448303927745 
153.00024382115146 0.17424884478050845 
154.00024382115146 0.19331397027935263 
155.00024382115146 0.14846605229993634 
156.00024382115146 0.17301748582230617 
157.00024382115146 0.1523772907477424 
158.00024382115146 0.10137014939088361 
159.00024382115146 0.12372236662465899 
160.00024382115146 0.11346201559546337 
161.00024382115146 0.07654681264440241 
162.00024382115146 0.10597573382692702 
163.00024382115146 0.08973032844990576 
164.00024382115146 0.04468211772736789 
165.00024382115146 0.06922275388573748 
166.00024382115146 0.06091784157740019 
167.00024382115146 0.043502415458936905 
168.00024382115146 0.043030088216761096 
169.00024382115146 0.05009622453266146 
170.00024382115146 0.024356162045788495 
171.00024382115146 0.0379563445179586 
172.00024382115146 0.024679459409787757 
173.00024382115146 0.023924759766855798 
174.00024382115146 0.013775171970174185 
175.00024382115146 0.021882088846880633 
176.00024382115146 0.013121258664146138 
177.00024382115146 0.021103464345725353 
178.00024382115146 0.012124258296576252 
179.00024382115146 0.011775296681369368 
180.00024382115146 0.011197686935517627 
181.00024382115146 0.011262175750892571 
182.00024382115146 0.010750827032135995 
183.00024382115146 0.010599270111321044 
184.00024382115146 0.01051571361058589 
185.00024382115146 0.01044925567107741 
186.00024382115146 0.010388114366729564 
187.00024382115146 0.010311023156899706 
188.00024382115146 0.010241906899810851 
189.00024382115146 0.010186082230623707 
190.00024382115146 0.010124940926275881 
191.00024382115146 0.010063799621928056 
192.00024382115146 0.010023924858222955 
193.00024382115146 0.010002658317580232 
194.00024382115146 0.009999999999999893 
195.00024382115146 0.009999999999999893 
196.00024382115146 0.009999999999999893 
197.00024382115146 0.009999999999999893 
198.00024382115146 0.009999999999999893 
199.00024382115146 0.009999999999999893 
200.00024382115146 0.009999999999999893 
201.00024382115146 0.009999999999999893 
202.00024382115146 0.009999999999999893 
203.00024382115146 0.009999999999999893 
204.00024382115146 0.009999999999999893 
205.00024382115146 0.009999999999999893 
206.00024382115146 0.009999999999999893 
207.00024382115146 0.009999999999999893 
208.00024382115146 0.009999999999999893 
209.00024382115146 0.009999999999999893 
210.00024382115146 0.009999999999999893 
211.00024382115146 0.009999999999999893 
212.00024382115146 0.009999999999999893 
213.00024382115146 0.009999999999999893 
214.00024382115146 0.009999999999999893 
215.00024382115146 0.009999999999999893 
216.00024382115146 0.009999999999999893 
217.00024382115146 0.009999999999999893 
218.00024382115146 0.009999999999999893 
219.00024382115146 0.009999999999999893 
220.00024382115146 0.009999999999999893 
221.00024382115146 0.009999999999999893 
222.00024382115146 0.009999999999999893 
223.00024382115146 0.009999999999999893 
224.00024382115146 0.009999999999999893 
225.00024382115146 0.009999999999999893 
226.00024382115146 0.009999999999999893 
227.00024382115146 0.009999999999999893 
228.00024382115146 0.009999999999999893 
229.00024382115146 0.009999999999999893 
230.00024382115146 0.009999999999999893 
231.00024382115146 0.009999999999999893 
232.00024382115146 0.009999999999999893 
233.00024382115146 0.009999999999999893 
234.00024382115146 0.009999999999999893 
235.00024382115146 0.009999999999999893 
236.00024382115146 0.009999999999999893 
237.00024382115146 0.009999999999999893 
238.00024382115146 0.009999999999999893 
239.00024382115146 0.009999999999999893 
240.00024382115146 0.009999999999999893 
241.00024382115146 0.009999999999999893 
242.00024382115146 0.009999999999999893 
243.00024382115146 0.009999999999999893 
244.00024382115146 0.009999999999999893 
245.00024382115146 0.009999999999999893 
246.00024382115146 0.009999999999999893 
247.00024382115146 0.009999999999999893 
248.00024382115146 0.009999999999999893 
249.00024382115146 0.009999999999999893 
250.00024382115146 0.009999999999999893 
251.00024382115146 0.009999999999999893 
252.00024382115146 0.009999999999999893 
253.00024382115146 0.009999999999999893 
254.00024382115146 0.009999999999999893 
255.00024382115146 0.009999999999999893 
256.00024382115146 0.009999999999999893 
257.00024382115146 0.009999999999999893 
258.00024382115146 0.009999999999999893 
259.00024382115146 0.009999999999999893 
260.00024382115146 0.009999999999999893 
261.00024382115146 0.009999999999999893 
262.00024382115146 0.009999999999999893 
263.00024382115146 0.009999999999999893 
264.00024382115146 0.009999999999999893 
265.00024382115146 0.009999999999999893 
266.00024382115146 0.009999999999999893 
267.00024382115146 0.009999999999999893 
268.00024382115146 0.009999999999999893 
269.00024382115146 0.009999999999999893 
270.00024382115146 0.009999999999999893 
271.00024382115146 0.009999999999999893 
272.00024382115146 0.009999999999999893 
273.00024382115146 0.009999999999999893 
274.00024382115146 0.009999999999999893 
275.00024382115146 0.009999999999999893 
276.00024382115146 0.009999999999999893 
277.00024382115146 0.009999999999999893 
278.00024382115146 0.009999999999999893 
279.00024382115146 0.009999999999999893 
280.00024382115146 0.009999999999999893 
281.00024382115146 0.009999999999999893 
282.00024382115146 0.009999999999999893 
283.00024382115146 0.009999999999999893 
284.00024382115146 0.009999999999999893 
285.00024382115146 0.009999999999999893 
286.00024382115146 0.009999999999999893 
287.00024382115146 0.009999999999999893 
288.00024382115146 0.009999999999999893 
289.00024382115146 0.009999999999999893 
290.00024382115146 0.009999999999999893 
291.00024382115146 0.009999999999999893 
292.00024382115146 0.009999999999999893 
293.00024382115146 0.009999999999999893 
294.00024382115146 0.009999999999999893 
295.00024382115146 0.009999999999999893 
296.00024382115146 0.009999999999999893 
297.00024382115146 0.009999999999999893 
298.00024382115146 0.009999999999999893 
299.00024382115146 0.009999999999999893 
300.00024382115146 0.009999999999999893 
#####################################################################
# End of data export. Simulation finished at: 2017-05-24T09:11+0000 #
#####################################################################
