#####################################################################
# Alchemist log file - simulation started at: 2017-05-20T19:02+0000 #
#####################################################################
# random = 1.0, targets = 31.622776601683793, density = 5.0264212595847235, gridShift = 0.0, perturbation = 0.5, connfactor = 0.5
#
# The columns have the following meaning: 
# time se[Mean] 
0.0 NaN 
1.0021882032847353 NaN 
2.002188203284735 NaN 
3.002188203284735 1.0001030269384694 
4.002188203284735 0.9979453653052882 
5.002188203284735 0.9952697034339625 
6.002188203284735 0.9890041911978961 
7.002188203284735 0.9798181952121724 
8.002188203284735 0.9770446690837797 
9.002188203284735 0.9695474050313247 
10.002188203284735 0.9640896608993887 
11.002188203284735 0.9562001122682858 
12.002188203284735 0.9533027486940558 
13.002188203284735 0.9476771679555911 
14.002188203284735 0.9462785160661256 
15.002188203284735 0.9453114269825081 
16.002188203284735 0.9446561649835138 
17.002188203284735 0.9433736573164683 
18.002188203284735 0.9394032311640026 
19.002188203284735 0.9375871770302198 
20.002188203284735 0.9333664946453784 
21.002188203284735 0.9267309528583472 
22.002188203284735 0.921766362971528 
23.002188203284735 0.9198127982302192 
24.002188203284735 0.9152921801594016 
25.002188203284735 0.9081454684488428 
26.002188203284735 0.9073989361931769 
27.002188203284735 0.8993738088747049 
28.002188203284735 0.8995587223872483 
29.002188203284735 0.8928607998767999 
30.002188203284735 0.8840834024942346 
31.002188203284735 0.8771742213501925 
32.00218820328473 0.8649613888022143 
33.00218820328473 0.8552193657378845 
34.00218820328473 0.8361733211115981 
35.00218820328473 0.8191412105896069 
36.00218820328473 0.8094685165021593 
37.00218820328473 0.7722454103828185 
38.00218820328473 0.7635710502322333 
39.00218820328473 0.7362757046634666 
40.00218820328473 0.7086089105248548 
41.00218820328473 0.6860528193054443 
42.00218820328473 0.6556249147372659 
43.00218820328473 0.6345238873590276 
44.00218820328473 0.5966242868190902 
45.00218820328473 0.5696602539224707 
46.00218820328473 0.5497139494434893 
47.00218820328473 0.514844788828199 
48.00218820328473 0.5029443411436159 
49.00218820328473 0.48123711537653135 
50.00218820328473 0.46891934431058435 
51.00218820328473 0.4647833819399847 
52.00218820328473 0.4617104521987702 
53.00218820328473 0.4453467821997854 
54.00218820328473 0.4254100738918329 
55.00218820328473 0.42563029207605185 
56.00218820328473 0.4151406268240891 
57.00218820328473 0.4071238403894563 
58.00218820328473 0.4082782714866655 
59.00218820328473 0.3947584497970352 
60.00218820328473 0.39968637353709163 
61.00218820328473 0.37792142935210193 
62.00218820328473 0.37197421574213696 
63.00218820328473 0.36579777269047925 
64.00218820328473 0.3565106379073871 
65.00218820328473 0.37937354924225436 
66.00218820328473 0.37330616911139425 
67.00218820328473 0.37392757865459453 
68.00218820328473 0.39089678291386964 
69.00218820328473 0.43013216681176347 
70.00218820328473 0.41970193619175344 
71.00218820328473 0.3865692024420703 
72.00218820328473 0.4868199484118469 
73.00218820328473 0.449865842620517 
74.00218820328473 0.4933389337150266 
75.00218820328473 0.4862054632752313 
76.00218820328473 0.5129643360702228 
77.00218820328473 0.5508802963288983 
78.00218820328473 0.6192323464470608 
79.00218820328473 0.7129792790231618 
80.00218820328473 0.5651874194692823 
81.00218820328473 0.7755739183416749 
82.00218820328473 0.6913004594871712 
83.00218820328473 0.6658014201772544 
84.00218820328473 0.5701829086726415 
85.00218820328473 0.5672579494355141 
86.00218820328473 0.6406489850776194 
87.00218820328473 0.547353080737325 
88.00218820328473 0.6467347268530508 
89.00218820328473 0.5093470464729379 
90.00218820328473 0.510748267839517 
91.00218820328473 0.4939552724087584 
92.00218820328473 0.3865316905376462 
93.00218820328473 0.3080673790895504 
94.00218820328473 0.29200388332263877 
95.00218820328473 0.33633866170435867 
96.00218820328473 0.26514172343514447 
97.00218820328473 0.273827866585694 
98.00218820328473 0.16283931572944943 
99.00218820328473 0.1722232565024251 
100.00218820328473 0.12277139271092127 
101.00218820328473 0.14266365685041243 
102.00218820328473 0.11287142703294481 
103.00218820328473 0.12263796614879736 
104.00218820328473 0.11288200348136984 
105.00218820328473 0.11272362194314615 
106.00218820328473 0.11284338272928066 
107.00218820328473 0.11284338272928066 
108.00218820328473 0.11284338272928066 
109.00218820328473 0.11284338272928066 
110.00218820328473 0.11284338272928066 
111.00218820328473 0.11284338272928066 
112.00218820328473 0.11284338272928066 
113.00218820328473 0.11284338272928066 
114.00218820328473 0.11284338272928066 
115.00218820328473 0.11284338272928066 
116.00218820328473 0.11284338272928066 
117.00218820328473 0.11284338272928066 
118.00218820328473 0.11284338272928066 
119.00218820328473 0.11284338272928066 
120.00218820328473 0.11284338272928066 
121.00218820328473 0.11284338272928066 
122.00218820328473 0.11284338272928066 
123.00218820328473 0.11284338272928066 
124.00218820328473 0.11284338272928066 
125.00218820328473 0.11284338272928066 
126.00218820328473 0.11284338272928066 
127.00218820328473 0.11284338272928066 
128.00218820328473 0.11284338272928066 
129.00218820328473 0.11284338272928066 
130.00218820328473 0.11284338272928066 
131.00218820328473 0.11284338272928066 
132.00218820328473 0.11284338272928066 
133.00218820328473 0.11284338272928066 
134.00218820328473 0.11284338272928066 
135.00218820328473 0.11284338272928066 
136.00218820328473 0.11284338272928066 
137.00218820328473 0.11284338272928066 
138.00218820328473 0.11284338272928066 
139.00218820328473 0.11284338272928066 
140.00218820328473 0.11284338272928066 
141.00218820328473 0.11284338272928066 
142.00218820328473 0.11284338272928066 
143.00218820328473 0.11284338272928066 
144.00218820328473 0.11284338272928066 
145.00218820328473 0.11284338272928066 
146.00218820328473 0.11284338272928066 
147.00218820328473 0.11284338272928066 
148.00218820328473 0.11284338272928066 
149.00218820328473 0.11284338272928066 
150.00218820328473 0.11284338272928066 
151.00218820328473 0.11284338272928066 
152.00218820328473 0.11284338272928066 
153.00218820328473 0.11284338272928066 
154.00218820328473 0.11284338272928066 
155.00218820328473 0.11284338272928066 
156.00218820328473 0.11284338272928066 
#####################################################################
# End of data export. Simulation finished at: 2017-05-20T19:04+0000 #
#####################################################################
