#####################################################################
# Alchemist log file - simulation started at: 2017-05-25T18:36+0000 #
#####################################################################
# random = 18.0, targets = 100.0, density = 0.6332893950589894, gridShift = 0.0, perturbation = 0.5, connfactor = 2.0
#
# The columns have the following meaning: 
# time se[Mean] 
0.0 NaN 
1.0067713218599703 NaN 
2.0067713218599703 NaN 
3.0067713218599703 1.2875341306584362 
4.00677132185997 NaN 
5.00677132185997 1.9277925068587105 
6.00677132185997 2.354533839163237 
7.00677132185997 2.479283127572016 
8.00677132185997 2.747049879972565 
9.00677132185997 2.842005169753086 
10.00677132185997 2.7279842078189303 
11.00677132185997 1.916595138888889 
12.00677132185997 1.892939274691358 
13.00677132185997 1.9892106481481482 
14.00677132185997 2.2379711762688617 
15.00677132185997 2.3694109310699587 
16.006771321859972 2.539908564814815 
17.006771321859972 2.4195124742798355 
18.006771321859972 2.9989048954046638 
19.006771321859972 3.045548259602195 
20.006771321859972 3.653837842935528 
21.006771321859972 3.6267395747599456 
22.006771321859972 4.30519813957476 
23.006771321859972 5.175564291838134 
24.006771321859972 5.497338906035665 
25.006771321859972 6.649746416323731 
26.006771321859972 6.1400681841563785 
27.006771321859972 7.5896953617969825 
28.006771321859972 7.674538725994512 
29.006771321859972 11.94191931584362 
30.006771321859972 16.84047680041152 
31.006771321859972 20.430646339163236 
32.00677132185997 23.073356884430726 
33.00677132185997 17.431067061042523 
34.00677132185997 30.135522890946497 
35.00677132185997 28.68514410150891 
36.00677132185997 38.51868638545953 
37.00677132185997 34.52736965877915 
38.00677132185997 38.367522865226334 
39.00677132185997 34.319845627572015 
40.00677132185997 32.05699727366255 
41.00677132185997 44.61334790809328 
42.00677132185997 40.751938665980795 
43.00677132185997 28.13206107681756 
44.00677132185997 24.239550120027435 
45.00677132185997 22.39070985082305 
46.00677132185997 19.54390754458162 
47.00677132185997 25.787597496570648 
48.00677132185997 20.9031204218107 
49.00677132185997 15.058226303155005 
50.00677132185997 12.3801716563786 
51.00677132185997 12.37705729595336 
52.00677132185997 12.384718535665295 
53.00677132185997 12.389715655006858 
54.00677132185997 12.402158333333333 
55.00677132185997 12.398238888888889 
56.00677132185997 12.393012962962963 
57.00677132185997 12.3904 
58.00677132185997 12.3904 
59.00677132185997 12.3904 
60.00677132185997 12.3904 
61.00677132185997 12.3904 
62.00677132185997 12.3904 
63.00677132185997 12.3904 
64.00677132185997 12.3904 
65.00677132185997 12.3904 
66.00677132185997 12.3904 
67.00677132185997 12.3904 
68.00677132185997 12.3904 
69.00677132185997 12.3904 
70.00677132185997 12.3904 
71.00677132185997 12.3904 
72.00677132185997 12.3904 
73.00677132185997 12.3904 
74.00677132185997 12.3904 
75.00677132185997 12.3904 
76.00677132185997 12.3904 
#####################################################################
# End of data export. Simulation finished at: 2017-05-25T18:37+0000 #
#####################################################################
