#####################################################################
# Alchemist log file - simulation started at: 2017-05-20T10:52+0000 #
#####################################################################
# random = 1.0, targets = 1.0, density = 5.0264212595847235, gridShift = 0.0, perturbation = 0.0, connfactor = 0.75
#
# The columns have the following meaning: 
# time se[Mean] 
0.0 NaN 
1.0021882032847353 NaN 
2.002188203284735 1.0 
3.002188203284735 0.9992404513888888 
4.002188203284735 0.9946590470679013 
5.002188203284735 0.9867500964506173 
6.002188203284735 0.9803964120370371 
7.002188203284735 0.9714626736111112 
8.002188203284735 0.9629991319444444 
9.002188203284735 0.955439814814815 
10.002188203284735 0.9465663580246918 
11.002188203284735 0.9344135802469131 
12.002188203284735 0.9342206790123462 
13.002188203284735 0.918595679012346 
14.002188203284735 0.9149305555555548 
15.002188203284735 0.9149305555555548 
16.002188203284735 0.9166666666666665 
17.002188203284735 0.9236111111111112 
18.002188203284735 0.9270833333333338 
19.002188203284735 0.9392361111111115 
20.002188203284735 0.9427083333333337 
21.002188203284735 0.9565972222222227 
22.002188203284735 0.9583333333333334 
23.002188203284735 0.9791666666666667 
24.002188203284735 0.9722222222222225 
25.002188203284735 0.9826388888888886 
26.002188203284735 0.9826388888888886 
27.002188203284735 0.9913194444444443 
28.002188203284735 0.9947916666666667 
29.002188203284735 0.9913194444444443 
30.002188203284735 0.9947916666666667 
31.002188203284735 0.9982638888888888 
32.00218820328473 0.9982638888888888 
33.00218820328473 0.9965277777777778 
34.00218820328473 1.0 
35.00218820328473 0.9982638888888888 
36.00218820328473 1.0 
37.00218820328473 1.0 
38.00218820328473 1.0 
39.00218820328473 1.0 
40.00218820328473 1.0 
41.00218820328473 1.0 
42.00218820328473 1.0 
43.00218820328473 1.0 
44.00218820328473 1.0 
45.00218820328473 1.0 
46.00218820328473 1.0 
47.00218820328473 1.0 
48.00218820328473 1.0 
49.00218820328473 1.0 
50.00218820328473 1.0 
51.00218820328473 1.0 
52.00218820328473 1.0 
53.00218820328473 1.0 
54.00218820328473 1.0 
55.00218820328473 1.0 
56.00218820328473 1.0 
57.00218820328473 1.0 
58.00218820328473 1.0 
59.00218820328473 1.0 
60.00218820328473 1.0 
61.00218820328473 1.0 
62.00218820328473 1.0 
63.00218820328473 1.0 
64.00218820328473 1.0 
65.00218820328473 1.0 
66.00218820328473 1.0 
67.00218820328473 1.0 
68.00218820328473 1.05078125 
69.00218820328473 1.1015625 
70.00218820328473 1.35546875 
71.00218820328473 1.303927951388891 
72.00218820328473 1.4538845486111087 
73.00218820328473 1.5028211805555611 
74.00218820328473 1.3967013888888915 
75.00218820328473 1.9900173611111185 
76.00218820328473 1.936306423611117 
77.00218820328473 3.966905381944442 
78.00218820328473 3.369140625 
79.00218820328473 4.513454861111129 
80.00218820328473 4.833984375 
81.00218820328473 4.0084635416666785 
82.00218820328473 5.536783854166647 
83.00218820328473 2.359483506944437 
84.00218820328473 3.453450520833329 
85.00218820328473 1.9407552083333326 
86.00218820328473 2.2209201388888897 
87.00218820328473 1.7955729166666676 
88.00218820328473 1.739040798611114 
89.00218820328473 1.969401041666669 
90.00218820328473 1.2228732638888902 
91.00218820328473 1.1762152777777792 
92.00218820328473 1.456163194444442 
93.00218820328473 1.0855034722222188 
94.00218820328473 1.0481770833333328 
95.00218820328473 0.9689670138888905 
96.00218820328473 0.234375 
97.00218820328473 0.5874565972222189 
98.00218820328473 0.5170355902777812 
99.00218820328473 0.11024305555555448 
100.00218820328473 0.4541015625 
101.00218820328473 0.4327256944444403 
102.00218820328473 0.036024305555555726 
103.00218820328473 0.3948567708333309 
104.00218820328473 0.3878038194444401 
105.00218820328473 0.0087890625 
106.00218820328473 0.008138020833333273 
107.00218820328473 0.0065104166666667095 
108.00218820328473 0.004557291666666667 
109.00218820328473 0.0029296875 
110.00218820328473 0.0016276041666666789 
111.00218820328473 3.2552083333333174E-4 
112.00218820328473 0.0 
113.00218820328473 0.0 
114.00218820328473 0.0 
115.00218820328473 0.0 
116.00218820328473 0.0 
117.00218820328473 0.0 
118.00218820328473 0.0 
119.00218820328473 0.0 
120.00218820328473 0.0 
121.00218820328473 0.0 
122.00218820328473 0.0 
123.00218820328473 0.0 
124.00218820328473 0.0 
125.00218820328473 0.0 
126.00218820328473 0.0 
127.00218820328473 0.0 
128.00218820328473 0.0 
129.00218820328473 0.0 
130.00218820328473 0.0 
131.00218820328473 0.0 
132.00218820328473 0.0 
133.00218820328473 0.0 
134.00218820328473 0.0 
135.00218820328473 0.0 
136.00218820328473 0.0 
137.00218820328473 0.0 
138.00218820328473 0.0 
139.00218820328473 0.0 
140.00218820328473 0.0 
141.00218820328473 0.0 
142.00218820328473 0.0 
143.00218820328473 0.0 
144.00218820328473 0.0 
145.00218820328473 0.0 
146.00218820328473 0.0 
147.00218820328473 0.0 
148.00218820328473 0.0 
149.00218820328473 0.0 
150.00218820328473 0.0 
151.00218820328473 0.0 
152.00218820328473 0.0 
153.00218820328473 0.0 
154.00218820328473 0.0 
155.00218820328473 0.0 
156.00218820328473 0.0 
157.00218820328473 0.0 
158.00218820328473 0.0 
159.00218820328473 0.0 
160.00218820328473 0.0 
161.00218820328473 0.0 
162.00218820328473 0.0 
163.00218820328473 0.0 
#####################################################################
# End of data export. Simulation finished at: 2017-05-20T10:55+0000 #
#####################################################################
