#####################################################################
# Alchemist log file - simulation started at: 2017-05-24T00:58+0000 #
#####################################################################
# random = 13.0, targets = 10.0, density = 14.160781367816199, gridShift = 1.0, perturbation = 0.0, connfactor = 0.25
#
# The columns have the following meaning: 
# time se[Mean] 
0.0 NaN 
1.0002602723432414 NaN 
2.000260272343241 1.0 
3.000260272343241 1.0 
4.000260272343241 0.9998743386243386 
5.000260272343241 0.9994973544973546 
6.000260272343241 0.998994708994709 
7.000260272343241 0.9974404761904762 
8.00026027234324 0.9956481481481482 
9.00026027234324 0.9925198412698413 
10.00026027234324 0.9889550264550264 
11.00026027234324 0.9889748677248676 
12.00026027234324 0.9813624338624338 
13.00026027234324 0.977003968253968 
14.00026027234324 0.9697222222222224 
15.00026027234324 0.9597949735449736 
16.00026027234324 0.9558531746031748 
17.00026027234324 0.9471428571428572 
18.00026027234324 0.9420568783068782 
19.00026027234324 0.9363822751322753 
20.00026027234324 0.9302513227513228 
21.00026027234324 0.9270965608465609 
22.00026027234324 0.9226190476190477 
23.00026027234324 0.9191005291005291 
24.00026027234324 0.9175529100529101 
25.00026027234324 0.9139219576719576 
26.00026027234324 0.9119378306878305 
27.00026027234324 0.9118650793650794 
28.00026027234324 0.9117460317460319 
29.00026027234324 0.9102447089947089 
30.00026027234324 0.9120502645502646 
31.00026027234324 0.9115542328042328 
32.00026027234324 0.9130952380952382 
33.00026027234324 0.9137566137566135 
34.00026027234324 0.9154629629629629 
35.00026027234324 0.9166732804232807 
36.00026027234324 0.9188624338624339 
37.00026027234324 0.9214550264550265 
38.00026027234324 0.9217129629629629 
39.00026027234324 0.9250396825396825 
40.00026027234324 0.9247089947089947 
41.00026027234324 0.9262698412698414 
42.00026027234324 0.9252645502645502 
43.00026027234324 0.9263095238095241 
44.00026027234324 0.9234656084656082 
45.00026027234324 0.9209589947089946 
46.00026027234324 0.9182142857142861 
47.00026027234324 0.9152314814814818 
48.00026027234324 0.9106613756613756 
49.00026027234324 0.9065013227513227 
50.00026027234324 0.9036706349206347 
51.00026027234324 0.8973280423280426 
52.00026027234324 0.8943849206349207 
53.00026027234324 0.8879298941798943 
54.00026027234324 0.8811904761904765 
55.00026027234324 0.8755158730158729 
56.00026027234324 0.8679166666666669 
57.00026027234324 0.8618518518518516 
58.00026027234324 0.8532407407407406 
59.00026027234324 0.8463822751322748 
60.00026027234324 0.8400992063492065 
61.00026027234324 0.8317526455026458 
62.00026027234324 0.8249603174603173 
63.00026027234324 0.8137962962962961 
64.00026027234324 0.8069378306878311 
65.00026027234324 0.7977910052910057 
66.00026027234324 0.7909854497354496 
67.00026027234324 0.7808068783068782 
68.00026027234324 0.7759722222222222 
69.00026027234324 0.7687566137566136 
70.00026027234324 0.7643055555555556 
71.00026027234324 0.7581150793650795 
72.00026027234324 0.7534986772486773 
73.00026027234324 0.7469576719576718 
74.00026027234324 0.7400462962962963 
75.00026027234324 0.7363227513227514 
76.00026027234324 0.7278902116402117 
77.00026027234324 0.7258068783068785 
78.00026027234324 0.7154166666666667 
79.00026027234324 0.7102711640211642 
80.00026027234324 0.7015079365079362 
81.00026027234324 0.6928968253968256 
82.00026027234324 0.6824074074074071 
83.00026027234324 0.6756679894179894 
84.00026027234324 0.6651521164021164 
85.00026027234324 0.6575000000000003 
86.00026027234324 0.6471428571428574 
87.00026027234324 0.6389550264550267 
88.00026027234324 0.6312235449735448 
89.00026027234324 0.6201521164021166 
90.00026027234324 0.6118849206349204 
91.00026027234324 0.6016203703703705 
92.00026027234324 0.5949338624338625 
93.00026027234324 0.5843849206349206 
94.00026027234324 0.585132275132275 
95.00026027234324 0.5788492063492063 
96.00026027234324 0.573234126984127 
97.00026027234324 0.5601058201058203 
98.00026027234324 0.5724074074074075 
99.00026027234324 0.5662896825396826 
100.00026027234324 0.5642063492063493 
101.00026027234324 0.547771164021164 
102.00026027234324 0.55630291005291 
103.00026027234324 0.542579365079365 
104.00026027234324 0.5326587301587302 
105.00026027234324 0.5205886243386243 
106.00026027234324 0.5176785714285714 
107.00026027234324 0.5115343915343915 
108.00026027234324 0.5004828042328042 
109.00026027234324 0.4967724867724867 
110.00026027234324 0.48439153439153443 
111.00026027234324 0.4755357142857143 
112.00026027234324 0.4768121693121693 
113.00026027234324 0.46873015873015883 
114.00026027234324 0.47027777777777785 
115.00026027234324 0.4477645502645501 
116.00026027234324 0.4610912698412701 
117.00026027234324 0.4492526455026457 
118.00026027234324 0.4471296296296296 
119.00026027234324 0.4269444444444444 
120.00026027234324 0.4296891534391533 
121.00026027234324 0.4265674603174601 
122.00026027234324 0.4169113756613757 
123.00026027234324 0.409100529100529 
124.00026027234324 0.4047354497354496 
125.00026027234324 0.4004232804232803 
126.00026027234324 0.39572089947089945 
127.00026027234324 0.3852050264550267 
128.00026027234324 0.3849933862433861 
129.00026027234324 0.37613756613756644 
130.00026027234324 0.37066798941798934 
131.00026027234324 0.3653240740740742 
132.00026027234324 0.3636177248677249 
133.00026027234324 0.3550396825396825 
134.00026027234324 0.35618386243386246 
135.00026027234324 0.34986772486772494 
136.00026027234324 0.34792328042328036 
137.00026027234324 0.34619708994709003 
138.00026027234324 0.34523809523809534 
139.00026027234324 0.34114417989418 
140.00026027234324 0.33749999999999997 
141.00026027234324 0.33653439153439163 
142.00026027234324 0.3320436507936508 
143.00026027234324 0.3282473544973544 
144.00026027234324 0.32779761904761906 
145.00026027234324 0.32392195767195775 
146.00026027234324 0.32181216931216927 
147.00026027234324 0.31850529100529107 
148.00026027234324 0.31516534391534395 
149.00026027234324 0.31287037037037035 
150.00026027234324 0.3105555555555555 
151.00026027234324 0.30832010582010594 
152.00026027234324 0.3060912698412699 
153.00026027234324 0.3033730158730159 
154.00026027234324 0.3001851851851852 
155.00026027234324 0.29996693121693113 
156.00026027234324 0.297010582010582 
157.00026027234324 0.2949272486772487 
158.00026027234324 0.29220899470899475 
159.00026027234324 0.2913029100529101 
160.00026027234324 0.28888888888888886 
161.00026027234324 0.2874338624338624 
162.00026027234324 0.2857275132275133 
163.00026027234324 0.283558201058201 
164.00026027234324 0.28265211640211635 
165.00026027234324 0.280462962962963 
166.00026027234324 0.2782671957671958 
167.00026027234324 0.2773148148148148 
168.00026027234324 0.2749272486772486 
169.00026027234324 0.2728174603174603 
170.00026027234324 0.27123677248677247 
171.00026027234324 0.2692724867724868 
172.00026027234324 0.26757275132275127 
173.00026027234324 0.26595899470899476 
174.00026027234324 0.26422619047619045 
175.00026027234324 0.26292989417989415 
176.00026027234324 0.2611838624338624 
177.00026027234324 0.2602843915343915 
178.00026027234324 0.25857804232804227 
179.00026027234324 0.25730158730158736 
180.00026027234324 0.2565013227513228 
181.00026027234324 0.2554960317460317 
182.00026027234324 0.2542328042328042 
183.00026027234324 0.25359126984126984 
184.00026027234324 0.2527050264550264 
185.00026027234324 0.2519642857142857 
186.00026027234324 0.2512367724867725 
187.00026027234324 0.25080026455026455 
188.00026027234324 0.2504365079365079 
189.00026027234324 0.2503637566137566 
190.00026027234324 0.25014550264550267 
191.00026027234324 0.25014550264550267 
192.00026027234324 0.25 
193.00026027234324 0.25 
194.00026027234324 0.25 
195.00026027234324 0.25 
196.00026027234324 0.25 
197.00026027234324 0.25 
198.00026027234324 0.25 
199.00026027234324 0.25 
200.00026027234324 0.25 
201.00026027234324 0.25 
202.00026027234324 0.25 
203.00026027234324 0.25 
204.00026027234324 0.25 
205.00026027234324 0.25 
206.00026027234324 0.25 
207.00026027234324 0.25 
208.00026027234324 0.25 
209.00026027234324 0.25 
210.00026027234324 0.25 
211.00026027234324 0.25 
212.00026027234324 0.25 
213.00026027234324 0.25 
214.00026027234324 0.25 
215.00026027234324 0.25 
216.00026027234324 0.25 
217.00026027234324 0.25 
218.00026027234324 0.25 
219.00026027234324 0.25 
220.00026027234324 0.25 
221.00026027234324 0.25 
222.00026027234324 0.25 
223.00026027234324 0.25 
224.00026027234324 0.25 
225.00026027234324 0.25 
226.00026027234324 0.25 
227.00026027234324 0.25 
228.00026027234324 0.25 
229.00026027234324 0.25 
230.00026027234324 0.25 
231.00026027234324 0.25 
232.00026027234324 0.25 
233.00026027234324 0.25 
234.00026027234324 0.25 
235.00026027234324 0.25 
236.00026027234324 0.25 
237.00026027234324 0.25 
238.00026027234324 0.25 
239.00026027234324 0.25 
240.00026027234324 0.25 
241.00026027234324 0.25 
242.00026027234324 0.25 
243.00026027234324 0.25 
244.00026027234324 0.25 
245.00026027234324 0.25 
246.00026027234324 0.25 
247.00026027234324 0.25 
248.00026027234324 0.25 
249.00026027234324 0.25 
250.00026027234324 0.25 
251.00026027234324 0.25 
252.00026027234324 0.25 
253.00026027234324 0.25 
254.00026027234324 0.25 
255.00026027234324 0.25 
256.0002602723432 0.25 
257.0002602723432 0.25 
258.0002602723432 0.25 
259.0002602723432 0.25 
260.0002602723432 0.25 
261.0002602723432 0.25 
262.0002602723432 0.25 
263.0002602723432 0.25 
264.0002602723432 0.25 
265.0002602723432 0.25 
266.0002602723432 0.25 
267.0002602723432 0.25 
268.0002602723432 0.25 
269.0002602723432 0.25 
270.0002602723432 0.25 
271.0002602723432 0.25 
272.0002602723432 0.25 
273.0002602723432 0.25 
274.0002602723432 0.25 
#####################################################################
# End of data export. Simulation finished at: 2017-05-24T01:01+0000 #
#####################################################################
