#####################################################################
# Alchemist log file - simulation started at: 2017-05-23T19:14+0000 #
#####################################################################
# random = 12.0, targets = 31.622776601683793, density = 20.0, gridShift = 0.0, perturbation = 0.5, connfactor = 1.5
#
# The columns have the following meaning: 
# time se[Mean] 
0.0 NaN 
1.000297589316342 NaN 
2.000297589316342 NaN 
3.000297589316342 1.0086322375740366 
4.000297589316342 1.0121161685204199 
5.000297589316342 1.013674712801967 
6.000297589316342 1.0106802945499367 
7.000297589316342 1.0084212286134502 
8.000297589316343 1.0090184529163402 
9.000297589316343 1.012180019265213 
10.000297589316343 1.015010589955286 
11.000297589316343 1.0168081881693913 
12.000297589316343 1.023955517177485 
13.000297589316343 1.0300314133107489 
14.000297589316343 1.032779794938138 
15.000297589316343 1.041395758461128 
16.000297589316343 1.0425439812159394 
17.000297589316343 1.0474892899749269 
18.000297589316343 1.0514811436163418 
19.000297589316343 1.0549155881194698 
20.000297589316343 1.0595749874164961 
21.000297589316343 1.0667502095964345 
22.000297589316343 1.0829948533085516 
23.000297589316343 1.0822394728858806 
24.000297589316343 1.1004658522325839 
25.000297589316343 1.1083454805096764 
26.000297589316343 1.1317018812786392 
27.000297589316343 1.1387563120672013 
28.000297589316343 1.141045544152188 
29.000297589316343 1.174019975266961 
30.000297589316343 1.1959187274546432 
31.000297589316343 1.201162092040791 
32.00029758931635 1.2350130665896224 
33.00029758931635 1.2431258053308143 
34.00029758931635 1.2695922148954635 
35.00029758931635 1.2639520709590957 
36.00029758931635 1.2737369630855289 
37.00029758931635 1.2997917997806794 
38.00029758931635 1.3212950727285553 
39.00029758931635 1.3366678329189632 
40.00029758931635 1.3740296105992067 
41.00029758931635 1.3860483331976776 
42.00029758931635 1.4218403129779247 
43.00029758931635 1.4307899745117523 
44.00029758931635 1.4625490315017151 
45.00029758931635 1.4841433424732955 
46.00029758931635 1.5053351161079995 
47.00029758931635 1.527312604589729 
48.00029758931635 1.5435889033431127 
49.00029758931635 1.5274617682029938 
50.00029758931635 1.55476004558476 
51.00029758931635 1.5463621959683598 
52.00029758931635 1.5790178729600317 
53.00029758931635 1.5572137128034995 
54.00029758931635 1.5822888396920953 
55.00029758931635 1.577637593837985 
56.00029758931635 1.5625957067544283 
57.00029758931635 1.577406642722345 
58.00029758931635 1.5535725950641694 
59.00029758931635 1.5857245500248025 
60.00029758931635 1.573624180480573 
61.00029758931635 1.6261091254978508 
62.00029758931635 1.6385558812868517 
63.00029758931635 1.657827994981135 
64.00029758931635 1.7285637549010973 
65.00029758931635 1.7385899472292117 
66.00029758931635 1.8183046413945583 
67.00029758931635 1.7944959702147822 
68.00029758931635 1.8861910970605986 
69.00029758931635 1.944392366868192 
70.00029758931635 1.9462727304886 
71.00029758931635 1.9353426093995303 
72.00029758931635 1.9883076458811364 
73.00029758931635 1.9179931697107648 
74.00029758931635 2.12924860214723 
75.00029758931635 1.9547990397648614 
76.00029758931635 2.1705494537305743 
77.00029758931635 2.0982587719781436 
78.00029758931635 2.0808401332803994 
79.00029758931635 2.1442677146331848 
80.00029758931635 2.2228153938356883 
81.00029758931635 2.341574578016631 
82.00029758931635 2.2823406766713163 
83.00029758931635 2.3744531296496816 
84.00029758931635 2.4058626689259546 
85.00029758931635 2.4604085359727077 
86.00029758931635 2.6099136359088355 
87.00029758931635 2.5956830863750784 
88.00029758931635 2.611824231649645 
89.00029758931635 2.6404523842081806 
90.00029758931635 2.702238063128275 
91.00029758931635 2.6663287664217163 
92.00029758931635 2.6724370003871822 
93.00029758931635 2.8134522694383883 
94.00029758931635 2.763849649761015 
95.00029758931635 2.8998324697480156 
96.00029758931635 2.7708707576009366 
97.00029758931635 3.0416949905127924 
98.00029758931635 3.1256026571935474 
99.00029758931635 3.1263130577382787 
100.00029758931635 3.25477079424854 
101.00029758931635 3.318130058951079 
102.00029758931635 3.204989082103774 
103.00029758931635 3.3667138506976246 
104.00029758931635 3.406448669661144 
105.00029758931635 3.5910229290237328 
106.00029758931635 3.5082138496636026 
107.00029758931635 3.53006190567431 
108.00029758931635 3.4899005331294295 
109.00029758931635 3.7942100024436103 
110.00029758931635 3.5041705300066406 
111.00029758931635 3.902017889918492 
112.00029758931635 3.8612361335696512 
113.00029758931635 3.875339157742079 
114.00029758931635 4.096966663171851 
115.00029758931635 4.020067243095477 
116.00029758931635 4.8152348517086425 
117.00029758931635 4.5965571462802535 
118.00029758931635 5.877616040466141 
119.00029758931635 6.307959215213008 
120.00029758931635 6.4517354813776455 
121.00029758931635 7.614229117521212 
122.00029758931635 8.058269189828103 
123.00029758931635 9.23316157017168 
124.00029758931635 9.464003988378524 
125.00029758931635 10.526591684356006 
126.00029758931635 12.222916621366172 
127.00029758931635 11.84257174771341 
128.00029758931635 11.769618997611007 
129.00029758931635 12.54747187405019 
130.00029758931635 11.30029185124059 
131.00029758931635 14.991806963364967 
132.00029758931635 11.926948205346287 
133.00029758931635 15.632293856703482 
134.00029758931635 14.022377258056386 
135.00029758931635 13.397814770191825 
136.00029758931635 14.535760774415175 
137.00029758931635 14.613894374746582 
138.00029758931635 16.27678843793083 
139.00029758931635 14.590689392359009 
140.00029758931635 15.614114158621016 
141.00029758931635 15.252355577136228 
142.00029758931635 14.892402441809574 
143.00029758931635 17.41548125190599 
144.00029758931635 15.742743785831074 
145.00029758931635 14.886551361749119 
146.00029758931635 14.582594263220125 
147.00029758931635 15.982444295734611 
148.00029758931635 14.549047185153322 
149.00029758931635 14.597305613363517 
150.00029758931635 14.698510406463496 
151.00029758931635 15.000514782194177 
152.00029758931635 14.418166403436054 
153.00029758931635 11.630096468949702 
154.00029758931635 15.731047156912764 
155.00029758931635 16.721736604938556 
156.00029758931635 14.742131791086223 
157.00029758931635 15.137392596219238 
158.00029758931635 15.337486459510107 
159.00029758931635 12.855430000565192 
160.00029758931635 14.104514315489398 
161.00029758931635 11.294092722045951 
162.00029758931635 14.98428954787771 
163.00029758931635 14.255432759423401 
164.00029758931635 13.97000756878817 
165.00029758931635 13.752158128569965 
166.00029758931635 14.821143669518088 
167.00029758931635 14.564918720672242 
168.00029758931635 13.924042512026189 
169.00029758931635 15.274364480357384 
170.00029758931635 16.17210138567465 
171.00029758931635 15.36006445649319 
172.00029758931635 15.353261576507862 
173.00029758931635 15.321143761123697 
174.00029758931635 14.201923594819329 
175.00029758931635 12.555549731671997 
176.00029758931635 14.797602670766125 
177.00029758931635 12.142861099791189 
178.00029758931635 15.169245078904863 
179.00029758931635 12.623511715503225 
180.00029758931635 12.49455519409571 
181.00029758931635 13.569433332321381 
182.00029758931635 13.02044377806831 
183.00029758931635 14.36767866250398 
184.00029758931635 13.481194525052796 
185.00029758931635 14.06153134316968 
186.00029758931635 14.217007085345145 
187.00029758931635 13.775371717940612 
188.00029758931635 16.046276176442174 
189.00029758931635 14.963201293171721 
190.00029758931635 13.978801082075698 
191.00029758931635 14.90616465824818 
192.00029758931635 14.698889651099323 
193.00029758931635 14.151698780024626 
194.00029758931635 14.222943044021935 
195.00029758931635 13.977206955309933 
196.00029758931635 14.58403620949406 
197.00029758931635 14.393992664972142 
198.00029758931635 12.592025197259293 
199.00029758931635 15.46956987786853 
200.00029758931635 15.933557357879751 
201.00029758931635 14.488861561228951 
202.00029758931635 14.652681955312593 
203.00029758931635 15.460759115957032 
204.00029758931635 13.104182114681528 
205.00029758931635 13.697461761652246 
206.00029758931635 11.808262700507502 
207.00029758931635 14.31780003587132 
208.00029758931635 12.806460460069385 
209.00029758931635 12.675737831577154 
210.00029758931635 12.17642937989369 
211.00029758931635 12.483808919865826 
212.00029758931635 11.987853253428598 
213.00029758931635 10.234319918728927 
214.00029758931635 12.345003129100105 
215.00029758931635 12.270615188955121 
216.00029758931635 10.458189560655512 
217.00029758931635 10.686478510311325 
218.00029758931635 10.74102281953716 
219.00029758931635 8.97653807285627 
220.00029758931635 8.775160470999497 
221.00029758931635 7.9364643189420905 
222.00029758931635 8.143252221106824 
223.00029758931635 8.158953535764478 
224.00029758931635 7.057036285044149 
225.00029758931635 7.087266244094333 
226.00029758931635 7.32180446388513 
227.00029758931635 6.591389783354018 
228.00029758931635 6.154871933935624 
229.00029758931635 6.635576667366056 
230.00029758931635 6.443348367919882 
231.00029758931635 6.07403538792073 
232.00029758931635 6.116371924610134 
233.00029758931635 6.116151908073101 
234.00029758931635 5.7877712672264945 
235.00029758931635 5.665332586684457 
236.00029758931635 5.58311309654592 
237.00029758931635 5.459827285687973 
238.00029758931635 5.542785128313761 
239.00029758931635 5.254320330802348 
240.00029758931635 5.295198106926226 
241.00029758931635 5.336643911903824 
242.00029758931635 5.1716161622077745 
243.00029758931635 5.130318863843931 
244.00029758931635 5.171612204268263 
245.00029758931635 5.130062314541232 
246.00029758931635 5.130230964769496 
247.00029758931635 5.130060896771855 
248.00029758931635 5.129840145095149 
249.00029758931635 5.129890887847939 
250.00029758931635 5.129924145303799 
251.00029758931635 5.129754608969675 
252.00029758931635 5.129771621676811 
253.00029758931635 5.129822187208428 
254.00029758931635 5.1298221281347045 
255.00029758931635 5.129805233575016 
256.00029758931635 5.1298221281347045 
257.00029758931635 5.1298221281347045 
258.00029758931635 5.1298221281347045 
259.00029758931635 5.1298221281347045 
260.00029758931635 5.1298221281347045 
261.00029758931635 5.1298221281347045 
262.00029758931635 5.1298221281347045 
263.00029758931635 5.1298221281347045 
264.00029758931635 5.1298221281347045 
265.00029758931635 5.1298221281347045 
266.00029758931635 5.1298221281347045 
267.00029758931635 5.1298221281347045 
268.00029758931635 5.1298221281347045 
269.00029758931635 5.1298221281347045 
270.00029758931635 5.1298221281347045 
271.00029758931635 5.1298221281347045 
272.00029758931635 5.1298221281347045 
273.00029758931635 5.1298221281347045 
274.00029758931635 5.1298221281347045 
275.00029758931635 5.1298221281347045 
276.00029758931635 5.1298221281347045 
277.00029758931635 5.1298221281347045 
278.00029758931635 5.1298221281347045 
279.00029758931635 5.1298221281347045 
280.00029758931635 5.1298221281347045 
281.00029758931635 5.1298221281347045 
282.00029758931635 5.1298221281347045 
283.00029758931635 5.1298221281347045 
284.00029758931635 5.1298221281347045 
285.00029758931635 5.1298221281347045 
286.00029758931635 5.1298221281347045 
287.00029758931635 5.1298221281347045 
288.00029758931635 5.1298221281347045 
289.00029758931635 5.1298221281347045 
290.00029758931635 5.1298221281347045 
291.00029758931635 5.1298221281347045 
292.00029758931635 5.1298221281347045 
293.00029758931635 5.1298221281347045 
294.00029758931635 5.1298221281347045 
295.00029758931635 5.1298221281347045 
296.00029758931635 5.1298221281347045 
297.00029758931635 5.1298221281347045 
298.00029758931635 5.1298221281347045 
299.00029758931635 5.1298221281347045 
300.00029758931635 5.1298221281347045 
301.00029758931635 5.1298221281347045 
302.00029758931635 5.1298221281347045 
303.00029758931635 5.1298221281347045 
304.00029758931635 5.1298221281347045 
305.00029758931635 5.1298221281347045 
306.00029758931635 5.1298221281347045 
307.00029758931635 5.1298221281347045 
308.00029758931635 5.1298221281347045 
309.00029758931635 5.1298221281347045 
310.00029758931635 5.1298221281347045 
311.00029758931635 5.1298221281347045 
312.00029758931635 5.1298221281347045 
313.00029758931635 5.1298221281347045 
314.00029758931635 5.1298221281347045 
315.00029758931635 5.1298221281347045 
316.00029758931635 5.1298221281347045 
317.00029758931635 5.1298221281347045 
318.00029758931635 5.1298221281347045 
319.00029758931635 5.1298221281347045 
320.00029758931635 5.1298221281347045 
321.00029758931635 5.1298221281347045 
322.00029758931635 5.1298221281347045 
323.00029758931635 5.1298221281347045 
324.00029758931635 5.1298221281347045 
325.00029758931635 5.1298221281347045 
326.00029758931635 5.1298221281347045 
327.00029758931635 5.1298221281347045 
328.00029758931635 5.1298221281347045 
329.00029758931635 5.1298221281347045 
330.00029758931635 5.1298221281347045 
331.00029758931635 5.1298221281347045 
332.00029758931635 5.1298221281347045 
333.00029758931635 5.1298221281347045 
334.00029758931635 5.1298221281347045 
335.00029758931635 5.1298221281347045 
336.00029758931635 5.1298221281347045 
337.00029758931635 5.1298221281347045 
338.00029758931635 5.1298221281347045 
339.00029758931635 5.1298221281347045 
340.00029758931635 5.1298221281347045 
341.00029758931635 5.1298221281347045 
342.00029758931635 5.1298221281347045 
343.00029758931635 5.1298221281347045 
344.00029758931635 5.1298221281347045 
345.00029758931635 5.1298221281347045 
346.00029758931635 5.1298221281347045 
347.00029758931635 5.1298221281347045 
348.00029758931635 5.1298221281347045 
349.00029758931635 5.1298221281347045 
350.00029758931635 5.1298221281347045 
351.00029758931635 5.1298221281347045 
352.00029758931635 5.1298221281347045 
353.00029758931635 5.1298221281347045 
354.00029758931635 5.1298221281347045 
355.00029758931635 5.1298221281347045 
356.00029758931635 5.1298221281347045 
357.00029758931635 5.1298221281347045 
358.00029758931635 5.1298221281347045 
359.00029758931635 5.1298221281347045 
360.00029758931635 5.1298221281347045 
361.00029758931635 5.1298221281347045 
362.00029758931635 5.1298221281347045 
363.00029758931635 5.1298221281347045 
364.00029758931635 5.1298221281347045 
#####################################################################
# End of data export. Simulation finished at: 2017-05-23T19:23+0000 #
#####################################################################
