#####################################################################
# Alchemist log file - simulation started at: 2017-05-21T08:15+0000 #
#####################################################################
# random = 2.0, targets = 10.0, density = 0.2247883923996312, gridShift = 1.0, perturbation = 0.0, connfactor = 0.1
#
# The columns have the following meaning: 
# time se[Mean] 
0.0 NaN 
1.003288451303821 NaN 
2.003288451303821 1.0 
3.003288451303821 0.9954761904761905 
4.0032884513038205 0.9773809523809524 
5.0032884513038205 0.9638095238095238 
6.0032884513038205 0.9321428571428572 
7.0032884513038205 0.905 
8.00328845130382 0.8733333333333334 
9.00328845130382 0.8552380952380952 
10.00328845130382 0.8461904761904763 
11.00328845130382 0.8235714285714286 
12.00328845130382 0.8190476190476191 
13.00328845130382 0.81 
14.00328845130382 0.81 
15.00328845130382 0.81 
16.00328845130382 0.81 
17.00328845130382 0.81 
18.00328845130382 0.81 
19.00328845130382 0.81 
20.00328845130382 0.81 
#####################################################################
# End of data export. Simulation finished at: 2017-05-21T08:15+0000 #
#####################################################################
