0.000000000000000000e+00 nan
1.000438801394547772e+00 1.069487079549174269e-01
2.000877602789095544e+00 9.573920957965547096e-01
3.001316404183641762e+00 9.555021402788004270e-01
4.001755205578191088e+00 9.433298917478416534e-01
5.002194006972739970e+00 9.235956677325369846e-01
6.002632808367283523e+00 8.937561710936308135e-01
7.003071609761832406e+00 8.630445566641425925e-01
8.003510411156382176e+00 8.317081855879561170e-01
9.003949212550933723e+00 7.950373330775254432e-01
1.000438801394547994e+01 7.612124222183712652e-01
1.100482681534001728e+01 7.161794912078142117e-01
1.200526561673456705e+01 6.735423533264938145e-01
1.300570441812911859e+01 6.218811277613802702e-01
1.400614321952366481e+01 5.856215652426315366e-01
1.500658202091820925e+01 5.416360069355573570e-01
1.600702082231276435e+01 5.045340816241128401e-01
1.700745962370730524e+01 4.700857272016016331e-01
1.800789842510186745e+01 4.311050661748679347e-01
1.900833722649639768e+01 4.058447032134528953e-01
2.000877602789095988e+01 3.705645123900797588e-01
2.100921482928549722e+01 3.544827106390719407e-01
2.200965363068003455e+01 3.237976460707152615e-01
2.301009243207459676e+01 3.070575417053215683e-01
2.401053123346913409e+01 2.811696225626097445e-01
2.501097003486369985e+01 2.920492279406041169e-01
2.601140883625823719e+01 2.527877149063318396e-01
2.701184763765278518e+01 2.481789523191828828e-01
2.801228643904732962e+01 2.330780767551365318e-01
2.901272524044187406e+01 2.262545872931924495e-01
3.001316404183641851e+01 2.184335926323379418e-01
3.101360284323096650e+01 1.998291778367353722e-01
3.201404164462552870e+01 2.170213738306455420e-01
3.301448044602008025e+01 1.760724523656410356e-01
3.401491924741461048e+01 2.212337603160364763e-01
3.501535804880916203e+01 1.803030040730480010e-01
3.601579685020373489e+01 1.518152569808432495e-01
3.701623565159823670e+01 1.430916411180333525e-01
3.801667445299279535e+01 1.321238181831571046e-01
3.901711325438736111e+01 1.286804254381446744e-01
4.001755205578191976e+01 1.344125374338048795e-01
4.101799085717644289e+01 1.314020226357003329e-01
4.201842965857099443e+01 1.032052358893261607e-01
4.301886845996556730e+01 8.086169582392868649e-02
4.401930726136006911e+01 8.012215057149359165e-02
4.501974606275462776e+01 6.770898612082336399e-02
4.602018486414919352e+01 5.802569985896655763e-02
4.702062366554375217e+01 5.542100034050112534e-02
4.802106246693826819e+01 5.525868810262338227e-02
4.902150126833283394e+01 5.508301836173624261e-02
5.002194006972739970e+01 5.504346663111624877e-02
5.102237887112190151e+01 5.504346663111624877e-02
5.202281767251647437e+01 5.500391490049622717e-02
5.302325647391102592e+01 5.500391490049622717e-02
5.402369527530557036e+01 5.500391490049622717e-02
5.502413407670012191e+01 5.500391490049622717e-02
5.602457287809465925e+01 5.500391490049622717e-02
5.702501167948921079e+01 5.500391490049622717e-02
5.802545048088374813e+01 5.500391490049622717e-02
5.902588928227829257e+01 5.500391490049622717e-02
6.002632808367283701e+01 5.500391490049622717e-02
6.102676688506742408e+01 5.500391490049622717e-02
6.202720568646193300e+01 5.500391490049622717e-02
6.302764448785652007e+01 5.500391490049622717e-02
6.402808328925105741e+01 5.500391490049622717e-02
6.502852209064555211e+01 5.500391490049622717e-02
6.602896089204016050e+01 5.500391490049622717e-02
6.702939969343468363e+01 5.500391490049622717e-02
