#####################################################################
# Alchemist log file - simulation started at: 2017-05-23T18:07+0000 #
#####################################################################
# random = 12.0, targets = 31.622776601683793, density = 3.5589026259761294, gridShift = 0.0, perturbation = 0.5, connfactor = 1.5
#
# The columns have the following meaning: 
# time se[Mean] 
0.0 NaN 
1.0005590746559656 NaN 
2.000559074655966 1.0355281903788438 
3.000559074655966 1.056159497971238 
4.000559074655966 1.0779452777638026 
5.000559074655966 1.087573039943317 
6.000559074655966 1.1062476060498687 
7.000559074655966 1.1297955076036528 
8.000559074655966 1.1503725180517408 
9.000559074655966 1.1892095534433502 
10.000559074655966 1.211587349495973 
11.000559074655966 1.24394636601734 
12.000559074655966 1.2843891818630673 
13.000559074655966 1.3157279285363215 
14.000559074655966 1.3493237033292769 
15.000559074655966 1.4090330631504808 
16.000559074655968 1.463547248136338 
17.000559074655968 1.5138388225441226 
18.000559074655968 1.5707773927205555 
19.000559074655968 1.596281218694257 
20.000559074655968 1.6297116811342243 
21.000559074655968 1.6679182897420974 
22.000559074655968 1.7110635139829027 
23.000559074655968 1.7703737049867883 
24.000559074655968 1.7888372432126545 
25.000559074655968 1.8568695891817222 
26.000559074655968 1.837070564995553 
27.000559074655968 1.854405952465537 
28.000559074655968 1.8383897360737822 
29.000559074655968 1.8757846763091686 
30.000559074655968 1.8634370293030538 
31.000559074655968 1.887506755050971 
32.00055907465597 1.901719781928181 
33.00055907465597 1.8983020278658924 
34.00055907465597 1.9223102920196447 
35.00055907465597 1.9295924682188883 
36.00055907465597 2.0000831212800265 
37.00055907465597 2.1668614187593898 
38.00055907465597 2.2344223663840506 
39.00055907465597 2.4101150701042857 
40.00055907465597 2.368094858396065 
41.00055907465597 2.3947939141944334 
42.00055907465597 2.3971778321735413 
43.00055907465597 2.4800176659851467 
44.00055907465597 2.5976750098035635 
45.00055907465597 2.4707475525213636 
46.00055907465597 2.863286713373475 
47.00055907465597 2.7930149354595892 
48.00055907465597 2.9162320435235194 
49.00055907465597 2.6374397758841366 
50.00055907465597 3.0824663657773397 
51.00055907465597 3.1205273268901634 
52.00055907465597 2.9861511897545108 
53.00055907465597 3.1955926204689504 
54.00055907465597 3.3813045869825937 
55.00055907465597 3.3250195499994617 
56.00055907465597 3.4677506150660267 
57.00055907465597 3.672980324105501 
58.00055907465597 5.014926224301603 
59.00055907465597 5.070173372035426 
60.00055907465597 6.205789539836502 
61.00055907465597 6.015762036244898 
62.00055907465597 6.024312907715883 
63.00055907465597 5.6232556551855915 
64.00055907465597 5.929775027943665 
65.00055907465597 6.595465309652627 
66.00055907465597 5.58463963220944 
67.00055907465597 7.85404238331235 
68.00055907465597 7.261851663093038 
69.00055907465597 7.94017009418664 
70.00055907465597 6.135844520251152 
71.00055907465597 8.686360887957754 
72.00055907465597 8.997295214406412 
73.00055907465597 10.75916950116239 
74.00055907465597 19.549526660564176 
75.00055907465597 23.017795336329023 
76.00055907465597 30.02844506505119 
77.00055907465597 28.29322485375863 
78.00055907465597 27.55192761243025 
79.00055907465597 30.057652595928175 
80.00055907465597 30.607014975309088 
81.00055907465597 37.25899351342695 
82.00055907465597 30.057987075030148 
83.00055907465597 47.57184235959013 
84.00055907465597 39.442378354851435 
85.00055907465597 44.9147544107018 
86.00055907465597 29.793597675479525 
87.00055907465597 48.73916375937429 
88.00055907465597 49.16048281794927 
89.00055907465597 41.714273481594084 
90.00055907465597 48.92414080863417 
91.00055907465597 56.393893063910575 
92.00055907465597 50.64501122491932 
93.00055907465597 56.00273046445708 
94.00055907465597 48.173836592352906 
95.00055907465597 65.9939783819827 
96.00055907465597 51.15728108731925 
97.00055907465597 58.679666308097474 
98.00055907465597 60.53968178898848 
99.00055907465597 58.00889314066487 
100.00055907465597 35.541371586993684 
101.00055907465597 32.82262074040935 
102.00055907465597 30.42929170737353 
103.00055907465597 22.8698168148113 
104.00055907465597 22.83640701669646 
105.00055907465597 20.285979753886934 
106.00055907465597 17.638993683631973 
107.00055907465597 15.027873076699091 
108.00055907465597 10.044537483665 
109.00055907465597 7.548868289976462 
110.00055907465597 7.543385375680965 
111.00055907465597 7.547147218219654 
112.00055907465597 7.54178904652753 
113.00055907465597 7.535893006787201 
114.00055907465597 7.5315354003596235 
115.00055907465597 7.5127380501411904 
116.00055907465597 7.507158114100645 
117.00055907465597 7.507060407620143 
118.00055907465597 7.5049345932967135 
119.00055907465597 7.502072583150242 
120.00055907465597 7.502673886845614 
121.00055907465597 7.501403016492396 
122.00055907465597 7.4999483660490345 
123.00055907465597 7.498883323470653 
124.00055907465597 7.497898209594995 
125.00055907465597 7.498943182728932 
126.00055907465597 7.500346549376487 
127.00055907465597 7.502002652594686 
128.00055907465597 7.501350342881285 
129.00055907465597 7.501853802133684 
130.00055907465597 7.502249208609775 
131.00055907465597 7.501994909539131 
132.00055907465597 7.502498750735974 
133.00055907465597 7.502966828970344 
134.00055907465597 7.50336279100199 
135.00055907465597 7.503686636830913 
136.00055907465597 7.5036138609059675 
137.00055907465597 7.503505426185216 
138.00055907465597 7.503505426185216 
139.00055907465597 7.503505426185216 
140.00055907465597 7.503505426185216 
141.00055907465597 7.503505426185216 
142.00055907465597 7.503505426185216 
143.00055907465597 7.503505426185216 
144.00055907465597 7.503505426185216 
145.00055907465597 7.503505426185216 
146.00055907465597 7.503505426185216 
147.00055907465597 7.503505426185216 
148.00055907465597 7.503505426185216 
149.00055907465597 7.503505426185216 
150.00055907465597 7.503505426185216 
151.00055907465597 7.503505426185216 
152.00055907465597 7.503505426185216 
153.00055907465597 7.503505426185216 
154.00055907465597 7.503505426185216 
155.00055907465597 7.503505426185216 
156.00055907465597 7.503505426185216 
157.00055907465597 7.503505426185216 
158.00055907465597 7.503505426185216 
159.00055907465597 7.503505426185216 
160.00055907465597 7.503505426185216 
161.00055907465597 7.503505426185216 
162.00055907465597 7.503505426185216 
163.00055907465597 7.503505426185216 
164.00055907465597 7.503505426185216 
165.00055907465597 7.503505426185216 
166.00055907465597 7.503505426185216 
167.00055907465597 7.503505426185216 
168.00055907465597 7.503505426185216 
169.00055907465597 7.503505426185216 
170.00055907465597 7.503505426185216 
171.00055907465597 7.503505426185216 
172.00055907465597 7.503505426185216 
173.00055907465597 7.503505426185216 
174.00055907465597 7.503505426185216 
175.00055907465597 7.503505426185216 
176.00055907465597 7.503505426185216 
177.00055907465597 7.503505426185216 
178.00055907465597 7.503505426185216 
179.00055907465597 7.503505426185216 
#####################################################################
# End of data export. Simulation finished at: 2017-05-23T18:07+0000 #
#####################################################################
