#####################################################################
# Alchemist log file - simulation started at: 2017-05-24T16:04+0000 #
#####################################################################
# random = 15.0, targets = 10.0, density = 5.0264212595847235, gridShift = 0.0, perturbation = 0.0, connfactor = 0.5
#
# The columns have the following meaning: 
# time se[Mean] 
0.0 NaN 
1.0003675412420963 NaN 
2.0003675412420963 1.0 
3.0003675412420963 0.9996701388888889 
4.000367541242096 0.9987152777777778 
5.000367541242096 0.9954861111111111 
6.000367541242096 0.9912673611111111 
7.000367541242096 0.9842881944444445 
8.000367541242095 0.9856076388888889 
9.000367541242095 0.9784375000000001 
10.000367541242095 0.9805034722222222 
11.000367541242095 0.9735937499999999 
12.000367541242095 0.9778298611111111 
13.000367541242095 0.9723437499999998 
14.000367541242095 0.9753472222222223 
15.000367541242095 0.9699652777777776 
16.000367541242095 0.9667881944444444 
17.000367541242095 0.9627083333333333 
18.000367541242095 0.9583854166666667 
19.000367541242095 0.9550520833333335 
20.000367541242095 0.9457291666666666 
21.000367541242095 0.9431293402777777 
22.000367541242095 0.9284505208333332 
23.000367541242095 0.9290755208333333 
24.000367541242095 0.918693576388889 
25.000367541242095 0.9249435763888889 
26.000367541242095 0.9192274305555556 
27.000367541242095 0.9121657986111112 
28.000367541242095 0.902860243055556 
29.000367541242095 0.902547743055556 
30.000367541242095 0.8872222222222221 
31.000367541242095 0.8909288194444445 
32.0003675412421 0.8799696180555557 
33.0003675412421 0.878993055555556 
34.0003675412421 0.8845182291666666 
35.0003675412421 0.8639626736111111 
36.0003675412421 0.8769053819444448 
37.0003675412421 0.8677213541666666 
38.0003675412421 0.8617881944444445 
39.0003675412421 0.8600781250000004 
40.0003675412421 0.8480381944444442 
41.0003675412421 0.853606770833333 
42.0003675412421 0.8466623263888889 
43.0003675412421 0.8413975694444443 
44.0003675412421 0.8326692708333333 
45.0003675412421 0.8290928819444443 
46.0003675412421 0.8197612847222221 
47.0003675412421 0.8170312500000003 
48.0003675412421 0.8128732638888887 
49.0003675412421 0.815451388888889 
50.0003675412421 0.8082942708333337 
51.0003675412421 0.7972265625000001 
52.0003675412421 0.7928906250000001 
53.0003675412421 0.7823914930555558 
54.0003675412421 0.7681814236111106 
55.0003675412421 0.7605642361111107 
56.0003675412421 0.7460069444444445 
57.0003675412421 0.7350434027777779 
58.0003675412421 0.7185286458333339 
59.0003675412421 0.7003949652777773 
60.0003675412421 0.6881987847222218 
61.0003675412421 0.6672395833333336 
62.0003675412421 0.6530512152777777 
63.0003675412421 0.6408897569444437 
64.0003675412421 0.6578602430555558 
65.0003675412421 0.6072395833333337 
66.0003675412421 0.6224782986111107 
67.0003675412421 0.5650868055555558 
68.0003675412421 0.5363845486111112 
69.0003675412421 0.5308420138888894 
70.0003675412421 0.4847829861111114 
71.0003675412421 0.4799782986111115 
72.0003675412421 0.4573307291666672 
73.0003675412421 0.4141059027777774 
74.0003675412421 0.3911328125000002 
75.0003675412421 0.37892795138888846 
76.0003675412421 0.36564236111111087 
77.0003675412421 0.3387934027777778 
78.0003675412421 0.3423133680555556 
79.0003675412421 0.2847743055555558 
80.0003675412421 0.2621093749999996 
81.0003675412421 0.25320746527777793 
82.0003675412421 0.20357204861111117 
83.0003675412421 0.21463975694444423 
84.0003675412421 0.2201128472222223 
85.0003675412421 0.17790798611111117 
86.0003675412421 0.19410590277777776 
87.0003675412421 0.18828125000000004 
88.0003675412421 0.14947916666666658 
89.0003675412421 0.16491753472222212 
90.0003675412421 0.14276041666666667 
91.0003675412421 0.14783420138888892 
92.0003675412421 0.1451866319444445 
93.0003675412421 0.12073784722222218 
94.0003675412421 0.12592013888888895 
95.0003675412421 0.12276475694444441 
96.0003675412421 0.09978732638888885 
97.0003675412421 0.09980468749999992 
98.0003675412421 0.09828993055555556 
99.0003675412421 0.09113715277777777 
100.0003675412421 0.08306423611111113 
101.0003675412421 0.08691406250000004 
102.0003675412421 0.07170572916666668 
103.0003675412421 0.07697916666666665 
104.0003675412421 0.0794748263888889 
105.0003675412421 0.06263454861111112 
106.0003675412421 0.06342447916666683 
107.0003675412421 0.0626475694444444 
108.0003675412421 0.04170138888888891 
109.0003675412421 0.03999131944444437 
110.0003675412421 0.0335590277777778 
111.0003675412421 0.03309895833333329 
112.0003675412421 0.0334592013888888 
113.0003675412421 0.02661024305555559 
114.0003675412421 0.02782986111111108 
115.0003675412421 0.02681423611111112 
116.0003675412421 0.02000000000000002 
117.0003675412421 0.018767361111111075 
118.0003675412421 0.018125000000000027 
119.0003675412421 0.016857638888888863 
120.0003675412421 0.01578124999999999 
121.0003675412421 0.014357638888888892 
122.0003675412421 0.013038194444444436 
123.0003675412421 0.011996527777777792 
124.0003675412421 0.011145833333333329 
125.0003675412421 0.010468750000000002 
126.0003675412421 0.01020833333333333 
127.0003675412421 0.01 
128.0003675412421 0.01 
129.0003675412421 0.01 
130.0003675412421 0.01 
131.0003675412421 0.01 
132.0003675412421 0.01 
133.0003675412421 0.01 
134.0003675412421 0.01 
135.0003675412421 0.01 
136.0003675412421 0.01 
137.0003675412421 0.01 
138.0003675412421 0.01 
139.0003675412421 0.01 
140.0003675412421 0.01 
141.0003675412421 0.01 
142.0003675412421 0.01 
143.0003675412421 0.01 
144.0003675412421 0.01 
145.0003675412421 0.01 
146.0003675412421 0.01 
147.0003675412421 0.01 
148.0003675412421 0.01 
149.0003675412421 0.01 
150.0003675412421 0.01 
151.0003675412421 0.01 
152.0003675412421 0.01 
153.0003675412421 0.01 
154.0003675412421 0.01 
155.0003675412421 0.01 
156.0003675412421 0.01 
157.0003675412421 0.01 
158.0003675412421 0.01 
159.0003675412421 0.01 
160.0003675412421 0.01 
161.0003675412421 0.01 
162.0003675412421 0.01 
163.0003675412421 0.01 
164.0003675412421 0.01 
165.0003675412421 0.01 
166.0003675412421 0.01 
167.0003675412421 0.01 
168.0003675412421 0.01 
169.0003675412421 0.01 
170.0003675412421 0.01 
171.0003675412421 0.01 
172.0003675412421 0.01 
173.0003675412421 0.01 
174.0003675412421 0.01 
175.0003675412421 0.01 
176.0003675412421 0.01 
177.0003675412421 0.01 
#####################################################################
# End of data export. Simulation finished at: 2017-05-24T16:05+0000 #
#####################################################################
