#####################################################################
# Alchemist log file - simulation started at: 2017-05-24T13:35+0000 #
#####################################################################
# random = 15.0, targets = 1.0, density = 5.0264212595847235, gridShift = 0.0, perturbation = 0.5, connfactor = 1.0
#
# The columns have the following meaning: 
# time se[Mean] 
0.0 NaN 
1.0003675412420963 NaN 
2.0003675412420963 1.04296875 
3.0003675412420963 1.0837673611111114 
4.000367541242096 1.0920138888888886 
5.000367541242096 1.0846354166666665 
6.000367541242096 1.0416666666666667 
7.000367541242096 1.0125868055555556 
8.000367541242095 1.0 
9.000367541242095 1.0 
10.000367541242095 1.0 
11.000367541242095 1.0 
12.000367541242095 1.0 
13.000367541242095 1.0 
14.000367541242095 1.0 
15.000367541242095 1.0 
16.000367541242095 0.9983121141975309 
17.000367541242095 0.9949363425925926 
18.000367541242095 0.9898726851851852 
19.000367541242095 0.9780574845679013 
20.000367541242095 0.9898726851851852 
21.000367541242095 0.9746334876543208 
22.000367541242095 0.9597318672839505 
23.000367541242095 0.94970100308642 
24.000367541242095 0.9346547067901234 
25.000367541242095 0.9220679012345683 
26.000367541242095 0.9053819444444449 
27.000367541242095 0.8786168981481477 
28.000367541242095 0.8597125771604939 
29.000367541242095 0.8302469135802468 
30.000367541242095 0.8068094135802467 
31.000367541242095 0.7581018518518505 
32.0003675412421 0.7380883487654333 
33.0003675412421 0.7505304783950609 
34.0003675412421 0.7831307870370363 
35.0003675412421 0.8720582561728395 
36.0003675412421 1.1120273919753085 
37.0003675412421 0.7943190586419755 
38.0003675412421 1.0954861111111107 
39.0003675412421 1.3162615740740728 
40.0003675412421 1.3593750000000002 
41.0003675412421 1.3348765432098773 
42.0003675412421 1.612268518518517 
43.0003675412421 1.9946952160493816 
44.0003675412421 1.656105324074073 
45.0003675412421 1.8073398919753048 
46.0003675412421 2.215277777777779 
47.0003675412421 2.079764660493829 
48.0003675412421 2.1813271604938267 
49.0003675412421 2.052758487654318 
50.0003675412421 2.117139274691357 
51.0003675412421 2.139033564814813 
52.0003675412421 1.8716242283950606 
53.0003675412421 1.6045042438271588 
54.0003675412421 1.6296296296296298 
55.0003675412421 1.4614197530864188 
56.0003675412421 1.3805941358024638 
57.0003675412421 1.206307870370367 
58.0003675412421 1.2814911265432054 
59.0003675412421 1.0866608796296338 
60.0003675412421 0.7925347222222171 
61.0003675412421 0.8561921296296338 
62.0003675412421 0.4433834876543189 
63.0003675412421 0.7303240740740716 
64.0003675412421 0.4586226851851815 
65.0003675412421 0.4366319444444407 
66.0003675412421 0.47897376543209574 
67.0003675412421 0.30391589506172595 
68.0003675412421 0.29562114197531053 
69.0003675412421 0.13638117283950588 
70.0003675412421 0.1263503086419758 
71.0003675412421 0.04634452160493892 
72.0003675412421 0.03940007716049395 
73.0003675412421 0.012152777777777861 
74.0003675412421 0.008680555555555663 
75.0003675412421 0.005208333333333312 
76.0003675412421 0.003472222222222183 
77.0003675412421 0.0017361111111110891 
78.0003675412421 0.0017361111111110891 
79.0003675412421 4.930380657631324E-32 
80.0003675412421 4.930380657631324E-32 
81.0003675412421 4.930380657631324E-32 
82.0003675412421 4.930380657631324E-32 
83.0003675412421 4.930380657631324E-32 
84.0003675412421 4.930380657631324E-32 
85.0003675412421 4.930380657631324E-32 
86.0003675412421 4.930380657631324E-32 
87.0003675412421 4.930380657631324E-32 
88.0003675412421 4.930380657631324E-32 
89.0003675412421 4.930380657631324E-32 
90.0003675412421 4.930380657631324E-32 
91.0003675412421 4.930380657631324E-32 
92.0003675412421 4.930380657631324E-32 
93.0003675412421 4.930380657631324E-32 
94.0003675412421 4.930380657631324E-32 
95.0003675412421 4.930380657631324E-32 
96.0003675412421 4.930380657631324E-32 
97.0003675412421 4.930380657631324E-32 
98.0003675412421 4.930380657631324E-32 
99.0003675412421 4.930380657631324E-32 
100.0003675412421 4.930380657631324E-32 
101.0003675412421 4.930380657631324E-32 
102.0003675412421 4.930380657631324E-32 
103.0003675412421 4.930380657631324E-32 
104.0003675412421 4.930380657631324E-32 
105.0003675412421 4.930380657631324E-32 
106.0003675412421 4.930380657631324E-32 
107.0003675412421 4.930380657631324E-32 
108.0003675412421 4.930380657631324E-32 
109.0003675412421 4.930380657631324E-32 
110.0003675412421 4.930380657631324E-32 
111.0003675412421 4.930380657631324E-32 
112.0003675412421 4.930380657631324E-32 
113.0003675412421 4.930380657631324E-32 
114.0003675412421 4.930380657631324E-32 
115.0003675412421 4.930380657631324E-32 
116.0003675412421 4.930380657631324E-32 
117.0003675412421 4.930380657631324E-32 
118.0003675412421 4.930380657631324E-32 
119.0003675412421 4.930380657631324E-32 
120.0003675412421 4.930380657631324E-32 
121.0003675412421 4.930380657631324E-32 
122.0003675412421 4.930380657631324E-32 
123.0003675412421 4.930380657631324E-32 
124.0003675412421 4.930380657631324E-32 
125.0003675412421 4.930380657631324E-32 
126.0003675412421 4.930380657631324E-32 
127.0003675412421 4.930380657631324E-32 
128.0003675412421 4.930380657631324E-32 
#####################################################################
# End of data export. Simulation finished at: 2017-05-24T13:35+0000 #
#####################################################################
