#####################################################################
# Alchemist log file - simulation started at: 2017-05-24T06:55+0000 #
#####################################################################
# random = 14.0, targets = 3.1622776601683795, density = 7.099073319511142, gridShift = 0.0, perturbation = 0.5, connfactor = 1.5
#
# The columns have the following meaning: 
# time se[Mean] 
0.0 NaN 
1.0015837731381736 NaN 
2.0015837731381736 1.008652203513163 
3.0015837731381736 1.0172589067578808 
4.001583773138174 1.0242326700340847 
5.001583773138174 1.0362128084042452 
6.001583773138174 1.038399123815693 
7.001583773138174 1.0614436103571108 
8.001583773138174 1.1009934973818918 
9.001583773138174 1.1038673067256872 
10.001583773138174 1.167543486563559 
11.001583773138174 1.1821227532000698 
12.001583773138174 1.1988451712579173 
13.001583773138174 1.2053947435407781 
14.001583773138174 1.1737775862665332 
15.001583773138174 1.1924465458844626 
16.001583773138172 1.1668125352161223 
17.001583773138172 1.1754643655144468 
18.001583773138172 1.1651151555546524 
19.001583773138172 1.1671896698446331 
20.001583773138172 1.181158168846654 
21.001583773138172 1.2100055116821757 
22.001583773138172 1.245149144796343 
23.001583773138172 1.271989289478923 
24.001583773138172 1.2936923406351384 
25.001583773138172 1.3095026883571468 
26.001583773138172 1.3149083122873169 
27.001583773138172 1.3237537084052848 
28.001583773138172 1.329042970389001 
29.001583773138172 1.3394391176107519 
30.001583773138172 1.323514647231323 
31.001583773138172 1.3229514834986036 
32.00158377313817 1.3140031537971764 
33.00158377313817 1.2996286880918533 
34.00158377313817 1.2976755182827953 
35.00158377313817 1.2778741701439076 
36.00158377313817 1.2623107211074616 
37.00158377313817 1.2508009283535897 
38.00158377313817 1.2343032248120005 
39.00158377313817 1.218238148264013 
40.00158377313817 1.2003914627935308 
41.00158377313817 1.1914509632325179 
42.00158377313817 1.1763208876193498 
43.00158377313817 1.159215264049213 
44.00158377313817 1.1509319120194481 
45.00158377313817 1.14154535710184 
46.00158377313817 1.1397395039572404 
47.00158377313817 1.1302675418111898 
48.00158377313817 1.1224947670778975 
49.00158377313817 1.1167284950195842 
50.00158377313817 1.1041457076661971 
51.00158377313817 1.1026799905760178 
52.00158377313817 1.1039536347059082 
53.00158377313817 1.0912015257549892 
54.00158377313817 1.0841616095667856 
55.00158377313817 1.0729692015045795 
56.00158377313817 1.062818460109039 
57.00158377313817 1.0662123588135541 
58.00158377313817 1.0508902102401005 
59.00158377313817 1.046138006606927 
60.00158377313817 1.0346595417858975 
61.00158377313817 1.0339826261535354 
62.00158377313817 1.0181741445057182 
63.00158377313817 1.0069220638394647 
64.00158377313818 1.0049976119164479 
65.00158377313818 1.0022287863806618 
66.00158377313818 0.9974765827474891 
67.00158377313818 0.9965143567859805 
68.00158377313818 0.9942266442309489 
69.00158377313818 0.9923021923079319 
70.00158377313818 0.9925285764627081 
71.00158377313818 0.9936004514177045 
72.00158377313818 0.9898186795583557 
73.00158377313818 0.9844910059310565 
74.00158377313818 0.9853756572615983 
75.00158377313818 0.979192842657063 
76.00158377313818 0.9740252136651206 
77.00158377313818 0.9714481824070266 
78.00158377313818 0.9619375299347979 
79.00158377313818 0.955635416159759 
80.00158377313818 0.9475687084896406 
81.00158377313818 0.944000873953828 
82.00158377313818 0.9334000252472553 
83.00158377313818 0.921986273887653 
84.00158377313818 0.9237448067272057 
85.00158377313818 0.9122814036983478 
86.00158377313818 0.9018571518215941 
87.00158377313818 0.8948684261995867 
88.00158377313818 0.8810042155276139 
89.00158377313818 0.8788432154881359 
90.00158377313818 0.8690934533472948 
91.00158377313818 0.8613768590858631 
92.00158377313818 0.8642360768416307 
93.00158377313818 0.8544780168132969 
94.00158377313818 0.86197601347984 
95.00158377313818 0.8571625062705014 
96.00158377313818 0.8570167309600504 
97.00158377313818 0.865786418521242 
98.00158377313818 0.8835198658767454 
99.00158377313818 0.9073831804710173 
100.00158377313818 2.9272869618578587 
101.00158377313818 2.947531382091677 
102.00158377313818 13.071807129859868 
103.00158377313818 13.081245754971981 
104.00158377313818 5.070042169733324 
105.00158377313818 23.234474338254202 
106.00158377313818 21.253117377933606 
107.00158377313818 29.36919040773347 
108.00158377313818 21.322132643289468 
109.00158377313818 31.52513506523355 
110.00158377313818 35.591663284454825 
111.00158377313818 25.588438594711175 
112.00158377313818 33.84578624631905 
113.00158377313818 32.24069034389102 
114.00158377313818 26.339716943727367 
115.00158377313818 34.16583883839358 
116.00158377313818 47.19144287290083 
117.00158377313818 33.11013767008157 
118.00158377313818 42.37575928554258 
119.00158377313818 46.20962244544517 
120.00158377313818 29.897314385077838 
121.00158377313818 47.67258798077984 
122.00158377313818 49.3017468645076 
123.00158377313818 58.462571161567105 
124.00158377313818 39.64872945978505 
125.00158377313818 54.51412202504915 
126.00158377313818 65.25282364324117 
127.00158377313818 54.91244982743157 
128.00158377313818 69.32207722928986 
129.00158377313818 53.362011545702934 
130.00158377313818 65.34059842234232 
131.00158377313818 71.3737690781038 
132.00158377313818 65.02346506655604 
133.00158377313818 64.14030545179787 
134.00158377313818 59.01148110163468 
135.00158377313818 52.80301088096123 
136.00158377313818 66.0924925865752 
137.00158377313818 47.73846303252252 
138.00158377313818 49.61034563855276 
139.00158377313818 42.72477231023787 
140.00158377313818 44.76314788970622 
141.00158377313818 30.20074287870221 
142.00158377313818 35.266044588008384 
143.00158377313818 24.179834080061383 
144.00158377313818 21.170578246679902 
145.00158377313818 21.74155490188218 
146.00158377313818 18.36738773907014 
147.00158377313818 15.397430422174354 
148.00158377313818 11.906681399754186 
149.00158377313818 9.984360415652436 
150.00158377313818 9.137403934033784 
151.00158377313818 8.793216921183944 
152.00158377313818 9.303483755024976 
153.00158377313818 7.822007119344696 
154.00158377313818 7.590059605124202 
155.00158377313818 6.775807028462506 
156.00158377313818 7.144883035115164 
157.00158377313818 5.714980367191494 
158.00158377313818 5.871842096701192 
159.00158377313818 4.993385997075572 
160.00158377313818 4.598531268222715 
161.00158377313818 4.756440015234299 
162.00158377313818 4.436816131914836 
163.00158377313818 4.117220593266577 
164.00158377313818 3.9570245069148076 
165.00158377313818 3.7973665961010274 
166.00158377313818 3.7973665961010274 
167.00158377313818 3.7973665961010274 
168.00158377313818 3.7973665961010274 
169.00158377313818 3.7973665961010274 
170.00158377313818 3.7973665961010274 
171.00158377313818 3.7973665961010274 
172.00158377313818 3.7973665961010274 
173.00158377313818 3.7973665961010274 
174.00158377313818 3.7973665961010274 
175.00158377313818 3.7973665961010274 
176.00158377313818 3.7973665961010274 
177.00158377313818 3.7973665961010274 
178.00158377313818 3.7973665961010274 
179.00158377313818 3.7973665961010274 
180.00158377313818 3.7973665961010274 
181.00158377313818 3.7973665961010274 
182.00158377313818 3.7973665961010274 
183.00158377313818 3.7973665961010274 
184.00158377313818 3.7973665961010274 
185.00158377313818 3.7973665961010274 
186.00158377313818 3.7973665961010274 
187.00158377313818 3.7973665961010274 
188.00158377313818 3.7973665961010274 
189.00158377313818 3.7973665961010274 
190.00158377313818 3.7973665961010274 
191.00158377313818 3.7973665961010274 
192.00158377313818 3.7973665961010274 
193.00158377313818 3.7973665961010274 
194.00158377313818 3.7973665961010274 
195.00158377313818 3.7973665961010274 
196.00158377313818 3.7973665961010274 
197.00158377313818 3.7973665961010274 
198.00158377313818 3.7973665961010274 
199.00158377313818 3.7973665961010274 
200.00158377313818 3.7973665961010274 
201.00158377313818 3.7973665961010274 
202.00158377313818 3.7973665961010274 
203.00158377313818 3.7973665961010274 
204.00158377313818 3.7973665961010274 
205.00158377313818 3.7973665961010274 
206.00158377313818 3.7973665961010274 
207.00158377313818 3.7973665961010274 
208.00158377313818 3.7973665961010274 
209.00158377313818 3.7973665961010274 
210.00158377313818 3.7973665961010274 
211.00158377313818 3.7973665961010274 
212.00158377313818 3.7973665961010274 
213.00158377313818 3.7973665961010274 
214.00158377313818 3.7973665961010274 
215.00158377313818 3.7973665961010274 
216.00158377313818 3.7973665961010274 
217.00158377313818 3.7973665961010274 
218.00158377313818 3.7973665961010274 
219.00158377313818 3.7973665961010274 
220.00158377313818 3.7973665961010274 
221.00158377313818 3.7973665961010274 
222.00158377313818 3.7973665961010274 
223.00158377313818 3.7973665961010274 
224.00158377313818 3.7973665961010274 
225.00158377313818 3.7973665961010274 
226.00158377313818 3.7973665961010274 
#####################################################################
# End of data export. Simulation finished at: 2017-05-24T06:56+0000 #
#####################################################################
