#####################################################################
# Alchemist log file - simulation started at: 2017-05-26T05:39+0000 #
#####################################################################
# random = 9.0, targets = 10.0, density = 0.3174802103936399, gridShift = 1.0, perturbation = 0.0, connfactor = 0.5
#
# The columns have the following meaning: 
# time se[Mean] 
0.0 NaN 
1.0274843760556778 NaN 
2.0274843760556776 1.0045535714285714 
3.0274843760556776 1.0155704365079365 
4.0274843760556776 1.0153819444444445 
5.0274843760556776 1.0131547619047618 
6.0274843760556776 0.9914831349206349 
7.0274843760556776 0.9583482142857143 
8.027484376055678 0.9866865079365079 
9.027484376055678 0.932296626984127 
10.027484376055678 0.9452232142857142 
11.027484376055678 0.9112251984126983 
12.027484376055678 0.8913839285714286 
13.027484376055678 0.922405753968254 
14.027484376055678 0.9063988095238096 
15.027484376055678 0.904985119047619 
16.02748437605568 0.9207638888888889 
17.02748437605568 0.8959970238095238 
18.02748437605568 0.8883531746031746 
19.02748437605568 0.8192261904761905 
20.02748437605568 0.7826339285714285 
21.02748437605568 0.716875 
22.02748437605568 0.6532936507936509 
23.02748437605568 0.5998065476190476 
24.02748437605568 0.5910565476190476 
25.02748437605568 0.49415178571428575 
26.02748437605568 0.4587847222222222 
27.02748437605568 0.47331349206349205 
28.02748437605568 0.4641617063492064 
29.02748437605568 0.4755109126984127 
30.02748437605568 0.49776785714285715 
31.02748437605568 0.49129464285714286 
32.02748437605568 0.49 
33.02748437605568 0.49 
34.02748437605568 0.49 
35.02748437605568 0.49 
36.02748437605568 0.49 
37.02748437605568 0.49 
38.02748437605568 0.49 
39.02748437605568 0.49 
40.02748437605568 0.49 
#####################################################################
# End of data export. Simulation finished at: 2017-05-26T05:39+0000 #
#####################################################################
