#####################################################################
# Alchemist log file - simulation started at: 2017-05-26T00:34+0000 #
#####################################################################
# random = 19.0, targets = 31.622776601683793, density = 0.1591589639397027, gridShift = 1.0, perturbation = 0.0, connfactor = 0.75
#
# The columns have the following meaning: 
# time se[Mean] 
0.0 NaN 
1.029399693434633 NaN 
2.029399693434633 1.0304479248282383 
3.029399693434633 1.0540560412627877 
4.029399693434633 1.0520358255400977 
5.029399693434633 1.0209667526421176 
6.029399693434633 0.8785026848405447 
7.029399693434633 0.8281614583925719 
8.029399693434634 0.7536450105848459 
9.029399693434634 0.6498923548084624 
10.029399693434634 0.7313514554997279 
11.029399693434634 0.6701688781015754 
12.029399693434634 0.7181879683027769 
13.029399693434634 0.6597384277848488 
14.029399693434634 0.6293005527574934 
15.029399693434634 0.5499047416277731 
16.029399693434634 0.5210828973731412 
17.029399693434634 0.4822939610355575 
18.029399693434634 0.4795900167087225 
19.029399693434634 0.46901931973976985 
20.029399693434634 0.46924383207238113 
21.029399693434634 0.4680268259648802 
22.029399693434634 0.46754446796632426 
23.029399693434634 0.46754446796632426 
24.029399693434634 0.46754446796632426 
25.029399693434634 0.46754446796632426 
26.029399693434634 0.46754446796632426 
27.029399693434634 0.46754446796632426 
28.029399693434634 0.46754446796632426 
29.029399693434634 0.46754446796632426 
30.029399693434634 0.46754446796632426 
31.029399693434634 0.46754446796632426 
#####################################################################
# End of data export. Simulation finished at: 2017-05-26T00:34+0000 #
#####################################################################
