#####################################################################
# Alchemist log file - simulation started at: 2017-05-23T19:47+0000 #
#####################################################################
# random = 12.0, targets = 100.0, density = 0.4483936332993466, gridShift = 1.0, perturbation = 0.5, connfactor = 0.75
#
# The columns have the following meaning: 
# time se[Mean] 
0.0 NaN 
1.0005590746559656 NaN 
2.000559074655966 1.0393239969135804 
3.000559074655966 1.0566895447530864 
4.000559074655966 1.07519949845679 
5.000559074655966 1.0712930169753088 
6.000559074655966 1.0706532021604938 
7.000559074655966 1.067866512345679 
8.000559074655966 1.0497302469135803 
9.000559074655966 1.04992137345679 
10.000559074655966 1.022557523148148 
11.000559074655966 1.0240162808641975 
12.000559074655966 1.0421680941358025 
13.000559074655966 1.068878202160494 
14.000559074655966 1.0857586419753087 
15.000559074655966 1.1313760030864197 
16.000559074655968 1.0565998842592592 
17.000559074655968 1.1258833719135803 
18.000559074655968 1.0451212577160494 
19.000559074655968 1.0276611496913581 
20.000559074655968 1.0140275077160494 
21.000559074655968 1.0121313657407407 
22.000559074655968 0.9917947916666667 
23.000559074655968 0.9884731095679012 
24.000559074655968 1.0661175154320988 
25.000559074655968 1.0667748456790125 
26.000559074655968 1.0014331018518519 
27.000559074655968 1.0987981867283951 
28.000559074655968 1.0245645061728397 
29.000559074655968 1.0091941358024692 
30.000559074655968 1.0698858410493828 
31.000559074655968 0.9967757716049384 
32.00055907465597 1.084917901234568 
33.00055907465597 1.0359438657407407 
34.00055907465597 0.9866515817901236 
35.00055907465597 1.017580825617284 
36.00055907465597 0.9903049768518519 
37.00055907465597 0.9952717206790124 
38.00055907465597 1.0283066358024693 
39.00055907465597 1.0280666666666667 
40.00055907465597 1.0545734953703705 
41.00055907465597 1.1873645061728397 
42.00055907465597 1.1812972608024692 
43.00055907465597 1.1265533179012346 
44.00055907465597 1.2537889660493828 
45.00055907465597 1.1466597993827161 
46.00055907465597 1.1201014274691359 
47.00055907465597 1.1966097993827163 
48.00055907465597 1.0918015432098767 
49.00055907465597 1.1964682484567903 
50.00055907465597 1.1160489583333335 
51.00055907465597 1.0094510030864197 
52.00055907465597 1.0343876543209876 
53.00055907465597 0.9819395061728395 
54.00055907465597 0.9810197530864198 
55.00055907465597 0.9802839506172839 
56.00055907465597 0.9804679012345678 
57.00055907465597 0.9801 
58.00055907465597 0.9801 
59.00055907465597 0.9801 
60.00055907465597 0.9801 
61.00055907465597 0.9801 
62.00055907465597 0.9801 
63.00055907465597 0.9801 
64.00055907465597 0.9801 
65.00055907465597 0.9801 
66.00055907465597 0.9801 
67.00055907465597 0.9801 
68.00055907465597 0.9801 
69.00055907465597 0.9801 
70.00055907465597 0.9801 
71.00055907465597 0.9801 
72.00055907465597 0.9801 
73.00055907465597 0.9801 
#####################################################################
# End of data export. Simulation finished at: 2017-05-23T19:47+0000 #
#####################################################################
