#####################################################################
# Alchemist log file - simulation started at: 2017-05-23T17:59+0000 #
#####################################################################
# random = 12.0, targets = 31.622776601683793, density = 0.05649405772326896, gridShift = 0.0, perturbation = 0.5, connfactor = 0.75
#
# The columns have the following meaning: 
# time se[Mean] 
0.0 NaN 
1.0242474491697862 NaN 
2.024247449169786 1.0223187839136576 
3.024247449169786 1.0187912609002703 
4.024247449169787 0.9978953821649622 
5.024247449169787 1.0097311686629562 
6.024247449169787 0.925009424444798 
7.024247449169787 0.9579926173456189 
8.024247449169787 0.8730788707268891 
9.024247449169787 0.8770514866758965 
10.024247449169787 0.7990330870221183 
11.024247449169787 0.6458704326174413 
12.024247449169787 0.5298036330526145 
13.024247449169787 0.5182515376796699 
14.024247449169787 0.45574645994441376 
15.024247449169787 0.4410224673298935 
16.024247449169785 0.4346100140182211 
17.024247449169785 0.4266212644592563 
18.024247449169785 0.42522435462677527 
19.024247449169785 0.39957965707182264 
20.024247449169785 0.41886910034017305 
21.024247449169785 0.42529891476295656 
22.024247449169785 0.42529891476295656 
23.024247449169785 0.42529891476295656 
24.024247449169785 0.42529891476295656 
25.024247449169785 0.42529891476295656 
26.024247449169785 0.42529891476295656 
27.024247449169785 0.42529891476295656 
#####################################################################
# End of data export. Simulation finished at: 2017-05-23T17:59+0000 #
#####################################################################
