#####################################################################
# Alchemist log file - simulation started at: 2017-05-23T21:47+0000 #
#####################################################################
# random = 13.0, targets = 1.0, density = 0.3174802103936399, gridShift = 1.0, perturbation = 0.0, connfactor = 2.0
#
# The columns have the following meaning: 
# time se[Mean] 
0.0 NaN 
1.0093475742791087 NaN 
2.0093475742791087 1.0 
3.0093475742791087 0.9826388888888888 
4.009347574279109 1.5287698412698412 
5.009347574279109 3.206349206349207 
6.009347574279109 3.6274801587301595 
7.009347574279109 5.901785714285715 
8.009347574279108 2.8824404761904767 
9.009347574279108 2.98561507936508 
10.009347574279108 2.038194444444445 
11.009347574279108 0.8125000000000002 
12.009347574279108 0.816964285714286 
13.009347574279108 0.7232142857142859 
14.009347574279108 0.6696428571428574 
15.009347574279108 0.6582341269841272 
16.009347574279108 0.5987103174603177 
17.009347574279108 0.6091269841269843 
18.009347574279108 0.55109126984127 
19.009347574279108 0.5128968253968256 
20.009347574279108 0.5406746031746034 
21.009347574279108 0.5362103174603177 
22.009347574279108 0.5367063492063493 
23.009347574279108 0.4459325396825399 
24.009347574279108 0.3700396825396826 
25.009347574279108 0.36210317460317476 
26.009347574279108 0.2827380952380954 
27.009347574279108 0.21527777777777782 
28.009347574279108 0.17956349206349223 
29.009347574279108 0.15724206349206352 
30.009347574279108 0.11011904761904759 
31.009347574279108 0.0585317460317461 
32.009347574279104 0.028769841269841334 
33.009347574279104 0.01190476190476192 
34.009347574279104 0.003968253968253963 
35.009347574279104 4.96031746031742E-4 
36.009347574279104 4.437342591868191E-31 
37.009347574279104 4.437342591868191E-31 
38.009347574279104 4.437342591868191E-31 
39.009347574279104 4.437342591868191E-31 
40.009347574279104 4.437342591868191E-31 
41.009347574279104 4.437342591868191E-31 
42.009347574279104 4.437342591868191E-31 
43.009347574279104 4.437342591868191E-31 
44.009347574279104 4.437342591868191E-31 
#####################################################################
# End of data export. Simulation finished at: 2017-05-23T21:47+0000 #
#####################################################################
