#####################################################################
# Alchemist log file - simulation started at: 2017-05-23T07:42+0000 #
#####################################################################
# random = 5.0, targets = 3.1622776601683795, density = 0.1591589639397027, gridShift = 1.0, perturbation = 0.5, connfactor = 1.5
#
# The columns have the following meaning: 
# time se[Mean] 
0.0 NaN 
1.0628592424154633 NaN 
2.0628592424154633 1.1545320319406298 
3.0628592424154633 1.2129822770247305 
4.062859242415463 1.2816079539462424 
5.062859242415463 1.2621050536264142 
6.062859242415463 1.074298208439095 
7.062859242415463 1.1292396883524511 
8.062859242415463 1.304882831404192 
9.062859242415463 1.4170757293718321 
10.062859242415463 1.6103894275870976 
11.062859242415463 1.5774557246674565 
12.062859242415463 1.554882638770412 
13.062859242415463 1.4442004823275751 
14.062859242415463 1.2544053026308286 
15.062859242415463 1.1048050614670413 
16.062859242415463 0.7826026027854075 
17.062859242415463 0.8248930342307873 
18.062859242415463 0.7584311236561139 
19.062859242415463 0.720263533023678 
20.062859242415463 0.7448931626533075 
21.062859242415463 0.7054000156812534 
22.062859242415463 0.5891720570306351 
23.062859242415463 0.7131582867634833 
24.062859242415463 0.4453710124829722 
25.062859242415463 0.46754446796632454 
26.062859242415463 0.46754446796632454 
27.062859242415463 0.46754446796632454 
28.062859242415463 0.46754446796632454 
29.062859242415463 0.46754446796632454 
30.062859242415463 0.46754446796632454 
31.062859242415463 0.46754446796632454 
#####################################################################
# End of data export. Simulation finished at: 2017-05-23T07:42+0000 #
#####################################################################
