#####################################################################
# Alchemist log file - simulation started at: 2017-05-25T21:47+0000 #
#####################################################################
# random = 19.0, targets = 3.1622776601683795, density = 0.894427190999916, gridShift = 1.0, perturbation = 0.5, connfactor = 0.5
#
# The columns have the following meaning: 
# time se[Mean] 
0.0 NaN 
1.0189000266060093 NaN 
2.0189000266060093 1.0 
3.0189000266060093 0.995562870566386 
4.018900026606009 0.9689400939647023 
5.018900026606009 0.9556287056638604 
6.018900026606009 0.8935088935932648 
7.018900026606009 0.8624489875579671 
8.018900026606008 0.8757603758588091 
9.018900026606008 0.8511478306405988 
10.018900026606008 0.8935088935932648 
11.018900026606008 0.8906653288764579 
12.018900026606008 0.8858115327761772 
13.018900026606008 0.9197150035282818 
14.018900026606008 0.914027874094668 
15.018900026606008 0.9250293242545821 
16.01890002660601 0.9332310676570419 
17.01890002660601 0.9394956816258878 
18.01890002660601 0.9323758053440322 
19.01890002660601 0.9306896480346326 
20.01890002660601 0.8914255602599315 
21.01890002660601 1.0480021529350243 
22.01890002660601 1.3005803562981817 
23.01890002660601 1.6011823847309994 
24.01890002660601 1.864720618631661 
25.01890002660601 1.511389611265566 
26.01890002660601 1.9444673847514682 
27.01890002660601 1.5494697588771515 
28.01890002660601 2.0118481791390925 
29.01890002660601 1.612123470421482 
30.01890002660601 1.7494725022175808 
31.01890002660601 2.4719924744447646 
32.018900026606005 1.16305428907411 
33.018900026606005 2.3993999781690634 
34.018900026606005 2.051856007840005 
35.018900026606005 1.0937659142468643 
36.018900026606005 1.0834930773542342 
37.018900026606005 0.7522892933864544 
38.018900026606005 0.6075768245120065 
39.018900026606005 0.7736417677493409 
40.018900026606005 0.4962148375935708 
41.018900026606005 0.3517191880733128 
42.018900026606005 0.32158763024806947 
43.018900026606005 0.3548259968631268 
44.018900026606005 0.3146944069322534 
45.018900026606005 0.37753816428284076 
46.018900026606005 0.2991827253888657 
47.018900026606005 0.3348262055497223 
48.018900026606005 0.4000894817283593 
49.018900026606005 0.24465786398373107 
50.018900026606005 0.3678233052298942 
51.018900026606005 0.32570333263114826 
52.018900026606005 0.22337858788759418 
53.018900026606005 0.22630258561790648 
54.018900026606005 0.18653640911944125 
55.018900026606005 0.1666533208702086 
56.018900026606005 0.18243551333898866 
57.018900026606005 0.1508711284014284 
58.018900026606005 0.13508893593264834 
59.018900026606005 0.13508893593264834 
60.018900026606005 0.13508893593264834 
61.018900026606005 0.13508893593264834 
62.018900026606005 0.13508893593264834 
63.018900026606005 0.13508893593264834 
64.018900026606 0.13508893593264834 
65.018900026606 0.13508893593264834 
66.018900026606 0.13508893593264834 
67.018900026606 0.13508893593264834 
68.018900026606 0.13508893593264834 
69.018900026606 0.13508893593264834 
70.018900026606 0.13508893593264834 
71.018900026606 0.13508893593264834 
72.018900026606 0.13508893593264834 
73.018900026606 0.13508893593264834 
74.018900026606 0.13508893593264834 
75.018900026606 0.13508893593264834 
#####################################################################
# End of data export. Simulation finished at: 2017-05-25T21:47+0000 #
#####################################################################
