0.000000000000000000e+00 nan
1.001963092939195610e+00 7.035986424771660808e-01
2.003926185878391220e+00 9.611836326234272088e-01
3.005889278817584387e+00 9.585210288948132762e-01
4.007852371756782439e+00 9.071588391387365169e-01
5.009815464695975606e+00 8.506628947475636249e-01
6.011778557635168774e+00 7.517241269714287633e-01
7.013741650574362829e+00 6.856538070698066090e-01
8.015704743513564878e+00 6.642580020238351146e-01
9.017667836452753605e+00 5.763446175301087937e-01
1.001963092939195121e+01 5.951578188888899668e-01
1.102159402233115060e+01 4.967965441215925204e-01
1.202355711527033755e+01 5.174562811180384303e-01
1.302552020820953693e+01 4.306787465925770997e-01
1.402748330114872566e+01 3.952779598419490781e-01
1.502944639408792682e+01 3.263579739559760440e-01
1.603140948702712976e+01 3.592012301961438059e-01
1.703337257996632204e+01 3.343662094670637464e-01
1.803533567290550721e+01 2.845672784729036398e-01
1.903729876584469949e+01 2.719202039781440927e-01
2.003926185878390243e+01 2.600624964682626827e-01
2.104122495172310536e+01 2.630269233457330214e-01
2.204318804466230119e+01 2.570980695907923441e-01
2.304515113760147926e+01 2.570980695907923441e-01
2.404711423054067509e+01 2.570980695907923441e-01
2.504907732347987803e+01 2.570980695907923441e-01
