#####################################################################
# Alchemist log file - simulation started at: 2017-05-25T23:08+0000 #
#####################################################################
# random = 19.0, targets = 10.0, density = 0.894427190999916, gridShift = 1.0, perturbation = 0.5, connfactor = 0.75
#
# The columns have the following meaning: 
# time se[Mean] 
0.0 NaN 
1.0189000266060093 NaN 
2.0189000266060093 1.005125 
3.0189000266060093 1.007462962962963 
4.018900026606009 1.0140023148148147 
5.018900026606009 1.0244259259259259 
6.018900026606009 1.0077939814814816 
7.018900026606009 0.9992615740740741 
8.018900026606008 0.9754953703703704 
9.018900026606008 0.9049027777777778 
10.018900026606008 0.8831736111111113 
11.018900026606008 0.8409606481481482 
12.018900026606008 0.7735532407407407 
13.018900026606008 0.7386851851851852 
14.018900026606008 0.6856921296296297 
15.018900026606008 0.6608472222222223 
16.01890002660601 0.6261643518518518 
17.01890002660601 0.6180023148148147 
18.01890002660601 0.5954375000000001 
19.01890002660601 0.5629421296296296 
20.01890002660601 0.5385972222222221 
21.01890002660601 0.5286550925925926 
22.01890002660601 0.49501157407407415 
23.01890002660601 0.47630092592592604 
24.01890002660601 0.4486273148148149 
25.01890002660601 0.42925925925925923 
26.01890002660601 0.4076574074074074 
27.01890002660601 0.40757870370370364 
28.01890002660601 0.3784328703703704 
29.01890002660601 0.34962499999999996 
30.01890002660601 0.33694907407407404 
31.01890002660601 0.3109282407407407 
32.018900026606005 0.307287037037037 
33.018900026606005 0.29569212962962965 
34.018900026606005 0.2766643518518519 
35.018900026606005 0.2718680555555556 
36.018900026606005 0.2609097222222223 
37.018900026606005 0.25464120370370374 
38.018900026606005 0.25154398148148155 
39.018900026606005 0.23911342592592605 
40.018900026606005 0.23519212962962974 
41.018900026606005 0.24070138888888906 
42.018900026606005 0.24564120370370388 
43.018900026606005 0.24866666666666684 
44.018900026606005 0.25000000000000017 
45.018900026606005 0.25000000000000017 
46.018900026606005 0.25000000000000017 
47.018900026606005 0.25000000000000017 
48.018900026606005 0.25000000000000017 
49.018900026606005 0.25000000000000017 
50.018900026606005 0.25000000000000017 
51.018900026606005 0.25000000000000017 
52.018900026606005 0.25000000000000017 
53.018900026606005 0.25000000000000017 
54.018900026606005 0.25000000000000017 
55.018900026606005 0.25000000000000017 
56.018900026606005 0.25000000000000017 
57.018900026606005 0.25000000000000017 
58.018900026606005 0.25000000000000017 
59.018900026606005 0.25000000000000017 
60.018900026606005 0.25000000000000017 
61.018900026606005 0.25000000000000017 
#####################################################################
# End of data export. Simulation finished at: 2017-05-25T23:08+0000 #
#####################################################################
