#####################################################################
# Alchemist log file - simulation started at: 2017-05-23T01:57+0000 #
#####################################################################
# random = 10.0, targets = 31.622776601683793, density = 0.1591589639397027, gridShift = 1.0, perturbation = 0.0, connfactor = 2.0
#
# The columns have the following meaning: 
# time se[Mean] 
0.0 NaN 
1.0042217987811537 NaN 
2.0042217987811535 1.7833718118108137 
3.0042217987811535 2.204498898945983 
4.0042217987811535 2.5111810297043156 
5.0042217987811535 3.304417603879624 
6.0042217987811535 3.0176992305461905 
7.0042217987811535 5.5957109517310215 
8.004221798781153 3.77882978860256 
9.004221798781153 4.374244410783595 
10.004221798781153 3.114365392580437 
11.004221798781153 1.2943483659257773 
12.004221798781153 0.9611916575422609 
13.004221798781153 0.47958186958804383 
14.004221798781153 0.4242741082755816 
15.004221798781153 0.4727213888285941 
16.004221798781153 0.4562398677390443 
17.004221798781153 0.17479182962888262 
18.004221798781153 0.18466326185013754 
19.004221798781153 0.023533699811425085 
20.004221798781153 0.003504775288624264 
21.004221798781153 9.760177150996936E-4 
22.004221798781153 7.996836761099784E-4 
23.004221798781153 3.878506956048353E-4 
24.004221798781153 3.878506956048353E-4 
25.004221798781153 3.878506956048353E-4 
26.004221798781153 3.878506956048353E-4 
27.004221798781153 3.878506956048353E-4 
28.004221798781153 3.878506956048353E-4 
29.004221798781153 3.878506956048353E-4 
30.004221798781153 3.878506956048353E-4 
31.004221798781153 3.878506956048353E-4 
#####################################################################
# End of data export. Simulation finished at: 2017-05-23T01:57+0000 #
#####################################################################
