#####################################################################
# Alchemist log file - simulation started at: 2017-05-22T07:08+0000 #
#####################################################################
# random = 3.0, targets = 100.0, density = 0.05649405772326896, gridShift = 0.0, perturbation = 0.5, connfactor = 0.75
#
# The columns have the following meaning: 
# time se[Mean] 
0.0 NaN 
1.0016359619213666 NaN 
2.001635961921367 0.9908944444444444 
3.001635961921367 0.9907273003472222 
4.001635961921367 0.8770937934027777 
5.001635961921367 1.4646480902777779 
6.001635961921367 1.0058303385416667 
7.001635961921367 1.2566525173611114 
8.001635961921366 1.1552838975694444 
9.001635961921366 1.0867344184027778 
10.001635961921366 0.8710996093750002 
11.001635961921366 1.0889865017361113 
12.001635961921366 0.9748928819444447 
13.001635961921366 0.9077552517361114 
14.001635961921366 0.9561210937500003 
15.001635961921366 0.9610164062500004 
16.001635961921366 0.9616265625000003 
17.001635961921366 0.9604000000000004 
18.001635961921366 0.9604000000000004 
19.001635961921366 0.9604000000000004 
20.001635961921366 0.9604000000000004 
21.001635961921366 0.9604000000000004 
22.001635961921366 0.9604000000000004 
23.001635961921366 0.9604000000000004 
24.001635961921366 0.9604000000000004 
25.001635961921366 0.9604000000000004 
#####################################################################
# End of data export. Simulation finished at: 2017-05-22T07:08+0000 #
#####################################################################
