#####################################################################
# Alchemist log file - simulation started at: 2017-05-26T05:29+0000 #
#####################################################################
# random = 9.0, targets = 3.1622776601683795, density = 20.0, gridShift = 1.0, perturbation = 0.5, connfactor = 2.0
#
# The columns have the following meaning: 
# time se[Mean] 
0.0 NaN 
1.0003374459614243 NaN 
2.0003374459614243 1.0104022435362723 
3.0003374459614243 1.0160610429628656 
4.000337445961424 1.026133698213374 
5.000337445961424 1.0320987730295001 
6.000337445961424 1.036317928658914 
7.000337445961424 1.0367867091114502 
8.000337445961424 1.039636855814082 
9.000337445961424 1.039107437348536 
10.000337445961424 1.0353745498151647 
11.000337445961424 1.0669795740193178 
12.000337445961424 1.1074798996444932 
13.000337445961424 1.09312271817881 
14.000337445961424 1.1071870855642378 
15.000337445961424 1.084529399042893 
16.000337445961424 1.0371271347924773 
17.000337445961424 1.046226991651979 
18.000337445961424 1.0134659777543613 
19.000337445961424 0.988269000822442 
20.000337445961424 0.9817738104448137 
21.000337445961424 0.9768090230918705 
22.000337445961424 0.9694206820712287 
23.000337445961424 0.9632788113160218 
24.000337445961424 0.9607080182986267 
25.000337445961424 0.9583871575906966 
26.000337445961424 0.956103488614443 
27.000337445961424 0.9548749198616587 
28.000337445961424 0.9543529894394625 
29.000337445961424 0.9530572539251924 
30.000337445961424 0.953852985035637 
31.000337445961424 0.9565349357218962 
32.00033744596142 0.9567541986483664 
33.00033744596142 0.9552847177777601 
34.00033744596142 0.9569730449629246 
35.00033744596142 0.955082523140116 
36.00033744596142 0.9566527536958228 
37.00033744596142 0.9561391500263399 
38.00033744596142 0.9573588365438623 
39.00033744596142 0.9575800427450014 
40.00033744596142 0.9567937475238572 
41.00033744596142 0.9574124031254344 
42.00033744596142 0.9550086942450553 
43.00033744596142 0.9553106673875934 
44.00033744596142 0.9535222848705159 
45.00033744596142 0.9552897143779416 
46.00033744596142 0.9527501462260912 
47.00033744596142 0.9542590398443195 
48.00033744596142 0.9524140374201574 
49.00033744596142 0.9536940915234644 
50.00033744596142 0.9592456225733011 
51.00033744596142 0.9876081870594604 
52.00033744596142 0.9894096161024131 
53.00033744596142 1.0410326996871249 
54.00033744596142 1.071992427983705 
55.00033744596142 1.1396873855267546 
56.00033744596142 1.205164875160365 
57.00033744596142 1.2836217802544065 
58.00033744596142 1.4104792965301494 
59.00033744596142 1.5373752562018161 
60.00033744596142 1.5996612022715655 
61.00033744596142 1.7185547443950169 
62.00033744596142 1.8931695036771985 
63.00033744596142 2.026228568512031 
64.00033744596142 2.1685306940792657 
65.00033744596142 2.354114322637274 
66.00033744596142 2.5195212650727976 
67.00033744596142 2.6620988614329364 
68.00033744596142 2.928472464523713 
69.00033744596142 3.062228178145787 
70.00033744596142 3.2866010404161017 
71.00033744596142 3.528951134769343 
72.00033744596142 3.699430567831607 
73.00033744596142 4.009711675944686 
74.00033744596142 4.252602733311544 
75.00033744596142 4.442935626660696 
76.00033744596142 4.732380610795084 
77.00033744596142 5.08947004013069 
78.00033744596142 5.277217570016587 
79.00033744596142 5.58366921617289 
80.00033744596142 5.856758949986496 
81.00033744596142 6.085175970865642 
82.00033744596142 6.323644007860736 
83.00033744596142 6.5088355929163795 
84.00033744596142 6.684623972063194 
85.00033744596142 6.778335234685907 
86.00033744596142 6.93338545389803 
87.00033744596142 6.976430619273745 
88.00033744596142 7.048735800197114 
89.00033744596142 7.170998774503496 
90.00033744596142 7.128137762467884 
91.00033744596142 7.12818647223417 
92.00033744596142 7.156969798102744 
93.00033744596142 7.0639232641342975 
94.00033744596142 7.049702085381989 
95.00033744596142 7.064215522732007 
96.00033744596142 6.971168988763536 
97.00033744596142 6.914138144455544 
98.00033744596142 6.900111804768373 
99.00033744596142 6.771390549503466 
100.00033744596142 6.692954872417601 
101.00033744596142 6.643253811434015 
102.00033744596142 6.478857834872674 
103.00033744596142 6.42896193482395 
104.00033744596142 6.293641542728879 
105.00033744596142 6.214864897279029 
106.00033744596142 6.100754498896697 
107.00033744596142 6.036783549394519 
108.00033744596142 5.900927349870329 
109.00033744596142 5.843896505562325 
110.00033744596142 5.772790611800865 
111.00033744596142 5.644069356535967 
112.00033744596142 5.5513637909314975 
113.00033744596142 5.458853064392181 
114.00033744596142 5.358671586164452 
115.00033744596142 5.244561187782133 
116.00033744596142 5.187725182539242 
117.00033744596142 5.101813592830086 
118.00033744596142 5.001924373200042 
119.00033744596142 4.9092675173618705 
120.00033744596142 4.78030271326556 
121.00033744596142 4.651532748234387 
122.00033744596142 4.58707470106937 
123.00033744596142 4.486259995879934 
124.00033744596142 4.385594056702938 
125.00033744596142 4.327748329936108 
126.00033744596142 4.154731136783056 
127.00033744596142 4.053412264727692 
128.0003374459614 3.965984149915048 
129.0003374459614 3.813613526988124 
130.0003374459614 3.7473138066372274 
131.0003374459614 3.688054247726633 
132.0003374459614 3.5139615540802636 
133.0003374459614 3.447160303577047 
134.0003374459614 3.3802299929780393 
135.0003374459614 3.276667973830636 
136.0003374459614 3.1452678202907403 
137.0003374459614 3.064266484744027 
138.0003374459614 2.9029339546026973 
139.0003374459614 2.827588229943442 
140.0003374459614 2.772566703012155 
141.0003374459614 2.630605685593809 
142.0003374459614 2.5251632757803484 
143.0003374459614 2.4476947216744462 
144.0003374459614 2.312408334600464 
145.0003374459614 2.2412534588169803 
146.0003374459614 2.0537460096535978 
147.0003374459614 1.9160019314200016 
148.0003374459614 1.8216718807248715 
149.0003374459614 1.7046702665014577 
150.0003374459614 1.5895222591961986 
151.0003374459614 1.5016971179948073 
152.0003374459614 1.4558541318048603 
153.0003374459614 1.3251262068479126 
154.0003374459614 1.2216502362974122 
155.0003374459614 1.142143365536463 
156.0003374459614 1.0600634853134572 
157.0003374459614 0.9508106132213662 
158.0003374459614 0.8564600215572135 
159.0003374459614 0.8175933611128874 
160.0003374459614 0.7941552128514308 
161.0003374459614 0.7711679426156008 
162.0003374459614 0.7631057166211848 
163.0003374459614 0.7581722902616559 
164.0003374459614 0.7499377048745101 
165.0003374459614 0.7443403821702886 
166.0003374459614 0.7350798411084263 
167.0003374459614 0.7277755962674592 
168.0003374459614 0.7207358587531018 
169.0003374459614 0.7153521116790066 
170.0003374459614 0.7103853801371384 
171.0003374459614 0.7035715649400589 
172.0003374459614 0.6997982907360913 
173.0003374459614 0.694942857562237 
174.0003374459614 0.6904590630496245 
175.0003374459614 0.6894300503923714 
176.0003374459614 0.6866122386061281 
177.0003374459614 0.6821580025114115 
178.0003374459614 0.6779525877610607 
179.0003374459614 0.6709987508304088 
180.0003374459614 0.6690803324660738 
181.0003374459614 0.6625561418958682 
182.0003374459614 0.656863901159066 
183.0003374459614 0.6519321412471877 
184.0003374459614 0.6448053903555122 
185.0003374459614 0.6403811292906035 
186.0003374459614 0.6342804738585379 
187.0003374459614 0.6294151890977262 
188.0003374459614 0.628761146168503 
189.0003374459614 0.6251653677423413 
190.0003374459614 0.6231418992744242 
191.0003374459614 0.6180229354397022 
192.0003374459614 0.6128078000796372 
193.0003374459614 0.6090955878146429 
194.0003374459614 0.6032269686649291 
195.0003374459614 0.6030455863377866 
196.0003374459614 0.6023468554052294 
197.0003374459614 0.5981469936518666 
198.0003374459614 0.5999498050014009 
199.0003374459614 0.5970229204343694 
200.0003374459614 0.6004785345992973 
201.0003374459614 0.5999925497300663 
202.0003374459614 0.5969833688161109 
203.0003374459614 0.5962597992388208 
204.0003374459614 0.5944229856109905 
205.0003374459614 0.5918272141639679 
206.0003374459614 0.5921626322737392 
207.0003374459614 0.5903503822921354 
208.0003374459614 0.588638603340101 
209.0003374459614 0.5853772736720163 
210.0003374459614 0.5827602687312992 
211.0003374459614 0.5766876541969346 
212.0003374459614 0.5711644417860745 
213.0003374459614 0.5662428176022212 
214.0003374459614 2.164408423287618 
215.0003374459614 5.368629635559494 
216.0003374459614 8.56711143039079 
217.0003374459614 13.369378070487395 
218.0003374459614 16.56953847247349 
219.0003374459614 21.369939018265978 
220.0003374459614 26.17335456656775 
221.0003374459614 27.762512479784238 
222.0003374459614 38.9802153486711 
223.0003374459614 34.15532200026233 
224.0003374459614 48.57863743114921 
225.0003374459614 51.77587788935799 
226.0003374459614 42.13885854897558 
227.0003374459614 50.14792246504605 
228.0003374459614 46.92744968762136 
229.0003374459614 45.310997809850235 
230.0003374459614 59.73500433652768 
231.0003374459614 51.702263603036315 
232.0003374459614 56.50308449085618 
233.0003374459614 46.867454835583665 
234.0003374459614 62.8940630247874 
235.0003374459614 56.46901071429745 
236.0003374459614 70.89167141338747 
237.0003374459614 69.27703067646188 
238.0003374459614 62.85146476504451 
239.0003374459614 62.841259729602946 
240.0003374459614 53.207818958658834 
241.0003374459614 54.802406548560064 
242.0003374459614 62.811755096314165 
243.0003374459614 56.387530298196474 
244.0003374459614 54.774837953750314 
245.0003374459614 59.57885467366747 
246.0003374459614 59.56994523395474 
247.0003374459614 67.58017319238704 
248.0003374459614 51.5324084691802 
249.0003374459614 65.95779941119746 
250.0003374459614 70.76519208747459 
251.0003374459614 65.94635123564227 
252.0003374459614 65.93955824006977 
253.0003374459614 69.14499205919971 
254.0003374459614 61.11631366631339 
255.0003374459614 67.53021699240726 
256.0003374459614 70.73044803749252 
257.0003374459614 73.93272335969851 
258.0003374459614 67.51278668380456 
259.0003374459614 75.52665801946502 
260.0003374459614 75.52328538868471 
261.0003374459614 67.50093120634807 
262.0003374459614 89.95242586717036 
263.0003374459614 67.49585470675795 
264.0003374459614 54.662026634845105 
265.0003374459614 65.88902598394704 
266.0003374459614 43.43127802153115 
267.0003374459614 59.4694606671444 
268.0003374459614 46.63547744939797 
269.0003374459614 59.46835796446268 
270.0003374459614 54.65698593279466 
271.0003374459614 46.63653004263599 
272.0003374459614 46.63702129910393 
273.0003374459614 41.82432273006752 
274.0003374459614 32.20136245804486 
275.0003374459614 35.40994367816053 
276.0003374459614 28.99442029712224 
277.0003374459614 24.184175943822506 
278.0003374459614 16.165023975231787 
279.0003374459614 19.373747576054335 
280.0003374459614 14.562712627114847 
281.0003374459614 17.771162289291496 
282.0003374459614 6.543529850270042 
283.0003374459614 1.7329814435113045 
284.0003374459614 11.357311133758786 
285.0003374459614 4.941985090542982 
286.0003374459614 6.546312683112345 
287.0003374459614 3.339153896891485 
288.0003374459614 1.7360959458703147 
289.0003374459614 0.13272658673158447 
290.0003374459614 0.132794586716895 
291.0003374459614 0.13301690205462172 
292.0003374459614 0.13333747014874237 
293.0003374459614 0.13377016709193268 
294.0003374459614 0.1341610932294327 
295.0003374459614 0.13449692612260425 
296.0003374459614 0.13448901598180382 
297.0003374459614 0.13446015100283945 
298.0003374459614 0.13460059026257973 
299.0003374459614 0.1348001472723675 
300.0003374459614 0.13497736165187263 
301.0003374459614 0.1349379498185076 
302.0003374459614 0.1350377283234015 
303.0003374459614 0.13502065912031916 
304.0003374459614 0.13505479752648383 
305.0003374459614 0.1350718667295662 
306.0003374459614 0.13508893593264854 
307.0003374459614 0.13508893593264854 
308.0003374459614 0.13508893593264854 
309.0003374459614 0.13508893593264854 
310.0003374459614 0.13508893593264854 
311.0003374459614 0.13508893593264854 
312.0003374459614 0.13508893593264854 
313.0003374459614 0.13508893593264854 
314.0003374459614 0.13508893593264854 
315.0003374459614 0.13508893593264854 
316.0003374459614 0.13508893593264854 
317.0003374459614 0.13508893593264854 
318.0003374459614 0.13508893593264854 
319.0003374459614 0.13508893593264854 
320.0003374459614 0.13508893593264854 
321.0003374459614 0.13508893593264854 
322.0003374459614 0.13508893593264854 
323.0003374459614 0.13508893593264854 
324.0003374459614 0.13508893593264854 
325.0003374459614 0.13508893593264854 
326.0003374459614 0.13508893593264854 
327.0003374459614 0.13508893593264854 
328.0003374459614 0.13508893593264854 
329.0003374459614 0.13508893593264854 
330.0003374459614 0.13508893593264854 
331.0003374459614 0.13508893593264854 
332.0003374459614 0.13508893593264854 
333.0003374459614 0.13508893593264854 
334.0003374459614 0.13508893593264854 
335.0003374459614 0.13508893593264854 
336.0003374459614 0.13508893593264854 
337.0003374459614 0.13508893593264854 
338.0003374459614 0.13508893593264854 
339.0003374459614 0.13508893593264854 
340.0003374459614 0.13508893593264854 
341.0003374459614 0.13508893593264854 
342.0003374459614 0.13508893593264854 
343.0003374459614 0.13508893593264854 
344.0003374459614 0.13508893593264854 
345.0003374459614 0.13508893593264854 
346.0003374459614 0.13508893593264854 
347.0003374459614 0.13508893593264854 
348.0003374459614 0.13508893593264854 
349.0003374459614 0.13508893593264854 
350.0003374459614 0.13508893593264854 
351.0003374459614 0.13508893593264854 
352.0003374459614 0.13508893593264854 
353.0003374459614 0.13508893593264854 
354.0003374459614 0.13508893593264854 
355.0003374459614 0.13508893593264854 
356.0003374459614 0.13508893593264854 
357.0003374459614 0.13508893593264854 
358.0003374459614 0.13508893593264854 
359.0003374459614 0.13508893593264854 
360.0003374459614 0.13508893593264854 
361.0003374459614 0.13508893593264854 
362.0003374459614 0.13508893593264854 
363.0003374459614 0.13508893593264854 
364.0003374459614 0.13508893593264854 
365.0003374459614 0.13508893593264854 
366.0003374459614 0.13508893593264854 
367.0003374459614 0.13508893593264854 
368.0003374459614 0.13508893593264854 
369.0003374459614 0.13508893593264854 
370.0003374459614 0.13508893593264854 
371.0003374459614 0.13508893593264854 
372.0003374459614 0.13508893593264854 
373.0003374459614 0.13508893593264854 
374.0003374459614 0.13508893593264854 
375.0003374459614 0.13508893593264854 
376.0003374459614 0.13508893593264854 
377.0003374459614 0.13508893593264854 
378.0003374459614 0.13508893593264854 
379.0003374459614 0.13508893593264854 
380.0003374459614 0.13508893593264854 
381.0003374459614 0.13508893593264854 
382.0003374459614 0.13508893593264854 
383.0003374459614 0.13508893593264854 
384.0003374459614 0.13508893593264854 
385.0003374459614 0.13508893593264854 
386.0003374459614 0.13508893593264854 
387.0003374459614 0.13508893593264854 
388.0003374459614 0.13508893593264854 
389.0003374459614 0.13508893593264854 
390.0003374459614 0.13508893593264854 
391.0003374459614 0.13508893593264854 
392.0003374459614 0.13508893593264854 
393.0003374459614 0.13508893593264854 
394.0003374459614 0.13508893593264854 
395.0003374459614 0.13508893593264854 
396.0003374459614 0.13508893593264854 
397.0003374459614 0.13508893593264854 
398.0003374459614 0.13508893593264854 
399.0003374459614 0.13508893593264854 
400.0003374459614 0.13508893593264854 
401.0003374459614 0.13508893593264854 
402.0003374459614 0.13508893593264854 
403.0003374459614 0.13508893593264854 
404.0003374459614 0.13508893593264854 
405.0003374459614 0.13508893593264854 
#####################################################################
# End of data export. Simulation finished at: 2017-05-26T05:59+0000 #
#####################################################################
