#####################################################################
# Alchemist log file - simulation started at: 2017-05-25T07:51+0000 #
#####################################################################
# random = 17.0, targets = 10.0, density = 10.026386447354522, gridShift = 1.0, perturbation = 0.0, connfactor = 0.1
#
# The columns have the following meaning: 
# time se[Mean] 
0.0 NaN 
1.0003034458253823 NaN 
2.0003034458253826 1.0 
3.0003034458253826 1.0 
4.0003034458253826 1.0 
5.0003034458253826 1.0 
6.0003034458253826 0.9998248847926268 
7.0003034458253826 0.9991244239631336 
8.000303445825383 0.9991244239631336 
9.000303445825383 0.999299539170507 
10.000303445825383 0.997373271889401 
11.000303445825383 0.9982488479262673 
12.000303445825383 0.9959723502304147 
13.000303445825383 0.9963225806451613 
14.000303445825383 0.9961474654377881 
15.000303445825383 0.9936958525345622 
16.00030344582538 0.9935391705069125 
17.00030344582538 0.9908294930875576 
18.00030344582538 0.9888663594470046 
19.00030344582538 0.986995391705069 
20.00030344582538 0.985668202764977 
21.00030344582538 0.9832995391705069 
22.00030344582538 0.9803963133640555 
23.00030344582538 0.9781013824884796 
24.00030344582538 0.9755944700460831 
25.00030344582538 0.9740184331797236 
26.00030344582538 0.9727557603686636 
27.00030344582538 0.9700737327188942 
28.00030344582538 0.9683410138248847 
29.00030344582538 0.966940092165899 
30.00030344582538 0.9630875576036868 
31.00030344582538 0.9604423963133638 
32.00030344582538 0.9574470046082948 
33.00030344582538 0.9537880184331802 
34.00030344582538 0.948884792626728 
35.00030344582538 0.9457142857142857 
36.00030344582538 0.9425622119815671 
37.00030344582538 0.9397603686635946 
38.00030344582538 0.9371336405529952 
39.00030344582538 0.9343317972350234 
40.00030344582538 0.931705069124424 
41.00030344582538 0.9306543778801838 
42.00030344582538 0.9273271889400923 
43.00030344582538 0.9262764976958531 
44.00030344582538 0.9245253456221196 
45.00030344582538 0.9240000000000007 
46.00030344582538 0.9227741935483872 
47.00030344582538 0.9218986175115207 
48.00030344582538 0.9213732718894013 
49.00030344582538 0.9201474654377879 
50.00030344582538 0.9206728110599082 
51.00030344582538 0.9197972350230412 
52.00030344582538 0.9201474654377881 
53.00030344582538 0.9215483870967747 
54.00030344582538 0.9210230414746546 
55.00030344582538 0.9225990783410137 
56.00030344582538 0.9238248847926267 
57.00030344582538 0.926276497695852 
58.00030344582538 0.9276774193548385 
59.00030344582538 0.9313548387096781 
60.00030344582538 0.9334562211981574 
61.00030344582538 0.9362580645161291 
62.00030344582538 0.9401105990783408 
63.00030344582538 0.9422119815668202 
64.00030344582538 0.9467649769585249 
65.00030344582538 0.9488663594470044 
66.00030344582538 0.9539447004608298 
67.00030344582538 0.9565714285714285 
68.00030344582538 0.9623502304147467 
69.00030344582538 0.9642764976958522 
70.00030344582538 0.9698801843317975 
71.00030344582538 0.9725069124423961 
72.00030344582538 0.976009216589862 
73.00030344582538 0.9781105990783412 
74.00030344582538 0.9807373271889398 
75.00030344582538 0.982488479262673 
76.00030344582538 0.9840645161290323 
77.00030344582538 0.986516129032258 
78.00030344582538 0.9877419354838708 
79.00030344582538 0.9894930875576037 
80.00030344582538 0.9907188940092164 
81.00030344582538 0.992294930875576 
82.00030344582538 0.9935207373271889 
83.00030344582538 0.9947465437788019 
84.00030344582538 0.9959723502304147 
85.00030344582538 0.9970230414746544 
86.00030344582538 0.9978986175115208 
87.00030344582538 0.9985990783410138 
88.00030344582538 0.9989493087557604 
89.00030344582538 0.9994746543778802 
90.00030344582538 0.9994746543778802 
91.00030344582538 0.9993548387096775 
92.00030344582538 0.9989493087557604 
93.00030344582538 0.9961843317972351 
94.00030344582538 0.996663594470046 
95.00030344582538 0.9893456221198157 
96.00030344582538 0.9893456221198157 
97.00030344582538 0.9850691244239629 
98.00030344582538 0.9797419354838711 
99.00030344582538 0.9761658986175117 
100.00030344582538 0.9693640552995388 
101.00030344582538 0.9615668202764975 
102.00030344582538 0.9570138248847925 
103.00030344582538 0.9468018433179728 
104.00030344582538 0.9394377880184336 
105.00030344582538 0.9312718894009214 
106.00030344582538 0.925815668202765 
107.00030344582538 0.9413548387096777 
108.00030344582538 0.9074930875576032 
109.00030344582538 1.0519354838709682 
110.00030344582538 0.9666728110599079 
111.00030344582538 1.1356129032258058 
112.00030344582538 1.2092718894009205 
113.00030344582538 1.0969032258064522 
114.00030344582538 1.120608294930875 
115.00030344582538 1.2178894009216603 
116.00030344582538 1.174903225806452 
117.00030344582538 1.1660737327188946 
118.00030344582538 1.165880184331796 
119.00030344582538 1.1298248847926253 
120.00030344582538 1.0440092165898613 
121.00030344582538 1.0849124423963141 
122.00030344582538 0.9507465437788022 
123.00030344582538 0.9635760368663596 
124.00030344582538 0.9315852534562216 
125.00030344582538 0.8939262672811062 
126.00030344582538 0.8843594470046087 
127.00030344582538 0.798092165898618 
128.00030344582538 0.8633548387096781 
129.00030344582538 0.8799078341013828 
130.00030344582538 0.7651428571428573 
131.00030344582538 0.7877050691244247 
132.00030344582538 0.8063041474654377 
133.00030344582538 0.7933456221198152 
134.00030344582538 0.7370691244239636 
135.00030344582538 0.8350046082949301 
136.00030344582538 0.72778801843318 
137.00030344582538 0.7705714285714285 
138.00030344582538 0.7457788018433186 
139.00030344582538 0.7118709677419351 
140.00030344582538 0.7601474654377883 
141.00030344582538 0.732709677419354 
142.00030344582538 0.7281290322580649 
143.00030344582538 0.7294470046082956 
144.00030344582538 0.7266543778801834 
145.00030344582538 0.6481751152073733 
146.00030344582538 0.6724792626728106 
147.00030344582538 0.6453640552995393 
148.00030344582538 0.6410138248847927 
149.00030344582538 0.6409216589861751 
150.00030344582538 0.6409585253456221 
151.00030344582538 0.6399078341013825 
152.00030344582538 0.6401566820276497 
153.00030344582538 0.6401566820276497 
154.00030344582538 0.64 
155.00030344582538 0.64 
156.00030344582538 0.64 
157.00030344582538 0.64 
158.00030344582538 0.64 
159.00030344582538 0.64 
160.00030344582538 0.64 
161.00030344582538 0.64 
162.00030344582538 0.64 
163.00030344582538 0.64 
164.00030344582538 0.64 
165.00030344582538 0.64 
166.00030344582538 0.64 
167.00030344582538 0.64 
168.00030344582538 0.64 
169.00030344582538 0.64 
170.00030344582538 0.64 
171.00030344582538 0.64 
172.00030344582538 0.64 
173.00030344582538 0.64 
174.00030344582538 0.64 
175.00030344582538 0.64 
176.00030344582538 0.64 
177.00030344582538 0.64 
178.00030344582538 0.64 
179.00030344582538 0.64 
180.00030344582538 0.64 
181.00030344582538 0.64 
182.00030344582538 0.64 
183.00030344582538 0.64 
184.00030344582538 0.64 
185.00030344582538 0.64 
186.00030344582538 0.64 
187.00030344582538 0.64 
188.00030344582538 0.64 
189.00030344582538 0.64 
190.00030344582538 0.64 
191.00030344582538 0.64 
192.00030344582538 0.64 
193.00030344582538 0.64 
194.00030344582538 0.64 
195.00030344582538 0.64 
196.00030344582538 0.64 
197.00030344582538 0.64 
198.00030344582538 0.64 
199.00030344582538 0.64 
200.00030344582538 0.64 
201.00030344582538 0.64 
202.00030344582538 0.64 
203.00030344582538 0.64 
204.00030344582538 0.64 
205.00030344582538 0.64 
206.00030344582538 0.64 
207.00030344582538 0.64 
208.00030344582538 0.64 
209.00030344582538 0.64 
210.00030344582538 0.64 
211.00030344582538 0.64 
212.00030344582538 0.64 
213.00030344582538 0.64 
214.00030344582538 0.64 
215.00030344582538 0.64 
216.00030344582538 0.64 
217.00030344582538 0.64 
218.00030344582538 0.64 
219.00030344582538 0.64 
220.00030344582538 0.64 
221.00030344582538 0.64 
222.00030344582538 0.64 
223.00030344582538 0.64 
224.00030344582538 0.64 
#####################################################################
# End of data export. Simulation finished at: 2017-05-25T07:52+0000 #
#####################################################################
