#####################################################################
# Alchemist log file - simulation started at: 2017-05-23T08:11+0000 #
#####################################################################
# random = 11.0, targets = 3.1622776601683795, density = 20.0, gridShift = 1.0, perturbation = 0.5, connfactor = 0.25
#
# The columns have the following meaning: 
# time se[Mean] 
0.0 NaN 
1.0000311017741008 NaN 
2.000031101774101 1.0 
3.000031101774101 1.0 
4.000031101774101 1.0 
5.000031101774101 1.0 
6.000031101774101 1.0 
7.000031101774101 0.9997472921062963 
8.000031101774102 0.9992418763188889 
9.000031101774102 0.9984837526377779 
10.000031101774102 0.9977256289566668 
11.000031101774102 0.9972202131692595 
12.000031101774102 0.996714797381852 
13.000031101774102 0.9972202131692595 
14.000031101774102 0.9964620894881484 
15.000031101774102 0.9982310447440742 
16.000031101774102 0.9972202131692595 
17.000031101774102 0.9987364605314816 
18.000031101774102 0.9989891684251851 
19.000031101774102 0.9994945842125926 
20.000031101774102 0.9994945842125926 
21.000031101774102 1.0 
22.000031101774102 0.9997472921062963 
23.000031101774102 1.0 
24.000031101774102 1.0 
25.000031101774102 1.0 
26.000031101774102 1.0 
27.000031101774102 1.0 
28.000031101774102 1.0 
29.000031101774102 1.0 
30.000031101774102 1.0 
31.000031101774102 1.0 
32.0000311017741 1.0 
33.0000311017741 1.0 
34.0000311017741 1.0 
35.0000311017741 1.0 
36.0000311017741 1.0 
37.0000311017741 1.0 
38.0000311017741 1.0 
39.0000311017741 1.0 
40.0000311017741 1.0 
41.0000311017741 1.0 
42.0000311017741 1.0 
43.0000311017741 1.0 
44.0000311017741 1.0 
45.0000311017741 1.0 
46.0000311017741 1.0 
47.0000311017741 1.0 
48.0000311017741 1.0 
49.0000311017741 1.0 
50.0000311017741 1.0 
51.0000311017741 1.0 
52.0000311017741 1.0 
53.0000311017741 1.0 
54.0000311017741 1.0 
55.0000311017741 1.0 
56.0000311017741 1.0 
57.0000311017741 1.0 
58.0000311017741 1.0 
59.0000311017741 1.0 
60.0000311017741 1.0 
61.0000311017741 1.0 
62.0000311017741 1.0 
63.0000311017741 1.0 
64.0000311017741 1.0 
65.0000311017741 1.0 
66.0000311017741 1.0 
67.0000311017741 1.0 
68.0000311017741 1.0 
69.0000311017741 1.0 
70.0000311017741 1.0 
71.0000311017741 1.0 
72.0000311017741 1.0 
73.0000311017741 1.0 
74.0000311017741 1.0 
75.0000311017741 1.0 
76.0000311017741 1.0 
77.0000311017741 1.0 
78.0000311017741 1.0 
79.0000311017741 1.0 
80.0000311017741 1.0 
81.0000311017741 1.0 
82.0000311017741 1.0 
83.0000311017741 1.0 
84.0000311017741 1.0 
85.0000311017741 1.0 
86.0000311017741 1.0 
87.0000311017741 1.0 
88.0000311017741 1.0 
89.0000311017741 1.0 
90.0000311017741 1.0 
91.0000311017741 1.0 
92.0000311017741 1.0 
93.0000311017741 1.0 
94.0000311017741 1.0 
95.0000311017741 1.0 
96.0000311017741 1.0 
97.0000311017741 1.0 
98.0000311017741 1.0 
99.0000311017741 1.0 
100.0000311017741 1.0 
101.0000311017741 1.0 
102.0000311017741 1.0 
103.0000311017741 1.0 
104.0000311017741 1.0 
105.0000311017741 1.0 
106.0000311017741 1.0 
107.0000311017741 1.0 
108.0000311017741 1.0 
109.0000311017741 1.0 
110.0000311017741 1.0 
111.0000311017741 1.0 
112.0000311017741 1.0 
113.0000311017741 1.0 
114.0000311017741 1.0 
115.0000311017741 1.0 
116.0000311017741 1.0 
117.0000311017741 1.0 
118.0000311017741 1.0 
119.0000311017741 1.0 
120.0000311017741 1.0 
121.0000311017741 1.0 
122.0000311017741 0.9995266413877072 
123.0000311017741 0.9976332069385357 
124.0000311017741 0.9967493542284416 
125.0000311017741 0.9937501665148494 
126.0000311017741 0.9881314778460891 
127.0000311017741 0.9892655387784118 
128.00003110177408 0.9775548028285993 
129.00003110177408 0.9749736082272336 
130.00003110177408 0.9700676764254182 
131.00003110177408 0.9636946135827589 
132.00003110177408 0.9566350404236434 
133.00003110177408 0.9571025884113098 
134.00003110177408 0.9403397557048371 
135.00003110177408 0.9467111959841443 
136.00003110177408 0.9392719360666043 
137.00003110177408 0.9402053436521385 
138.00003110177408 0.9275191442557764 
139.00003110177408 0.9233588377776965 
140.00003110177408 0.9204558215894468 
141.00003110177408 0.9172522310218539 
142.00003110177408 0.907710945739868 
143.00003110177408 0.9045194149755879 
144.00003110177408 0.8909002465477539 
145.00003110177408 0.8853111153826335 
146.00003110177408 0.8831366653718543 
147.00003110177408 0.8701869481142128 
148.00003110177408 0.8642651853946329 
149.00003110177408 0.8650245589114821 
150.00003110177408 0.8419735863660551 
151.00003110177408 0.8462933674380317 
152.00003110177408 0.8365772368056821 
153.00003110177408 0.8428691261518493 
154.00003110177408 0.8921664173406383 
155.00003110177408 0.9057135996762046 
156.00003110177408 0.9560200340500111 
157.00003110177408 1.1767950788152002 
158.00003110177408 1.074310022825953 
159.00003110177408 1.325752710902388 
160.00003110177408 1.5235000256206543 
161.00003110177408 1.3836412591954248 
162.00003110177408 1.650099444657562 
163.00003110177408 1.7437226652209101 
164.00003110177408 1.8647486965767852 
165.00003110177408 1.7706604935236798 
166.00003110177408 1.8112691062471347 
167.00003110177408 1.8177833347016967 
168.00003110177408 1.8894521485798175 
169.00003110177408 1.85492483899628 
170.00003110177408 1.899936467405627 
171.00003110177408 1.8153574924593958 
172.00003110177408 1.8455076601799156 
173.00003110177408 1.943403606611294 
174.00003110177408 1.7903744063833895 
175.00003110177408 1.9516689198938306 
176.00003110177408 2.0775900730839325 
177.00003110177408 1.7439057114455432 
178.00003110177408 1.9528567237628676 
179.00003110177408 2.109108700648485 
180.00003110177408 1.7627560100416737 
181.00003110177408 1.9651566144944972 
182.00003110177408 2.0411568306938506 
183.00003110177408 1.8666595193044437 
184.00003110177408 1.9740259489348184 
185.00003110177408 1.895017796171709 
186.00003110177408 2.2038709814871122 
187.00003110177408 1.9249268772477857 
188.00003110177408 2.036990713591146 
189.00003110177408 2.120444376455207 
190.00003110177408 2.2213320115857424 
191.00003110177408 2.142848394873722 
192.00003110177408 2.092429979664043 
193.00003110177408 2.4527091008107824 
194.00003110177408 2.2241384176945767 
195.00003110177408 2.1609884362743847 
196.00003110177408 2.4372068693472895 
197.00003110177408 2.3841318966643965 
198.00003110177408 2.4500796011697337 
199.00003110177408 2.3125163871689094 
200.00003110177408 2.619381654899588 
201.00003110177408 2.545849775357626 
202.00003110177408 2.3953343444276958 
203.00003110177408 2.7802743573359447 
204.00003110177408 2.5544468430864726 
205.00003110177408 2.5606908659470005 
206.00003110177408 2.66999072477017 
207.00003110177408 2.357629559174148 
208.00003110177408 2.474307940344214 
209.00003110177408 2.498296442709981 
210.00003110177408 2.046432450568187 
211.00003110177408 2.2925211518464317 
212.00003110177408 2.011177758816468 
213.00003110177408 1.9015340199172355 
214.00003110177408 1.9815076374409892 
215.00003110177408 1.8563358590818304 
216.00003110177408 1.676594919166768 
217.00003110177408 1.659124328936295 
218.00003110177408 1.4293479715231139 
219.00003110177408 1.3191101443255289 
220.00003110177408 1.354555052184105 
221.00003110177408 1.0051661173456126 
222.00003110177408 1.0309307012541309 
223.00003110177408 1.013460111023657 
224.00003110177408 0.884942765203342 
225.00003110177408 0.9490486512523612 
226.00003110177408 0.9667173951581347 
227.00003110177408 0.8511897613390651 
228.00003110177408 0.7539249597240938 
229.00003110177408 0.7012076153103919 
230.00003110177408 0.7175807625725428 
231.00003110177408 0.5214666753953228 
232.00003110177408 0.6485810045250299 
233.00003110177408 0.5715928265217577 
234.00003110177408 0.5005959634853 
235.00003110177408 0.5276561440374558 
236.00003110177408 0.49660175350742053 
237.00003110177408 0.4675444679663241 
238.00003110177408 0.4675444679663241 
239.00003110177408 0.4675444679663241 
240.00003110177408 0.4675444679663241 
241.00003110177408 0.4675444679663241 
242.00003110177408 0.4675444679663241 
243.00003110177408 0.4675444679663241 
244.00003110177408 0.4675444679663241 
245.00003110177408 0.4675444679663241 
246.00003110177408 0.4675444679663241 
247.00003110177408 0.4675444679663241 
248.00003110177408 0.4675444679663241 
249.00003110177408 0.4675444679663241 
250.00003110177408 0.4675444679663241 
251.00003110177408 0.4675444679663241 
252.00003110177408 0.4675444679663241 
253.00003110177408 0.4675444679663241 
254.00003110177408 0.4675444679663241 
255.00003110177408 0.4675444679663241 
256.0000311017741 0.4675444679663241 
257.0000311017741 0.4675444679663241 
258.0000311017741 0.4675444679663241 
259.0000311017741 0.4675444679663241 
260.0000311017741 0.4675444679663241 
261.0000311017741 0.4675444679663241 
262.0000311017741 0.4675444679663241 
263.0000311017741 0.4675444679663241 
264.0000311017741 0.4675444679663241 
265.0000311017741 0.4675444679663241 
266.0000311017741 0.4675444679663241 
267.0000311017741 0.4675444679663241 
268.0000311017741 0.4675444679663241 
269.0000311017741 0.4675444679663241 
270.0000311017741 0.4675444679663241 
271.0000311017741 0.4675444679663241 
272.0000311017741 0.4675444679663241 
273.0000311017741 0.4675444679663241 
274.0000311017741 0.4675444679663241 
275.0000311017741 0.4675444679663241 
276.0000311017741 0.4675444679663241 
277.0000311017741 0.4675444679663241 
278.0000311017741 0.4675444679663241 
279.0000311017741 0.4675444679663241 
280.0000311017741 0.4675444679663241 
281.0000311017741 0.4675444679663241 
282.0000311017741 0.4675444679663241 
283.0000311017741 0.4675444679663241 
284.0000311017741 0.4675444679663241 
285.0000311017741 0.4675444679663241 
286.0000311017741 0.4675444679663241 
287.0000311017741 0.4675444679663241 
288.0000311017741 0.4675444679663241 
289.0000311017741 0.4675444679663241 
290.0000311017741 0.4675444679663241 
291.0000311017741 0.4675444679663241 
292.0000311017741 0.4675444679663241 
293.0000311017741 0.4675444679663241 
294.0000311017741 0.4675444679663241 
295.0000311017741 0.4675444679663241 
296.0000311017741 0.4675444679663241 
297.0000311017741 0.4675444679663241 
298.0000311017741 0.4675444679663241 
299.0000311017741 0.4675444679663241 
300.0000311017741 0.4675444679663241 
301.0000311017741 0.4675444679663241 
302.0000311017741 0.4675444679663241 
303.0000311017741 0.4675444679663241 
304.0000311017741 0.4675444679663241 
305.0000311017741 0.4675444679663241 
306.0000311017741 0.4675444679663241 
307.0000311017741 0.4675444679663241 
308.0000311017741 0.4675444679663241 
309.0000311017741 0.4675444679663241 
310.0000311017741 0.4675444679663241 
311.0000311017741 0.4675444679663241 
312.0000311017741 0.4675444679663241 
313.0000311017741 0.4675444679663241 
314.0000311017741 0.4675444679663241 
315.0000311017741 0.4675444679663241 
316.0000311017741 0.4675444679663241 
317.0000311017741 0.4675444679663241 
318.0000311017741 0.4675444679663241 
319.0000311017741 0.4675444679663241 
320.0000311017741 0.4675444679663241 
321.0000311017741 0.4675444679663241 
322.0000311017741 0.4675444679663241 
323.0000311017741 0.4675444679663241 
324.0000311017741 0.4675444679663241 
325.0000311017741 0.4675444679663241 
326.0000311017741 0.4675444679663241 
327.0000311017741 0.4675444679663241 
328.0000311017741 0.4675444679663241 
329.0000311017741 0.4675444679663241 
330.0000311017741 0.4675444679663241 
331.0000311017741 0.4675444679663241 
332.0000311017741 0.4675444679663241 
333.0000311017741 0.4675444679663241 
334.0000311017741 0.4675444679663241 
335.0000311017741 0.4675444679663241 
336.0000311017741 0.4675444679663241 
#####################################################################
# End of data export. Simulation finished at: 2017-05-23T08:17+0000 #
#####################################################################
