#####################################################################
# Alchemist log file - simulation started at: 2017-05-23T21:15+0000 #
#####################################################################
# random = 5.0, targets = 100.0, density = 20.0, gridShift = 0.0, perturbation = 0.5, connfactor = 2.0
#
# The columns have the following meaning: 
# time se[Mean] 
0.0 NaN 
1.0000808414316675 NaN 
2.0000808414316675 1.0081177103024574 
3.0000808414316675 1.0131295837927956 
4.000080841431668 1.0192877189009661 
5.000080841431668 1.0289217332230622 
6.000080841431668 1.0283335263074984 
7.000080841431668 1.041668975136526 
8.000080841431668 1.0420017515359168 
9.000080841431668 1.0456636726134216 
10.000080841431668 1.0506792989261708 
11.000080841431668 1.0582398481805293 
12.000080841431668 1.0694451438116992 
13.000080841431668 1.082319188458307 
14.000080841431668 1.0977898550724638 
15.000080841431668 1.113055639243331 
16.000080841431668 1.1261834521371559 
17.000080841431668 1.1392290534420288 
18.000080841431668 1.1525209718283973 
19.000080841431668 1.162392109063222 
20.000080841431668 1.174621455904747 
21.000080841431668 1.1829873066976475 
22.000080841431668 1.1907107560123924 
23.000080841431668 1.1983977752179162 
24.000080841431668 1.2047049169029613 
25.000080841431668 1.2115373982619198 
26.000080841431668 1.2161306336641464 
27.000080841431668 1.22469636991966 
28.000080841431668 1.23451904044581 
29.000080841431668 1.2394985631957574 
30.000080841431668 1.2661121800173278 
31.000080841431668 1.2675844419502205 
32.00008084143167 1.297416480256249 
33.00008084143167 1.3139756179767907 
34.00008084143167 1.3352049375787653 
35.00008084143167 1.3593718487450117 
36.00008084143167 1.3797601409892883 
37.00008084143167 1.4125414960092408 
38.00008084143167 1.4435096959672344 
39.00008084143167 1.473286049411889 
40.00008084143167 1.5181347094229145 
41.00008084143167 1.5420224069917035 
42.00008084143167 1.5959555099375131 
43.00008084143167 1.6108773222537283 
44.00008084143167 1.6550097550409588 
45.00008084143167 1.6869457230623817 
46.00008084143167 1.7199035053691452 
47.00008084143167 1.7342488526570048 
48.00008084143167 1.773787823264544 
49.00008084143167 1.7840918780193238 
50.00008084143167 1.8212877806001881 
51.00008084143167 1.849951479796786 
52.00008084143167 1.8694963663095991 
53.00008084143167 1.8887616276780084 
54.00008084143167 1.9381986557445932 
55.00008084143167 2.0452260246009226 
56.00008084143167 2.1272738923676773 
57.00008084143167 2.2897599798492947 
58.00008084143167 2.3480357428848975 
59.00008084143167 2.518926033790166 
60.00008084143167 2.7605650811935476 
61.00008084143167 2.829678080694701 
62.00008084143167 3.201466429715393 
63.00008084143167 3.370815841275471 
64.00008084143167 3.4574796235034695 
65.00008084143167 3.9717612748766 
66.00008084143167 3.9679062522973187 
67.00008084143167 4.247241805818107 
68.00008084143167 4.737483473797518 
69.00008084143167 4.898891905915248 
70.00008084143167 5.092331236216133 
71.00008084143167 5.57309785496745 
72.00008084143167 5.679467460223687 
73.00008084143167 6.300517935110801 
74.00008084143167 6.7653481473823955 
75.00008084143167 6.799412189862962 
76.00008084143167 7.733058243738197 
77.00008084143167 7.716986246980693 
78.00008084143167 8.317115461234502 
79.00008084143167 9.633846355479434 
80.00008084143167 9.300475907766236 
81.00008084143167 10.105453376391537 
82.00008084143167 10.4146564606963 
83.00008084143167 10.682183877796176 
84.00008084143167 11.750376414815706 
85.00008084143167 12.113337495077172 
86.00008084143167 12.15128705333702 
87.00008084143167 12.3875779097091 
88.00008084143167 12.806589755959875 
89.00008084143167 12.843005547022706 
90.00008084143167 13.935126606477098 
91.00008084143167 13.833023218270853 
92.00008084143167 13.726216727053135 
93.00008084143167 13.892535467535708 
94.00008084143167 14.109144105426918 
95.00008084143167 15.413112104534234 
96.00008084143167 14.640876143404759 
97.00008084143167 14.844017736885633 
98.00008084143167 15.559976103365896 
99.00008084143167 15.365582816766437 
100.00008084143167 16.303886448815906 
101.00008084143167 16.292929056395725 
102.00008084143167 16.783153494210776 
103.00008084143167 16.82321710151491 
104.00008084143167 16.802290239708057 
105.00008084143167 18.447697735507248 
106.00008084143167 18.930588684756344 
107.00008084143167 20.73562127408896 
108.00008084143167 20.790199383335974 
109.00008084143167 21.701195426381013 
110.00008084143167 23.22604141724426 
111.00008084143167 22.682502713781247 
112.00008084143167 23.23582904294002 
113.00008084143167 27.24526002284183 
114.00008084143167 26.902197380736702 
115.00008084143167 28.939708901753825 
116.00008084143167 30.313996422429653 
117.00008084143167 32.40278917900646 
118.00008084143167 34.390339798624204 
119.00008084143167 37.47618158540743 
120.00008084143167 37.6921927867701 
121.00008084143167 39.27685933528928 
122.00008084143167 37.87568199695442 
123.00008084143167 43.30194539290587 
124.00008084143167 48.11151093618725 
125.00008084143167 47.585979242149726 
126.00008084143167 47.37056159124916 
127.00008084143167 52.837849604206085 
128.00008084143167 51.63263012169185 
129.00008084143167 58.90764296431944 
130.00008084143167 56.53775618600344 
131.00008084143167 57.53369547068623 
132.00008084143167 55.447853697358745 
133.00008084143167 59.39101514486193 
134.00008084143167 60.97193698441762 
135.00008084143167 64.90383146824456 
136.00008084143167 64.41491795545844 
137.00008084143167 64.58753782490548 
138.00008084143167 62.68162401937615 
139.00008084143167 65.44004116552456 
140.00008084143167 64.02442849716445 
141.00008084143167 60.12933285253885 
142.00008084143167 62.59295518798571 
143.00008084143167 64.14937065873765 
144.00008084143167 59.291375910719914 
145.00008084143167 62.34729126890356 
146.00008084143167 62.3645413516068 
147.00008084143167 60.17599819201587 
148.00008084143167 58.252382843677786 
149.00008084143167 55.183215758900396 
150.00008084143167 51.940629497807635 
151.00008084143167 52.38465212796681 
152.00008084143167 51.29860660772431 
153.00008084143167 49.81289975648506 
154.00008084143167 49.970662452084575 
155.00008084143167 45.853000596316456 
156.00008084143167 47.3280639413989 
157.00008084143167 46.29585890273841 
158.00008084143167 45.06128869525838 
159.00008084143167 42.380652387891224 
160.00008084143167 42.43503309736664 
161.00008084143167 39.568733468546554 
162.00008084143167 41.35696616092992 
163.00008084143167 40.035245461825255 
164.00008084143167 35.817576323579615 
165.00008084143167 34.73726455248373 
166.00008084143167 33.85711588919084 
167.00008084143167 31.285116713269325 
168.00008084143167 29.559329859798375 
169.00008084143167 30.59975938484559 
170.00008084143167 29.645404298926117 
171.00008084143167 26.916539210840682 
172.00008084143167 26.751454054754802 
173.00008084143167 24.053004662229547 
174.00008084143167 24.43687438989975 
175.00008084143167 24.388926062998877 
176.00008084143167 23.411763950259882 
177.00008084143167 21.69786563583016 
178.00008084143167 21.697143771004047 
179.00008084143167 20.97761064672596 
180.00008084143167 20.01009417729996 
181.00008084143167 19.671732535509882 
182.00008084143167 19.04332188714295 
183.00008084143167 18.60856485375972 
184.00008084143167 18.79161752487663 
185.00008084143167 18.432671748319677 
186.00008084143167 18.18637513652594 
187.00008084143167 17.931188554794165 
188.00008084143167 17.83436078554925 
189.00008084143167 17.810678897224847 
190.00008084143167 17.829815460578132 
191.00008084143167 17.78842227899863 
192.00008084143167 17.770559546313798 
193.00008084143167 17.730524365613842 
194.00008084143167 17.729208535168556 
195.00008084143167 17.728096398143773 
196.00008084143167 17.727256384556817 
197.00008084143167 17.72615005086904 
198.00008084143167 17.72561860592575 
199.00008084143167 17.725421794922287 
200.00008084143167 17.72474796819208 
201.00008084143167 17.7245883824958 
202.00008084143167 17.724452238237767 
203.00008084143167 17.724140209514808 
204.00008084143167 17.724106964135686 
205.00008084143167 17.724100189035916 
206.00008084143167 17.724007306763284 
207.00008084143167 17.724027169974796 
208.00008084143167 17.724073534971645 
209.00008084143167 17.724086783238814 
210.00008084143167 17.72408675173283 
211.00008084143167 17.724086741230835 
212.00008084143167 17.724073482461666 
213.00008084143167 17.724086741230835 
214.00008084143167 17.724086741230835 
215.00008084143167 17.7241 
216.00008084143167 17.7241 
217.00008084143167 17.7241 
218.00008084143167 17.7241 
219.00008084143167 17.7241 
220.00008084143167 17.7241 
221.00008084143167 17.7241 
222.00008084143167 17.7241 
223.00008084143167 17.7241 
224.00008084143167 17.7241 
225.00008084143167 17.7241 
226.00008084143167 17.7241 
227.00008084143167 17.7241 
228.00008084143167 17.7241 
229.00008084143167 17.7241 
230.00008084143167 17.7241 
231.00008084143167 17.7241 
232.00008084143167 17.7241 
233.00008084143167 17.7241 
234.00008084143167 17.7241 
235.00008084143167 17.7241 
236.00008084143167 17.7241 
237.00008084143167 17.7241 
238.00008084143167 17.7241 
239.00008084143167 17.7241 
240.00008084143167 17.7241 
241.00008084143167 17.7241 
242.00008084143167 17.7241 
243.00008084143167 17.7241 
244.00008084143167 17.7241 
245.00008084143167 17.7241 
246.00008084143167 17.7241 
247.00008084143167 17.7241 
248.00008084143167 17.7241 
249.00008084143167 17.7241 
250.00008084143167 17.7241 
251.00008084143167 17.7241 
252.00008084143167 17.7241 
253.00008084143167 17.7241 
254.00008084143167 17.7241 
255.00008084143167 17.7241 
256.00008084143167 17.7241 
257.00008084143167 17.7241 
258.00008084143167 17.7241 
259.00008084143167 17.7241 
260.00008084143167 17.7241 
261.00008084143167 17.7241 
262.00008084143167 17.7241 
263.00008084143167 17.7241 
264.00008084143167 17.7241 
265.00008084143167 17.7241 
266.00008084143167 17.7241 
267.00008084143167 17.7241 
268.00008084143167 17.7241 
269.00008084143167 17.7241 
270.00008084143167 17.7241 
271.00008084143167 17.7241 
272.00008084143167 17.7241 
273.00008084143167 17.7241 
274.00008084143167 17.7241 
275.00008084143167 17.7241 
276.00008084143167 17.7241 
277.00008084143167 17.7241 
278.00008084143167 17.7241 
279.00008084143167 17.7241 
280.00008084143167 17.7241 
281.00008084143167 17.7241 
282.00008084143167 17.7241 
283.00008084143167 17.7241 
284.00008084143167 17.7241 
285.00008084143167 17.7241 
286.00008084143167 17.7241 
287.00008084143167 17.7241 
288.00008084143167 17.7241 
289.00008084143167 17.7241 
290.00008084143167 17.7241 
291.00008084143167 17.7241 
292.00008084143167 17.7241 
293.00008084143167 17.7241 
294.00008084143167 17.7241 
295.00008084143167 17.7241 
296.00008084143167 17.7241 
297.00008084143167 17.7241 
298.00008084143167 17.7241 
299.00008084143167 17.7241 
300.00008084143167 17.7241 
301.00008084143167 17.7241 
302.00008084143167 17.7241 
303.00008084143167 17.7241 
304.00008084143167 17.7241 
305.00008084143167 17.7241 
306.00008084143167 17.7241 
307.00008084143167 17.7241 
308.00008084143167 17.7241 
309.00008084143167 17.7241 
310.00008084143167 17.7241 
311.00008084143167 17.7241 
312.00008084143167 17.7241 
313.00008084143167 17.7241 
314.00008084143167 17.7241 
315.00008084143167 17.7241 
316.00008084143167 17.7241 
317.00008084143167 17.7241 
318.00008084143167 17.7241 
319.00008084143167 17.7241 
#####################################################################
# End of data export. Simulation finished at: 2017-05-23T21:48+0000 #
#####################################################################
