#####################################################################
# Alchemist log file - simulation started at: 2017-05-24T06:38+0000 #
#####################################################################
# random = 6.0, targets = 31.622776601683793, density = 3.5589026259761294, gridShift = 0.0, perturbation = 0.0, connfactor = 0.1
#
# The columns have the following meaning: 
# time se[Mean] 
0.0 NaN 
1.001281360956031 NaN 
2.001281360956031 1.0 
3.001281360956031 1.0 
4.001281360956031 0.9998443861169916 
5.001281360956031 0.9995331583509748 
6.001281360956031 0.9985994750529242 
7.001281360956031 0.9968877223398316 
8.001281360956032 0.9956428112757643 
9.001281360956032 0.9937754446796633 
10.001281360956032 0.9915968503175454 
11.001281360956032 0.9905075531364864 
12.001281360956032 0.988484572657377 
13.001281360956032 0.9875508893593264 
14.001281360956032 0.9873952754763181 
15.001281360956032 0.9867728199442843 
16.001281360956032 0.9867728199442843 
17.001281360956032 0.9870840477103012 
18.001281360956032 0.987395275476318 
19.001281360956032 0.987395275476318 
20.001281360956032 0.9880177310083518 
21.001281360956032 0.988484572657377 
22.001281360956032 0.9894182559554275 
23.001281360956032 0.9898850976044528 
24.001281360956032 0.9908187809025033 
25.001281360956032 0.9919080780835622 
26.001281360956032 0.9920636919665706 
27.001281360956032 0.9923749197325875 
28.001281360956032 0.991441236434537 
29.001281360956032 0.9909743947855116 
30.001281360956032 0.9892626420724191 
31.001281360956032 0.9883289587743685 
32.00128136095603 0.9866172060612759 
33.00128136095603 0.9852166811142001 
34.00128136095603 0.980733878506956 
35.00128136095603 0.978836511910855 
36.00128136095603 0.9742574815375941 
37.00128136095603 0.9710502038774256 
38.00128136095603 0.9645488069080637 
39.00128136095603 0.9597397765348026 
40.00128136095603 0.9560600433426005 
41.00128136095603 0.9536108350974742 
42.00128136095603 0.9471238242451038 
43.00128136095603 0.9458095270640449 
44.00128136095603 0.9414067244568007 
45.00128136095603 0.9391781300946829 
46.00128136095603 0.938048832913624 
47.00128136095603 0.9358902385515061 
48.00128136095603 0.9346403274874387 
49.00128136095603 0.9342290997214219 
50.00128136095603 0.9342747136044303 
51.00128136095603 0.9351183969024808 
52.00128136095603 0.9361426940835397 
53.00128136095603 0.9341090997214219 
54.00128136095603 0.9364439218495566 
55.00128136095603 0.9358564663175228 
56.00128136095603 0.9364439218495566 
57.00128136095603 0.9371669912645987 
58.00128136095603 0.9376038329136239 
59.00128136095603 0.9373176051476071 
60.00128136095603 0.9377544467966323 
61.00128136095603 0.9373176051476071 
62.00128136095603 0.9373176051476071 
63.00128136095603 0.9377544467966323 
64.00128136095603 0.9377544467966323 
65.00128136095603 0.9377544467966323 
66.00128136095603 0.9377544467966323 
67.00128136095603 0.9377544467966323 
68.00128136095603 0.9377544467966323 
69.00128136095603 0.9377544467966323 
70.00128136095603 0.9377544467966323 
71.00128136095603 0.9377544467966323 
72.00128136095603 0.9377544467966323 
73.00128136095603 0.9377544467966323 
74.00128136095603 0.9377544467966323 
75.00128136095603 0.9377544467966323 
76.00128136095603 0.9377544467966323 
77.00128136095603 0.9377544467966323 
78.00128136095603 0.9377544467966323 
79.00128136095603 0.9377544467966323 
80.00128136095603 0.9377544467966323 
81.00128136095603 0.9377544467966323 
82.00128136095603 0.9377544467966323 
83.00128136095603 0.9377544467966323 
84.00128136095603 0.9377544467966323 
85.00128136095603 0.9377544467966323 
86.00128136095603 0.9377544467966323 
87.00128136095603 0.9377544467966323 
88.00128136095603 0.9377544467966323 
89.00128136095603 0.9377544467966323 
90.00128136095603 0.9377544467966323 
91.00128136095603 0.9377544467966323 
92.00128136095603 0.9377544467966323 
93.00128136095603 0.9377544467966323 
94.00128136095603 0.9377544467966323 
95.00128136095603 0.9377544467966323 
96.00128136095603 0.9377544467966323 
97.00128136095603 0.9377544467966323 
98.00128136095603 0.9377544467966323 
99.00128136095603 0.9377544467966323 
100.00128136095603 0.9377544467966323 
101.00128136095603 0.9377544467966323 
102.00128136095603 0.9377544467966323 
103.00128136095603 0.9377544467966323 
104.00128136095603 0.9377544467966323 
105.00128136095603 0.9377544467966323 
#####################################################################
# End of data export. Simulation finished at: 2017-05-24T06:40+0000 #
#####################################################################
