#####################################################################
# Alchemist log file - simulation started at: 2017-05-23T19:43+0000 #
#####################################################################
# random = 12.0, targets = 100.0, density = 0.05649405772326896, gridShift = 0.0, perturbation = 0.0, connfactor = 0.75
#
# The columns have the following meaning: 
# time se[Mean] 
0.0 NaN 
1.0005590746559656 NaN 
2.000559074655966 1.1115953125 
3.000559074655966 1.1434217881944444 
4.000559074655966 1.187892578125 
5.000559074655966 1.1495575086805556 
6.000559074655966 1.0495858072916666 
7.000559074655966 1.1050375868055555 
8.000559074655966 0.8716753038194445 
9.000559074655966 0.7809286458333333 
10.000559074655966 0.540784765625 
11.000559074655966 0.4340383246527778 
12.000559074655966 0.3232780381944445 
13.000559074655966 0.22629843750000003 
14.000559074655966 0.1748587673611111 
15.000559074655966 0.1571310329861111 
16.000559074655968 0.13941801215277777 
17.000559074655968 0.12199700520833333 
18.000559074655968 0.10239999999999999 
19.000559074655968 0.1156 
20.000559074655968 0.1156 
21.000559074655968 0.1156 
22.000559074655968 0.1156 
23.000559074655968 0.1156 
24.000559074655968 0.1156 
25.000559074655968 0.1156 
26.000559074655968 0.1156 
27.000559074655968 0.1156 
#####################################################################
# End of data export. Simulation finished at: 2017-05-23T19:43+0000 #
#####################################################################
