0.000000000000000000e+00 nan
1.000001755811571025e+00 1.374574615753489226e+01
2.000003511623142050e+00 1.891822621407169613e+00
3.000005267434715517e+00 1.638971456621174161e+00
4.000007023246284099e+00 1.695955747675449654e+00
5.000008779057861119e+00 1.787210879464988800e+00
6.000010534869431034e+00 1.798813688560942037e+00
7.000012290681001836e+00 1.892491439003982423e+00
8.000014046492568198e+00 1.860847844460712386e+00
9.000015802304146106e+00 1.911279800519974259e+00
1.000001755811572224e+01 1.859413973218567273e+00
1.100001931392728416e+01 1.926478974921046472e+00
1.200002106973886207e+01 1.940375575491732008e+00
1.300002282555043820e+01 1.935505100627388009e+00
1.400002458136200367e+01 1.925896030388503100e+00
1.500002633717357270e+01 1.982927602665860434e+00
1.600002809298513640e+01 1.914468122086757429e+00
1.700002984879671786e+01 2.130571437684379177e+00
1.800003160460829221e+01 2.125682829615412217e+00
1.900003336041987367e+01 2.044594936135119223e+00
2.000003511623144448e+01 2.208707279263077972e+00
2.100003687204299752e+01 2.155446772330751326e+00
2.200003862785456832e+01 2.234970929388977012e+00
2.300004038366614978e+01 2.334067471887633083e+00
2.400004213947772413e+01 2.351077018826199794e+00
2.500004389528929849e+01 2.476066587934020014e+00
2.600004565110087640e+01 2.626989874810024439e+00
2.700004740691243654e+01 2.638125161570120447e+00
2.800004916272400735e+01 2.727922224897449066e+00
2.900005091853558170e+01 2.636974382655968174e+00
3.000005267434714540e+01 2.826677755783878698e+00
3.100005443015871975e+01 2.723506373608412634e+00
3.200005618597027279e+01 2.726442593838594330e+00
3.300005794178185425e+01 2.750273259775490420e+00
3.400005969759343571e+01 2.796941032565109175e+00
3.500006145340501007e+01 2.794597493197847893e+00
3.600006320921658443e+01 2.856489449222338273e+00
3.700006496502816589e+01 3.036094411808700766e+00
3.800006672083974735e+01 3.073362049458521206e+00
3.900006847665130749e+01 3.162599319007062704e+00
4.000007023246288895e+01 3.286343073655448865e+00
4.100007198827441357e+01 3.206564786700383252e+00
4.200007374408599503e+01 3.456175522869850081e+00
4.300007549989757649e+01 3.520060775353524019e+00
4.400007725570913664e+01 3.526595853723348384e+00
4.500007901152071810e+01 3.542771448676386381e+00
4.600008076733229956e+01 4.034921792386966466e+00
4.700008252314386681e+01 3.755690174325394981e+00
4.800008427895544827e+01 4.244840648350035828e+00
4.900008603476702973e+01 4.622398658414187622e+00
5.000008779057859698e+01 4.288171256507705031e+00
5.100008954639017134e+01 4.957847119337293940e+00
5.200009130220175280e+01 5.245283373440948971e+00
5.300009305801327741e+01 5.104037908082228014e+00
5.400009481382487309e+01 5.571819237458386809e+00
5.500009656963643323e+01 5.343973991623298225e+00
5.600009832544801469e+01 6.475340589349167786e+00
5.700010008125960326e+01 6.407041309323363798e+00
5.800010183707116340e+01 6.632721433988618465e+00
5.900010359288270934e+01 6.879820957841700668e+00
6.000010534869429080e+01 7.339039507947365593e+00
6.100010710450587226e+01 7.474035802130793549e+00
6.200010886031743951e+01 7.545662803497605431e+00
6.300011061612901386e+01 8.469780023076589615e+00
6.400011237194054559e+01 1.270735058906085513e+01
6.500011412775212705e+01 1.250874899448187527e+01
6.600011588356370851e+01 2.092008110050915448e+01
6.700011763937528997e+01 1.953222093826213523e+01
6.800011939518687143e+01 2.482476197938141382e+01
6.900012115099845289e+01 2.245563411429709788e+01
7.000012290681002014e+01 3.420010694026415621e+01
7.100012466262158739e+01 2.883598764060942798e+01
7.200012641843316885e+01 3.992674254941100997e+01
7.300012817424475031e+01 3.876453059998154060e+01
7.400012993005633177e+01 4.613038798727144041e+01
7.500013168586791323e+01 4.256492008060229892e+01
7.600013344167949469e+01 4.291392038590594638e+01
7.700013519749103352e+01 5.000460058666055829e+01
7.800013695330261498e+01 5.439780975241352934e+01
7.900013870911419644e+01 5.621541145669011996e+01
8.000014046492577791e+01 5.783581743178206125e+01
8.100014222073735937e+01 5.335418780508029357e+01
8.200014397654882714e+01 6.705413670233119205e+01
8.300014573236040860e+01 5.962236443053266299e+01
8.400014748817199006e+01 6.244548806276114306e+01
8.500014924398357152e+01 6.737466374385188317e+01
8.600015099979515298e+01 6.755051817974791106e+01
8.700015275560669181e+01 6.335316135698952422e+01
8.800015451141827327e+01 7.319398412574220458e+01
8.900015626722985473e+01 7.377067398151802990e+01
9.000015802304143619e+01 7.934219795196213454e+01
9.100015977885301766e+01 7.763146158766689098e+01
9.200016153466459912e+01 7.918469605045433468e+01
9.300016329047616637e+01 8.430279621210655705e+01
9.400016504628773362e+01 8.236235121394294367e+01
9.500016680209931508e+01 8.816995913306935506e+01
9.600016855791089654e+01 8.982001744914335006e+01
9.700017031372247800e+01 8.669017897728240030e+01
9.800017206953405946e+01 1.027492840695247338e+02
9.900017382534561250e+01 8.643183092966997094e+01
1.000001755811571940e+02 1.013031618443485655e+02
1.010001773369687612e+02 9.913046935174116925e+01
1.020001790927803427e+02 9.795810300359765677e+01
1.030001808485919241e+02 9.401474633410784065e+01
1.040001826044035056e+02 9.633253714658320632e+01
1.050001843602149734e+02 1.126155598500031374e+02
1.060001861160265548e+02 1.141708095555301981e+02
1.070001878718381221e+02 1.101748533072448453e+02
1.080001896276497462e+02 1.288967178222270604e+02
1.090001913834612850e+02 1.093829920303319341e+02
1.100001931392728665e+02 1.438578259097417629e+02
1.110001948950844195e+02 1.317630733362171895e+02
1.120001966508960294e+02 1.425489688240036514e+02
1.130001984067075824e+02 1.526402118565123089e+02
1.140002001625192065e+02 1.387008177016691945e+02
1.150002019183307453e+02 1.516352514550531794e+02
1.160002036741423268e+02 1.564156018039001310e+02
1.170002054299538941e+02 1.418153482655289110e+02
1.180002071857654187e+02 1.702068604401821403e+02
1.190002089415770428e+02 1.472821994099243170e+02
1.200002106973885816e+02 1.648514193347077992e+02
1.210002124532002057e+02 1.540178947730579466e+02
1.220002142090117445e+02 1.397193542248634799e+02
1.230002159648233402e+02 1.444197180918415881e+02
1.240002177206348790e+02 1.505253503818134959e+02
1.250002194764465031e+02 1.450189407939302555e+02
1.260002212322580277e+02 1.546542354807788513e+02
1.270002229880696660e+02 1.448498103007888460e+02
1.280002247438810912e+02 1.473175636639059292e+02
1.290002264996928432e+02 1.378628151533420123e+02
1.300002282555042541e+02 1.226012933008792203e+02
1.310002300113159208e+02 1.535428172455843026e+02
1.320002317671274170e+02 1.552498308554775974e+02
1.330002335229390553e+02 1.302625932391285346e+02
1.340002352787505799e+02 1.440439372364168946e+02
1.350002370345622182e+02 1.470396332303564293e+02
1.360002387903737429e+02 1.511378379320786109e+02
1.370002405461853812e+02 1.443416790258866911e+02
1.380002423019969058e+02 1.449231377523551600e+02
1.390002440578084020e+02 1.500244404222520700e+02
1.400002458136200403e+02 1.242561643115445946e+02
1.410002475694316786e+02 1.311380721197038781e+02
1.420002493252431748e+02 1.103639669141924031e+02
1.430002510810546994e+02 1.220760116532110686e+02
1.440002528368663377e+02 1.089945485705862751e+02
1.450002545926778623e+02 1.206541258399422674e+02
1.460002563484895006e+02 9.114789637419093538e+01
1.470002581043009968e+02 9.546229804470300451e+01
1.480002598601126635e+02 9.288318157570522260e+01
1.490002616159241597e+02 8.509414566473935793e+01
1.500002633717358265e+02 9.066407386747177100e+01
1.510002651275472374e+02 8.698402224537099414e+01
1.520002668833589894e+02 8.048975538862978851e+01
1.530002686391704003e+02 7.785259091766251061e+01
1.540002703949820670e+02 7.933895855721959833e+01
1.550002721507935632e+02 6.918243748111531488e+01
1.560002739066052300e+02 6.968830789220973543e+01
1.570002756624167262e+02 7.472399442335466802e+01
1.580002774182283929e+02 6.418639009314608757e+01
1.590002791740398891e+02 6.407164972849042783e+01
1.600002809298515558e+02 5.600966745669879288e+01
1.610002826856630520e+02 6.482810078885106009e+01
1.620002844414747187e+02 6.141421624971717108e+01
1.630002861972861865e+02 5.661446479156497702e+01
1.640002879530976543e+02 5.973674340672966565e+01
1.650002897089093210e+02 5.860434818176857164e+01
1.660002914647208172e+02 3.979591951147710915e+01
1.670002932205324839e+02 5.362065583252677214e+01
1.680002949763439801e+02 5.413002002340865459e+01
1.690002967321556469e+02 4.821727814790074262e+01
1.700002984879671430e+02 4.501698435897268524e+01
1.710003002437788098e+02 4.471260260779027362e+01
1.720003019995903060e+02 4.787307639903549727e+01
1.730003037554019727e+02 4.721131883180314759e+01
1.740003055112133836e+02 4.825409879433566118e+01
1.750003072670251356e+02 5.248464263035049981e+01
1.760003090228365465e+02 5.738372909206908190e+01
1.770003107786482133e+02 5.812895824221079266e+01
1.780003125344597095e+02 5.853414322720380625e+01
1.790003142902713762e+02 5.530383924411109575e+01
1.800003160460828724e+02 6.142802261498027150e+01
1.810003178018945391e+02 5.314229117990947060e+01
1.820003195577060353e+02 5.711359524484771555e+01
1.830003213135177020e+02 4.589284824982198074e+01
1.840003230693291982e+02 4.498376476600987672e+01
1.850003248251406376e+02 4.275140622999862927e+01
1.860003265809523327e+02 3.368173191475961659e+01
1.870003283367640279e+02 2.995676599629533854e+01
1.880003300925754672e+02 2.737495654831841563e+01
1.890003318483869634e+02 2.399774190874046198e+01
1.900003336041986302e+02 2.836029396317043449e+01
1.910003353600101264e+02 2.640829277474531267e+01
1.920003371158217931e+02 2.617984100560935445e+01
1.930003388716332893e+02 2.141291271598714374e+01
1.940003406274449560e+02 2.489326750293941259e+01
1.950003423832564238e+02 1.997681697973606418e+01
1.960003441390681189e+02 1.876391952394464724e+01
1.970003458948795299e+02 1.661313411672768581e+01
1.980003476506912250e+02 1.654443228734974980e+01
1.990003494065027496e+02 1.636271853705807189e+01
2.000003511623143879e+02 1.562121509830706856e+01
2.010003529181258557e+02 1.541752869163885897e+01
2.020003546739375224e+02 1.522849072255500147e+01
2.030003564297490186e+02 1.494737517519330972e+01
2.040003581855606853e+02 1.530836126951257370e+01
2.050003599413721815e+02 1.513397173801309314e+01
2.060003616971838483e+02 1.512908892548497164e+01
2.070003634529954013e+02 1.476077861237351918e+01
2.080003652088070112e+02 1.502724572215086773e+01
2.090003669646184790e+02 1.466625962783159132e+01
2.100003687204299467e+02 1.456441642449749452e+01
2.110003704762415566e+02 1.446989743995556665e+01
2.120003722320531097e+02 1.446745603369150857e+01
2.130003739878647764e+02 1.446745603369150857e+01
2.140003757436762442e+02 1.446745603369150857e+01
2.150003774994878825e+02 1.446745603369150857e+01
2.160003792552994923e+02 1.446745603369150857e+01
2.170003810111111022e+02 1.446745603369150857e+01
2.180003827669225700e+02 1.446745603369150857e+01
2.190003845227342083e+02 1.446745603369150857e+01
2.200003862785457329e+02 1.446745603369150857e+01
2.210003880343574281e+02 1.446745603369150857e+01
2.220003897901688390e+02 1.446745603369150857e+01
2.230003915459804489e+02 1.446745603369150857e+01
2.240003933017920588e+02 1.446745603369150857e+01
2.250003950576036971e+02 1.446745603369150857e+01
2.260003968134151648e+02 1.446745603369150857e+01
2.270003985692267747e+02 1.446745603369150857e+01
2.280004003250384130e+02 1.446745603369150857e+01
2.290004020808500229e+02 1.446745603369150857e+01
2.300004038366614907e+02 1.446745603369150857e+01
2.310004055924731006e+02 1.446745603369150857e+01
2.320004073482846536e+02 1.446745603369150857e+01
2.330004091040963488e+02 1.446745603369150857e+01
2.340004108599077881e+02 1.446745603369150857e+01
2.350004126157192275e+02 1.446745603369150857e+01
2.360004143715308373e+02 1.446745603369150857e+01
2.370004161273424756e+02 1.446745603369150857e+01
2.380004178831540855e+02 1.446745603369150857e+01
2.390004196389655533e+02 1.446745603369150857e+01
2.400004213947771632e+02 1.446745603369150857e+01
2.410004231505888015e+02 1.446745603369150857e+01
2.420004249064004114e+02 1.446745603369150857e+01
2.430004266622118223e+02 1.446745603369150857e+01
2.440004284180234890e+02 1.446745603369150857e+01
2.450004301738350705e+02 1.446745603369150857e+01
2.460004319296466804e+02 1.446745603369150857e+01
2.470004336854581481e+02 1.446745603369150857e+01
2.480004354412697580e+02 1.446745603369150857e+01
2.490004371970813963e+02 1.446745603369150857e+01
2.500004389528930062e+02 1.446745603369150857e+01
2.510004407087044740e+02 1.446745603369150857e+01
2.520004424645160555e+02 1.446745603369150857e+01
2.530004442203277222e+02 1.446745603369150857e+01
2.540004459761393321e+02 1.446745603369150857e+01
2.550004477319507714e+02 1.446745603369150857e+01
2.560004494877621823e+02 1.446745603369150857e+01
2.570004512435738206e+02 1.446745603369150857e+01
2.580004529993856863e+02 1.446745603369150857e+01
2.590004547551970404e+02 1.446745603369150857e+01
2.600004565110085082e+02 1.446745603369150857e+01
2.610004582668200896e+02 1.446745603369150857e+01
2.620004600226318416e+02 1.446745603369150857e+01
2.630004617784433663e+02 1.446745603369150857e+01
2.640004635342548340e+02 1.446745603369150857e+01
2.650004652900664155e+02 1.446745603369150857e+01
2.660004670458781106e+02 1.446745603369150857e+01
2.670004688016896921e+02 1.446745603369150857e+01
2.680004705575011599e+02 1.446745603369150857e+01
2.690004723133127413e+02 1.446745603369150857e+01
2.700004740691244365e+02 1.446745603369150857e+01
2.710004758249360179e+02 1.446745603369150857e+01
2.720004775807474857e+02 1.446745603369150857e+01
2.730004793365590103e+02 1.446745603369150857e+01
