#####################################################################
# Alchemist log file - simulation started at: 2017-05-25T20:52+0000 #
#####################################################################
# random = 19.0, targets = 1.0, density = 10.026386447354522, gridShift = 0.0, perturbation = 0.0, connfactor = 1.5
#
# The columns have the following meaning: 
# time se[Mean] 
0.0 NaN 
1.0036597452439835 NaN 
2.0036597452439837 1.0 
3.0036597452439837 1.008883022140598 
4.003659745243984 1.0262600755025 
5.003659745243984 1.107233955718805 
6.003659745243984 1.2156476379961227 
7.003659745243984 1.316255994286294 
8.003659745243983 1.3061996224875039 
9.003659745243983 1.2289115906540187 
10.003659745243983 1.1309368941944715 
11.003659745243983 1.053317263544537 
12.003659745243983 1.0241046831955924 
13.003659745243983 1.0079838791960003 
14.003659745243983 0.9857731353943474 
15.003659745243983 0.982922660952964 
16.003659745243983 0.9669549025609628 
17.003659745243983 0.9439980614223031 
18.003659745243983 0.9450566268748091 
19.003659745243983 0.9050352004897451 
20.003659745243983 0.8871671258034899 
21.003659745243983 0.8660085705540241 
22.003659745243983 0.8489758698092014 
23.003659745243983 0.8366429445974924 
24.003659745243983 0.8219250586674811 
25.003659745243983 0.8129782675237193 
26.003659745243983 0.7966852872155888 
27.003659745243983 0.7870370370370381 
28.003659745243983 0.775616008570556 
29.003659745243983 0.7677086521783469 
30.003659745243983 0.7630535149474538 
31.003659745243983 0.7538899091929417 
32.00365974524398 0.7510585654525044 
33.00365974524398 0.7442671666156493 
34.00365974524398 0.7453576165697398 
35.00365974524398 0.7415761146821761 
36.00365974524398 0.7378201203958764 
37.00365974524398 0.7325081624324036 
38.00365974524398 0.7349951535557611 
39.00365974524398 0.7298872564024096 
40.00365974524398 0.7275915722885399 
41.00365974524398 0.7297852259973484 
42.00365974524398 0.7285608611366202 
43.00365974524398 0.7289307213549627 
44.00365974524398 0.7257486480971321 
45.00365974524398 0.7315835118865435 
46.00365974524398 0.7313348127742066 
47.00365974524398 0.7269156208550155 
48.00365974524398 0.7287075298438943 
49.00365974524398 0.7268454749515358 
50.00365974524398 0.7342873176206501 
51.00365974524398 0.7377244668911329 
52.00365974524398 0.742577288031834 
53.00365974524398 0.7413656769717374 
54.00365974524398 0.751811039689828 
55.00365974524398 0.7550760126517706 
56.00365974524398 0.7682634425058661 
57.00365974524398 0.7743278747066622 
58.00365974524398 0.7856596265687171 
59.00365974524398 0.7964939802061018 
60.00365974524398 0.8038401693704718 
61.00365974524398 0.8157841036628912 
62.00365974524398 0.8257958371594729 
63.00365974524398 0.8405838689929607 
64.00365974524398 0.8431473829201112 
65.00365974524398 0.8634960718294066 
66.00365974524398 0.8633430262218152 
67.00365974524398 0.872615039281707 
68.00365974524398 0.8817021222324251 
69.00365974524398 0.8945707070707081 
70.00365974524398 0.8973063973063987 
71.00365974524398 0.9127384960718288 
72.00365974524398 0.9239299561269257 
73.00365974524398 0.9295926436077949 
74.00365974524398 0.936192735435159 
75.00365974524398 0.9454328639934702 
76.00365974524398 0.9474670951943677 
77.00365974524398 0.9543605244362824 
78.00365974524398 0.9537292113049686 
79.00365974524398 0.9641681971227425 
80.00365974524398 0.9617896133047645 
81.00365974524398 0.9665531578410368 
82.00365974524398 0.9651311090705031 
83.00365974524398 0.9650609631670236 
84.00365974524398 0.9659473523109884 
85.00365974524398 0.9590092847668609 
86.00365974524398 0.9565605550454029 
87.00365974524398 0.9578295582083456 
88.00365974524398 0.9861429956126926 
89.00365974524398 1.1308157330884587 
90.00365974524398 1.1705757065605567 
91.00365974524398 1.2377882358942955 
92.00365974524398 1.378781501887565 
93.00365974524398 1.2739388837873702 
94.00365974524398 1.2635509131721219 
95.00365974524398 1.2116110600959094 
96.00365974524398 1.2338218038975577 
97.00365974524398 1.4132040097949161 
98.00365974524398 2.1537024283236446 
99.00365974524398 2.46192352821141 
100.00365974524398 2.9011707988980984 
101.00365974524398 3.735664728088965 
102.00365974524398 3.134763034384263 
103.00365974524398 2.7797928782777457 
104.00365974524398 2.5424892868074553 
105.00365974524398 2.7570783593510866 
106.00365974524398 2.2092005917763484 
107.00365974524398 1.0602744617896123 
108.00365974524398 1.7081292725232142 
109.00365974524398 1.748112437506374 
110.00365974524398 0.9306257014590351 
111.00365974524398 1.9252499744924017 
112.00365974524398 1.3185006631976317 
113.00365974524398 1.3577951229466365 
114.00365974524398 1.339346750331603 
115.00365974524398 1.0251249872462007 
116.00365974524398 1.27350525456586 
117.00365974524398 0.9638621059075623 
118.00365974524398 1.3758289970411146 
119.00365974524398 0.9049905621875327 
120.00365974524398 1.3421143250688718 
121.00365974524398 0.6136554943373147 
122.00365974524398 1.051410570349965 
123.00365974524398 1.0437136516681937 
124.00365974524398 0.7923681257014576 
125.00365974524398 0.9634794918885853 
126.00365974524398 0.694501836547292 
127.00365974524398 0.4006478930721339 
128.00365974524397 0.5828040506070811 
129.00365974524397 0.5944865319865299 
130.00365974524397 0.5651974288337934 
131.00365974524397 0.5598918477706348 
132.00365974524397 0.747602285481071 
133.00365974524397 0.7317301805938138 
134.00365974524397 0.4917865523926055 
135.00365974524397 0.4868827160493808 
136.00365974524397 0.24480920314254156 
137.00365974524397 5.29282726252432E-4 
138.00365974524397 0.23807519640853514 
139.00365974524397 0.2375522905825966 
140.00365974524397 0.23753953678196427 
141.00365974524397 6.376900316294154E-6 
142.00365974524397 6.376900316294154E-6 
143.00365974524397 0.0 
144.00365974524397 0.0 
145.00365974524397 0.0 
146.00365974524397 0.0 
147.00365974524397 0.0 
148.00365974524397 0.0 
149.00365974524397 0.0 
150.00365974524397 0.0 
151.00365974524397 0.0 
152.00365974524397 0.0 
153.00365974524397 0.0 
154.00365974524397 0.0 
155.00365974524397 0.0 
156.00365974524397 0.0 
157.00365974524397 0.0 
158.00365974524397 0.0 
159.00365974524397 0.0 
160.00365974524397 0.0 
161.00365974524397 0.0 
162.00365974524397 0.0 
163.00365974524397 0.0 
164.00365974524397 0.0 
165.00365974524397 0.0 
166.00365974524397 0.0 
167.00365974524397 0.0 
168.00365974524397 0.0 
169.00365974524397 0.0 
170.00365974524397 0.0 
171.00365974524397 0.0 
172.00365974524397 0.0 
173.00365974524397 0.0 
174.00365974524397 0.0 
175.00365974524397 0.0 
176.00365974524397 0.0 
177.00365974524397 0.0 
178.00365974524397 0.0 
179.00365974524397 0.0 
180.00365974524397 0.0 
181.00365974524397 0.0 
182.00365974524397 0.0 
183.00365974524397 0.0 
184.00365974524397 0.0 
185.00365974524397 0.0 
186.00365974524397 0.0 
187.00365974524397 0.0 
188.00365974524397 0.0 
189.00365974524397 0.0 
190.00365974524397 0.0 
191.00365974524397 0.0 
192.00365974524397 0.0 
193.00365974524397 0.0 
194.00365974524397 0.0 
195.00365974524397 0.0 
196.00365974524397 0.0 
197.00365974524397 0.0 
198.00365974524397 0.0 
199.00365974524397 0.0 
200.00365974524397 0.0 
201.00365974524397 0.0 
202.00365974524397 0.0 
203.00365974524397 0.0 
204.00365974524397 0.0 
205.00365974524397 0.0 
206.00365974524397 0.0 
207.00365974524397 0.0 
208.00365974524397 0.0 
209.00365974524397 0.0 
210.00365974524397 0.0 
211.00365974524397 0.0 
212.00365974524397 0.0 
213.00365974524397 0.0 
214.00365974524397 0.0 
215.00365974524397 0.0 
216.00365974524397 0.0 
#####################################################################
# End of data export. Simulation finished at: 2017-05-25T20:54+0000 #
#####################################################################
