#####################################################################
# Alchemist log file - simulation started at: 2017-05-25T05:12+0000 #
#####################################################################
# random = 17.0, targets = 1.0, density = 3.5589026259761294, gridShift = 1.0, perturbation = 0.0, connfactor = 0.5
#
# The columns have the following meaning: 
# time se[Mean] 
0.0 NaN 
1.0003034458253823 NaN 
2.0003034458253826 1.0 
3.0003034458253826 1.0 
4.0003034458253826 1.0 
5.0003034458253826 1.0 
6.0003034458253826 1.0 
7.0003034458253826 1.0 
8.000303445825383 1.0 
9.000303445825383 1.0 
10.000303445825383 1.0 
11.000303445825383 1.0 
12.000303445825383 1.0 
13.000303445825383 1.0 
14.000303445825383 1.0 
15.000303445825383 1.0 
16.00030344582538 1.0 
17.00030344582538 1.0 
18.00030344582538 1.0 
19.00030344582538 1.0 
20.00030344582538 1.0 
21.00030344582538 1.0 
22.00030344582538 1.0 
23.00030344582538 1.0 
24.00030344582538 0.9976076555023924 
25.00030344582538 0.9856459330143541 
26.00030344582538 0.9910287081339713 
27.00030344582538 1.0083732057416268 
28.00030344582538 1.1860047846889943 
29.00030344582538 1.0795454545454546 
30.00030344582538 1.219497607655502 
31.00030344582538 1.330143540669856 
32.00030344582538 1.1513157894736836 
33.00030344582538 1.1465311004784686 
34.00030344582538 1.1830143540669855 
35.00030344582538 1.154904306220095 
36.00030344582538 1.1154306220095696 
37.00030344582538 1.0777511961722488 
38.00030344582538 1.033492822966507 
39.00030344582538 1.1285885167464116 
40.00030344582538 1.0819377990430625 
41.00030344582538 0.9096889952153111 
42.00030344582538 1.0065789473684208 
43.00030344582538 0.9796650717703352 
44.00030344582538 0.9246411483253584 
45.00030344582538 0.9132775119617218 
46.00030344582538 0.8785885167464114 
47.00030344582538 0.8331339712918667 
48.00030344582538 0.893540669856459 
49.00030344582538 0.7954545454545447 
50.00030344582538 1.0311004784688989 
51.00030344582538 2.407296650717707 
52.00030344582538 1.5017942583732058 
53.00030344582538 2.4449760765550255 
54.00030344582538 3.189593301435406 
55.00030344582538 1.8301435406698536 
56.00030344582538 1.812200956937798 
57.00030344582538 2.0305023923445 
58.00030344582538 1.7093301435406663 
59.00030344582538 1.414473684210529 
60.00030344582538 1.0962918660287089 
61.00030344582538 0.792464114832536 
62.00030344582538 1.5448564593301448 
63.00030344582538 1.2488038277511924 
64.00030344582538 0.16387559808612398 
65.00030344582538 0.9342105263157878 
66.00030344582538 0.9049043062200974 
67.00030344582538 0.6184210526315782 
68.00030344582538 0.6058612440191392 
69.00030344582538 0.581937799043063 
70.00030344582538 0.29306220095693697 
71.00030344582538 0.8092105263157883 
72.00030344582538 0.5412679425837329 
73.00030344582538 0.5370813397129192 
74.00030344582538 1.061602870813395 
75.00030344582538 0.5299043062200963 
76.00030344582538 0.002990430622009589 
77.00030344582538 0.0 
78.00030344582538 0.0 
79.00030344582538 0.0 
80.00030344582538 0.0 
81.00030344582538 0.0 
82.00030344582538 0.0 
83.00030344582538 0.0 
84.00030344582538 0.0 
85.00030344582538 0.0 
86.00030344582538 0.0 
87.00030344582538 0.0 
88.00030344582538 0.0 
89.00030344582538 0.0 
90.00030344582538 0.0 
91.00030344582538 0.0 
92.00030344582538 0.0 
93.00030344582538 0.0 
94.00030344582538 0.0 
95.00030344582538 0.0 
96.00030344582538 0.0 
97.00030344582538 0.0 
98.00030344582538 0.0 
99.00030344582538 0.0 
100.00030344582538 0.0 
101.00030344582538 0.0 
102.00030344582538 0.0 
103.00030344582538 0.0 
104.00030344582538 0.0 
105.00030344582538 0.0 
106.00030344582538 0.0 
107.00030344582538 0.0 
108.00030344582538 0.0 
109.00030344582538 0.0 
110.00030344582538 0.0 
111.00030344582538 0.0 
112.00030344582538 0.0 
113.00030344582538 0.0 
114.00030344582538 0.0 
#####################################################################
# End of data export. Simulation finished at: 2017-05-25T05:12+0000 #
#####################################################################
