#####################################################################
# Alchemist log file - simulation started at: 2017-05-23T02:09+0000 #
#####################################################################
# random = 10.0, targets = 31.622776601683793, density = 5.0264212595847235, gridShift = 1.0, perturbation = 0.0, connfactor = 0.5
#
# The columns have the following meaning: 
# time se[Mean] 
0.0 NaN 
1.0007035023519422 NaN 
2.000703502351942 1.0 
3.000703502351942 0.9995846500416635 
4.000703502351942 0.9987341136195894 
5.000703502351942 0.996383903270977 
6.000703502351942 0.9921440646590147 
7.000703502351942 0.9899276823287474 
8.000703502351943 0.9867732360610553 
9.000703502351943 0.982869166347202 
10.000703502351943 0.9778616671893476 
11.000703502351943 0.9726281275075479 
12.000703502351943 0.9667774659976531 
13.000703502351943 0.9563789673181172 
14.000703502351943 0.9519262104358148 
15.000703502351943 0.9413744460984144 
16.000703502351943 0.9300017610562155 
17.000703502351943 0.9222584752796553 
18.000703502351943 0.9027638943765511 
19.000703502351943 0.8928833194498643 
20.000703502351943 0.8812940632439173 
21.000703502351943 0.857543666987146 
22.000703502351943 0.8473187509136146 
23.000703502351943 0.8314824620747151 
24.000703502351943 0.808334565472947 
25.000703502351943 0.8014451850739251 
26.000703502351943 0.7785935459321217 
27.000703502351943 0.7602845681614779 
28.000703502351943 0.7453046576572416 
29.000703502351943 0.7226333701004949 
30.000703502351943 0.707795959682615 
31.000703502351943 0.6874415320246171 
32.00070350235194 0.6711933367902888 
33.00070350235194 0.6600000106776439 
34.00070350235194 0.642833792804234 
35.00070350235194 0.6363362317083772 
36.00070350235194 0.6274099570377306 
37.00070350235194 0.6206321280776748 
38.00070350235194 0.6198355747899288 
39.00070350235194 0.6087278769109764 
40.00070350235194 0.6061559253358829 
41.00070350235194 0.595605998881268 
42.00070350235194 0.5952231452760068 
43.00070350235194 0.5922988154469722 
44.00070350235194 0.5949612836280302 
45.00070350235194 0.5874875222222371 
46.00070350235194 0.5803719595784429 
47.00070350235194 0.5627625675014537 
48.00070350235194 0.5539219114292632 
49.00070350235194 0.5263532158810919 
50.00070350235194 0.5213278835940054 
51.00070350235194 0.5005726657521921 
52.00070350235194 0.49211543142347325 
53.00070350235194 0.4821221650024541 
54.00070350235194 0.4689294029300394 
55.00070350235194 0.4489310996804744 
56.00070350235194 0.4381596563534728 
57.00070350235194 0.4172561396762861 
58.00070350235194 0.40951239562724956 
59.00070350235194 0.41856987181940064 
60.00070350235194 0.45154765881554537 
61.00070350235194 0.4839129797278624 
62.00070350235194 0.5973182281656879 
63.00070350235194 0.5328399701706666 
64.00070350235194 0.5572830035751671 
65.00070350235194 0.5924698003913642 
66.00070350235194 0.5906138495092568 
67.00070350235194 0.6278505704687549 
68.00070350235194 0.5973622924236569 
69.00070350235194 0.48798287184567335 
70.00070350235194 0.6096133178631185 
71.00070350235194 0.3538958635763305 
72.00070350235194 0.4390161003273533 
73.00070350235194 0.4307798716295996 
74.00070350235194 0.2859761639606952 
75.00070350235194 0.34452200739652206 
76.00070350235194 0.3236178225491203 
77.00070350235194 0.20060474991797433 
78.00070350235194 0.2988277493253461 
79.00070350235194 0.27582938469814733 
80.00070350235194 0.2740566420544345 
81.00070350235194 0.20453620883126666 
82.00070350235194 0.20334720303775203 
83.00070350235194 0.14239502787797778 
84.00070350235194 0.0945760793606819 
85.00070350235194 0.10825931275137277 
86.00070350235194 0.08734897262308289 
87.00070350235194 0.05753876525110378 
88.00070350235194 0.07660266208639624 
89.00070350235194 0.06527158956496625 
90.00070350235194 0.04024884436885528 
91.00070350235194 0.031845478537205534 
92.00070350235194 0.028416412386744402 
93.00070350235194 0.029708082421134537 
94.00070350235194 0.026541833153447523 
95.00070350235194 0.023322285398637253 
96.00070350235194 0.025818076341924623 
97.00070350235194 0.02622758438767216 
98.00070350235194 0.023260943827583543 
99.00070350235194 0.02325464782556668 
100.00070350235194 0.023050655372213402 
101.00070350235194 0.02312269267885658 
102.00070350235194 0.022717338260664733 
103.00070350235194 0.02247941579733386 
104.00070350235194 0.022271834898133613 
105.00070350235194 0.021995083800484025 
106.00070350235194 0.021814853644845464 
107.00070350235194 0.021664550639215734 
108.00070350235194 0.021593125832545884 
109.00070350235194 0.0215841621552761 
110.00070350235194 0.021452867500348614 
111.00070350235194 0.021411799132504673 
112.00070350235194 0.021359589546825618 
113.00070350235194 0.021401087203486636 
114.00070350235194 0.021354996498926464 
115.00070350235194 0.02138295297865852 
116.00070350235194 0.021341232903468975 
117.00070350235194 0.021355648206272063 
118.00070350235194 0.02136241879473655 
119.00070350235194 0.021370063509075155 
120.00070350235194 0.021370063509075155 
121.00070350235194 0.021370063509075155 
122.00070350235194 0.021370063509075155 
123.00070350235194 0.021370063509075155 
124.00070350235194 0.021370063509075155 
125.00070350235194 0.021370063509075155 
126.00070350235194 0.021370063509075155 
127.00070350235194 0.021370063509075155 
128.00070350235194 0.021370063509075155 
129.00070350235194 0.021370063509075155 
130.00070350235194 0.021370063509075155 
131.00070350235194 0.021370063509075155 
132.00070350235194 0.021370063509075155 
133.00070350235194 0.021370063509075155 
134.00070350235194 0.021370063509075155 
135.00070350235194 0.021370063509075155 
136.00070350235194 0.021370063509075155 
137.00070350235194 0.021370063509075155 
138.00070350235194 0.021370063509075155 
139.00070350235194 0.021370063509075155 
140.00070350235194 0.021370063509075155 
141.00070350235194 0.021370063509075155 
142.00070350235194 0.021370063509075155 
143.00070350235194 0.021370063509075155 
144.00070350235194 0.021370063509075155 
145.00070350235194 0.021370063509075155 
146.00070350235194 0.021370063509075155 
147.00070350235194 0.021370063509075155 
148.00070350235194 0.021370063509075155 
149.00070350235194 0.021370063509075155 
150.00070350235194 0.021370063509075155 
151.00070350235194 0.021370063509075155 
152.00070350235194 0.021370063509075155 
153.00070350235194 0.021370063509075155 
154.00070350235194 0.021370063509075155 
155.00070350235194 0.021370063509075155 
156.00070350235194 0.021370063509075155 
157.00070350235194 0.021370063509075155 
158.00070350235194 0.021370063509075155 
159.00070350235194 0.021370063509075155 
160.00070350235194 0.021370063509075155 
161.00070350235194 0.021370063509075155 
162.00070350235194 0.021370063509075155 
163.00070350235194 0.021370063509075155 
164.00070350235194 0.021370063509075155 
165.00070350235194 0.021370063509075155 
166.00070350235194 0.021370063509075155 
#####################################################################
# End of data export. Simulation finished at: 2017-05-23T02:09+0000 #
#####################################################################
