#####################################################################
# Alchemist log file - simulation started at: 2017-05-24T17:32+0000 #
#####################################################################
# random = 7.0, targets = 3.1622776601683795, density = 2.519842099789746, gridShift = 0.0, perturbation = 0.0, connfactor = 0.1
#
# The columns have the following meaning: 
# time se[Mean] 
0.0 NaN 
1.001616958347866 NaN 
2.0016169583478662 1.0 
3.0016169583478662 0.9981575933147624 
4.001616958347866 0.9926303732590495 
5.001616958347866 0.9889455598885742 
6.001616958347866 0.970521493036198 
7.001616958347866 0.9815759331476237 
8.001616958347867 0.9834183398328612 
9.001616958347867 0.9963151866295248 
10.001616958347867 0.9981575933147624 
11.001616958347867 0.997007228152016 
12.001616958347867 0.9834183398328612 
13.001616958347867 0.9613185717342275 
14.001616958347867 0.9422024633593598 
15.001616958347867 0.9104232260700652 
16.001616958347867 0.881870478510991 
17.001616958347867 0.8546927018726812 
18.001616958347867 0.8203790163756576 
19.001616958347867 0.7777699447329558 
20.001616958347867 0.7423058940731857 
21.001616958347867 0.7065990134069615 
22.001616958347867 0.6704429212247002 
23.001616958347867 0.6384299660531692 
24.001616958347867 0.6107938657746045 
25.001616958347867 0.5850001721812776 
26.001616958347867 0.5559799888577304 
27.001616958347867 0.5338711086348789 
28.001616958347867 0.513604635097265 
29.001616958347867 0.49702297493012615 
30.001616958347867 0.4822837214482252 
31.001616958347867 0.47122928133679937 
32.00161695834787 0.4675444679663241 
33.00161695834787 0.4675444679663241 
34.00161695834787 0.4675444679663241 
35.00161695834787 0.4675444679663241 
36.00161695834787 0.4675444679663241 
37.00161695834787 0.4675444679663241 
38.00161695834787 0.4675444679663241 
39.00161695834787 0.4675444679663241 
40.00161695834787 0.4675444679663241 
41.00161695834787 0.4675444679663241 
42.00161695834787 0.4675444679663241 
43.00161695834787 0.4675444679663241 
44.00161695834787 0.4675444679663241 
45.00161695834787 0.4675444679663241 
46.00161695834787 0.4675444679663241 
47.00161695834787 0.4675444679663241 
48.00161695834787 0.4675444679663241 
49.00161695834787 0.4675444679663241 
50.00161695834787 0.4675444679663241 
51.00161695834787 0.4675444679663241 
52.00161695834787 0.4675444679663241 
53.00161695834787 0.4675444679663241 
54.00161695834787 0.4675444679663241 
55.00161695834787 0.4675444679663241 
56.00161695834787 0.4675444679663241 
57.00161695834787 0.4675444679663241 
58.00161695834787 0.4675444679663241 
59.00161695834787 0.4675444679663241 
60.00161695834787 0.4675444679663241 
61.00161695834787 0.4675444679663241 
62.00161695834787 0.4675444679663241 
63.00161695834787 0.4675444679663241 
64.00161695834787 0.4675444679663241 
65.00161695834787 0.4675444679663241 
66.00161695834787 0.4675444679663241 
67.00161695834787 0.4675444679663241 
#####################################################################
# End of data export. Simulation finished at: 2017-05-24T17:32+0000 #
#####################################################################
