#####################################################################
# Alchemist log file - simulation started at: 2017-05-22T21:06+0000 #
#####################################################################
# random = 4.0, targets = 31.622776601683793, density = 5.0264212595847235, gridShift = 0.0, perturbation = 0.5, connfactor = 1.0
#
# The columns have the following meaning: 
# time se[Mean] 
0.0 NaN 
1.0022337669741583 NaN 
2.0022337669741583 1.0039210006922967 
3.0022337669741583 1.0069430475852983 
4.002233766974158 1.009384871702897 
5.002233766974158 1.0119702509841233 
6.002233766974158 1.0072777421641288 
7.002233766974158 1.009731644791509 
8.002233766974157 1.0128154589891485 
9.002233766974157 1.0159483739366848 
10.002233766974157 1.023490128100829 
11.002233766974157 1.0247969358677638 
12.002233766974157 1.0249371284355857 
13.002233766974157 1.0235965594269685 
14.002233766974157 1.023793988050449 
15.002233766974157 1.0250365040952647 
16.002233766974157 1.0236606843160634 
17.002233766974157 1.0346917153237318 
18.002233766974157 1.0368440541848416 
19.002233766974157 1.0437193831688187 
20.002233766974157 1.0550218220190242 
21.002233766974157 1.059436385919306 
22.002233766974157 1.070624094186874 
23.002233766974157 1.088355639055815 
24.002233766974157 1.0830128800922465 
25.002233766974157 1.0908969024476218 
26.002233766974157 1.0825875791652995 
27.002233766974157 1.0887193047705495 
28.002233766974157 1.0901254929839623 
29.002233766974157 1.0869083261577615 
30.002233766974157 1.0913070679623085 
31.002233766974157 1.093566082801734 
32.00223376697416 1.1017394840039039 
33.00223376697416 1.1022781793329004 
34.00223376697416 1.104511635711001 
35.00223376697416 1.105284242752809 
36.00223376697416 1.1043060933465578 
37.00223376697416 1.1053051127312514 
38.00223376697416 1.100655242469796 
39.00223376697416 1.099269253583916 
40.00223376697416 1.0944030253130823 
41.00223376697416 1.0914602106721463 
42.00223376697416 1.0842994805026052 
43.00223376697416 1.077718321423456 
44.00223376697416 1.078691658566831 
45.00223376697416 1.0666083617201967 
46.00223376697416 1.0647355029851553 
47.00223376697416 1.0577803763488223 
48.00223376697416 1.0482006710775622 
49.00223376697416 1.0457906808104225 
50.00223376697416 1.0193975300649116 
51.00223376697416 1.0173714710024226 
52.00223376697416 1.0116312745081752 
53.00223376697416 0.9921027205243891 
54.00223376697416 1.004500549300862 
55.00223376697416 1.0088401743595325 
56.00223376697416 1.0007271807355336 
57.00223376697416 0.9873535971273546 
58.00223376697416 1.0235672456173543 
59.00223376697416 0.980548461387045 
60.00223376697416 0.9907768722516322 
61.00223376697416 0.9644138683543735 
62.00223376697416 0.9477719292719293 
63.00223376697416 0.954651716778807 
64.00223376697416 0.9362672512330584 
65.00223376697416 0.9316066871739921 
66.00223376697416 0.8969192381407932 
67.00223376697416 0.9233421834467478 
68.00223376697416 0.9151290057827723 
69.00223376697416 0.9055107208313741 
70.00223376697416 0.9171698655116034 
71.00223376697416 0.9098680993725922 
72.00223376697416 0.9030056344448201 
73.00223376697416 0.91360253732089 
74.00223376697416 0.8846984949005297 
75.00223376697416 0.909541942447651 
76.00223376697416 0.9006775409026733 
77.00223376697416 0.9353353587998888 
78.00223376697416 0.9129357728764168 
79.00223376697416 0.9997944232567116 
80.00223376697416 0.9146552723726663 
81.00223376697416 0.9057293679402438 
82.00223376697416 0.876066995526286 
83.00223376697416 0.8701019258629393 
84.00223376697416 0.8860083592979403 
85.00223376697416 0.896672002059263 
86.00223376697416 0.8966915056480892 
87.00223376697416 0.9008118870089968 
88.00223376697416 0.9161407897692639 
89.00223376697416 0.9210580089693324 
90.00223376697416 0.9055892547977189 
91.00223376697416 0.9322289193918635 
92.00223376697416 0.9269350313713467 
93.00223376697416 0.9824701287812754 
94.00223376697416 0.9841393985857848 
95.00223376697416 1.1319821784663766 
96.00223376697416 1.127129091878172 
97.00223376697416 1.0634346694526662 
98.00223376697416 1.3482880527721928 
99.00223376697416 1.1883665185141898 
100.00223376697416 1.2378003482800457 
101.00223376697416 1.2400491068779071 
102.00223376697416 1.210076166573311 
103.00223376697416 1.2701490536311573 
104.00223376697416 1.2550457851780288 
105.00223376697416 1.2759894716861777 
106.00223376697416 1.1980710297304136 
107.00223376697416 1.281692846280926 
108.00223376697416 1.314890171407796 
109.00223376697416 1.2678803664032634 
110.00223376697416 1.3251869820504674 
111.00223376697416 1.3673055266067369 
112.00223376697416 1.365876684106621 
113.00223376697416 1.3397955524052578 
114.00223376697416 1.3993193261781154 
115.00223376697416 1.3671670498719157 
116.00223376697416 1.3157562560825729 
117.00223376697416 1.460143992397467 
118.00223376697416 1.3002404921430646 
119.00223376697416 1.6203294422277534 
120.00223376697416 1.3456365018627687 
121.00223376697416 1.2022643426059547 
122.00223376697416 1.2049966052404484 
123.00223376697416 1.089552565418305 
124.00223376697416 1.1064736472767263 
125.00223376697416 1.1383811441398028 
126.00223376697416 1.0583567197591686 
127.00223376697416 1.0582786253052667 
128.00223376697414 1.0424263808549084 
129.00223376697414 1.0890216890227533 
130.00223376697414 1.0115887556706529 
131.00223376697414 1.0133332537399218 
132.00223376697414 0.9975969840800591 
133.00223376697414 0.9986292692775496 
134.00223376697414 0.9985133439990518 
135.00223376697414 0.9985439410273519 
136.00223376697414 0.9992439776520426 
137.00223376697414 0.9992984442780872 
138.00223376697414 0.9992695833608982 
139.00223376697414 0.9991382996082868 
140.00223376697414 0.9998109944130108 
141.00223376697414 0.9998654610390554 
142.00223376697414 1.0000000000000002 
143.00223376697414 1.0000000000000002 
144.00223376697414 1.0000000000000002 
145.00223376697414 1.0000000000000002 
146.00223376697414 1.0000000000000002 
147.00223376697414 1.0000000000000002 
148.00223376697414 1.0000000000000002 
149.00223376697414 1.0000000000000002 
150.00223376697414 1.0000000000000002 
151.00223376697414 1.0000000000000002 
152.00223376697414 1.0000000000000002 
153.00223376697414 1.0000000000000002 
154.00223376697414 1.0000000000000002 
155.00223376697414 1.0000000000000002 
156.00223376697414 1.0000000000000002 
157.00223376697414 1.0000000000000002 
158.00223376697414 1.0000000000000002 
159.00223376697414 1.0000000000000002 
160.00223376697414 1.0000000000000002 
161.00223376697414 1.0000000000000002 
162.00223376697414 1.0000000000000002 
163.00223376697414 1.0000000000000002 
164.00223376697414 1.0000000000000002 
165.00223376697414 1.0000000000000002 
166.00223376697414 1.0000000000000002 
167.00223376697414 1.0000000000000002 
168.00223376697414 1.0000000000000002 
169.00223376697414 1.0000000000000002 
170.00223376697414 1.0000000000000002 
171.00223376697414 1.0000000000000002 
172.00223376697414 1.0000000000000002 
173.00223376697414 1.0000000000000002 
174.00223376697414 1.0000000000000002 
175.00223376697414 1.0000000000000002 
176.00223376697414 1.0000000000000002 
177.00223376697414 1.0000000000000002 
178.00223376697414 1.0000000000000002 
179.00223376697414 1.0000000000000002 
180.00223376697414 1.0000000000000002 
181.00223376697414 1.0000000000000002 
182.00223376697414 1.0000000000000002 
183.00223376697414 1.0000000000000002 
184.00223376697414 1.0000000000000002 
185.00223376697414 1.0000000000000002 
186.00223376697414 1.0000000000000002 
187.00223376697414 1.0000000000000002 
188.00223376697414 1.0000000000000002 
189.00223376697414 1.0000000000000002 
190.00223376697414 1.0000000000000002 
191.00223376697414 1.0000000000000002 
192.00223376697414 1.0000000000000002 
193.00223376697414 1.0000000000000002 
#####################################################################
# End of data export. Simulation finished at: 2017-05-22T21:09+0000 #
#####################################################################
