#####################################################################
# Alchemist log file - simulation started at: 2017-05-24T14:27+0000 #
#####################################################################
# random = 6.0, targets = 100.0, density = 20.0, gridShift = 1.0, perturbation = 0.0, connfactor = 2.0
#
# The columns have the following meaning: 
# time se[Mean] 
0.0 NaN 
1.000779844777603 NaN 
2.000779844777603 1.0082726269577598 
3.000779844777603 1.013526193112904 
4.000779844777603 1.0203229736855983 
5.000779844777603 1.0292908703791595 
6.000779844777603 1.0306287995042978 
7.000779844777603 1.0441353069134631 
8.000779844777604 1.0454657385434794 
9.000779844777604 1.0537915097822075 
10.000779844777604 1.0521057559457891 
11.000779844777604 1.055892745082529 
12.000779844777604 1.054588498655276 
13.000779844777604 1.0545163436692506 
14.000779844777604 1.0470103570110214 
15.000779844777604 1.043881714391183 
16.000779844777604 1.0358554553604387 
17.000779844777604 1.031658014290988 
18.000779844777604 1.0255460778885197 
19.000779844777604 1.0225626311765017 
20.000779844777604 1.0184313215208565 
21.000779844777604 1.0176484997099615 
22.000779844777604 1.010987620629647 
23.000779844777604 1.0091560103886517 
24.000779844777604 1.0057273427200337 
25.000779844777604 1.002745745662606 
26.000779844777604 1.0021027263618625 
27.000779844777604 1.000507261509255 
28.000779844777604 0.9974143199915625 
29.000779844777604 0.9969840992986343 
30.000779844777604 0.9938064296261141 
31.000779844777604 0.995953560881717 
32.000779844777604 0.9931541238200707 
33.000779844777604 0.9940215894109583 
34.000779844777604 0.9966289748457523 
35.000779844777604 0.996855704529874 
36.000779844777604 0.9977549688867796 
37.000779844777604 0.9980978985392608 
38.000779844777604 0.9996652454780361 
39.000779844777604 0.9975598309866582 
40.000779844777604 0.9989343959289143 
41.000779844777604 0.9970143120814217 
42.000779844777604 0.9938449388282445 
43.000779844777604 0.9924858909455256 
44.000779844777604 0.9851697054790909 
45.000779844777604 0.9738132771713337 
46.000779844777604 0.9670854031535097 
47.000779844777604 0.958876642672573 
48.000779844777604 0.9570752293940834 
49.000779844777604 0.9510969941464958 
50.000779844777604 0.9457203198333597 
51.000779844777604 0.9444007053208882 
52.000779844777604 0.9382233836945632 
53.000779844777604 0.9334582990560566 
54.000779844777604 0.9296037718188052 
55.000779844777604 0.9262886529030216 
56.000779844777604 0.9213215946843856 
57.000779844777604 0.9175820017929651 
58.000779844777604 0.912909087433423 
59.000779844777604 0.9116392988978538 
60.000779844777604 0.9066629950429785 
61.000779844777604 0.9038816840689765 
62.000779844777604 0.9018840623846438 
63.000779844777604 0.8974475966355535 
64.00077984477761 0.8957325541844646 
65.00077984477761 0.8920012036597585 
66.00077984477761 0.8895869232189 
67.00077984477761 0.8867681419079261 
68.00077984477761 0.8842591744449719 
69.00077984477761 0.8817468451721775 
70.00077984477761 0.8791630359120394 
71.00077984477761 0.8761777553657123 
72.00077984477761 0.8745725228075728 
73.00077984477761 0.8717569068712757 
74.00077984477761 0.8690012537573171 
75.00077984477761 0.8681185400516798 
76.00077984477761 0.8649544309972053 
77.00077984477761 0.8627336405104679 
78.00077984477761 0.8602030717713444 
79.00077984477761 0.8576008173812161 
80.00077984477761 0.8554482360386015 
81.00077984477761 0.8529429125138427 
82.00077984477761 0.8512723804250386 
83.00077984477761 0.8490877195064075 
84.00077984477761 0.8467535134208721 
85.00077984477761 0.8436454305753311 
86.00077984477761 0.8416027672309233 
87.00077984477761 0.8392577282075622 
88.00077984477761 0.8356124123292731 
89.00077984477761 0.8332357366977798 
90.00077984477761 0.8299183673469391 
91.00077984477761 0.8270778344671204 
92.00077984477761 0.8238564546748935 
93.00077984477761 0.8201707786215264 
94.00077984477761 0.8168299477930707 
95.00077984477761 0.8142042688393186 
96.00077984477761 0.8096187879027584 
97.00077984477761 0.807188944259875 
98.00077984477761 0.8035577928070453 
99.00077984477761 0.7997157517270473 
100.00077984477761 0.7965412500659179 
101.00077984477761 0.7926221589410961 
102.00077984477761 0.7878834598955864 
103.00077984477761 0.7831777276802194 
104.00077984477761 0.7795359370880135 
105.00077984477761 0.7728450917576337 
106.00077984477761 0.7698372040288988 
107.00077984477761 0.7636236763697729 
108.00077984477761 0.7599906396667194 
109.00077984477761 0.7551999881347893 
110.00077984477761 0.7515245122079839 
111.00077984477761 0.7475793123450938 
112.00077984477761 0.7422919751621586 
113.00077984477761 0.7400865369403576 
114.00077984477761 0.7331736935084111 
115.00077984477761 0.7319562951537211 
116.00077984477761 0.7259059866582296 
117.00077984477761 0.7218338026683548 
118.00077984477761 0.7179821178083631 
119.00077984477761 0.7098820070663928 
120.00077984477761 0.707737031324158 
121.00077984477761 0.7017966329167327 
122.00077984477761 0.6982787296313868 
123.00077984477761 0.6929416534830993 
124.00077984477761 0.6873452763275857 
125.00077984477761 0.6832563188841434 
126.00077984477761 0.6768228286663502 
127.00077984477761 0.6718227614301534 
128.0007798447776 0.6664363761008287 
129.0007798447776 0.6610510032695245 
130.0007798447776 0.6566662909349794 
131.0007798447776 0.6502357142857138 
132.0007798447776 0.6464273559036016 
133.0007798447776 0.6394149027052687 
134.0007798447776 0.6348220191952754 
135.0007798447776 0.6300616832779623 
136.0007798447776 0.6213514739229025 
137.0007798447776 0.6192964707588468 
138.0007798447776 0.6125041673258466 
139.0007798447776 0.6066899198439075 
140.0007798447776 0.601780639930391 
141.0007798447776 0.5953608922638822 
142.0007798447776 0.5913762788060962 
143.0007798447776 0.5852812569213731 
144.0007798447776 0.5802672441069454 
145.0007798447776 0.5744903298528712 
146.0007798447776 0.5712698702736914 
147.0007798447776 0.564264628487054 
148.0007798447776 0.5596341638981177 
149.0007798447776 0.5555666521647417 
150.0007798447776 0.5506194800400783 
151.0007798447776 0.5449894346886046 
152.0007798447776 0.5403559510625964 
153.0007798447776 0.5349596754205568 
154.0007798447776 0.5291650899119339 
155.0007798447776 0.5246015213837483 
156.0007798447776 0.5191763117650162 
157.0007798447776 0.5152762906713073 
158.0007798447776 0.5100979512735327 
159.0007798447776 0.5041846319147818 
160.0007798447776 0.49902472710014256 
161.0007798447776 0.49325609344513033 
162.0007798447776 0.48867899330274805 
163.0007798447776 0.4821096450983504 
164.0007798447776 0.476607067710805 
165.0007798447776 0.47091343801086294 
166.0007798447776 0.46622359726836515 
167.0007798447776 0.4607022899857628 
168.0007798447776 0.45455834519854477 
169.0007798447776 0.450472379106682 
170.0007798447776 0.4493575660496758 
171.0007798447776 0.4439574025734328 
172.0007798447776 0.44302848309866605 
173.0007798447776 0.4351771304645892 
174.0007798447776 0.4310773255813958 
175.0007798447776 0.4258325976902394 
176.0007798447776 0.4238751331540377 
177.0007798447776 0.4275903100775195 
178.0007798447776 0.4217780651795608 
179.0007798447776 0.4271777949164165 
180.0007798447776 0.4136643779992621 
181.0007798447776 0.41667183462532303 
182.0007798447776 0.4080380187734008 
183.0007798447776 0.4074000909666191 
184.0007798447776 0.4061425802879295 
185.0007798447776 0.39845205004482454 
186.0007798447776 0.3956460106523233 
187.0007798447776 0.38066721378473906 
188.0007798447776 0.3840859423614411 
189.0007798447776 0.37386555265517085 
190.0007798447776 0.37113369983652444 
191.0007798447776 0.36911410773611775 
192.0007798447776 0.35738388308811914 
193.0007798447776 0.35323515002900446 
194.0007798447776 0.35503517375942656 
195.0007798447776 0.3451805819226917 
196.0007798447776 0.343000719822813 
197.0007798447776 0.33131379396719957 
198.0007798447776 0.3337487554711811 
199.0007798447776 0.3230862192163692 
200.0007798447776 0.3158008121077888 
201.0007798447776 0.32136371618414816 
202.0007798447776 0.3100365857195592 
203.0007798447776 0.31170209486895534 
204.0007798447776 0.3008755392079316 
205.0007798447776 0.30794248536623997 
206.0007798447776 0.30071505036123025 
207.0007798447776 0.2951696197858991 
208.0007798447776 0.29456081316247407 
209.0007798447776 0.2906735616727309 
210.0007798447776 0.2936480791541424 
211.0007798447776 0.28347861229763266 
212.0007798447776 0.2879747534672785 
213.0007798447776 0.28876519801719136 
214.0007798447776 0.2751097466118229 
215.0007798447776 0.2724231094763489 
216.0007798447776 0.2670502307124399 
217.0007798447776 0.2656373464114332 
218.0007798447776 0.26366518615198004 
219.0007798447776 0.2585384301007228 
220.0007798447776 0.2510795377841059 
221.0007798447776 0.24873671887359636 
222.0007798447776 0.24756934556768492 
223.0007798447776 0.23831046379792253 
224.0007798447776 0.23042703290618638 
225.0007798447776 0.23148627590571152 
226.0007798447776 0.22625626614987132 
227.0007798447776 0.22509190660760459 
228.0007798447776 0.22189437325317765 
229.0007798447776 0.21883452380952384 
230.0007798447776 0.2169864921162269 
231.0007798447776 0.21402243843273763 
232.0007798447776 0.21095892000210914 
233.0007798447776 0.2114905948425887 
234.0007798447776 0.20934992617201992 
235.0007798447776 0.20321269182091475 
236.0007798447776 0.20500166772135203 
237.0007798447776 0.20207803353899717 
238.0007798447776 0.19805336444655408 
239.0007798447776 0.19886815640985095 
240.0007798447776 0.19730094130675574 
241.0007798447776 0.19536893424036297 
242.0007798447776 0.18847705399989487 
243.0007798447776 0.19245159521172833 
244.0007798447776 0.18773647365923146 
245.0007798447776 0.18546127986078179 
246.0007798447776 0.18679619258556165 
247.0007798447776 0.18574998945314586 
248.0007798447776 0.18309034962822368 
249.0007798447776 0.18050530770447734 
250.0007798447776 0.1833879159415707 
251.0007798447776 0.1815762049781157 
252.0007798447776 0.1847363826926122 
253.0007798447776 0.18524827427094895 
254.0007798447776 0.18371753941886862 
255.0007798447776 0.1858733889679906 
256.00077984477764 0.18432389521700182 
257.00077984477764 0.18455494647471418 
258.00077984477764 0.18450420160312214 
259.00077984477764 0.18495033749934112 
260.00077984477764 0.1847062925170071 
261.00077984477764 0.1848562331909511 
262.00077984477764 0.18476222644096427 
263.00077984477764 0.1848610425565578 
264.00077984477764 0.18486497916996283 
265.00077984477764 0.18486621315192772 
266.00077984477764 0.1849223725148977 
267.00077984477764 0.18485823709328722 
268.00077984477764 0.18486990455096797 
269.00077984477764 0.18490687391235594 
270.00077984477764 0.18487158809260168 
271.00077984477764 0.18490477376997339 
272.00077984477764 0.1849034079523285 
273.00077984477764 0.18490272636186286 
274.00077984477764 0.18490136318093156 
275.00077984477764 0.1849000000000003 
276.00077984477764 0.1849000000000003 
277.00077984477764 0.1849000000000003 
278.00077984477764 0.1849000000000003 
279.00077984477764 0.1849000000000003 
280.00077984477764 0.1849000000000003 
281.00077984477764 0.1849000000000003 
282.00077984477764 0.1849000000000003 
283.00077984477764 0.1849000000000003 
284.00077984477764 0.1849000000000003 
285.00077984477764 0.1849000000000003 
286.00077984477764 0.1849000000000003 
287.00077984477764 0.1849000000000003 
288.00077984477764 0.1849000000000003 
289.00077984477764 0.1849000000000003 
290.00077984477764 0.1849000000000003 
291.00077984477764 0.1849000000000003 
292.00077984477764 0.1849000000000003 
293.00077984477764 0.1849000000000003 
294.00077984477764 0.1849000000000003 
295.00077984477764 0.1849000000000003 
296.00077984477764 0.1849000000000003 
297.00077984477764 0.1849000000000003 
298.00077984477764 0.1849000000000003 
299.00077984477764 0.1849000000000003 
300.00077984477764 0.1849000000000003 
301.00077984477764 0.1849000000000003 
302.00077984477764 0.1849000000000003 
303.00077984477764 0.1849000000000003 
304.00077984477764 0.1849000000000003 
305.00077984477764 0.1849000000000003 
306.00077984477764 0.1849000000000003 
307.00077984477764 0.1849000000000003 
308.00077984477764 0.1849000000000003 
309.00077984477764 0.1849000000000003 
310.00077984477764 0.1849000000000003 
311.00077984477764 0.1849000000000003 
312.00077984477764 0.1849000000000003 
313.00077984477764 0.1849000000000003 
314.00077984477764 0.1849000000000003 
315.00077984477764 0.1849000000000003 
316.00077984477764 0.1849000000000003 
317.00077984477764 0.1849000000000003 
318.00077984477764 0.1849000000000003 
319.00077984477764 0.1849000000000003 
320.00077984477764 0.1849000000000003 
321.00077984477764 0.1849000000000003 
322.00077984477764 0.1849000000000003 
323.00077984477764 0.1849000000000003 
324.00077984477764 0.1849000000000003 
325.00077984477764 0.1849000000000003 
326.00077984477764 0.1849000000000003 
327.00077984477764 0.1849000000000003 
328.00077984477764 0.1849000000000003 
329.00077984477764 0.1849000000000003 
330.00077984477764 0.1849000000000003 
331.00077984477764 0.1849000000000003 
332.00077984477764 0.1849000000000003 
333.00077984477764 0.1849000000000003 
334.00077984477764 0.1849000000000003 
335.00077984477764 0.1849000000000003 
336.00077984477764 0.1849000000000003 
337.00077984477764 0.1849000000000003 
338.00077984477764 0.1849000000000003 
339.00077984477764 0.1849000000000003 
340.00077984477764 0.1849000000000003 
341.00077984477764 0.1849000000000003 
342.00077984477764 0.1849000000000003 
343.00077984477764 0.1849000000000003 
344.00077984477764 0.1849000000000003 
345.00077984477764 0.1849000000000003 
346.00077984477764 0.1849000000000003 
347.00077984477764 0.1849000000000003 
348.00077984477764 0.1849000000000003 
349.00077984477764 0.1849000000000003 
350.00077984477764 0.1849000000000003 
351.00077984477764 0.1849000000000003 
352.00077984477764 0.1849000000000003 
353.00077984477764 0.1849000000000003 
354.00077984477764 0.1849000000000003 
355.00077984477764 0.1849000000000003 
356.00077984477764 0.1849000000000003 
357.00077984477764 0.1849000000000003 
358.00077984477764 0.1849000000000003 
359.00077984477764 0.1849000000000003 
360.00077984477764 0.1849000000000003 
361.00077984477764 0.1849000000000003 
362.00077984477764 0.1849000000000003 
363.00077984477764 0.1849000000000003 
364.00077984477764 0.1849000000000003 
365.00077984477764 0.1849000000000003 
366.00077984477764 0.1849000000000003 
367.00077984477764 0.1849000000000003 
368.00077984477764 0.1849000000000003 
369.00077984477764 0.1849000000000003 
370.00077984477764 0.1849000000000003 
371.00077984477764 0.1849000000000003 
372.00077984477764 0.1849000000000003 
373.00077984477764 0.1849000000000003 
374.00077984477764 0.1849000000000003 
375.00077984477764 0.1849000000000003 
#####################################################################
# End of data export. Simulation finished at: 2017-05-24T15:04+0000 #
#####################################################################
