#####################################################################
# Alchemist log file - simulation started at: 2017-05-23T11:34+0000 #
#####################################################################
# random = 11.0, targets = 100.0, density = 0.04, gridShift = 1.0, perturbation = 0.5, connfactor = 0.25
#
# The columns have the following meaning: 
# time se[Mean] 
0.0 NaN 
1.0028758930102715 NaN 
2.0028758930102715 0.9966791666666667 
3.0028758930102715 0.9908231481481482 
4.0028758930102715 0.9683798611111111 
5.0028758930102715 0.9719877314814814 
6.0028758930102715 0.9541918981481481 
7.0028758930102715 0.9748412037037036 
8.002875893010271 0.9573699074074074 
9.002875893010271 0.9411777777777778 
10.002875893010271 0.9048918981481482 
11.002875893010271 0.9310581018518519 
12.002875893010271 0.8871877314814816 
13.002875893010271 0.9139090277777777 
14.002875893010271 0.9272696759259259 
15.002875893010271 0.9409 
16.00287589301027 0.9409 
17.00287589301027 0.9409 
18.00287589301027 0.9409 
19.00287589301027 0.9409 
20.00287589301027 0.9409 
#####################################################################
# End of data export. Simulation finished at: 2017-05-23T11:34+0000 #
#####################################################################
