#####################################################################
# Alchemist log file - simulation started at: 2017-05-23T22:25+0000 #
#####################################################################
# random = 13.0, targets = 1.0, density = 14.160781367816199, gridShift = 1.0, perturbation = 0.5, connfactor = 2.0
#
# The columns have the following meaning: 
# time se[Mean] 
0.0 NaN 
1.0002602723432414 NaN 
2.000260272343241 1.0 
3.000260272343241 1.0015615814226926 
4.000260272343241 1.0269510582010584 
5.000260272343241 1.1099904467960013 
6.000260272343241 1.1453924162257514 
7.000260272343241 1.2001947383891847 
8.00026027234324 1.069223985890653 
9.00026027234324 1.0732840975896527 
10.00026027234324 1.063914609053498 
11.00026027234324 1.0643922692533796 
12.00026027234324 1.0586419753086427 
13.00026027234324 1.0483906525573197 
14.00026027234324 1.0392783656672546 
15.00026027234324 1.023405349794239 
16.00026027234324 1.0178571428571432 
17.00026027234324 1.003564079952969 
18.00026027234324 1.0 
19.00026027234324 0.9997979129923574 
20.00026027234324 0.9997979129923574 
21.00026027234324 1.0 
22.00026027234324 1.0 
23.00026027234324 1.0 
24.00026027234324 1.0 
25.00026027234324 1.0 
26.00026027234324 1.0 
27.00026027234324 1.0 
28.00026027234324 1.0 
29.00026027234324 1.0 
30.00026027234324 1.0 
31.00026027234324 1.0 
32.00026027234324 1.0 
33.00026027234324 1.0 
34.00026027234324 1.0 
35.00026027234324 1.0 
36.00026027234324 1.0 
37.00026027234324 1.0 
38.00026027234324 1.0 
39.00026027234324 1.000514403292181 
40.00026027234324 1.0 
41.00026027234324 1.0020576131687242 
42.00026027234324 1.0020576131687242 
43.00026027234324 1.001543209876543 
44.00026027234324 1.0041152263374484 
45.00026027234324 1.0058972663139332 
46.00026027234324 1.4742798353909465 
47.00026027234324 1.0163874191651967 
48.00026027234324 2.8847001763668234 
49.00026027234324 2.919587742504346 
50.00026027234324 2.460758377425072 
51.00026027234324 4.789737654321054 
52.00026027234324 6.24083259847143 
53.00026027234324 5.3236699000588175 
54.00026027234324 7.654357730746634 
55.00026027234324 5.814649470899385 
56.00026027234324 8.1281782774837 
57.00026027234324 9.098195914168109 
58.00026027234324 7.2453336272780104 
59.00026027234324 9.551697530864434 
60.00026027234324 5.83221266901825 
61.00026027234324 9.990336566725603 
62.00026027234324 9.59303350970027 
63.00026027234324 10.513319370958238 
64.00026027234324 7.233116549088834 
65.00026027234324 9.051330099941259 
66.00026027234324 7.671957671957669 
67.00026027234324 8.578519988242263 
68.00026027234324 9.52483833039382 
69.00026027234324 14.2348618459731 
70.00026027234324 8.668467078189234 
71.00026027234324 13.267361111111034 
72.00026027234324 10.979515726043564 
73.00026027234324 12.821685773074599 
74.00026027234324 11.424988977072239 
75.00026027234324 12.808807319224053 
76.00026027234324 10.943305408583267 
77.00026027234324 9.485266019988222 
78.00026027234324 9.45956422692534 
79.00026027234324 6.164186507936553 
80.00026027234324 8.907297178130484 
81.00026027234324 5.671259553203991 
82.00026027234324 5.609237213403842 
83.00026027234324 3.7153696355085244 
84.00026027234324 4.158895502645512 
85.00026027234324 5.095109494415099 
86.00026027234324 3.23884847148738 
87.00026027234324 3.1973287771899117 
88.00026027234324 3.195491622574953 
89.00026027234324 3.1968511169900364 
90.00026027234324 2.259755291005282 
91.00026027234324 2.2445069077013415 
92.00026027234324 3.186397707231024 
93.00026027234324 1.795745149911817 
94.00026027234324 1.7737544091710853 
95.00026027234324 1.309119635508529 
96.00026027234324 1.7714028512639801 
97.00026027234324 1.3147597001763573 
98.00026027234324 1.3092298647854286 
99.00026027234324 0.8447236919459145 
100.00026027234324 0.8398001175778976 
101.00026027234324 0.8471487360376264 
102.00026027234324 0.851557907113464 
103.00026027234324 0.8559670781892994 
104.00026027234324 0.8611111111111097 
105.00026027234324 0.8666225749559066 
106.00026027234324 0.8713991769547322 
107.00026027234324 0.8776455026455018 
108.00026027234324 0.8831569664902986 
109.00026027234324 0.8875661375661372 
110.00026027234324 0.8927101704879483 
111.00026027234324 0.8960170487948286 
112.00026027234324 0.9015285126396254 
113.00026027234324 0.90520282186949 
114.00026027234324 0.9114491475602582 
115.00026027234324 0.915490887713109 
116.00026027234324 0.9184303350970033 
117.00026027234324 0.921737213403881 
118.00026027234324 0.9261463844797166 
119.00026027234324 0.9290858318636103 
120.00026027234324 0.933495002939449 
121.00026027234324 0.9356995884773657 
122.00026027234324 0.9379041740152844 
123.00026027234324 0.940843621399178 
124.00026027234324 0.9459876543209882 
125.00026027234324 0.948559670781892 
126.00026027234324 0.9514991181657853 
127.00026027234324 0.9544385655496763 
128.00026027234324 0.9573780129335696 
129.00026027234324 0.9606848912404468 
130.00026027234324 0.9634222516166965 
131.00026027234324 0.9663249559082884 
132.00026027234324 0.9680886243386249 
133.00026027234324 0.9677763080540864 
134.00026027234324 0.9692460317460317 
135.00026027234324 0.967904908877131 
136.00026027234324 0.9641571134626687 
137.00026027234324 0.9649287184009409 
138.00026027234324 0.9614564961787186 
139.00026027234324 0.9585537918871254 
140.00026027234324 0.9575433568489123 
141.00026027234324 0.9558348030570252 
142.00026027234324 0.9508561140505584 
143.00026027234324 0.9531893004115224 
144.00026027234324 0.9565696649029987 
145.00026027234324 0.9654798647854206 
146.00026027234324 0.9835390946502058 
147.00026027234324 0.988646384479718 
148.00026027234324 1.0189410640799534 
149.00026027234324 1.0483355379188717 
150.00026027234324 1.0675338036449158 
151.00026027234324 1.1101374191651983 
152.00026027234324 1.157352292768959 
153.00026027234324 1.1963550852439755 
154.00026027234324 1.2461419753086438 
155.00026027234324 1.3203813932980593 
156.00026027234324 1.4138741916519675 
157.00026027234324 1.4283142269253348 
158.00026027234324 1.547710905349796 
159.00026027234324 1.581073633156967 
160.00026027234324 1.63348765432099 
161.00026027234324 1.7555114638447915 
162.00026027234324 1.8168724279835453 
163.00026027234324 1.8592004703115832 
164.00026027234324 1.9330357142857189 
165.00026027234324 2.0066321281599033 
166.00026027234324 2.1188087889476748 
167.00026027234324 2.1425080834803087 
168.00026027234324 2.1852402998236338 
169.00026027234324 2.268610376249267 
170.00026027234324 2.318654467960027 
171.00026027234324 2.4254666372722014 
172.00026027234324 2.466233098177534 
173.00026027234324 2.512584509112288 
174.00026027234324 2.5008450911228643 
175.00026027234324 2.6447677836566688 
176.00026027234324 2.7265579071134667 
177.00026027234324 2.8220715755438044 
178.00026027234324 2.9227660199882513 
179.00026027234324 2.997519841269847 
180.00026027234324 3.130787037037047 
181.00026027234324 3.2623824221046482 
182.00026027234324 3.342372134038802 
183.00026027234324 3.5214028512639732 
184.00026027234324 3.534703850676071 
185.00026027234324 3.6926256613756627 
186.00026027234324 3.849445179306299 
187.00026027234324 3.830173427395652 
188.00026027234324 4.014054232804243 
189.00026027234324 4.031176513815407 
190.00026027234324 4.167971046443267 
191.00026027234324 4.261794532627867 
192.00026027234324 4.2911890064667855 
193.00026027234324 4.394253380364492 
194.00026027234324 4.48265726043504 
195.00026027234324 7.37264844209286 
196.00026027234324 10.114767048794922 
197.00026027234324 15.79618606701934 
198.00026027234324 35.38468180482049 
199.00026027234324 18.671388154027 
200.00026027234324 41.137566137565905 
201.00026027234324 46.76693856554979 
202.00026027234324 24.240906084656093 
203.00026027234324 52.43770208700733 
204.00026027234324 55.14801954732469 
205.00026027234324 44.035475455614744 
206.00026027234324 66.41613389182908 
207.00026027234324 49.60705099941192 
208.00026027234324 74.86959876543186 
209.00026027234324 63.644767783657905 
210.00026027234324 69.22242430922951 
211.00026027234324 77.67888374485678 
212.00026027234324 71.9493312757214 
213.00026027234324 91.71606775426166 
214.00026027234324 88.8440806878307 
215.00026027234324 91.66514182833644 
216.00026027234324 58.03775352733729 
217.00026027234324 85.96279761904812 
218.00026027234324 88.83754041740175 
219.00026027234324 83.12354864785425 
220.00026027234324 77.49055702527946 
221.00026027234324 88.64719282774857 
222.00026027234324 60.57561728395097 
223.00026027234324 88.6492136978251 
224.00026027234324 80.20443856554967 
225.00026027234324 97.08370076425675 
226.00026027234324 91.41093474426819 
227.00026027234324 88.64719282774857 
228.00026027234324 97.01633230452676 
229.00026027234324 105.40461493239317 
230.00026027234324 88.5267673427398 
231.00026027234324 110.9342482363326 
232.00026027234324 88.47527189888325 
233.00026027234324 119.31099353321657 
234.00026027234324 119.26912477954184 
235.00026027234324 93.98032407407493 
236.00026027234324 122.02809009406198 
237.00026027234324 102.35936581422698 
238.00026027234324 105.1713514109346 
239.00026027234324 88.29625955320405 
240.00026027234324 82.66358024691381 
241.00026027234324 82.64304085831868 
242.00026027234324 85.41629923574389 
243.00026027234324 91.0148809523812 
244.00026027234324 74.16804453262816 
245.00026027234324 88.18044532627881 
246.00026027234324 82.56841563786008 
247.00026027234324 82.56841563785979 
248.00026027234324 68.53834141681386 
249.00026027234324 57.31428203997632 
250.00026027234324 60.120296884185734 
251.00026027234324 57.314282039977 
252.00026027234324 48.896237507348445 
253.00026027234324 40.478192974720415 
254.00026027234324 34.86616328630326 
255.00026027234324 32.06014844209341 
256.0002602723432 34.86616328630313 
257.0002602723432 26.448118753674613 
258.0002602723432 26.44811875367465 
259.0002602723432 20.83608906525569 
260.0002602723432 12.418044532627798 
261.0002602723432 12.418044532627885 
262.0002602723432 9.612029688418712 
263.0002602723432 4.0000000000000036 
264.0002602723432 4.0000000000000036 
265.0002602723432 4.0000000000000036 
266.0002602723432 4.0000000000000036 
267.0002602723432 4.0000000000000036 
268.0002602723432 4.0000000000000036 
269.0002602723432 4.0000000000000036 
270.0002602723432 4.0000000000000036 
271.0002602723432 4.0000000000000036 
272.0002602723432 4.0000000000000036 
273.0002602723432 4.0000000000000036 
274.0002602723432 4.0000000000000036 
275.0002602723432 4.0000000000000036 
276.0002602723432 4.0000000000000036 
277.0002602723432 4.0000000000000036 
278.0002602723432 4.0000000000000036 
279.0002602723432 4.0000000000000036 
280.0002602723432 4.0000000000000036 
281.0002602723432 4.0000000000000036 
282.0002602723432 4.0000000000000036 
283.0002602723432 4.0000000000000036 
284.0002602723432 4.0000000000000036 
285.0002602723432 4.0000000000000036 
286.0002602723432 4.0000000000000036 
287.0002602723432 4.0000000000000036 
288.0002602723432 4.0000000000000036 
289.0002602723432 4.0000000000000036 
290.0002602723432 4.0000000000000036 
291.0002602723432 4.0000000000000036 
292.0002602723432 4.0000000000000036 
293.0002602723432 4.0000000000000036 
294.0002602723432 4.0000000000000036 
295.0002602723432 4.0000000000000036 
296.0002602723432 4.0000000000000036 
297.0002602723432 4.0000000000000036 
298.0002602723432 4.0000000000000036 
299.0002602723432 4.0000000000000036 
300.0002602723432 4.0000000000000036 
301.0002602723432 4.0000000000000036 
302.0002602723432 4.0000000000000036 
303.0002602723432 4.0000000000000036 
304.0002602723432 4.0000000000000036 
305.0002602723432 4.0000000000000036 
306.0002602723432 4.0000000000000036 
307.0002602723432 4.0000000000000036 
308.0002602723432 4.0000000000000036 
309.0002602723432 4.0000000000000036 
310.0002602723432 4.0000000000000036 
311.0002602723432 4.0000000000000036 
312.0002602723432 4.0000000000000036 
313.0002602723432 4.0000000000000036 
314.0002602723432 4.0000000000000036 
315.0002602723432 4.0000000000000036 
316.0002602723432 4.0000000000000036 
317.0002602723432 4.0000000000000036 
318.0002602723432 4.0000000000000036 
319.0002602723432 4.0000000000000036 
320.0002602723432 4.0000000000000036 
321.0002602723432 4.0000000000000036 
322.0002602723432 4.0000000000000036 
323.0002602723432 4.0000000000000036 
324.0002602723432 4.0000000000000036 
325.0002602723432 4.0000000000000036 
326.0002602723432 4.0000000000000036 
327.0002602723432 4.0000000000000036 
328.0002602723432 4.0000000000000036 
329.0002602723432 4.0000000000000036 
330.0002602723432 4.0000000000000036 
331.0002602723432 4.0000000000000036 
332.0002602723432 4.0000000000000036 
333.0002602723432 4.0000000000000036 
334.0002602723432 4.0000000000000036 
335.0002602723432 4.0000000000000036 
336.0002602723432 4.0000000000000036 
337.0002602723432 4.0000000000000036 
338.0002602723432 4.0000000000000036 
339.0002602723432 4.0000000000000036 
340.0002602723432 4.0000000000000036 
341.0002602723432 4.0000000000000036 
342.0002602723432 4.0000000000000036 
343.0002602723432 4.0000000000000036 
344.0002602723432 4.0000000000000036 
345.0002602723432 4.0000000000000036 
346.0002602723432 4.0000000000000036 
#####################################################################
# End of data export. Simulation finished at: 2017-05-23T22:29+0000 #
#####################################################################
