#####################################################################
# Alchemist log file - simulation started at: 2017-05-25T05:07+0000 #
#####################################################################
# random = 17.0, targets = 1.0, density = 1.2632455339402642, gridShift = 0.0, perturbation = 0.5, connfactor = 0.25
#
# The columns have the following meaning: 
# time se[Mean] 
0.0 NaN 
1.002823245690351 NaN 
2.002823245690351 1.0 
3.002823245690351 1.0 
4.002823245690351 0.9940828402366864 
5.002823245690351 1.0 
6.002823245690351 0.9644970414201183 
7.002823245690351 0.9408284023668638 
8.002823245690351 0.9408284023668638 
9.002823245690351 0.8875739644970415 
10.002823245690351 0.8994082840236686 
11.002823245690351 0.8757396449704142 
12.002823245690351 0.9053254437869823 
13.002823245690351 0.8934911242603552 
14.002823245690351 0.9112426035502961 
15.002823245690351 0.8816568047337277 
16.00282324569035 0.8520710059171593 
17.00282324569035 0.804733727810651 
18.00282324569035 0.7633136094674553 
19.00282324569035 0.7278106508875742 
20.00282324569035 0.6982248520710055 
21.00282324569035 0.6508875739644975 
22.00282324569035 0.6213017751479282 
23.00282324569035 0.5798816568047335 
24.00282324569035 0.5443786982248524 
25.00282324569035 0.5384615384615374 
26.00282324569035 0.5147928994082835 
27.00282324569035 0.49704142011834324 
28.00282324569035 0.46745562130177587 
29.00282324569035 0.44378698224852076 
30.00282324569035 0.42603550295858 
31.00282324569035 0.3905325443786987 
32.00282324569035 0.3609467455621296 
33.00282324569035 0.34911242603550247 
34.00282324569035 0.3076923076923082 
35.00282324569035 0.27218934911242565 
36.00282324569035 0.23668639053254475 
37.00282324569035 0.1893491124260355 
38.00282324569035 0.1597633136094677 
39.00282324569035 0.11834319526627239 
40.00282324569035 0.10059171597633117 
41.00282324569035 0.09467455621301771 
42.00282324569035 0.07692307692307707 
43.00282324569035 0.059171597633136196 
44.00282324569035 0.04142011834319528 
45.00282324569035 0.023668639053254416 
46.00282324569035 0.2248520710059175 
47.00282324569035 0.8579881656804759 
48.00282324569035 1.0650887573964491 
49.00282324569035 1.2781065088757413 
50.00282324569035 1.278106508875741 
51.00282324569035 2.1301775147928965 
52.00282324569035 1.70414201183432 
53.00282324569035 1.7041420118343191 
54.00282324569035 1.7041420118343182 
55.00282324569035 2.1301775147928987 
56.00282324569035 2.55621301775148 
57.00282324569035 3.19526627218935 
58.00282324569035 2.769230769230769 
59.00282324569035 2.343195266272189 
60.00282324569035 1.9171597633136122 
61.00282324569035 2.5562130177514826 
62.00282324569035 2.1301775147928956 
63.00282324569035 1.2781065088757415 
64.00282324569035 1.0650887573964483 
65.00282324569035 1.0650887573964483 
66.00282324569035 0.42603550295858095 
67.00282324569035 0.4260355029585811 
68.00282324569035 0.21301775147929036 
69.00282324569035 0.0 
70.00282324569035 0.0 
71.00282324569035 0.0 
72.00282324569035 0.0 
73.00282324569035 0.0 
74.00282324569035 0.0 
75.00282324569035 0.0 
76.00282324569035 0.0 
77.00282324569035 0.0 
78.00282324569035 0.0 
79.00282324569035 0.0 
80.00282324569035 0.0 
81.00282324569035 0.0 
82.00282324569035 0.0 
83.00282324569035 0.0 
84.00282324569035 0.0 
85.00282324569035 0.0 
86.00282324569035 0.0 
87.00282324569035 0.0 
88.00282324569035 0.0 
89.00282324569035 0.0 
90.00282324569035 0.0 
91.00282324569035 0.0 
#####################################################################
# End of data export. Simulation finished at: 2017-05-25T05:07+0000 #
#####################################################################
