#####################################################################
# Alchemist log file - simulation started at: 2017-05-23T11:39+0000 #
#####################################################################
# random = 11.0, targets = 100.0, density = 0.894427190999916, gridShift = 0.0, perturbation = 0.0, connfactor = 1.0
#
# The columns have the following meaning: 
# time se[Mean] 
0.0 NaN 
1.0028758930102715 NaN 
2.0028758930102715 1.0591572314049587 
3.0028758930102715 1.0834693296602387 
4.0028758930102715 1.1468345787419651 
5.0028758930102715 1.1010675677226813 
6.0028758930102715 1.325499477731864 
7.0028758930102715 1.3694951044536272 
8.002875893010271 1.3147844869146006 
9.002875893010271 1.3277460055096417 
10.002875893010271 1.2779294364095501 
11.002875893010271 1.263397159090909 
12.002875893010271 1.1440239784205692 
13.002875893010271 1.1231030016069787 
14.002875893010271 1.0930802915518825 
15.002875893010271 1.0532512855831038 
16.00287589301027 1.0071356175390267 
17.00287589301027 0.9364235422405877 
18.00287589301027 0.9399220500459137 
19.00287589301027 0.8877886363636364 
20.00287589301027 0.8470277777777777 
21.00287589301027 0.7665156565656565 
22.00287589301027 0.661160950413223 
23.00287589301027 0.6323893135904499 
24.00287589301027 0.6026973829201101 
25.00287589301027 0.5764280589990817 
26.00287589301027 0.5713637626262625 
27.00287589301027 0.5827907943067033 
28.00287589301027 0.5809547750229568 
29.00287589301027 0.5909314279155188 
30.00287589301027 0.592671453168044 
31.00287589301027 0.5931275883838384 
32.00287589301027 0.593911047979798 
33.00287589301027 0.5935912017906336 
34.00287589301027 0.5928363980716254 
35.00287589301027 0.5929425160697888 
36.00287589301027 0.5929 
37.00287589301027 0.5929 
38.00287589301027 0.5929 
39.00287589301027 0.5929 
40.00287589301027 0.5929 
41.00287589301027 0.5929 
42.00287589301027 0.5929 
43.00287589301027 0.5929 
44.00287589301027 0.5929 
45.00287589301027 0.5929 
46.00287589301027 0.5929 
47.00287589301027 0.5929 
48.00287589301027 0.5929 
49.00287589301027 0.5929 
50.00287589301027 0.5929 
51.00287589301027 0.5929 
52.00287589301027 0.5929 
53.00287589301027 0.5929 
54.00287589301027 0.5929 
55.00287589301027 0.5929 
56.00287589301027 0.5929 
57.00287589301027 0.5929 
#####################################################################
# End of data export. Simulation finished at: 2017-05-23T11:40+0000 #
#####################################################################
