#####################################################################
# Alchemist log file - simulation started at: 2017-05-21T14:58+0000 #
#####################################################################
# random = 2.0, targets = 100.0, density = 0.6332893950589894, gridShift = 0.0, perturbation = 0.5, connfactor = 0.1
#
# The columns have the following meaning: 
# time se[Mean] 
0.0 NaN 
1.003288451303821 NaN 
2.003288451303821 1.0 
3.003288451303821 0.9997543209876543 
4.0032884513038205 0.9975506172839507 
5.0032884513038205 0.9943864197530864 
6.0032884513038205 0.9948703703703704 
7.0032884513038205 0.9921901234567901 
8.00328845130382 0.9926666666666667 
9.00328845130382 0.9912074074074074 
10.00328845130382 0.9872913580246914 
11.00328845130382 0.9889765432098765 
12.00328845130382 0.9865543209876543 
13.00328845130382 0.986541975308642 
14.00328845130382 0.981258024691358 
15.00328845130382 0.9772592592592593 
16.00328845130382 0.9747703703703704 
17.00328845130382 0.9694135802469136 
18.00328845130382 0.9584382716049382 
19.00328845130382 0.9505345679012346 
20.00328845130382 0.9397777777777777 
21.00328845130382 0.9410049382716049 
22.00328845130382 0.9286518518518518 
23.00328845130382 0.9121456790123457 
24.00328845130382 0.9036567901234568 
25.00328845130382 0.9080925925925926 
26.00328845130382 0.8994518518518518 
27.00328845130382 0.8827024691358024 
28.00328845130382 0.8792975308641975 
29.00328845130382 0.8874814814814814 
30.00328845130382 0.891862962962963 
31.00328845130382 0.8992716049382716 
32.00328845130382 0.8997814814814815 
33.00328845130382 0.9013407407407407 
34.00328845130382 0.9018024691358024 
35.00328845130382 0.8999333333333334 
36.00328845130382 0.9001666666666667 
37.00328845130382 0.8999333333333334 
38.00328845130382 0.8977024691358024 
39.00328845130382 0.9015666666666666 
40.00328845130382 0.887279012345679 
41.00328845130382 0.8829481481481481 
42.00328845130382 0.8922148148148148 
43.00328845130382 0.8722061728395062 
44.00328845130382 0.8647061728395061 
45.00328845130382 0.8660086419753087 
46.00328845130382 0.8763493827160493 
47.00328845130382 0.8509358024691358 
48.00328845130382 0.853620987654321 
49.00328845130382 0.8467308641975309 
50.00328845130382 0.8636308641975309 
51.00328845130382 0.8713592592592593 
52.00328845130382 0.878841975308642 
53.00328845130382 0.8843197530864197 
54.00328845130382 0.8838432098765433 
55.00328845130382 0.8840691358024692 
56.00328845130382 0.8838333333333334 
57.00328845130382 0.8836 
58.00328845130382 0.8836 
59.00328845130382 0.8836 
60.00328845130382 0.8836 
61.00328845130382 0.8836 
62.00328845130382 0.8836 
63.00328845130382 0.8836 
64.00328845130382 0.8836 
65.00328845130382 0.8836 
66.00328845130382 0.8836 
67.00328845130382 0.8836 
68.00328845130382 0.8836 
69.00328845130382 0.8836 
70.00328845130382 0.8836 
71.00328845130382 0.8836 
72.00328845130382 0.8836 
73.00328845130382 0.8836 
74.00328845130382 0.8836 
#####################################################################
# End of data export. Simulation finished at: 2017-05-21T14:58+0000 #
#####################################################################
