#####################################################################
# Alchemist log file - simulation started at: 2017-05-22T20:31+0000 #
#####################################################################
# random = 4.0, targets = 31.622776601683793, density = 0.6332893950589894, gridShift = 1.0, perturbation = 0.0, connfactor = 1.5
#
# The columns have the following meaning: 
# time se[Mean] 
0.0 NaN 
1.0048193674555734 NaN 
2.0048193674555734 1.0305701470504605 
3.0048193674555734 1.062779084172107 
4.004819367455573 1.14833493784798 
5.004819367455573 1.421457553087909 
6.004819367455573 1.4694124699557605 
7.004819367455573 1.9181900180599913 
8.004819367455573 1.8214717943273735 
9.004819367455573 1.5204340348802865 
10.004819367455573 1.2980660214451074 
11.004819367455573 1.1955617561072116 
12.004819367455573 1.266061529993541 
13.004819367455573 1.3553874704289273 
14.004819367455573 1.480347185430164 
15.004819367455573 1.3956240993529008 
16.004819367455575 1.6413488141423243 
17.004819367455575 1.5777560094048655 
18.004819367455575 1.6104102803302829 
19.004819367455575 1.6646769871909142 
20.004819367455575 1.772499971476495 
21.004819367455575 1.5888558789546996 
22.004819367455575 1.558637732636031 
23.004819367455575 1.526916835057693 
24.004819367455575 1.1691757368520217 
25.004819367455575 1.008645688520181 
26.004819367455575 0.8667269833610814 
27.004819367455575 0.8859964143098884 
28.004819367455575 0.8229227050007153 
29.004819367455575 0.6176007714362154 
30.004819367455575 0.5328540309334227 
31.004819367455575 0.4646320231091717 
32.004819367455575 0.395670976029102 
33.004819367455575 0.400431497207975 
34.004819367455575 0.3874133953640217 
35.004819367455575 0.302071217598567 
36.004819367455575 0.3122256891333698 
37.004819367455575 0.3076149031338511 
38.004819367455575 0.2544225852301765 
39.004819367455575 0.2290883766865398 
40.004819367455575 0.24037621300692044 
41.004819367455575 0.23623980181533535 
42.004819367455575 0.23061596687740285 
43.004819367455575 0.2367843880652082 
44.004819367455575 0.242830897813142 
45.004819367455575 0.24395604175894572 
46.004819367455575 0.24407114874611868 
47.004819367455575 0.24407114874611868 
48.004819367455575 0.24407114874611868 
49.004819367455575 0.24407114874611868 
50.004819367455575 0.24407114874611868 
51.004819367455575 0.24407114874611868 
52.004819367455575 0.24407114874611868 
53.004819367455575 0.24407114874611868 
54.004819367455575 0.24407114874611868 
55.004819367455575 0.24407114874611868 
56.004819367455575 0.24407114874611868 
57.004819367455575 0.24407114874611868 
58.004819367455575 0.24407114874611868 
59.004819367455575 0.24407114874611868 
60.004819367455575 0.24407114874611868 
61.004819367455575 0.24407114874611868 
62.004819367455575 0.24407114874611868 
#####################################################################
# End of data export. Simulation finished at: 2017-05-22T20:32+0000 #
#####################################################################
