#####################################################################
# Alchemist log file - simulation started at: 2017-05-24T09:39+0000 #
#####################################################################
# random = 14.0, targets = 31.622776601683793, density = 0.4483936332993466, gridShift = 1.0, perturbation = 0.0, connfactor = 1.5
#
# The columns have the following meaning: 
# time se[Mean] 
0.0 NaN 
1.0090008223538587 NaN 
2.0090008223538587 1.1005036847106537 
3.0090008223538587 1.1742090911947407 
4.009000822353858 1.2750854359693518 
5.009000822353858 1.3538825864439454 
6.009000822353858 1.3440329831116375 
7.009000822353858 1.5460095383525965 
8.009000822353858 1.2986292706662137 
9.009000822353858 1.4845764439751858 
10.009000822353858 1.477809697799249 
11.009000822353858 1.4779509659394863 
12.009000822353858 1.5967775520807237 
13.009000822353858 1.436674663217577 
14.009000822353858 1.5847344817791242 
15.009000822353858 1.5281278193233827 
16.00900082235386 1.3480845301404083 
17.00900082235386 1.26204017600853 
18.00900082235386 1.1465078183930315 
19.00900082235386 0.9983688269352206 
20.00900082235386 0.8384134381374126 
21.00900082235386 0.7442336144209429 
22.00900082235386 0.6864413459711747 
23.00900082235386 0.6217915522695011 
24.00900082235386 0.539942945732089 
25.00900082235386 0.5069171550102467 
26.00900082235386 0.40812429547925333 
27.00900082235386 0.3768713109526022 
28.00900082235386 0.36238558110975383 
29.00900082235386 0.33119557276006506 
30.00900082235386 0.3299940908212137 
31.00900082235386 0.3278437692919317 
32.009000822353855 0.33718382514668 
33.009000822353855 0.33769880968191196 
34.009000822353855 0.34651979919497017 
35.009000822353855 0.35180877512949765 
36.009000822353855 0.34752223218097533 
37.009000822353855 0.3468078083562216 
38.009000822353855 0.3468078083562216 
39.009000822353855 0.3468078083562216 
40.009000822353855 0.3468078083562216 
41.009000822353855 0.3468078083562216 
42.009000822353855 0.3468078083562216 
43.009000822353855 0.3468078083562216 
44.009000822353855 0.3468078083562216 
45.009000822353855 0.3468078083562216 
46.009000822353855 0.3468078083562216 
47.009000822353855 0.3468078083562216 
48.009000822353855 0.3468078083562216 
49.009000822353855 0.3468078083562216 
50.009000822353855 0.3468078083562216 
#####################################################################
# End of data export. Simulation finished at: 2017-05-24T09:39+0000 #
#####################################################################
