#####################################################################
# Alchemist log file - simulation started at: 2017-05-26T12:42+0000 #
#####################################################################
# random = 9.0, targets = 100.0, density = 0.6332893950589894, gridShift = 1.0, perturbation = 0.0, connfactor = 0.25
#
# The columns have the following meaning: 
# time se[Mean] 
0.0 NaN 
1.0078258106860618 NaN 
2.007825810686062 0.9998891666666667 
3.007825810686062 0.9995577777777778 
4.007825810686062 0.9978045061728396 
5.007825810686062 0.9954219135802469 
6.007825810686062 0.9941839197530864 
7.007825810686062 0.9893091975308642 
8.007825810686061 0.9907872530864198 
9.007825810686061 0.9819184567901235 
10.007825810686061 0.9793304320987655 
11.007825810686061 0.9693460493827161 
12.007825810686061 0.9613016666666666 
13.007825810686061 0.9566120987654321 
14.007825810686061 0.9546974074074074 
15.007825810686061 0.9504186419753086 
16.00782581068606 0.9515533641975308 
17.00782581068606 0.9482913580246913 
18.00782581068606 0.9491733641975308 
19.00782581068606 0.9479431172839505 
20.00782581068606 0.9473782407407407 
21.00782581068606 0.9464566049382716 
22.00782581068606 0.9433015432098765 
23.00782581068606 0.9437304012345679 
24.00782581068606 0.9386683950617284 
25.00782581068606 0.9351658333333334 
26.00782581068606 0.9316704938271605 
27.00782581068606 0.9221253395061728 
28.00782581068606 0.9141445061728395 
29.00782581068606 0.9117108950617284 
30.00782581068606 0.8963571913580247 
31.00782581068606 0.8957777469135803 
32.00782581068606 0.8793086419753087 
33.00782581068606 0.8725691975308643 
34.00782581068606 0.8573594135802469 
35.00782581068606 0.850475524691358 
36.00782581068606 0.8435875308641976 
37.00782581068606 0.8279770987654321 
38.00782581068606 0.8417808641975308 
39.00782581068606 0.8239072222222222 
40.00782581068606 0.8325424691358024 
41.00782581068606 0.8286061419753087 
42.00782581068606 0.8272383024691358 
43.00782581068606 0.8251616049382716 
44.00782581068606 0.8197036728395062 
45.00782581068606 0.8249525925925926 
46.00782581068606 0.8157540740740741 
47.00782581068606 0.8207829629629629 
48.00782581068606 0.8174102469135802 
49.00782581068606 0.8179367901234568 
50.00782581068606 0.8156827469135802 
51.00782581068606 0.8141112345679012 
52.00782581068606 0.8128238888888889 
53.00782581068606 0.8109213888888889 
54.00782581068606 0.81101 
55.00782581068606 0.8104066666666667 
56.00782581068606 0.8104022222222222 
57.00782581068606 0.8102011111111111 
58.00782581068606 0.81 
59.00782581068606 0.81 
60.00782581068606 0.81 
61.00782581068606 0.81 
62.00782581068606 0.81 
63.00782581068606 0.81 
64.00782581068606 0.81 
65.00782581068606 0.81 
66.00782581068606 0.81 
67.00782581068606 0.81 
68.00782581068606 0.81 
69.00782581068606 0.81 
70.00782581068606 0.81 
71.00782581068606 0.81 
72.00782581068606 0.81 
73.00782581068606 0.81 
74.00782581068606 0.81 
75.00782581068606 0.81 
#####################################################################
# End of data export. Simulation finished at: 2017-05-26T12:43+0000 #
#####################################################################
