0.000000000000000000e+00 nan
0.000000000000000000e+00 6.213969855353010385e-03
0.000000000000000000e+00 2.051935196188156285e-01
8.881784197001252323e-16 1.855795655022701440e-01
0.000000000000000000e+00 1.944120425728639301e-01
1.776356839400250465e-15 1.968531636466246126e-01
1.776356839400250465e-15 1.873056806782014694e-01
0.000000000000000000e+00 1.784927460326718729e-01
0.000000000000000000e+00 1.802611870043406006e-01
3.552713678800500929e-15 1.957408810689729162e-01
3.552713678800500929e-15 2.030151527829068547e-01
3.552713678800500929e-15 2.195638468700882862e-01
3.552713678800500929e-15 2.313300498829025387e-01
1.776356839400250465e-15 2.317145009546356105e-01
0.000000000000000000e+00 2.385438868696833636e-01
5.329070518200751394e-15 2.400660082733816481e-01
0.000000000000000000e+00 2.377767821580512031e-01
1.065814103640150279e-14 2.435592132302587531e-01
7.105427357601001859e-15 2.440100044903250331e-01
7.105427357601001859e-15 2.450603829525217492e-01
7.105427357601001859e-15 2.528901262336585853e-01
0.000000000000000000e+00 2.511364779673638803e-01
7.105427357601001859e-15 2.571477694114278623e-01
7.105427357601001859e-15 2.573115342724661136e-01
7.105427357601001859e-15 2.633907518697417571e-01
7.105427357601001859e-15 2.650287863103903963e-01
3.552713678800500929e-15 2.651305091454866369e-01
0.000000000000000000e+00 2.774367980657886923e-01
0.000000000000000000e+00 2.850531697029934364e-01
1.421085471520200372e-14 4.179077654700339983e-01
1.065814103640150279e-14 4.561125425103239039e-01
0.000000000000000000e+00 6.112758195026304353e-01
0.000000000000000000e+00 6.831934558119104883e-01
1.421085471520200372e-14 5.330295000700011609e-01
2.131628207280300558e-14 4.152645374976496884e-01
7.105427357601001859e-15 6.460534950700845824e-01
1.421085471520200372e-14 5.721517469033872150e-01
2.131628207280300558e-14 8.513662310607296169e-01
1.421085471520200372e-14 8.331379972026686787e-01
2.131628207280300558e-14 6.223727155799259059e-01
1.421085471520200372e-14 8.045421174742359849e-01
0.000000000000000000e+00 7.057133165668157959e-01
0.000000000000000000e+00 5.579095724245545229e-01
7.105427357601001859e-15 8.317428714911778709e-01
1.421085471520200372e-14 8.412257750482748930e-01
7.105427357601001859e-15 7.249568874492272608e-01
1.421085471520200372e-14 7.911072720535087255e-01
2.842170943040400743e-14 4.900323744374043833e-01
1.421085471520200372e-14 5.550391201198952018e-01
7.105427357601001859e-15 7.555716457064449720e-01
1.421085471520200372e-14 1.346320524693198184e+00
7.105427357601001859e-15 1.239204596150293325e+00
7.105427357601001859e-15 1.746253639597067142e+00
1.421085471520200372e-14 1.124382503130620492e+00
0.000000000000000000e+00 1.515561360509440902e+00
7.105427357601001859e-15 1.997931062116406586e+00
0.000000000000000000e+00 1.941397442957795372e+00
7.105427357601001859e-15 1.726997513728421696e+00
2.842170943040400743e-14 2.124052052871229446e+00
2.131628207280300558e-14 1.827005261427454119e+00
2.131628207280300558e-14 1.505085342456380149e+00
1.421085471520200372e-14 2.131121975434508542e+00
0.000000000000000000e+00 1.096010997810997312e+00
0.000000000000000000e+00 1.106957947796587183e+00
0.000000000000000000e+00 6.228162794593832263e-01
1.421085471520200372e-14 4.543717391469594968e-01
2.842170943040400743e-14 3.516084870042519572e-01
2.842170943040400743e-14 3.464028157938198738e-01
4.263256414560601115e-14 3.074785936772745365e-01
1.421085471520200372e-14 2.300434737806824337e-01
1.421085471520200372e-14 1.946541747774057085e-01
1.421085471520200372e-14 1.902805560185491518e-01
2.842170943040400743e-14 1.741511020672581456e-01
2.842170943040400743e-14 1.741382165178928243e-01
4.263256414560601115e-14 1.740806165777950831e-01
4.263256414560601115e-14 1.679841494801848911e-01
2.842170943040400743e-14 1.679355928923749741e-01
1.421085471520200372e-14 1.679355928923749741e-01
4.263256414560601115e-14 1.679355928923749741e-01
4.263256414560601115e-14 1.679355928923749741e-01
2.842170943040400743e-14 1.679355928923749741e-01
1.421085471520200372e-14 1.679355928923749741e-01
0.000000000000000000e+00 1.679355928923749741e-01
0.000000000000000000e+00 1.679355928923749741e-01
0.000000000000000000e+00 1.679355928923749741e-01
0.000000000000000000e+00 1.679355928923749741e-01
1.421085471520200372e-14 1.679355928923749741e-01
2.842170943040400743e-14 1.679355928923749741e-01
2.842170943040400743e-14 1.679355928923749741e-01
4.263256414560601115e-14 1.679355928923749741e-01
1.421085471520200372e-14 1.679355928923749741e-01
2.842170943040400743e-14 1.679355928923749741e-01
2.842170943040400743e-14 1.679355928923749741e-01
4.263256414560601115e-14 1.679355928923749741e-01
5.684341886080801487e-14 1.679355928923749741e-01
4.263256414560601115e-14 1.679355928923749741e-01
