#####################################################################
# Alchemist log file - simulation started at: 2017-05-25T15:47+0000 #
#####################################################################
# random = 8.0, targets = 31.622776601683793, density = 0.07978946395100113, gridShift = 1.0, perturbation = 0.0, connfactor = 0.1
#
# The columns have the following meaning: 
# time se[Mean] 
0.0 NaN 
1.0490773234798803 NaN 
2.0490773234798803 1.0 
3.0490773234798803 1.0 
4.04907732347988 0.9968877223398316 
5.04907732347988 0.9875508893593264 
6.04907732347988 0.9875508893593264 
7.04907732347988 0.9751017787186529 
8.04907732347988 0.9751017787186529 
9.04907732347988 0.9813263340389897 
10.04907732347988 0.9813263340389897 
11.04907732347988 0.9844386116991581 
12.04907732347988 0.9688772233983162 
13.04907732347988 0.9626526680779794 
14.04907732347988 0.9442790021169691 
15.04907732347988 0.9321298914762955 
16.049077323479878 0.9259053361559588 
17.049077323479878 0.9140562255152853 
18.049077323479878 0.9259053361559588 
19.049077323479878 0.9199807808356221 
20.049077323479878 0.9259053361559588 
21.049077323479878 0.9318298914762956 
22.049077323479878 0.9377544467966323 
23.049077323479878 0.9377544467966323 
24.049077323479878 0.9377544467966323 
25.049077323479878 0.9377544467966323 
26.049077323479878 0.9377544467966323 
27.049077323479878 0.9377544467966323 
28.049077323479878 0.9377544467966323 
29.049077323479878 0.9377544467966323 
#####################################################################
# End of data export. Simulation finished at: 2017-05-25T15:47+0000 #
#####################################################################
