#####################################################################
# Alchemist log file - simulation started at: 2017-05-23T06:58+0000 #
#####################################################################
# random = 11.0, targets = 3.1622776601683795, density = 0.894427190999916, gridShift = 0.0, perturbation = 0.5, connfactor = 1.0
#
# The columns have the following meaning: 
# time se[Mean] 
0.0 NaN 
1.0028758930102715 NaN 
2.0028758930102715 1.0 
3.0028758930102715 0.998487266670247 
4.0028758930102715 0.9927930751884454 
5.0028758930102715 0.9812056335039278 
6.0028758930102715 0.9471159653460123 
7.0028758930102715 0.9447864903171558 
8.002875893010271 0.9235783105964174 
9.002875893010271 0.8795238819186337 
10.002875893010271 0.9044731000252649 
11.002875893010271 0.8839376090404581 
12.002875893010271 0.8852416109077028 
13.002875893010271 0.952844608009669 
14.002875893010271 0.9837100490803022 
15.002875893010271 1.0365373200580137 
16.00287589301027 1.0846584386023 
17.00287589301027 1.0903762153518106 
18.00287589301027 1.1018970019260554 
19.00287589301027 1.1220338107230519 
20.00287589301027 1.0869362728883256 
21.00287589301027 1.0248478495513176 
22.00287589301027 0.983186019255448 
23.00287589301027 0.8922067573990167 
24.00287589301027 0.7822508702622112 
25.00287589301027 0.7274553882503655 
26.00287589301027 0.6340832732896658 
27.00287589301027 0.5656619793423175 
28.00287589301027 0.47744772814965974 
29.00287589301027 0.4581935486438026 
30.00287589301027 0.4038230505660131 
31.00287589301027 0.3620682952539195 
32.00287589301027 0.3411525886052232 
33.00287589301027 0.29835681285838844 
34.00287589301027 0.3047192345991982 
35.00287589301027 0.3123020439588961 
36.00287589301027 0.4283835181384398 
37.00287589301027 0.4931602187428443 
38.00287589301027 0.6561210699133676 
39.00287589301027 0.7848315072775629 
40.00287589301027 0.675950443220979 
41.00287589301027 0.7885272285674549 
42.00287589301027 0.7868809939753909 
43.00287589301027 0.827642122270221 
44.00287589301027 0.6120506088172083 
45.00287589301027 0.553309970445698 
46.00287589301027 0.5071497446987618 
47.00287589301027 0.3308458500828901 
48.00287589301027 0.23296739300776897 
49.00287589301027 0.14064694151389673 
50.00287589301027 0.1350889359326484 
51.00287589301027 0.1350889359326484 
52.00287589301027 0.1350889359326484 
53.00287589301027 0.1350889359326484 
54.00287589301027 0.1350889359326484 
55.00287589301027 0.1350889359326484 
56.00287589301027 0.1350889359326484 
57.00287589301027 0.1350889359326484 
58.00287589301027 0.1350889359326484 
59.00287589301027 0.1350889359326484 
60.00287589301027 0.1350889359326484 
61.00287589301027 0.1350889359326484 
62.00287589301027 0.1350889359326484 
63.00287589301027 0.1350889359326484 
64.00287589301027 0.1350889359326484 
65.00287589301027 0.1350889359326484 
66.00287589301027 0.1350889359326484 
67.00287589301027 0.1350889359326484 
68.00287589301027 0.1350889359326484 
69.00287589301027 0.1350889359326484 
#####################################################################
# End of data export. Simulation finished at: 2017-05-23T06:58+0000 #
#####################################################################
