#####################################################################
# Alchemist log file - simulation started at: 2017-05-24T21:15+0000 #
#####################################################################
# random = 16.0, targets = 1.0, density = 0.894427190999916, gridShift = 1.0, perturbation = 0.0, connfactor = 2.0
#
# The columns have the following meaning: 
# time se[Mean] 
0.0 NaN 
1.0066017814354276 NaN 
2.0066017814354273 1.0 
3.0066017814354273 0.9983796296296297 
4.006601781435427 0.9944444444444445 
5.006601781435427 1.0912037037037037 
6.006601781435427 1.2118055555555556 
7.006601781435427 1.2298611111111113 
8.006601781435428 1.5995370370370372 
9.006601781435428 1.397916666666667 
10.006601781435428 1.6854166666666668 
11.006601781435428 1.3185185185185186 
12.006601781435428 1.6458333333333335 
13.006601781435428 1.2245370370370372 
14.006601781435428 1.4305555555555556 
15.006601781435428 0.9423611111111113 
16.006601781435428 1.0599537037037037 
17.006601781435428 1.071064814814815 
18.006601781435428 1.181712962962963 
19.006601781435428 1.5055555555555558 
20.006601781435428 1.6187500000000001 
21.006601781435428 1.2733796296296296 
22.006601781435428 1.6861111111111111 
23.006601781435428 1.3511574074074075 
24.006601781435428 1.6629629629629632 
25.006601781435428 1.8555555555555558 
26.006601781435428 2.0541666666666667 
27.006601781435428 1.9101851851851857 
28.006601781435428 2.0759259259259264 
29.006601781435428 1.721527777777778 
30.006601781435428 2.0067129629629643 
31.006601781435428 1.46111111111111 
32.00660178143543 1.8650462962962975 
33.00660178143543 1.0437500000000006 
34.00660178143543 0.9409722222222217 
35.00660178143543 0.5541666666666666 
36.00660178143543 0.43958333333333316 
37.00660178143543 0.40578703703703684 
38.00660178143543 0.3567129629629628 
39.00660178143543 0.2893518518518517 
40.00660178143543 0.27731481481481474 
41.00660178143543 0.2187499999999999 
42.00660178143543 0.24074074074074053 
43.00660178143543 0.16018518518518515 
44.00660178143543 0.21203703703703683 
45.00660178143543 0.1423611111111111 
46.00660178143543 0.12615740740740738 
47.00660178143543 0.10532407407407417 
48.00660178143543 0.08425925925925928 
49.00660178143543 0.07245370370370374 
50.00660178143543 0.054166666666666675 
51.00660178143543 0.040740740740740744 
52.00660178143543 0.02916666666666669 
53.00660178143543 0.02060185185185187 
54.00660178143543 0.0148148148148148 
55.00660178143543 0.01319444444444444 
56.00660178143543 0.005787037037037023 
57.00660178143543 0.007870370370370361 
58.00660178143543 0.0018518518518518478 
59.00660178143543 0.0011574074074074043 
60.00660178143543 1.1093356479670479E-31 
61.00660178143543 1.1093356479670479E-31 
62.00660178143543 1.1093356479670479E-31 
63.00660178143543 1.1093356479670479E-31 
64.00660178143542 1.1093356479670479E-31 
65.00660178143542 1.1093356479670479E-31 
66.00660178143542 1.1093356479670479E-31 
67.00660178143542 1.1093356479670479E-31 
68.00660178143542 1.1093356479670479E-31 
69.00660178143542 1.1093356479670479E-31 
70.00660178143542 1.1093356479670479E-31 
71.00660178143542 1.1093356479670479E-31 
72.00660178143542 1.1093356479670479E-31 
73.00660178143542 1.1093356479670479E-31 
74.00660178143542 1.1093356479670479E-31 
75.00660178143542 1.1093356479670479E-31 
76.00660178143542 1.1093356479670479E-31 
#####################################################################
# End of data export. Simulation finished at: 2017-05-24T21:15+0000 #
#####################################################################
