#####################################################################
# Alchemist log file - simulation started at: 2017-05-25T10:56+0000 #
#####################################################################
# random = 8.0, targets = 3.1622776601683795, density = 7.099073319511142, gridShift = 1.0, perturbation = 0.0, connfactor = 1.0
#
# The columns have the following meaning: 
# time se[Mean] 
0.0 NaN 
1.0009686244946094 NaN 
2.000968624494609 1.005687129433614 
3.000968624494609 1.0159412815084694 
4.000968624494609 1.021137333079391 
5.000968624494609 1.0186527059495813 
6.000968624494609 1.0063079129395538 
7.000968624494609 1.0058910587085068 
8.00096862449461 1.0041951542254928 
9.00096862449461 1.0098069346411795 
10.00096862449461 1.0088034113944273 
11.00096862449461 1.005624152255793 
12.00096862449461 0.9964484973168564 
13.00096862449461 0.9927999029656578 
14.00096862449461 0.9844673272988371 
15.00096862449461 0.9818856085009727 
16.00096862449461 0.9800292600433218 
17.00096862449461 0.9809360667507799 
18.00096862449461 0.9809218217365344 
19.00096862449461 0.9820632960502746 
20.00096862449461 0.9842431558888585 
21.00096862449461 0.9849827712433177 
22.00096862449461 0.9874685237594086 
23.00096862449461 0.9887880607512115 
24.00096862449461 0.9884679230594592 
25.00096862449461 0.9857553757017293 
26.00096862449461 0.98749514061376 
27.00096862449461 0.9827800483076519 
28.00096862449461 0.9835365321080161 
29.00096862449461 0.9750705093889981 
30.00096862449461 0.9737839590314837 
31.00096862449461 0.9731654262981073 
32.00096862449461 0.9667795458482942 
33.00096862449461 0.9668383990794129 
34.00096862449461 0.9545989579791644 
35.00096862449461 0.9599235799283955 
36.00096862449461 0.9482558101024218 
37.00096862449461 0.9320862505249197 
38.00096862449461 0.9297005832979761 
39.00096862449461 0.9113650387067014 
40.00096862449461 0.9002696904125246 
41.00096862449461 0.8904893775650229 
42.00096862449461 0.8725733056971263 
43.00096862449461 0.8587163052225473 
44.00096862449461 0.8465030984388989 
45.00096862449461 0.8317205521064812 
46.00096862449461 0.8130187561522109 
47.00096862449461 0.8020598608796425 
48.00096862449461 0.7785256388161228 
49.00096862449461 0.7599899063589032 
50.00096862449461 0.741844036149623 
51.00096862449461 0.7195142631079994 
52.00096862449461 0.7041967735445461 
53.00096862449461 0.6800852532753413 
54.00096862449461 0.669870465023702 
55.00096862449461 0.6512612591923609 
56.00096862449461 0.6386394460710684 
57.00096862449461 0.6324387433974494 
58.00096862449461 0.6159576617413673 
59.00096862449461 0.6117891219005612 
60.00096862449461 0.6018562329037389 
61.00096862449461 0.5991493025987625 
62.00096862449461 0.5971827354361017 
63.00096862449461 0.5930685497509517 
64.00096862449462 0.588713324209919 
65.00096862449462 0.5903001304348784 
66.00096862449462 0.5848394182444779 
67.00096862449462 0.5924132445203878 
68.00096862449462 0.5847771715668666 
69.00096862449462 0.5872973988839701 
70.00096862449462 0.5920507148090309 
71.00096862449462 0.5826812516627446 
72.00096862449462 0.5900995056985768 
73.00096862449462 0.5772984971039484 
74.00096862449462 0.5799724210173269 
75.00096862449462 0.5751272380605551 
76.00096862449462 0.5652175872895759 
77.00096862449462 0.5637870788655783 
78.00096862449462 0.5548359679957172 
79.00096862449462 0.5537046048708645 
80.00096862449462 0.5396357974174212 
81.00096862449462 0.5416049707240953 
82.00096862449462 0.5295473312411952 
83.00096862449462 0.5313380692107093 
84.00096862449462 0.516447177347421 
85.00096862449462 0.5191278535784878 
86.00096862449462 0.5060460760546526 
87.00096862449462 0.503350769801924 
88.00096862449462 0.4922164352829537 
89.00096862449462 0.48935394014689043 
90.00096862449462 0.47581858034876945 
91.00096862449462 0.4681457768823458 
92.00096862449462 0.45961790237178857 
93.00096862449462 0.45192036510380834 
94.00096862449462 0.4468251564885477 
95.00096862449462 0.4638937240987806 
96.00096862449462 0.5287123198371667 
97.00096862449462 0.5221562840492282 
98.00096862449462 0.6716757912907364 
99.00096862449462 0.6500365213719099 
100.00096862449462 0.6370844593699757 
101.00096862449462 0.7119255677733238 
102.00096862449462 0.651770387949655 
103.00096862449462 0.6970017016240666 
104.00096862449462 0.5721051482540755 
105.00096862449462 0.5819196076974404 
106.00096862449462 0.6182695523458214 
107.00096862449462 0.5909187227003314 
108.00096862449462 0.8672855975362129 
109.00096862449462 0.7766307464636545 
110.00096862449462 1.2384984574493312 
111.00096862449462 1.0750256873519481 
112.00096862449462 1.0562755516505127 
113.00096862449462 1.126855490575502 
114.00096862449462 0.9086484817872401 
115.00096862449462 1.117968914200769 
116.00096862449462 0.6762414544479212 
117.00096862449462 0.8712209236223099 
118.00096862449462 0.8056792033769449 
119.00096862449462 0.6874358466135361 
120.00096862449462 0.9124876884724058 
121.00096862449462 0.7016719121009019 
122.00096862449462 0.7030657171782991 
123.00096862449462 0.7503543001461792 
124.00096862449462 0.6891630077972034 
125.00096862449462 0.7252119315026363 
126.00096862449462 0.5580834050323134 
127.00096862449462 0.6256145629464128 
128.00096862449462 0.590200366722319 
129.00096862449462 0.7188580086177204 
130.00096862449462 0.5293254410201796 
131.00096862449462 0.5586638302209381 
132.00096862449462 0.303506347761764 
133.00096862449462 0.46364658664627223 
134.00096862449462 0.34389883838068647 
135.00096862449462 0.28480680258005625 
136.00096862449462 0.23845988365839785 
137.00096862449462 0.36029715735153034 
138.00096862449462 0.0722550471594213 
139.00096862449462 0.35787105030836436 
140.00096862449462 0.24653986456767338 
141.00096862449462 0.27876924634197675 
142.00096862449462 0.12646977970071288 
143.00096862449462 0.26030398128947185 
144.00096862449462 0.1011185359578024 
145.00096862449462 0.11566683673631094 
146.00096862449462 0.09554574917590139 
147.00096862449462 0.02143829358146718 
148.00096862449462 0.021458918254304994 
149.00096862449462 0.009266306507526943 
150.00096862449462 0.008056983281406636 
151.00096862449462 0.006991610712778733 
152.00096862449462 0.005791283167919886 
153.00096862449462 0.00490247276231249 
154.00096862449462 0.004238959152965439 
155.00096862449462 0.0038614687451363973 
156.00096862449462 0.003570946468155754 
157.00096862449462 0.0033336554302136555 
158.00096862449462 0.003136476003346681 
159.00096862449462 0.0029595387115656105 
160.00096862449462 0.002841829779663979 
161.00096862449462 0.0026802628884095366 
162.00096862449462 0.002623282831429481 
163.00096862449462 0.0026334038989724354 
164.00096862449462 0.0026334038989724354 
165.00096862449462 0.0026334038989724354 
166.00096862449462 0.0026334038989724354 
167.00096862449462 0.0026334038989724354 
168.00096862449462 0.0026334038989724354 
169.00096862449462 0.0026334038989724354 
170.00096862449462 0.0026334038989724354 
171.00096862449462 0.0026334038989724354 
172.00096862449462 0.0026334038989724354 
173.00096862449462 0.0026334038989724354 
174.00096862449462 0.0026334038989724354 
175.00096862449462 0.0026334038989724354 
176.00096862449462 0.0026334038989724354 
177.00096862449462 0.0026334038989724354 
178.00096862449462 0.0026334038989724354 
179.00096862449462 0.0026334038989724354 
180.00096862449462 0.0026334038989724354 
181.00096862449462 0.0026334038989724354 
182.00096862449462 0.0026334038989724354 
183.00096862449462 0.0026334038989724354 
184.00096862449462 0.0026334038989724354 
185.00096862449462 0.0026334038989724354 
186.00096862449462 0.0026334038989724354 
187.00096862449462 0.0026334038989724354 
188.00096862449462 0.0026334038989724354 
189.00096862449462 0.0026334038989724354 
190.00096862449462 0.0026334038989724354 
191.00096862449462 0.0026334038989724354 
192.00096862449462 0.0026334038989724354 
193.00096862449462 0.0026334038989724354 
194.00096862449462 0.0026334038989724354 
195.00096862449462 0.0026334038989724354 
196.00096862449462 0.0026334038989724354 
197.00096862449462 0.0026334038989724354 
198.00096862449462 0.0026334038989724354 
199.00096862449462 0.0026334038989724354 
200.00096862449462 0.0026334038989724354 
201.00096862449462 0.0026334038989724354 
202.00096862449462 0.0026334038989724354 
203.00096862449462 0.0026334038989724354 
204.00096862449462 0.0026334038989724354 
205.00096862449462 0.0026334038989724354 
206.00096862449462 0.0026334038989724354 
207.00096862449462 0.0026334038989724354 
208.00096862449462 0.0026334038989724354 
209.00096862449462 0.0026334038989724354 
210.00096862449462 0.0026334038989724354 
211.00096862449462 0.0026334038989724354 
212.00096862449462 0.0026334038989724354 
213.00096862449462 0.0026334038989724354 
214.00096862449462 0.0026334038989724354 
215.00096862449462 0.0026334038989724354 
216.00096862449462 0.0026334038989724354 
217.00096862449462 0.0026334038989724354 
218.00096862449462 0.0026334038989724354 
219.00096862449462 0.0026334038989724354 
220.00096862449462 0.0026334038989724354 
#####################################################################
# End of data export. Simulation finished at: 2017-05-25T11:00+0000 #
#####################################################################
