#####################################################################
# Alchemist log file - simulation started at: 2017-05-20T15:48+0000 #
#####################################################################
# random = 1.0, targets = 10.0, density = 2.519842099789746, gridShift = 0.0, perturbation = 0.5, connfactor = 1.0
#
# The columns have the following meaning: 
# time se[Mean] 
0.0 NaN 
1.0048855897957667 NaN 
2.0048855897957667 1.0094809688581314 
3.0048855897957667 1.0246938677431756 
4.004885589795767 1.031249279123414 
5.004885589795767 1.0314453575547868 
6.004885589795767 1.01165369088812 
7.004885589795767 1.0080036524413687 
8.004885589795766 1.0033595251826222 
9.004885589795766 0.9960037004998078 
10.004885589795766 0.9880555555555557 
11.004885589795766 0.9844636678200692 
12.004885589795766 0.9778433775470972 
13.004885589795766 0.9606771434063821 
14.004885589795766 0.9474240676662821 
15.004885589795766 0.9383227604767399 
16.004885589795766 0.9151996828143022 
17.004885589795766 0.9121321126489812 
18.004885589795766 0.8891380718954247 
19.004885589795766 0.8690354671280277 
20.004885589795766 0.8609568435217224 
21.004885589795766 0.8415188869665514 
22.004885589795766 0.821808198769704 
23.004885589795766 0.8036248077662438 
24.004885589795766 0.7767611014994233 
25.004885589795766 0.7454563148788927 
26.004885589795766 0.7178808631295656 
27.004885589795766 0.7023101691657055 
28.004885589795766 0.6767207324106114 
29.004885589795766 0.663192522106882 
30.004885589795766 0.6325528642829681 
31.004885589795766 0.6241164455978471 
32.00488558979576 0.6052821030372934 
33.00488558979576 0.5838143983083429 
34.00488558979576 0.5553368896578238 
35.00488558979576 0.5581973279507881 
36.00488558979576 0.5510234044598231 
37.00488558979576 0.5217051134179163 
38.00488558979576 0.5161654171472511 
39.00488558979576 0.5175742502883506 
40.00488558979576 0.5016099577085736 
41.00488558979576 0.4982982506728182 
42.00488558979576 0.5270537773933103 
43.00488558979576 0.6143428008458285 
44.00488558979576 0.6186610918877355 
45.00488558979576 0.6659717416378317 
46.00488558979576 0.6985666570549788 
47.00488558979576 0.6637365436370627 
48.00488558979576 0.7818379950019223 
49.00488558979576 0.7163297770088427 
50.00488558979576 0.6488199250288351 
51.00488558979576 0.7204342079969243 
52.00488558979576 0.8086836793540945 
53.00488558979576 0.6811937716262975 
54.00488558979576 0.6531867550941945 
55.00488558979576 0.7367680699730872 
56.00488558979576 0.7647162149173393 
57.00488558979576 0.775053825451749 
58.00488558979576 0.7114458381391773 
59.00488558979576 0.7576939158016148 
60.00488558979576 0.6193069973087273 
61.00488558979576 0.6708763456362936 
62.00488558979576 0.6293822087658592 
63.00488558979576 0.6278352076124566 
64.00488558979576 0.45593377547097275 
65.00488558979576 0.4175800173010381 
66.00488558979576 0.3786916089965398 
67.00488558979576 0.37178825451749326 
68.00488558979576 0.365003844675125 
69.00488558979576 0.36247813341022683 
70.00488558979576 0.3578914359861592 
71.00488558979576 0.3671470107650903 
72.00488558979576 0.4341544117647057 
73.00488558979576 0.44943002691272566 
74.00488558979576 0.509246203383314 
75.00488558979576 0.5409284890426754 
76.00488558979576 0.5171551806997305 
77.00488558979576 0.6214804402153014 
78.00488558979576 0.5505394559784694 
79.00488558979576 0.5305706939638598 
80.00488558979576 0.5663569300269122 
81.00488558979576 0.6210392637447129 
82.00488558979576 0.5270006728181463 
83.00488558979576 0.5218613033448671 
84.00488558979576 0.5588071895424831 
85.00488558979576 0.5780077374086885 
86.00488558979576 0.6070931853133407 
87.00488558979576 0.5653311226451359 
88.00488558979576 0.6088115148019982 
89.00488558979576 0.4931170703575544 
90.00488558979576 0.5457636485966929 
91.00488558979576 0.488154796232218 
92.00488558979576 0.4991762783544787 
93.00488558979576 0.3604712129950019 
94.00488558979576 0.33036692618223756 
95.00488558979576 0.2658871587850827 
96.00488558979576 0.25782439446366784 
97.00488558979576 0.25 
98.00488558979576 0.25 
99.00488558979576 0.25 
100.00488558979576 0.25 
101.00488558979576 0.25 
102.00488558979576 0.25 
103.00488558979576 0.25 
104.00488558979576 0.25 
105.00488558979576 0.25 
106.00488558979576 0.25 
107.00488558979576 0.25 
108.00488558979576 0.25 
109.00488558979576 0.25 
110.00488558979576 0.25 
111.00488558979576 0.25 
112.00488558979576 0.25 
113.00488558979576 0.25 
114.00488558979576 0.25 
115.00488558979576 0.25 
116.00488558979576 0.25 
117.00488558979576 0.25 
118.00488558979576 0.25 
119.00488558979576 0.25 
120.00488558979576 0.25 
121.00488558979576 0.25 
122.00488558979576 0.25 
123.00488558979576 0.25 
124.00488558979576 0.25 
125.00488558979576 0.25 
126.00488558979576 0.25 
127.00488558979576 0.25 
128.00488558979578 0.25 
129.00488558979578 0.25 
130.00488558979578 0.25 
131.00488558979578 0.25 
132.00488558979578 0.25 
133.00488558979578 0.25 
#####################################################################
# End of data export. Simulation finished at: 2017-05-20T15:49+0000 #
#####################################################################
