#####################################################################
# Alchemist log file - simulation started at: 2017-05-20T22:47+0000 #
#####################################################################
# random = 1.0, targets = 100.0, density = 2.519842099789746, gridShift = 1.0, perturbation = 0.0, connfactor = 1.0
#
# The columns have the following meaning: 
# time se[Mean] 
0.0 NaN 
1.0048855897957667 NaN 
2.0048855897957667 1.0120185855263157 
3.0048855897957667 1.020746774488304 
4.004885589795767 1.0259152777777778 
5.004885589795767 1.029889683845029 
6.004885589795767 1.0320674067982456 
7.004885589795767 1.0386055555555556 
8.004885589795766 1.0421539108187134 
9.004885589795766 1.0502165752923975 
10.004885589795766 1.0386895102339182 
11.004885589795766 1.0366155519005849 
12.004885589795766 1.0417550621345029 
13.004885589795766 1.0351450840643275 
14.004885589795766 1.0391378380847953 
15.004885589795766 1.0222427174707602 
16.004885589795766 1.0169331597222222 
17.004885589795766 1.0077250822368422 
18.004885589795766 0.9912992964181286 
19.004885589795766 0.9918101790935673 
20.004885589795766 0.984587682748538 
21.004885589795766 0.9835032163742691 
22.004885589795766 0.9840287828947368 
23.004885589795766 0.9936565606725146 
24.004885589795766 1.0024319535818713 
25.004885589795766 1.013727110745614 
26.004885589795766 1.0219015350877194 
27.004885589795766 1.0250902869152048 
28.004885589795766 1.0331731542397662 
29.004885589795766 1.03097877375731 
30.004885589795766 1.0279095120614037 
31.004885589795766 1.0287328855994153 
32.00488558979576 1.021823455774854 
33.00488558979576 1.0181207419590643 
34.00488558979576 1.0056527869152045 
35.00488558979576 1.0019821911549707 
36.00488558979576 0.9917955866228069 
37.00488558979576 0.983785827850877 
38.00488558979576 0.972123373538012 
39.00488558979576 0.9616480811403512 
40.00488558979576 0.9529750091374268 
41.00488558979576 0.9386524762426902 
42.00488558979576 0.9307047331871346 
43.00488558979576 0.9142646838450292 
44.00488558979576 0.9016215003654974 
45.00488558979576 0.8931473775584795 
46.00488558979576 0.8777725511695906 
47.00488558979576 0.8648658717105263 
48.00488558979576 0.8511357913011697 
49.00488558979576 0.8320826114766083 
50.00488558979576 0.8192573190789475 
51.00488558979576 0.806183735380117 
52.00488558979576 0.7908681743421053 
53.00488558979576 0.7817536092836259 
54.00488558979576 0.7639795413011696 
55.00488558979576 0.7524359831871346 
56.00488558979576 0.7414351699561406 
57.00488558979576 0.7242402869152048 
58.00488558979576 0.709883744517544 
59.00488558979576 0.699767744883041 
60.00488558979576 0.687359393274854 
61.00488558979576 0.6761144645467838 
62.00488558979576 0.6585203673245614 
63.00488558979576 0.6463317251461991 
64.00488558979576 0.6387524031432751 
65.00488558979576 0.6303330226608188 
66.00488558979576 0.6196710800438598 
67.00488558979576 0.6039551535087719 
68.00488558979576 0.6021942068713452 
69.00488558979576 0.5875483735380119 
70.00488558979576 0.5744562134502925 
71.00488558979576 0.5736541940789476 
72.00488558979576 0.5576149396929826 
73.00488558979576 0.548021436403509 
74.00488558979576 0.5450082693713452 
75.00488558979576 0.5347300804093569 
76.00488558979576 0.5289993603801172 
77.00488558979576 0.518885215643275 
78.00488558979576 0.5222218293128656 
79.00488558979576 0.5142538194444446 
80.00488558979576 0.5094757218567253 
81.00488558979576 0.5104458607456143 
82.00488558979576 0.5112306926169593 
83.00488558979576 0.5112393640350879 
84.00488558979576 0.5122174342105265 
85.00488558979576 0.5092003929093569 
86.00488558979576 0.5108264619883043 
87.00488558979576 0.5070473318713452 
88.00488558979576 0.5055354532163745 
89.00488558979576 0.504227046783626 
90.00488558979576 0.505455171783626 
91.00488558979576 0.5045015168128657 
92.00488558979576 0.502541100146199 
93.00488558979576 0.5019888340643277 
94.00488558979576 0.5012237481725148 
95.00488558979576 0.4991659539473686 
96.00488558979576 0.4994774214181289 
97.00488558979576 0.5003520650584797 
98.00488558979576 0.5020112573099418 
99.00488558979576 0.5030204861111113 
100.00488558979576 0.5035041027046786 
101.00488558979576 0.5038678728070177 
102.00488558979576 0.5040536184210529 
103.00488558979576 0.5041000000000002 
104.00488558979576 0.5041000000000002 
105.00488558979576 0.5041000000000002 
106.00488558979576 0.5041000000000002 
107.00488558979576 0.5041000000000002 
108.00488558979576 0.5041000000000002 
109.00488558979576 0.5041000000000002 
110.00488558979576 0.5041000000000002 
111.00488558979576 0.5041000000000002 
112.00488558979576 0.5041000000000002 
113.00488558979576 0.5041000000000002 
114.00488558979576 0.5041000000000002 
115.00488558979576 0.5041000000000002 
116.00488558979576 0.5041000000000002 
117.00488558979576 0.5041000000000002 
118.00488558979576 0.5041000000000002 
119.00488558979576 0.5041000000000002 
120.00488558979576 0.5041000000000002 
121.00488558979576 0.5041000000000002 
122.00488558979576 0.5041000000000002 
123.00488558979576 0.5041000000000002 
124.00488558979576 0.5041000000000002 
125.00488558979576 0.5041000000000002 
126.00488558979576 0.5041000000000002 
127.00488558979576 0.5041000000000002 
128.00488558979578 0.5041000000000002 
129.00488558979578 0.5041000000000002 
130.00488558979578 0.5041000000000002 
131.00488558979578 0.5041000000000002 
132.00488558979578 0.5041000000000002 
133.00488558979578 0.5041000000000002 
134.00488558979578 0.5041000000000002 
#####################################################################
# End of data export. Simulation finished at: 2017-05-20T22:51+0000 #
#####################################################################
