#####################################################################
# Alchemist log file - simulation started at: 2017-05-21T05:31+0000 #
#####################################################################
# random = 2.0, targets = 3.1622776601683795, density = 0.894427190999916, gridShift = 0.0, perturbation = 0.5, connfactor = 1.0
#
# The columns have the following meaning: 
# time se[Mean] 
0.0 NaN 
1.003288451303821 NaN 
2.003288451303821 NaN 
3.003288451303821 0.9987449265867073 
4.0032884513038205 1.0248241804932152 
5.0032884513038205 0.9913177918920749 
6.0032884513038205 1.1155420001432745 
7.0032884513038205 1.1645052831736429 
8.00328845130382 1.2123521446371115 
9.00328845130382 1.3553408381204817 
10.00328845130382 1.3046911380659831 
11.00328845130382 1.435243285035843 
12.00328845130382 1.4612101729220561 
13.00328845130382 1.4623619405502246 
14.00328845130382 1.498878391819066 
15.00328845130382 1.4396860303824495 
16.00328845130382 1.3459219071240056 
17.00328845130382 1.28569648783615 
18.00328845130382 1.2122261962241339 
19.00328845130382 1.1360747905696922 
20.00328845130382 1.1009750214016751 
21.00328845130382 1.049872528281038 
22.00328845130382 1.0196876270888078 
23.00328845130382 0.9891136686899197 
24.00328845130382 0.9331222792063092 
25.00328845130382 0.9027350062283521 
26.00328845130382 0.8402610415217538 
27.00328845130382 0.809121625743294 
28.00328845130382 0.7827418289298703 
29.00328845130382 0.7641679546898668 
30.00328845130382 0.8128696522325392 
31.00328845130382 0.8321924039686742 
32.00328845130382 0.8052269094130766 
33.00328845130382 0.8559873926909546 
34.00328845130382 0.8018377966034016 
35.00328845130382 0.7849473246158537 
36.00328845130382 0.8388732586638498 
37.00328845130382 0.6976570146383649 
38.00328845130382 0.728903128867497 
39.00328845130382 0.7760539551295323 
40.00328845130382 0.6760085584327954 
41.00328845130382 0.6610037054716165 
42.00328845130382 0.6415209161143753 
43.00328845130382 0.574868209734265 
44.00328845130382 0.5015998642536609 
45.00328845130382 0.49206759275674083 
46.00328845130382 0.414287333112976 
47.00328845130382 0.40983357857089897 
48.00328845130382 0.3902519896658987 
49.00328845130382 0.3958147838575026 
50.00328845130382 0.39777789206799596 
51.00328845130382 0.4196777599542743 
52.00328845130382 0.43122442262044963 
53.00328845130382 0.4500785834846199 
54.00328845130382 0.461161272957225 
55.00328845130382 0.4667026176935275 
56.00328845130382 0.4675444679663244 
57.00328845130382 0.4675444679663244 
58.00328845130382 0.4675444679663244 
59.00328845130382 0.4675444679663244 
60.00328845130382 0.4675444679663244 
61.00328845130382 0.4675444679663244 
62.00328845130382 0.4675444679663244 
63.00328845130382 0.4675444679663244 
64.00328845130382 0.4675444679663244 
65.00328845130382 0.4675444679663244 
66.00328845130382 0.4675444679663244 
67.00328845130382 0.4675444679663244 
68.00328845130382 0.4675444679663244 
69.00328845130382 0.4675444679663244 
70.00328845130382 0.4675444679663244 
71.00328845130382 0.4675444679663244 
72.00328845130382 0.4675444679663244 
73.00328845130382 0.4675444679663244 
74.00328845130382 0.4675444679663244 
#####################################################################
# End of data export. Simulation finished at: 2017-05-21T05:31+0000 #
#####################################################################
