#####################################################################
# Alchemist log file - simulation started at: 2017-05-22T00:48+0000 #
#####################################################################
# random = 3.0, targets = 10.0, density = 2.519842099789746, gridShift = 0.0, perturbation = 0.0, connfactor = 1.0
#
# The columns have the following meaning: 
# time se[Mean] 
0.0 NaN 
1.0016359619213666 NaN 
2.001635961921367 1.0227941176470587 
3.001635961921367 1.0539528066128412 
4.001635961921367 1.076387447135717 
5.001635961921367 1.0765078335255671 
6.001635961921367 1.0569194540561322 
7.001635961921367 1.0323173779315649 
8.001635961921366 1.0350555074971164 
9.001635961921366 1.0216945405613227 
10.001635961921366 1.0124627547097271 
11.001635961921366 1.000250144175317 
12.001635961921366 0.9767039119569396 
13.001635961921366 0.9619189734717416 
14.001635961921366 0.9328760572856594 
15.001635961921366 0.9219081603229528 
16.001635961921366 0.9021741637831603 
17.001635961921366 0.878645953479431 
18.001635961921366 0.8605906382160707 
19.001635961921366 0.8374591503267974 
20.001635961921366 0.8119708765859285 
21.001635961921366 0.8009210399846214 
22.001635961921366 0.7762360630526722 
23.001635961921366 0.7595047577854671 
24.001635961921366 0.738542627835448 
25.001635961921366 0.7088348231449443 
26.001635961921366 0.6801285563244904 
27.001635961921366 0.6510358996539792 
28.001635961921366 0.6237685024990387 
29.001635961921366 0.6007840734332948 
30.001635961921366 0.576459775086505 
31.001635961921366 0.556206507112649 
32.001635961921366 0.533178585159554 
33.001635961921366 0.5160613706266821 
34.001635961921366 0.4871027970011534 
35.001635961921366 0.45894511726259124 
36.001635961921366 0.43493007497116487 
37.001635961921366 0.40623582276047676 
38.001635961921366 0.379886582083814 
39.001635961921366 0.36120554594386756 
40.001635961921366 0.3363958573625529 
41.001635961921366 0.31239162821991534 
42.001635961921366 0.29015787197231846 
43.001635961921366 0.2644461264898116 
44.001635961921366 0.24597750865051882 
45.001635961921366 0.22730199923106506 
46.001635961921366 0.20990172049211842 
47.001635961921366 0.19292916186082273 
48.001635961921366 0.1818903787004999 
49.001635961921366 0.22170247020376774 
50.001635961921366 0.21306853133410225 
51.001635961921366 0.19163759131103422 
52.001635961921366 0.2641089965397923 
53.001635961921366 0.2584707804690502 
54.001635961921366 0.2971801710880428 
55.001635961921366 0.23315047097270297 
56.001635961921366 0.33634683775470964 
57.001635961921366 0.1981432622068434 
58.001635961921366 0.25891892541330264 
59.001635961921366 0.16073505382545172 
60.001635961921366 0.16191512879661663 
61.001635961921366 0.11034337754709728 
62.001635961921366 0.12776792579777008 
63.001635961921366 0.08947712418300657 
64.00163596192137 0.09705594002306801 
65.00163596192137 0.06705954440599765 
66.00163596192137 0.07837754709727024 
67.00163596192137 0.07538134371395622 
68.00163596192137 0.04318267012687429 
69.00163596192137 0.05391315840061518 
70.00163596192137 0.05316176470588228 
71.00163596192137 0.05238898500576702 
72.00163596192137 0.04028498654363706 
73.00163596192137 0.040199923106497504 
74.00163596192137 0.040049980776624375 
75.00163596192137 0.04 
76.00163596192137 0.04 
77.00163596192137 0.04 
78.00163596192137 0.04 
79.00163596192137 0.04 
80.00163596192137 0.04 
81.00163596192137 0.04 
82.00163596192137 0.04 
83.00163596192137 0.04 
84.00163596192137 0.04 
85.00163596192137 0.04 
86.00163596192137 0.04 
87.00163596192137 0.04 
88.00163596192137 0.04 
89.00163596192137 0.04 
90.00163596192137 0.04 
91.00163596192137 0.04 
92.00163596192137 0.04 
93.00163596192137 0.04 
94.00163596192137 0.04 
95.00163596192137 0.04 
96.00163596192137 0.04 
97.00163596192137 0.04 
98.00163596192137 0.04 
99.00163596192137 0.04 
100.00163596192137 0.04 
101.00163596192137 0.04 
102.00163596192137 0.04 
103.00163596192137 0.04 
104.00163596192137 0.04 
105.00163596192137 0.04 
106.00163596192137 0.04 
107.00163596192137 0.04 
108.00163596192137 0.04 
109.00163596192137 0.04 
110.00163596192137 0.04 
111.00163596192137 0.04 
#####################################################################
# End of data export. Simulation finished at: 2017-05-22T00:51+0000 #
#####################################################################
