#####################################################################
# Alchemist log file - simulation started at: 2017-05-25T18:33+0000 #
#####################################################################
# random = 18.0, targets = 100.0, density = 0.07978946395100113, gridShift = 0.0, perturbation = 0.5, connfactor = 0.5
#
# The columns have the following meaning: 
# time se[Mean] 
0.0 NaN 
1.0067713218599703 NaN 
2.0067713218599703 NaN 
3.0067713218599703 1.0095234375 
4.00677132185997 1.0177015624999999 
5.00677132185997 1.02794375 
6.00677132185997 1.0097109375 
7.00677132185997 1.0004059027777779 
8.00677132185997 0.9858390625 
9.00677132185997 0.9413836805555555 
10.00677132185997 0.8862463975694445 
11.00677132185997 0.9029798611111112 
12.00677132185997 0.8054731770833334 
13.00677132185997 0.7676784722222223 
14.00677132185997 0.7797128038194445 
15.00677132185997 0.7116148871527778 
16.006771321859972 0.67520390625 
17.006771321859972 0.7323452256944445 
18.006771321859972 0.7125157552083333 
19.006771321859972 0.6897885416666667 
20.006771321859972 0.6828131510416666 
21.006771321859972 0.6777106770833333 
22.006771321859972 0.656437673611111 
23.006771321859972 0.6563532552083333 
24.006771321859972 0.6561 
25.006771321859972 0.6561 
26.006771321859972 0.6561 
27.006771321859972 0.6561 
28.006771321859972 0.6561 
29.006771321859972 0.6561 
30.006771321859972 0.6561 
31.006771321859972 0.6561 
32.00677132185997 0.6561 
#####################################################################
# End of data export. Simulation finished at: 2017-05-25T18:33+0000 #
#####################################################################
