#####################################################################
# Alchemist log file - simulation started at: 2017-05-23T15:26+0000 #
#####################################################################
# random = 12.0, targets = 3.1622776601683795, density = 10.026386447354522, gridShift = 1.0, perturbation = 0.5, connfactor = 0.25
#
# The columns have the following meaning: 
# time se[Mean] 
0.0 NaN 
1.0005590746559656 NaN 
2.000559074655966 1.0 
3.000559074655966 1.0 
4.000559074655966 1.0 
5.000559074655966 1.0 
6.000559074655966 1.0 
7.000559074655966 1.0 
8.000559074655966 1.0 
9.000559074655966 1.0 
10.000559074655966 1.0 
11.000559074655966 1.0 
12.000559074655966 1.0 
13.000559074655966 1.0 
14.000559074655966 1.0 
15.000559074655966 1.0 
16.000559074655968 1.0 
17.000559074655968 1.0 
18.000559074655968 1.0 
19.000559074655968 1.0 
20.000559074655968 1.0 
21.000559074655968 1.0 
22.000559074655968 1.0 
23.000559074655968 1.0 
24.000559074655968 1.0 
25.000559074655968 1.0 
26.000559074655968 1.0 
27.000559074655968 1.0 
28.000559074655968 1.0 
29.000559074655968 1.0 
30.000559074655968 1.0 
31.000559074655968 1.0 
32.00055907465597 1.0 
33.00055907465597 1.0 
34.00055907465597 1.0 
35.00055907465597 1.0 
36.00055907465597 1.0 
37.00055907465597 1.0 
38.00055907465597 1.0 
39.00055907465597 1.0 
40.00055907465597 1.0 
41.00055907465597 1.0 
42.00055907465597 1.0 
43.00055907465597 1.0 
44.00055907465597 1.0 
45.00055907465597 1.0 
46.00055907465597 1.0 
47.00055907465597 1.0 
48.00055907465597 1.0 
49.00055907465597 1.0 
50.00055907465597 1.0 
51.00055907465597 1.0 
52.00055907465597 1.0 
53.00055907465597 1.0 
54.00055907465597 1.0 
55.00055907465597 1.0 
56.00055907465597 1.0 
57.00055907465597 1.0 
58.00055907465597 1.0 
59.00055907465597 1.0 
60.00055907465597 1.0 
61.00055907465597 1.0 
62.00055907465597 1.0 
63.00055907465597 1.0 
64.00055907465597 1.0 
65.00055907465597 0.9995092575741625 
66.00055907465597 0.9995092575741625 
67.00055907465597 0.9970555454449751 
68.00055907465597 0.99331393783551 
69.00055907465597 0.9923324529838351 
70.00055907465597 0.9832549316560253 
71.00055907465597 0.9784720133293857 
72.00055907465597 0.9720301088276303 
73.00055907465597 0.9636276617228942 
74.00055907465597 0.9583515738700494 
75.00055907465597 0.9484146465219309 
76.00055907465597 0.9396435358227236 
77.00055907465597 0.9343173305058512 
78.00055907465597 1.011780373151179 
79.00055907465597 1.0129898776067077 
80.00055907465597 1.3695855091176385 
81.00055907465597 1.8762223693771507 
82.00055907465597 1.6180042221119824 
83.00055907465597 2.0375596585084756 
84.00055907465597 1.862168741167691 
85.00055907465597 2.0297013500376746 
86.00055907465597 2.280357891059183 
87.00055907465597 2.1936022946277123 
88.00055907465597 2.441092067334755 
89.00055907465597 2.516089262349075 
90.00055907465597 2.416777259802313 
91.00055907465597 2.3136258418184057 
92.00055907465597 2.392939483737181 
93.00055907465597 2.470706509910757 
94.00055907465597 2.457162189286374 
95.00055907465597 2.5415271781982116 
96.00055907465597 2.7736518800248238 
97.00055907465597 2.16616453441814 
98.00055907465597 2.7618797676491544 
99.00055907465597 2.6509524347762286 
100.00055907465597 2.4007422245609695 
101.00055907465597 3.0852892460003774 
102.00055907465597 3.142934981070912 
103.00055907465597 2.6219016754678175 
104.00055907465597 3.046620829287266 
105.00055907465597 2.932370669863382 
106.00055907465597 2.583123315425182 
107.00055907465597 2.9258600827383496 
108.00055907465597 2.9904198995772218 
109.00055907465597 2.8144881223465723 
110.00055907465597 3.058334095271856 
111.00055907465597 2.971052201552733 
112.00055907465597 3.3747138426807544 
113.00055907465597 2.666326618075866 
114.00055907465597 2.7455060456614566 
115.00055907465597 2.7414895797281726 
116.00055907465597 2.9765490277083138 
117.00055907465597 2.2866669441942316 
118.00055907465597 2.7218978646568206 
119.00055907465597 2.800440199981546 
120.00055907465597 2.6426974448116756 
121.00055907465597 3.1523167415884026 
122.00055907465597 2.7205549975118175 
123.00055907465597 2.8919076050160397 
124.00055907465597 2.7995783668609 
125.00055907465597 2.625759911725694 
126.00055907465597 2.6067898746693525 
127.00055907465597 2.001700417883381 
128.00055907465597 2.1571616572194765 
129.00055907465597 1.5385221739646862 
130.00055907465597 1.2606152276135083 
131.00055907465597 0.7427414090237655 
132.00055907465597 0.9117526748286553 
133.00055907465597 0.7346113931424815 
134.00055907465597 0.6419757443587434 
135.00055907465597 0.4675444679663241 
136.00055907465597 0.4675444679663241 
137.00055907465597 0.4675444679663241 
138.00055907465597 0.4675444679663241 
139.00055907465597 0.4675444679663241 
140.00055907465597 0.4675444679663241 
141.00055907465597 0.4675444679663241 
142.00055907465597 0.4675444679663241 
143.00055907465597 0.4675444679663241 
144.00055907465597 0.4675444679663241 
145.00055907465597 0.4675444679663241 
146.00055907465597 0.4675444679663241 
147.00055907465597 0.4675444679663241 
148.00055907465597 0.4675444679663241 
149.00055907465597 0.4675444679663241 
150.00055907465597 0.4675444679663241 
151.00055907465597 0.4675444679663241 
152.00055907465597 0.4675444679663241 
153.00055907465597 0.4675444679663241 
154.00055907465597 0.4675444679663241 
155.00055907465597 0.4675444679663241 
156.00055907465597 0.4675444679663241 
157.00055907465597 0.4675444679663241 
158.00055907465597 0.4675444679663241 
159.00055907465597 0.4675444679663241 
160.00055907465597 0.4675444679663241 
161.00055907465597 0.4675444679663241 
162.00055907465597 0.4675444679663241 
163.00055907465597 0.4675444679663241 
164.00055907465597 0.4675444679663241 
165.00055907465597 0.4675444679663241 
166.00055907465597 0.4675444679663241 
167.00055907465597 0.4675444679663241 
168.00055907465597 0.4675444679663241 
169.00055907465597 0.4675444679663241 
170.00055907465597 0.4675444679663241 
171.00055907465597 0.4675444679663241 
172.00055907465597 0.4675444679663241 
173.00055907465597 0.4675444679663241 
174.00055907465597 0.4675444679663241 
175.00055907465597 0.4675444679663241 
176.00055907465597 0.4675444679663241 
177.00055907465597 0.4675444679663241 
178.00055907465597 0.4675444679663241 
179.00055907465597 0.4675444679663241 
180.00055907465597 0.4675444679663241 
181.00055907465597 0.4675444679663241 
182.00055907465597 0.4675444679663241 
183.00055907465597 0.4675444679663241 
184.00055907465597 0.4675444679663241 
185.00055907465597 0.4675444679663241 
186.00055907465597 0.4675444679663241 
187.00055907465597 0.4675444679663241 
188.00055907465597 0.4675444679663241 
189.00055907465597 0.4675444679663241 
190.00055907465597 0.4675444679663241 
191.00055907465597 0.4675444679663241 
192.00055907465597 0.4675444679663241 
193.00055907465597 0.4675444679663241 
194.00055907465597 0.4675444679663241 
195.00055907465597 0.4675444679663241 
196.00055907465597 0.4675444679663241 
197.00055907465597 0.4675444679663241 
198.00055907465597 0.4675444679663241 
199.00055907465597 0.4675444679663241 
200.00055907465597 0.4675444679663241 
201.00055907465597 0.4675444679663241 
202.00055907465597 0.4675444679663241 
203.00055907465597 0.4675444679663241 
204.00055907465597 0.4675444679663241 
205.00055907465597 0.4675444679663241 
#####################################################################
# End of data export. Simulation finished at: 2017-05-23T15:28+0000 #
#####################################################################
