#####################################################################
# Alchemist log file - simulation started at: 2017-05-25T12:48+0000 #
#####################################################################
# random = 18.0, targets = 1.0, density = 2.519842099789746, gridShift = 1.0, perturbation = 0.0, connfactor = 0.5
#
# The columns have the following meaning: 
# time se[Mean] 
0.0 NaN 
1.001562157851807 NaN 
2.001562157851807 1.0 
3.001562157851807 1.0 
4.001562157851807 1.0 
5.001562157851807 1.0 
6.001562157851807 1.0 
7.001562157851807 1.0 
8.001562157851808 1.0 
9.001562157851808 1.0 
10.001562157851808 1.0 
11.001562157851808 1.0 
12.001562157851808 1.0 
13.001562157851808 1.0 
14.001562157851808 1.0 
15.001562157851808 1.0 
16.001562157851808 1.0 
17.001562157851808 1.0 
18.001562157851808 1.0 
19.001562157851808 1.0 
20.001562157851808 1.0 
21.001562157851808 1.0 
22.001562157851808 1.0 
23.001562157851808 1.0 
24.001562157851808 1.0172697368421053 
25.001562157851808 1.03125 
26.001562157851808 1.0970394736842104 
27.001562157851808 1.074013157894737 
28.001562157851808 1.067434210526316 
29.001562157851808 1.058388157894737 
30.001562157851808 1.0756578947368418 
31.001562157851808 1.0690789473684208 
32.00156215785181 1.235197368421053 
33.00156215785181 1.0805921052631582 
34.00156215785181 1.0740131578947367 
35.00156215785181 1.0452302631578951 
36.00156215785181 1.0822368421052633 
37.00156215785181 1.020559210526316 
38.00156215785181 1.0 
39.00156215785181 1.0180921052631582 
40.00156215785181 1.039473684210526 
41.00156215785181 1.0016447368421046 
42.00156215785181 0.9350328947368418 
43.00156215785181 0.9407894736842105 
44.00156215785181 0.9029605263157896 
45.00156215785181 0.9226973684210525 
46.00156215785181 0.928453947368421 
47.00156215785181 0.9325657894736843 
48.00156215785181 0.9350328947368421 
49.00156215785181 0.9399671052631579 
50.00156215785181 0.9333881578947368 
51.00156215785181 0.9202302631578947 
52.00156215785181 0.9037828947368421 
53.00156215785181 0.861842105263158 
54.00156215785181 0.8577302631578951 
55.00156215785181 0.8231907894736838 
56.00156215785181 0.780427631578947 
57.00156215785181 0.703125 
58.00156215785181 0.6636513157894742 
59.00156215785181 0.6118421052631582 
60.00156215785181 0.5649671052631582 
61.00156215785181 0.5328947368421048 
62.00156215785181 0.578125 
63.00156215785181 0.5222039473684209 
64.00156215785181 0.4786184210526318 
65.00156215785181 0.4358552631578946 
66.00156215785181 0.41365131578947345 
67.00156215785181 0.4054276315789477 
68.00156215785181 0.5271381578947372 
69.00156215785181 0.33963815789473706 
70.00156215785181 0.29029605263157904 
71.00156215785181 0.27138157894736836 
72.00156215785181 0.268092105263158 
73.00156215785181 0.1965460526315791 
74.00156215785181 0.16529605263157876 
75.00156215785181 0.183388157894737 
76.00156215785181 0.19736842105263228 
77.00156215785181 0.13733552631578888 
78.00156215785181 0.07483552631578921 
79.00156215785181 0.04769736842105257 
80.00156215785181 0.027138157894736694 
81.00156215785181 0.0032894736842105383 
82.00156215785181 0.0 
83.00156215785181 0.0 
84.00156215785181 0.0 
85.00156215785181 0.0 
86.00156215785181 0.0 
87.00156215785181 0.0 
88.00156215785181 0.0 
89.00156215785181 0.0 
90.00156215785181 0.0 
91.00156215785181 0.0 
92.00156215785181 0.0 
93.00156215785181 0.0 
94.00156215785181 0.0 
95.00156215785181 0.0 
96.00156215785181 0.0 
97.00156215785181 0.0 
98.00156215785181 0.0 
99.00156215785181 0.0 
100.00156215785181 0.0 
101.00156215785181 0.0 
102.00156215785181 0.0 
103.00156215785181 0.0 
104.00156215785181 0.0 
105.00156215785181 0.0 
106.00156215785181 0.0 
107.00156215785181 0.0 
108.00156215785181 0.0 
109.00156215785181 0.0 
110.00156215785181 0.0 
111.00156215785181 0.0 
112.00156215785181 0.0 
113.00156215785181 0.0 
#####################################################################
# End of data export. Simulation finished at: 2017-05-25T12:48+0000 #
#####################################################################
