#####################################################################
# Alchemist log file - simulation started at: 2017-05-23T09:53+0000 #
#####################################################################
# random = 11.0, targets = 31.622776601683793, density = 0.11269076455391362, gridShift = 1.0, perturbation = 0.5, connfactor = 1.5
#
# The columns have the following meaning: 
# time se[Mean] 
0.0 NaN 
1.0028758930102715 NaN 
2.0028758930102715 1.0853346638440413 
3.0028758930102715 1.1313446769025557 
4.0028758930102715 1.2443079770622962 
5.0028758930102715 1.3799504625640344 
6.0028758930102715 1.317658242694 
7.0028758930102715 1.014034792482824 
8.002875893010271 1.0705586286103483 
9.002875893010271 0.8653393910342927 
10.002875893010271 0.8513567407192038 
11.002875893010271 0.7191535537875435 
12.002875893010271 1.0390211958699747 
13.002875893010271 1.0624368184215032 
14.002875893010271 0.5759554866132208 
15.002875893010271 1.1386606183744596 
16.00287589301027 0.7000647211883011 
17.00287589301027 0.46357752260943924 
18.00287589301027 0.3375394092030093 
19.00287589301027 0.3730708914685534 
20.00287589301027 0.30161444890585937 
21.00287589301027 0.28955907892752036 
22.00287589301027 0.24735898581451843 
23.00287589301027 0.26397690293740544 
24.00287589301027 0.276590679774308 
25.00287589301027 0.2763167019494865 
26.00287589301027 0.271978465257437 
27.00287589301027 0.2763167019494865 
28.00287589301027 0.2763167019494865 
29.00287589301027 0.2763167019494865 
30.00287589301027 0.2763167019494865 
31.00287589301027 0.2763167019494865 
32.00287589301027 0.2763167019494865 
#####################################################################
# End of data export. Simulation finished at: 2017-05-23T09:53+0000 #
#####################################################################
