#####################################################################
# Alchemist log file - simulation started at: 2017-05-22T12:22+0000 #
#####################################################################
# random = 4.0, targets = 1.0, density = 0.04, gridShift = 0.0, perturbation = 0.0, connfactor = 2.0
#
# The columns have the following meaning: 
# time se[Mean] 
0.0 NaN 
1.1124924963623202 NaN 
2.11249249636232 7.921875 
3.11249249636232 9.605902777777779 
4.11249249636232 12.366753472222223 
5.11249249636232 8.842447916666668 
6.11249249636232 14.144097222222223 
7.11249249636232 8.359809027777779 
8.11249249636232 3.424479166666667 
9.11249249636232 2.7534722222222228 
10.11249249636232 1.7013888888888893 
11.11249249636232 0.6805555555555557 
12.11249249636232 0.0 
13.11249249636232 0.0 
#####################################################################
# End of data export. Simulation finished at: 2017-05-22T12:22+0000 #
#####################################################################
