#####################################################################
# Alchemist log file - simulation started at: 2017-05-23T00:23+0000 #
#####################################################################
# random = 10.0, targets = 3.1622776601683795, density = 20.0, gridShift = 1.0, perturbation = 0.5, connfactor = 1.0
#
# The columns have the following meaning: 
# time se[Mean] 
0.0 NaN 
1.0001899309342401 NaN 
2.00018993093424 NaN 
3.00018993093424 1.0 
4.000189930934241 1.0 
5.000189930934241 0.9998617808419474 
6.000189930934241 0.9991272487126004 
7.000189930934241 0.9983360966761684 
8.00018993093424 0.997135560592779 
9.00018993093424 0.9953281646836943 
10.00018993093424 0.9931416374987357 
11.00018993093424 0.9903325690771181 
12.00018993093424 0.9888321419964969 
13.00018993093424 0.9861288198601614 
14.00018993093424 0.9845250063808395 
15.00018993093424 0.9827357906399379 
16.00018993093424 0.979331520212126 
17.00018993093424 0.9769192077520148 
18.00018993093424 0.9742303190194177 
19.00018993093424 0.9700435001349051 
20.00018993093424 0.9679825640225482 
21.00018993093424 0.9642581411982725 
22.00018993093424 0.9610543998747109 
23.00018993093424 0.9579777762865069 
24.00018993093424 0.9540229900273226 
25.00018993093424 0.9495067226419399 
26.00018993093424 0.945858904296963 
27.00018993093424 0.9392199463355746 
28.00018993093424 0.933345913973767 
29.00018993093424 0.9269673008768886 
30.00018993093424 0.9244367565737065 
31.00018993093424 0.9174838990515675 
32.00018993093424 0.9116108442697601 
33.00018993093424 0.9052930190276041 
34.00018993093424 0.9002309510127303 
35.00018993093424 0.8941906759660346 
36.00018993093424 0.8877532283459215 
37.00018993093424 0.8800377996252485 
38.00018993093424 0.8735309596564242 
39.00018993093424 0.8661327807626664 
40.00018993093424 0.8593143983769037 
41.00018993093424 0.8497663093479362 
42.00018993093424 0.8406253943210595 
43.00018993093424 0.8319765772142269 
44.00018993093424 0.8223287215656965 
45.00018993093424 0.8138160506141738 
46.00018993093424 0.8034418470613465 
47.00018993093424 0.796570598846995 
48.00018993093424 0.785322817182737 
49.00018993093424 0.7684227346699017 
50.00018993093424 0.7592571308400002 
51.00018993093424 0.7452477123427348 
52.00018993093424 0.7356101376926587 
53.00018993093424 0.716142457101349 
54.00018993093424 0.7010368811274841 
55.00018993093424 0.6820955821328214 
56.00018993093424 0.6655641050693565 
57.00018993093424 0.6489812806117503 
58.00018993093424 0.6326767199021701 
59.00018993093424 0.6157036481179003 
60.00018993093424 0.5962183730114085 
61.00018993093424 0.5812703091573981 
62.00018993093424 0.56646837643075 
63.00018993093424 0.5509760459240457 
64.00018993093424 0.5356814671088477 
65.00018993093424 0.521696083288685 
66.00018993093424 0.5075069836536508 
67.00018993093424 0.4990431476252154 
68.00018993093424 0.4876896160186503 
69.00018993093424 0.48188136536897797 
70.00018993093424 0.474795969585342 
71.00018993093424 0.4667896718875834 
72.00018993093424 0.4606664052265232 
73.00018993093424 0.4575720153392849 
74.00018993093424 0.4519676230321338 
75.00018993093424 0.4507865142098939 
76.00018993093424 0.4508099687195347 
77.00018993093424 0.4509601206955926 
78.00018993093424 0.45058876160414535 
79.00018993093424 0.454352315777735 
80.00018993093424 0.4581429332690374 
81.00018993093424 0.46093229394546154 
82.00018993093424 0.4648269912743874 
83.00018993093424 0.46900520383640015 
84.00018993093424 0.4719506860977882 
85.00018993093424 0.4767692025384612 
86.00018993093424 0.47853815688013646 
87.00018993093424 0.48342994673333184 
88.00018993093424 0.4877971694507291 
89.00018993093424 0.4967726667882457 
90.00018993093424 0.5025170844859912 
91.00018993093424 0.5069575806158992 
92.00018993093424 0.5144592957500677 
93.00018993093424 0.5208460994717938 
94.00018993093424 0.5277903588997295 
95.00018993093424 0.5324198651850285 
96.00018993093424 0.5365864208417933 
97.00018993093424 0.5421418283841527 
98.00018993093424 0.5458454334123842 
99.00018993093424 0.5546414953544477 
100.00018993093424 0.557882149754162 
101.00018993093424 0.5652893598106256 
102.00018993093424 0.571770668610048 
103.00018993093424 0.5833444343232954 
104.00018993093424 0.5884368912371188 
105.00018993093424 0.5972329531791823 
106.00018993093424 0.6051031138641891 
107.00018993093424 0.611584422663603 
108.00018993093424 0.6222322871197852 
109.00018993093424 0.6319542503189056 
110.00018993093424 0.6375096578612682 
111.00018993093424 0.6458427691747989 
112.00018993093424 0.6537129298598029 
113.00018993093424 0.6588053867736373 
114.00018993093424 0.6662125968301028 
115.00018993093424 0.6731568562580472 
116.00018993093424 0.6810270169430536 
117.00018993093424 0.689823078885117 
118.00018993093424 0.6958414370560063 
119.00018993093424 0.7017650124079251 
120.00018993093424 0.708614489016901 
121.00018993093424 0.7197253041016117 
122.00018993093424 0.7249015803680874 
123.00018993093424 0.7317616038314722 
124.00018993093424 0.7398732312025902 
125.00018993093424 0.7447877812122383 
126.00018993093424 0.7507019215891105 
127.00018993093424 0.7589603716980067 
128.00018993093425 0.7660245394734932 
129.00018993093425 0.7726275500534044 
130.00018993093425 0.7793315944594845 
131.00018993093425 0.7876121176857037 
132.00018993093425 0.793531801917001 
133.00018993093425 0.7999484445406618 
134.00018993093425 0.8039117000802269 
135.00018993093425 0.810900367941718 
136.00018993093425 0.8187368086609771 
137.00018993093425 0.8250218887746232 
138.00018993093425 0.8296484806050499 
139.00018993093425 0.8328931567677064 
140.00018993093425 0.8400979072448485 
141.00018993093425 0.8400731919283976 
142.00018993093425 0.8467066051211022 
143.00018993093425 0.8499078522587274 
144.00018993093425 0.8530055558418904 
145.00018993093425 0.8539923874813331 
146.00018993093425 0.857349053622424 
147.00018993093425 0.8612572122606298 
148.00018993093425 0.8584889306649092 
149.00018993093425 0.8577297115610549 
150.00018993093425 0.8526730448729443 
151.00018993093425 0.8492411657016989 
152.00018993093425 0.8465372953968612 
153.00018993093425 0.8430379552662433 
154.00018993093425 0.8395350182128949 
155.00018993093425 0.8310595170509028 
156.00018993093425 0.8304992939887488 
157.00018993093425 0.8219784058989503 
158.00018993093425 0.8156268451487023 
159.00018993093425 0.8072532018941435 
160.00018993093425 0.803189205812044 
161.00018993093425 0.7990841287061581 
162.00018993093425 0.7855920588143004 
163.00018993093425 0.7762943315062992 
164.00018993093425 0.7674541461860188 
165.00018993093425 0.7569182534231439 
166.00018993093425 0.7461517313694165 
167.00018993093425 0.9166756597195358 
168.00018993093425 1.08925998607034 
169.00018993093425 1.0771867467508978 
170.00018993093425 1.7937256954974004 
171.00018993093425 1.6030786585774233 
172.00018993093425 1.9552932678015915 
173.00018993093425 2.6680242347416394 
174.00018993093425 2.2963576510220065 
175.00018993093425 2.6472885936777835 
176.00018993093425 3.1828873555745965 
177.00018993093425 3.3534265423238927 
178.00018993093425 3.7048147464834447 
179.00018993093425 3.6946280300802496 
180.00018993093425 3.8638971632406736 
181.00018993093425 3.851822280330122 
182.00018993093425 5.111544684922391 
183.00018993093425 4.194418456195774 
184.00018993093425 5.358879565010958 
185.00018993093425 6.397353093940383 
186.00018993093425 5.63536987195385 
187.00018993093425 7.9045428995119815 
188.00018993093425 7.82447884530037 
189.00018993093425 9.092352853722339 
190.00018993093425 9.259369537286576 
191.00018993093425 10.751881599697855 
192.00018993093425 10.879898926486387 
193.00018993093425 12.480816678356481 
194.00018993093425 14.014082189984089 
195.00018993093425 14.374258700358366 
196.00018993093425 15.117779556901276 
197.00018993093425 15.408377342286554 
198.00018993093425 16.536169683292115 
199.00018993093425 17.62731596910401 
200.00018993093425 16.617162233514907 
201.00018993093425 18.100036364908895 
202.00018993093425 19.858879399050213 
203.00018993093425 19.815101844031453 
204.00018993093425 19.64498271516889 
205.00018993093425 20.302468733445963 
206.00018993093425 22.534706836790836 
207.00018993093425 20.120141462640483 
208.00018993093425 22.672974348435158 
209.00018993093425 21.074031009967143 
210.00018993093425 24.55835959056785 
211.00018993093425 24.0652713579236 
212.00018993093425 24.99745844911809 
213.00018993093425 25.54622037051741 
214.00018993093425 24.92864858473379 
215.00018993093425 26.137653773056417 
216.00018993093425 26.11840918169618 
217.00018993093425 26.032999525951563 
218.00018993093425 25.680827814040537 
219.00018993093425 26.094126620899978 
220.00018993093425 26.353858918124313 
221.00018993093425 24.417296904254567 
222.00018993093425 25.15313836713081 
223.00018993093425 25.828418666445266 
224.00018993093425 25.24276338429519 
225.00018993093425 25.190681776571424 
226.00018993093425 23.349822415589507 
227.00018993093425 26.096440179158265 
228.00018993093425 23.595448240293717 
229.00018993093425 25.735998046932487 
230.00018993093425 23.547520009230343 
231.00018993093425 23.537033557157006 
232.00018993093425 23.059557885906866 
233.00018993093425 23.141924086203446 
234.00018993093425 21.52943329314376 
235.00018993093425 24.204185908191306 
236.00018993093425 21.444180206680674 
237.00018993093425 19.911505540967465 
238.00018993093425 19.01276157949625 
239.00018993093425 15.749672732866703 
240.00018993093425 15.458541835278943 
241.00018993093425 16.07923468782591 
242.00018993093425 15.470348621253821 
243.00018993093425 14.17885498542894 
244.00018993093425 15.41450955137987 
245.00018993093425 15.138826848120695 
246.00018993093425 15.86960235734659 
247.00018993093425 15.776656698220364 
248.00018993093425 15.48134960164641 
249.00018993093425 16.875557386032252 
250.00018993093425 14.774277203018174 
251.00018993093425 14.958371325088576 
252.00018993093425 15.279373427724812 
253.00018993093425 14.237081604087617 
254.00018993093425 12.857613823438301 
255.00018993093425 10.560264305152426 
256.00018993093425 6.897063336987977 
257.00018993093425 4.627177797391049 
258.00018993093425 3.0043254836230897 
259.00018993093425 2.377118845746674 
260.00018993093425 1.8615936686290224 
261.00018993093425 1.5331917872958405 
262.00018993093425 1.6787060897358093 
263.00018993093425 1.6493723814209846 
264.00018993093425 1.726498911967419 
265.00018993093425 1.6726373745503527 
266.00018993093425 1.676242200595836 
267.00018993093425 1.8706829302748635 
268.00018993093425 1.51124065326129 
269.00018993093425 1.5067062194215657 
270.00018993093425 1.6821362477003254 
271.00018993093425 1.4210853040492633 
272.00018993093425 1.16024724441782 
273.00018993093425 0.8507168302622325 
274.00018993093425 0.33694835395694767 
275.00018993093425 0.15327956685785388 
276.00018993093425 0.10048575043569222 
277.00018993093425 0.04794852297104723 
278.00018993093425 0.0037320765893929914 
279.00018993093425 0.0033829203433268736 
280.00018993093425 0.0031674041813005804 
281.00018993093425 0.0029332930676917754 
282.00018993093425 0.002741647112960665 
283.00018993093425 0.002685443817788293 
284.00018993093425 0.0026646278502619517 
285.00018993093425 0.002643811882735607 
286.00018993093425 0.0026334038989724354 
287.00018993093425 0.0026334038989724354 
288.00018993093425 0.0026334038989724354 
289.00018993093425 0.0026334038989724354 
290.00018993093425 0.0026334038989724354 
291.00018993093425 0.0026334038989724354 
292.00018993093425 0.0026334038989724354 
293.00018993093425 0.0026334038989724354 
294.00018993093425 0.0026334038989724354 
295.00018993093425 0.0026334038989724354 
296.00018993093425 0.0026334038989724354 
297.00018993093425 0.0026334038989724354 
298.00018993093425 0.0026334038989724354 
299.00018993093425 0.0026334038989724354 
300.00018993093425 0.0026334038989724354 
301.00018993093425 0.0026334038989724354 
302.00018993093425 0.0026334038989724354 
303.00018993093425 0.0026334038989724354 
304.00018993093425 0.0026334038989724354 
305.00018993093425 0.0026334038989724354 
306.00018993093425 0.0026334038989724354 
307.00018993093425 0.0026334038989724354 
308.00018993093425 0.0026334038989724354 
309.00018993093425 0.0026334038989724354 
310.00018993093425 0.0026334038989724354 
311.00018993093425 0.0026334038989724354 
312.00018993093425 0.0026334038989724354 
313.00018993093425 0.0026334038989724354 
314.00018993093425 0.0026334038989724354 
315.00018993093425 0.0026334038989724354 
316.00018993093425 0.0026334038989724354 
317.00018993093425 0.0026334038989724354 
318.00018993093425 0.0026334038989724354 
319.00018993093425 0.0026334038989724354 
320.00018993093425 0.0026334038989724354 
321.00018993093425 0.0026334038989724354 
322.00018993093425 0.0026334038989724354 
323.00018993093425 0.0026334038989724354 
324.00018993093425 0.0026334038989724354 
325.00018993093425 0.0026334038989724354 
326.00018993093425 0.0026334038989724354 
327.00018993093425 0.0026334038989724354 
328.00018993093425 0.0026334038989724354 
329.00018993093425 0.0026334038989724354 
330.00018993093425 0.0026334038989724354 
331.00018993093425 0.0026334038989724354 
332.00018993093425 0.0026334038989724354 
333.00018993093425 0.0026334038989724354 
334.00018993093425 0.0026334038989724354 
335.00018993093425 0.0026334038989724354 
336.00018993093425 0.0026334038989724354 
337.00018993093425 0.0026334038989724354 
338.00018993093425 0.0026334038989724354 
339.00018993093425 0.0026334038989724354 
340.00018993093425 0.0026334038989724354 
341.00018993093425 0.0026334038989724354 
342.00018993093425 0.0026334038989724354 
343.00018993093425 0.0026334038989724354 
344.00018993093425 0.0026334038989724354 
345.00018993093425 0.0026334038989724354 
346.00018993093425 0.0026334038989724354 
347.00018993093425 0.0026334038989724354 
348.00018993093425 0.0026334038989724354 
349.00018993093425 0.0026334038989724354 
350.00018993093425 0.0026334038989724354 
351.00018993093425 0.0026334038989724354 
352.00018993093425 0.0026334038989724354 
353.00018993093425 0.0026334038989724354 
354.00018993093425 0.0026334038989724354 
355.00018993093425 0.0026334038989724354 
356.00018993093425 0.0026334038989724354 
357.00018993093425 0.0026334038989724354 
358.00018993093425 0.0026334038989724354 
359.00018993093425 0.0026334038989724354 
360.00018993093425 0.0026334038989724354 
361.00018993093425 0.0026334038989724354 
362.00018993093425 0.0026334038989724354 
363.00018993093425 0.0026334038989724354 
364.00018993093425 0.0026334038989724354 
365.00018993093425 0.0026334038989724354 
366.00018993093425 0.0026334038989724354 
367.00018993093425 0.0026334038989724354 
368.00018993093425 0.0026334038989724354 
369.00018993093425 0.0026334038989724354 
370.00018993093425 0.0026334038989724354 
371.00018993093425 0.0026334038989724354 
372.00018993093425 0.0026334038989724354 
373.00018993093425 0.0026334038989724354 
374.00018993093425 0.0026334038989724354 
375.00018993093425 0.0026334038989724354 
376.00018993093425 0.0026334038989724354 
377.00018993093425 0.0026334038989724354 
378.00018993093425 0.0026334038989724354 
379.00018993093425 0.0026334038989724354 
380.00018993093425 0.0026334038989724354 
381.00018993093425 0.0026334038989724354 
382.00018993093425 0.0026334038989724354 
383.00018993093425 0.0026334038989724354 
384.00018993093425 0.0026334038989724354 
385.00018993093425 0.0026334038989724354 
386.00018993093425 0.0026334038989724354 
#####################################################################
# End of data export. Simulation finished at: 2017-05-23T00:31+0000 #
#####################################################################
