0.000000000000000000e+00 nan
1.000119569058309787e+00 2.738885596684847989e+00
2.000239138116619575e+00 1.229727104472013277e+00
3.000358707174930917e+00 1.318604106696690703e+00
4.000478276233239150e+00 1.454984833643192310e+00
5.000597845291550492e+00 1.710177483311634550e+00
6.000717414349861834e+00 1.853372547874428511e+00
7.000836983408166958e+00 2.186980248959134343e+00
8.000956552466478300e+00 2.348241147242906113e+00
9.001076121524789642e+00 2.543274347395988233e+00
1.000119569058310098e+01 2.659361180634137511e+00
1.100131525964141410e+01 2.817217714086281077e+00
1.200143482869972367e+01 3.006275980351279298e+00
1.300155439775803501e+01 3.122597871897716093e+00
1.400167396681633392e+01 3.202508290812527303e+00
1.500179353587464526e+01 3.559484514445852010e+00
1.600191310493295660e+01 3.674488617396391543e+00
1.700203267399126972e+01 4.119945391606719021e+00
1.800215224304957928e+01 4.100883525297937204e+00
1.900227181210788885e+01 4.663276029788814725e+00
2.000239138116620197e+01 4.939274525230453072e+00
2.100251095022451508e+01 4.875599455918333547e+00
2.200263051928282820e+01 5.129856433683842809e+00
2.300275008834114132e+01 4.931902939744282399e+00
2.400286965739944733e+01 5.168697484408772524e+00
2.500298922645775690e+01 5.227158665721900910e+00
2.600310879551607002e+01 5.423748261284280225e+00
2.700322836457438314e+01 5.839833725977272572e+00
2.800334793363266783e+01 6.066540500358419408e+00
2.900346750269098806e+01 5.907791601954212268e+00
3.000358707174929052e+01 5.980179176060422819e+00
3.100370664080761429e+01 6.160897818291721784e+00
3.200382620986591320e+01 6.017673261529396633e+00
3.300394577892424053e+01 6.552283060753193666e+00
3.400406534798253944e+01 6.892845548265650990e+00
3.500418491704086676e+01 7.122928666234099815e+00
3.600430448609915857e+01 6.285002470753990877e+00
3.700442405515745747e+01 7.162036100180841025e+00
3.800454362421577770e+01 6.794140136600744562e+00
3.900466319327406950e+01 6.692230132422507971e+00
4.000478276233240393e+01 7.460714124008422488e+00
4.100490233139069574e+01 6.654336925909663414e+00
4.200502190044903017e+01 6.657202974806412321e+00
4.300514146950732197e+01 6.276048371494447942e+00
4.400526103856565641e+01 5.501329478296155706e+00
4.500538060762392689e+01 5.170057858907384229e+00
4.600550017668228264e+01 4.583321719896289004e+00
4.700561974574055313e+01 4.860662054970934065e+00
4.800573931479889467e+01 4.711917400397097389e+00
4.900585888385717936e+01 4.460850266452774271e+00
5.000597845291551380e+01 4.835030758685990193e+00
5.100609802197380560e+01 4.951432675718137055e+00
5.200621759103214004e+01 4.617202947638276989e+00
5.300633716009043184e+01 4.683174143909908160e+00
5.400645672914876627e+01 4.672540892435211646e+00
5.500657629820705807e+01 4.351054709466122716e+00
5.600669586726533566e+01 4.367156642585330317e+00
5.700681543632367010e+01 4.181804429998965844e+00
5.800693500538197611e+01 4.102726253019073788e+00
5.900705457444027502e+01 4.088592000879888388e+00
6.000717414349858103e+01 4.003424878756385752e+00
6.100729371255692257e+01 3.946573713020506080e+00
6.200741328161522858e+01 3.946573713020506080e+00
6.300753285067352749e+01 3.918218865872337808e+00
6.400765241973182640e+01 3.918218865872337808e+00
6.500777198879016794e+01 3.918218865872337808e+00
6.600789155784848106e+01 3.918218865872337808e+00
6.700801112690675154e+01 3.918218865872337808e+00
6.800813069596507887e+01 3.918218865872337808e+00
6.900825026502342041e+01 3.918218865872337808e+00
7.000836983408173353e+01 3.918218865872337808e+00
7.100848940313996138e+01 3.918218865872337808e+00
7.200860897219831713e+01 3.918218865872337808e+00
7.300872854125667288e+01 3.918218865872337808e+00
7.400884811031491495e+01 3.918218865872337808e+00
7.500896767937321385e+01 3.918218865872337808e+00
7.600908724843155539e+01 3.918218865872337808e+00
