#####################################################################
# Alchemist log file - simulation started at: 2017-05-23T10:35+0000 #
#####################################################################
# random = 5.0, targets = 10.0, density = 2.519842099789746, gridShift = 0.0, perturbation = 0.5, connfactor = 0.75
#
# The columns have the following meaning: 
# time se[Mean] 
0.0 NaN 
1.0031365367908396 NaN 
2.00313653679084 1.0087716262975779 
3.00313653679084 1.0135577662437525 
4.00313653679084 1.0273094482891196 
5.00313653679084 1.0165354671280276 
6.00313653679084 1.0160632929642446 
7.00313653679084 0.997513216070742 
8.00313653679084 1.016354767397155 
9.00313653679084 1.0062266916570548 
10.00313653679084 0.9918872549019607 
11.00313653679084 0.9930286428296808 
12.00313653679084 0.9526763744713572 
13.00313653679084 0.9322323144944251 
14.00313653679084 0.9219408400615148 
15.00313653679084 0.9084119088811994 
16.00313653679084 0.8680192714340637 
17.00313653679084 0.8857900807381778 
18.00313653679084 0.8380620434448289 
19.00313653679084 0.8197291906958863 
20.00313653679084 0.8222457708573626 
21.00313653679084 0.8126862264513649 
22.00313653679084 0.7672301518646675 
23.00313653679084 0.7856137062668205 
24.00313653679084 0.7782223183391005 
25.00313653679084 0.7805022106881966 
26.00313653679084 0.7753337658592849 
27.00313653679084 0.7766073144944252 
28.00313653679084 0.7766580161476356 
29.00313653679084 0.7884640522875815 
30.00313653679084 0.789688581314879 
31.00313653679084 0.7868915801614765 
32.00313653679084 0.7856362937331794 
33.00313653679084 0.7852703287197232 
34.00313653679084 0.7829233948481353 
35.00313653679084 0.7769888985005767 
36.00313653679084 0.7650305171088043 
37.00313653679084 0.7531857939254133 
38.00313653679084 0.7498591887735486 
39.00313653679084 0.7234686178392926 
40.00313653679084 0.7137648981161092 
41.00313653679084 0.6996119281045753 
42.00313653679084 0.684732795078816 
43.00313653679084 0.6714234909650134 
44.00313653679084 0.7134642925797772 
45.00313653679084 0.7405257593233372 
46.00313653679084 0.6480863129565553 
47.00313653679084 0.9285990965013462 
48.00313653679084 0.5339826028450596 
49.00313653679084 1.1969369953863895 
50.00313653679084 1.1079921184159949 
51.00313653679084 0.8438413110342181 
52.00313653679084 1.059888744713572 
53.00313653679084 0.9030685313341027 
54.00313653679084 1.0921986735870823 
55.00313653679084 1.0620607458669749 
56.00313653679084 1.071383842752788 
57.00313653679084 0.9166347078046908 
58.00313653679084 0.94277921953095 
59.00313653679084 1.2175655997693198 
60.00313653679084 1.2716921376393693 
61.00313653679084 1.1321345155709348 
62.00313653679084 1.3435683391003468 
63.00313653679084 1.1005685313341025 
64.00313653679083 0.9950655997693201 
65.00313653679083 0.9124983179546332 
66.00313653679083 1.0718764417531723 
67.00313653679083 1.1436281718569792 
68.00313653679083 0.7701982410611306 
69.00313653679083 0.7570893406382164 
70.00313653679083 0.4678815840061515 
71.00313653679083 0.4081206747404852 
72.00313653679083 0.34212033833141076 
73.00313653679083 0.2047474529027298 
74.00313653679083 0.15378652441368704 
75.00313653679083 0.1392692714340638 
76.00313653679083 0.12174908688965783 
77.00313653679083 0.11532944059976932 
78.00313653679083 0.09836985774702038 
79.00313653679083 0.0932103037293349 
80.00313653679083 0.09107771049596312 
81.00313653679083 0.08727268358323723 
82.00313653679083 0.08519463667820071 
83.00313653679083 0.0857992118415994 
84.00313653679083 0.0850881872356786 
85.00313653679083 0.08577734525182623 
86.00313653679083 0.08700980392156864 
87.00313653679083 0.0883374183006536 
88.00313653679083 0.08963836024605921 
89.00313653679083 0.0893418396770473 
90.00313653679083 0.09005382545174932 
91.00313653679083 0.09003075740099961 
92.00313653679083 0.09028162245290274 
93.00313653679083 0.09020280661284122 
94.00313653679083 0.09001153402537486 
95.00313653679083 0.08996635909265667 
96.00313653679083 0.09 
97.00313653679083 0.09 
98.00313653679083 0.09 
99.00313653679083 0.09 
100.00313653679083 0.09 
101.00313653679083 0.09 
102.00313653679083 0.09 
103.00313653679083 0.09 
104.00313653679083 0.09 
105.00313653679083 0.09 
106.00313653679083 0.09 
107.00313653679083 0.09 
108.00313653679083 0.09 
109.00313653679083 0.09 
110.00313653679083 0.09 
111.00313653679083 0.09 
112.00313653679083 0.09 
113.00313653679083 0.09 
114.00313653679083 0.09 
115.00313653679083 0.09 
116.00313653679083 0.09 
117.00313653679083 0.09 
118.00313653679083 0.09 
119.00313653679083 0.09 
120.00313653679083 0.09 
121.00313653679083 0.09 
122.00313653679083 0.09 
123.00313653679083 0.09 
124.00313653679083 0.09 
125.00313653679083 0.09 
126.00313653679083 0.09 
127.00313653679083 0.09 
128.00313653679083 0.09 
129.00313653679083 0.09 
130.00313653679083 0.09 
131.00313653679083 0.09 
#####################################################################
# End of data export. Simulation finished at: 2017-05-23T10:37+0000 #
#####################################################################
