#####################################################################
# Alchemist log file - simulation started at: 2017-05-23T15:03+0000 #
#####################################################################
# random = 12.0, targets = 3.1622776601683795, density = 0.3174802103936399, gridShift = 1.0, perturbation = 0.5, connfactor = 2.0
#
# The columns have the following meaning: 
# time se[Mean] 
0.0 NaN 
1.0242474491697862 NaN 
2.024247449169786 1.1731828324712015 
3.024247449169786 1.2723368972013005 
4.024247449169787 1.522420256532852 
5.024247449169787 1.6619982616617812 
6.024247449169787 1.5509289850114478 
7.024247449169787 1.4532630155194437 
8.024247449169787 1.4534927438653833 
9.024247449169787 1.3988822955300455 
10.024247449169787 1.3017391273489982 
11.024247449169787 1.22761115325869 
12.024247449169787 1.3584909942301213 
13.024247449169787 1.2805572827409535 
14.024247449169787 1.411494564398592 
15.024247449169787 1.2566165924084516 
16.024247449169785 1.3777585705333422 
17.024247449169785 1.4386686220432832 
18.024247449169785 1.561991850798224 
19.024247449169785 1.4325087018283962 
20.024247449169785 1.6594020013044972 
21.024247449169785 1.6171492231066862 
22.024247449169785 1.9098737383939144 
23.024247449169785 2.4585792689794044 
24.024247449169785 2.0457145757507975 
25.024247449169785 2.931072168689874 
26.024247449169785 2.2071160097275 
27.024247449169785 3.8267314781254234 
28.024247449169785 4.092531309491245 
29.024247449169785 4.703894741765748 
30.024247449169785 4.2457743790959945 
31.024247449169785 4.83829114872738 
32.024247449169785 5.6254045669526915 
33.024247449169785 4.712670567715264 
34.024247449169785 5.221151859652826 
35.024247449169785 3.3122891512031862 
36.024247449169785 4.538940639276492 
37.024247449169785 3.462640885109121 
38.024247449169785 2.791812914379081 
39.024247449169785 3.5335002058855776 
40.024247449169785 2.9120972869638884 
41.024247449169785 3.6068064361659316 
42.024247449169785 3.9938187144633024 
43.024247449169785 4.343602521168501 
44.024247449169785 4.446599542877857 
45.024247449169785 4.657647885098356 
46.024247449169785 5.224245810143763 
47.024247449169785 4.981413537671701 
48.024247449169785 5.02189821018574 
49.024247449169785 4.2658932098208675 
50.024247449169785 4.680225132655515 
51.024247449169785 4.124665203011803 
52.024247449169785 3.826266959367602 
53.024247449169785 3.9332825171449493 
54.024247449169785 3.790625789362732 
55.024247449169785 3.7973665961010274 
56.024247449169785 3.7902289639659066 
57.024247449169785 3.7973665961010274 
58.024247449169785 3.7973665961010274 
59.024247449169785 3.7973665961010274 
60.024247449169785 3.7973665961010274 
61.024247449169785 3.7973665961010274 
62.024247449169785 3.7973665961010274 
63.024247449169785 3.7973665961010274 
64.02424744916979 3.7973665961010274 
65.02424744916979 3.7973665961010274 
66.02424744916979 3.7973665961010274 
#####################################################################
# End of data export. Simulation finished at: 2017-05-23T15:03+0000 #
#####################################################################
