#####################################################################
# Alchemist log file - simulation started at: 2017-05-25T13:18+0000 #
#####################################################################
# random = 8.0, targets = 10.0, density = 3.5589026259761294, gridShift = 1.0, perturbation = 0.0, connfactor = 0.5
#
# The columns have the following meaning: 
# time se[Mean] 
0.0 NaN 
1.001230439556543 NaN 
2.001230439556543 1.0 
3.001230439556543 0.9997667464114832 
4.001230439556543 0.9967822966507177 
5.001230439556543 0.9917822966507177 
6.001230439556543 0.9860944976076556 
7.001230439556543 0.9729007177033493 
8.001230439556544 0.9672607655502392 
9.001230439556544 0.9530083732057416 
10.001230439556544 0.9471411483253589 
11.001230439556544 0.9306578947368421 
12.001230439556544 0.9194318181818183 
13.001230439556544 0.8926076555023924 
14.001230439556544 0.8779186602870814 
15.001230439556544 0.8458552631578947 
16.001230439556544 0.8294198564593301 
17.001230439556544 0.8106578947368421 
18.001230439556544 0.7785526315789474 
19.001230439556544 0.7752033492822966 
20.001230439556544 0.7585287081339712 
21.001230439556544 0.7423983253588516 
22.001230439556544 0.7439413875598085 
23.001230439556544 0.7302212918660288 
24.001230439556544 0.7322846889952154 
25.001230439556544 0.7154605263157895 
26.001230439556544 0.7132715311004785 
27.001230439556544 0.7193899521531101 
28.001230439556544 0.718403110047847 
29.001230439556544 0.7198983253588518 
30.001230439556544 0.7213277511961722 
31.001230439556544 0.7337858851674641 
32.001230439556544 0.7343421052631579 
33.001230439556544 0.751596889952153 
34.001230439556544 0.7567224880382776 
35.001230439556544 0.7600059808612443 
36.001230439556544 0.7612260765550242 
37.001230439556544 0.7602990430622009 
38.001230439556544 0.779102870813397 
39.001230439556544 0.7665669856459333 
40.001230439556544 0.7775478468899523 
41.001230439556544 0.7846232057416267 
42.001230439556544 0.779366028708134 
43.001230439556544 0.7833552631578949 
44.001230439556544 0.7801973684210526 
45.001230439556544 0.7928767942583732 
46.001230439556544 0.7782655502392346 
47.001230439556544 0.7747547846889954 
48.001230439556544 0.7773325358851676 
49.001230439556544 0.7675837320574161 
50.001230439556544 0.7658253588516749 
51.001230439556544 0.7567763157894734 
52.001230439556544 0.7528827751196172 
53.001230439556544 0.748594497607656 
54.001230439556544 0.725741626794258 
55.001230439556544 0.728827751196172 
56.001230439556544 0.71380980861244 
57.001230439556544 0.701824162679426 
58.001230439556544 0.6932476076555021 
59.001230439556544 0.6820813397129187 
60.001230439556544 0.6794497607655503 
61.001230439556544 0.6638038277511963 
62.001230439556544 0.6568899521531099 
63.001230439556544 0.6523265550239236 
64.00123043955654 0.6325598086124401 
65.00123043955654 0.6278648325358852 
66.00123043955654 0.616907894736842 
67.00123043955654 0.6034988038277511 
68.00123043955654 0.5911363636363633 
69.00123043955654 0.5764772727272729 
70.00123043955654 0.5614832535885168 
71.00123043955654 0.5509210526315789 
72.00123043955654 0.5297368421052631 
73.00123043955654 0.5151255980861247 
74.00123043955654 0.5184270334928232 
75.00123043955654 0.4976614832535886 
76.00123043955654 0.5431818181818182 
77.00123043955654 0.544407894736842 
78.00123043955654 0.47217703349282314 
79.00123043955654 0.5731877990430624 
80.00123043955654 0.4850239234449761 
81.00123043955654 0.4638636363636363 
82.00123043955654 0.4653708133971292 
83.00123043955654 0.4932834928229666 
84.00123043955654 0.46795454545454546 
85.00123043955654 0.5168660287081337 
86.00123043955654 0.507799043062201 
87.00123043955654 0.8079904306220098 
88.00123043955654 0.8576734449760761 
89.00123043955654 0.5843959330143542 
90.00123043955654 1.175753588516745 
91.00123043955654 0.6481818181818186 
92.00123043955654 0.6283133971291863 
93.00123043955654 0.5513038277511961 
94.00123043955654 0.6262440191387564 
95.00123043955654 0.6768002392344493 
96.00123043955654 0.35985645933014343 
97.00123043955654 0.5420633971291867 
98.00123043955654 0.5295933014354068 
99.00123043955654 0.4790011961722489 
100.00123043955654 0.5551255980861242 
101.00123043955654 0.534688995215311 
102.00123043955654 0.39803229665071754 
103.00123043955654 0.38282296650717706 
104.00123043955654 0.2737559808612441 
105.00123043955654 0.31525119617224895 
106.00123043955654 0.31343301435406673 
107.00123043955654 0.22315191387559857 
108.00123043955654 0.14617822966507193 
109.00123043955654 0.29187200956937737 
110.00123043955654 0.04482655502392353 
111.00123043955654 0.127858851674641 
112.00123043955654 0.10090909090909081 
113.00123043955654 0.17367822966507163 
114.00123043955654 0.2434988038277521 
115.00123043955654 0.09950956937799046 
116.00123043955654 0.10336124401913807 
117.00123043955654 0.08866028708134027 
118.00123043955654 0.015568181818181774 
119.00123043955654 0.01247607655502388 
120.00123043955654 0.00630382775119615 
121.00123043955654 0.004641148325358855 
122.00123043955654 0.003361244019138769 
123.00123043955654 0.0014952153110047931 
124.00123043955654 0.0014055023923445018 
125.00123043955654 9.868421052631573E-4 
126.00123043955654 8.79186602870811E-4 
127.00123043955654 8.014354066985679E-4 
128.00123043955654 3.4090909090909245E-4 
129.00123043955654 3.110047846889935E-4 
130.00123043955654 2.1531100478469072E-4 
131.00123043955654 4.784688995215308E-5 
132.00123043955654 0.0 
133.00123043955654 2.3923444976076498E-5 
134.00123043955654 0.0 
135.00123043955654 0.0 
136.00123043955654 0.0 
137.00123043955654 0.0 
138.00123043955654 0.0 
139.00123043955654 0.0 
140.00123043955654 0.0 
141.00123043955654 0.0 
142.00123043955654 0.0 
143.00123043955654 0.0 
144.00123043955654 0.0 
145.00123043955654 0.0 
146.00123043955654 0.0 
147.00123043955654 0.0 
148.00123043955654 0.0 
149.00123043955654 0.0 
150.00123043955654 0.0 
151.00123043955654 0.0 
152.00123043955654 0.0 
153.00123043955654 0.0 
154.00123043955654 0.0 
155.00123043955654 0.0 
156.00123043955654 0.0 
157.00123043955654 0.0 
158.00123043955654 0.0 
159.00123043955654 0.0 
160.00123043955654 0.0 
161.00123043955654 0.0 
162.00123043955654 0.0 
163.00123043955654 0.0 
164.00123043955654 0.0 
165.00123043955654 0.0 
166.00123043955654 0.0 
167.00123043955654 0.0 
168.00123043955654 0.0 
169.00123043955654 0.0 
170.00123043955654 0.0 
171.00123043955654 0.0 
172.00123043955654 0.0 
173.00123043955654 0.0 
#####################################################################
# End of data export. Simulation finished at: 2017-05-25T13:19+0000 #
#####################################################################
