#####################################################################
# Alchemist log file - simulation started at: 2017-05-25T07:27+0000 #
#####################################################################
# random = 17.0, targets = 10.0, density = 0.04, gridShift = 0.0, perturbation = 0.0, connfactor = 0.75
#
# The columns have the following meaning: 
# time se[Mean] 
0.0 NaN 
1.0045647570182237 NaN 
2.0045647570182235 1.065625 
3.0045647570182235 1.1019140625 
4.0045647570182235 1.0838324652777778 
5.0045647570182235 0.9186414930555555 
6.0045647570182235 0.6301085069444445 
7.0045647570182235 0.3193663194444445 
8.004564757018223 0.14805555555555555 
9.004564757018223 0.11206597222222224 
10.004564757018223 0.05619791666666669 
11.004564757018223 7.8125E-4 
12.004564757018223 0.0 
13.004564757018223 0.0 
14.004564757018223 0.0 
#####################################################################
# End of data export. Simulation finished at: 2017-05-25T07:27+0000 #
#####################################################################
