#####################################################################
# Alchemist log file - simulation started at: 2017-05-25T16:44+0000 #
#####################################################################
# random = 8.0, targets = 31.622776601683793, density = 7.099073319511142, gridShift = 0.0, perturbation = 0.5, connfactor = 0.75
#
# The columns have the following meaning: 
# time se[Mean] 
0.0 NaN 
1.0009686244946094 NaN 
2.000968624494609 1.0005329669589564 
3.000968624494609 1.001548467913517 
4.000968624494609 1.0013772979947138 
5.000968624494609 0.9997784549907148 
6.000968624494609 0.9946633335380997 
7.000968624494609 0.9892410307383309 
8.00096862449461 0.9895544627926012 
9.00096862449461 0.983047579300764 
10.00096862449461 0.9847353652814824 
11.00096862449461 0.9796081987615902 
12.00096862449461 0.9770143529613772 
13.00096862449461 0.9756510711721174 
14.00096862449461 0.9715658547281008 
15.00096862449461 0.9652387836895225 
16.00096862449461 0.9600214924590774 
17.00096862449461 0.9504778904601031 
18.00096862449461 0.9431533000904192 
19.00096862449461 0.9355266960768027 
20.00096862449461 0.9275403386865777 
21.00096862449461 0.922334628141213 
22.00096862449461 0.917507771049398 
23.00096862449461 0.9117868533759799 
24.00096862449461 0.9101518867409734 
25.00096862449461 0.9081695212209623 
26.00096862449461 0.9026968322325489 
27.00096862449461 0.9019167042403698 
28.00096862449461 0.8982170204357159 
29.00096862449461 0.8969325398953192 
30.00096862449461 0.8961882976711149 
31.00096862449461 0.8952175975944892 
32.00096862449461 0.8942418434240323 
33.00096862449461 0.8902023398897497 
34.00096862449461 0.8870542182211933 
35.00096862449461 0.8878818422940717 
36.00096862449461 0.882010522560294 
37.00096862449461 0.8775427202667017 
38.00096862449461 0.8756834279824129 
39.00096862449461 0.864322525025874 
40.00096862449461 0.8623087752513288 
41.00096862449461 0.8544025640244256 
42.00096862449461 0.8353614784963406 
43.00096862449461 0.8374456589963157 
44.00096862449461 0.8292642622292621 
45.00096862449461 0.8123898024564595 
46.00096862449461 0.8150699679727619 
47.00096862449461 0.7961811614484993 
48.00096862449461 0.7974116960438853 
49.00096862449461 0.7951554259951619 
50.00096862449461 0.7757447979698093 
51.00096862449461 0.7808216452146192 
52.00096862449461 0.7658313011120765 
53.00096862449461 0.7606506627451153 
54.00096862449461 0.7550454258532202 
55.00096862449461 0.7485513297356465 
56.00096862449461 0.7428628571262701 
57.00096862449461 0.7305535712489744 
58.00096862449461 0.7263626091214012 
59.00096862449461 0.7251989842138576 
60.00096862449461 0.7176936315837221 
61.00096862449461 0.7141670051937659 
62.00096862449461 0.7090802140243131 
63.00096862449461 0.7057195879405429 
64.00096862449462 0.6982140840193815 
65.00096862449462 0.6990918213846876 
66.00096862449462 0.6944853865177779 
67.00096862449462 0.6962286929174262 
68.00096862449462 0.7103309146524228 
69.00096862449462 0.6909396417968612 
70.00096862449462 0.7036944088405214 
71.00096862449462 0.7090286758711265 
72.00096862449462 0.7072963684884439 
73.00096862449462 0.7113010711583594 
74.00096862449462 0.7090230731915914 
75.00096862449462 0.7087538478814387 
76.00096862449462 0.7320203745968278 
77.00096862449462 0.7054020259841938 
78.00096862449462 0.6866988939052797 
79.00096862449462 0.6979229812938739 
80.00096862449462 0.6780931291594521 
81.00096862449462 0.6826804235553305 
82.00096862449462 0.6627591076236542 
83.00096862449462 0.6636911728157904 
84.00096862449462 0.6677255606654663 
85.00096862449462 0.6487420644047148 
86.00096862449462 0.6521367766206146 
87.00096862449462 0.6484147799871117 
88.00096862449462 0.6470923523560304 
89.00096862449462 0.6291650143126244 
90.00096862449462 0.6320095042466202 
91.00096862449462 0.6305259566248759 
92.00096862449462 0.6399313227497393 
93.00096862449462 0.6164206042420132 
94.00096862449462 0.6266557462883984 
95.00096862449462 0.6181656700140595 
96.00096862449462 0.6251213878026108 
97.00096862449462 0.6023011521142394 
98.00096862449462 0.6039384335793783 
99.00096862449462 0.6167140423330129 
100.00096862449462 0.5991616241602827 
101.00096862449462 0.5922955896516662 
102.00096862449462 0.6056988764965675 
103.00096862449462 0.5919714769943871 
104.00096862449462 0.6080675280643466 
105.00096862449462 0.6146085508513867 
106.00096862449462 0.5777413934671869 
107.00096862449462 0.5990821311514491 
108.00096862449462 0.611737490201889 
109.00096862449462 0.5465763087865749 
110.00096862449462 0.608740331433724 
111.00096862449462 0.623583992764806 
112.00096862449462 0.6951649814535503 
113.00096862449462 0.6605526534777908 
114.00096862449462 0.7368299996137644 
115.00096862449462 0.7638846318363477 
116.00096862449462 0.8482907744020121 
117.00096862449462 0.8211061408885176 
118.00096862449462 0.8496665222697428 
119.00096862449462 0.8601568782651413 
120.00096862449462 1.0637771448025202 
121.00096862449462 0.993283056647117 
122.00096862449462 0.9679397825458211 
123.00096862449462 1.0015382367081085 
124.00096862449462 1.0648078400613015 
125.00096862449462 1.1625801208850244 
126.00096862449462 1.0686374680748145 
127.00096862449462 1.145033116641632 
128.00096862449462 1.2905557411650592 
129.00096862449462 1.1449117615216486 
130.00096862449462 1.4740211198803426 
131.00096862449462 1.3385393327747528 
132.00096862449462 1.3440273391525412 
133.00096862449462 1.3499952350569973 
134.00096862449462 1.3447245659097402 
135.00096862449462 1.3761817646984178 
136.00096862449462 1.4508345541078498 
137.00096862449462 1.3225897073233788 
138.00096862449462 1.419930403934622 
139.00096862449462 1.3655302234469904 
140.00096862449462 1.4666858691021412 
141.00096862449462 1.3716097979437052 
142.00096862449462 1.3427952466238238 
143.00096862449462 1.3619488786523508 
144.00096862449462 1.2456721844306273 
145.00096862449462 1.2213574805368705 
146.00096862449462 1.3362372227021233 
147.00096862449462 1.1864204014497302 
148.00096862449462 1.1008956080631764 
149.00096862449462 1.0371567144841063 
150.00096862449462 1.1217317145359926 
151.00096862449462 0.9730470296226845 
152.00096862449462 0.7798814197623889 
153.00096862449462 0.6502525807013699 
154.00096862449462 0.626841164164615 
155.00096862449462 0.5390149623771128 
156.00096862449462 0.5758955393525574 
157.00096862449462 0.4688950209809026 
158.00096862449462 0.35723709666551356 
159.00096862449462 0.42543695834792344 
160.00096862449462 0.4292289736361675 
161.00096862449462 0.34840873062185634 
162.00096862449462 0.26394801192517237 
163.00096862449462 0.11037697957245642 
164.00096862449462 0.15714550173475317 
165.00096862449462 0.11305168589645515 
166.00096862449462 0.09710265240829997 
167.00096862449462 0.06820931758147383 
168.00096862449462 0.06807570454340171 
169.00096862449462 0.06864716419796094 
170.00096862449462 0.06974937668793671 
171.00096862449462 0.07014201829728361 
172.00096862449462 0.07017364413988579 
173.00096862449462 0.07067994343734925 
174.00096862449462 0.07141560440429123 
175.00096862449462 0.0725386571280666 
176.00096862449462 0.07329692905863323 
177.00096862449462 0.07309804235409935 
178.00096862449462 0.07360437420893158 
179.00096862449462 0.0737840914303331 
180.00096862449462 0.07408073535525754 
181.00096862449462 0.07414374980203912 
182.00096862449462 0.07419408378974757 
183.00096862449462 0.07429475176516442 
184.00096862449462 0.07429475176516442 
185.00096862449462 0.0743307046135276 
186.00096862449462 0.07433789518320023 
187.00096862449462 0.0743522763225455 
188.00096862449462 0.0743522763225455 
189.00096862449462 0.0743522763225455 
190.00096862449462 0.0743522763225455 
191.00096862449462 0.0743522763225455 
192.00096862449462 0.0743522763225455 
193.00096862449462 0.0743522763225455 
194.00096862449462 0.0743522763225455 
195.00096862449462 0.0743522763225455 
196.00096862449462 0.0743522763225455 
197.00096862449462 0.0743522763225455 
198.00096862449462 0.0743522763225455 
199.00096862449462 0.0743522763225455 
200.00096862449462 0.0743522763225455 
201.00096862449462 0.0743522763225455 
202.00096862449462 0.0743522763225455 
203.00096862449462 0.0743522763225455 
204.00096862449462 0.0743522763225455 
205.00096862449462 0.0743522763225455 
206.00096862449462 0.0743522763225455 
207.00096862449462 0.0743522763225455 
208.00096862449462 0.0743522763225455 
209.00096862449462 0.0743522763225455 
210.00096862449462 0.0743522763225455 
211.00096862449462 0.0743522763225455 
212.00096862449462 0.0743522763225455 
213.00096862449462 0.0743522763225455 
214.00096862449462 0.0743522763225455 
215.00096862449462 0.0743522763225455 
216.00096862449462 0.0743522763225455 
217.00096862449462 0.0743522763225455 
218.00096862449462 0.0743522763225455 
219.00096862449462 0.0743522763225455 
220.00096862449462 0.0743522763225455 
221.00096862449462 0.0743522763225455 
222.00096862449462 0.0743522763225455 
223.00096862449462 0.0743522763225455 
224.00096862449462 0.0743522763225455 
225.00096862449462 0.0743522763225455 
226.00096862449462 0.0743522763225455 
227.00096862449462 0.0743522763225455 
228.00096862449462 0.0743522763225455 
229.00096862449462 0.0743522763225455 
230.00096862449462 0.0743522763225455 
231.00096862449462 0.0743522763225455 
232.00096862449462 0.0743522763225455 
233.00096862449462 0.0743522763225455 
234.00096862449462 0.0743522763225455 
235.00096862449462 0.0743522763225455 
236.00096862449462 0.0743522763225455 
237.00096862449462 0.0743522763225455 
238.00096862449462 0.0743522763225455 
239.00096862449462 0.0743522763225455 
240.00096862449462 0.0743522763225455 
241.00096862449462 0.0743522763225455 
242.00096862449462 0.0743522763225455 
243.00096862449462 0.0743522763225455 
244.00096862449462 0.0743522763225455 
245.00096862449462 0.0743522763225455 
246.00096862449462 0.0743522763225455 
247.00096862449462 0.0743522763225455 
#####################################################################
# End of data export. Simulation finished at: 2017-05-25T16:49+0000 #
#####################################################################
