#####################################################################
# Alchemist log file - simulation started at: 2017-05-24T16:00+0000 #
#####################################################################
# random = 15.0, targets = 10.0, density = 2.519842099789746, gridShift = 0.0, perturbation = 0.5, connfactor = 0.25
#
# The columns have the following meaning: 
# time se[Mean] 
0.0 NaN 
1.00362802044947 NaN 
2.00362802044947 1.0 
3.00362802044947 0.9993425605536332 
4.0036280204494705 0.9967820069204152 
5.0036280204494705 0.9921799307958478 
6.0036280204494705 0.9801038062283737 
7.0036280204494705 0.9682698961937716 
8.00362802044947 0.960242214532872 
9.00362802044947 0.9483391003460209 
10.00362802044947 0.9423529411764706 
11.00362802044947 0.940173010380623 
12.00362802044947 0.9395847750865052 
13.00362802044947 0.9408304498269897 
14.00362802044947 0.9388581314878893 
15.00362802044947 0.9460899653979239 
16.00362802044947 0.9493771626297577 
17.00362802044947 0.9572664359861592 
18.00362802044947 0.9625259515570934 
19.00362802044947 0.9684429065743946 
20.00362802044947 0.9756747404844291 
21.00362802044947 0.9829065743944637 
22.00362802044947 0.9879238754325259 
23.00362802044947 0.9886159169550173 
24.00362802044947 0.9865743944636678 
25.00362802044947 0.9862975778546713 
26.00362802044947 0.9749134948096886 
27.00362802044947 0.9763321799307958 
28.00362802044947 0.9676470588235293 
29.00362802044947 0.9690657439446366 
30.00362802044947 0.9341868512110728 
31.00362802044947 0.9270588235294115 
32.00362802044947 0.9145674740484426 
33.00362802044947 0.8796539792387547 
34.00362802044947 0.8826643598615918 
35.00362802044947 0.8817301038062283 
36.00362802044947 0.8647750865051901 
37.00362802044947 0.7886851211072662 
38.00362802044947 0.8042560553633218 
39.00362802044947 0.8035640138408302 
40.00362802044947 0.7577508650519026 
41.00362802044947 0.752595155709342 
42.00362802044947 0.7412456747404849 
43.00362802044947 0.6917647058823527 
44.00362802044947 0.680242214532872 
45.00362802044947 0.6443598615916952 
46.00362802044947 0.6269550173010386 
47.00362802044947 0.5890311418685127 
48.00362802044947 0.5841176470588242 
49.00362802044947 0.5585467128027682 
50.00362802044947 0.5345674740484431 
51.00362802044947 0.5251211072664356 
52.00362802044947 0.5129065743944635 
53.00362802044947 0.5002768166089963 
54.00362802044947 0.5095501730103806 
55.00362802044947 0.4923875432525953 
56.00362802044947 0.4782698961937717 
57.00362802044947 0.47612456747404824 
58.00362802044947 0.4521799307958478 
59.00362802044947 0.4576124567474047 
60.00362802044947 0.45013840830449814 
61.00362802044947 0.465916955017301 
62.00362802044947 0.42702422145328717 
63.00362802044947 0.4412802768166091 
64.00362802044947 0.4543252595155709 
65.00362802044947 0.4215224913494811 
66.00362802044947 0.42640138408304507 
67.00362802044947 0.4398269896193772 
68.00362802044947 0.4024567474048445 
69.00362802044947 0.426401384083045 
70.00362802044947 0.41723183391003454 
71.00362802044947 0.396470588235294 
72.00362802044947 0.4205190311418685 
73.00362802044947 0.3995155709342559 
74.00362802044947 0.438650519031142 
75.00362802044947 0.40200692041522484 
76.00362802044947 0.3986851211072666 
77.00362802044947 0.40193771626297575 
78.00362802044947 0.3838754325259515 
79.00362802044947 0.3847058823529411 
80.00362802044947 0.3859169550173011 
81.00362802044947 0.43363321799307947 
82.00362802044947 0.3201730103806228 
83.00362802044947 0.3728027681660899 
84.00362802044947 0.4011072664359862 
85.00362802044947 0.3298615916955017 
86.00362802044947 0.3665051903114187 
87.00362802044947 0.4113840830449828 
88.00362802044947 0.31840830449826985 
89.00362802044947 0.41429065743944643 
90.00362802044947 0.3798269896193771 
91.00362802044947 0.3613840830449826 
92.00362802044947 0.3508650519031144 
93.00362802044947 0.3534948096885817 
94.00362802044947 0.33698961937716265 
95.00362802044947 0.33114186851211086 
96.00362802044947 0.315017301038062 
97.00362802044947 0.28003460207612446 
98.00362802044947 0.2909342560553632 
99.00362802044947 0.25346020761245674 
100.00362802044947 0.26664359861591685 
101.00362802044947 0.2674740484429066 
102.00362802044947 0.2434602076124567 
103.00362802044947 0.2546712802768166 
104.00362802044947 0.24685121107266433 
105.00362802044947 0.24695501730103808 
106.00362802044947 0.24750865051903115 
107.00362802044947 0.2496885813148789 
108.00362802044947 0.24916955017301037 
109.00362802044947 0.25 
110.00362802044947 0.25 
111.00362802044947 0.25 
112.00362802044947 0.25 
113.00362802044947 0.25 
114.00362802044947 0.25 
115.00362802044947 0.25 
116.00362802044947 0.25 
117.00362802044947 0.25 
118.00362802044947 0.25 
119.00362802044947 0.25 
120.00362802044947 0.25 
121.00362802044947 0.25 
122.00362802044947 0.25 
123.00362802044947 0.25 
124.00362802044947 0.25 
125.00362802044947 0.25 
126.00362802044947 0.25 
127.00362802044947 0.25 
128.00362802044947 0.25 
129.00362802044947 0.25 
130.00362802044947 0.25 
131.00362802044947 0.25 
132.00362802044947 0.25 
133.00362802044947 0.25 
134.00362802044947 0.25 
135.00362802044947 0.25 
136.00362802044947 0.25 
137.00362802044947 0.25 
138.00362802044947 0.25 
139.00362802044947 0.25 
140.00362802044947 0.25 
141.00362802044947 0.25 
142.00362802044947 0.25 
143.00362802044947 0.25 
144.00362802044947 0.25 
#####################################################################
# End of data export. Simulation finished at: 2017-05-24T16:00+0000 #
#####################################################################
