#####################################################################
# Alchemist log file - simulation started at: 2017-05-22T12:22+0000 #
#####################################################################
# random = 4.0, targets = 1.0, density = 0.05649405772326896, gridShift = 1.0, perturbation = 0.0, connfactor = 0.5
#
# The columns have the following meaning: 
# time se[Mean] 
0.0 NaN 
1.1124924963623202 NaN 
2.11249249636232 1.0 
3.11249249636232 0.953125 
4.11249249636232 0.90625 
5.11249249636232 0.609375 
6.11249249636232 0.5 
7.11249249636232 0.40625 
8.11249249636232 0.265625 
9.11249249636232 0.125 
10.11249249636232 0.0 
11.11249249636232 0.0 
12.11249249636232 0.0 
#####################################################################
# End of data export. Simulation finished at: 2017-05-22T12:22+0000 #
#####################################################################
