0.000000000000000000e+00 nan
2.220446049250313081e-16 1.615090642327439707e-01
4.440892098500626162e-16 2.479695191923357855e-01
0.000000000000000000e+00 2.308646813879676740e-01
8.881784197001252323e-16 3.880199756595422711e-01
8.881784197001252323e-16 1.163367907183429306e+00
0.000000000000000000e+00 9.461364512065957300e-01
1.776356839400250465e-15 1.489670301437578503e+00
1.776356839400250465e-15 1.654674694840807092e+00
5.329070518200751394e-15 1.260873385106106026e+00
1.776356839400250465e-15 1.255784803969184349e+00
5.329070518200751394e-15 9.773499320474776653e-01
0.000000000000000000e+00 1.181739312580529111e+00
3.552713678800500929e-15 1.319028650396010915e+00
3.552713678800500929e-15 1.320339420166912303e+00
3.552713678800500929e-15 1.333768511452224859e+00
3.552713678800500929e-15 1.361514609639903561e+00
7.105427357601001859e-15 1.657018171704651044e+00
1.065814103640150279e-14 1.826813943288148279e+00
0.000000000000000000e+00 1.890899492273086402e+00
3.552713678800500929e-15 1.769196158690933718e+00
7.105427357601001859e-15 2.315233504038537227e+00
1.065814103640150279e-14 1.482452150219516707e+00
1.065814103640150279e-14 1.630755053223498674e+00
0.000000000000000000e+00 1.443229883544487224e+00
7.105427357601001859e-15 1.348007674942655498e+00
7.105427357601001859e-15 1.348007674942655498e+00
1.421085471520200372e-14 1.348005088703437604e+00
7.105427357601001859e-15 1.348005088703437604e+00
0.000000000000000000e+00 1.348005088703437604e+00
7.105427357601001859e-15 1.348005088703437604e+00
1.421085471520200372e-14 1.348005088703437604e+00
7.105427357601001859e-15 1.348005088703437604e+00
