#####################################################################
# Alchemist log file - simulation started at: 2017-05-23T06:58+0000 #
#####################################################################
# random = 11.0, targets = 3.1622776601683795, density = 0.6332893950589894, gridShift = 1.0, perturbation = 0.5, connfactor = 0.1
#
# The columns have the following meaning: 
# time se[Mean] 
0.0 NaN 
1.0028758930102715 NaN 
2.0028758930102715 1.0 
3.0028758930102715 1.0 
4.0028758930102715 1.0 
5.0028758930102715 1.0 
6.0028758930102715 1.0 
7.0028758930102715 1.0 
8.002875893010271 1.0 
9.002875893010271 1.0 
10.002875893010271 1.0 
11.002875893010271 1.0 
12.002875893010271 1.0 
13.002875893010271 1.0 
14.002875893010271 1.0 
15.002875893010271 1.0 
16.00287589301027 1.0 
#####################################################################
# End of data export. Simulation finished at: 2017-05-23T06:58+0000 #
#####################################################################
