#####################################################################
# Alchemist log file - simulation started at: 2017-05-23T03:46+0000 #
#####################################################################
# random = 10.0, targets = 100.0, density = 0.4483936332993466, gridShift = 1.0, perturbation = 0.0, connfactor = 1.5
#
# The columns have the following meaning: 
# time se[Mean] 
0.0 NaN 
1.0036005446229952 NaN 
2.003600544622995 1.0909434027777778 
3.003600544622995 1.141824537037037 
4.003600544622995 1.2705439043209876 
5.003600544622995 1.7012274691358027 
6.003600544622995 1.9482726466049383 
7.003600544622995 2.2507721450617284 
8.003600544622994 2.761983526234568 
9.003600544622994 2.458885725308642 
10.003600544622994 2.5855470293209875 
11.003600544622994 2.126646875 
12.003600544622994 2.058600887345679 
13.003600544622994 2.045815084876543 
14.003600544622994 1.8518247685185183 
15.003600544622994 1.8998375771604938 
16.003600544622994 1.6461503472222225 
17.003600544622994 1.530389776234568 
18.003600544622994 1.2297021219135804 
19.003600544622994 1.1402127314814816 
20.003600544622994 1.0104813657407408 
21.003600544622994 0.94123800154321 
22.003600544622994 0.8597631172839507 
23.003600544622994 0.8501859567901237 
24.003600544622994 0.7929816358024693 
25.003600544622994 0.7836168595679016 
26.003600544622994 0.7395645833333337 
27.003600544622994 0.6835142361111115 
28.003600544622994 0.5801377700617287 
29.003600544622994 0.5849064429012351 
30.003600544622994 0.5377653163580253 
31.003600544622994 0.5571376929012352 
32.003600544623 0.5231467978395069 
33.003600544623 0.5089212577160501 
34.003600544623 0.4359978780864203 
35.003600544623 0.38990000000000047 
36.003600544623 0.34063699845679046 
37.003600544623 0.3204841820987657 
38.003600544623 0.3014596450617286 
39.003600544623 0.2990019290123459 
40.003600544623 0.3004288580246916 
41.003600544623 0.302730902777778 
42.003600544623 0.30265347222222244 
43.003600544623 0.3025000000000002 
44.003600544623 0.3025000000000002 
45.003600544623 0.3025000000000002 
46.003600544623 0.3025000000000002 
47.003600544623 0.3025000000000002 
48.003600544623 0.3025000000000002 
49.003600544623 0.3025000000000002 
50.003600544623 0.3025000000000002 
51.003600544623 0.3025000000000002 
52.003600544623 0.3025000000000002 
53.003600544623 0.3025000000000002 
54.003600544623 0.3025000000000002 
55.003600544623 0.3025000000000002 
56.003600544623 0.3025000000000002 
57.003600544623 0.3025000000000002 
58.003600544623 0.3025000000000002 
#####################################################################
# End of data export. Simulation finished at: 2017-05-23T03:46+0000 #
#####################################################################
