#####################################################################
# Alchemist log file - simulation started at: 2017-05-23T09:59+0000 #
#####################################################################
# random = 11.0, targets = 31.622776601683793, density = 2.519842099789746, gridShift = 1.0, perturbation = 0.5, connfactor = 2.0
#
# The columns have the following meaning: 
# time se[Mean] 
0.0 NaN 
1.0028758930102715 NaN 
2.0028758930102715 1.0300592258943086 
3.0028758930102715 1.0508409978161999 
4.0028758930102715 1.0701353193142544 
5.0028758930102715 1.1117631202334062 
6.0028758930102715 1.133374012762305 
7.0028758930102715 1.2096418889800735 
8.002875893010271 1.2064862174097422 
9.002875893010271 1.2593341781483485 
10.002875893010271 1.2359843048000025 
11.002875893010271 1.2435306203902368 
12.002875893010271 1.2412182691527376 
13.002875893010271 1.272819633551192 
14.002875893010271 1.2943739357604676 
15.002875893010271 1.4197511445661288 
16.00287589301027 1.400277490534662 
17.00287589301027 1.5237274060492796 
18.00287589301027 1.636481022231464 
19.00287589301027 1.668629158994779 
20.00287589301027 1.7828564799648743 
21.00287589301027 1.8450779268848418 
22.00287589301027 1.8446473250618416 
23.00287589301027 1.971872324961083 
24.00287589301027 2.0315492983554577 
25.00287589301027 2.2219339097058666 
26.00287589301027 2.1470491767787463 
27.00287589301027 2.3372136566894817 
28.00287589301027 2.4428673803149774 
29.00287589301027 2.423267543052089 
30.00287589301027 2.6076458981866 
31.00287589301027 2.8250188720926994 
32.00287589301027 2.895834084177233 
33.00287589301027 3.008847281931033 
34.00287589301027 3.185551559863291 
35.00287589301027 3.2210011263461 
36.00287589301027 3.276554182141027 
37.00287589301027 3.4249336604773615 
38.00287589301027 3.5394093607414785 
39.00287589301027 3.4659839811390603 
40.00287589301027 3.61255359611398 
41.00287589301027 3.7132313328827022 
42.00287589301027 3.698685252021414 
43.00287589301027 3.851693610010558 
44.00287589301027 3.817157803631869 
45.00287589301027 3.8516996750468535 
46.00287589301027 3.993014308126403 
47.00287589301027 3.90824462159552 
48.00287589301027 4.0808430339043555 
49.00287589301027 4.095344589661502 
50.00287589301027 4.164981267685268 
51.00287589301027 4.216504839867084 
52.00287589301027 4.23883516375594 
53.00287589301027 4.2855434516539255 
54.00287589301027 4.302892898019831 
55.00287589301027 4.370738262829399 
56.00287589301027 4.416778867484457 
57.00287589301027 4.427441383060234 
58.00287589301027 4.480620425730959 
59.00287589301027 4.482296940047857 
60.00287589301027 4.994622646044282 
61.00287589301027 5.985286657344207 
62.00287589301027 7.402392816798949 
63.00287589301027 10.312726268695528 
64.00287589301027 8.871824994484474 
65.00287589301027 11.283728754372069 
66.00287589301027 12.253122554060893 
67.00287589301027 10.805596044830734 
68.00287589301027 13.209607479687685 
69.00287589301027 15.605071104639254 
70.00287589301027 11.271244882123991 
71.00287589301027 15.351640914280631 
72.00287589301027 15.789831888525539 
73.00287589301027 15.024855730944855 
74.00287589301027 17.832819403084283 
75.00287589301027 14.732007668601634 
76.00287589301027 14.426539033383095 
77.00287589301027 15.83576153632813 
78.00287589301027 11.301558860729221 
79.00287589301027 13.401486132817396 
80.00287589301027 13.574472467121415 
81.00287589301027 10.55138262113882 
82.00287589301027 12.373326710624866 
83.00287589301027 10.928823739972362 
84.00287589301027 9.758510401794126 
85.00287589301027 9.48219364459963 
86.00287589301027 8.33689753904725 
87.00287589301027 7.647457350780166 
88.00287589301027 8.101375557329012 
89.00287589301027 6.27130244142537 
90.00287589301027 6.72624848299515 
91.00287589301027 6.267626850602909 
92.00287589301027 5.810112409346301 
93.00287589301027 5.809453577121064 
94.00287589301027 5.1239140728743235 
95.00287589301027 4.8953766457363015 
96.00287589301027 4.438594362117866 
97.00287589301027 4.438594362117866 
98.00287589301027 4.438594362117866 
99.00287589301027 4.438594362117866 
100.00287589301027 4.438594362117866 
101.00287589301027 4.438594362117866 
102.00287589301027 4.438594362117866 
103.00287589301027 4.438594362117866 
104.00287589301027 4.438594362117866 
105.00287589301027 4.438594362117866 
106.00287589301027 4.438594362117866 
107.00287589301027 4.438594362117866 
108.00287589301027 4.438594362117866 
109.00287589301027 4.438594362117866 
110.00287589301027 4.438594362117866 
111.00287589301027 4.438594362117866 
112.00287589301027 4.438594362117866 
113.00287589301027 4.438594362117866 
114.00287589301027 4.438594362117866 
115.00287589301027 4.438594362117866 
116.00287589301027 4.438594362117866 
117.00287589301027 4.438594362117866 
118.00287589301027 4.438594362117866 
119.00287589301027 4.438594362117866 
120.00287589301027 4.438594362117866 
121.00287589301027 4.438594362117866 
122.00287589301027 4.438594362117866 
123.00287589301027 4.438594362117866 
124.00287589301027 4.438594362117866 
125.00287589301027 4.438594362117866 
126.00287589301027 4.438594362117866 
127.00287589301027 4.438594362117866 
128.00287589301027 4.438594362117866 
129.00287589301027 4.438594362117866 
#####################################################################
# End of data export. Simulation finished at: 2017-05-23T10:00+0000 #
#####################################################################
