#####################################################################
# Alchemist log file - simulation started at: 2017-05-25T16:44+0000 #
#####################################################################
# random = 18.0, targets = 31.622776601683793, density = 1.2632455339402642, gridShift = 0.0, perturbation = 0.0, connfactor = 0.75
#
# The columns have the following meaning: 
# time se[Mean] 
0.0 NaN 
1.0067713218599703 NaN 
2.0067713218599703 1.02097340488867 
3.0067713218599703 1.0391147465485218 
4.00677132185997 1.043589049478534 
5.00677132185997 1.0525688157662934 
6.00677132185997 1.0443122293889435 
7.00677132185997 1.034545506112214 
8.00677132185997 1.040928765790005 
9.00677132185997 1.0335193599735677 
10.00677132185997 1.0315846800173734 
11.00677132185997 1.0211995598677095 
12.00677132185997 1.0121382430950943 
13.00677132185997 0.9976407814593811 
14.00677132185997 0.9675480925239628 
15.00677132185997 0.9563068043330047 
16.006771321859972 0.9367379710340927 
17.006771321859972 0.9105173497442097 
18.006771321859972 0.8713432739845858 
19.006771321859972 0.8386094675756881 
20.006771321859972 0.7940577480191894 
21.006771321859972 0.7383631186650328 
22.006771321859972 0.693599344570488 
23.006771321859972 0.6417431624761428 
24.006771321859972 0.600884766363208 
25.006771321859972 0.5624601242689431 
26.006771321859972 0.5320589104955527 
27.006771321859972 0.5179538158246522 
28.006771321859972 0.5060543106178749 
29.006771321859972 0.5131749774757416 
30.006771321859972 0.5131836220159667 
31.006771321859972 0.5141806677344968 
32.00677132185997 0.5454412019655852 
33.00677132185997 0.5390314083021254 
34.00677132185997 0.5441470742880741 
35.00677132185997 0.5505163222857478 
36.00677132185997 0.5560618283019871 
37.00677132185997 0.5573509209902385 
38.00677132185997 0.5425576530253053 
39.00677132185997 0.5603618270925511 
40.00677132185997 0.5404848556628444 
41.00677132185997 0.5281154403150332 
42.00677132185997 0.5083447027076361 
43.00677132185997 0.4922562463200805 
44.00677132185997 0.48337801969981636 
45.00677132185997 0.47109575861442976 
46.00677132185997 0.4675444679663241 
47.00677132185997 0.4675444679663241 
48.00677132185997 0.4675444679663241 
49.00677132185997 0.4675444679663241 
50.00677132185997 0.4675444679663241 
51.00677132185997 0.4675444679663241 
52.00677132185997 0.4675444679663241 
53.00677132185997 0.4675444679663241 
54.00677132185997 0.4675444679663241 
55.00677132185997 0.4675444679663241 
56.00677132185997 0.4675444679663241 
57.00677132185997 0.4675444679663241 
58.00677132185997 0.4675444679663241 
59.00677132185997 0.4675444679663241 
60.00677132185997 0.4675444679663241 
61.00677132185997 0.4675444679663241 
62.00677132185997 0.4675444679663241 
63.00677132185997 0.4675444679663241 
64.00677132185997 0.4675444679663241 
65.00677132185997 0.4675444679663241 
66.00677132185997 0.4675444679663241 
67.00677132185997 0.4675444679663241 
68.00677132185997 0.4675444679663241 
69.00677132185997 0.4675444679663241 
70.00677132185997 0.4675444679663241 
71.00677132185997 0.4675444679663241 
#####################################################################
# End of data export. Simulation finished at: 2017-05-25T16:44+0000 #
#####################################################################
