#####################################################################
# Alchemist log file - simulation started at: 2017-05-25T21:47+0000 #
#####################################################################
# random = 19.0, targets = 3.1622776601683795, density = 0.3174802103936399, gridShift = 1.0, perturbation = 0.5, connfactor = 0.25
#
# The columns have the following meaning: 
# time se[Mean] 
0.0 NaN 
1.029399693434633 NaN 
2.029399693434633 1.0 
3.029399693434633 1.0 
4.029399693434633 1.0 
5.029399693434633 1.0 
6.029399693434633 1.0 
7.029399693434633 1.0 
8.029399693434634 1.0 
9.029399693434634 1.0 
10.029399693434634 1.0 
#####################################################################
# End of data export. Simulation finished at: 2017-05-25T21:47+0000 #
#####################################################################
