0.000000000000000000e+00 nan
0.000000000000000000e+00 1.500205248811527226e-02
0.000000000000000000e+00 1.948343925087647199e-01
0.000000000000000000e+00 1.780600377950377344e-01
0.000000000000000000e+00 1.777742010517516791e-01
3.552713678800500929e-15 1.772924762993471903e-01
0.000000000000000000e+00 1.752004140719941594e-01
3.552713678800500929e-15 1.745292546083279384e-01
0.000000000000000000e+00 1.728694261385133324e-01
5.329070518200751394e-15 1.711065909676329211e-01
7.105427357601001859e-15 1.702267082811014243e-01
5.329070518200751394e-15 1.696002359100831913e-01
0.000000000000000000e+00 1.686311024795839053e-01
5.329070518200751394e-15 1.665536908241721237e-01
7.105427357601001859e-15 1.650468727948856962e-01
0.000000000000000000e+00 1.668579120733343357e-01
0.000000000000000000e+00 1.635853737737816282e-01
3.552713678800500929e-15 1.655521523276655138e-01
1.065814103640150279e-14 1.654296002120304032e-01
3.552713678800500929e-15 1.610764823504673982e-01
1.421085471520200372e-14 1.607922352294017809e-01
3.552713678800500929e-15 1.596235578917542808e-01
1.065814103640150279e-14 1.584624981951977263e-01
7.105427357601001859e-15 1.579466219765641444e-01
0.000000000000000000e+00 1.574808868095174674e-01
7.105427357601001859e-15 1.581461652417183728e-01
1.065814103640150279e-14 1.578976122099855495e-01
3.552713678800500929e-15 1.587339654697761115e-01
1.421085471520200372e-14 1.582890072093252609e-01
7.105427357601001859e-15 1.579821126958796673e-01
0.000000000000000000e+00 1.580034989451077343e-01
1.065814103640150279e-14 1.580037923420774260e-01
0.000000000000000000e+00 1.581672569953220808e-01
1.421085471520200372e-14 1.581699665907384811e-01
7.105427357601001859e-15 1.581672474002244200e-01
1.421085471520200372e-14 1.581699569349303558e-01
2.131628207280300558e-14 1.581699569349303558e-01
0.000000000000000000e+00 1.581699569349303558e-01
7.105427357601001859e-15 1.581699569349303558e-01
7.105427357601001859e-15 1.581699569349303558e-01
2.842170943040400743e-14 1.581699569349303558e-01
7.105427357601001859e-15 1.581699569349303558e-01
7.105427357601001859e-15 1.581699569349303558e-01
0.000000000000000000e+00 1.581699569349303558e-01
2.131628207280300558e-14 1.581699569349303558e-01
