#####################################################################
# Alchemist log file - simulation started at: 2017-05-23T00:32+0000 #
#####################################################################
# random = 4.0, targets = 100.0, density = 0.894427190999916, gridShift = 0.0, perturbation = 0.0, connfactor = 1.5
#
# The columns have the following meaning: 
# time se[Mean] 
0.0 NaN 
1.0035718759004084 NaN 
2.003571875900408 1.1995289256198347 
3.003571875900408 1.2838141815886135 
4.003571875900408 1.3792645087235997 
5.003571875900408 1.6629465622130395 
6.003571875900408 1.7789698519283748 
7.003571875900408 2.1675076274104685 
8.003571875900409 2.2381248909550044 
9.003571875900409 2.1304218204775025 
10.003571875900409 2.2460730142332412 
11.003571875900409 2.0140066632231406 
12.003571875900409 1.8980384584481176 
13.003571875900409 1.8954747187786962 
14.003571875900409 1.7047827881083564 
15.003571875900409 1.6820316460055096 
16.00357187590041 1.5221918388429754 
17.00357187590041 1.503903259871442 
18.00357187590041 1.2932823519283747 
19.00357187590041 1.2908991965105603 
20.00357187590041 1.213481571395776 
21.00357187590041 1.1024796258034895 
22.00357187590041 1.0525624942607898 
23.00357187590041 1.016934940312213 
24.00357187590041 0.9976297118916438 
25.00357187590041 0.9629591253443526 
26.00357187590041 0.9240109446740128 
27.00357187590041 0.8721815082644628 
28.00357187590041 0.8409365587695132 
29.00357187590041 0.8193074896694214 
30.00357187590041 0.8033050332874195 
31.00357187590041 0.7855051710284664 
32.003571875900406 0.7661165805785124 
33.003571875900406 0.746274093204775 
34.003571875900406 0.7621251606978879 
35.003571875900406 0.9838583390725435 
36.003571875900406 0.8325827536730945 
37.003571875900406 0.9904331496786042 
38.003571875900406 0.8666961030762167 
39.003571875900406 0.9433613062442608 
40.003571875900406 1.044629155188246 
41.003571875900406 1.0953801193755741 
42.003571875900406 0.9700408459595959 
43.003571875900406 1.2286535640495868 
44.003571875900406 1.351035301882461 
45.003571875900406 1.3325548438934807 
46.003571875900406 1.4775261765381082 
47.003571875900406 1.285747669880625 
48.003571875900406 0.8895282369146009 
49.003571875900406 0.7656255394857671 
50.003571875900406 0.6496612718089991 
51.003571875900406 0.6136888831496786 
52.003571875900406 0.6018095213498622 
53.003571875900406 0.5929 
54.003571875900406 0.5929 
55.003571875900406 0.5929 
56.003571875900406 0.5929 
57.003571875900406 0.5929 
58.003571875900406 0.5929 
59.003571875900406 0.5929 
60.003571875900406 0.5929 
61.003571875900406 0.5929 
62.003571875900406 0.5929 
63.003571875900406 0.5929 
64.0035718759004 0.5929 
65.0035718759004 0.5929 
66.0035718759004 0.5929 
67.0035718759004 0.5929 
68.0035718759004 0.5929 
69.0035718759004 0.5929 
70.0035718759004 0.5929 
71.0035718759004 0.5929 
72.0035718759004 0.5929 
73.0035718759004 0.5929 
74.0035718759004 0.5929 
#####################################################################
# End of data export. Simulation finished at: 2017-05-23T00:34+0000 #
#####################################################################
