#####################################################################
# Alchemist log file - simulation started at: 2017-05-23T13:14+0000 #
#####################################################################
# random = 11.0, targets = 100.0, density = 20.0, gridShift = 1.0, perturbation = 0.0, connfactor = 0.1
#
# The columns have the following meaning: 
# time se[Mean] 
0.0 NaN 
1.0000311017741008 NaN 
2.000031101774101 1.0 
3.000031101774101 0.9999811105837684 
4.000031101774101 0.9999434266729947 
5.000031101774101 0.9998394399620313 
6.000031101774101 0.9996888941623161 
7.000031101774101 0.9994999999999999 
8.000031101774102 0.9993775035595633 
9.000031101774102 0.9992074038917893 
10.000031101774102 0.9991877551020408 
11.000031101774102 0.9990366397721879 
12.000031101774102 0.9989421926910299 
13.000031101774102 0.9988477456098719 
14.000031101774102 0.9988383009017561 
15.000031101774102 0.9986871855719032 
16.000031101774102 0.9986588514475557 
17.000031101774102 0.9984416231608922 
18.000031101774102 0.9982999525391552 
19.000031101774102 0.9980355007119127 
20.000031101774102 0.9978843853820598 
21.000031101774102 0.9975065970574276 
22.000031101774102 0.9972988134788799 
23.000031101774102 0.996958803986711 
24.000031101774102 0.9966001898433793 
25.000031101774102 0.9961946369245371 
26.000031101774102 0.9957598955861414 
27.000031101774102 0.9952888941623161 
28.000031101774102 0.9950439012814428 
29.000031101774102 0.9946484575225439 
30.000031101774102 0.9940133364973897 
31.000031101774102 0.9938122448979592 
32.0000311017741 0.9931630754627432 
33.0000311017741 0.9928034171808258 
34.0000311017741 0.9925777883246322 
35.0000311017741 0.9916078785002373 
36.0000311017741 0.9917107736117703 
37.0000311017741 0.9911499762695776 
38.0000311017741 0.9909870431893688 
39.0000311017741 0.9905351210251543 
40.0000311017741 0.9901039867109634 
41.0000311017741 0.9898450878025629 
42.0000311017741 0.9895716658756526 
43.0000311017741 0.9891577123872806 
44.0000311017741 0.9888917418130042 
45.0000311017741 0.9886649738965354 
46.0000311017741 0.9883929757949692 
47.0000311017741 0.9881899857617467 
48.0000311017741 0.9878687707641195 
49.0000311017741 0.9873519696250591 
50.0000311017741 0.9875974845752254 
51.0000311017741 0.9868569530137635 
52.0000311017741 0.9868863787375416 
53.0000311017741 0.9863209302325582 
54.0000311017741 0.9862518747033697 
55.0000311017741 0.9858166587565257 
56.0000311017741 0.9853866635026104 
57.0000311017741 0.98509515899383 
58.0000311017741 0.9845653535832937 
59.0000311017741 0.9843069292833413 
60.0000311017741 0.9839833887043189 
61.0000311017741 0.9840298054105362 
62.0000311017741 0.9829415282392027 
63.0000311017741 0.9828126720455623 
64.0000311017741 0.9819545799715235 
65.0000311017741 0.9813627906976743 
66.0000311017741 0.9809135263407689 
67.0000311017741 0.9797126245847176 
68.0000311017741 0.978815377313716 
69.0000311017741 0.978217560512577 
70.0000311017741 0.9776168485999049 
71.0000311017741 0.975995443758899 
72.0000311017741 0.9752808258186993 
73.0000311017741 0.9750973896535357 
74.0000311017741 0.9732167062173708 
75.0000311017741 0.9725863787375415 
76.0000311017741 0.972496392975795 
77.0000311017741 0.9713629330802088 
78.0000311017741 0.9698118177503559 
79.0000311017741 0.9691706217370668 
80.0000311017741 0.968659753203607 
81.0000311017741 0.9669006169909823 
82.0000311017741 0.965892596108211 
83.0000311017741 0.9646423350735644 
84.0000311017741 0.9636859041290933 
85.0000311017741 0.9628958709065019 
86.0000311017741 0.9622259136212626 
87.0000311017741 0.9603787850023733 
88.0000311017741 0.9597996677740862 
89.0000311017741 0.9600951589938299 
90.0000311017741 0.9569905552918841 
91.0000311017741 0.95587954437589 
92.0000311017741 0.955678073089701 
93.0000311017741 0.9536802088277169 
94.0000311017741 0.951664309444708 
95.0000311017741 0.9506266255339348 
96.0000311017741 0.9492955861414334 
97.0000311017741 0.9463397721879447 
98.0000311017741 0.9465365448504982 
99.0000311017741 0.9440084005695302 
100.0000311017741 0.9428969150450879 
101.0000311017741 0.9420624584717607 
102.0000311017741 0.9400971523493116 
103.0000311017741 0.9395763644992882 
104.0000311017741 0.9372776459420976 
105.0000311017741 0.9364033697199811 
106.0000311017741 0.9341512102515425 
107.0000311017741 0.9319037019458947 
108.0000311017741 0.931332273374466 
109.0000311017741 0.9289845277645943 
110.0000311017741 0.9246104888467015 
111.0000311017741 0.9250523967726625 
112.0000311017741 0.9216236829615565 
113.0000311017741 0.9199073564309443 
114.0000311017741 0.9195846226862839 
115.0000311017741 0.9149945894636926 
116.0000311017741 0.9143259136212621 
117.0000311017741 0.9126722354057905 
118.0000311017741 0.9090886093972471 
119.0000311017741 0.9065486473659232 
120.0000311017741 0.9043265306122449 
121.0000311017741 0.9028479829140957 
122.0000311017741 0.8998717607973422 
123.0000311017741 0.8970074513526339 
124.0000311017741 0.8960656383483625 
125.0000311017741 0.8955735168485998 
126.0000311017741 0.891645514950166 
127.0000311017741 0.8932455624110107 
128.00003110177408 0.891322638822971 
129.00003110177408 0.889684100616991 
130.00003110177408 0.890696108210726 
131.00003110177408 0.8883850972947318 
132.00003110177408 0.8890803037494066 
133.00003110177408 0.8873256763170385 
134.00003110177408 0.8859009492168961 
135.00003110177408 0.8846020408163265 
136.00003110177408 0.8840379686758423 
137.00003110177408 0.8823174655908876 
138.00003110177408 0.8792131466540105 
139.00003110177408 0.8793982914095869 
140.00003110177408 0.8780522543901281 
141.00003110177408 0.8780136687233033 
142.00003110177408 0.8756167062173706 
143.00003110177408 0.8751623635500712 
144.00003110177408 0.8750450878025628 
145.00003110177408 0.8725661604176553 
146.00003110177408 0.8724224489795918 
147.00003110177408 0.8710130517323208 
148.00003110177408 0.8698820598006644 
149.00003110177408 0.8693305173232083 
150.00003110177408 0.868423398196488 
151.00003110177408 0.8669821547223541 
152.00003110177408 0.8670579022306597 
153.00003110177408 0.866278785002373 
154.00003110177408 0.8660967252017086 
155.00003110177408 0.8660281442809682 
156.00003110177408 0.8660862838158521 
157.00003110177408 0.8655841955386806 
158.00003110177408 0.8650521594684385 
159.00003110177408 0.86494337921215 
160.00003110177408 0.8648219269102991 
161.00003110177408 0.8639381110583769 
162.00003110177408 0.8629973896535358 
163.00003110177408 0.8621325106786902 
164.00003110177408 0.861298291409587 
165.00003110177408 0.860140721404841 
166.00003110177408 0.8588379212149975 
167.00003110177408 0.8578167536782154 
168.00003110177408 0.8556924537256763 
169.00003110177408 0.8555863787375417 
170.00003110177408 0.8535785476981491 
171.00003110177408 0.8521135738016139 
172.00003110177408 0.8525394399620313 
173.00003110177408 0.8505286663502613 
174.00003110177408 0.8496392975794971 
175.00003110177408 0.8492473184622686 
176.00003110177408 0.8480422876127194 
177.00003110177408 0.8474942097769339 
178.00003110177408 0.8462220692928333 
179.00003110177408 0.8463318462268629 
180.00003110177408 0.8456223065970574 
181.00003110177408 0.8446108210726153 
182.00003110177408 0.8446959658281918 
183.00003110177408 0.8456010441385857 
184.00003110177408 0.8440130517323208 
185.00003110177408 0.8452028476506882 
186.00003110177408 0.8448715234931182 
187.00003110177408 0.8442265780730897 
188.00003110177408 0.8461654485049834 
189.00003110177408 0.8445279069767442 
190.00003110177408 0.8450962505932605 
191.00003110177408 0.8450867584243 
192.00003110177408 0.8444747982914097 
193.00003110177408 0.8437521120075938 
194.00003110177408 0.8435598006644519 
195.00003110177408 0.8435914570479355 
196.00003110177408 0.842694969150451 
197.00003110177408 0.8428785476981491 
198.00003110177408 0.8431557664926436 
199.00003110177408 0.8436974371143806 
200.00003110177408 0.8433552444233507 
201.00003110177408 0.8431295681063123 
202.00003110177408 0.8440776934029426 
203.00003110177408 0.8433136687233034 
204.00003110177408 0.8436730422401519 
205.00003110177408 0.8432581395348838 
206.00003110177408 0.8433882297104888 
207.00003110177408 0.8433754152823922 
208.00003110177408 0.843255671570954 
209.00003110177408 0.8434249644043664 
210.00003110177408 0.8439288561936404 
211.00003110177408 0.8441176554342668 
212.00003110177408 0.844373754152824 
213.00003110177408 0.8446718557190318 
214.00003110177408 0.8451678690080683 
215.00003110177408 0.8454521120075938 
216.00003110177408 0.8456797816801139 
217.00003110177408 0.8457860939724727 
218.00003110177408 0.8461923588039868 
219.00003110177408 0.846274940673944 
220.00003110177408 0.846274940673944 
221.00003110177408 0.8462324632178453 
222.00003110177408 0.846274940673944 
223.00003110177408 0.8463575225439013 
224.00003110177408 0.8462324632178453 
225.00003110177408 0.8463174181300428 
226.00003110177408 0.8463575225439013 
227.00003110177408 0.8463174181300428 
228.00003110177408 0.8464 
229.00003110177408 0.8464 
230.00003110177408 0.8464 
231.00003110177408 0.8464 
232.00003110177408 0.8464 
233.00003110177408 0.8464 
234.00003110177408 0.8464 
235.00003110177408 0.8464 
236.00003110177408 0.8464 
237.00003110177408 0.8464 
238.00003110177408 0.8464 
239.00003110177408 0.8464 
240.00003110177408 0.8464 
241.00003110177408 0.8464 
242.00003110177408 0.8464 
243.00003110177408 0.8464 
244.00003110177408 0.8464 
245.00003110177408 0.8464 
246.00003110177408 0.8464 
247.00003110177408 0.8464 
248.00003110177408 0.8464 
249.00003110177408 0.8464 
250.00003110177408 0.8464 
251.00003110177408 0.8464 
252.00003110177408 0.8464 
253.00003110177408 0.8464 
254.00003110177408 0.8464 
255.00003110177408 0.8464 
256.0000311017741 0.8464 
257.0000311017741 0.8464 
258.0000311017741 0.8464 
259.0000311017741 0.8464 
260.0000311017741 0.8464 
261.0000311017741 0.8464 
262.0000311017741 0.8464 
263.0000311017741 0.8464 
264.0000311017741 0.8464 
265.0000311017741 0.8464 
266.0000311017741 0.8464 
267.0000311017741 0.8464 
268.0000311017741 0.8464 
269.0000311017741 0.8464 
270.0000311017741 0.8464 
271.0000311017741 0.8464 
272.0000311017741 0.8464 
273.0000311017741 0.8464 
274.0000311017741 0.8464 
275.0000311017741 0.8464 
276.0000311017741 0.8464 
277.0000311017741 0.8464 
278.0000311017741 0.8464 
279.0000311017741 0.8464 
280.0000311017741 0.8464 
281.0000311017741 0.8464 
282.0000311017741 0.8464 
283.0000311017741 0.8464 
284.0000311017741 0.8464 
285.0000311017741 0.8464 
286.0000311017741 0.8464 
287.0000311017741 0.8464 
288.0000311017741 0.8464 
289.0000311017741 0.8464 
290.0000311017741 0.8464 
291.0000311017741 0.8464 
292.0000311017741 0.8464 
293.0000311017741 0.8464 
294.0000311017741 0.8464 
295.0000311017741 0.8464 
296.0000311017741 0.8464 
297.0000311017741 0.8464 
298.0000311017741 0.8464 
299.0000311017741 0.8464 
300.0000311017741 0.8464 
301.0000311017741 0.8464 
302.0000311017741 0.8464 
303.0000311017741 0.8464 
304.0000311017741 0.8464 
305.0000311017741 0.8464 
306.0000311017741 0.8464 
307.0000311017741 0.8464 
308.0000311017741 0.8464 
309.0000311017741 0.8464 
310.0000311017741 0.8464 
311.0000311017741 0.8464 
312.0000311017741 0.8464 
313.0000311017741 0.8464 
314.0000311017741 0.8464 
315.0000311017741 0.8464 
316.0000311017741 0.8464 
317.0000311017741 0.8464 
318.0000311017741 0.8464 
319.0000311017741 0.8464 
320.0000311017741 0.8464 
321.0000311017741 0.8464 
322.0000311017741 0.8464 
323.0000311017741 0.8464 
324.0000311017741 0.8464 
325.0000311017741 0.8464 
326.0000311017741 0.8464 
327.0000311017741 0.8464 
328.0000311017741 0.8464 
#####################################################################
# End of data export. Simulation finished at: 2017-05-23T13:21+0000 #
#####################################################################
