#####################################################################
# Alchemist log file - simulation started at: 2017-05-22T20:16+0000 #
#####################################################################
# random = 4.0, targets = 31.622776601683793, density = 0.04, gridShift = 0.0, perturbation = 0.0, connfactor = 0.25
#
# The columns have the following meaning: 
# time se[Mean] 
0.0 NaN 
1.0048193674555734 NaN 
2.0048193674555734 1.0321227766016838 
3.0048193674555734 1.0306636910147906 
4.004819367455573 0.9989715394498597 
5.004819367455573 0.9597200942219728 
6.004819367455573 0.9083245174906767 
7.004819367455573 0.8421157931870284 
8.004819367455573 0.8100236764545786 
9.004819367455573 0.7943764201349341 
10.004819367455573 0.7723364904982021 
11.004819367455573 0.770006814670284 
12.004819367455573 0.7630177871865297 
13.004819367455573 0.7630177871865297 
14.004819367455573 0.7630177871865297 
15.004819367455573 0.7630177871865297 
16.004819367455575 0.7630177871865297 
17.004819367455575 0.7630177871865297 
#####################################################################
# End of data export. Simulation finished at: 2017-05-22T20:16+0000 #
#####################################################################
