#####################################################################
# Alchemist log file - simulation started at: 2017-05-19T17:32+0000 #
#####################################################################
# random = 0.0, targets = 1.0, density = 0.11269076455391362, gridShift = 1.0, perturbation = 0.5, connfactor = 1.0
#
# The columns have the following meaning: 
# time se[Mean] 
0.0 NaN 
1.0078686373248142 NaN 
2.0078686373248145 1.0 
3.0078686373248145 1.0 
4.0078686373248145 1.0 
5.0078686373248145 1.0 
6.0078686373248145 0.96 
7.0078686373248145 0.8977777777777778 
8.007868637324815 0.8291666666666667 
9.007868637324815 0.6430555555555555 
10.007868637324815 0.5861111111111111 
11.007868637324815 0.4719444444444445 
12.007868637324815 0.3780555555555556 
13.007868637324815 0.32861111111111113 
14.007868637324815 0.22638888888888892 
15.007868637324815 0.2180555555555555 
16.007868637324815 0.09444444444444439 
17.007868637324815 0.08611111111111105 
18.007868637324815 0.02888888888888887 
19.007868637324815 0.019999999999999966 
20.007868637324815 4.930380657631324E-32 
21.007868637324815 4.930380657631324E-32 
22.007868637324815 4.930380657631324E-32 
23.007868637324815 4.930380657631324E-32 
24.007868637324815 4.930380657631324E-32 
#####################################################################
# End of data export. Simulation finished at: 2017-05-19T17:32+0000 #
#####################################################################
