#####################################################################
# Alchemist log file - simulation started at: 2017-05-25T13:47+0000 #
#####################################################################
# random = 18.0, targets = 1.0, density = 20.0, gridShift = 1.0, perturbation = 0.5, connfactor = 0.5
#
# The columns have the following meaning: 
# time se[Mean] 
0.0 NaN 
1.0000499264234746 NaN 
2.0000499264234746 NaN 
3.0000499264234746 0.9995385751199705 
4.000049926423475 0.9990771502399409 
5.000049926423475 0.998154300479882 
6.000049926423475 0.9940014765596162 
7.000049926423475 0.9940014765596162 
8.000049926423475 0.9944629014396458 
9.000049926423475 0.9940014765596162 
10.000049926423475 0.9958471760797343 
11.000049926423475 0.9963086009597639 
12.000049926423475 0.9976928755998523 
13.000049926423475 0.9976928755998523 
14.000049926423475 0.9986157253599114 
15.000049926423475 0.9995385751199705 
16.000049926423475 0.9995385751199705 
17.000049926423475 0.9995385751199705 
18.000049926423475 1.0 
19.000049926423475 1.0 
20.000049926423475 1.0 
21.000049926423475 1.0 
22.000049926423475 1.0 
23.000049926423475 1.0 
24.000049926423475 1.0 
25.000049926423475 1.0 
26.000049926423475 1.0 
27.000049926423475 1.0 
28.000049926423475 1.0 
29.000049926423475 1.0 
30.000049926423475 1.0 
31.000049926423475 1.0 
32.00004992642347 1.0 
33.00004992642347 1.0 
34.00004992642347 1.0 
35.00004992642347 1.0 
36.00004992642347 1.0 
37.00004992642347 1.0 
38.00004992642347 1.0 
39.00004992642347 1.0 
40.00004992642347 1.0 
41.00004992642347 1.0 
42.00004992642347 1.0 
43.00004992642347 1.0 
44.00004992642347 1.0 
45.00004992642347 1.0 
46.00004992642347 1.0 
47.00004992642347 1.0 
48.00004992642347 1.0 
49.00004992642347 1.0 
50.00004992642347 1.0 
51.00004992642347 1.0 
52.00004992642347 1.0 
53.00004992642347 1.0 
54.00004992642347 1.0 
55.00004992642347 1.0 
56.00004992642347 1.0 
57.00004992642347 1.0 
58.00004992642347 1.0 
59.00004992642347 1.0 
60.00004992642347 1.0 
61.00004992642347 1.0 
62.00004992642347 1.0 
63.00004992642347 1.0 
64.00004992642347 1.0 
65.00004992642347 1.0 
66.00004992642347 1.0 
67.00004992642347 1.0 
68.00004992642347 1.0 
69.00004992642347 1.0 
70.00004992642347 1.0 
71.00004992642347 1.0 
72.00004992642347 1.0 
73.00004992642347 1.0 
74.00004992642347 1.0 
75.00004992642347 1.0 
76.00004992642347 1.0 
77.00004992642347 1.0 
78.00004992642347 1.0 
79.00004992642347 1.0 
80.00004992642347 1.0 
81.00004992642347 1.0 
82.00004992642347 1.0 
83.00004992642347 1.0 
84.00004992642347 1.0 
85.00004992642347 1.0 
86.00004992642347 1.0 
87.00004992642347 1.0 
88.00004992642347 1.0 
89.00004992642347 1.0 
90.00004992642347 1.0 
91.00004992642347 1.0 
92.00004992642347 1.0 
93.00004992642347 1.0 
94.00004992642347 1.0 
95.00004992642347 1.0 
96.00004992642347 1.0 
97.00004992642347 1.0 
98.00004992642347 1.0 
99.00004992642347 1.0 
100.00004992642347 1.0 
101.00004992642347 1.0 
102.00004992642347 1.0 
103.00004992642347 1.0 
104.00004992642347 1.0 
105.00004992642347 1.0 
106.00004992642347 1.0 
107.00004992642347 1.0 
108.00004992642347 1.0 
109.00004992642347 1.0 
110.00004992642347 1.0 
111.00004992642347 1.0 
112.00004992642347 1.0 
113.00004992642347 1.0 
114.00004992642347 1.0 
115.00004992642347 1.0 
116.00004992642347 1.0 
117.00004992642347 1.0 
118.00004992642347 1.0 
#####################################################################
# End of data export. Simulation finished at: 2017-05-25T13:50+0000 #
#####################################################################
