#####################################################################
# Alchemist log file - simulation started at: 2017-05-26T02:15+0000 #
#####################################################################
# random = 19.0, targets = 100.0, density = 0.05649405772326896, gridShift = 1.0, perturbation = 0.0, connfactor = 0.25
#
# The columns have the following meaning: 
# time se[Mean] 
0.0 NaN 
1.0189000266060093 NaN 
2.0189000266060093 1.0094453125 
3.0189000266060093 1.0091262152777778 
4.018900026606009 0.98435625 
5.018900026606009 0.9486140625 
6.018900026606009 0.8711300347222223 
7.018900026606009 0.8662052083333334 
8.018900026606008 0.7852223958333334 
9.018900026606008 0.7683486111111112 
10.018900026606008 0.7287741319444445 
11.018900026606008 0.7257442708333335 
12.018900026606008 0.7142458333333335 
13.018900026606008 0.7208298611111112 
14.018900026606008 0.725338888888889 
15.018900026606008 0.7235645833333334 
16.01890002660601 0.7228548611111112 
17.01890002660601 0.7225 
18.01890002660601 0.7225 
19.01890002660601 0.7225 
20.01890002660601 0.7225 
21.01890002660601 0.7225 
22.01890002660601 0.7225 
23.01890002660601 0.7225 
24.01890002660601 0.7225 
25.01890002660601 0.7225 
#####################################################################
# End of data export. Simulation finished at: 2017-05-26T02:15+0000 #
#####################################################################
