#####################################################################
# Alchemist log file - simulation started at: 2017-05-25T13:50+0000 #
#####################################################################
# random = 18.0, targets = 3.1622776601683795, density = 0.05649405772326896, gridShift = 0.0, perturbation = 0.0, connfactor = 0.75
#
# The columns have the following meaning: 
# time se[Mean] 
0.0 NaN 
1.1731632146381654 NaN 
2.1731632146381656 1.0 
3.1731632146381656 0.9713998854843572 
4.173163214638166 0.8830410940884524 
5.173163214638166 0.5891818505104464 
6.173163214638166 0.3371538613427926 
7.173163214638166 0.17531209192142297 
8.173163214638166 0.020670551531339006 
9.173163214638166 0.022589417517099326 
10.173163214638166 0.007786874651077148 
11.173163214638166 0.015517080779234263 
12.173163214638166 0.002633403898972407 
13.173163214638166 0.002633403898972407 
14.173163214638166 0.002633403898972407 
15.173163214638166 0.002633403898972407 
#####################################################################
# End of data export. Simulation finished at: 2017-05-25T13:50+0000 #
#####################################################################
