0.000000000000000000e+00 nan
1.000038523514089173e+00 1.102892361783177622e+00
2.000077047028178345e+00 1.083262358461352548e+00
3.000115570542269960e+00 1.136907238653585894e+00
4.000154094056356691e+00 1.206280695587246932e+00
5.000192617570448306e+00 1.279273017594375172e+00
6.000231141084539921e+00 1.247138653055272606e+00
7.000269664598627983e+00 1.218662472781970596e+00
8.000308188112713381e+00 1.231103611909355022e+00
9.000346711626805885e+00 1.206943512235253646e+00
1.000038523514089661e+01 1.193798058291869912e+00
1.100042375865498734e+01 1.176819448019212899e+00
1.200046228216907984e+01 1.193701368659257245e+00
1.300050080568316702e+01 1.173533992120830094e+00
1.400053932919725597e+01 1.203719784692432349e+00
1.500057785271133604e+01 1.183878185530719440e+00
1.600061637622542676e+01 1.206518563872815752e+00
1.700065489973951927e+01 1.211830950684121833e+00
1.800069342325361177e+01 1.208580904239699105e+00
1.900073194676770427e+01 1.248862196555480253e+00
2.000077047028179322e+01 1.270363447275906665e+00
2.100080899379588217e+01 1.280067792049465858e+00
2.200084751730997468e+01 1.290828524833416591e+00
2.300088604082406718e+01 1.322597980395866735e+00
2.400092456433815968e+01 1.370038287957050294e+00
2.500096308785225219e+01 1.326003569032864648e+00
2.600100161136633403e+01 1.399625327905356764e+00
2.700104013488043009e+01 1.464354028238979533e+00
2.800107865839451193e+01 1.492907219406424124e+00
2.900111718190861509e+01 1.543159429122027193e+00
3.000115570542267207e+01 1.690576444620339736e+00
3.100119422893677879e+01 1.654606511221145881e+00
3.200123275245085352e+01 1.770933193052487420e+00
3.300127127596496734e+01 1.788977240034968608e+00
3.400130979947903853e+01 1.892557545669577568e+00
3.500134832299314525e+01 1.875658898690641507e+00
3.600138684650722354e+01 1.957104672189930783e+00
3.700142537002133736e+01 1.993631569026349304e+00
3.800146389353540854e+01 2.055263295046638294e+00
3.900150241704950815e+01 1.961463441381712691e+00
4.000154094056358645e+01 2.000203108689150522e+00
4.100157946407765053e+01 2.134854942318901383e+00
4.200161798759176435e+01 2.273212409053403604e+00
4.300165651110583553e+01 2.220855005364539281e+00
4.400169503461994935e+01 2.395693804173569585e+00
4.500173355813402054e+01 2.366071714870464859e+00
4.600177208164813436e+01 2.362365151267139307e+00
4.700181060516219844e+01 2.651697233518016894e+00
4.800184912867631937e+01 2.632888656201166633e+00
4.900188765219036924e+01 2.697155635134601770e+00
5.000192617570450437e+01 2.690904511456270409e+00
5.100196469921855424e+01 2.713213533336700678e+00
5.200200322273266806e+01 2.250384322602469567e+00
5.300204174624673925e+01 2.422240777385755717e+00
5.400208026976086018e+01 2.106487912492073455e+00
5.500211879327493847e+01 2.184013482149671503e+00
5.600215731678902387e+01 1.785563525391465456e+00
5.700219584030310926e+01 1.745477347369722487e+00
5.800223436381723019e+01 1.679456443319115699e+00
5.900227288733129427e+01 1.770756321508977216e+00
6.000231141084534414e+01 1.581033353769101479e+00
6.100234993435946507e+01 1.749769196117323622e+00
6.200238845787355757e+01 1.644953233996481634e+00
6.300242698138762876e+01 1.668596819191062286e+00
6.400246550490170705e+01 1.615946665934495208e+00
6.500250402841582797e+01 1.695486449231116133e+00
6.600254255192993469e+01 1.609658873073337215e+00
6.700258107544398456e+01 1.978679384511088601e+00
6.800261959895807706e+01 1.927903686688773766e+00
6.900265812247219799e+01 2.059247391243722802e+00
7.000269664598629049e+01 2.331027533131075469e+00
7.100273516950035457e+01 2.294732128384862069e+00
7.200277369301444708e+01 2.363351091653299374e+00
7.300281221652856800e+01 2.516905308772324101e+00
7.400285074004267472e+01 2.473331319238078141e+00
7.500288926355671038e+01 2.324115062929664521e+00
7.600292778707081709e+01 2.610219614861585047e+00
7.700296631058493801e+01 2.545560680714356927e+00
7.800300483409901631e+01 2.571212425184643990e+00
7.900304335761303776e+01 2.635590120722641760e+00
8.000308188112717289e+01 2.724616109066028802e+00
8.100312040464130803e+01 2.816596360822527956e+00
8.200315892815530106e+01 2.817715488349481046e+00
8.300319745166940777e+01 2.647266150737741963e+00
8.400323597518352869e+01 2.998862819269588531e+00
8.500327449869763541e+01 2.635409725970975003e+00
8.600331302221167107e+01 2.831986525623831685e+00
8.700335154572577778e+01 2.891688194511287335e+00
8.800339006923989871e+01 2.517995979876452850e+00
8.900342859275400542e+01 2.557558165160373154e+00
9.000346711626804108e+01 2.153334430051743187e+00
9.100350563978214780e+01 2.005182247409841967e+00
9.200354416329626872e+01 1.868963718547667741e+00
9.300358268681037544e+01 2.084683749432423294e+00
9.400362121032439688e+01 1.941342055056773042e+00
9.500365973383851781e+01 1.965748183255142445e+00
9.600369825735263873e+01 2.176018037757390555e+00
9.700373678086674545e+01 2.079545254803681686e+00
9.800377530438073848e+01 2.137067533190332380e+00
9.900381382789488782e+01 2.003627151108643201e+00
1.000038523514090087e+02 1.930022313916850862e+00
1.010038908749230018e+02 1.663000386568837419e+00
1.020039293984371085e+02 1.505915171059706958e+00
1.030039679219512294e+02 1.192403501569777147e+00
1.040040064454653361e+02 1.095506738912146671e+00
1.050040449689793718e+02 9.754121595784365217e-01
1.060040834924934785e+02 8.787036145003258580e-01
1.070041220160075710e+02 8.786095057105647310e-01
1.080041605395217204e+02 8.186092704385905527e-01
1.090041990630357276e+02 8.186092704385905527e-01
1.100042375865498769e+02 8.186092704385905527e-01
1.110042761100639694e+02 8.186092704385905527e-01
1.120043146335780477e+02 8.186092704385905527e-01
1.130043531570921402e+02 8.186092704385905527e-01
1.140043916806062185e+02 8.186092704385905527e-01
1.150044302041202968e+02 8.186092704385905527e-01
1.160044687276344604e+02 8.186092704385905527e-01
1.170045072511484392e+02 8.186092704385905527e-01
1.180045457746625885e+02 8.186092704385905527e-01
1.190045842981767095e+02 8.186092704385905527e-01
1.200046228216906883e+02 8.186092704385905527e-01
1.210046613452048518e+02 8.186092704385905527e-01
1.220046998687189301e+02 8.186092704385905527e-01
1.230047383922330084e+02 8.186092704385905527e-01
1.240047769157471151e+02 8.186092704385905527e-01
1.250048154392611792e+02 8.186092704385905527e-01
1.260048539627752575e+02 8.186092704385905527e-01
1.270048924862894211e+02 8.186092704385905527e-01
1.280049310098034141e+02 8.186092704385905527e-01
1.290049695333176203e+02 8.186092704385905527e-01
1.300050080568316559e+02 8.186092704385905527e-01
1.310050465803457200e+02 8.186092704385905527e-01
1.320050851038598694e+02 8.186092704385905527e-01
1.330051236273739050e+02 8.186092704385905527e-01
1.340051621508879691e+02 8.186092704385905527e-01
1.350052006744021753e+02 8.186092704385905527e-01
