#####################################################################
# Alchemist log file - simulation started at: 2017-05-25T02:43+0000 #
#####################################################################
# random = 7.0, targets = 100.0, density = 0.2247883923996312, gridShift = 1.0, perturbation = 0.5, connfactor = 1.0
#
# The columns have the following meaning: 
# time se[Mean] 
0.0 NaN 
1.001616958347866 NaN 
2.0016169583478662 1.1632678571428572 
3.0016169583478662 1.2368696428571428 
4.001616958347866 1.3766930059523812 
5.001616958347866 1.4845383101851852 
6.001616958347866 1.7405786871693123 
7.001616958347866 1.7666186673280424 
8.001616958347867 1.9478401951058204 
9.001616958347867 1.8089537698412699 
10.001616958347867 1.692686474867725 
11.001616958347867 1.5200471891534393 
12.001616958347867 1.214607738095238 
13.001616958347867 1.081412648809524 
14.001616958347867 1.07302294973545 
15.001616958347867 0.8580610449735451 
16.001616958347867 0.9809905423280425 
17.001616958347867 0.8825066137566139 
18.001616958347867 0.9942087962962964 
19.001616958347867 0.8750235449735451 
20.001616958347867 0.9090123015873017 
21.001616958347867 0.8186730820105821 
22.001616958347867 0.781596164021164 
23.001616958347867 0.7481314153439154 
24.001616958347867 0.7418921957671958 
25.001616958347867 0.7393121031746032 
26.001616958347867 0.7385116402116403 
27.001616958347867 0.739124007936508 
28.001616958347867 0.7395318121693122 
29.001616958347867 0.7396 
30.001616958347867 0.7396 
31.001616958347867 0.7396 
32.00161695834787 0.7396 
33.00161695834787 0.7396 
34.00161695834787 0.7396 
35.00161695834787 0.7396 
36.00161695834787 0.7396 
37.00161695834787 0.7396 
38.00161695834787 0.7396 
39.00161695834787 0.7396 
40.00161695834787 0.7396 
#####################################################################
# End of data export. Simulation finished at: 2017-05-25T02:43+0000 #
#####################################################################
