#####################################################################
# Alchemist log file - simulation started at: 2017-05-24T21:44+0000 #
#####################################################################
# random = 16.0, targets = 1.0, density = 14.160781367816199, gridShift = 0.0, perturbation = 0.5, connfactor = 0.25
#
# The columns have the following meaning: 
# time se[Mean] 
0.0 NaN 
1.000419502192421 NaN 
2.000419502192421 1.0 
3.000419502192421 1.0 
4.000419502192421 0.9993425378040762 
5.000419502192421 0.9960552268244576 
6.000419502192421 0.99474030243261 
7.000419502192421 0.9921104536489151 
8.000419502192422 0.9914529914529915 
9.000419502192422 0.992767915844839 
10.000419502192422 0.98948060486522 
11.000419502192422 0.9914529914529915 
12.000419502192422 0.9901380670611438 
13.000419502192422 0.9914529914529915 
14.000419502192422 0.9881656804733727 
15.000419502192422 0.9907955292570676 
16.000419502192422 0.98948060486522 
17.000419502192422 0.9881656804733727 
18.000419502192422 0.98948060486522 
19.000419502192422 0.9901380670611438 
20.000419502192422 0.9881656804733727 
21.000419502192422 0.9907955292570676 
22.000419502192422 0.992767915844839 
23.000419502192422 0.992767915844839 
24.000419502192422 0.9960552268244576 
25.000419502192422 0.9967126890203813 
26.000419502192422 0.9986850756081526 
27.000419502192422 0.9993425378040762 
28.000419502192422 1.0 
29.000419502192422 1.0 
30.000419502192422 1.0 
31.000419502192422 1.0 
32.00041950219242 1.0 
33.00041950219242 1.0 
34.00041950219242 1.0 
35.00041950219242 1.0 
36.00041950219242 1.0 
37.00041950219242 1.0 
38.00041950219242 1.0 
39.00041950219242 1.0 
40.00041950219242 1.0 
41.00041950219242 1.0 
42.00041950219242 1.0 
43.00041950219242 0.9993425378040762 
44.00041950219242 0.9993425378040762 
45.00041950219242 0.9967126890203813 
46.00041950219242 0.9967126890203813 
47.00041950219242 0.9960552268244575 
48.00041950219242 0.995397764628534 
49.00041950219242 0.9947403024326102 
50.00041950219242 0.992767915844839 
51.00041950219242 0.9914529914529915 
52.00041950219242 0.9894806048652204 
53.00041950219242 0.9894806048652204 
54.00041950219242 0.9894806048652204 
55.00041950219242 0.9861932938856014 
56.00041950219242 0.9855358316896781 
57.00041950219242 0.9835634451019062 
58.00041950219242 0.9868507560815255 
59.00041950219242 0.9809335963182118 
60.00041950219242 0.984878369493754 
61.00041950219242 0.9796186719263645 
62.00041950219242 0.9815910585141353 
63.00041950219242 0.9750164365548976 
64.00041950219241 0.9822485207100593 
65.00041950219241 0.9776462853385928 
66.00041950219241 0.9796186719263645 
67.00041950219241 0.9842209072978304 
68.00041950219241 0.9789612097304403 
69.00041950219241 0.9842209072978304 
70.00041950219241 0.9842209072978305 
71.00041950219241 0.9868507560815254 
72.00041950219241 0.9881656804733727 
73.00041950219241 0.9901380670611438 
74.00041950219241 0.9921104536489151 
75.00041950219241 0.9914529914529915 
76.00041950219241 0.9940828402366865 
77.00041950219241 0.9953977646285339 
78.00041950219241 0.9953977646285339 
79.00041950219241 0.9953977646285339 
80.00041950219241 0.9980276134122288 
81.00041950219241 1.0 
82.00041950219241 0.9986850756081526 
83.00041950219241 0.9986850756081525 
84.00041950219241 0.995397764628534 
85.00041950219241 0.9921104536489149 
86.00041950219241 0.988165680473373 
87.00041950219241 0.9835634451019061 
88.00041950219241 0.9783037475345162 
89.00041950219241 0.9710716633793561 
90.00041950219241 0.9625246548323463 
91.00041950219241 0.9520052596975686 
92.00041950219241 0.9414858645627882 
93.00041950219241 0.9309664694280066 
94.00041950219241 0.9171597633136119 
95.00041950219241 0.9026955950032843 
96.00041950219241 1.2044707429322798 
97.00041950219241 1.191321499013809 
98.00041950219241 2.856015779092707 
99.00041950219241 2.8408941485865102 
100.00041950219241 4.782380013149303 
101.00041950219241 5.082182774490545 
102.00041950219241 5.786324786324675 
103.00041950219241 7.134779750164559 
104.00041950219241 8.159763313609306 
105.00041950219241 10.329388560157696 
106.00041950219241 11.134779750164626 
107.00041950219241 12.34451019066429 
108.00041950219241 13.913872452333841 
109.00041950219241 14.213675213675069 
110.00041950219241 17.20315581854014 
111.00041950219241 16.00131492439212 
112.00041950219241 20.08021038790249 
113.00041950219241 16.09335963182129 
114.00041950219241 22.31032215647626 
115.00041950219241 18.8671926364232 
116.00041950219241 25.31821170282741 
117.00041950219241 20.564102564102278 
118.00041950219241 26.87442472057861 
119.00041950219241 21.38067061144002 
120.00041950219241 22.32412886259037 
121.00041950219241 24.5825115055883 
122.00041950219241 21.457593688362874 
123.00041950219241 24.37475345167632 
124.00041950219241 24.80276134122273 
125.00041950219241 23.36752136752128 
126.00041950219241 23.399079552925663 
127.00041950219241 25.794871794871945 
128.00041950219241 25.632478632478712 
129.00041950219241 27.350427350427232 
130.00041950219241 26.297830374753538 
131.00041950219241 27.777777777777867 
132.00041950219241 23.239316239316143 
133.00041950219241 26.636423405653932 
134.00041950219241 24.076265614727145 
135.00041950219241 22.74884944115701 
136.00041950219241 22.62656147271552 
137.00041950219241 18.043392504930907 
138.00041950219241 20.869165023011494 
139.00041950219241 22.07626561472714 
140.00041950219241 19.15253122945429 
141.00041950219241 19.97435897435876 
142.00041950219241 23.727810650887402 
143.00041950219241 16.53057199211031 
144.00041950219241 22.23471400394435 
145.00041950219241 20.888231426693476 
146.00041950219241 18.610782380012747 
147.00041950219241 22.715318869164687 
148.00041950219241 20.93228139381997 
149.00041950219241 21.261669953977133 
150.00041950219241 19.06706114398402 
151.00041950219241 19.157133464826135 
152.00041950219241 17.294543063773915 
153.00041950219241 16.245890861275676 
154.00041950219241 13.514792899408226 
155.00041950219241 11.736357659434777 
156.00041950219241 9.271531886916518 
157.00041950219241 7.082182774490538 
158.00041950219241 7.399737015121589 
159.00041950219241 6.165680473372656 
160.00041950219241 5.302432610124912 
161.00041950219241 4.662064431295181 
162.00041950219241 2.380013149243893 
163.00041950219241 1.239973701512176 
164.00041950219241 0.416173570019714 
165.00041950219241 0.005917159763313532 
166.00041950219241 0.005917159763313513 
167.00041950219241 0.0032873109796186595 
168.00041950219241 0.0019723865877712453 
169.00041950219241 6.574621959237176E-4 
170.00041950219241 0.0 
171.00041950219241 0.0 
172.00041950219241 0.0 
173.00041950219241 0.0 
174.00041950219241 0.0 
175.00041950219241 0.0 
176.00041950219241 0.0 
177.00041950219241 0.0 
178.00041950219241 0.0 
179.00041950219241 0.0 
180.00041950219241 0.0 
181.00041950219241 0.0 
182.00041950219241 0.0 
183.00041950219241 0.0 
184.00041950219241 0.0 
185.00041950219241 0.0 
186.00041950219241 0.0 
187.00041950219241 0.0 
188.00041950219241 0.0 
189.00041950219241 0.0 
190.00041950219241 0.0 
191.00041950219241 0.0 
192.00041950219241 0.0 
193.00041950219241 0.0 
194.00041950219241 0.0 
195.00041950219241 0.0 
196.00041950219241 0.0 
197.00041950219241 0.0 
198.00041950219241 0.0 
199.00041950219241 0.0 
200.00041950219241 0.0 
201.00041950219241 0.0 
202.00041950219241 0.0 
203.00041950219241 0.0 
204.00041950219241 0.0 
205.00041950219241 0.0 
206.00041950219241 0.0 
207.00041950219241 0.0 
208.00041950219241 0.0 
209.00041950219241 0.0 
210.00041950219241 0.0 
211.00041950219241 0.0 
212.00041950219241 0.0 
213.00041950219241 0.0 
214.00041950219241 0.0 
215.00041950219241 0.0 
216.00041950219241 0.0 
217.00041950219241 0.0 
218.00041950219241 0.0 
219.00041950219241 0.0 
220.00041950219241 0.0 
221.00041950219241 0.0 
222.00041950219241 0.0 
223.00041950219241 0.0 
224.00041950219241 0.0 
225.00041950219241 0.0 
226.00041950219241 0.0 
227.00041950219241 0.0 
228.00041950219241 0.0 
229.00041950219241 0.0 
230.00041950219241 0.0 
231.00041950219241 0.0 
232.00041950219241 0.0 
233.00041950219241 0.0 
234.00041950219241 0.0 
235.00041950219241 0.0 
236.00041950219241 0.0 
237.00041950219241 0.0 
238.00041950219241 0.0 
239.00041950219241 0.0 
240.00041950219241 0.0 
241.00041950219241 0.0 
242.00041950219241 0.0 
243.00041950219241 0.0 
244.00041950219241 0.0 
245.00041950219241 0.0 
246.00041950219241 0.0 
247.00041950219241 0.0 
248.00041950219241 0.0 
249.00041950219241 0.0 
250.00041950219241 0.0 
251.00041950219241 0.0 
252.00041950219241 0.0 
253.00041950219241 0.0 
254.00041950219241 0.0 
255.00041950219241 0.0 
256.0004195021924 0.0 
257.0004195021924 0.0 
258.0004195021924 0.0 
#####################################################################
# End of data export. Simulation finished at: 2017-05-24T21:46+0000 #
#####################################################################
