#####################################################################
# Alchemist log file - simulation started at: 2017-05-23T13:39+0000 #
#####################################################################
# random = 5.0, targets = 31.622776601683793, density = 1.7841466528270753, gridShift = 1.0, perturbation = 0.0, connfactor = 0.1
#
# The columns have the following meaning: 
# time se[Mean] 
0.0 NaN 
1.0052461206074068 NaN 
2.005246120607407 1.0 
3.005246120607407 1.0 
4.005246120607406 1.0 
5.005246120607406 1.0 
6.005246120607406 1.0 
7.005246120607406 0.9994531647035414 
8.005246120607406 0.9991752827695978 
9.005246120607406 0.9967100596498196 
10.005246120607406 0.9936801440907257 
11.005246120607406 0.9909102533227182 
12.005246120607406 0.9894940579387144 
13.005246120607406 0.9853436860724175 
14.005246120607406 0.9847254222045303 
15.005246120607406 0.9797771188221168 
16.005246120607406 0.9770072280541093 
17.005246120607406 0.973403691484271 
18.005246120607406 0.9689754376840305 
19.005246120607406 0.9656497830481358 
20.005246120607406 0.9625662960604704 
21.005246120607406 0.9573311821726848 
22.005246120607406 0.9545077199761058 
23.005246120607406 0.9514599472741547 
24.005246120607406 0.9472738611221435 
25.005246120607406 0.9450418770791661 
26.005246120607406 0.9436256816951624 
27.005246120607406 0.9408557909271549 
28.005246120607406 0.9402732413449819 
29.005246120607406 0.9385970211698917 
30.005246120607406 0.9383102106645196 
31.005246120607406 0.9377544467966323 
32.00524612060741 0.9377544467966323 
33.00524612060741 0.9377544467966323 
34.00524612060741 0.9377544467966323 
35.00524612060741 0.9377544467966323 
36.00524612060741 0.9377544467966323 
37.00524612060741 0.9377544467966323 
38.00524612060741 0.9377544467966323 
39.00524612060741 0.9377544467966323 
40.00524612060741 0.9377544467966323 
41.00524612060741 0.9377544467966323 
42.00524612060741 0.9377544467966323 
43.00524612060741 0.9377544467966323 
44.00524612060741 0.9377544467966323 
45.00524612060741 0.9377544467966323 
46.00524612060741 0.9377544467966323 
47.00524612060741 0.9377544467966323 
48.00524612060741 0.9377544467966323 
49.00524612060741 0.9377544467966323 
50.00524612060741 0.9377544467966323 
51.00524612060741 0.9377544467966323 
52.00524612060741 0.9377544467966323 
53.00524612060741 0.9377544467966323 
54.00524612060741 0.9377544467966323 
55.00524612060741 0.9377544467966323 
56.00524612060741 0.9377544467966323 
57.00524612060741 0.9377544467966323 
#####################################################################
# End of data export. Simulation finished at: 2017-05-23T13:40+0000 #
#####################################################################
