0.000000000000000000e+00 nan
0.000000000000000000e+00 1.378928161575332378e-02
0.000000000000000000e+00 2.168766531647427775e-01
8.881784197001252323e-16 2.924613418939145393e-01
0.000000000000000000e+00 3.419848715001000961e-01
1.776356839400250465e-15 4.204778043808686250e-01
1.776356839400250465e-15 5.329753281033118295e-01
0.000000000000000000e+00 1.025362045799655286e+00
0.000000000000000000e+00 9.932617260105436330e-01
3.552713678800500929e-15 9.875380435363868559e-01
3.552713678800500929e-15 1.010414588047447770e+00
3.552713678800500929e-15 9.154589764569537325e-01
3.552713678800500929e-15 9.941045980048819342e-01
0.000000000000000000e+00 8.826090045198785594e-01
0.000000000000000000e+00 9.481714000929780672e-01
0.000000000000000000e+00 8.394174068823175849e-01
0.000000000000000000e+00 7.528915715707261702e-01
1.065814103640150279e-14 9.179019209167161852e-01
7.105427357601001859e-15 6.568586226199217837e-01
3.552713678800500929e-15 9.219972796076011390e-01
7.105427357601001859e-15 6.766775395744665245e-01
1.421085471520200372e-14 6.992453522903536722e-01
7.105427357601001859e-15 5.212227700132407993e-01
3.552713678800500929e-15 2.981520439690977797e-01
7.105427357601001859e-15 2.874215528529530661e-01
7.105427357601001859e-15 2.427892016388527863e-01
0.000000000000000000e+00 2.292841408656598190e-01
7.105427357601001859e-15 2.330292609114377467e-01
0.000000000000000000e+00 2.220898723043674694e-01
1.065814103640150279e-14 2.117950517519872899e-01
0.000000000000000000e+00 2.088112924778658119e-01
1.421085471520200372e-14 2.107507568604116421e-01
0.000000000000000000e+00 2.119626648962533444e-01
0.000000000000000000e+00 2.114551003686312713e-01
2.131628207280300558e-14 2.121580642219615676e-01
7.105427357601001859e-15 2.122038255551978447e-01
1.421085471520200372e-14 2.121300059243751146e-01
7.105427357601001859e-15 2.121300059243751146e-01
7.105427357601001859e-15 2.121300059243751146e-01
0.000000000000000000e+00 2.121300059243751146e-01
1.421085471520200372e-14 2.121300059243751146e-01
7.105427357601001859e-15 2.121300059243751146e-01
2.842170943040400743e-14 2.121300059243751146e-01
1.421085471520200372e-14 2.121300059243751146e-01
1.421085471520200372e-14 2.121300059243751146e-01
0.000000000000000000e+00 2.121300059243751146e-01
7.105427357601001859e-15 2.121300059243751146e-01
