#####################################################################
# Alchemist log file - simulation started at: 2017-05-24T17:41+0000 #
#####################################################################
# random = 15.0, targets = 31.622776601683793, density = 7.099073319511142, gridShift = 0.0, perturbation = 0.5, connfactor = 2.0
#
# The columns have the following meaning: 
# time se[Mean] 
0.0 NaN 
1.0001976518064393 NaN 
2.000197651806439 1.028921646258475 
3.000197651806439 1.044190258948643 
4.000197651806439 1.066678179799315 
5.000197651806439 1.0981263021207939 
6.000197651806439 1.0863020359591946 
7.000197651806439 1.1206967461971202 
8.000197651806438 1.144123666505651 
9.000197651806438 1.1646001647670403 
10.000197651806438 1.1913078637366534 
11.000197651806438 1.2024205010617337 
12.000197651806438 1.1991103889745858 
13.000197651806438 1.2148757923566083 
14.000197651806438 1.223757151419524 
15.000197651806438 1.2307048177277 
16.000197651806438 1.2463654507008088 
17.000197651806438 1.2678629932731302 
18.000197651806438 1.2999062539001414 
19.000197651806438 1.344907749644586 
20.000197651806438 1.360176468947983 
21.000197651806438 1.4272358680842008 
22.000197651806438 1.4718262417093788 
23.000197651806438 1.5320130855152965 
24.000197651806438 1.5956575152420451 
25.000197651806438 1.68518288782539 
26.000197651806438 1.7316981576583046 
27.000197651806438 1.7913494046254426 
28.000197651806438 1.8682485773036879 
29.000197651806438 1.9141012383025784 
30.000197651806438 1.9812224085143986 
31.000197651806438 1.9848564952792564 
32.00019765180644 2.066565533142863 
33.00019765180644 2.0786963757370915 
34.00019765180644 2.105272738333464 
35.00019765180644 2.1423849493970155 
36.00019765180644 2.1587073465922018 
37.00019765180644 2.1976988783837212 
38.00019765180644 2.1806284469418604 
39.00019765180644 2.248031453180508 
40.00019765180644 2.217569118446794 
41.00019765180644 2.4138544808798623 
42.00019765180644 3.211595071769046 
43.00019765180644 3.363181907819306 
44.00019765180644 3.6696175377543048 
45.00019765180644 4.304781920224548 
46.00019765180644 4.746705590488735 
47.00019765180644 5.8515625846489 
48.00019765180644 5.805577501614041 
49.00019765180644 6.980829019850872 
50.00019765180644 7.4025170634144315 
51.00019765180644 7.388840017470471 
52.00019765180644 8.496221752650033 
53.00019765180644 8.446647812985425 
54.00019765180644 9.286727805775605 
55.00019765180644 9.20757821722593 
56.00019765180644 9.585163404165122 
57.00019765180644 9.26720992535782 
58.00019765180644 10.241435888917115 
59.00019765180644 11.982728139267824 
60.00019765180644 12.200933971717697 
61.00019765180644 11.541178698591652 
62.00019765180644 10.292623846050846 
63.00019765180644 11.145205518810217 
64.00019765180645 10.139132508060708 
65.00019765180645 9.05288726035495 
66.00019765180645 8.977332548188619 
67.00019765180645 9.355304067907598 
68.00019765180645 9.0993637178937 
69.00019765180645 9.06822435822713 
70.00019765180645 8.887971750016648 
71.00019765180645 8.794581560343435 
72.00019765180645 7.358267291226319 
73.00019765180645 7.198262088870756 
74.00019765180645 7.150881754203682 
75.00019765180645 7.250807439562928 
76.00019765180645 7.785347080265888 
77.00019765180645 8.664659751426733 
78.00019765180645 12.703354715594019 
79.00019765180645 13.182398710833455 
80.00019765180645 14.435054016571414 
81.00019765180645 17.910995598188883 
82.00019765180645 19.309069516334066 
83.00019765180645 25.020544660193263 
84.00019765180645 23.66770949082728 
85.00019765180645 29.719544856278933 
86.00019765180645 30.842543437979717 
87.00019765180645 30.80499538902887 
88.00019765180645 36.213562601180215 
89.00019765180645 34.91466687932509 
90.00019765180645 38.88482318885763 
91.00019765180645 36.51378885943957 
92.00019765180645 38.31373085152235 
93.00019765180645 34.81034311035775 
94.00019765180645 39.298121809630786 
95.00019765180645 45.73947838846059 
96.00019765180645 45.36742551339191 
97.00019765180645 41.81796262237486 
98.00019765180645 34.35479370134282 
99.00019765180645 39.31284410411003 
100.00019765180645 33.132483856924715 
101.00019765180645 28.76262991776154 
102.00019765180645 27.98075926098267 
103.00019765180645 29.9405570711341 
104.00019765180645 27.711795816749596 
105.00019765180645 28.334039105219784 
106.00019765180645 23.038763478463217 
107.00019765180645 24.322958497311916 
108.00019765180645 19.02730013226764 
109.00019765180645 14.24953857968312 
110.00019765180645 12.155540055099339 
111.00019765180645 11.324828770640842 
112.00019765180645 12.361137432045359 
113.00019765180645 11.595309699394912 
114.00019765180645 11.529592851104274 
115.00019765180645 11.774965079556033 
116.00019765180645 12.634820218103938 
117.00019765180645 12.952365876568365 
118.00019765180645 13.941305081781838 
119.00019765180645 14.205684294233489 
120.00019765180645 14.653742349466535 
121.00019765180645 15.211885281452094 
122.00019765180645 15.162811269473593 
123.00019765180645 15.915007482947912 
124.00019765180645 15.725091774136624 
125.00019765180645 16.1506438010008 
126.00019765180645 15.638300355371376 
127.00019765180645 16.226857133717594 
128.00019765180645 16.834769936567014 
129.00019765180645 17.46366031464965 
130.00019765180645 17.536303425619327 
131.00019765180645 16.49151391660459 
132.00019765180645 16.474471331433058 
133.00019765180645 15.228365716670949 
134.00019765180645 14.951513830928223 
135.00019765180645 14.17428962532789 
136.00019765180645 14.205110802991156 
137.00019765180645 13.995059505612609 
138.00019765180645 14.294149987349844 
139.00019765180645 13.512746530654766 
140.00019765180645 13.591908359216939 
141.00019765180645 12.5369815832861 
142.00019765180645 11.90901288108381 
143.00019765180645 10.964701221916473 
144.00019765180645 10.408466431526861 
145.00019765180645 10.272548520839843 
146.00019765180645 10.155898560753277 
147.00019765180645 10.188095825316244 
148.00019765180645 10.124943171032363 
149.00019765180645 10.124943171032363 
150.00019765180645 10.124943171032363 
151.00019765180645 10.124943171032363 
152.00019765180645 10.124943171032363 
153.00019765180645 10.124943171032363 
154.00019765180645 10.124943171032363 
155.00019765180645 10.124943171032363 
156.00019765180645 10.124943171032363 
157.00019765180645 10.124943171032363 
158.00019765180645 10.124943171032363 
159.00019765180645 10.124943171032363 
160.00019765180645 10.124943171032363 
161.00019765180645 10.124943171032363 
162.00019765180645 10.124943171032363 
163.00019765180645 10.124943171032363 
164.00019765180645 10.124943171032363 
165.00019765180645 10.124943171032363 
166.00019765180645 10.124943171032363 
167.00019765180645 10.124943171032363 
168.00019765180645 10.124943171032363 
169.00019765180645 10.124943171032363 
170.00019765180645 10.124943171032363 
171.00019765180645 10.124943171032363 
172.00019765180645 10.124943171032363 
173.00019765180645 10.124943171032363 
174.00019765180645 10.124943171032363 
175.00019765180645 10.124943171032363 
176.00019765180645 10.124943171032363 
177.00019765180645 10.124943171032363 
178.00019765180645 10.124943171032363 
179.00019765180645 10.124943171032363 
180.00019765180645 10.124943171032363 
181.00019765180645 10.124943171032363 
182.00019765180645 10.124943171032363 
183.00019765180645 10.124943171032363 
184.00019765180645 10.124943171032363 
185.00019765180645 10.124943171032363 
186.00019765180645 10.124943171032363 
187.00019765180645 10.124943171032363 
188.00019765180645 10.124943171032363 
189.00019765180645 10.124943171032363 
190.00019765180645 10.124943171032363 
191.00019765180645 10.124943171032363 
192.00019765180645 10.124943171032363 
193.00019765180645 10.124943171032363 
194.00019765180645 10.124943171032363 
195.00019765180645 10.124943171032363 
196.00019765180645 10.124943171032363 
197.00019765180645 10.124943171032363 
198.00019765180645 10.124943171032363 
199.00019765180645 10.124943171032363 
200.00019765180645 10.124943171032363 
201.00019765180645 10.124943171032363 
202.00019765180645 10.124943171032363 
203.00019765180645 10.124943171032363 
204.00019765180645 10.124943171032363 
205.00019765180645 10.124943171032363 
206.00019765180645 10.124943171032363 
207.00019765180645 10.124943171032363 
208.00019765180645 10.124943171032363 
209.00019765180645 10.124943171032363 
#####################################################################
# End of data export. Simulation finished at: 2017-05-24T17:43+0000 #
#####################################################################
