#####################################################################
# Alchemist log file - simulation started at: 2017-05-23T23:05+0000 #
#####################################################################
# random = 13.0, targets = 3.1622776601683795, density = 0.3174802103936399, gridShift = 0.0, perturbation = 0.5, connfactor = 2.0
#
# The columns have the following meaning: 
# time se[Mean] 
0.0 NaN 
1.0093475742791087 NaN 
2.0093475742791087 1.8195482762778865 
3.0093475742791087 2.2806240201748293 
4.009347574279109 2.4868858254540975 
5.009347574279109 2.7597501241043543 
6.009347574279109 2.647387506477861 
7.009347574279109 3.6712779095376815 
8.009347574279108 5.333296236346444 
9.009347574279108 9.699609684006386 
10.009347574279108 15.07576349565315 
11.009347574279108 20.2570473886292 
12.009347574279108 26.76625198075077 
13.009347574279108 23.31407084599093 
14.009347574279108 18.541824247641625 
15.009347574279108 15.231282250104707 
16.009347574279108 10.121608045605777 
17.009347574279108 8.354098139972056 
18.009347574279108 8.15905031550371 
19.009347574279108 8.317277675479477 
20.009347574279108 8.27999400249013 
21.009347574279108 8.358356548691164 
22.009347574279108 8.394733192202056 
23.009347574279108 8.394733192202056 
24.009347574279108 8.394733192202056 
25.009347574279108 8.394733192202056 
26.009347574279108 8.394733192202056 
27.009347574279108 8.394733192202056 
28.009347574279108 8.394733192202056 
29.009347574279108 8.394733192202056 
30.009347574279108 8.394733192202056 
31.009347574279108 8.394733192202056 
32.009347574279104 8.394733192202056 
33.009347574279104 8.394733192202056 
#####################################################################
# End of data export. Simulation finished at: 2017-05-23T23:05+0000 #
#####################################################################
