#####################################################################
# Alchemist log file - simulation started at: 2017-05-25T15:14+0000 #
#####################################################################
# random = 18.0, targets = 10.0, density = 0.1591589639397027, gridShift = 0.0, perturbation = 0.5, connfactor = 0.1
#
# The columns have the following meaning: 
# time se[Mean] 
0.0 NaN 
1.0067713218599703 NaN 
2.0067713218599703 1.0 
3.0067713218599703 1.0 
4.00677132185997 1.0 
5.00677132185997 1.0 
6.00677132185997 1.0 
7.00677132185997 1.0 
8.00677132185997 1.0 
9.00677132185997 1.0 
#####################################################################
# End of data export. Simulation finished at: 2017-05-25T15:14+0000 #
#####################################################################
