#####################################################################
# Alchemist log file - simulation started at: 2017-05-22T14:48+0000 #
#####################################################################
# random = 4.0, targets = 3.1622776601683795, density = 0.04, gridShift = 1.0, perturbation = 0.0, connfactor = 0.1
#
# The columns have the following meaning: 
# time se[Mean] 
0.0 NaN 
1.1124924963623202 NaN 
2.11249249636232 1.0 
3.11249249636232 1.0 
4.11249249636232 1.0 
#####################################################################
# End of data export. Simulation finished at: 2017-05-22T14:48+0000 #
#####################################################################
