#####################################################################
# Alchemist log file - simulation started at: 2017-05-26T01:14+0000 #
#####################################################################
# random = 19.0, targets = 31.622776601683793, density = 14.160781367816199, gridShift = 0.0, perturbation = 0.5, connfactor = 0.75
#
# The columns have the following meaning: 
# time se[Mean] 
0.0 NaN 
1.0033709149780283 NaN 
2.0033709149780283 NaN 
3.0033709149780283 1.000658028441579 
4.003370914978028 0.9999309014579748 
5.003370914978028 0.9993369914070034 
6.003370914978028 0.9952552843518687 
7.003370914978028 0.9930506249767032 
8.003370914978028 0.9924903699267279 
9.003370914978028 0.9908467600350243 
10.003370914978028 0.990682287471994 
11.003370914978028 0.9890089658906697 
12.003370914978028 0.9884379836156141 
13.003370914978028 0.9861273917453133 
14.003370914978028 0.9844061266843513 
15.003370914978028 0.9815108761090859 
16.003370914978028 0.9778394936332296 
17.003370914978028 0.9742519843359679 
18.003370914978028 0.9717578838168138 
19.003370914978028 0.9674284373482347 
20.003370914978028 0.966279633852269 
21.003370914978028 0.9648252934435348 
22.003370914978028 0.9642117355016415 
23.003370914978028 0.9602848515549091 
24.003370914978028 0.9612107309275265 
25.003370914978028 0.9621885652795096 
26.003370914978028 0.9591269006960668 
27.003370914978028 0.9577008306744904 
28.003370914978028 0.9541938231323333 
29.003370914978028 0.954811937652501 
30.003370914978028 0.9526947712888234 
31.003370914978028 0.9523339410686783 
32.00337091497803 0.951089384310176 
33.00337091497803 0.9528562213423711 
34.00337091497803 0.9534652449839469 
35.00337091497803 0.9549192611639681 
36.00337091497803 0.9559013654827074 
37.00337091497803 0.9545101040615551 
38.00337091497803 0.9529758212433146 
39.00337091497803 0.955062127434245 
40.00337091497803 0.9523847944015198 
41.00337091497803 0.9519379261254844 
42.00337091497803 0.9502368679210946 
43.00337091497803 0.949895382793231 
44.00337091497803 0.9474759786198206 
45.00337091497803 0.9453702508647202 
46.00337091497803 0.9418013927985165 
47.00337091497803 0.9387162122375011 
48.00337091497803 0.9372408974457002 
49.00337091497803 0.9329569441957775 
50.00337091497803 0.9307111899055153 
51.00337091497803 0.9251793597052685 
52.00337091497803 0.9208438772514904 
53.00337091497803 0.9155595923362055 
54.00337091497803 0.9102561002744637 
55.00337091497803 0.9024399052375146 
56.00337091497803 0.89396219941932 
57.00337091497803 0.8888168232162147 
58.00337091497803 0.880696598798581 
59.00337091497803 0.8720742232881105 
60.00337091497803 0.8661319668154901 
61.00337091497803 0.8513636041100312 
62.00337091497803 0.8424889549304503 
63.00337091497803 0.8357752036998441 
64.00337091497803 0.8233999910328978 
65.00337091497803 0.8129274761890044 
66.00337091497803 0.8011407886275701 
67.00337091497803 0.7909651280190861 
68.00337091497803 0.7742927214581142 
69.00337091497803 0.7681988396206506 
70.00337091497803 0.7482345688486692 
71.00337091497803 0.7357556020593756 
72.00337091497803 0.7202665053604252 
73.00337091497803 0.707644778645991 
74.00337091497803 0.6941342945634023 
75.00337091497803 0.6779822397195407 
76.00337091497803 0.6685005038061596 
77.00337091497803 0.6410168467951726 
78.00337091497803 0.6597830517217385 
79.00337091497803 0.6466604583566867 
80.00337091497803 0.6690598369290987 
81.00337091497803 0.8340288507782841 
82.00337091497803 0.7582202763197374 
83.00337091497803 0.7436027971871451 
84.00337091497803 0.8698661759653896 
85.00337091497803 0.8764623076085959 
86.00337091497803 0.9390873293553138 
87.00337091497803 0.9569352898460612 
88.00337091497803 1.035426098159242 
89.00337091497803 0.9357923559386818 
90.00337091497803 1.2113485466675387 
91.00337091497803 1.1236814670336082 
92.00337091497803 1.141813027615814 
93.00337091497803 1.1731715507084357 
94.00337091497803 1.246543420042746 
95.00337091497803 1.3614686321308698 
96.00337091497803 1.3219932670382786 
97.00337091497803 1.4831963133738109 
98.00337091497803 1.2054903801216008 
99.00337091497803 1.6565393135357913 
100.00337091497803 1.428416480513763 
101.00337091497803 1.3640135303421965 
102.00337091497803 1.7945578570685938 
103.00337091497803 1.565331932231762 
104.00337091497803 1.6356804799052982 
105.00337091497803 1.7466969693813248 
106.00337091497803 1.9108899464595688 
107.00337091497803 1.8523468761299617 
108.00337091497803 2.2780202959099687 
109.00337091497803 2.1383223926119523 
110.00337091497803 1.9405935934514165 
111.00337091497803 2.5856394545339345 
112.00337091497803 2.4307487211496532 
113.00337091497803 2.1684360389094968 
114.00337091497803 2.3547761241773024 
115.00337091497803 2.3236693098096137 
116.00337091497803 2.5261934033599998 
117.00337091497803 2.4612319543939134 
118.00337091497803 2.777539468555996 
119.00337091497803 2.2709797099671634 
120.00337091497803 3.0594935680697097 
121.00337091497803 2.588807976123038 
122.00337091497803 2.363266582826014 
123.00337091497803 2.573595243224688 
124.00337091497803 2.3994357153345804 
125.00337091497803 2.633363988432615 
126.00337091497803 2.245767762696235 
127.00337091497803 2.675809601164189 
128.00337091497803 2.1379359300829144 
129.00337091497803 3.045215665571778 
130.00337091497803 2.321799347671693 
131.00337091497803 2.2465688824027286 
132.00337091497803 2.432387295956023 
133.00337091497803 2.3758310560632765 
134.00337091497803 1.9086868559271395 
135.00337091497803 1.8350745336077636 
136.00337091497803 1.6912939347606708 
137.00337091497803 1.414916888120174 
138.00337091497803 1.4653673606072457 
139.00337091497803 1.1469588077605737 
140.00337091497803 1.1871181088213152 
141.00337091497803 1.0341440020921469 
142.00337091497803 0.908650217967097 
143.00337091497803 0.8482834741186724 
144.00337091497803 0.6812393716250265 
145.00337091497803 0.8363583932063243 
146.00337091497803 0.651910002357542 
147.00337091497803 0.5501881799946691 
148.00337091497803 0.4937194374747965 
149.00337091497803 0.511397695634831 
150.00337091497803 0.344939427074264 
151.00337091497803 0.34656998416820095 
152.00337091497803 0.2639519175157995 
153.00337091497803 0.2182473869776882 
154.00337091497803 0.22066877780673366 
155.00337091497803 0.16098137128261208 
156.00337091497803 0.16733632896855982 
157.00337091497803 0.1166029056623032 
158.00337091497803 0.09968946338553669 
159.00337091497803 0.09849313771405147 
160.00337091497803 0.07552770462448061 
161.00337091497803 0.08878566809806868 
162.00337091497803 0.08222254800510095 
163.00337091497803 0.06688307551565571 
164.00337091497803 0.05854936957987989 
165.00337091497803 0.05810672311917791 
166.00337091497803 0.05810672311917791 
167.00337091497803 0.05810672311917791 
168.00337091497803 0.05810672311917791 
169.00337091497803 0.05810672311917791 
170.00337091497803 0.05810672311917791 
171.00337091497803 0.05810672311917791 
172.00337091497803 0.05810672311917791 
173.00337091497803 0.05810672311917791 
174.00337091497803 0.05810672311917791 
175.00337091497803 0.05810672311917791 
176.00337091497803 0.05810672311917791 
177.00337091497803 0.05810672311917791 
178.00337091497803 0.05810672311917791 
179.00337091497803 0.05810672311917791 
180.00337091497803 0.05810672311917791 
181.00337091497803 0.05810672311917791 
182.00337091497803 0.05810672311917791 
183.00337091497803 0.05810672311917791 
184.00337091497803 0.05810672311917791 
185.00337091497803 0.05810672311917791 
186.00337091497803 0.05810672311917791 
187.00337091497803 0.05810672311917791 
188.00337091497803 0.05810672311917791 
189.00337091497803 0.05810672311917791 
190.00337091497803 0.05810672311917791 
191.00337091497803 0.05810672311917791 
192.00337091497803 0.05810672311917791 
193.00337091497803 0.05810672311917791 
194.00337091497803 0.05810672311917791 
195.00337091497803 0.05810672311917791 
196.00337091497803 0.05810672311917791 
197.00337091497803 0.05810672311917791 
198.00337091497803 0.05810672311917791 
199.00337091497803 0.05810672311917791 
200.00337091497803 0.05810672311917791 
201.00337091497803 0.05810672311917791 
202.00337091497803 0.05810672311917791 
203.00337091497803 0.05810672311917791 
204.00337091497803 0.05810672311917791 
205.00337091497803 0.05810672311917791 
206.00337091497803 0.05810672311917791 
207.00337091497803 0.05810672311917791 
208.00337091497803 0.05810672311917791 
209.00337091497803 0.05810672311917791 
210.00337091497803 0.05810672311917791 
211.00337091497803 0.05810672311917791 
212.00337091497803 0.05810672311917791 
213.00337091497803 0.05810672311917791 
214.00337091497803 0.05810672311917791 
215.00337091497803 0.05810672311917791 
216.00337091497803 0.05810672311917791 
217.00337091497803 0.05810672311917791 
218.00337091497803 0.05810672311917791 
219.00337091497803 0.05810672311917791 
220.00337091497803 0.05810672311917791 
221.00337091497803 0.05810672311917791 
222.00337091497803 0.05810672311917791 
223.00337091497803 0.05810672311917791 
224.00337091497803 0.05810672311917791 
225.00337091497803 0.05810672311917791 
226.00337091497803 0.05810672311917791 
227.00337091497803 0.05810672311917791 
228.00337091497803 0.05810672311917791 
229.00337091497803 0.05810672311917791 
230.00337091497803 0.05810672311917791 
231.00337091497803 0.05810672311917791 
232.00337091497803 0.05810672311917791 
233.00337091497803 0.05810672311917791 
234.00337091497803 0.05810672311917791 
235.00337091497803 0.05810672311917791 
236.00337091497803 0.05810672311917791 
237.00337091497803 0.05810672311917791 
238.00337091497803 0.05810672311917791 
239.00337091497803 0.05810672311917791 
240.00337091497803 0.05810672311917791 
241.00337091497803 0.05810672311917791 
242.00337091497803 0.05810672311917791 
243.00337091497803 0.05810672311917791 
244.00337091497803 0.05810672311917791 
245.00337091497803 0.05810672311917791 
246.00337091497803 0.05810672311917791 
247.00337091497803 0.05810672311917791 
248.00337091497803 0.05810672311917791 
249.00337091497803 0.05810672311917791 
250.00337091497803 0.05810672311917791 
251.00337091497803 0.05810672311917791 
252.00337091497803 0.05810672311917791 
253.00337091497803 0.05810672311917791 
254.00337091497803 0.05810672311917791 
#####################################################################
# End of data export. Simulation finished at: 2017-05-26T01:17+0000 #
#####################################################################
