#####################################################################
# Alchemist log file - simulation started at: 2017-05-20T14:22+0000 #
#####################################################################
# random = 1.0, targets = 3.1622776601683795, density = 14.160781367816199, gridShift = 1.0, perturbation = 0.5, connfactor = 2.0
#
# The columns have the following meaning: 
# time se[Mean] 
0.0 NaN 
1.0000417374280275 NaN 
2.0000417374280275 1.0047120074869953 
3.0000417374280275 1.00903511875204 
4.0000417374280275 1.028735812201661 
5.0000417374280275 1.111805230543173 
6.0000417374280275 1.0856730006296653 
7.0000417374280275 1.1787926385360263 
8.000041737428027 1.1411886384725667 
9.000041737428027 1.1728710241903022 
10.000041737428027 1.1170354964100588 
11.000041737428027 1.12715016216255 
12.000041737428027 1.1261078169060346 
13.000041737428027 1.1236473617563465 
14.000041737428027 1.158934853078433 
15.000041737428027 1.13755538989644 
16.000041737428027 1.1494528245060216 
17.000041737428027 1.1262292992410972 
18.000041737428027 1.1179622807655598 
19.000041737428027 1.0933562263129026 
20.000041737428027 1.0746232597898444 
21.000041737428027 1.0612099151343115 
22.000041737428027 1.0435229643549018 
23.000041737428027 1.0378788434363528 
24.000041737428027 1.0276379707005021 
25.000041737428027 1.0171799279565126 
26.000041737428027 1.0180602152952727 
27.000041737428027 1.0166270424508517 
28.000041737428027 1.0122372105151904 
29.000041737428027 1.0157871699655545 
30.000041737428027 1.0201042846957085 
31.000041737428027 1.021784988342099 
32.00004173742803 1.0308460195035194 
33.00004173742803 1.0347701779389165 
34.00004173742803 1.0472390316035691 
35.00004173742803 1.053411090664356 
36.00004173742803 1.0636885104256366 
37.00004173742803 1.06831968183554 
38.00004173742803 1.0842209170552046 
39.00004173742803 1.090368610583016 
40.00004173742803 1.0974395207734866 
41.00004173742803 1.102309522283335 
42.00004173742803 1.1050217392292878 
43.00004173742803 1.1109157119014395 
44.00004173742803 1.116051617033439 
45.00004173742803 1.11963348415404 
46.00004173742803 1.125134716647547 
47.00004173742803 1.1255634006978918 
48.00004173742803 1.1236872787984364 
49.00004173742803 1.1301732261655448 
50.00004173742803 1.1365482682139727 
51.00004173742803 1.1363631026354748 
52.00004173742803 1.1648050429868095 
53.00004173742803 1.210815641355957 
54.00004173742803 1.2323479037945724 
55.00004173742803 1.2984015785914074 
56.00004173742803 1.3655475423883183 
57.00004173742803 1.396076220153246 
58.00004173742803 1.500401098836374 
59.00004173742803 1.58618539946653 
60.00004173742803 1.5968179594938978 
61.00004173742803 1.6732360951359075 
62.00004173742803 1.876471480984651 
63.00004173742803 2.5233740143654266 
64.00004173742803 2.389122721496187 
65.00004173742803 3.1278562479094916 
66.00004173742803 3.6090836933798913 
67.00004173742803 3.260562615249958 
68.00004173742803 4.866349139053033 
69.00004173742803 4.867847726953146 
70.00004173742803 4.605338715923671 
71.00004173742803 5.426931299501454 
72.00004173742803 5.787809082991117 
73.00004173742803 5.9503683181853955 
74.00004173742803 7.116760364837096 
75.00004173742803 6.234625414942363 
76.00004173742803 6.568778455042066 
77.00004173742803 7.544509864327427 
78.00004173742803 7.433950946453043 
79.00004173742803 7.334401847615558 
80.00004173742803 7.574986599526208 
81.00004173742803 8.400109428781603 
82.00004173742803 7.886875753596216 
83.00004173742803 7.695832940595458 
84.00004173742803 8.334754199896508 
85.00004173742803 8.83028448673745 
86.00004173742803 8.194485933842941 
87.00004173742803 8.629877977756168 
88.00004173742803 8.652493535666562 
89.00004173742803 7.492886530423784 
90.00004173742803 7.65475799086693 
91.00004173742803 7.029026326909194 
92.00004173742803 7.1613312632930874 
93.00004173742803 8.112061454201214 
94.00004173742803 8.218362753783342 
95.00004173742803 7.62417140263315 
96.00004173742803 7.233999647344594 
97.00004173742803 5.939234554578355 
98.00004173742803 7.032104961989495 
99.00004173742803 5.642200475549368 
100.00004173742803 5.863141523689168 
101.00004173742803 5.753029661143096 
102.00004173742803 5.242611840739626 
103.00004173742803 5.6378800996988225 
104.00004173742803 5.3574998405979875 
105.00004173742803 4.9372020486306445 
106.00004173742803 4.740767440635791 
107.00004173742803 4.295350284244496 
108.00004173742803 3.3183457032749546 
109.00004173742803 3.309511439742437 
110.00004173742803 3.0151061990831547 
111.00004173742803 3.2503310339648137 
112.00004173742803 2.7595770693720496 
113.00004173742803 2.4886090047062375 
114.00004173742803 2.4561437406075313 
115.00004173742803 2.1921054543295018 
116.00004173742803 2.4858429513114757 
117.00004173742803 2.1203070514328144 
118.00004173742803 1.9864392582528163 
119.00004173742803 2.211144002803381 
120.00004173742803 1.9446304571870843 
121.00004173742803 1.9268802486910221 
122.00004173742803 1.9183287828516533 
123.00004173742803 1.779464439335465 
124.00004173742803 1.7899462989068373 
125.00004173742803 1.7674055576060508 
126.00004173742803 1.7564174365466718 
127.00004173742803 1.7686091930752703 
128.00004173742803 1.7529798325319919 
129.00004173742803 1.7514122571224748 
130.00004173742803 1.7506712077708726 
131.00004173742803 1.7416157720923695 
132.00004173742803 1.7415863776185303 
133.00004173742803 1.7396906288487584 
134.00004173742803 1.7378001012646234 
135.00004173742803 1.73910312640959 
136.00004173742803 1.7385336148491255 
137.00004173742803 1.748966740806484 
138.00004173742803 1.748480173645438 
139.00004173742803 1.7580061386307944 
140.00004173742803 1.7639291442198306 
141.00004173742803 1.7604160971739427 
142.00004173742803 1.7830531891810775 
143.00004173742803 1.7836147779368319 
144.00004173742803 1.779062101267862 
145.00004173742803 1.785281190494406 
146.00004173742803 1.7932732115732684 
147.00004173742803 1.79820568398422 
148.00004173742803 1.811060201382619 
149.00004173742803 1.7948007680851632 
150.00004173742803 1.8006427338860407 
151.00004173742803 1.8135183244496622 
152.00004173742803 1.8092704333942629 
153.00004173742803 1.807962761249909 
154.00004173742803 1.8140984782703709 
155.00004173742803 1.824750333852605 
156.00004173742803 1.8154458001111975 
157.00004173742803 1.8144251047542188 
158.00004173742803 1.8206337452393238 
159.00004173742803 1.8286101078574062 
160.00004173742803 1.8185146313115854 
161.00004173742803 1.824237677325801 
162.00004173742803 1.8208314016989773 
163.00004173742803 1.804151151769003 
164.00004173742803 1.8053186259763714 
165.00004173742803 1.795617653875748 
166.00004173742803 1.8002122833563574 
167.00004173742803 1.8182042489410644 
168.00004173742803 1.8214351304150111 
169.00004173742803 1.808790458612918 
170.00004173742803 1.7990017015946844 
171.00004173742803 1.7789981382737656 
172.00004173742803 1.7957000470215094 
173.00004173742803 1.7776386387625842 
174.00004173742803 1.7833113928200828 
175.00004173742803 1.7795517978546451 
176.00004173742803 1.7765227920330744 
177.00004173742803 1.782533787524822 
178.00004173742803 1.7784334430248676 
179.00004173742803 1.773495157405567 
180.00004173742803 1.7686516361211875 
181.00004173742803 1.7608723379400473 
182.00004173742803 1.7452421778408906 
183.00004173742803 1.7449447523120765 
184.00004173742803 1.7425017135195633 
185.00004173742803 1.7482717400122507 
186.00004173742803 1.7411613532595862 
187.00004173742803 1.7373143425776871 
188.00004173742803 1.736921578527702 
189.00004173742803 1.735029105563253 
190.00004173742803 1.7402259461862464 
191.00004173742803 1.735271222934814 
192.00004173742803 1.7342313883266305 
193.00004173742803 1.7367570023174133 
194.00004173742803 1.7338276013489555 
195.00004173742803 1.7338991536195352 
196.00004173742803 1.7334495345358893 
197.00004173742803 1.7319306863702213 
198.00004173742803 1.7318370882442622 
199.00004173742803 1.7320169358777204 
200.00004173742803 1.7322756844002185 
201.00004173742803 1.7323656082169476 
202.00004173742803 1.7324555320336767 
203.00004173742803 1.7324555320336767 
204.00004173742803 1.7324555320336767 
205.00004173742803 1.7324555320336767 
206.00004173742803 1.7324555320336767 
207.00004173742803 1.7324555320336767 
208.00004173742803 1.7324555320336767 
209.00004173742803 1.7324555320336767 
210.00004173742803 1.7324555320336767 
211.00004173742803 1.7324555320336767 
212.00004173742803 1.7324555320336767 
213.00004173742803 1.7324555320336767 
214.00004173742803 1.7324555320336767 
215.00004173742803 1.7324555320336767 
216.00004173742803 1.7324555320336767 
217.00004173742803 1.7324555320336767 
218.00004173742803 1.7324555320336767 
219.00004173742803 1.7324555320336767 
220.00004173742803 1.7324555320336767 
221.00004173742803 1.7324555320336767 
222.00004173742803 1.7324555320336767 
223.00004173742803 1.7324555320336767 
224.00004173742803 1.7324555320336767 
225.00004173742803 1.7324555320336767 
226.00004173742803 1.7324555320336767 
227.00004173742803 1.7324555320336767 
228.00004173742803 1.7324555320336767 
229.00004173742803 1.7324555320336767 
230.00004173742803 1.7324555320336767 
231.00004173742803 1.7324555320336767 
232.00004173742803 1.7324555320336767 
233.00004173742803 1.7324555320336767 
234.00004173742803 1.7324555320336767 
235.00004173742803 1.7324555320336767 
236.00004173742803 1.7324555320336767 
237.00004173742803 1.7324555320336767 
238.00004173742803 1.7324555320336767 
239.00004173742803 1.7324555320336767 
240.00004173742803 1.7324555320336767 
241.00004173742803 1.7324555320336767 
242.00004173742803 1.7324555320336767 
243.00004173742803 1.7324555320336767 
244.00004173742803 1.7324555320336767 
245.00004173742803 1.7324555320336767 
246.00004173742803 1.7324555320336767 
247.00004173742803 1.7324555320336767 
248.00004173742803 1.7324555320336767 
249.00004173742803 1.7324555320336767 
250.00004173742803 1.7324555320336767 
251.00004173742803 1.7324555320336767 
252.00004173742803 1.7324555320336767 
253.00004173742803 1.7324555320336767 
254.00004173742803 1.7324555320336767 
255.00004173742803 1.7324555320336767 
256.00004173742803 1.7324555320336767 
257.00004173742803 1.7324555320336767 
258.00004173742803 1.7324555320336767 
259.00004173742803 1.7324555320336767 
260.00004173742803 1.7324555320336767 
261.00004173742803 1.7324555320336767 
262.00004173742803 1.7324555320336767 
263.00004173742803 1.7324555320336767 
264.00004173742803 1.7324555320336767 
265.00004173742803 1.7324555320336767 
266.00004173742803 1.7324555320336767 
267.00004173742803 1.7324555320336767 
268.00004173742803 1.7324555320336767 
269.00004173742803 1.7324555320336767 
270.00004173742803 1.7324555320336767 
271.00004173742803 1.7324555320336767 
272.00004173742803 1.7324555320336767 
273.00004173742803 1.7324555320336767 
274.00004173742803 1.7324555320336767 
275.00004173742803 1.7324555320336767 
276.00004173742803 1.7324555320336767 
277.00004173742803 1.7324555320336767 
278.00004173742803 1.7324555320336767 
279.00004173742803 1.7324555320336767 
280.00004173742803 1.7324555320336767 
281.00004173742803 1.7324555320336767 
282.00004173742803 1.7324555320336767 
283.00004173742803 1.7324555320336767 
284.00004173742803 1.7324555320336767 
285.00004173742803 1.7324555320336767 
#####################################################################
# End of data export. Simulation finished at: 2017-05-20T14:33+0000 #
#####################################################################
