0.000000000000000000e+00 nan
6.661338147750939243e-16 3.539197749754464661e-01
1.332267629550187849e-15 1.813547070965272068e-01
8.881784197001252323e-16 1.812432245748324122e-01
2.664535259100375697e-15 1.785570635219605462e-01
8.881784197001252323e-16 1.750984308287326374e-01
1.776356839400250465e-15 1.721997991017097385e-01
8.881784197001252323e-16 1.708371525022063797e-01
5.329070518200751394e-15 1.654282051862422942e-01
5.329070518200751394e-15 1.587234946109604417e-01
1.776356839400250465e-15 1.534616669163045011e-01
1.776356839400250465e-15 1.442415362297346237e-01
3.552713678800500929e-15 1.410427065814439107e-01
1.776356839400250465e-15 1.426733695185364303e-01
1.776356839400250465e-15 1.408099647867687709e-01
0.000000000000000000e+00 1.375427775716779044e-01
1.065814103640150279e-14 1.381531667426532661e-01
7.105427357601001859e-15 1.372936304602635216e-01
1.065814103640150279e-14 1.371460143445220881e-01
0.000000000000000000e+00 1.375208582002671598e-01
3.552713678800500929e-15 1.375208582002671598e-01
1.065814103640150279e-14 1.375208582002671598e-01
7.105427357601001859e-15 1.375208582002671598e-01
