#####################################################################
# Alchemist log file - simulation started at: 2017-05-24T15:56+0000 #
#####################################################################
# random = 15.0, targets = 10.0, density = 0.11269076455391362, gridShift = 0.0, perturbation = 0.0, connfactor = 1.0
#
# The columns have the following meaning: 
# time se[Mean] 
0.0 NaN 
1.0284742536538987 NaN 
2.028474253653899 1.1542 
3.028474253653899 1.1910805555555555 
4.028474253653899 1.2703722222222222 
5.028474253653899 1.210313888888889 
6.028474253653899 1.1572972222222222 
7.028474253653899 1.1989944444444445 
8.028474253653899 1.3580166666666666 
9.028474253653899 1.2792583333333334 
10.028474253653899 1.3596055555555555 
11.028474253653899 1.4732138888888886 
12.028474253653899 1.4919888888888886 
13.028474253653899 1.0589444444444442 
14.028474253653899 0.5729888888888889 
15.028474253653899 0.6041388888888889 
16.028474253653897 0.5972500000000001 
17.028474253653897 0.3815027777777778 
18.028474253653897 0.15667499999999998 
19.028474253653897 0.15241388888888888 
20.028474253653897 0.15925833333333334 
21.028474253653897 0.15843333333333334 
22.028474253653897 0.15895555555555557 
23.028474253653897 0.16 
24.028474253653897 0.16 
25.028474253653897 0.16 
26.028474253653897 0.16 
27.028474253653897 0.16 
28.028474253653897 0.16 
#####################################################################
# End of data export. Simulation finished at: 2017-05-24T15:56+0000 #
#####################################################################
