#####################################################################
# Alchemist log file - simulation started at: 2017-05-21T01:34+0000 #
#####################################################################
# random = 1.0, targets = 100.0, density = 20.0, gridShift = 0.0, perturbation = 0.0, connfactor = 1.0
#
# The columns have the following meaning: 
# time se[Mean] 
0.0 NaN 
1.0000417374280275 NaN 
2.0000417374280275 1.0032852551984877 
3.0000417374280275 1.006174665905272 
4.0000417374280275 1.0088540068394245 
5.0000417374280275 1.0096560773734509 
6.0000417374280275 1.008084173821151 
7.0000417374280275 1.0084042254122032 
8.000041737428027 1.007293314495379 
9.000041737428027 1.0074727128623189 
10.000041737428027 1.0048085607671708 
11.000041737428027 1.004773971789015 
12.000041737428027 1.0020878639597774 
13.000041737428027 1.0003449669187146 
14.000041737428027 0.9988298519218652 
15.000041737428027 0.9968090494381432 
16.000041737428027 0.9960012031348456 
17.000041737428027 0.9937180516173073 
18.000041737428027 0.9928509658553876 
19.000041737428027 0.9905273455550305 
20.000041737428027 0.9893477624186096 
21.000041737428027 0.9876516740837009 
22.000041737428027 0.986179515858013 
23.000041737428027 0.9848288358538122 
24.000041737428027 0.9831414802562487 
25.000041737428027 0.9807438540353918 
26.000041737428027 0.9785197296392565 
27.000041737428027 0.9760595847117203 
28.000041737428027 0.9736481001233984 
29.000041737428027 0.9710085798020375 
30.000041737428027 0.9688411533816426 
31.000041737428027 0.9666772717128754 
32.00004173742803 0.9646297423072884 
33.00004173742803 0.9612168350267801 
34.00004173742803 0.9591147234693341 
35.00004173742803 0.9558367907871246 
36.00004173742803 0.9532849017407058 
37.00004173742803 0.9498220134950641 
38.00004173742803 0.9464794341393615 
39.00004173742803 0.9423005720305608 
40.00004173742803 0.9388573228444654 
41.00004173742803 0.9351775217916405 
42.00004173742803 0.9302177949747953 
43.00004173742803 0.9261128600215291 
44.00004173742803 0.921020794279038 
45.00004173742803 0.9159767945284605 
46.00004173742803 0.9103453676354759 
47.00004173742803 0.9058590080865362 
48.00004173742803 0.9006611764203949 
49.00004173742803 0.8971593782818735 
50.00004173742803 0.8923638029038017 
51.00004173742803 0.8877914983065531 
52.00004173742803 0.8840061180686833 
53.00004173742803 0.8782351354101028 
54.00004173742803 0.8736717240338162 
55.00004173742803 0.8696540412990968 
56.00004173742803 0.8630043218992861 
57.00004173742803 0.8604505077058394 
58.00004173742803 0.8545400211352656 
59.00004173742803 0.8492492533737659 
60.00004173742803 0.8442186410417981 
61.00004173742803 0.8373696121481831 
62.00004173742803 0.8333496800173285 
63.00004173742803 0.8267451211667725 
64.00004173742803 0.8199344199616678 
65.00004173742803 0.8156541863579083 
66.00004173742803 0.8094430841078563 
67.00004173742803 0.8032678182760985 
68.00004173742803 0.796110168885212 
69.00004173742803 0.7910355610691028 
70.00004173742803 0.7852449541194076 
71.00004173742803 0.7781361094701733 
72.00004173742803 0.7719762687723172 
73.00004173742803 0.7687073671497593 
74.00004173742803 0.7624444976107958 
75.00004173742803 0.7581535112765185 
76.00004173742803 0.7528451477499474 
77.00004173742803 0.7452280816792691 
78.00004173742803 0.7399196456232933 
79.00004173742803 0.7326335752074153 
80.00004173742803 0.7270409951953376 
81.00004173742803 0.7208738766146813 
82.00004173742803 0.7156884609325774 
83.00004173742803 0.7113986485244688 
84.00004173742803 0.7077762576139464 
85.00004173742803 0.7025369092627607 
86.00004173742803 0.6980555998608492 
87.00004173742803 0.6910313635528252 
88.00004173742803 0.685266651898235 
89.00004173742803 0.6796335292611847 
90.00004173742803 0.671886355282503 
91.00004173742803 0.668320836615207 
92.00004173742803 0.6608571748319679 
93.00004173742803 0.6553727200824403 
94.00004173742803 0.6481409295578657 
95.00004173742803 0.6405969662360851 
96.00004173742803 0.6333496429321569 
97.00004173742803 0.6250172597012184 
98.00004173742803 0.6165964227578237 
99.00004173742803 0.6081074797180214 
100.00004173742803 0.6001194221277042 
101.00004173742803 0.5927317547521529 
102.00004173742803 0.5830262979809914 
103.00004173742803 0.5747352926118463 
104.00004173742803 0.5694387838689353 
105.00004173742803 0.5583425025598617 
106.00004173742803 0.5517623565821259 
107.00004173742803 0.5439350615679477 
108.00004173742803 0.5343385564350978 
109.00004173742803 0.5288343723745008 
110.00004173742803 0.5262330737371345 
111.00004173742803 0.5209284896161516 
112.00004173742803 0.5232720545184831 
113.00004173742803 0.49936861708412167 
114.00004173742803 0.4983192426092211 
115.00004173742803 0.48802833864996886 
116.00004173742803 0.470984399942239 
117.00004173742803 0.4683296172679065 
118.00004173742803 0.4552806569654494 
119.00004173742803 0.44439771450325494 
120.00004173742803 0.425513179347826 
121.00004173742803 0.41967302660943046 
122.00004173742803 0.4144823632115104 
123.00004173742803 0.39951143897027885 
124.00004173742803 0.389516725084017 
125.00004173742803 0.3873229685202686 
126.00004173742803 0.375660117687985 
127.00004173742803 0.3591470381091156 
128.00004173742803 0.3572007390779248 
129.00004173742803 0.34429151865417007 
130.00004173742803 0.3323343178954003 
131.00004173742803 0.3243334472143457 
132.00004173742803 0.31831384589634537 
133.00004173742803 0.3096508982487922 
134.00004173742803 0.2993326379043275 
135.00004173742803 0.2925394405718337 
136.00004173742803 0.27940028256931376 
137.00004173742803 0.2725442281689768 
138.00004173742803 0.26797765372295773 
139.00004173742803 0.2567682783947697 
140.00004173742803 0.2527065220673178 
141.00004173742803 0.2521950227105652 
142.00004173742803 0.24484322391566862 
143.00004173742803 0.2389104005854863 
144.00004173742803 0.2333439859667087 
145.00004173742803 0.2312864012287332 
146.00004173742803 0.2314680293005673 
147.00004173742803 0.22488943696177283 
148.00004173742803 0.22216433194181923 
149.00004173742803 0.2203188084173494 
150.00004173742803 0.21476108748162132 
151.00004173742803 0.21229815132062574 
152.00004173742803 0.20925091695547154 
153.00004173742803 0.20766561220069316 
154.00004173742803 0.20281853766278093 
155.00004173742803 0.2031515277121403 
156.00004173742803 0.20170179846670894 
157.00004173742803 0.19681442842890173 
158.00004173742803 0.19467978694076876 
159.00004173742803 0.1930547843152699 
160.00004173742803 0.19158271995116585 
161.00004173742803 0.1904034128203108 
162.00004173742803 0.1895904874894982 
163.00004173742803 0.1883482074406639 
164.00004173742803 0.18771861970961995 
165.00004173742803 0.18659581134478062 
166.00004173742803 0.1857038420893721 
167.00004173742803 0.18471855374396146 
168.00004173742803 0.18389513330970395 
169.00004173742803 0.18337638823251443 
170.00004173742803 0.18264024922547806 
171.00004173742803 0.1823554538174755 
172.00004173742803 0.18158194477263193 
173.00004173742803 0.18099366893772323 
174.00004173742803 0.1804667198330184 
175.00004173742803 0.17976177700325574 
176.00004173742803 0.17926730794475965 
177.00004173742803 0.17875513875761403 
178.00004173742803 0.17834383926696082 
179.00004173742803 0.17796552359010723 
180.00004173742803 0.17770234621140532 
181.00004173742803 0.1774843553087588 
182.00004173742803 0.17726923276360018 
183.00004173742803 0.1771249484745853 
184.00004173742803 0.17697985093730317 
185.00004173742803 0.17687110244696505 
186.00004173742803 0.1767705478103341 
187.00004173742803 0.1766959127546735 
188.00004173742803 0.1766392879647134 
189.00004173742803 0.17657840034919148 
190.00004173742803 0.1765411602735771 
191.00004173742803 0.17650229468599046 
192.00004173742803 0.17646908212560397 
193.00004173742803 0.17643985507246387 
194.00004173742803 0.176419927536232 
195.00004173742803 0.17640531400966195 
196.00004173742803 0.1764000000000001 
197.00004173742803 0.1764000000000001 
198.00004173742803 0.1764000000000001 
199.00004173742803 0.1764000000000001 
200.00004173742803 0.1764000000000001 
201.00004173742803 0.1764000000000001 
202.00004173742803 0.1764000000000001 
203.00004173742803 0.1764000000000001 
204.00004173742803 0.1764000000000001 
205.00004173742803 0.1764000000000001 
206.00004173742803 0.1764000000000001 
207.00004173742803 0.1764000000000001 
208.00004173742803 0.1764000000000001 
209.00004173742803 0.1764000000000001 
210.00004173742803 0.1764000000000001 
211.00004173742803 0.1764000000000001 
212.00004173742803 0.1764000000000001 
213.00004173742803 0.1764000000000001 
214.00004173742803 0.1764000000000001 
215.00004173742803 0.1764000000000001 
216.00004173742803 0.1764000000000001 
217.00004173742803 0.1764000000000001 
218.00004173742803 0.1764000000000001 
219.00004173742803 0.1764000000000001 
220.00004173742803 0.1764000000000001 
221.00004173742803 0.1764000000000001 
222.00004173742803 0.1764000000000001 
223.00004173742803 0.1764000000000001 
224.00004173742803 0.1764000000000001 
225.00004173742803 0.1764000000000001 
226.00004173742803 0.1764000000000001 
227.00004173742803 0.1764000000000001 
228.00004173742803 0.1764000000000001 
229.00004173742803 0.1764000000000001 
230.00004173742803 0.1764000000000001 
231.00004173742803 0.1764000000000001 
232.00004173742803 0.1764000000000001 
233.00004173742803 0.1764000000000001 
234.00004173742803 0.1764000000000001 
235.00004173742803 0.1764000000000001 
236.00004173742803 0.1764000000000001 
237.00004173742803 0.1764000000000001 
238.00004173742803 0.1764000000000001 
239.00004173742803 0.1764000000000001 
240.00004173742803 0.1764000000000001 
241.00004173742803 0.1764000000000001 
242.00004173742803 0.1764000000000001 
243.00004173742803 0.1764000000000001 
244.00004173742803 0.1764000000000001 
245.00004173742803 0.1764000000000001 
246.00004173742803 0.1764000000000001 
247.00004173742803 0.1764000000000001 
248.00004173742803 0.1764000000000001 
249.00004173742803 0.1764000000000001 
250.00004173742803 0.1764000000000001 
251.00004173742803 0.1764000000000001 
252.00004173742803 0.1764000000000001 
253.00004173742803 0.1764000000000001 
254.00004173742803 0.1764000000000001 
255.00004173742803 0.1764000000000001 
256.00004173742803 0.1764000000000001 
257.00004173742803 0.1764000000000001 
258.00004173742803 0.1764000000000001 
259.00004173742803 0.1764000000000001 
260.00004173742803 0.1764000000000001 
261.00004173742803 0.1764000000000001 
262.00004173742803 0.1764000000000001 
263.00004173742803 0.1764000000000001 
264.00004173742803 0.1764000000000001 
265.00004173742803 0.1764000000000001 
266.00004173742803 0.1764000000000001 
267.00004173742803 0.1764000000000001 
268.00004173742803 0.1764000000000001 
269.00004173742803 0.1764000000000001 
270.00004173742803 0.1764000000000001 
271.00004173742803 0.1764000000000001 
272.00004173742803 0.1764000000000001 
273.00004173742803 0.1764000000000001 
274.00004173742803 0.1764000000000001 
275.00004173742803 0.1764000000000001 
276.00004173742803 0.1764000000000001 
277.00004173742803 0.1764000000000001 
278.00004173742803 0.1764000000000001 
279.00004173742803 0.1764000000000001 
280.00004173742803 0.1764000000000001 
281.00004173742803 0.1764000000000001 
282.00004173742803 0.1764000000000001 
283.00004173742803 0.1764000000000001 
284.00004173742803 0.1764000000000001 
285.00004173742803 0.1764000000000001 
286.00004173742803 0.1764000000000001 
287.00004173742803 0.1764000000000001 
288.00004173742803 0.1764000000000001 
289.00004173742803 0.1764000000000001 
290.00004173742803 0.1764000000000001 
291.00004173742803 0.1764000000000001 
292.00004173742803 0.1764000000000001 
293.00004173742803 0.1764000000000001 
294.00004173742803 0.1764000000000001 
295.00004173742803 0.1764000000000001 
296.00004173742803 0.1764000000000001 
297.00004173742803 0.1764000000000001 
298.00004173742803 0.1764000000000001 
299.00004173742803 0.1764000000000001 
300.00004173742803 0.1764000000000001 
301.00004173742803 0.1764000000000001 
302.00004173742803 0.1764000000000001 
303.00004173742803 0.1764000000000001 
#####################################################################
# End of data export. Simulation finished at: 2017-05-21T02:03+0000 #
#####################################################################
