0.000000000000000000e+00 nan
0.000000000000000000e+00 1.734865907702497212e-02
0.000000000000000000e+00 1.776925910791069263e-01
1.776356839400250465e-15 1.779113642006184548e-01
0.000000000000000000e+00 1.777008008603689071e-01
2.664535259100375697e-15 1.774078279922838286e-01
3.552713678800500929e-15 1.766001350829307648e-01
2.664535259100375697e-15 1.764094550591064903e-01
0.000000000000000000e+00 1.755445188007433988e-01
1.776356839400250465e-15 1.747460240271046239e-01
5.329070518200751394e-15 1.737399241393313976e-01
3.552713678800500929e-15 1.727488240124103736e-01
7.105427357601001859e-15 1.717749618423734526e-01
3.552713678800500929e-15 1.712495079922779495e-01
5.329070518200751394e-15 1.702434551957847653e-01
3.552713678800500929e-15 1.688839188372446287e-01
0.000000000000000000e+00 1.681297307226324034e-01
7.105427357601001859e-15 1.665066934980883040e-01
3.552713678800500929e-15 1.653824117244953040e-01
3.552713678800500929e-15 1.644454914721747152e-01
1.065814103640150279e-14 1.631148147836217199e-01
7.105427357601001859e-15 1.620880459333027823e-01
7.105427357601001859e-15 1.611742249362360380e-01
0.000000000000000000e+00 1.603614534952976234e-01
1.421085471520200372e-14 1.605403818810783589e-01
0.000000000000000000e+00 1.596651982359375277e-01
7.105427357601001859e-15 1.591717127622098715e-01
7.105427357601001859e-15 1.599014891841526731e-01
1.065814103640150279e-14 1.590567545897793866e-01
3.552713678800500929e-15 1.588377699368698770e-01
7.105427357601001859e-15 1.582410434541488553e-01
1.421085471520200372e-14 1.578569748429251851e-01
0.000000000000000000e+00 1.566219329281576533e-01
2.131628207280300558e-14 1.557746528687447007e-01
1.421085471520200372e-14 1.548210642973482098e-01
7.105427357601001859e-15 1.541296171647359159e-01
7.105427357601001859e-15 1.541633132875269430e-01
7.105427357601001859e-15 1.541004335730291885e-01
7.105427357601001859e-15 1.543737207023457292e-01
1.421085471520200372e-14 1.543121691295995523e-01
2.131628207280300558e-14 1.548634374787197787e-01
0.000000000000000000e+00 1.546056173096109210e-01
1.421085471520200372e-14 1.543394025626826094e-01
1.421085471520200372e-14 1.543352102496682032e-01
1.421085471520200372e-14 1.542093365021153517e-01
7.105427357601001859e-15 1.541049551156279118e-01
0.000000000000000000e+00 1.541018205324105050e-01
2.131628207280300558e-14 1.541018205324105050e-01
2.842170943040400743e-14 1.541018205324105050e-01
2.131628207280300558e-14 1.541018205324105050e-01
0.000000000000000000e+00 1.541018205324105050e-01
7.105427357601001859e-15 1.541018205324105050e-01
1.421085471520200372e-14 1.541018205324105050e-01
1.421085471520200372e-14 1.541018205324105050e-01
1.421085471520200372e-14 1.541018205324105050e-01
7.105427357601001859e-15 1.541018205324105050e-01
2.131628207280300558e-14 1.541018205324105050e-01
3.552713678800500929e-14 1.541018205324105050e-01
7.105427357601001859e-15 1.541018205324105050e-01
7.105427357601001859e-15 1.541018205324105050e-01
1.421085471520200372e-14 1.541018205324105050e-01
1.421085471520200372e-14 1.541018205324105050e-01
