#####################################################################
# Alchemist log file - simulation started at: 2017-05-22T23:24+0000 #
#####################################################################
# random = 4.0, targets = 31.622776601683793, density = 20.0, gridShift = 1.0, perturbation = 0.0, connfactor = 0.25
#
# The columns have the following meaning: 
# time se[Mean] 
0.0 NaN 
1.000075526147678 NaN 
2.000075526147678 1.0 
3.000075526147678 1.0 
4.000075526147678 0.9999704577345974 
5.000075526147678 0.9998818309383894 
6.000075526147678 0.9999409154691947 
7.000075526147678 0.9997045773459736 
8.000075526147679 0.9998227464075842 
9.000075526147679 0.9996159505497656 
10.000075526147679 0.9996159505497656 
11.000075526147679 0.9994987307050511 
12.000075526147679 0.9993224263295314 
13.000075526147679 0.9990289021092971 
14.000075526147679 0.9987096324912443 
15.000075526147679 0.9982960407756073 
16.00007552614768 0.9978909920120349 
17.00007552614768 0.997533637176515 
18.00007552614768 0.9973982656691506 
19.00007552614768 0.9959991047261202 
20.00007552614768 0.9946361305667649 
21.00007552614768 0.9930968520318899 
22.00007552614768 0.9900105846853462 
23.00007552614768 0.9869880314124639 
24.00007552614768 0.9840459116085986 
25.00007552614768 0.9792209305212809 
26.00007552614768 0.9759621556668016 
27.00007552614768 0.9724223129533617 
28.00007552614768 0.9678460098089136 
29.00007552614768 0.9657501743158686 
30.00007552614768 0.9631490395770412 
31.00007552614768 0.9603810926316543 
32.00007552614768 0.9595846337659284 
33.00007552614768 0.9587495069746118 
34.00007552614768 0.9580248220842144 
35.00007552614768 0.9572439171975978 
36.00007552614768 0.9560529674957812 
37.00007552614768 0.9549834010150352 
38.00007552614768 0.9559180621549157 
39.00007552614768 0.9547043481314916 
40.00007552614768 0.9549309441186042 
41.00007552614768 0.9540338851457942 
42.00007552614768 0.9553782245921024 
43.00007552614768 0.9545426147503886 
44.00007552614768 0.9563223779009437 
45.00007552614768 0.9563761167552468 
46.00007552614768 0.9571169214489793 
47.00007552614768 0.9580581105655073 
48.00007552614768 0.9581841064455356 
49.00007552614768 0.9582064046006442 
50.00007552614768 0.9567531382945386 
51.00007552614768 0.956426508024567 
52.00007552614768 0.9551361405158107 
53.00007552614768 0.9535629232559273 
54.00007552614768 0.9525613338829256 
55.00007552614768 0.9497289567302315 
56.00007552614768 0.9476000151874486 
57.00007552614768 0.9451155007013141 
58.00007552614768 0.9429960513274922 
59.00007552614768 0.9405829611918115 
60.00007552614768 0.9388532565696007 
61.00007552614768 0.9375685843622213 
62.00007552614768 0.9361962345755297 
63.00007552614768 0.9355520000380482 
64.00007552614768 0.9345580044002152 
65.00007552614768 0.9344102930732019 
66.00007552614768 0.9344350892541242 
67.00007552614768 0.9343407671565398 
68.00007552614768 0.9342788349750465 
69.00007552614768 0.9345047317124108 
70.00007552614768 0.9347344253173597 
71.00007552614768 0.9352547954918545 
72.00007552614768 0.9356007597246215 
73.00007552614768 0.9362964850577402 
74.00007552614768 0.9368178044491311 
75.00007552614768 0.9377470202547826 
76.00007552614768 0.9384722878533038 
77.00007552614768 0.9399847552318397 
78.00007552614768 0.9408548865066859 
79.00007552614768 0.9423626078007415 
80.00007552614768 0.9438474313476669 
81.00007552614768 0.9450072899751633 
82.00007552614768 0.9465750450169201 
83.00007552614768 0.9476519721495849 
84.00007552614768 0.9489281014048997 
85.00007552614768 0.9503519419872275 
86.00007552614768 0.9516881049902437 
87.00007552614768 0.9529994718123375 
88.00007552614768 0.9539267891841969 
89.00007552614768 0.9550323093653681 
90.00007552614768 0.9560187112680328 
91.00007552614768 0.9572376544263345 
92.00007552614768 0.9583422253906096 
93.00007552614768 0.9593276780763783 
94.00007552614768 0.9601434709048996 
95.00007552614768 0.9611203806386036 
96.00007552614768 0.9618227504899947 
97.00007552614768 0.9628377454411658 
98.00007552614768 0.963721165752557 
99.00007552614768 0.964078520588077 
100.00007552614768 0.9651639906728062 
101.00007552614768 0.9653745833982089 
102.00007552614768 0.9664314604344316 
103.00007552614768 0.9664704948687949 
104.00007552614768 0.9665531932803768 
105.00007552614768 0.9660819493012276 
106.00007552614768 0.9660914414701883 
107.00007552614768 0.966126795578592 
108.00007552614768 0.9657355189019617 
109.00007552614768 0.9648243551012331 
110.00007552614768 0.9642743261197109 
111.00007552614768 0.9637797013430345 
112.00007552614768 0.962621274982831 
113.00007552614768 0.9610321051129309 
114.00007552614768 0.9588534225445444 
115.00007552614768 0.9576620066762287 
116.00007552614768 0.9568655309266051 
117.00007552614768 0.9537763838072386 
118.00007552614768 0.950666421451751 
119.00007552614768 0.9482362285280428 
120.00007552614768 0.9456560931025532 
121.00007552614768 0.9427766553816239 
122.00007552614768 0.9381993556599088 
123.00007552614768 0.934006203400493 
124.00007552614768 0.9302626608014093 
125.00007552614768 0.9263353230406853 
126.00007552614768 0.9209008162175569 
127.00007552614768 0.9194467559409601 
128.00007552614767 0.9137224847060638 
129.00007552614767 0.916108489824428 
130.00007552614767 0.9271525925693509 
131.00007552614767 0.923827083432934 
132.00007552614767 0.9127145892838364 
133.00007552614767 0.9164548971209535 
134.00007552614767 0.9218868799514913 
135.00007552614767 0.913417208247802 
136.00007552614767 0.9114629460804381 
137.00007552614767 0.894570874930949 
138.00007552614767 0.904513895950409 
139.00007552614767 0.9062892523401048 
140.00007552614767 0.8671151777073354 
141.00007552614767 0.8875276422842175 
142.00007552614767 0.8701969382080066 
143.00007552614767 0.863207767709873 
144.00007552614767 0.8818036288174882 
145.00007552614767 0.8487083120019403 
146.00007552614767 0.8599445329426072 
147.00007552614767 0.8708522017129672 
148.00007552614767 0.8244382504984895 
149.00007552614767 0.8674320743698213 
150.00007552614767 0.8271847245268201 
151.00007552614767 0.8226531099130988 
152.00007552614767 0.812751434776365 
153.00007552614767 0.7821022820241019 
154.00007552614767 0.7948901344845806 
155.00007552614767 0.7752485266750961 
156.00007552614767 0.7617385231272926 
157.00007552614767 0.7789829308125044 
158.00007552614767 0.7529351993980459 
159.00007552614767 0.761912877135465 
160.00007552614767 0.7370387463862598 
161.00007552614767 0.7354462383780563 
162.00007552614767 0.7116431726941063 
163.00007552614767 0.7182088087431813 
164.00007552614767 0.6899384174262748 
165.00007552614767 0.6820728442264412 
166.00007552614767 0.6818329859606457 
167.00007552614767 0.6619845719920902 
168.00007552614767 0.6571768130984598 
169.00007552614767 0.6433665164695029 
170.00007552614767 0.645595079644377 
171.00007552614767 0.6249034517976817 
172.00007552614767 0.6112933785535631 
173.00007552614767 0.6163633078244701 
174.00007552614767 0.5943801132849812 
175.00007552614767 0.5841969918335981 
176.00007552614767 0.5835044044687554 
177.00007552614767 0.5717483647306716 
178.00007552614767 0.5615031286662437 
179.00007552614767 0.5490652085818419 
180.00007552614767 0.5474552028733137 
181.00007552614767 0.5380118071918553 
182.00007552614767 0.5282889105626267 
183.00007552614767 0.5184428356548701 
184.00007552614767 0.517309053093221 
185.00007552614767 0.5032713932645283 
186.00007552614767 0.4891658461118487 
187.00007552614767 0.48586025858333415 
188.00007552614767 0.4800494043584584 
189.00007552614767 0.46625512580216405 
190.00007552614767 0.46368378987853137 
191.00007552614767 0.457439881486683 
192.00007552614767 0.45244191642367754 
193.00007552614767 0.43769934507601516 
194.00007552614767 0.43196488406807043 
195.00007552614767 0.4249875654022061 
196.00007552614767 0.41893188239940043 
197.00007552614767 0.41219654650643894 
198.00007552614767 0.4058518234538178 
199.00007552614767 0.4017015885614993 
200.00007552614767 0.39475444058387155 
201.00007552614767 0.38945551488481506 
202.00007552614767 0.38677115296929787 
203.00007552614767 0.381754147979693 
204.00007552614767 0.3769586247382876 
205.00007552614767 0.37451967430882493 
206.00007552614767 0.3700299035026616 
207.00007552614767 0.36687447510256677 
208.00007552614767 0.36181796622077866 
209.00007552614767 0.3585849231715415 
210.00007552614767 0.3551530581010034 
211.00007552614767 0.35105702658382676 
212.00007552614767 0.3489185912264229 
213.00007552614767 0.3455720407805663 
214.00007552614767 0.34293248808329546 
215.00007552614767 0.34006685621710353 
216.00007552614767 0.338091721579279 
217.00007552614767 0.3351623756394277 
218.00007552614767 0.33334182993013745 
219.00007552614767 0.3310648949710595 
220.00007552614767 0.3288227145283638 
221.00007552614767 0.3275093833825469 
222.00007552614767 0.3254753145233384 
223.00007552614767 0.32376156415680496 
224.00007552614767 0.3227271355851112 
225.00007552614767 0.32093426747522835 
226.00007552614767 0.3194184203895747 
227.00007552614767 0.31766125601296946 
228.00007552614767 0.315949071339252 
229.00007552614767 0.3140879930383754 
230.00007552614767 0.31258448577237025 
231.00007552614767 0.3112133858214165 
232.00007552614767 0.309875974628324 
233.00007552614767 0.30810234082350985 
234.00007552614767 0.30692153353436935 
235.00007552614767 0.3053533798617058 
236.00007552614767 0.30431660357361856 
237.00007552614767 0.30289556163594616 
238.00007552614767 0.30181382252887057 
239.00007552614767 0.30058675357897074 
240.00007552614767 0.2994408342317348 
241.00007552614767 0.29832066028231746 
242.00007552614767 0.2973305121637624 
243.00007552614767 0.2962628947685027 
244.00007552614767 0.295307984216727 
245.00007552614767 0.29435983472484784 
246.00007552614767 0.29332745489636725 
247.00007552614767 0.2925484822113389 
248.00007552614767 0.29162892576796684 
249.00007552614767 0.29064044299995434 
250.00007552614767 0.28984711551986037 
251.00007552614767 0.28899731807639956 
252.00007552614767 0.2882459892229818 
253.00007552614767 0.28748410244208233 
254.00007552614767 0.28681688738364153 
255.00007552614767 0.2862385322046583 
256.00007552614767 0.2856276705679593 
257.00007552614767 0.2849527452327253 
258.00007552614767 0.2844872134388504 
259.00007552614767 0.2838973511154895 
260.00007552614767 0.28335719769559825 
261.00007552614767 0.28290115807068394 
262.00007552614767 0.28234664985572694 
263.00007552614767 0.2820053320497134 
264.00007552614767 0.28151773518397954 
265.00007552614767 0.2811601641491081 
266.00007552614767 0.2807700866565211 
267.00007552614767 0.280461275308223 
268.00007552614767 0.2800224381290628 
269.00007552614767 0.2797298800096224 
270.00007552614767 0.2794210686613243 
271.00007552614767 0.27904724439759526 
272.00007552614767 0.27885220565130175 
273.00007552614767 0.2785759007607192 
274.00007552614767 0.2782995958701367 
275.00007552614767 0.2781370635815589 
276.00007552614767 0.2779095183775497 
277.00007552614767 0.2777632393178297 
278.00007552614767 0.2775519473426784 
279.00007552614767 0.27742192151181605 
280.00007552614767 0.27727564245209585 
281.00007552614767 0.2771131101635179 
282.00007552614767 0.27704809724808677 
283.00007552614767 0.2769018181883667 
284.00007552614767 0.2767880455863621 
285.00007552614767 0.2766905262132154 
286.00007552614767 0.2766092600689264 
287.00007552614767 0.27654424715349524 
288.00007552614767 0.2764792342380641 
289.00007552614767 0.2764304745514907 
290.00007552614767 0.2763817148649173 
291.00007552614767 0.27634920840720173 
292.00007552614767 0.27633295517834394 
293.00007552614767 0.27631670194948615 
294.00007552614767 0.27631670194948615 
295.00007552614767 0.27631670194948615 
296.00007552614767 0.27631670194948615 
297.00007552614767 0.27631670194948615 
298.00007552614767 0.27631670194948615 
299.00007552614767 0.27631670194948615 
300.00007552614767 0.27631670194948615 
301.00007552614767 0.27631670194948615 
302.00007552614767 0.27631670194948615 
303.00007552614767 0.27631670194948615 
304.00007552614767 0.27631670194948615 
305.00007552614767 0.27631670194948615 
306.00007552614767 0.27631670194948615 
307.00007552614767 0.27631670194948615 
308.00007552614767 0.27631670194948615 
309.00007552614767 0.27631670194948615 
310.00007552614767 0.27631670194948615 
311.00007552614767 0.27631670194948615 
312.00007552614767 0.27631670194948615 
313.00007552614767 0.27631670194948615 
314.00007552614767 0.27631670194948615 
315.00007552614767 0.27631670194948615 
316.00007552614767 0.27631670194948615 
317.00007552614767 0.27631670194948615 
318.00007552614767 0.27631670194948615 
319.00007552614767 0.27631670194948615 
320.00007552614767 0.27631670194948615 
321.00007552614767 0.27631670194948615 
322.00007552614767 0.27631670194948615 
323.00007552614767 0.27631670194948615 
324.00007552614767 0.27631670194948615 
325.00007552614767 0.27631670194948615 
326.00007552614767 0.27631670194948615 
327.00007552614767 0.27631670194948615 
328.00007552614767 0.27631670194948615 
329.00007552614767 0.27631670194948615 
330.00007552614767 0.27631670194948615 
331.00007552614767 0.27631670194948615 
332.00007552614767 0.27631670194948615 
333.00007552614767 0.27631670194948615 
334.00007552614767 0.27631670194948615 
335.00007552614767 0.27631670194948615 
336.00007552614767 0.27631670194948615 
337.00007552614767 0.27631670194948615 
338.00007552614767 0.27631670194948615 
339.00007552614767 0.27631670194948615 
340.00007552614767 0.27631670194948615 
341.00007552614767 0.27631670194948615 
342.00007552614767 0.27631670194948615 
343.00007552614767 0.27631670194948615 
344.00007552614767 0.27631670194948615 
345.00007552614767 0.27631670194948615 
346.00007552614767 0.27631670194948615 
347.00007552614767 0.27631670194948615 
348.00007552614767 0.27631670194948615 
349.00007552614767 0.27631670194948615 
350.00007552614767 0.27631670194948615 
351.00007552614767 0.27631670194948615 
352.00007552614767 0.27631670194948615 
353.00007552614767 0.27631670194948615 
354.00007552614767 0.27631670194948615 
355.00007552614767 0.27631670194948615 
356.00007552614767 0.27631670194948615 
357.00007552614767 0.27631670194948615 
358.00007552614767 0.27631670194948615 
359.00007552614767 0.27631670194948615 
360.00007552614767 0.27631670194948615 
361.00007552614767 0.27631670194948615 
362.00007552614767 0.27631670194948615 
363.00007552614767 0.27631670194948615 
364.00007552614767 0.27631670194948615 
365.00007552614767 0.27631670194948615 
366.00007552614767 0.27631670194948615 
367.00007552614767 0.27631670194948615 
368.00007552614767 0.27631670194948615 
369.00007552614767 0.27631670194948615 
370.00007552614767 0.27631670194948615 
371.00007552614767 0.27631670194948615 
372.00007552614767 0.27631670194948615 
373.00007552614767 0.27631670194948615 
374.00007552614767 0.27631670194948615 
375.00007552614767 0.27631670194948615 
376.00007552614767 0.27631670194948615 
377.00007552614767 0.27631670194948615 
378.00007552614767 0.27631670194948615 
379.00007552614767 0.27631670194948615 
380.00007552614767 0.27631670194948615 
381.00007552614767 0.27631670194948615 
382.00007552614767 0.27631670194948615 
383.00007552614767 0.27631670194948615 
384.00007552614767 0.27631670194948615 
385.00007552614767 0.27631670194948615 
386.00007552614767 0.27631670194948615 
387.00007552614767 0.27631670194948615 
388.00007552614767 0.27631670194948615 
389.00007552614767 0.27631670194948615 
390.00007552614767 0.27631670194948615 
391.00007552614767 0.27631670194948615 
392.00007552614767 0.27631670194948615 
393.00007552614767 0.27631670194948615 
394.00007552614767 0.27631670194948615 
#####################################################################
# End of data export. Simulation finished at: 2017-05-22T23:49+0000 #
#####################################################################
