#####################################################################
# Alchemist log file - simulation started at: 2017-05-20T22:51+0000 #
#####################################################################
# random = 1.0, targets = 100.0, density = 2.519842099789746, gridShift = 1.0, perturbation = 0.5, connfactor = 0.5
#
# The columns have the following meaning: 
# time se[Mean] 
0.0 NaN 
1.0048855897957667 NaN 
2.0048855897957667 1.0005935855263157 
3.0048855897957667 1.0004801809210526 
4.004885589795767 0.9976814784356725 
5.004885589795767 0.992876745248538 
6.004885589795767 0.9844797697368421 
7.004885589795767 0.9800010325292398 
8.004885589795766 0.9767207510964913 
9.004885589795766 0.9743452485380117 
10.004885589795766 0.9736651315789474 
11.004885589795766 0.9683480080409357 
12.004885589795766 0.9659187956871345 
13.004885589795766 0.9615289199561403 
14.004885589795766 0.9575567160087719 
15.004885589795766 0.9522725694444445 
16.004885589795766 0.9445854166666667 
17.004885589795766 0.9397539016812866 
18.004885589795766 0.9289922697368421 
19.004885589795766 0.9177687225877194 
20.004885589795766 0.909959201388889 
21.004885589795766 0.8973432291666668 
22.004885589795766 0.8878054002192983 
23.004885589795766 0.8716287828947369 
24.004885589795766 0.8610291849415205 
25.004885589795766 0.8510959795321638 
26.004885589795766 0.8371429367690059 
27.004885589795766 0.8290581231725146 
28.004885589795766 0.8234778143274853 
29.004885589795766 0.8134834795321637 
30.004885589795766 0.8137141904239765 
31.004885589795766 0.8101791575292397 
32.00488558979576 0.798980701754386 
33.00488558979576 0.804389510233918 
34.00488558979576 0.790230519005848 
35.00488558979576 0.7930339912280701 
36.00488558979576 0.7898917671783625 
37.00488558979576 0.7889225603070175 
38.00488558979576 0.7854451571637427 
39.00488558979576 0.7833692160087719 
40.00488558979576 0.7843338358918128 
41.00488558979576 0.7793338176169591 
42.00488558979576 0.7767929915935672 
43.00488558979576 0.7821866959064327 
44.00488558979576 0.7815914290935673 
45.00488558979576 0.7774900036549707 
46.00488558979576 0.7743599506578948 
47.00488558979576 0.7759137609649123 
48.00488558979576 0.7685476151315789 
49.00488558979576 0.768117562134503 
50.00488558979576 0.762309283625731 
51.00488558979576 0.7543338724415205 
52.00488558979576 0.7540550073099416 
53.00488558979576 0.7481171600877193 
54.00488558979576 0.743368201754386 
55.00488558979576 0.7328808570906433 
56.00488558979576 0.7389100968567252 
57.00488558979576 0.7330471125730994 
58.00488558979576 0.751441456505848 
59.00488558979576 0.7552433296783626 
60.00488558979576 0.7379877923976609 
61.00488558979576 0.7937508406432747 
62.00488558979576 0.7646695540935672 
63.00488558979576 0.7347530884502923 
64.00488558979576 0.7861848592836256 
65.00488558979576 0.7357599506578947 
66.00488558979576 0.7814373629385963 
67.00488558979576 0.7243018000730993 
68.00488558979576 0.7655778417397658 
69.00488558979576 0.7010285179093565 
70.00488558979576 0.7213284539473683 
71.00488558979576 0.6632828307748536 
72.00488558979576 0.671915058479532 
73.00488558979576 0.6518185672514618 
74.00488558979576 0.6399667854532162 
75.00488558979576 0.6233358552631578 
76.00488558979576 0.5858914199561402 
77.00488558979576 0.6013980445906426 
78.00488558979576 0.6202959338450293 
79.00488558979576 0.5471787646198829 
80.00488558979576 0.5446232273391813 
81.00488558979576 0.5039085526315789 
82.00488558979576 0.5424020193713449 
83.00488558979576 0.5408087445175441 
84.00488558979576 0.4583050895467835 
85.00488558979576 0.42232600511695906 
86.00488558979576 0.3902493238304094 
87.00488558979576 0.3950020467836257 
88.00488558979576 0.392976005116959 
89.00488558979576 0.3966233826754386 
90.00488558979576 0.4034337810672515 
91.00488558979576 0.4149796235380117 
92.00488558979576 0.41676943530701754 
93.00488558979576 0.42203026315789477 
94.00488558979576 0.4297244334795322 
95.00488558979576 0.43669286366959065 
96.00488558979576 0.4405462445175439 
97.00488558979576 0.44099873903508774 
98.00488558979576 0.4420326480263158 
99.00488558979576 0.4435141447368421 
100.00488558979576 0.44414229714912284 
101.00488558979576 0.4451080592105263 
102.00488558979576 0.4458902960526316 
103.00488558979576 0.44635970394736846 
104.00488558979576 0.4476731085526316 
105.00488558979576 0.4480579769736842 
106.00488558979576 0.4484418585526316 
107.00488558979576 0.44870386513157895 
108.00488558979576 0.44876875 
109.00488558979576 0.4489 
110.00488558979576 0.4489 
111.00488558979576 0.4489 
112.00488558979576 0.4489 
113.00488558979576 0.4489 
114.00488558979576 0.4489 
115.00488558979576 0.4489 
116.00488558979576 0.4489 
117.00488558979576 0.4489 
118.00488558979576 0.4489 
119.00488558979576 0.4489 
120.00488558979576 0.4489 
121.00488558979576 0.4489 
122.00488558979576 0.4489 
123.00488558979576 0.4489 
124.00488558979576 0.4489 
125.00488558979576 0.4489 
126.00488558979576 0.4489 
127.00488558979576 0.4489 
128.00488558979578 0.4489 
129.00488558979578 0.4489 
130.00488558979578 0.4489 
131.00488558979578 0.4489 
132.00488558979578 0.4489 
133.00488558979578 0.4489 
134.00488558979578 0.4489 
135.00488558979578 0.4489 
136.00488558979578 0.4489 
137.00488558979578 0.4489 
138.00488558979578 0.4489 
139.00488558979578 0.4489 
140.00488558979578 0.4489 
141.00488558979578 0.4489 
#####################################################################
# End of data export. Simulation finished at: 2017-05-20T22:53+0000 #
#####################################################################
