#####################################################################
# Alchemist log file - simulation started at: 2017-05-24T05:36+0000 #
#####################################################################
# random = 14.0, targets = 1.0, density = 0.11269076455391362, gridShift = 1.0, perturbation = 0.5, connfactor = 2.0
#
# The columns have the following meaning: 
# time se[Mean] 
0.0 NaN 
1.021284317112984 NaN 
2.021284317112984 1.0 
3.021284317112984 1.011111111111111 
4.021284317112984 1.308888888888889 
5.021284317112984 1.9111111111111114 
6.021284317112984 2.0211111111111113 
7.021284317112984 1.9088888888888893 
8.021284317112984 3.685555555555556 
9.021284317112984 2.443333333333334 
10.021284317112984 2.9133333333333336 
11.021284317112984 2.935555555555556 
12.021284317112984 2.4977777777777783 
13.021284317112984 2.5133333333333336 
14.021284317112984 3.561111111111112 
15.021284317112984 6.782222222222224 
16.021284317112986 5.030000000000001 
17.021284317112986 6.060000000000002 
18.021284317112986 7.461111111111114 
19.021284317112986 9.662222222222224 
20.021284317112986 6.472222222222224 
21.021284317112986 6.935555555555558 
22.021284317112986 6.87777777777778 
23.021284317112986 6.4266666666666685 
24.021284317112986 4.765555555555557 
25.021284317112986 4.592222222222224 
26.021284317112986 4.05777777777778 
27.021284317112986 4.000000000000002 
28.021284317112986 4.000000000000002 
29.021284317112986 4.000000000000002 
30.021284317112986 4.000000000000002 
31.021284317112986 4.000000000000002 
#####################################################################
# End of data export. Simulation finished at: 2017-05-24T05:36+0000 #
#####################################################################
