#####################################################################
# Alchemist log file - simulation started at: 2017-05-19T17:33+0000 #
#####################################################################
# random = 0.0, targets = 1.0, density = 0.3174802103936399, gridShift = 1.0, perturbation = 0.5, connfactor = 0.75
#
# The columns have the following meaning: 
# time se[Mean] 
0.0 NaN 
1.0011337332612453 NaN 
2.0011337332612453 1.0 
3.0011337332612453 0.9921875 
4.001133733261245 1.0 
5.001133733261245 0.953125 
6.001133733261245 0.9609375 
7.001133733261245 0.953125 
8.001133733261245 0.9453125 
9.001133733261245 0.9921875 
10.001133733261245 0.953125 
11.001133733261245 0.9921875 
12.001133733261245 0.984375 
13.001133733261245 0.9765625 
14.001133733261245 0.9765625 
15.001133733261245 1.1160714285714284 
16.001133733261245 1.2578125 
17.001133733261245 1.7488839285714288 
18.001133733261245 2.0379464285714284 
19.001133733261245 2.3069196428571432 
20.001133733261245 2.5848214285714284 
21.001133733261245 2.808035714285714 
22.001133733261245 2.3582589285714284 
23.001133733261245 3.5491071428571432 
24.001133733261245 1.8102678571428568 
25.001133733261245 2.321428571428571 
26.001133733261245 1.3392857142857142 
27.001133733261245 0.5792410714285715 
28.001133733261245 0.5703125 
29.001133733261245 0.18861607142857154 
30.001133733261245 0.0 
31.001133733261245 0.0 
32.00113373326124 0.0 
33.00113373326124 0.0 
34.00113373326124 0.0 
35.00113373326124 0.0 
36.00113373326124 0.0 
37.00113373326124 0.0 
38.00113373326124 0.0 
#####################################################################
# End of data export. Simulation finished at: 2017-05-19T17:33+0000 #
#####################################################################
