#####################################################################
# Alchemist log file - simulation started at: 2017-05-25T16:43+0000 #
#####################################################################
# random = 18.0, targets = 31.622776601683793, density = 0.4483936332993466, gridShift = 1.0, perturbation = 0.0, connfactor = 0.25
#
# The columns have the following meaning: 
# time se[Mean] 
0.0 NaN 
1.0067713218599703 NaN 
2.0067713218599703 1.0 
3.0067713218599703 0.9978421682915497 
4.00677132185997 0.9888167751160586 
5.00677132185997 0.9780970610182518 
6.00677132185997 0.9644383269730589 
7.00677132185997 0.9444241533580708 
8.00677132185997 0.9447696085886498 
9.00677132185997 0.9379784360104978 
10.00677132185997 0.9430058432218896 
11.00677132185997 0.933704439260264 
12.00677132185997 0.92837324348496 
13.00677132185997 0.9190023950788899 
14.00677132185997 0.9041979512224925 
15.00677132185997 0.9040451734447147 
16.006771321859972 0.8988875887805218 
17.006771321859972 0.8741172118538614 
18.006771321859972 0.8402056472763123 
19.006771321859972 0.7956207186319095 
20.006771321859972 0.7286378672545891 
21.006771321859972 0.6905313641440809 
22.006771321859972 0.6765408167129406 
23.006771321859972 0.62501912920131 
24.006771321859972 0.6101015601979007 
25.006771321859972 0.5874438143297374 
26.006771321859972 0.5828327032186262 
27.006771321859972 0.5411669493653054 
28.006771321859972 0.5409131683377615 
29.006771321859972 0.49568754613098476 
30.006771321859972 0.5038860563290722 
31.006771321859972 0.5030177537292593 
32.00677132185997 0.5130408858245924 
33.00677132185997 0.5270113787370132 
34.00677132185997 0.523905939167218 
35.00677132185997 0.5457817556636736 
36.00677132185997 0.5377809768490597 
37.00677132185997 0.5559090544256734 
38.00677132185997 0.5537825344782874 
39.00677132185997 0.5580355743730593 
40.00677132185997 0.5580355743730593 
41.00677132185997 0.5580355743730593 
42.00677132185997 0.5580355743730593 
43.00677132185997 0.5580355743730593 
44.00677132185997 0.5580355743730593 
45.00677132185997 0.5580355743730593 
46.00677132185997 0.5580355743730593 
47.00677132185997 0.5580355743730593 
48.00677132185997 0.5580355743730593 
49.00677132185997 0.5580355743730593 
50.00677132185997 0.5580355743730593 
51.00677132185997 0.5580355743730593 
#####################################################################
# End of data export. Simulation finished at: 2017-05-25T16:43+0000 #
#####################################################################
