#####################################################################
# Alchemist log file - simulation started at: 2017-05-21T22:55+0000 #
#####################################################################
# random = 3.0, targets = 3.1622776601683795, density = 10.026386447354522, gridShift = 1.0, perturbation = 0.0, connfactor = 1.0
#
# The columns have the following meaning: 
# time se[Mean] 
0.0 NaN 
1.0016359619213666 NaN 
2.001635961921367 1.0022014694581731 
3.001635961921367 1.0038736591938422 
4.001635961921367 1.0045490030947333 
5.001635961921367 1.0042137564692288 
6.001635961921367 0.9968825330144165 
7.001635961921367 0.9945840470077436 
8.001635961921366 0.9916156071056991 
9.001635961921366 0.9909459228881462 
10.001635961921366 0.9866238322791674 
11.001635961921366 0.9869332075883483 
12.001635961921366 0.9882847044235865 
13.001635961921366 0.9861023696625506 
14.001635961921366 0.9845622315112588 
15.001635961921366 0.9881310963679838 
16.001635961921366 0.981345592330053 
17.001635961921366 0.9795715353960016 
18.001635961921366 0.9742194516610981 
19.001635961921366 0.9640795971742459 
20.001635961921366 0.9668639749568742 
21.001635961921366 0.9540041513003837 
22.001635961921366 0.9565354773785418 
23.001635961921366 0.9442534417188053 
24.001635961921366 0.9386237815767748 
25.001635961921366 0.9314103256590848 
26.001635961921366 0.9328054783432635 
27.001635961921366 0.9250048028068739 
28.001635961921366 0.9277460623207716 
29.001635961921366 0.92480295615484 
30.001635961921366 0.9212928455540466 
31.001635961921366 0.9247040589633158 
32.001635961921366 0.9248040437432472 
33.001635961921366 0.9243025248572233 
34.001635961921366 0.9227060684275009 
35.001635961921366 0.9165094091768884 
36.001635961921366 0.91000283348603 
37.001635961921366 0.9014659201245337 
38.001635961921366 0.8909337005774242 
39.001635961921366 0.8783072687760414 
40.001635961921366 0.8623814741693414 
41.001635961921366 0.8528272265605562 
42.001635961921366 0.8299685082467398 
43.001635961921366 0.8165042357734064 
44.001635961921366 0.7976245372354718 
45.001635961921366 0.782544125402508 
46.001635961921366 0.7563466695464238 
47.001635961921366 0.7460842181776884 
48.001635961921366 0.7295471937492944 
49.001635961921366 0.7193211009495558 
50.001635961921366 0.7167022023728308 
51.001635961921366 0.7044966877473766 
52.001635961921366 0.707744591801281 
53.001635961921366 0.7013910794841068 
54.001635961921366 0.7014748853703491 
55.001635961921366 0.7015217897810992 
56.001635961921366 0.7016667841253439 
57.001635961921366 0.7096110931889007 
58.001635961921366 0.7116659981724326 
59.001635961921366 0.7247295508994082 
60.001635961921366 0.7179054971368245 
61.001635961921366 0.722917263630466 
62.001635961921366 0.734154468557973 
63.001635961921366 0.7310361907635069 
64.00163596192137 0.7251278684013683 
65.00163596192137 0.7291487006671236 
66.00163596192137 0.7342520138095512 
67.00163596192137 0.7265855419538076 
68.00163596192137 0.7528266589851111 
69.00163596192137 0.7341247684893921 
70.00163596192137 0.7503933962090497 
71.00163596192137 0.7491167881377707 
72.00163596192137 0.7435315964289902 
73.00163596192137 0.7499131463621672 
74.00163596192137 0.7348971200616503 
75.00163596192137 0.722249096280512 
76.00163596192137 0.7165159775045858 
77.00163596192137 0.7205103937720999 
78.00163596192137 0.711579740329854 
79.00163596192137 0.725125228436832 
80.00163596192137 0.7616351077277217 
81.00163596192137 0.7677437083869256 
82.00163596192137 0.8761923218860193 
83.00163596192137 1.085637586109987 
84.00163596192137 1.1498958873558087 
85.00163596192137 1.4699792941451082 
86.00163596192137 1.4298720848777193 
87.00163596192137 1.5422846659067964 
88.00163596192137 1.8120942700030038 
89.00163596192137 1.6482316604980205 
90.00163596192137 1.886465834157228 
91.00163596192137 1.5468331156294934 
92.00163596192137 1.863769960411051 
93.00163596192137 1.6930253536964317 
94.00163596192137 1.4641830906633464 
95.00163596192137 1.7268047836667189 
96.00163596192137 1.296849461413283 
97.00163596192137 1.395872326915237 
98.00163596192137 1.3082692453257123 
99.00163596192137 1.2008202348040862 
100.00163596192137 1.235267940238326 
101.00163596192137 1.1435946948719264 
102.00163596192137 1.025544737794251 
103.00163596192137 1.0219185221089069 
104.00163596192137 1.246178730629154 
105.00163596192137 0.8182817836623609 
106.00163596192137 1.1889143997013423 
107.00163596192137 1.1635133109467868 
108.00163596192137 0.9435256859441983 
109.00163596192137 1.220572670940617 
110.00163596192137 1.112516505946826 
111.00163596192137 1.0661037230986303 
112.00163596192137 1.1703679004428023 
113.00163596192137 1.0261635471887085 
114.00163596192137 0.6536555907585834 
115.00163596192137 0.7361783244305028 
116.00163596192137 0.49351517383555615 
117.00163596192137 0.6258446798930769 
118.00163596192137 0.525399715230194 
119.00163596192137 0.5386721422113264 
120.00163596192137 0.44218169215136216 
121.00163596192137 0.4273817574907527 
122.00163596192137 0.2681543201517583 
123.00163596192137 0.03685907412873783 
124.00163596192137 0.08127063385814809 
125.00163596192137 0.020339795173579756 
126.00163596192137 0.006608955147168446 
127.00163596192137 0.011744911733636261 
128.00163596192135 0.004548958242759366 
129.00163596192135 0.0043950769584850434 
130.00163596192135 0.00369924819593687 
131.00163596192135 0.002996141683138695 
132.00163596192135 0.003248655807398182 
133.00163596192135 0.002905052720369182 
134.00163596192135 0.0026334038989724354 
135.00163596192135 0.0027239535061046845 
136.00163596192135 0.0026334038989724354 
137.00163596192135 0.0026334038989724354 
138.00163596192135 0.0026334038989724354 
139.00163596192135 0.0026334038989724354 
140.00163596192135 0.0026334038989724354 
141.00163596192135 0.0026334038989724354 
142.00163596192135 0.0026334038989724354 
143.00163596192135 0.0026334038989724354 
144.00163596192135 0.0026334038989724354 
145.00163596192135 0.0026334038989724354 
146.00163596192135 0.0026334038989724354 
147.00163596192135 0.0026334038989724354 
148.00163596192135 0.0026334038989724354 
149.00163596192135 0.0026334038989724354 
150.00163596192135 0.0026334038989724354 
151.00163596192135 0.0026334038989724354 
152.00163596192135 0.0026334038989724354 
153.00163596192135 0.0026334038989724354 
154.00163596192135 0.0026334038989724354 
155.00163596192135 0.0026334038989724354 
156.00163596192135 0.0026334038989724354 
157.00163596192135 0.0026334038989724354 
158.00163596192135 0.0026334038989724354 
159.00163596192135 0.0026334038989724354 
160.00163596192135 0.0026334038989724354 
161.00163596192135 0.0026334038989724354 
162.00163596192135 0.0026334038989724354 
163.00163596192135 0.0026334038989724354 
164.00163596192135 0.0026334038989724354 
165.00163596192135 0.0026334038989724354 
166.00163596192135 0.0026334038989724354 
167.00163596192135 0.0026334038989724354 
168.00163596192135 0.0026334038989724354 
169.00163596192135 0.0026334038989724354 
170.00163596192135 0.0026334038989724354 
171.00163596192135 0.0026334038989724354 
172.00163596192135 0.0026334038989724354 
173.00163596192135 0.0026334038989724354 
174.00163596192135 0.0026334038989724354 
175.00163596192135 0.0026334038989724354 
176.00163596192135 0.0026334038989724354 
177.00163596192135 0.0026334038989724354 
178.00163596192135 0.0026334038989724354 
179.00163596192135 0.0026334038989724354 
180.00163596192135 0.0026334038989724354 
181.00163596192135 0.0026334038989724354 
182.00163596192135 0.0026334038989724354 
183.00163596192135 0.0026334038989724354 
184.00163596192135 0.0026334038989724354 
185.00163596192135 0.0026334038989724354 
186.00163596192135 0.0026334038989724354 
187.00163596192135 0.0026334038989724354 
188.00163596192135 0.0026334038989724354 
189.00163596192135 0.0026334038989724354 
190.00163596192135 0.0026334038989724354 
191.00163596192135 0.0026334038989724354 
192.00163596192135 0.0026334038989724354 
193.00163596192135 0.0026334038989724354 
194.00163596192135 0.0026334038989724354 
195.00163596192135 0.0026334038989724354 
196.00163596192135 0.0026334038989724354 
197.00163596192135 0.0026334038989724354 
198.00163596192135 0.0026334038989724354 
199.00163596192135 0.0026334038989724354 
200.00163596192135 0.0026334038989724354 
201.00163596192135 0.0026334038989724354 
202.00163596192135 0.0026334038989724354 
203.00163596192135 0.0026334038989724354 
#####################################################################
# End of data export. Simulation finished at: 2017-05-21T23:00+0000 #
#####################################################################
