#####################################################################
# Alchemist log file - simulation started at: 2017-05-24T06:22+0000 #
#####################################################################
# random = 6.0, targets = 31.622776601683793, density = 0.894427190999916, gridShift = 1.0, perturbation = 0.0, connfactor = 0.75
#
# The columns have the following meaning: 
# time se[Mean] 
0.0 NaN 
1.0043581642399184 NaN 
2.0043581642399184 1.0222005640111507 
3.0043581642399184 1.0377967239430663 
4.004358164239918 1.044797205189329 
5.004358164239918 1.0376719323254036 
6.004358164239918 1.0252915346280913 
7.004358164239918 0.9825868726225035 
8.004358164239918 1.0094698762818557 
9.004358164239918 0.9937667117497128 
10.004358164239918 0.9843114698153235 
11.004358164239918 0.9724334964974605 
12.004358164239918 0.9596886867925136 
13.004358164239918 0.9413099282389108 
14.004358164239918 0.9174046035396335 
15.004358164239918 0.9081243508583128 
16.004358164239918 0.8845349398307565 
17.004358164239918 0.8750019942318665 
18.004358164239918 0.8565529995769533 
19.004358164239918 0.8464933610996973 
20.004358164239918 0.8281675392973581 
21.004358164239918 0.8194271121777835 
22.004358164239918 0.7907919590982284 
23.004358164239918 0.8014492795501066 
24.004358164239918 0.7803946970988438 
25.004358164239918 0.7738144766583172 
26.004358164239918 0.7651875603248771 
27.004358164239918 0.7583595945433824 
28.004358164239918 0.7578705960898593 
29.004358164239918 0.7435456368471001 
30.004358164239918 0.7430375967563125 
31.004358164239918 0.7257479848827872 
32.00435816423992 0.7098338359722249 
33.00435816423992 0.6991588241100513 
34.00435816423992 0.6898606748466608 
35.00435816423992 0.6695736140852764 
36.00435816423992 0.6608432271348956 
37.00435816423992 0.6376666834631622 
38.00435816423992 0.6125524485771491 
39.00435816423992 0.6114938467056956 
40.00435816423992 0.596410020263926 
41.00435816423992 0.5750135197759337 
42.00435816423992 0.589040765918519 
43.00435816423992 0.5682804119929951 
44.00435816423992 0.5654363843132251 
45.00435816423992 0.5627981313182793 
46.00435816423992 0.5520213417175309 
47.00435816423992 0.5597096838984906 
48.00435816423992 0.5546251872266631 
49.00435816423992 0.5583451870306474 
50.00435816423992 0.557183004977619 
51.00435816423992 0.5573717595974478 
52.00435816423992 0.5577317858091473 
53.00435816423992 0.5575342348930221 
54.00435816423992 0.5581672749838096 
55.00435816423992 0.5580355743730595 
56.00435816423992 0.5580355743730595 
57.00435816423992 0.5580355743730595 
58.00435816423992 0.5580355743730595 
59.00435816423992 0.5580355743730595 
60.00435816423992 0.5580355743730595 
61.00435816423992 0.5580355743730595 
62.00435816423992 0.5580355743730595 
63.00435816423992 0.5580355743730595 
64.00435816423992 0.5580355743730595 
65.00435816423992 0.5580355743730595 
66.00435816423992 0.5580355743730595 
67.00435816423992 0.5580355743730595 
68.00435816423992 0.5580355743730595 
69.00435816423992 0.5580355743730595 
70.00435816423992 0.5580355743730595 
71.00435816423992 0.5580355743730595 
72.00435816423992 0.5580355743730595 
73.00435816423992 0.5580355743730595 
74.00435816423992 0.5580355743730595 
#####################################################################
# End of data export. Simulation finished at: 2017-05-24T06:22+0000 #
#####################################################################
