#####################################################################
# Alchemist log file - simulation started at: 2017-05-23T18:19+0000 #
#####################################################################
# random = 12.0, targets = 31.622776601683793, density = 7.099073319511142, gridShift = 1.0, perturbation = 0.5, connfactor = 0.75
#
# The columns have the following meaning: 
# time se[Mean] 
0.0 NaN 
1.0005590746559656 NaN 
2.000559074655966 1.000449487875152 
3.000559074655966 1.000409035835377 
4.000559074655966 0.9981937939924919 
5.000559074655966 0.9962476926903618 
6.000559074655966 0.9899013707563704 
7.000559074655966 0.9840816190806941 
8.000559074655966 0.9849447104505172 
9.000559074655966 0.980535091909935 
10.000559074655966 0.9791965791376722 
11.000559074655966 0.9781662213890984 
12.000559074655966 0.974098141773831 
13.000559074655966 0.9719788830688171 
14.000559074655966 0.9649859526679698 
15.000559074655966 0.961709520222032 
16.000559074655968 0.9547495632284811 
17.000559074655968 0.9499137963259563 
18.000559074655968 0.9408754284527052 
19.000559074655968 0.9371438606942103 
20.000559074655968 0.9308149404816831 
21.000559074655968 0.9184334794438154 
22.000559074655968 0.914316555126344 
23.000559074655968 0.8982286588598796 
24.000559074655968 0.8885209655227327 
25.000559074655968 0.8747902228343463 
26.000559074655968 0.8597658628097383 
27.000559074655968 0.8438209352524925 
28.000559074655968 0.8336475152178873 
29.000559074655968 0.8097316993474221 
30.000559074655968 0.79986303337705 
31.000559074655968 0.7895494217454954 
32.00055907465597 0.7669798765544259 
33.00055907465597 0.762579423909455 
34.00055907465597 0.7478591881539061 
35.00055907465597 0.7394490863913301 
36.00055907465597 0.7374429423541573 
37.00055907465597 0.7371842423305094 
38.00055907465597 0.7356186058615265 
39.00055907465597 0.7278347826719088 
40.00055907465597 0.7266727912430422 
41.00055907465597 0.7287046310179811 
42.00055907465597 0.7226938859108818 
43.00055907465597 0.7165197873377593 
44.00055907465597 0.7096140820322622 
45.00055907465597 0.7005552781476111 
46.00055907465597 0.6956101999357358 
47.00055907465597 0.6838311435018226 
48.00055907465597 0.6755325220311299 
49.00055907465597 0.6656560440862143 
50.00055907465597 0.6615640578192016 
51.00055907465597 0.6535363178350686 
52.00055907465597 0.6405546333317298 
53.00055907465597 0.6336220599837916 
54.00055907465597 0.627642040173459 
55.00055907465597 0.6234759492345552 
56.00055907465597 0.615959351110131 
57.00055907465597 0.6085240611176663 
58.00055907465597 0.5997918681601736 
59.00055907465597 0.5951692392443027 
60.00055907465597 0.5897257580462899 
61.00055907465597 0.5787916966824102 
62.00055907465597 0.5724133950345904 
63.00055907465597 0.56063290832284 
64.00055907465597 0.5494509776123279 
65.00055907465597 0.5446910523760355 
66.00055907465597 0.5363589539624265 
67.00055907465597 0.5258881132123142 
68.00055907465597 0.5178801506923333 
69.00055907465597 0.5090455003944927 
70.00055907465597 0.5012054978229273 
71.00055907465597 0.4960178701361718 
72.00055907465597 0.48631973650444427 
73.00055907465597 0.48361517397684783 
74.00055907465597 0.48140161527405756 
75.00055907465597 0.47263618382867767 
76.00055907465597 0.46069714763871644 
77.00055907465597 0.45385404008766617 
78.00055907465597 0.44274292824866285 
79.00055907465597 0.4335645627847633 
80.00055907465597 0.41983832393959153 
81.00055907465597 0.4155816590167677 
82.00055907465597 0.4048644685892511 
83.00055907465597 0.39585479808697577 
84.00055907465597 0.3854008816127461 
85.00055907465597 0.37913955740875205 
86.00055907465597 0.3707001542321338 
87.00055907465597 0.36201599196562767 
88.00055907465597 0.3592336248475428 
89.00055907465597 0.3513099769852493 
90.00055907465597 0.3483145724139709 
91.00055907465597 0.3934779449925904 
92.00055907465597 0.3907440630146186 
93.00055907465597 0.5489172728835687 
94.00055907465597 0.8317566589234058 
95.00055907465597 0.7148500796796913 
96.00055907465597 1.2280151393915413 
97.00055907465597 1.0687931301374358 
98.00055907465597 1.3909949975924114 
99.00055907465597 1.2582147464604931 
100.00055907465597 1.570938296654173 
101.00055907465597 1.196764715373963 
102.00055907465597 1.39195387083568 
103.00055907465597 1.808765821658172 
104.00055907465597 1.5995142527932602 
105.00055907465597 1.3788043222276802 
106.00055907465597 1.5275540202477764 
107.00055907465597 1.5671756788773912 
108.00055907465597 1.7386043471375667 
109.00055907465597 2.2386073554207266 
110.00055907465597 1.7645447572503068 
111.00055907465597 2.4142768280505775 
112.00055907465597 2.677809448826498 
113.00055907465597 2.706163524009062 
114.00055907465597 2.731840117591412 
115.00055907465597 3.449062072440261 
116.00055907465597 2.6552929436393944 
117.00055907465597 2.7640108307353786 
118.00055907465597 3.712281558406293 
119.00055907465597 3.0256946597170686 
120.00055907465597 3.0175981825530673 
121.00055907465597 3.0060076423749584 
122.00055907465597 3.1418752686797458 
123.00055907465597 2.936793235366425 
124.00055907465597 2.778633307265288 
125.00055907465597 1.9844809546229414 
126.00055907465597 2.4842909490150418 
127.00055907465597 2.8195700565632102 
128.00055907465597 2.1533149049091973 
129.00055907465597 2.5684414119442014 
130.00055907465597 2.6618645503904927 
131.00055907465597 2.418294036249313 
132.00055907465597 1.88247458609598 
133.00055907465597 2.457417916701828 
134.00055907465597 1.983158060699214 
135.00055907465597 2.1192403294363675 
136.00055907465597 2.157886076999631 
137.00055907465597 1.95706156607599 
138.00055907465597 1.7283441758761175 
139.00055907465597 1.394588919061319 
140.00055907465597 0.7804030089962471 
141.00055907465597 1.3809735071496487 
142.00055907465597 1.1259827641679796 
143.00055907465597 0.7899703421546744 
144.00055907465597 0.9299273840572221 
145.00055907465597 0.6546863776899318 
146.00055907465597 0.7851854733254675 
147.00055907465597 0.3803636775385495 
148.00055907465597 0.4482368886033099 
149.00055907465597 0.5152855340843345 
150.00055907465597 0.3131224978061565 
151.00055907465597 0.5155225053919499 
152.00055907465597 0.11113552348292358 
153.00055907465597 0.1786689254884859 
154.00055907465597 0.24571716479059202 
155.00055907465597 0.11120479640279488 
156.00055907465597 0.17868679688259442 
157.00055907465597 0.11119650406066257 
158.00055907465597 0.04381025932259479 
159.00055907465597 0.043849935508742506 
160.00055907465597 0.04390086572928208 
161.00055907465597 0.04386393461737698 
162.00055907465597 0.04388684596386913 
163.00055907465597 0.04376854028348003 
164.00055907465597 0.04391911770620606 
165.00055907465597 0.04386814219985292 
166.00055907465597 0.043832794895612356 
167.00055907465597 0.04386633827505423 
168.00055907465597 0.04383291404773674 
169.00055907465597 0.04385517659565036 
170.00055907465597 0.04386159726623772 
171.00055907465597 0.04386446312518431 
172.00055907465597 0.043858588957148684 
173.00055907465597 0.04385278601418428 
174.00055907465597 0.04385837528193501 
175.00055907465597 0.04386116991581037 
176.00055907465597 0.04386116991581037 
177.00055907465597 0.04386116991581037 
178.00055907465597 0.04386116991581037 
179.00055907465597 0.04386116991581037 
180.00055907465597 0.04386116991581037 
181.00055907465597 0.04386116991581037 
182.00055907465597 0.04386116991581037 
183.00055907465597 0.04386116991581037 
184.00055907465597 0.04386116991581037 
185.00055907465597 0.04386116991581037 
186.00055907465597 0.04386116991581037 
187.00055907465597 0.04386116991581037 
188.00055907465597 0.04386116991581037 
189.00055907465597 0.04386116991581037 
190.00055907465597 0.04386116991581037 
191.00055907465597 0.04386116991581037 
192.00055907465597 0.04386116991581037 
193.00055907465597 0.04386116991581037 
194.00055907465597 0.04386116991581037 
195.00055907465597 0.04386116991581037 
196.00055907465597 0.04386116991581037 
197.00055907465597 0.04386116991581037 
198.00055907465597 0.04386116991581037 
199.00055907465597 0.04386116991581037 
200.00055907465597 0.04386116991581037 
201.00055907465597 0.04386116991581037 
202.00055907465597 0.04386116991581037 
203.00055907465597 0.04386116991581037 
204.00055907465597 0.04386116991581037 
205.00055907465597 0.04386116991581037 
206.00055907465597 0.04386116991581037 
207.00055907465597 0.04386116991581037 
208.00055907465597 0.04386116991581037 
209.00055907465597 0.04386116991581037 
210.00055907465597 0.04386116991581037 
211.00055907465597 0.04386116991581037 
212.00055907465597 0.04386116991581037 
213.00055907465597 0.04386116991581037 
214.00055907465597 0.04386116991581037 
215.00055907465597 0.04386116991581037 
216.00055907465597 0.04386116991581037 
217.00055907465597 0.04386116991581037 
218.00055907465597 0.04386116991581037 
219.00055907465597 0.04386116991581037 
220.00055907465597 0.04386116991581037 
221.00055907465597 0.04386116991581037 
222.00055907465597 0.04386116991581037 
223.00055907465597 0.04386116991581037 
224.00055907465597 0.04386116991581037 
225.00055907465597 0.04386116991581037 
226.00055907465597 0.04386116991581037 
227.00055907465597 0.04386116991581037 
228.00055907465597 0.04386116991581037 
229.00055907465597 0.04386116991581037 
230.00055907465597 0.04386116991581037 
231.00055907465597 0.04386116991581037 
232.00055907465597 0.04386116991581037 
233.00055907465597 0.04386116991581037 
#####################################################################
# End of data export. Simulation finished at: 2017-05-23T18:20+0000 #
#####################################################################
