#####################################################################
# Alchemist log file - simulation started at: 2017-05-22T12:30+0000 #
#####################################################################
# random = 4.0, targets = 1.0, density = 0.894427190999916, gridShift = 1.0, perturbation = 0.5, connfactor = 0.1
#
# The columns have the following meaning: 
# time se[Mean] 
0.0 NaN 
1.0048193674555734 NaN 
2.0048193674555734 1.0 
3.0048193674555734 1.0 
4.004819367455573 1.0 
5.004819367455573 1.0 
6.004819367455573 1.0 
7.004819367455573 1.0 
8.004819367455573 1.0 
9.004819367455573 1.0 
10.004819367455573 1.0 
11.004819367455573 1.0 
12.004819367455573 1.0 
13.004819367455573 1.0 
14.004819367455573 1.0 
15.004819367455573 1.0 
16.004819367455575 1.0 
17.004819367455575 1.0 
18.004819367455575 1.0 
#####################################################################
# End of data export. Simulation finished at: 2017-05-22T12:30+0000 #
#####################################################################
