#####################################################################
# Alchemist log file - simulation started at: 2017-05-25T05:06+0000 #
#####################################################################
# random = 17.0, targets = 1.0, density = 0.894427190999916, gridShift = 1.0, perturbation = 0.0, connfactor = 1.5
#
# The columns have the following meaning: 
# time se[Mean] 
0.0 NaN 
1.002823245690351 NaN 
2.002823245690351 1.0 
3.002823245690351 1.0148148148148148 
4.002823245690351 1.234490740740741 
5.002823245690351 1.8613425925925926 
6.002823245690351 2.19699074074074 
7.002823245690351 2.633796296296298 
8.002823245690351 2.61898148148148 
9.002823245690351 2.9249999999999976 
10.002823245690351 1.9624999999999986 
11.002823245690351 2.4437500000000023 
12.002823245690351 1.6416666666666675 
13.002823245690351 1.1604166666666669 
14.002823245690351 1.0 
15.002823245690351 1.0 
16.00282324569035 1.0 
17.00282324569035 0.99375 
18.00282324569035 0.98125 
19.00282324569035 0.9662037037037037 
20.00282324569035 0.9523148148148148 
21.00282324569035 0.9358796296296296 
22.00282324569035 0.9018518518518518 
23.00282324569035 0.9331018518518518 
24.00282324569035 0.9090277777777778 
25.00282324569035 0.892824074074074 
26.00282324569035 0.9280092592592593 
27.00282324569035 0.8796296296296297 
28.00282324569035 0.8520833333333334 
29.00282324569035 0.8097222222222223 
30.00282324569035 0.7363425925925926 
31.00282324569035 0.6724537037037037 
32.00282324569035 0.6222222222222223 
33.00282324569035 0.5722222222222221 
34.00282324569035 0.519675925925926 
35.00282324569035 0.46944444444444433 
36.00282324569035 0.411574074074074 
37.00282324569035 0.3425925925925925 
38.00282324569035 0.2694444444444445 
39.00282324569035 0.22476851851851848 
40.00282324569035 0.15972222222222215 
41.00282324569035 0.1344907407407407 
42.00282324569035 0.13657407407407401 
43.00282324569035 0.09189814814814819 
44.00282324569035 0.0831018518518518 
45.00282324569035 0.053703703703703635 
46.00282324569035 0.026388888888888892 
47.00282324569035 0.02245370370370372 
48.00282324569035 0.01388888888888889 
49.00282324569035 0.006018518518518498 
50.00282324569035 4.930380657631324E-32 
51.00282324569035 4.930380657631324E-32 
52.00282324569035 4.930380657631324E-32 
53.00282324569035 4.930380657631324E-32 
54.00282324569035 4.930380657631324E-32 
55.00282324569035 4.930380657631324E-32 
56.00282324569035 4.930380657631324E-32 
57.00282324569035 4.930380657631324E-32 
58.00282324569035 4.930380657631324E-32 
59.00282324569035 4.930380657631324E-32 
60.00282324569035 4.930380657631324E-32 
61.00282324569035 4.930380657631324E-32 
62.00282324569035 4.930380657631324E-32 
63.00282324569035 4.930380657631324E-32 
64.00282324569035 4.930380657631324E-32 
65.00282324569035 4.930380657631324E-32 
66.00282324569035 4.930380657631324E-32 
67.00282324569035 4.930380657631324E-32 
#####################################################################
# End of data export. Simulation finished at: 2017-05-25T05:06+0000 #
#####################################################################
