#####################################################################
# Alchemist log file - simulation started at: 2017-05-25T12:45+0000 #
#####################################################################
# random = 18.0, targets = 1.0, density = 1.2632455339402642, gridShift = 1.0, perturbation = 0.0, connfactor = 0.75
#
# The columns have the following meaning: 
# time se[Mean] 
0.0 NaN 
1.0067713218599703 NaN 
2.0067713218599703 1.0 
3.0067713218599703 0.9966931216931217 
4.00677132185997 0.9768518518518519 
5.00677132185997 0.9576719576719577 
6.00677132185997 0.9444444444444443 
7.00677132185997 0.9265873015873016 
8.00677132185997 0.9312169312169313 
9.00677132185997 0.9107142857142858 
10.00677132185997 0.9583333333333333 
11.00677132185997 0.9166666666666666 
12.00677132185997 0.9404761904761904 
13.00677132185997 0.9464285714285715 
14.00677132185997 0.9404761904761904 
15.00677132185997 0.9464285714285715 
16.006771321859972 0.9702380952380952 
17.006771321859972 0.9940476190476191 
18.006771321859972 0.9940476190476191 
19.006771321859972 1.0 
20.006771321859972 1.0 
21.006771321859972 1.0 
22.006771321859972 1.0 
23.006771321859972 1.0 
24.006771321859972 0.9966931216931217 
25.006771321859972 0.9933862433862434 
26.006771321859972 0.9834656084656085 
27.006771321859972 0.966931216931217 
28.006771321859972 0.957010582010582 
29.006771321859972 0.9338624338624341 
30.006771321859972 0.912037037037037 
31.006771321859972 0.8968253968253969 
32.00677132185997 0.8664021164021165 
33.00677132185997 0.8802910052910056 
34.00677132185997 0.8690476190476192 
35.00677132185997 0.8855820105820107 
36.00677132185997 0.8472222222222222 
37.00677132185997 0.8624338624338624 
38.00677132185997 0.9563492063492065 
39.00677132185997 1.0701058201058198 
40.00677132185997 1.2466931216931223 
41.00677132185997 1.5932539682539675 
42.00677132185997 1.438492063492064 
43.00677132185997 1.4517195767195772 
44.00677132185997 1.5740740740740735 
45.00677132185997 1.1250000000000002 
46.00677132185997 1.4120370370370365 
47.00677132185997 0.8088624338624338 
48.00677132185997 1.212301587301587 
49.00677132185997 0.8531746031746034 
50.00677132185997 0.8458994708994714 
51.00677132185997 0.9742063492063494 
52.00677132185997 0.6362433862433862 
53.00677132185997 0.720238095238095 
54.00677132185997 0.6534391534391542 
55.00677132185997 0.6236772486772488 
56.00677132185997 0.4583333333333332 
57.00677132185997 0.4206349206349214 
58.00677132185997 0.27910052910052924 
59.00677132185997 0.1124338624338625 
60.00677132185997 0.08730158730158749 
61.00677132185997 0.048941798941798884 
62.00677132185997 0.023148148148148074 
63.00677132185997 0.011904761904761927 
64.00677132185997 0.0059523809523809625 
65.00677132185997 0.0026455026455026558 
66.00677132185997 0.0 
67.00677132185997 0.0 
68.00677132185997 0.0 
69.00677132185997 0.0 
70.00677132185997 0.0 
71.00677132185997 0.0 
72.00677132185997 0.0 
73.00677132185997 0.0 
74.00677132185997 0.0 
75.00677132185997 0.0 
76.00677132185997 0.0 
77.00677132185997 0.0 
78.00677132185997 0.0 
79.00677132185997 0.0 
80.00677132185997 0.0 
81.00677132185997 0.0 
82.00677132185997 0.0 
83.00677132185997 0.0 
84.00677132185997 0.0 
85.00677132185997 0.0 
86.00677132185997 0.0 
#####################################################################
# End of data export. Simulation finished at: 2017-05-25T12:45+0000 #
#####################################################################
