#####################################################################
# Alchemist log file - simulation started at: 2017-05-23T15:49+0000 #
#####################################################################
# random = 5.0, targets = 31.622776601683793, density = 20.0, gridShift = 0.0, perturbation = 0.0, connfactor = 1.0
#
# The columns have the following meaning: 
# time se[Mean] 
0.0 NaN 
1.0000808414316675 NaN 
2.0000808414316675 1.0024965195475786 
3.0000808414316675 1.00464959532853 
4.000080841431668 1.0066017038834885 
5.000080841431668 1.0073901478976584 
6.000080841431668 1.005068430119359 
7.000080841431668 1.0021514693300788 
8.000080841431668 1.002080320328807 
9.000080841431668 1.0005006086702748 
10.000080841431668 1.0021034449422075 
11.000080841431668 1.00311792138828 
12.000080841431668 1.0027841480385704 
13.000080841431668 1.003207625500118 
14.000080841431668 1.0023705842097825 
15.000080841431668 1.0013750863655726 
16.000080841431668 0.9999745898502306 
17.000080841431668 0.9975505548968538 
18.000080841431668 0.9939821409175849 
19.000080841431668 0.9912010944979598 
20.000080841431668 0.9867703101625911 
21.000080841431668 0.9820350295846986 
22.000080841431668 0.976891441506626 
23.000080841431668 0.9721428403818135 
24.000080841431668 0.9663135516808173 
25.000080841431668 0.9615659604974306 
26.000080841431668 0.9562135554980398 
27.000080841431668 0.9535315019292762 
28.000080841431668 0.9449796569123377 
29.000080841431668 0.942008867099155 
30.000080841431668 0.9336979845731406 
31.000080841431668 0.9260846584645042 
32.00008084143167 0.9205527082853243 
33.00008084143167 0.9096182371671376 
34.00008084143167 0.9078424840561916 
35.00008084143167 0.8941564084405901 
36.00008084143167 0.8927484300311853 
37.00008084143167 0.8749278753195113 
38.00008084143167 0.88063852679952 
39.00008084143167 0.8618474198941426 
40.00008084143167 0.8639850543936521 
41.00008084143167 0.8528980614066836 
42.00008084143167 0.8491538000188183 
43.00008084143167 0.8474120072169997 
44.00008084143167 0.8368971006073637 
45.00008084143167 0.8403965534709581 
46.00008084143167 0.8287747263625529 
47.00008084143167 0.8339293143634698 
48.00008084143167 0.8168412144826547 
49.00008084143167 0.8268691994880192 
50.00008084143167 0.8104268212241149 
51.00008084143167 0.821751384982114 
52.00008084143167 0.8030983576142563 
53.00008084143167 0.8093234354119292 
54.00008084143167 0.7990085554791179 
55.00008084143167 0.79701796641361 
56.00008084143167 0.7943086710315905 
57.00008084143167 0.7840428920461073 
58.00008084143167 0.7883591191912518 
59.00008084143167 0.7716641356659638 
60.00008084143167 0.7796623310727194 
61.00008084143167 0.7608906961989788 
62.00008084143167 0.7695911062661391 
63.00008084143167 0.7492718592168539 
64.00008084143167 0.7535664193625873 
65.00008084143167 0.7375305482467371 
66.00008084143167 0.7352229510697246 
67.00008084143167 0.7260095035800633 
68.00008084143167 0.7194265166991708 
69.00008084143167 0.7120949633643167 
70.00008084143167 0.700109486949686 
71.00008084143167 0.6985275100277033 
72.00008084143167 0.6820364713220493 
73.00008084143167 0.6816600933263751 
74.00008084143167 0.6654729893595692 
75.00008084143167 0.6634105970389956 
76.00008084143167 0.6485699512297372 
77.00008084143167 0.6488865766535624 
78.00008084143167 0.6378654081805478 
79.00008084143167 0.6310426652921939 
80.00008084143167 0.620752645932725 
81.00008084143167 0.6144465331778587 
82.00008084143167 0.6103919635916071 
83.00008084143167 0.5978379536276918 
84.00008084143167 0.5935588519750885 
85.00008084143167 0.5847336865115995 
86.00008084143167 0.5821022610784856 
87.00008084143167 0.5683471304852445 
88.00008084143167 0.565500224694665 
89.00008084143167 0.5531653609316328 
90.00008084143167 0.5474919350737714 
91.00008084143167 0.5345075153646921 
92.00008084143167 0.5255459481518867 
93.00008084143167 0.5158508531416 
94.00008084143167 0.5082859332925446 
95.00008084143167 0.4963250128920023 
96.00008084143167 0.48730259820686866 
97.00008084143167 0.47907537972206465 
98.00008084143167 0.4670817201625933 
99.00008084143167 0.4570803814763379 
100.00008084143167 0.4491888290062738 
101.00008084143167 0.43728972247902653 
102.00008084143167 0.42561490367797983 
103.00008084143167 0.41901741100628936 
104.00008084143167 0.40987184035892243 
105.00008084143167 0.39931900132168363 
106.00008084143167 0.389512089048136 
107.00008084143167 0.3807829643024452 
108.00008084143167 0.371690617775951 
109.00008084143167 0.36090898951841 
110.00008084143167 0.35102040505869625 
111.00008084143167 0.3435552987720584 
112.00008084143167 0.3397876116896236 
113.00008084143167 0.3381724102483965 
114.00008084143167 0.34917980571748847 
115.00008084143167 0.35588294002289 
116.00008084143167 0.3445970165290679 
117.00008084143167 0.3613335409334656 
118.00008084143167 0.35685922018202487 
119.00008084143167 0.3696522547249324 
120.00008084143167 0.35334847403003505 
121.00008084143167 0.34280449142434233 
122.00008084143167 0.3516190734883987 
123.00008084143167 0.32276508050493063 
124.00008084143167 0.34269460899866844 
125.00008084143167 0.34348531833235996 
126.00008084143167 0.35697222550516894 
127.00008084143167 0.3079115878401175 
128.00008084143167 0.32393814193569365 
129.00008084143167 0.3332552977926186 
130.00008084143167 0.3284001211107439 
131.00008084143167 0.2908487265219034 
132.00008084143167 0.2721663075327282 
133.00008084143167 0.2610122414278105 
134.00008084143167 0.23691095378598048 
135.00008084143167 0.24672435770030707 
136.00008084143167 0.22832538487699736 
137.00008084143167 0.2299037782915764 
138.00008084143167 0.18482244615484592 
139.00008084143167 0.1794016031137449 
140.00008084143167 0.18422419171165474 
141.00008084143167 0.17998599563051873 
142.00008084143167 0.15175372424893918 
143.00008084143167 0.16399709560152215 
144.00008084143167 0.14175209630047436 
145.00008084143167 0.14513061743481312 
146.00008084143167 0.140412632866963 
147.00008084143167 0.13277533913464787 
148.00008084143167 0.1296771042640994 
149.00008084143167 0.12794656058160278 
150.00008084143167 0.11478692918503643 
151.00008084143167 0.11304269657819369 
152.00008084143167 0.11665845195964121 
153.00008084143167 0.09455690530661795 
154.00008084143167 0.08484885372856571 
155.00008084143167 0.09808197068527162 
156.00008084143167 0.07689397716038486 
157.00008084143167 0.08582171144073333 
158.00008084143167 0.08115869336123903 
159.00008084143167 0.07215331687255627 
160.00008084143167 0.06712158560697043 
161.00008084143167 0.07013473826638365 
162.00008084143167 0.05569285472568517 
163.00008084143167 0.0685519575120252 
164.00008084143167 0.04522306135031604 
165.00008084143167 0.051098227050559275 
166.00008084143167 0.04617024434827852 
167.00008084143167 0.04326999238438708 
168.00008084143167 0.03228175084214839 
169.00008084143167 0.03851712041442589 
170.00008084143167 0.03122530538618589 
171.00008084143167 0.032990008717554344 
172.00008084143167 0.03169686320282585 
173.00008084143167 0.030157194526839085 
174.00008084143167 0.022652278889001468 
175.00008084143167 0.027249378953134867 
176.00008084143167 0.02698652154400347 
177.00008084143167 0.018961304236348585 
178.00008084143167 0.017884058654366437 
179.00008084143167 0.01653324197756222 
180.00008084143167 0.016378205141445803 
181.00008084143167 0.016016239662511398 
182.00008084143167 0.013875562589990408 
183.00008084143167 0.013485389754979184 
184.00008084143167 0.01303246743504907 
185.00008084143167 0.012501747661384632 
186.00008084143167 0.011807622303979427 
187.00008084143167 0.01146221842034547 
188.00008084143167 0.010805524109193413 
189.00008084143167 0.010464582859196766 
190.00008084143167 0.0100276937351967 
191.00008084143167 0.0096782318873798 
192.00008084143167 0.009128808447042192 
193.00008084143167 0.008928161309492703 
194.00008084143167 0.008615226693510931 
195.00008084143167 0.008243946551408735 
196.00008084143167 0.00803382697472336 
197.00008084143167 0.007892909684342855 
198.00008084143167 0.00771132141333039 
199.00008084143167 0.00759046440532502 
200.00008084143167 0.007470812927293171 
201.00008084143167 0.007431256921936036 
202.00008084143167 0.007385883594342038 
203.00008084143167 0.0073231553621846334 
204.00008084143167 0.007277987605314176 
205.00008084143167 0.00720496752261724 
206.00008084143167 0.007157094458128936 
207.00008084143167 0.00710957583598468 
208.00008084143167 0.007076579367770476 
209.00008084143167 0.007041753190245061 
210.00008084143167 0.007006986086443653 
211.00008084143167 0.006976350991056732 
212.00008084143167 0.006942351320289749 
213.00008084143167 0.0069265321713198975 
214.00008084143167 0.0069127199528332805 
215.00008084143167 0.006901682097864324 
216.00008084143167 0.0068932413852410045 
217.00008084143167 0.006883502101444866 
218.00008084143167 0.006880904959099229 
219.00008084143167 0.006878957102340002 
220.00008084143167 0.006878957102340002 
221.00008084143167 0.006878957102340002 
222.00008084143167 0.006878957102340002 
223.00008084143167 0.006878957102340002 
224.00008084143167 0.006878957102340002 
225.00008084143167 0.006878957102340002 
226.00008084143167 0.006878957102340002 
227.00008084143167 0.006878957102340002 
228.00008084143167 0.006878957102340002 
229.00008084143167 0.006878957102340002 
230.00008084143167 0.006878957102340002 
231.00008084143167 0.006878957102340002 
232.00008084143167 0.006878957102340002 
233.00008084143167 0.006878957102340002 
234.00008084143167 0.006878957102340002 
235.00008084143167 0.006878957102340002 
236.00008084143167 0.006878957102340002 
237.00008084143167 0.006878957102340002 
238.00008084143167 0.006878957102340002 
239.00008084143167 0.006878957102340002 
240.00008084143167 0.006878957102340002 
241.00008084143167 0.006878957102340002 
242.00008084143167 0.006878957102340002 
243.00008084143167 0.006878957102340002 
244.00008084143167 0.006878957102340002 
245.00008084143167 0.006878957102340002 
246.00008084143167 0.006878957102340002 
247.00008084143167 0.006878957102340002 
248.00008084143167 0.006878957102340002 
249.00008084143167 0.006878957102340002 
250.00008084143167 0.006878957102340002 
251.00008084143167 0.006878957102340002 
252.00008084143167 0.006878957102340002 
253.00008084143167 0.006878957102340002 
254.00008084143167 0.006878957102340002 
255.00008084143167 0.006878957102340002 
256.00008084143167 0.006878957102340002 
257.00008084143167 0.006878957102340002 
258.00008084143167 0.006878957102340002 
259.00008084143167 0.006878957102340002 
260.00008084143167 0.006878957102340002 
261.00008084143167 0.006878957102340002 
262.00008084143167 0.006878957102340002 
263.00008084143167 0.006878957102340002 
264.00008084143167 0.006878957102340002 
265.00008084143167 0.006878957102340002 
266.00008084143167 0.006878957102340002 
267.00008084143167 0.006878957102340002 
268.00008084143167 0.006878957102340002 
269.00008084143167 0.006878957102340002 
270.00008084143167 0.006878957102340002 
271.00008084143167 0.006878957102340002 
272.00008084143167 0.006878957102340002 
273.00008084143167 0.006878957102340002 
274.00008084143167 0.006878957102340002 
275.00008084143167 0.006878957102340002 
276.00008084143167 0.006878957102340002 
277.00008084143167 0.006878957102340002 
278.00008084143167 0.006878957102340002 
279.00008084143167 0.006878957102340002 
280.00008084143167 0.006878957102340002 
281.00008084143167 0.006878957102340002 
282.00008084143167 0.006878957102340002 
283.00008084143167 0.006878957102340002 
284.00008084143167 0.006878957102340002 
285.00008084143167 0.006878957102340002 
286.00008084143167 0.006878957102340002 
287.00008084143167 0.006878957102340002 
288.00008084143167 0.006878957102340002 
289.00008084143167 0.006878957102340002 
290.00008084143167 0.006878957102340002 
291.00008084143167 0.006878957102340002 
292.00008084143167 0.006878957102340002 
293.00008084143167 0.006878957102340002 
294.00008084143167 0.006878957102340002 
295.00008084143167 0.006878957102340002 
296.00008084143167 0.006878957102340002 
297.00008084143167 0.006878957102340002 
298.00008084143167 0.006878957102340002 
299.00008084143167 0.006878957102340002 
300.00008084143167 0.006878957102340002 
301.00008084143167 0.006878957102340002 
302.00008084143167 0.006878957102340002 
303.00008084143167 0.006878957102340002 
304.00008084143167 0.006878957102340002 
305.00008084143167 0.006878957102340002 
306.00008084143167 0.006878957102340002 
307.00008084143167 0.006878957102340002 
308.00008084143167 0.006878957102340002 
309.00008084143167 0.006878957102340002 
310.00008084143167 0.006878957102340002 
311.00008084143167 0.006878957102340002 
312.00008084143167 0.006878957102340002 
313.00008084143167 0.006878957102340002 
314.00008084143167 0.006878957102340002 
315.00008084143167 0.006878957102340002 
316.00008084143167 0.006878957102340002 
317.00008084143167 0.006878957102340002 
318.00008084143167 0.006878957102340002 
319.00008084143167 0.006878957102340002 
320.00008084143167 0.006878957102340002 
321.00008084143167 0.006878957102340002 
322.00008084143167 0.006878957102340002 
323.00008084143167 0.006878957102340002 
324.00008084143167 0.006878957102340002 
325.00008084143167 0.006878957102340002 
326.00008084143167 0.006878957102340002 
#####################################################################
# End of data export. Simulation finished at: 2017-05-23T16:15+0000 #
#####################################################################
