#####################################################################
# Alchemist log file - simulation started at: 2017-05-23T09:59+0000 #
#####################################################################
# random = 11.0, targets = 31.622776601683793, density = 2.519842099789746, gridShift = 1.0, perturbation = 0.0, connfactor = 1.0
#
# The columns have the following meaning: 
# time se[Mean] 
0.0 NaN 
1.0028758930102715 NaN 
2.0028758930102715 1.0046329018765594 
3.0028758930102715 1.0080667388616071 
4.0028758930102715 1.0127988061994053 
5.0028758930102715 1.020048444117439 
6.0028758930102715 1.0168929289135735 
7.0028758930102715 1.0369966648491715 
8.002875893010271 1.0146548003514522 
9.002875893010271 1.024641965585048 
10.002875893010271 1.0071579134132358 
11.002875893010271 1.0081667523379618 
12.002875893010271 1.0069454298644729 
13.002875893010271 1.0126953912977121 
14.002875893010271 1.0278940347696754 
15.002875893010271 1.0334482780282415 
16.00287589301027 1.0393235561998215 
17.00287589301027 1.0564277759207872 
18.00287589301027 1.0597018877087303 
19.00287589301027 1.0564449262954467 
20.00287589301027 1.0628535482244583 
21.00287589301027 1.0672352866148884 
22.00287589301027 1.0629639715906154 
23.00287589301027 1.0357080137268184 
24.00287589301027 1.0311489465018255 
25.00287589301027 1.0150858647054064 
26.00287589301027 1.0045916307893101 
27.00287589301027 0.9921354865830962 
28.00287589301027 0.9846588482602662 
29.00287589301027 0.9777150296351846 
30.00287589301027 0.9667541589800137 
31.00287589301027 0.9625939648185986 
32.00287589301027 0.9437617987200232 
33.00287589301027 0.9320900404941964 
34.00287589301027 0.9207196876084958 
35.00287589301027 0.9168982897330604 
36.00287589301027 0.903718314599888 
37.00287589301027 0.8991669953179302 
38.00287589301027 0.8942558929233625 
39.00287589301027 0.8845362393192924 
40.00287589301027 0.8795331614091599 
41.00287589301027 0.8657983349939979 
42.00287589301027 0.8605286129729498 
43.00287589301027 0.8382359073917283 
44.00287589301027 0.8295924501762622 
45.00287589301027 0.8131893008982897 
46.00287589301027 0.7904476376947733 
47.00287589301027 0.7773264333788471 
48.00287589301027 0.7504641527251333 
49.00287589301027 0.7323949388541533 
50.00287589301027 0.7039545741084189 
51.00287589301027 0.6823671061544591 
52.00287589301027 0.6554054925522529 
53.00287589301027 0.6312118905066789 
54.00287589301027 0.6075223606625583 
55.00287589301027 0.5830720079401522 
56.00287589301027 0.5577522487450861 
57.00287589301027 0.5304078243937987 
58.00287589301027 0.5118779590885186 
59.00287589301027 0.48640323370894717 
60.00287589301027 0.475557512095144 
61.00287589301027 0.4559741972781417 
62.00287589301027 0.43535907655820616 
63.00287589301027 0.42206715711986353 
64.00287589301027 0.4042094182989516 
65.00287589301027 0.39674570988540336 
66.00287589301027 0.37595589545037694 
67.00287589301027 0.3825857517536357 
68.00287589301027 0.3743480438373172 
69.00287589301027 0.37378689216641253 
70.00287589301027 0.37019829521093683 
71.00287589301027 0.365867614793015 
72.00287589301027 0.3699581763586187 
73.00287589301027 0.3665189755925954 
74.00287589301027 0.37096925713124435 
75.00287589301027 0.37174399176366796 
76.00287589301027 0.37557384703172303 
77.00287589301027 0.3742332660693337 
78.00287589301027 0.3768470726246622 
79.00287589301027 0.38043331731468294 
80.00287589301027 0.38010280024851356 
81.00287589301027 0.38416921394071424 
82.00287589301027 0.383840531577017 
83.00287589301027 0.3850533615595891 
84.00287589301027 0.3850533615595891 
85.00287589301027 0.3850533615595891 
86.00287589301027 0.3850533615595891 
87.00287589301027 0.3850533615595891 
88.00287589301027 0.3850533615595891 
89.00287589301027 0.3850533615595891 
90.00287589301027 0.3850533615595891 
91.00287589301027 0.3850533615595891 
92.00287589301027 0.3850533615595891 
93.00287589301027 0.3850533615595891 
94.00287589301027 0.3850533615595891 
95.00287589301027 0.3850533615595891 
96.00287589301027 0.3850533615595891 
97.00287589301027 0.3850533615595891 
98.00287589301027 0.3850533615595891 
99.00287589301027 0.3850533615595891 
100.00287589301027 0.3850533615595891 
101.00287589301027 0.3850533615595891 
102.00287589301027 0.3850533615595891 
103.00287589301027 0.3850533615595891 
104.00287589301027 0.3850533615595891 
105.00287589301027 0.3850533615595891 
106.00287589301027 0.3850533615595891 
107.00287589301027 0.3850533615595891 
108.00287589301027 0.3850533615595891 
109.00287589301027 0.3850533615595891 
110.00287589301027 0.3850533615595891 
111.00287589301027 0.3850533615595891 
112.00287589301027 0.3850533615595891 
113.00287589301027 0.3850533615595891 
114.00287589301027 0.3850533615595891 
#####################################################################
# End of data export. Simulation finished at: 2017-05-23T09:59+0000 #
#####################################################################
