#####################################################################
# Alchemist log file - simulation started at: 2017-05-25T12:48+0000 #
#####################################################################
# random = 8.0, targets = 10.0, density = 0.04, gridShift = 0.0, perturbation = 0.0, connfactor = 1.0
#
# The columns have the following meaning: 
# time se[Mean] 
0.0 NaN 
1.0490773234798803 NaN 
2.0490773234798803 1.03203125 
3.0490773234798803 1.0738194444444444 
4.04907732347988 1.1030381944444445 
5.04907732347988 1.103402777777778 
6.04907732347988 1.2389800347222224 
7.04907732347988 1.0980034722222223 
8.04907732347988 1.1929470486111113 
9.04907732347988 1.0202083333333334 
10.04907732347988 0.6425520833333334 
11.04907732347988 0.5301302083333334 
12.04907732347988 0.14118489583333335 
13.04907732347988 0.024687500000000008 
14.04907732347988 0.012100694444444445 
15.04907732347988 0.0 
16.049077323479878 0.0 
17.049077323479878 0.0 
#####################################################################
# End of data export. Simulation finished at: 2017-05-25T12:48+0000 #
#####################################################################
