#####################################################################
# Alchemist log file - simulation started at: 2017-05-22T07:09+0000 #
#####################################################################
# random = 3.0, targets = 100.0, density = 0.07978946395100113, gridShift = 1.0, perturbation = 0.5, connfactor = 2.0
#
# The columns have the following meaning: 
# time se[Mean] 
0.0 NaN 
1.0016359619213666 NaN 
2.001635961921367 1.0778400000000001 
3.001635961921367 1.4733705555555556 
4.001635961921367 2.2756661111111107 
5.001635961921367 2.3146283333333333 
6.001635961921367 2.742812222222222 
7.001635961921367 2.2588927777777776 
8.001635961921366 2.083535694444444 
9.001635961921366 1.9840723611111108 
10.001635961921366 1.8585197222222214 
11.001635961921366 1.8409576388888877 
12.001635961921366 1.8153661458333321 
13.001635961921366 3.4550729166666643 
14.001635961921366 7.712861631944438 
15.001635961921366 4.972380972222218 
16.001635961921366 7.699600694444438 
17.001635961921366 4.926114027777773 
18.001635961921366 7.666489340277771 
19.001635961921366 6.173593472222216 
20.001635961921366 2.140975104166664 
21.001635961921366 2.2499999999999973 
22.001635961921366 2.2499999999999973 
23.001635961921366 2.2499999999999973 
24.001635961921366 2.2499999999999973 
25.001635961921366 2.2499999999999973 
26.001635961921366 2.2499999999999973 
27.001635961921366 2.2499999999999973 
28.001635961921366 2.2499999999999973 
29.001635961921366 2.2499999999999973 
#####################################################################
# End of data export. Simulation finished at: 2017-05-22T07:09+0000 #
#####################################################################
