#####################################################################
# Alchemist log file - simulation started at: 2017-05-25T03:09+0000 #
#####################################################################
# random = 16.0, targets = 100.0, density = 2.519842099789746, gridShift = 0.0, perturbation = 0.5, connfactor = 0.1
#
# The columns have the following meaning: 
# time se[Mean] 
0.0 NaN 
1.0060668031062996 NaN 
2.0060668031062994 NaN 
3.0060668031062994 1.0 
4.006066803106299 0.9998622837370242 
5.006066803106299 0.999726643598616 
6.006066803106299 0.9991055363321799 
7.006066803106299 0.9973276816608997 
8.0060668031063 0.9961653979238755 
9.0060668031063 0.9947916955017301 
10.0060668031063 0.9936961937716263 
11.0060668031063 0.9924595155709343 
12.0060668031063 0.9923217993079585 
13.0060668031063 0.9914294117647059 
14.0060668031063 0.9903325259515571 
15.0060668031063 0.9891785467128028 
16.0060668031063 0.9869096885813149 
17.0060668031063 0.9833121107266436 
18.0060668031063 0.9801435986159169 
19.0060668031063 0.9780262975778546 
20.0060668031063 0.9733747404844291 
21.0060668031063 0.9700581314878893 
22.0060668031063 0.9664006920415226 
23.0060668031063 0.9618166089965398 
24.0060668031063 0.9568311418685121 
25.0060668031063 0.9543346020761246 
26.0060668031063 0.9477598615916956 
27.0060668031063 0.9467446366782007 
28.0060668031063 0.9381373702422146 
29.0060668031063 0.935153633217993 
30.0060668031063 0.9292401384083046 
31.0060668031063 0.9236778546712803 
32.0060668031063 0.9143854671280277 
33.0060668031063 0.9115709342560554 
34.0060668031063 0.8996010380622838 
35.0060668031063 0.891642214532872 
36.0060668031063 0.8943429065743944 
37.0060668031063 0.8817740484429065 
38.0060668031063 0.8835294117647059 
39.0060668031063 0.8903349480968857 
40.0060668031063 0.8866640138408305 
41.0060668031063 0.8934692041522492 
42.0060668031063 0.8927903114186851 
43.0060668031063 0.9044636678200692 
44.0060668031063 0.9074494809688581 
45.0060668031063 0.9064567474048443 
46.0060668031063 0.9129899653979239 
47.0060668031063 0.9118626297577854 
48.0060668031063 0.9114629757785467 
49.0060668031063 0.9085214532871972 
50.0060668031063 0.906901384083045 
51.0060668031063 0.9010910034602075 
52.0060668031063 0.8984214532871972 
53.0060668031063 0.8931114186851211 
54.0060668031063 0.8911114186851211 
55.0060668031063 0.885143598615917 
56.0060668031063 0.8841567474048443 
57.0060668031063 0.8779152249134948 
58.0060668031063 0.8739366782006921 
59.0060668031063 0.8761712802768167 
60.0060668031063 0.859380276816609 
61.0060668031063 0.854871626297578 
62.0060668031063 0.848163321799308 
63.0060668031063 0.8526778546712803 
64.00606680310631 0.8343221453287197 
65.00606680310631 0.8430581314878893 
66.00606680310631 0.8219519031141869 
67.00606680310631 0.8196501730103807 
68.00606680310631 0.8303269896193772 
69.00606680310631 0.8151287197231833 
70.00606680310631 0.8244131487889274 
71.00606680310631 0.8381612456747405 
72.00606680310631 0.8377730103806229 
73.00606680310631 0.8520387543252596 
74.00606680310631 0.8387435986159171 
75.00606680310631 0.8701754325259516 
76.00606680310631 0.8724020761245675 
77.00606680310631 0.8813733564013841 
78.00606680310631 0.8813733564013841 
79.00606680310631 0.8836 
80.00606680310631 0.8836 
81.00606680310631 0.8836 
82.00606680310631 0.8836 
83.00606680310631 0.8836 
84.00606680310631 0.8836 
85.00606680310631 0.8836 
86.00606680310631 0.8836 
87.00606680310631 0.8836 
88.00606680310631 0.8836 
89.00606680310631 0.8836 
90.00606680310631 0.8836 
91.00606680310631 0.8836 
92.00606680310631 0.8836 
93.00606680310631 0.8836 
94.00606680310631 0.8836 
95.00606680310631 0.8836 
96.00606680310631 0.8836 
97.00606680310631 0.8836 
98.00606680310631 0.8836 
99.00606680310631 0.8836 
100.00606680310631 0.8836 
101.00606680310631 0.8836 
102.00606680310631 0.8836 
103.00606680310631 0.8836 
104.00606680310631 0.8836 
105.00606680310631 0.8836 
106.00606680310631 0.8836 
107.00606680310631 0.8836 
108.00606680310631 0.8836 
109.00606680310631 0.8836 
110.00606680310631 0.8836 
111.00606680310631 0.8836 
112.00606680310631 0.8836 
113.00606680310631 0.8836 
114.00606680310631 0.8836 
115.00606680310631 0.8836 
#####################################################################
# End of data export. Simulation finished at: 2017-05-25T03:09+0000 #
#####################################################################
