#####################################################################
# Alchemist log file - simulation started at: 2017-05-23T07:51+0000 #
#####################################################################
# random = 5.0, targets = 3.1622776601683795, density = 0.894427190999916, gridShift = 0.0, perturbation = 0.5, connfactor = 0.25
#
# The columns have the following meaning: 
# time se[Mean] 
0.0 NaN 
1.0052461206074068 NaN 
2.005246120607407 1.0 
3.005246120607407 0.9884515157347022 
4.005246120607406 0.9565536293192526 
5.005246120607406 0.9323619869701969 
6.005246120607406 0.8603235149979668 
7.005246120607406 0.8256780622020736 
8.005246120607406 0.8223722770781068 
9.005246120607406 0.8262145172770103 
10.005246120607406 0.8531537260065097 
11.005246120607406 0.8647022102718075 
12.005246120607406 0.883398719859976 
13.005246120607406 0.9064956883905713 
14.005246120607406 0.9312455494831504 
15.005246120607406 0.942794033748448 
16.005246120607406 0.9383935748060209 
17.005246120607406 0.9603958695181564 
18.005246120607406 0.9059809969842211 
19.005246120607406 0.8907861455372985 
20.005246120607406 0.8323331597871806 
21.005246120607406 0.7683491505787292 
22.005246120607406 0.6937807489119211 
23.005246120607406 0.5947595408730186 
24.005246120607406 0.47942704390014695 
25.005246120607406 0.40412631414112304 
26.005246120607406 0.2867927059088832 
27.005246120607406 0.23793825714159483 
28.005246120607406 0.17830354289867054 
29.005246120607406 0.14133816045433775 
30.005246120607406 0.13966350422376778 
31.005246120607406 0.12085817629266658 
32.00524612060741 0.17817296088715132 
33.00524612060741 0.4297173216688504 
34.00524612060741 0.2311090502077955 
35.00524612060741 0.6812616824505496 
36.00524612060741 0.9295220217768687 
37.00524612060741 0.8302178860463413 
38.00524612060741 1.0288261575073958 
39.00524612060741 0.9791740896421323 
40.00524612060741 0.6812616824505495 
41.00524612060741 0.7805658181810775 
42.00524612060741 0.43300134312423055 
43.00524612060741 0.2840451395284394 
44.00524612060741 0.28404513952843935 
45.00524612060741 0.13508893593264829 
46.00524612060741 0.13508893593264829 
47.00524612060741 0.13508893593264829 
48.00524612060741 0.13508893593264829 
49.00524612060741 0.13508893593264829 
50.00524612060741 0.13508893593264829 
51.00524612060741 0.13508893593264829 
52.00524612060741 0.13508893593264829 
53.00524612060741 0.13508893593264829 
54.00524612060741 0.13508893593264829 
55.00524612060741 0.13508893593264829 
56.00524612060741 0.13508893593264829 
57.00524612060741 0.13508893593264829 
58.00524612060741 0.13508893593264829 
59.00524612060741 0.13508893593264829 
60.00524612060741 0.13508893593264829 
61.00524612060741 0.13508893593264829 
62.00524612060741 0.13508893593264829 
63.00524612060741 0.13508893593264829 
64.00524612060741 0.13508893593264829 
65.00524612060741 0.13508893593264829 
#####################################################################
# End of data export. Simulation finished at: 2017-05-23T07:52+0000 #
#####################################################################
