#####################################################################
# Alchemist log file - simulation started at: 2017-05-22T14:48+0000 #
#####################################################################
# random = 4.0, targets = 3.1622776601683795, density = 0.05649405772326896, gridShift = 0.0, perturbation = 0.5, connfactor = 0.5
#
# The columns have the following meaning: 
# time se[Mean] 
0.0 NaN 
1.1124924963623202 NaN 
2.11249249636232 1.0 
3.11249249636232 0.9817982646239476 
4.11249249636232 0.8913378523676334 
5.11249249636232 0.7561954986071097 
6.11249249636232 0.638158350974743 
7.11249249636232 0.49786252646211465 
8.11249249636232 0.4189701727015909 
9.11249249636232 0.37187608356501484 
10.11249249636232 0.19353199442843877 
11.11249249636232 0.12823616991581033 
12.11249249636232 0.12034137604396745 
13.11249249636232 0.12127331754817694 
14.11249249636232 0.1310319944284388 
15.11249249636232 0.13508893593264829 
16.11249249636232 0.13508893593264829 
17.11249249636232 0.13508893593264829 
18.11249249636232 0.13508893593264829 
#####################################################################
# End of data export. Simulation finished at: 2017-05-22T14:48+0000 #
#####################################################################
