#####################################################################
# Alchemist log file - simulation started at: 2017-05-22T12:57+0000 #
#####################################################################
# random = 4.0, targets = 1.0, density = 7.099073319511142, gridShift = 1.0, perturbation = 0.0, connfactor = 1.5
#
# The columns have the following meaning: 
# time se[Mean] 
0.0 NaN 
1.0004793365590676 NaN 
2.0004793365590676 1.0375000000000003 
3.0004793365590676 1.0524928774928775 
4.000479336559067 1.0643518518518515 
5.000479336559067 1.0694444444444449 
6.000479336559067 1.0245014245014243 
7.000479336559067 0.9804131054131054 
8.000479336559067 0.9768874643874643 
9.000479336559067 0.9911680911680912 
10.000479336559067 0.9928774928774929 
11.000479336559067 1.0659900284900288 
12.000479336559067 1.2076566951566952 
13.000479336559067 1.3473646723646717 
14.000479336559067 1.6325498575498552 
15.000479336559067 1.9339031339031367 
16.000479336559067 2.2136039886039867 
17.000479336559067 2.4865740740740816 
18.000479336559067 2.5928774928774887 
19.000479336559067 2.6133190883190895 
20.000479336559067 2.5801282051282115 
21.000479336559067 2.545014245014247 
22.000479336559067 2.4045584045584123 
23.000479336559067 2.281659544159547 
24.000479336559067 2.176317663817668 
25.000479336559067 1.9656339031339076 
26.000479336559067 1.8778490028490027 
27.000479336559067 1.7373931623931582 
28.000479336559067 1.4740384615384614 
29.000479336559067 1.4038105413105386 
30.000479336559067 1.2282407407407405 
31.000479336559067 1.1404558404558403 
32.00047933655907 1.07022792022792 
33.00047933655907 1.0526709401709398 
34.00047933655907 1.0526709401709398 
35.00047933655907 1.0 
36.00047933655907 1.03511396011396 
37.00047933655907 1.01755698005698 
38.00047933655907 1.0 
39.00047933655907 1.0 
40.00047933655907 1.0 
41.00047933655907 1.0 
42.00047933655907 1.0 
43.00047933655907 1.0 
44.00047933655907 1.0 
45.00047933655907 1.0 
46.00047933655907 1.0 
47.00047933655907 1.0 
48.00047933655907 1.0 
49.00047933655907 1.0 
50.00047933655907 1.0 
51.00047933655907 1.0 
52.00047933655907 1.0 
53.00047933655907 1.0 
54.00047933655907 1.0 
55.00047933655907 1.0 
56.00047933655907 1.0 
57.00047933655907 1.0 
58.00047933655907 1.0 
59.00047933655907 1.0 
60.00047933655907 1.0 
61.00047933655907 1.0 
62.00047933655907 1.0 
63.00047933655907 1.0 
64.00047933655907 1.0 
65.00047933655907 0.9996082621082621 
66.00047933655907 0.9980413105413105 
67.00047933655907 0.9980769230769231 
68.00047933655907 0.9907763532763532 
69.00047933655907 0.9930911680911679 
70.00047933655907 0.9819088319088317 
71.00047933655907 0.9830484330484333 
72.00047933655907 0.9732549857549857 
73.00047933655907 0.9695156695156698 
74.00047933655907 0.9623219373219372 
75.00047933655907 0.9515669515669513 
76.00047933655907 0.9449074074074079 
77.00047933655907 0.9295584045584036 
78.00047933655907 0.9226495726495726 
79.00047933655907 0.9233974358974364 
80.00047933655907 0.988888888888889 
81.00047933655907 0.9120370370370368 
82.00047933655907 1.0082977207977208 
83.00047933655907 0.931267806267806 
84.00047933655907 1.008582621082621 
85.00047933655907 0.9295940170940171 
86.00047933655907 0.956517094017094 
87.00047933655907 0.9864316239316241 
88.00047933655907 0.9376424501424503 
89.00047933655907 0.9700498575498573 
90.00047933655907 0.9357193732193733 
91.00047933655907 1.0119301994301997 
92.00047933655907 0.9405270655270654 
93.00047933655907 0.9579059829059828 
94.00047933655907 1.0097934472934476 
95.00047933655907 0.9496438746438745 
96.00047933655907 0.9159900284900286 
97.00047933655907 1.0098290598290605 
98.00047933655907 0.8367521367521362 
99.00047933655907 0.7863247863247863 
100.00047933655907 0.8201566951566946 
101.00047933655907 0.8322649572649568 
102.00047933655907 0.732122507122507 
103.00047933655907 0.7460826210826206 
104.00047933655907 0.6885327635327635 
105.00047933655907 0.7179487179487177 
106.00047933655907 0.6085470085470084 
107.00047933655907 0.6265669515669516 
108.00047933655907 0.49237891737891737 
109.00047933655907 0.4392450142450135 
110.00047933655907 0.473539886039886 
111.00047933655907 0.4793803418803421 
112.00047933655907 0.3959757834757823 
113.00047933655907 0.3248931623931614 
114.00047933655907 0.3281339031339039 
115.00047933655907 0.3135683760683772 
116.00047933655907 0.2279202279202272 
117.00047933655907 0.22678062678062613 
118.00047933655907 0.16695156695156643 
119.00047933655907 0.14141737891737852 
120.00047933655907 0.1922008547008535 
121.00047933655907 0.14658119658119748 
122.00047933655907 0.1477920227920225 
123.00047933655907 0.11837606837606944 
124.00047933655907 0.12111823361823384 
125.00047933655907 0.10612535612535695 
126.00047933655907 0.060398860398860645 
127.00047933655907 0.0749287749287751 
128.00047933655907 0.04700854700854644 
129.00047933655907 0.030341880341879887 
130.00047933655907 0.040028490028489835 
131.00047933655907 0.029059829059829095 
132.00047933655907 0.023076923076923127 
133.00047933655907 0.009686609686609667 
134.00047933655907 0.009116809116809163 
135.00047933655907 0.0022792022792022955 
136.00047933655907 0.009116809116809168 
137.00047933655907 0.006837606837606852 
138.00047933655907 0.002279202279202303 
139.00047933655907 0.002279202279202306 
140.00047933655907 0.0022792022792023085 
141.00047933655907 4.930380657631324E-32 
142.00047933655907 4.930380657631324E-32 
143.00047933655907 4.930380657631324E-32 
144.00047933655907 4.930380657631324E-32 
145.00047933655907 4.930380657631324E-32 
146.00047933655907 4.930380657631324E-32 
147.00047933655907 4.930380657631324E-32 
148.00047933655907 4.930380657631324E-32 
149.00047933655907 4.930380657631324E-32 
150.00047933655907 4.930380657631324E-32 
151.00047933655907 4.930380657631324E-32 
152.00047933655907 4.930380657631324E-32 
153.00047933655907 4.930380657631324E-32 
154.00047933655907 4.930380657631324E-32 
155.00047933655907 4.930380657631324E-32 
156.00047933655907 4.930380657631324E-32 
157.00047933655907 4.930380657631324E-32 
158.00047933655907 4.930380657631324E-32 
159.00047933655907 4.930380657631324E-32 
160.00047933655907 4.930380657631324E-32 
161.00047933655907 4.930380657631324E-32 
162.00047933655907 4.930380657631324E-32 
163.00047933655907 4.930380657631324E-32 
164.00047933655907 4.930380657631324E-32 
165.00047933655907 4.930380657631324E-32 
166.00047933655907 4.930380657631324E-32 
167.00047933655907 4.930380657631324E-32 
168.00047933655907 4.930380657631324E-32 
169.00047933655907 4.930380657631324E-32 
170.00047933655907 4.930380657631324E-32 
171.00047933655907 4.930380657631324E-32 
172.00047933655907 4.930380657631324E-32 
173.00047933655907 4.930380657631324E-32 
174.00047933655907 4.930380657631324E-32 
175.00047933655907 4.930380657631324E-32 
176.00047933655907 4.930380657631324E-32 
177.00047933655907 4.930380657631324E-32 
178.00047933655907 4.930380657631324E-32 
179.00047933655907 4.930380657631324E-32 
180.00047933655907 4.930380657631324E-32 
181.00047933655907 4.930380657631324E-32 
182.00047933655907 4.930380657631324E-32 
183.00047933655907 4.930380657631324E-32 
184.00047933655907 4.930380657631324E-32 
185.00047933655907 4.930380657631324E-32 
186.00047933655907 4.930380657631324E-32 
187.00047933655907 4.930380657631324E-32 
188.00047933655907 4.930380657631324E-32 
189.00047933655907 4.930380657631324E-32 
190.00047933655907 4.930380657631324E-32 
191.00047933655907 4.930380657631324E-32 
192.00047933655907 4.930380657631324E-32 
193.00047933655907 4.930380657631324E-32 
194.00047933655907 4.930380657631324E-32 
195.00047933655907 4.930380657631324E-32 
196.00047933655907 4.930380657631324E-32 
197.00047933655907 4.930380657631324E-32 
#####################################################################
# End of data export. Simulation finished at: 2017-05-22T13:01+0000 #
#####################################################################
