0.000000000000000000e+00 nan
1.000293137046178282e+00 4.983569151802401398e-02
2.000586274092356565e+00 9.839956051594623831e-01
3.000879411138534625e+00 1.010402399282023911e+00
4.001172548184713129e+00 9.829429954153267035e-01
5.001465685230893854e+00 9.508392361292618000e-01
6.001758822277069250e+00 8.544624581426851773e-01
7.002051959323248198e+00 7.406046650868050030e-01
8.002345096369426258e+00 6.630272726547018491e-01
9.002638233415607871e+00 5.274510907632642409e-01
1.000293137046178771e+01 4.445775778210517282e-01
1.100322450750795866e+01 3.562948536444899839e-01
1.200351764455413850e+01 2.849292291926807663e-01
1.300381078160031656e+01 2.345599182544853278e-01
1.400410391864649640e+01 2.166092387474937986e-01
1.500439705569266913e+01 1.915628293065549659e-01
1.600469019273885252e+01 1.741991802178750881e-01
1.700498332978503058e+01 1.657177537722520355e-01
1.800527646683121574e+01 1.556707607426566775e-01
1.900556960387739025e+01 1.562195912583291268e-01
2.000586274092357542e+01 1.593375342742194556e-01
2.100615587796973216e+01 1.587749185248296113e-01
2.200644901501591733e+01 1.578417345457943932e-01
2.300674215206209183e+01 1.582865586698256888e-01
2.400703528910827700e+01 1.596691820215329072e-01
2.500732842615445861e+01 1.596690165069595546e-01
2.600762156320063312e+01 1.596690165069595546e-01
2.700791470024682539e+01 1.596690165069595546e-01
2.800820783729299279e+01 1.596690165069595546e-01
2.900850097433918862e+01 1.596690165069595546e-01
3.000879411138533825e+01 1.596690165069595546e-01
3.100908724843152697e+01 1.596690165069595546e-01
