#####################################################################
# Alchemist log file - simulation started at: 2017-05-20T15:27+0000 #
#####################################################################
# random = 1.0, targets = 10.0, density = 0.11269076455391362, gridShift = 0.0, perturbation = 0.5, connfactor = 2.0
#
# The columns have the following meaning: 
# time se[Mean] 
0.0 NaN 
1.0048855897957667 NaN 
2.0048855897957667 NaN 
3.0048855897957667 1.3072916666666667 
4.004885589795767 1.827588888888889 
5.004885589795767 1.6165222222222224 
6.004885589795767 2.965938888888889 
7.004885589795767 3.3209277777777784 
8.004885589795766 4.134627777777778 
9.004885589795766 4.300947222222223 
10.004885589795766 4.313822222222223 
11.004885589795766 3.9113694444444445 
12.004885589795766 5.113722222222222 
13.004885589795766 4.9683111111111105 
14.004885589795766 4.812422222222222 
15.004885589795766 5.262866666666667 
16.004885589795766 5.646144444444444 
17.004885589795766 6.130255555555556 
18.004885589795766 8.923733333333335 
19.004885589795766 7.471211111111112 
20.004885589795766 16.991900000000008 
21.004885589795766 11.556000000000003 
22.004885589795766 20.545055555555564 
23.004885589795766 21.045488888888897 
24.004885589795766 16.795611111111118 
25.004885589795766 16.67313333333334 
26.004885589795766 14.366922222222227 
27.004885589795766 11.995211111111114 
28.004885589795766 9.688000000000002 
29.004885589795766 9.610000000000003 
30.004885589795766 9.610000000000003 
31.004885589795766 9.610000000000003 
32.00488558979576 9.610000000000003 
33.00488558979576 9.610000000000003 
34.00488558979576 9.610000000000003 
#####################################################################
# End of data export. Simulation finished at: 2017-05-20T15:27+0000 #
#####################################################################
