0.000000000000000000e+00 nan
2.220446049250313081e-16 7.830416018852731641e-03
4.440892098500626162e-16 1.349034647775017304e-01
8.881784197001252323e-16 1.419805158247005594e-01
8.881784197001252323e-16 1.530725613193718304e-01
1.776356839400250465e-15 1.503616905675986271e-01
1.776356839400250465e-15 1.408327041565151372e-01
2.664535259100375697e-15 1.436525290631184004e-01
1.776356839400250465e-15 1.331450128964219715e-01
1.776356839400250465e-15 1.451569129181013440e-01
3.552713678800500929e-15 1.501337993649384250e-01
0.000000000000000000e+00 1.660056312038735438e-01
3.552713678800500929e-15 2.029068722543991843e-01
5.329070518200751394e-15 2.037306522019111943e-01
5.329070518200751394e-15 2.322437149875151985e-01
0.000000000000000000e+00 2.404802998769061118e-01
3.552713678800500929e-15 2.382714743240561261e-01
1.065814103640150279e-14 2.530567413410373945e-01
3.552713678800500929e-15 2.706635553771956082e-01
7.105427357601001859e-15 2.786571666006504855e-01
7.105427357601001859e-15 2.904328950813820920e-01
7.105427357601001859e-15 2.963408037958144003e-01
0.000000000000000000e+00 3.158465195387412106e-01
0.000000000000000000e+00 3.145315640295147097e-01
7.105427357601001859e-15 3.405922091330139678e-01
3.552713678800500929e-15 3.580204563882808944e-01
1.065814103640150279e-14 3.877703490067327396e-01
1.421085471520200372e-14 4.192402405823806855e-01
1.065814103640150279e-14 4.461826163369971288e-01
3.552713678800500929e-15 4.480629915155050491e-01
0.000000000000000000e+00 4.765395353458014571e-01
3.552713678800500929e-15 4.575462629763974998e-01
7.105427357601001859e-15 4.699793225535240926e-01
1.421085471520200372e-14 4.722431760491183073e-01
2.131628207280300558e-14 4.596252617307989286e-01
7.105427357601001859e-15 4.626491416031357495e-01
7.105427357601001859e-15 4.491700988652346793e-01
2.131628207280300558e-14 4.436487930881150565e-01
1.421085471520200372e-14 4.452719303922279548e-01
2.131628207280300558e-14 4.546336365783502642e-01
1.421085471520200372e-14 4.348861871358551956e-01
2.131628207280300558e-14 4.373080741342160738e-01
1.421085471520200372e-14 4.513718917555173959e-01
7.105427357601001859e-15 4.454157168677589929e-01
0.000000000000000000e+00 4.225673657482160173e-01
0.000000000000000000e+00 4.492223813646710751e-01
0.000000000000000000e+00 4.136579486111709447e-01
7.105427357601001859e-15 4.274453771690829296e-01
1.421085471520200372e-14 4.445348491129220148e-01
7.105427357601001859e-15 4.027525333276675834e-01
7.105427357601001859e-15 4.836538467087639903e-01
1.421085471520200372e-14 4.097599019616671723e-01
2.131628207280300558e-14 4.088003524601578342e-01
2.842170943040400743e-14 4.014190628771641123e-01
2.842170943040400743e-14 4.085221351610950347e-01
2.131628207280300558e-14 4.023885065662385352e-01
2.131628207280300558e-14 4.025686094252551861e-01
1.421085471520200372e-14 4.032171109331455505e-01
7.105427357601001859e-15 4.031401914646737805e-01
0.000000000000000000e+00 4.025306721582775360e-01
0.000000000000000000e+00 4.023956672457263406e-01
0.000000000000000000e+00 4.027403794676273630e-01
7.105427357601001859e-15 4.016997006655654290e-01
1.421085471520200372e-14 4.020977993830268105e-01
1.421085471520200372e-14 4.017572696929191944e-01
2.842170943040400743e-14 4.017500764523509460e-01
2.842170943040400743e-14 4.017572696929191944e-01
4.263256414560601115e-14 4.017572696929191944e-01
4.263256414560601115e-14 4.017572696929191944e-01
1.421085471520200372e-14 4.017572696929191944e-01
1.421085471520200372e-14 4.017572696929191944e-01
1.421085471520200372e-14 4.017572696929191944e-01
1.421085471520200372e-14 4.017572696929191944e-01
2.842170943040400743e-14 4.017572696929191944e-01
4.263256414560601115e-14 4.017572696929191944e-01
2.842170943040400743e-14 4.017572696929191944e-01
2.842170943040400743e-14 4.017572696929191944e-01
4.263256414560601115e-14 4.017572696929191944e-01
4.263256414560601115e-14 4.017572696929191944e-01
2.842170943040400743e-14 4.017572696929191944e-01
2.842170943040400743e-14 4.017572696929191944e-01
1.421085471520200372e-14 4.017572696929191944e-01
4.263256414560601115e-14 4.017572696929191944e-01
