#####################################################################
# Alchemist log file - simulation started at: 2017-05-25T06:13+0000 #
#####################################################################
# random = 17.0, targets = 3.1622776601683795, density = 1.2632455339402642, gridShift = 1.0, perturbation = 0.0, connfactor = 1.5
#
# The columns have the following meaning: 
# time se[Mean] 
0.0 NaN 
1.002823245690351 NaN 
2.002823245690351 1.069162431622255 
3.002823245690351 1.1202728139600377 
4.002823245690351 1.2005185129180709 
5.002823245690351 1.2237832841078788 
6.002823245690351 1.3243384523441772 
7.002823245690351 1.2505272212642975 
8.002823245690351 1.2255063441659464 
9.002823245690351 1.102245125112408 
10.002823245690351 1.0452380723055024 
11.002823245690351 1.1068590911851257 
12.002823245690351 1.041104485888201 
13.002823245690351 1.0631561277210468 
14.002823245690351 1.0242516096741354 
15.002823245690351 0.991442186261056 
16.00282324569035 0.9673455048856818 
17.00282324569035 0.9046436661802607 
18.00282324569035 0.8811926969093503 
19.00282324569035 0.8649803077920127 
20.00282324569035 0.8509887406817233 
21.00282324569035 0.8499201010743466 
22.00282324569035 0.8222920265875939 
23.00282324569035 0.8229185917966555 
24.00282324569035 0.8107806182074633 
25.00282324569035 0.8004805745824565 
26.00282324569035 0.7989785574566949 
27.00282324569035 0.7853298698618106 
28.00282324569035 0.7679496462541865 
29.00282324569035 0.7325435098670672 
30.00282324569035 0.6989056252080227 
31.00282324569035 0.6681761205875645 
32.00282324569035 0.6264433736862426 
33.00282324569035 0.5869523488229129 
34.00282324569035 0.5475448323529886 
35.00282324569035 0.5032762735697316 
36.00282324569035 0.4501609444809529 
37.00282324569035 0.4101129065154111 
38.00282324569035 0.37710691526983237 
39.00282324569035 0.4205037348008086 
40.00282324569035 0.354742174293199 
41.00282324569035 0.43968209370479355 
42.00282324569035 0.40159565568615385 
43.00282324569035 0.3826298721604734 
44.00282324569035 0.32690020701186506 
45.00282324569035 0.35349625134428275 
46.00282324569035 0.38424681652383536 
47.00282324569035 0.26681250943923374 
48.00282324569035 0.3298695225414457 
49.00282324569035 0.26634431000223824 
50.00282324569035 0.283174613313893 
51.00282324569035 0.25816763517061486 
52.00282324569035 0.29568683939749973 
53.00282324569035 0.28963700523145397 
54.00282324569035 0.20724515818429057 
55.00282324569035 0.1281758415346204 
56.00282324569035 0.13350860102232834 
57.00282324569035 0.1350889359326485 
58.00282324569035 0.1350889359326485 
59.00282324569035 0.1350889359326485 
60.00282324569035 0.1350889359326485 
61.00282324569035 0.1350889359326485 
62.00282324569035 0.1350889359326485 
63.00282324569035 0.1350889359326485 
64.00282324569035 0.1350889359326485 
65.00282324569035 0.1350889359326485 
66.00282324569035 0.1350889359326485 
67.00282324569035 0.1350889359326485 
68.00282324569035 0.1350889359326485 
69.00282324569035 0.1350889359326485 
70.00282324569035 0.1350889359326485 
71.00282324569035 0.1350889359326485 
72.00282324569035 0.1350889359326485 
73.00282324569035 0.1350889359326485 
74.00282324569035 0.1350889359326485 
75.00282324569035 0.1350889359326485 
76.00282324569035 0.1350889359326485 
77.00282324569035 0.1350889359326485 
78.00282324569035 0.1350889359326485 
79.00282324569035 0.1350889359326485 
#####################################################################
# End of data export. Simulation finished at: 2017-05-25T06:13+0000 #
#####################################################################
