#####################################################################
# Alchemist log file - simulation started at: 2017-05-24T17:38+0000 #
#####################################################################
# random = 15.0, targets = 31.622776601683793, density = 5.0264212595847235, gridShift = 1.0, perturbation = 0.5, connfactor = 1.5
#
# The columns have the following meaning: 
# time se[Mean] 
0.0 NaN 
1.0003675412420963 NaN 
2.0003675412420963 1.0170414436313058 
3.0003675412420963 1.0286936398540367 
4.000367541242096 1.0385026433274935 
5.000367541242096 1.0523990514857362 
6.000367541242096 1.050037618990275 
7.000367541242096 1.0423374875165459 
8.000367541242095 1.0538377872393512 
9.000367541242095 1.0526091871785868 
10.000367541242095 1.0467032844483142 
11.000367541242095 1.0545410101549766 
12.000367541242095 1.0509551138116404 
13.000367541242095 1.051138625204225 
14.000367541242095 1.0459572206318224 
15.000367541242095 1.050526708949704 
16.000367541242095 1.0531976914644279 
17.000367541242095 1.0545287471782516 
18.000367541242095 1.0478410596121015 
19.000367541242095 1.0554693399441906 
20.000367541242095 1.0429125040339806 
21.000367541242095 1.0505552696102516 
22.000367541242095 1.0395999844161163 
23.000367541242095 1.0320255751875522 
24.000367541242095 1.0279369350859238 
25.000367541242095 1.0249907373097897 
26.000367541242095 1.0181489268038277 
27.000367541242095 1.0190311723155123 
28.000367541242095 1.0118779852266007 
29.000367541242095 1.0127911618425027 
30.000367541242095 1.0085627548390512 
31.000367541242095 1.0067753672475799 
32.0003675412421 1.0061236381252008 
33.0003675412421 1.0061840065558108 
34.0003675412421 1.0075344795149397 
35.0003675412421 1.0105725799706982 
36.0003675412421 1.0120166478613037 
37.0003675412421 1.0293525793991 
38.0003675412421 1.0467639700367875 
39.0003675412421 1.0503886724170297 
40.0003675412421 1.0703041839533334 
41.0003675412421 1.0891895375762408 
42.0003675412421 1.1060603671100682 
43.0003675412421 1.1318937245500758 
44.0003675412421 1.1500053485271031 
45.0003675412421 1.1900341208888312 
46.0003675412421 1.2214177818229635 
47.0003675412421 1.2207147955270174 
48.0003675412421 1.248414070086582 
49.0003675412421 1.2742582696207148 
50.0003675412421 1.2536026033506038 
51.0003675412421 1.2783239309552417 
52.0003675412421 1.309889329193581 
53.0003675412421 1.2865824331597933 
54.0003675412421 1.314175167860785 
55.0003675412421 1.3324617663533767 
56.0003675412421 1.3062803067089812 
57.0003675412421 1.3216871573678652 
58.0003675412421 1.299020120828749 
59.0003675412421 1.318016141370899 
60.0003675412421 1.3186602698065848 
61.0003675412421 1.3389731202694355 
62.0003675412421 1.3730824573231801 
63.0003675412421 1.3364355162158779 
64.0003675412421 1.3395083353178696 
65.0003675412421 1.3935101251964181 
66.0003675412421 1.344658514634171 
67.0003675412421 1.3468780638955882 
68.0003675412421 1.4313246042425651 
69.0003675412421 1.383232583305408 
70.0003675412421 1.3392585844699203 
71.0003675412421 1.3922308455600876 
72.0003675412421 1.3196249382660479 
73.0003675412421 1.2238758097252536 
74.0003675412421 1.1557467850407213 
75.0003675412421 1.1072987513891621 
76.0003675412421 1.031195176120198 
77.0003675412421 0.9700388641195753 
78.0003675412421 0.9344345498775992 
79.0003675412421 0.9001369809426074 
80.0003675412421 0.8576954547806707 
81.0003675412421 0.8343620637042125 
82.0003675412421 0.8331233349631112 
83.0003675412421 0.8274108050212142 
84.0003675412421 0.8154480140108822 
85.0003675412421 0.8281092611863226 
86.0003675412421 0.8339257055143887 
87.0003675412421 0.8116457589113427 
88.0003675412421 0.8256918812184457 
89.0003675412421 0.8368519723701316 
90.0003675412421 0.8335437122565378 
91.0003675412421 0.8315938594927584 
92.0003675412421 0.847582744322473 
93.0003675412421 0.8601508251727821 
94.0003675412421 0.8580235014589002 
95.0003675412421 0.8657526421657404 
96.0003675412421 0.8699833461548614 
97.0003675412421 0.8678658440506948 
98.0003675412421 0.8734603882321708 
99.0003675412421 0.8773739000737548 
100.0003675412421 0.8763072150129468 
101.0003675412421 0.8775088935932653 
102.0003675412421 0.8775088935932653 
103.0003675412421 0.8775088935932653 
104.0003675412421 0.8775088935932653 
105.0003675412421 0.8775088935932653 
106.0003675412421 0.8775088935932653 
107.0003675412421 0.8775088935932653 
108.0003675412421 0.8775088935932653 
109.0003675412421 0.8775088935932653 
110.0003675412421 0.8775088935932653 
111.0003675412421 0.8775088935932653 
112.0003675412421 0.8775088935932653 
113.0003675412421 0.8775088935932653 
114.0003675412421 0.8775088935932653 
115.0003675412421 0.8775088935932653 
116.0003675412421 0.8775088935932653 
117.0003675412421 0.8775088935932653 
118.0003675412421 0.8775088935932653 
119.0003675412421 0.8775088935932653 
120.0003675412421 0.8775088935932653 
121.0003675412421 0.8775088935932653 
122.0003675412421 0.8775088935932653 
123.0003675412421 0.8775088935932653 
124.0003675412421 0.8775088935932653 
125.0003675412421 0.8775088935932653 
126.0003675412421 0.8775088935932653 
127.0003675412421 0.8775088935932653 
128.0003675412421 0.8775088935932653 
129.0003675412421 0.8775088935932653 
130.0003675412421 0.8775088935932653 
131.0003675412421 0.8775088935932653 
132.0003675412421 0.8775088935932653 
133.0003675412421 0.8775088935932653 
134.0003675412421 0.8775088935932653 
135.0003675412421 0.8775088935932653 
136.0003675412421 0.8775088935932653 
137.0003675412421 0.8775088935932653 
138.0003675412421 0.8775088935932653 
139.0003675412421 0.8775088935932653 
140.0003675412421 0.8775088935932653 
141.0003675412421 0.8775088935932653 
142.0003675412421 0.8775088935932653 
143.0003675412421 0.8775088935932653 
144.0003675412421 0.8775088935932653 
145.0003675412421 0.8775088935932653 
146.0003675412421 0.8775088935932653 
147.0003675412421 0.8775088935932653 
148.0003675412421 0.8775088935932653 
#####################################################################
# End of data export. Simulation finished at: 2017-05-24T17:39+0000 #
#####################################################################
