#####################################################################
# Alchemist log file - simulation started at: 2017-05-26T03:05+0000 #
#####################################################################
# random = 9.0, targets = 3.1622776601683795, density = 0.6332893950589894, gridShift = 0.0, perturbation = 0.5, connfactor = 0.25
#
# The columns have the following meaning: 
# time se[Mean] 
0.0 NaN 
1.0078258106860618 NaN 
2.007825810686062 1.0 
3.007825810686062 1.0 
4.007825810686062 1.0 
5.007825810686062 1.0 
6.007825810686062 1.0 
7.007825810686062 0.9893220856287981 
8.007825810686061 0.9359325137727887 
9.007825810686061 0.9080031599435494 
10.007825810686061 0.7897122195397569 
11.007825810686061 0.7486358155368469 
12.007825810686061 0.684535818150389 
13.007825810686061 0.6705548856561461 
14.007825810686061 0.6154975491589928 
15.007825810686061 0.5908387022935478 
16.00782581068606 0.5752225163174078 
17.00782581068606 0.5292078407095594 
18.00782581068606 0.46927725492596123 
19.00782581068606 0.4101480403036882 
20.00782581068606 0.338705657828316 
21.00782581068606 0.2738368004397795 
22.00782581068606 0.21143707885371202 
23.00782581068606 0.17039318601004838 
24.00782581068606 0.14740210378574736 
25.00782581068606 0.14579936146309672 
26.00782581068606 0.14759717074122683 
27.00782581068606 0.1425938768177954 
28.00782581068606 0.16680897527362715 
29.00782581068606 0.15109525581974728 
30.00782581068606 0.16020293902754507 
31.00782581068606 0.15218922741429178 
32.00782581068606 0.1586977301826341 
33.00782581068606 0.1512903227752267 
34.00782581068606 0.13628044100493247 
35.00782581068606 0.12797412895846003 
36.00782581068606 0.1320785182428264 
37.00782581068606 0.13188345128734696 
38.00782581068606 0.13428756477132295 
39.00782581068606 0.1334861936099976 
40.00782581068606 0.13508893593264829 
41.00782581068606 0.13508893593264829 
42.00782581068606 0.13508893593264829 
43.00782581068606 0.13508893593264829 
44.00782581068606 0.13508893593264829 
45.00782581068606 0.13508893593264829 
46.00782581068606 0.13508893593264829 
47.00782581068606 0.13508893593264829 
48.00782581068606 0.13508893593264829 
49.00782581068606 0.13508893593264829 
50.00782581068606 0.13508893593264829 
51.00782581068606 0.13508893593264829 
52.00782581068606 0.13508893593264829 
53.00782581068606 0.13508893593264829 
54.00782581068606 0.13508893593264829 
55.00782581068606 0.13508893593264829 
#####################################################################
# End of data export. Simulation finished at: 2017-05-26T03:05+0000 #
#####################################################################
