#####################################################################
# Alchemist log file - simulation started at: 2017-05-24T23:13+0000 #
#####################################################################
# random = 7.0, targets = 31.622776601683793, density = 2.519842099789746, gridShift = 1.0, perturbation = 0.5, connfactor = 0.1
#
# The columns have the following meaning: 
# time se[Mean] 
0.0 NaN 
1.001616958347866 NaN 
2.0016169583478662 1.0 
3.0016169583478662 1.0 
4.001616958347866 0.9995970687289252 
5.001616958347866 0.9985864510775541 
6.001616958347866 0.9975692544788144 
7.001616958347866 0.996750234041928 
8.001616958347867 0.9945176646825956 
9.001616958347867 0.994280014836532 
10.001616958347867 0.9940621018325735 
11.001616958347867 0.9932430813956871 
12.001616958347867 0.9916050405219142 
13.001616958347867 0.9899669996481414 
14.001616958347867 0.9877146934467037 
15.001616958347867 0.9854623872452661 
16.001616958347867 0.9830053259346069 
17.001616958347867 0.979319733968618 
18.001616958347867 0.9787054686409532 
19.001616958347867 0.9760436522210724 
20.001616958347867 0.9746103664565211 
21.001616958347867 0.9766579175487371 
22.001616958347867 0.9764531624395155 
23.001616958347867 0.9801387544055044 
24.001616958347867 0.9791149788593964 
25.001616958347867 0.980343509514726 
26.001616958347867 0.9780912033132884 
27.001616958347867 0.9756341420026291 
28.001616958347867 0.9754293868934075 
29.001616958347867 0.9713342847089754 
30.001616958347867 0.9719485500366403 
31.001616958347867 0.9729723255827483 
32.00161695834787 0.9721533051458618 
33.00161695834787 0.9729723255827483 
34.00161695834787 0.9733818358011914 
35.00161695834787 0.9733818358011914 
36.00161695834787 0.9754293868934074 
37.00161695834787 0.9762484073302939 
38.00161695834787 0.9780912033132884 
39.00161695834787 0.9791149788593964 
40.00161695834787 0.9793197339686179 
41.00161695834787 0.9795310680252081 
42.00161695834787 0.9777145878316873 
43.00161695834787 0.9769087252895376 
44.00161695834787 0.9750725082539117 
45.00161695834787 0.9734805200117178 
46.00161695834787 0.9726483416800945 
47.00161695834787 0.971406653130028 
48.00161695834787 0.9695967518838757 
49.00161695834787 0.9675360428969229 
50.00161695834787 0.964140732355945 
51.00161695834787 0.9574356375897789 
52.00161695834787 0.9524343731710699 
53.00161695834787 0.9447186607535327 
54.00161695834787 0.9357267495674858 
55.00161695834787 0.920740269931062 
56.00161695834787 0.9132548206714194 
57.00161695834787 0.9048113853393532 
58.00161695834787 0.8861295038263701 
59.00161695834787 0.8847446939157996 
60.00161695834787 0.8746187805599822 
61.00161695834787 0.8626312591408302 
62.00161695834787 0.8669285761911182 
63.00161695834787 0.85763738141029 
64.00161695834787 0.8559771804720102 
65.00161695834787 0.8560141139128552 
66.00161695834787 0.8455075463714342 
67.00161695834787 0.849581179211196 
68.00161695834787 0.8409437234422432 
69.00161695834787 0.8449096699017085 
70.00161695834787 0.8276486183843239 
71.00161695834787 0.8217539271660087 
72.00161695834787 0.8320685692419478 
73.00161695834787 0.815624114939048 
74.00161695834787 0.8199717087815669 
75.00161695834787 0.8225522488196939 
76.00161695834787 0.8194466231929597 
77.00161695834787 0.8285316100277191 
78.00161695834787 0.8262672705173947 
79.00161695834787 0.8241593843130128 
80.00161695834787 0.8215030222546504 
81.00161695834787 0.8209156007915417 
82.00161695834787 0.8206052656793759 
83.00161695834787 0.8179300116990401 
84.00161695834787 0.8140844870545421 
85.00161695834787 0.8103842273272317 
86.00161695834787 0.802058790587731 
87.00161695834787 0.8023300372964208 
88.00161695834787 0.8049017179591258 
89.00161695834787 0.800084626887401 
90.00161695834787 0.7995428355958053 
91.00161695834787 0.8013277568683671 
92.00161695834787 0.8056562475588794 
93.00161695834787 0.8134214919805624 
94.00161695834787 0.8185364252161687 
95.00161695834787 0.8192633403898971 
96.00161695834787 0.8192633403898971 
97.00161695834787 0.8192633403898971 
98.00161695834787 0.8192633403898971 
99.00161695834787 0.8192633403898971 
100.00161695834787 0.8192633403898971 
101.00161695834787 0.8192633403898971 
102.00161695834787 0.8192633403898971 
103.00161695834787 0.8192633403898971 
104.00161695834787 0.8192633403898971 
105.00161695834787 0.8192633403898971 
106.00161695834787 0.8192633403898971 
107.00161695834787 0.8192633403898971 
108.00161695834787 0.8192633403898971 
109.00161695834787 0.8192633403898971 
110.00161695834787 0.8192633403898971 
111.00161695834787 0.8192633403898971 
112.00161695834787 0.8192633403898971 
113.00161695834787 0.8192633403898971 
114.00161695834787 0.8192633403898971 
115.00161695834787 0.8192633403898971 
116.00161695834787 0.8192633403898971 
117.00161695834787 0.8192633403898971 
118.00161695834787 0.8192633403898971 
119.00161695834787 0.8192633403898971 
120.00161695834787 0.8192633403898971 
121.00161695834787 0.8192633403898971 
122.00161695834787 0.8192633403898971 
123.00161695834787 0.8192633403898971 
124.00161695834787 0.8192633403898971 
125.00161695834787 0.8192633403898971 
126.00161695834787 0.8192633403898971 
#####################################################################
# End of data export. Simulation finished at: 2017-05-24T23:15+0000 #
#####################################################################
