#####################################################################
# Alchemist log file - simulation started at: 2017-05-23T17:13+0000 #
#####################################################################
# random = 12.0, targets = 10.0, density = 14.160781367816199, gridShift = 1.0, perturbation = 0.5, connfactor = 1.0
#
# The columns have the following meaning: 
# time se[Mean] 
0.0 NaN 
1.0005590746559656 NaN 
2.000559074655966 NaN 
3.000559074655966 1.0017750587889476 
4.000559074655966 1.0014643959435625 
5.000559074655966 1.0014057907113463 
6.000559074655966 0.999210758377425 
7.000559074655966 0.9946362433862433 
8.000559074655966 0.9917283950617284 
9.000559074655966 0.9869591416813639 
10.000559074655966 0.9849524176954731 
11.000559074655966 0.9808272707231039 
12.000559074655966 0.9800159832451499 
13.000559074655966 0.9779705412257496 
14.000559074655966 0.9790401785714287 
15.000559074655966 0.9805869708994709 
16.000559074655968 0.9835529651675484 
17.000559074655968 0.9855371840094062 
18.000559074655968 0.9856542566872427 
19.000559074655968 0.9842708333333333 
20.000559074655968 0.9846937463256908 
21.000559074655968 0.9810945307907114 
22.000559074655968 0.9756454842739565 
23.000559074655968 0.9732650371105233 
24.000559074655968 0.9680969833921224 
25.000559074655968 0.9600169477513228 
26.000559074655968 0.9520053461199295 
27.000559074655968 0.951873392489712 
28.000559074655968 0.9374129188712523 
29.000559074655968 0.9346976043503822 
30.000559074655968 0.9237225804673722 
31.000559074655968 0.9159147192827748 
32.00055907465597 0.9085651363168724 
33.00055907465597 0.8982938345091124 
34.00055907465597 0.8935503012933569 
35.00055907465597 0.8849376745296885 
36.00055907465597 0.8827756650499707 
37.00055907465597 0.8765756356554968 
38.00055907465597 0.8722513411228687 
39.00055907465597 0.8687665803203999 
40.00055907465597 0.8648795285861259 
41.00055907465597 0.8557851080246913 
42.00055907465597 0.8488126929012344 
43.00055907465597 0.8396629739858905 
44.00055907465597 0.8317441486625516 
45.00055907465597 0.8220870535714284 
46.00055907465597 0.8148843051881246 
47.00055907465597 0.8026624503968255 
48.00055907465597 0.7938548096707816 
49.00055907465597 0.7815832598471495 
50.00055907465597 0.7694184027777772 
51.00055907465597 0.7595323982216341 
52.00055907465597 0.7506762566137565 
53.00055907465597 0.7432716508671376 
54.00055907465597 0.7345714377572016 
55.00055907465597 0.7258086236037626 
56.00055907465597 0.7165384792034096 
57.00055907465597 0.7107122648442097 
58.00055907465597 0.6967137896825399 
59.00055907465597 0.6887764090975902 
60.00055907465597 0.6825446428571434 
61.00055907465597 0.6707135967813046 
62.00055907465597 0.6650110229276901 
63.00055907465597 0.6568294385655495 
64.00055907465597 0.6544655717225167 
65.00055907465597 0.6503959068195181 
66.00055907465597 0.6414232436801875 
67.00055907465597 0.6335837375073485 
68.00055907465597 0.6293327454438563 
69.00055907465597 0.6222874412110526 
70.00055907465597 0.6121467151675484 
71.00055907465597 0.6007107951205173 
72.00055907465597 0.5923552322163438 
73.00055907465597 0.5848636831275716 
74.00055907465597 0.5746551660787768 
75.00055907465597 0.5629061948853622 
76.00055907465597 0.5552502204585541 
77.00055907465597 0.5511408730158723 
78.00055907465597 0.5353422619047622 
79.00055907465597 0.5198515579071133 
80.00055907465597 0.510390211640211 
81.00055907465597 0.4951653439153433 
82.00055907465597 0.4839673353909471 
83.00055907465597 0.5123809523809526 
84.00055907465597 0.6905291464579654 
85.00055907465597 0.6065405460023511 
86.00055907465597 0.7794551458700761 
87.00055907465597 0.9943249834656092 
88.00055907465597 1.0993871252204594 
89.00055907465597 1.0125360541593171 
90.00055907465597 1.261903108465608 
91.00055907465597 1.173070252792472 
92.00055907465597 1.3092040068342157 
93.00055907465597 1.4444821520429145 
94.00055907465597 1.6232084527483785 
95.00055907465597 1.711515147339792 
96.00055907465597 1.9438834233539046 
97.00055907465597 2.066977283583189 
98.00055907465597 2.1467929710464384 
99.00055907465597 2.215304600235155 
100.00055907465597 2.3643512547766 
101.00055907465597 2.5640766460905287 
102.00055907465597 2.3234448486184487 
103.00055907465597 2.412821410199881 
104.00055907465597 2.9199824551734244 
105.00055907465597 2.7147237838036413 
106.00055907465597 2.7262454071134568 
107.00055907465597 2.846373916078774 
108.00055907465597 3.0001925797325057 
109.00055907465597 2.8967281194885373 
110.00055907465597 2.868910245811288 
111.00055907465597 2.855700874485593 
112.00055907465597 2.9419516552763034 
113.00055907465597 3.0849200837742465 
114.00055907465597 2.7195021310993495 
115.00055907465597 2.7432478137860072 
116.00055907465597 3.1104429379776573 
117.00055907465597 2.8258964855232196 
118.00055907465597 2.9727104001322715 
119.00055907465597 2.7213201793062867 
120.00055907465597 2.7006450249853007 
121.00055907465597 2.6223166978982877 
122.00055907465597 2.466258910199882 
123.00055907465597 2.263517508083471 
124.00055907465597 2.6696910824514974 
125.00055907465597 2.158380088918279 
126.00055907465597 1.902434551366837 
127.00055907465597 1.7740814226925294 
128.00055907465597 1.462087053571423 
129.00055907465597 1.4770520098471498 
130.00055907465597 1.5547729736184612 
131.00055907465597 1.347236643885951 
132.00055907465597 1.1437708976337453 
133.00055907465597 1.150687646972366 
134.00055907465597 1.0825557576425644 
135.00055907465597 0.8833071538800723 
136.00055907465597 1.1110458921222786 
137.00055907465597 0.7642756099353373 
138.00055907465597 0.6279997060552629 
139.00055907465597 0.5635206312463261 
140.00055907465597 0.29787643298060046 
141.00055907465597 0.3507929159318045 
142.00055907465597 0.2996475418871268 
143.00055907465597 0.2896784060846573 
144.00055907465597 0.1774065347589656 
145.00055907465597 0.1521428571428576 
146.00055907465597 0.16998144473838916 
147.00055907465597 0.1339811140505589 
148.00055907465597 0.11728964579659013 
149.00055907465597 0.10307576425632037 
150.00055907465597 0.09193654467960063 
151.00055907465597 0.08662937242798333 
152.00055907465597 0.07287863756613713 
153.00055907465597 0.07294532627865916 
154.00055907465597 0.06939722957084078 
155.00055907465597 0.07160475455614376 
156.00055907465597 0.062120260141093155 
157.00055907465597 0.05805279982363342 
158.00055907465597 0.05987195032333942 
159.00055907465597 0.056417364785420206 
160.00055907465597 0.05209564226925322 
161.00055907465597 0.05616879776602032 
162.00055907465597 0.05032480893591984 
163.00055907465597 0.04773883009994121 
164.00055907465597 0.04692221487360394 
165.00055907465597 0.04270153586125817 
166.00055907465597 0.04346028071722514 
167.00055907465597 0.04253233392122277 
168.00055907465597 0.0425485008818343 
169.00055907465597 0.04084692827748385 
170.00055907465597 0.040385435038212854 
171.00055907465597 0.04084527483833042 
172.00055907465597 0.0404247501469724 
173.00055907465597 0.03998383303938863 
174.00055907465597 0.03999191651969433 
175.00055907465597 0.040000000000000036 
176.00055907465597 0.040000000000000036 
177.00055907465597 0.040000000000000036 
178.00055907465597 0.040000000000000036 
179.00055907465597 0.040000000000000036 
180.00055907465597 0.040000000000000036 
181.00055907465597 0.040000000000000036 
182.00055907465597 0.040000000000000036 
183.00055907465597 0.040000000000000036 
184.00055907465597 0.040000000000000036 
185.00055907465597 0.040000000000000036 
186.00055907465597 0.040000000000000036 
187.00055907465597 0.040000000000000036 
188.00055907465597 0.040000000000000036 
189.00055907465597 0.040000000000000036 
190.00055907465597 0.040000000000000036 
191.00055907465597 0.040000000000000036 
192.00055907465597 0.040000000000000036 
193.00055907465597 0.040000000000000036 
194.00055907465597 0.040000000000000036 
195.00055907465597 0.040000000000000036 
196.00055907465597 0.040000000000000036 
197.00055907465597 0.040000000000000036 
198.00055907465597 0.040000000000000036 
199.00055907465597 0.040000000000000036 
200.00055907465597 0.040000000000000036 
201.00055907465597 0.040000000000000036 
202.00055907465597 0.040000000000000036 
203.00055907465597 0.040000000000000036 
204.00055907465597 0.040000000000000036 
205.00055907465597 0.040000000000000036 
206.00055907465597 0.040000000000000036 
207.00055907465597 0.040000000000000036 
208.00055907465597 0.040000000000000036 
209.00055907465597 0.040000000000000036 
210.00055907465597 0.040000000000000036 
211.00055907465597 0.040000000000000036 
212.00055907465597 0.040000000000000036 
213.00055907465597 0.040000000000000036 
214.00055907465597 0.040000000000000036 
215.00055907465597 0.040000000000000036 
216.00055907465597 0.040000000000000036 
217.00055907465597 0.040000000000000036 
218.00055907465597 0.040000000000000036 
219.00055907465597 0.040000000000000036 
220.00055907465597 0.040000000000000036 
221.00055907465597 0.040000000000000036 
222.00055907465597 0.040000000000000036 
223.00055907465597 0.040000000000000036 
224.00055907465597 0.040000000000000036 
225.00055907465597 0.040000000000000036 
226.00055907465597 0.040000000000000036 
227.00055907465597 0.040000000000000036 
228.00055907465597 0.040000000000000036 
229.00055907465597 0.040000000000000036 
230.00055907465597 0.040000000000000036 
231.00055907465597 0.040000000000000036 
232.00055907465597 0.040000000000000036 
233.00055907465597 0.040000000000000036 
234.00055907465597 0.040000000000000036 
235.00055907465597 0.040000000000000036 
236.00055907465597 0.040000000000000036 
237.00055907465597 0.040000000000000036 
238.00055907465597 0.040000000000000036 
239.00055907465597 0.040000000000000036 
240.00055907465597 0.040000000000000036 
241.00055907465597 0.040000000000000036 
242.00055907465597 0.040000000000000036 
243.00055907465597 0.040000000000000036 
244.00055907465597 0.040000000000000036 
245.00055907465597 0.040000000000000036 
246.00055907465597 0.040000000000000036 
247.00055907465597 0.040000000000000036 
248.00055907465597 0.040000000000000036 
249.00055907465597 0.040000000000000036 
250.00055907465597 0.040000000000000036 
251.00055907465597 0.040000000000000036 
252.00055907465597 0.040000000000000036 
253.00055907465597 0.040000000000000036 
254.00055907465597 0.040000000000000036 
255.00055907465597 0.040000000000000036 
#####################################################################
# End of data export. Simulation finished at: 2017-05-23T17:15+0000 #
#####################################################################
