0.000000000000000000e+00 nan
2.220446049250313081e-16 3.758711679315163701e-01
4.440892098500626162e-16 2.131323444055102379e-01
1.332267629550187849e-15 2.196225290504532912e-01
8.881784197001252323e-16 2.099498607596552990e-01
3.552713678800500929e-15 2.490030926943283818e-01
2.664535259100375697e-15 2.309703464835730080e-01
2.664535259100375697e-15 2.822358022607159844e-01
1.776356839400250465e-15 2.719788544547412923e-01
0.000000000000000000e+00 1.972451342824883547e-01
7.105427357601001859e-15 1.586908235422328228e-01
0.000000000000000000e+00 1.011390326072311441e-01
5.329070518200751394e-15 4.522493436054209059e-02
1.776356839400250465e-15 3.532758047177480404e-02
5.329070518200751394e-15 2.705988600244917108e-02
3.552713678800500929e-15 3.017678385428313598e-02
3.552713678800500929e-15 2.663751677881233751e-02
3.552713678800500929e-15 2.030843342995148487e-02
0.000000000000000000e+00 2.046013737082488793e-02
7.105427357601001859e-15 2.045054903754094794e-02
1.421085471520200372e-14 2.045054903754094794e-02
1.065814103640150279e-14 2.045054903754094794e-02
