0.000000000000000000e+00 nan
1.000016304868424522e+00 1.575808415181569888e-01
2.000032609736849043e+00 9.704279496616227130e-01
3.000048914605273342e+00 9.773737719779781452e-01
4.000065219473698086e+00 9.834564448379524704e-01
5.000081524342122385e+00 9.905512327632046699e-01
6.000097829210546685e+00 9.941501025672404568e-01
7.000114134078972761e+00 1.003651896342198757e+00
8.000130438947396172e+00 1.005313801788455530e+00
9.000146743815824024e+00 1.005865185908819903e+00
1.000016304868424477e+01 1.001029892296192436e+00
1.100017935355267440e+01 9.983399086069278949e-01
1.200019565842109337e+01 9.926356624464767187e-01
1.300021196328952477e+01 9.880618310228442835e-01
1.400022826815794552e+01 9.839495174888587270e-01
1.500024457302636804e+01 9.808095205261534444e-01
1.600026087789479234e+01 9.791350858859790840e-01
1.700027718276322375e+01 9.768128379392099214e-01
1.800029348763164805e+01 9.772442682194447672e-01
1.900030979250006169e+01 9.744073151465554306e-01
2.000032609736848954e+01 9.733492010638772340e-01
2.100034240223692095e+01 9.712022851608029805e-01
2.200035870710534880e+01 9.680717526695652442e-01
2.300037501197375889e+01 9.669825540606418190e-01
2.400039131684218674e+01 9.614963079566166693e-01
2.500040762171061814e+01 9.581622492880629283e-01
2.600042392657904955e+01 9.514877732371602725e-01
2.700044023144745253e+01 9.452921619036249723e-01
2.800045653631589104e+01 9.400967653510250432e-01
2.900047284118431534e+01 9.329980958177634953e-01
3.000048914605273609e+01 9.280777731953786525e-01
3.100050545092116394e+01 9.200422601379085741e-01
3.200052175578958469e+01 9.152780930640788126e-01
3.300053806065799478e+01 9.079275975417473443e-01
3.400055436552644750e+01 9.030682018613817030e-01
3.500057067039484338e+01 8.941731638488565892e-01
3.600058697526329610e+01 8.880770099379795557e-01
3.700060328013170619e+01 8.802812502042001164e-01
3.800061958500012338e+01 8.738051111041363894e-01
3.900063588986856189e+01 8.690244888313851668e-01
4.000065219473697908e+01 8.610909479567303570e-01
4.100066849960538207e+01 8.545569075658288050e-01
4.200068480447384189e+01 8.459630164077445169e-01
4.300070110934223777e+01 8.396643133437442508e-01
4.400071741421069760e+01 8.313549855010795575e-01
4.500073371907910058e+01 8.251252649392669669e-01
4.600075002394751778e+01 8.183368549705012374e-01
4.700076632881596339e+01 8.122794057785963640e-01
4.800078263368437348e+01 8.054913838525546987e-01
4.900079893855283331e+01 7.988667847053712023e-01
5.000081524342123629e+01 7.916588353010158841e-01
5.100083154828963217e+01 7.855154005652280613e-01
5.200084785315809910e+01 7.780997362014022700e-01
5.300086415802650919e+01 7.744620394769946570e-01
5.400088046289490507e+01 7.656386678984989924e-01
5.500089676776337200e+01 7.597939388450281051e-01
5.600091307263178209e+01 7.545919071634853426e-01
5.700092937750016375e+01 7.503804286597026696e-01
5.800094568236863068e+01 7.432478235335385763e-01
5.900096198723704788e+01 7.371743230666646385e-01
6.000097829210547218e+01 7.330292127015880510e-01
6.100099459697389648e+01 7.277786996015983556e-01
6.200101090184232788e+01 7.253262034555455484e-01
6.300102720671074508e+01 7.221509108329690063e-01
6.400104351157916938e+01 7.203172269434819919e-01
6.500105981644763631e+01 7.186105479101250193e-01
6.600107612131598955e+01 7.158117540059849571e-01
6.700109242618442806e+01 7.116061509341778946e-01
6.800110873105289500e+01 7.095352421330543002e-01
6.900112503592126245e+01 7.059818541269511361e-01
7.000114134078968675e+01 7.038054106363254014e-01
7.100115764565815368e+01 7.015469943636177819e-01
7.200117395052659219e+01 7.003351394342183234e-01
7.300119025539494544e+01 6.983833371763554787e-01
7.400120656026341237e+01 6.963850837402708605e-01
7.500122286513186509e+01 6.950213119294527120e-01
7.600123917000024676e+01 6.937278233754895496e-01
7.700125547486868527e+01 6.925791410615730337e-01
7.800127177973712378e+01 6.912229747700384674e-01
7.900128808460550545e+01 6.904790222583329085e-01
8.000130438947395817e+01 6.895396821769478324e-01
8.100132069434242510e+01 6.890038793531502170e-01
8.200133699921076413e+01 6.885137131163057145e-01
8.300135330407921685e+01 6.881890848412096640e-01
8.400136960894768379e+01 6.879286522284401295e-01
8.500138591381613651e+01 6.878227112637014251e-01
8.600140221868447554e+01 6.876005452407959462e-01
8.700141852355294247e+01 6.873443093246836000e-01
8.800143482842139520e+01 6.871914186347496400e-01
8.900145113328973423e+01 6.869084984588567089e-01
9.000146743815820116e+01 6.866296313859074907e-01
9.100148374302665388e+01 6.864948810079863906e-01
9.200150004789503555e+01 6.864202927183759018e-01
9.300151635276347406e+01 6.863169389484889971e-01
9.400153265763192678e+01 6.862366547752943857e-01
9.500154896250029424e+01 6.861876771009477460e-01
9.600156526736874696e+01 6.861775897907728128e-01
9.700158157223721389e+01 6.861664758394531161e-01
9.800159787710566661e+01 6.861597606376538261e-01
9.900161418197400565e+01 6.861561676044419800e-01
1.000016304868424726e+02 6.861541867978133702e-01
1.010016467917109253e+02 6.861530863496864141e-01
1.020016630965792643e+02 6.861530863496864141e-01
1.030016794014477313e+02 6.861530863496864141e-01
1.040016957063161982e+02 6.861530863496864141e-01
1.050017120111845657e+02 6.861530863496864141e-01
1.060017283160530184e+02 6.861530863496864141e-01
1.070017446209214427e+02 6.861530863496864141e-01
1.080017609257898101e+02 6.861530863496864141e-01
1.090017772306582771e+02 6.861530863496864141e-01
1.100017935355267440e+02 6.861530863496864141e-01
1.110018098403951115e+02 6.861530863496864141e-01
1.120018261452635642e+02 6.861530863496864141e-01
1.130018424501319743e+02 6.861530863496864141e-01
1.140018587550003275e+02 6.861530863496864141e-01
1.150018750598687944e+02 6.861530863496864141e-01
1.160018913647372614e+02 6.861530863496864141e-01
1.170019076696057283e+02 6.861530863496864141e-01
1.180019239744740958e+02 6.861530863496864141e-01
1.190019402793424774e+02 6.861530863496864141e-01
1.200019565842109444e+02 6.861530863496864141e-01
1.210019728890793402e+02 6.861530863496864141e-01
1.220019891939477930e+02 6.861530863496864141e-01
1.230020054988162457e+02 6.861530863496864141e-01
1.240020218036846558e+02 6.861530863496864141e-01
1.250020381085531085e+02 6.861530863496864141e-01
1.260020544134214902e+02 6.861530863496864141e-01
1.270020707182898576e+02 6.861530863496864141e-01
1.280020870231583388e+02 6.861530863496864141e-01
1.290021033280267773e+02 6.861530863496864141e-01
1.300021196328952726e+02 6.861530863496864141e-01
1.310021359377636543e+02 6.861530863496864141e-01
1.320021522426319791e+02 6.861530863496864141e-01
1.330021685475004460e+02 6.861530863496864141e-01
1.340021848523688561e+02 6.861530863496864141e-01
1.350022011572373231e+02 6.861530863496864141e-01
1.360022174621057900e+02 6.861530863496864141e-01
1.370022337669742001e+02 6.861530863496864141e-01
