#####################################################################
# Alchemist log file - simulation started at: 2017-05-25T02:53+0000 #
#####################################################################
# random = 7.0, targets = 100.0, density = 0.6332893950589894, gridShift = 1.0, perturbation = 0.0, connfactor = 0.5
#
# The columns have the following meaning: 
# time se[Mean] 
0.0 NaN 
1.001616958347866 NaN 
2.0016169583478662 1.0088647222222222 
3.0016169583478662 1.0128567901234569 
4.001616958347866 1.0200791666666666 
5.001616958347866 1.0155324382716049 
6.001616958347866 1.0155562654320986 
7.001616958347866 1.0071287962962963 
8.001616958347867 1.0094735185185186 
9.001616958347867 1.0105277469135803 
10.001616958347867 0.9945049382716049 
11.001616958347867 0.9863145370370371 
12.001616958347867 0.9631696604938271 
13.001616958347867 0.9458125925925925 
14.001616958347867 0.9285616049382716 
15.001616958347867 0.9143017283950617 
16.001616958347867 0.9025199074074074 
17.001616958347867 0.8915795370370371 
18.001616958347867 0.8728958333333333 
19.001616958347867 0.861756388888889 
20.001616958347867 0.8469128395061729 
21.001616958347867 0.8207506481481482 
22.001616958347867 0.8066226851851853 
23.001616958347867 0.8009614197530865 
24.001616958347867 0.7873524691358026 
25.001616958347867 0.786276450617284 
26.001616958347867 0.785729938271605 
27.001616958347867 0.7789896913580248 
28.001616958347867 0.7763694444444444 
29.001616958347867 0.7676547530864198 
30.001616958347867 0.7612224691358025 
31.001616958347867 0.7652971296296297 
32.00161695834787 0.7666648765432099 
33.00161695834787 0.7700888271604938 
34.00161695834787 0.7730062345679012 
35.00161695834787 0.7732970679012345 
36.00161695834787 0.7744 
37.00161695834787 0.7744 
38.00161695834787 0.7744 
39.00161695834787 0.7744 
40.00161695834787 0.7744 
41.00161695834787 0.7744 
42.00161695834787 0.7744 
43.00161695834787 0.7744 
44.00161695834787 0.7744 
45.00161695834787 0.7744 
46.00161695834787 0.7744 
47.00161695834787 0.7744 
48.00161695834787 0.7744 
49.00161695834787 0.7744 
50.00161695834787 0.7744 
51.00161695834787 0.7744 
52.00161695834787 0.7744 
53.00161695834787 0.7744 
#####################################################################
# End of data export. Simulation finished at: 2017-05-25T02:53+0000 #
#####################################################################
