#####################################################################
# Alchemist log file - simulation started at: 2017-05-20T12:58+0000 #
#####################################################################
# random = 1.0, targets = 3.1622776601683795, density = 0.6332893950589894, gridShift = 1.0, perturbation = 0.0, connfactor = 0.25
#
# The columns have the following meaning: 
# time se[Mean] 
0.0 NaN 
1.0048855897957667 NaN 
2.0048855897957667 1.0 
3.0048855897957667 1.0 
4.004885589795767 1.0 
5.004885589795767 1.0 
6.004885589795767 1.0 
7.004885589795767 1.0 
8.004885589795766 1.0 
9.004885589795766 0.9940838274218481 
10.004885589795766 1.0 
11.004885589795766 0.9822514822655442 
12.004885589795766 0.9822514822655442 
13.004885589795766 0.9704191371092402 
14.004885589795766 0.9763353096873921 
15.004885589795766 0.9881676548436961 
16.004885589795766 0.9704191371092402 
17.004885589795766 0.9763353096873921 
18.004885589795766 0.9940838274218481 
19.004885589795766 0.9881676548436961 
20.004885589795766 1.0 
21.004885589795766 1.0 
22.004885589795766 1.0 
23.004885589795766 1.0 
24.004885589795766 1.0 
25.004885589795766 1.0 
26.004885589795766 1.0 
27.004885589795766 1.0 
28.004885589795766 1.0 
29.004885589795766 1.0 
30.004885589795766 1.0 
31.004885589795766 1.0 
32.00488558979576 1.0 
33.00488558979576 1.0 
34.00488558979576 0.9940838274218481 
35.00488558979576 0.9881676548436961 
36.00488558979576 0.9726413593314625 
37.00488558979576 0.9571150638192288 
38.00488558979576 0.953421113463299 
39.00488558979576 0.898703832126224 
40.00488558979576 0.9009260543484462 
41.00488558979576 0.8299612434539446 
42.00488558979576 0.7966864302072552 
43.00488558979576 0.8255167990095003 
44.00488558979576 0.7035286571338534 
45.00488558979576 0.6953902623334791 
46.00488558979576 0.6554487824201229 
47.00488558979576 0.6140355743730593 
48.00488558979576 0.6110628580623224 
49.00488558979576 0.5984800188175038 
50.00488558979576 0.5555950826367325 
51.00488558979576 0.5504001441037734 
52.00488558979576 0.528207181924873 
53.00488558979576 0.5119303923241246 
54.00488558979576 0.4897374301452244 
55.00488558979576 0.47198891241076857 
56.00488558979576 0.47346064054447606 
57.00488558979576 0.46385051761039436 
58.00488558979576 0.4675444679663241 
59.00488558979576 0.4675444679663241 
60.00488558979576 0.4675444679663241 
61.00488558979576 0.4675444679663241 
62.00488558979576 0.4675444679663241 
63.00488558979576 0.4675444679663241 
64.00488558979576 0.4675444679663241 
65.00488558979576 0.4675444679663241 
66.00488558979576 0.4675444679663241 
67.00488558979576 0.4675444679663241 
68.00488558979576 0.4675444679663241 
69.00488558979576 0.4675444679663241 
70.00488558979576 0.4675444679663241 
71.00488558979576 0.4675444679663241 
#####################################################################
# End of data export. Simulation finished at: 2017-05-20T13:01+0000 #
#####################################################################
