#####################################################################
# Alchemist log file - simulation started at: 2017-05-24T03:25+0000 #
#####################################################################
# random = 13.0, targets = 31.622776601683793, density = 20.0, gridShift = 1.0, perturbation = 0.5, connfactor = 0.75
#
# The columns have the following meaning: 
# time se[Mean] 
0.0 NaN 
1.0002602723432414 NaN 
2.000260272343241 1.0000907625342241 
3.000260272343241 1.000113832371234 
4.000260272343241 0.999434479622581 
5.000260272343241 0.998352806405436 
6.000260272343241 0.9959782344344792 
7.000260272343241 0.9932498345841904 
8.00026027234324 0.992289511798093 
9.00026027234324 0.9902464160221662 
10.00026027234324 0.9891664288947337 
11.00026027234324 0.9887646607291064 
12.00026027234324 0.9871691549802033 
13.00026027234324 0.9852654538103682 
14.00026027234324 0.9850905468930568 
15.00026027234324 0.9838576166726019 
16.00026027234324 0.9823507453669345 
17.00026027234324 0.9824848727858624 
18.00026027234324 0.980347018539041 
19.00026027234324 0.9801343414029029 
20.00026027234324 0.9785673954832643 
21.00026027234324 0.9769836724181009 
22.00026027234324 0.9751297169798818 
23.00026027234324 0.9717360536684354 
24.00026027234324 0.9697552002395979 
25.00026027234324 0.9674790678604163 
26.00026027234324 0.96566150029402 
27.00026027234324 0.959893400456201 
28.00026027234324 0.9570829746477242 
29.00026027234324 0.9520543027845992 
30.00026027234324 0.947659031380043 
31.00026027234324 0.9451161386478087 
32.00026027234324 0.9409518423768547 
33.00026027234324 0.9378462436986476 
34.00026027234324 0.9322844930671775 
35.00026027234324 0.9274385313866298 
36.00026027234324 0.9256773937122519 
37.00026027234324 0.9211782134628359 
38.00026027234324 0.916734643458793 
39.00026027234324 0.91170057758872 
40.00026027234324 0.9083197288882217 
41.00026027234324 0.9043823171723685 
42.00026027234324 0.9027879617285092 
43.00026027234324 0.9034927471417694 
44.00026027234324 0.8997530706550396 
45.00026027234324 0.89716393877391 
46.00026027234324 0.8950825381551113 
47.00026027234324 0.8921197663973522 
48.00026027234324 0.8907857514295741 
49.00026027234324 0.8914043839072165 
50.00026027234324 0.8918920779823976 
51.00026027234324 0.8869292989356155 
52.00026027234324 0.8871855366630063 
53.00026027234324 0.8867874564703669 
54.00026027234324 0.8866324473210138 
55.00026027234324 0.8860527023943676 
56.00026027234324 0.8858713874680858 
57.00026027234324 0.886407645952509 
58.00026027234324 0.8880996623348009 
59.00026027234324 0.8857360101499042 
60.00026027234324 0.8853894877399385 
61.00026027234324 0.882868588013113 
62.00026027234324 0.883020064149092 
63.00026027234324 0.8842641837648174 
64.00026027234324 0.8797640801093889 
65.00026027234324 0.8799752757335326 
66.00026027234324 0.876079663265386 
67.00026027234324 0.8750106774101856 
68.00026027234324 0.8745194612753783 
69.00026027234324 0.8718414941650525 
70.00026027234324 0.8735637958062639 
71.00026027234324 0.8709937345822725 
72.00026027234324 0.8690686033537555 
73.00026027234324 0.8672574984861455 
74.00026027234324 0.8658816482297372 
75.00026027234324 0.8657741136294016 
76.00026027234324 0.8635662463138817 
77.00026027234324 0.8632800018714635 
78.00026027234324 0.8625234539784776 
79.00026027234324 0.8590504014782602 
80.00026027234324 0.8616611910003886 
81.00026027234324 0.8581921386578171 
82.00026027234324 0.8577787534754431 
83.00026027234324 0.857509069001425 
84.00026027234324 0.8552892209108532 
85.00026027234324 0.8548356113469427 
86.00026027234324 0.8535030742822535 
87.00026027234324 0.852069587914827 
88.00026027234324 0.8505698019045672 
89.00026027234324 0.8494205164986075 
90.00026027234324 0.8468136362282304 
91.00026027234324 0.8467929968814422 
92.00026027234324 0.8433203234335874 
93.00026027234324 0.8420542688725057 
94.00026027234324 0.8392804964992396 
95.00026027234324 0.8385719050450416 
96.00026027234324 0.8383922844675714 
97.00026027234324 0.8392728406177761 
98.00026027234324 0.8330861640145591 
99.00026027234324 0.8350922967459301 
100.00026027234324 0.8305081537467388 
101.00026027234324 0.8286152039455061 
102.00026027234324 0.827655270855632 
103.00026027234324 0.8248441840325444 
104.00026027234324 0.82219650542434 
105.00026027234324 0.8299320821765435 
106.00026027234324 0.8181570314215857 
107.00026027234324 0.8631375325982814 
108.00026027234324 0.8523066635383622 
109.00026027234324 0.878489762679991 
110.00026027234324 0.8284459281045617 
111.00026027234324 0.9472894456388259 
112.00026027234324 0.937054262851942 
113.00026027234324 0.9489888770067845 
114.00026027234324 1.0028586299876303 
115.00026027234324 0.9970674530872982 
116.00026027234324 1.0032512075828461 
117.00026027234324 0.9821749400327742 
118.00026027234324 1.0838246128849571 
119.00026027234324 1.059977409244736 
120.00026027234324 1.0546994597908996 
121.00026027234324 1.0422305087671162 
122.00026027234324 1.0245483929855084 
123.00026027234324 1.0921605045349567 
124.00026027234324 1.1276958137659272 
125.00026027234324 1.0412840615694254 
126.00026027234324 1.090162542351384 
127.00026027234324 1.088841647296313 
128.00026027234324 1.1151367350344066 
129.00026027234324 1.0623627832552816 
130.00026027234324 1.1140185974135817 
131.00026027234324 1.110513778612088 
132.00026027234324 1.1065009679526547 
133.00026027234324 1.1062633715690753 
134.00026027234324 1.0931472169824468 
135.00026027234324 1.1622324751022957 
136.00026027234324 1.1246413453509867 
137.00026027234324 1.1207383736860328 
138.00026027234324 1.0941668599714087 
139.00026027234324 1.1999907481863015 
140.00026027234324 1.1692769752751786 
141.00026027234324 1.160063177906278 
142.00026027234324 1.0675555507093337 
143.00026027234324 1.2398119473748415 
144.00026027234324 1.1040168567553805 
145.00026027234324 1.2270327491920074 
146.00026027234324 1.1402723585608006 
147.00026027234324 1.2538281734089496 
148.00026027234324 1.1269106027213533 
149.00026027234324 1.2789192642687919 
150.00026027234324 1.234008319631526 
151.00026027234324 1.2446125689221401 
152.00026027234324 1.2761522506784633 
153.00026027234324 1.2955525966509438 
154.00026027234324 1.2992289590884478 
155.00026027234324 1.2043128497241646 
156.00026027234324 1.2695934565576545 
157.00026027234324 1.284019499739936 
158.00026027234324 1.314017683240797 
159.00026027234324 1.2295502048616702 
160.00026027234324 1.3066024259783033 
161.00026027234324 1.23640364207087 
162.00026027234324 1.3260570876408109 
163.00026027234324 1.2495093602201874 
164.00026027234324 1.3641577009728671 
165.00026027234324 1.2195489161479622 
166.00026027234324 1.3801210652761549 
167.00026027234324 1.2438104989205574 
168.00026027234324 1.3152194187546598 
169.00026027234324 1.2285322668385177 
170.00026027234324 1.1890828053164826 
171.00026027234324 1.0537774339622643 
172.00026027234324 1.07902572685334 
173.00026027234324 0.9981451056196542 
174.00026027234324 0.9304414227179828 
175.00026027234324 0.8568347921164029 
176.00026027234324 0.858534674539651 
177.00026027234324 0.8124985187078555 
178.00026027234324 0.8027645165369667 
179.00026027234324 0.769528435565976 
180.00026027234324 0.737127431466016 
181.00026027234324 0.7525949548111182 
182.00026027234324 0.6849931877345019 
183.00026027234324 0.6651974586662123 
184.00026027234324 0.6045042603783375 
185.00026027234324 0.6389485363129479 
186.00026027234324 0.5986361490409178 
187.00026027234324 0.6338402188883467 
188.00026027234324 0.5559244640224028 
189.00026027234324 0.5267808884881663 
190.00026027234324 0.5640894003416898 
191.00026027234324 0.5935437539192467 
192.00026027234324 0.5350412616541973 
193.00026027234324 0.49904708748626947 
194.00026027234324 0.5079486795181278 
195.00026027234324 0.5079572633210663 
196.00026027234324 0.4959954856845977 
197.00026027234324 0.5188333155259933 
198.00026027234324 0.6056150034370847 
199.00026027234324 0.6846448231896947 
200.00026027234324 0.6666406353863524 
201.00026027234324 0.674831602457107 
202.00026027234324 0.6267389425804292 
203.00026027234324 0.9587496847949717 
204.00026027234324 0.9446585011025764 
205.00026027234324 1.0459523786028133 
206.00026027234324 1.264923290568564 
207.00026027234324 1.0476217548771753 
208.00026027234324 1.1070013664645442 
209.00026027234324 0.9749364075748715 
210.00026027234324 1.2099653776124497 
211.00026027234324 1.3158571915153996 
212.00026027234324 1.2746447198635393 
213.00026027234324 1.2935944305347051 
214.00026027234324 1.1629784834571821 
215.00026027234324 1.568128392195057 
216.00026027234324 1.4853112531316817 
217.00026027234324 2.1158718965494168 
218.00026027234324 2.244363438397959 
219.00026027234324 2.5227305112005447 
220.00026027234324 1.7585557141074504 
221.00026027234324 3.293050324700718 
222.00026027234324 3.223154106669989 
223.00026027234324 3.400771968006602 
224.00026027234324 5.061968121708111 
225.00026027234324 3.7164147948462642 
226.00026027234324 3.9365563288916805 
227.00026027234324 3.8064524233343127 
228.00026027234324 4.128826154276566 
229.00026027234324 5.0238715302680275 
230.00026027234324 4.77506283332103 
231.00026027234324 5.297593155456278 
232.00026027234324 4.548334776010647 
233.00026027234324 5.154834301806399 
234.00026027234324 5.92567482684495 
235.00026027234324 4.630310576986939 
236.00026027234324 5.937637031465821 
237.00026027234324 5.927202988813234 
238.00026027234324 5.683188731243034 
239.00026027234324 6.225599806274372 
240.00026027234324 5.97949131541836 
241.00026027234324 6.6721316083491 
242.00026027234324 6.7530731526626475 
243.00026027234324 6.560917593298803 
244.00026027234324 6.95662690248808 
245.00026027234324 7.80405683931052 
246.00026027234324 7.247005472216555 
247.00026027234324 7.199540104374704 
248.00026027234324 6.8958669206639716 
249.00026027234324 8.167947732557957 
250.00026027234324 8.530501341050964 
251.00026027234324 8.221817651881409 
252.00026027234324 7.301945241825013 
253.00026027234324 9.18399433597337 
254.00026027234324 6.771035399389419 
255.00026027234324 9.220418356900806 
256.0002602723432 9.029202171930883 
257.0002602723432 9.12324109924334 
258.0002602723432 9.49080844772234 
259.0002602723432 9.73871187392446 
260.0002602723432 9.62019593543441 
261.0002602723432 9.359474633704076 
262.0002602723432 9.608543935876373 
263.0002602723432 9.353424979490399 
264.0002602723432 9.737610515714518 
265.0002602723432 7.940182143245234 
266.0002602723432 8.79342005301268 
267.0002602723432 9.148382016154526 
268.0002602723432 9.425625515410204 
269.0002602723432 9.468291020223342 
270.0002602723432 10.171605825884676 
271.0002602723432 8.759512738211344 
272.0002602723432 10.072566852959543 
273.0002602723432 8.765676769136373 
274.0002602723432 10.098206949230951 
275.0002602723432 8.843092831469413 
276.0002602723432 10.439762851837992 
277.0002602723432 9.407525993097094 
278.0002602723432 9.58925248401026 
279.0002602723432 9.366766654298885 
280.0002602723432 6.969955224691338 
281.0002602723432 5.640877921832238 
282.0002602723432 6.118160196177753 
283.0002602723432 4.914677229692082 
284.0002602723432 5.590577335336582 
285.0002602723432 5.442619908142836 
286.0002602723432 5.222931859424548 
287.0002602723432 5.11907338510109 
288.0002602723432 4.32148452672674 
289.0002602723432 4.012935824376521 
290.0002602723432 3.611534523468682 
291.0002602723432 3.83573912111502 
292.0002602723432 3.3322961737172045 
293.0002602723432 3.2784509704185467 
294.0002602723432 2.601989885139254 
295.0002602723432 3.092062792828323 
296.0002602723432 2.937690600717057 
297.0002602723432 3.623393998888678 
298.0002602723432 2.974592041248088 
299.0002602723432 1.8596772254459453 
300.0002602723432 2.901400693508138 
301.0002602723432 1.9410309973266042 
302.0002602723432 1.6234095524346068 
303.0002602723432 1.4787102000101993 
304.0002602723432 1.4776463242268267 
305.0002602723432 0.8672279754709941 
306.0002602723432 0.6602742689786286 
307.0002602723432 0.7072638802269806 
308.0002602723432 0.48162757776471465 
309.0002602723432 0.47313496831182994 
310.0002602723432 0.4298856302820651 
311.0002602723432 0.38221941237830787 
312.0002602723432 0.33186016764332643 
313.0002602723432 0.31995058934299964 
314.0002602723432 0.2919348842980295 
315.0002602723432 0.2617049091176972 
316.0002602723432 0.22311192597942503 
317.0002602723432 0.23331655949341976 
318.0002602723432 0.24599499264514077 
319.0002602723432 0.2772754420418473 
320.0002602723432 0.24239817384789267 
321.0002602723432 0.16610775114502208 
322.0002602723432 0.19119187161695622 
323.0002602723432 0.1656086535327706 
324.0002602723432 0.12781933161308082 
325.0002602723432 0.1225834868338103 
326.0002602723432 0.11674857412654568 
327.0002602723432 0.0815211153668529 
328.0002602723432 0.05454768389125549 
329.0002602723432 0.04728739812808682 
330.0002602723432 0.03627133242559285 
331.0002602723432 0.03103499933366364 
332.0002602723432 0.031092878257537968 
333.0002602723432 0.03118547003660305 
334.0002602723432 0.0312557636605597 
335.0002602723432 0.03133105315329293 
336.0002602723432 0.031350647973465436 
337.0002602723432 0.03136228273254845 
338.0002602723432 0.03140783933274212 
339.0002602723432 0.03144772840568694 
340.0002602723432 0.03148292694240645 
341.0002602723432 0.03150840022691584 
342.0002602723432 0.03153778692063424 
343.0002602723432 0.031556460298038186 
344.0002602723432 0.03156671289296835 
345.0002602723432 0.03158182811400357 
346.0002602723432 0.03159521699112643 
347.0002602723432 0.03160546958605659 
348.0002602723432 0.031610543149249666 
349.0002602723432 0.03161389036853038 
350.0002602723432 0.03161561671244274 
351.0002602723432 0.03161561671244274 
352.0002602723432 0.03161561671244274 
353.0002602723432 0.03161561671244274 
354.0002602723432 0.03161561671244274 
355.0002602723432 0.03161561671244274 
356.0002602723432 0.03161561671244274 
357.0002602723432 0.03161561671244274 
358.0002602723432 0.03161561671244274 
359.0002602723432 0.03161561671244274 
360.0002602723432 0.03161561671244274 
361.0002602723432 0.03161561671244274 
362.0002602723432 0.03161561671244274 
363.0002602723432 0.03161561671244274 
364.0002602723432 0.03161561671244274 
365.0002602723432 0.03161561671244274 
366.0002602723432 0.03161561671244274 
367.0002602723432 0.03161561671244274 
368.0002602723432 0.03161561671244274 
369.0002602723432 0.03161561671244274 
370.0002602723432 0.03161561671244274 
371.0002602723432 0.03161561671244274 
372.0002602723432 0.03161561671244274 
373.0002602723432 0.03161561671244274 
374.0002602723432 0.03161561671244274 
375.0002602723432 0.03161561671244274 
376.0002602723432 0.03161561671244274 
377.0002602723432 0.03161561671244274 
378.0002602723432 0.03161561671244274 
379.0002602723432 0.03161561671244274 
380.0002602723432 0.03161561671244274 
381.0002602723432 0.03161561671244274 
382.0002602723432 0.03161561671244274 
383.0002602723432 0.03161561671244274 
384.0002602723432 0.03161561671244274 
385.0002602723432 0.03161561671244274 
386.0002602723432 0.03161561671244274 
387.0002602723432 0.03161561671244274 
388.0002602723432 0.03161561671244274 
389.0002602723432 0.03161561671244274 
390.0002602723432 0.03161561671244274 
391.0002602723432 0.03161561671244274 
392.0002602723432 0.03161561671244274 
393.0002602723432 0.03161561671244274 
394.0002602723432 0.03161561671244274 
395.0002602723432 0.03161561671244274 
396.0002602723432 0.03161561671244274 
397.0002602723432 0.03161561671244274 
398.0002602723432 0.03161561671244274 
399.0002602723432 0.03161561671244274 
400.0002602723432 0.03161561671244274 
401.0002602723432 0.03161561671244274 
402.0002602723432 0.03161561671244274 
403.0002602723432 0.03161561671244274 
404.0002602723432 0.03161561671244274 
405.0002602723432 0.03161561671244274 
406.0002602723432 0.03161561671244274 
407.0002602723432 0.03161561671244274 
408.0002602723432 0.03161561671244274 
409.0002602723432 0.03161561671244274 
410.0002602723432 0.03161561671244274 
411.0002602723432 0.03161561671244274 
412.0002602723432 0.03161561671244274 
413.0002602723432 0.03161561671244274 
414.0002602723432 0.03161561671244274 
415.0002602723432 0.03161561671244274 
416.0002602723432 0.03161561671244274 
417.0002602723432 0.03161561671244274 
418.0002602723432 0.03161561671244274 
419.0002602723432 0.03161561671244274 
420.0002602723432 0.03161561671244274 
421.0002602723432 0.03161561671244274 
422.0002602723432 0.03161561671244274 
423.0002602723432 0.03161561671244274 
424.0002602723432 0.03161561671244274 
425.0002602723432 0.03161561671244274 
426.0002602723432 0.03161561671244274 
427.0002602723432 0.03161561671244274 
428.0002602723432 0.03161561671244274 
429.0002602723432 0.03161561671244274 
430.0002602723432 0.03161561671244274 
431.0002602723432 0.03161561671244274 
432.0002602723432 0.03161561671244274 
433.0002602723432 0.03161561671244274 
434.0002602723432 0.03161561671244274 
435.0002602723432 0.03161561671244274 
436.0002602723432 0.03161561671244274 
437.0002602723432 0.03161561671244274 
438.0002602723432 0.03161561671244274 
439.0002602723432 0.03161561671244274 
440.0002602723432 0.03161561671244274 
441.0002602723432 0.03161561671244274 
442.0002602723432 0.03161561671244274 
443.0002602723432 0.03161561671244274 
444.0002602723432 0.03161561671244274 
445.0002602723432 0.03161561671244274 
446.0002602723432 0.03161561671244274 
447.0002602723432 0.03161561671244274 
448.0002602723432 0.03161561671244274 
449.0002602723432 0.03161561671244274 
450.0002602723432 0.03161561671244274 
451.0002602723432 0.03161561671244274 
#####################################################################
# End of data export. Simulation finished at: 2017-05-24T03:33+0000 #
#####################################################################
