#####################################################################
# Alchemist log file - simulation started at: 2017-05-21T22:00+0000 #
#####################################################################
# random = 3.0, targets = 3.1622776601683795, density = 0.05649405772326896, gridShift = 1.0, perturbation = 0.0, connfactor = 0.25
#
# The columns have the following meaning: 
# time se[Mean] 
0.0 NaN 
1.0016359619213666 NaN 
2.001635961921367 1.0 
3.001635961921367 1.0 
4.001635961921367 0.9667215292478952 
5.001635961921367 0.9667215292478952 
6.001635961921367 0.9667215292478952 
7.001635961921367 0.866886116991581 
8.001635961921366 0.9126645877436858 
9.001635961921366 0.8461076462394763 
10.001635961921366 0.746272233983162 
11.001635961921366 0.6381583509747432 
12.001635961921366 0.5258229387184289 
13.001635961921366 0.43848752646211464 
14.001635961921366 0.5008229387184289 
15.001635961921366 0.4675444679663241 
16.001635961921366 0.4675444679663241 
17.001635961921366 0.4675444679663241 
18.001635961921366 0.4675444679663241 
#####################################################################
# End of data export. Simulation finished at: 2017-05-21T22:00+0000 #
#####################################################################
