#####################################################################
# Alchemist log file - simulation started at: 2017-05-24T19:06+0000 #
#####################################################################
# random = 15.0, targets = 100.0, density = 0.05649405772326896, gridShift = 0.0, perturbation = 0.5, connfactor = 2.0
#
# The columns have the following meaning: 
# time se[Mean] 
0.0 NaN 
1.0090872484315245 NaN 
2.0090872484315243 0.9085328125 
3.0090872484315243 0.9882512152777778 
4.009087248431524 1.2114100694444445 
5.009087248431524 1.2718153211805556 
6.009087248431524 1.5602061631944444 
7.009087248431524 2.833574088541666 
8.009087248431523 3.807777864583332 
9.009087248431523 6.562737196180553 
10.009087248431523 10.018202387152773 
11.009087248431523 14.463179513888882 
12.009087248431523 17.217498133680547 
13.009087248431523 14.365367751736105 
14.009087248431523 15.496253819444437 
15.009087248431523 13.658098611111104 
16.009087248431523 13.03441840277777 
17.009087248431523 12.241761284722214 
18.009087248431523 11.867710416666661 
19.009087248431523 11.960038194444436 
20.009087248431523 12.06027777777777 
21.009087248431523 12.163394444444437 
22.009087248431523 12.385694444444436 
23.009087248431523 12.491349999999992 
24.009087248431523 12.602499999999992 
25.009087248431523 12.602499999999992 
26.009087248431523 12.602499999999992 
27.009087248431523 12.602499999999992 
28.009087248431523 12.602499999999992 
29.009087248431523 12.602499999999992 
30.009087248431523 12.602499999999992 
31.009087248431523 12.602499999999992 
#####################################################################
# End of data export. Simulation finished at: 2017-05-24T19:06+0000 #
#####################################################################
