#####################################################################
# Alchemist log file - simulation started at: 2017-05-24T14:42+0000 #
#####################################################################
# random = 15.0, targets = 3.1622776601683795, density = 1.7841466528270753, gridShift = 1.0, perturbation = 0.5, connfactor = 0.5
#
# The columns have the following meaning: 
# time se[Mean] 
0.0 NaN 
1.0063964355134196 NaN 
2.0063964355134196 1.0 
3.0063964355134196 0.9954691470354136 
4.00639643551342 0.9743382204536283 
5.00639643551342 0.9697682057301884 
6.00639643551342 0.9649749767210344 
7.00639643551342 0.9537215959455061 
8.00639643551342 0.9443609647167803 
9.00639643551342 0.9299865026970542 
10.00639643551342 0.9042829488879609 
11.00639643551342 0.8683650684661381 
12.00639643551342 0.8506841664234192 
13.00639643551342 0.8283614573992235 
14.00639643551342 0.8194472547419263 
15.00639643551342 0.814731042998545 
16.00639643551342 0.7988345489896063 
17.00639643551342 0.7877299777378874 
18.00639643551342 0.7713139566475494 
19.00639643551342 0.7569042516247717 
20.00639643551342 0.7377770286066788 
21.00639643551342 0.7211756487375458 
22.00639643551342 0.7011568748285301 
23.00639643551342 0.6834407297827596 
24.00639643551342 0.6702932932084951 
25.00639643551342 0.6520576210813254 
26.00639643551342 0.6239417906440304 
27.00639643551342 0.6032546801298059 
28.00639643551342 0.592261062894977 
29.00639643551342 0.5778135023652798 
30.00639643551342 0.5544517391782862 
31.00639643551342 0.5370332131801347 
32.00639643551342 0.5221770795859284 
33.00639643551342 0.4962529239949891 
34.00639643551342 0.4938758903698387 
35.00639643551342 0.47898320752064716 
36.00639643551342 0.4718521066451962 
37.00639643551342 0.4686213776360421 
38.00639643551342 0.4686213776360421 
39.00639643551342 0.4675444679663241 
40.00639643551342 0.46756144924146625 
41.00639643551342 0.46764635561717716 
42.00639643551342 0.46757843051660847 
43.00639643551342 0.4687781278681238 
44.00639643551342 0.47250366836859903 
45.00639643551342 0.45743602515775067 
46.00639643551342 0.6243313375112034 
47.00639643551342 1.4299603355656227 
48.00639643551342 0.7581490839187205 
49.00639643551342 1.729177341180782 
50.00639643551342 1.8745879304719444 
51.00639643551342 1.8368203208199183 
52.00639643551342 2.4721524422992096 
53.00639643551342 3.1062144922172754 
54.00639643551342 2.2533893883795924 
55.00639643551342 2.438401598531166 
56.00639643551342 3.1316298201342376 
57.00639643551342 2.416559332227018 
58.00639643551342 2.8319248868760454 
59.00639643551342 3.501934757813747 
60.00639643551342 2.1721659864030034 
61.00639643551342 2.814685291593685 
62.00639643551342 2.480472129237947 
63.00639643551342 2.5617064714141833 
64.00639643551342 2.2581010114946896 
65.00639643551342 2.2173846512568125 
66.00639643551342 1.7529107764945429 
67.00639643551342 0.9747085442357125 
68.00639643551342 0.8229750542281927 
69.00639643551342 0.46291585340588426 
70.00639643551342 0.5946097812698349 
71.00639643551342 0.45638262032898436 
72.00639643551342 0.5444505217305524 
73.00639643551342 0.45288562231862756 
74.00639643551342 0.407305512666602 
75.00639643551342 0.31721825847729734 
76.00639643551342 0.0936774957767323 
77.00639643551342 0.003958346641150982 
78.00639643551342 0.003011958968166286 
79.00639643551342 0.002633403898972407 
80.00639643551342 0.002633403898972407 
81.00639643551342 0.002633403898972407 
82.00639643551342 0.002633403898972407 
83.00639643551342 0.002633403898972407 
84.00639643551342 0.002633403898972407 
85.00639643551342 0.002633403898972407 
86.00639643551342 0.002633403898972407 
87.00639643551342 0.002633403898972407 
88.00639643551342 0.002633403898972407 
89.00639643551342 0.002633403898972407 
90.00639643551342 0.002633403898972407 
91.00639643551342 0.002633403898972407 
92.00639643551342 0.002633403898972407 
93.00639643551342 0.002633403898972407 
94.00639643551342 0.002633403898972407 
95.00639643551342 0.002633403898972407 
96.00639643551342 0.002633403898972407 
97.00639643551342 0.002633403898972407 
98.00639643551342 0.002633403898972407 
99.00639643551342 0.002633403898972407 
100.00639643551342 0.002633403898972407 
101.00639643551342 0.002633403898972407 
102.00639643551342 0.002633403898972407 
103.00639643551342 0.002633403898972407 
104.00639643551342 0.002633403898972407 
105.00639643551342 0.002633403898972407 
#####################################################################
# End of data export. Simulation finished at: 2017-05-24T14:42+0000 #
#####################################################################
