#####################################################################
# Alchemist log file - simulation started at: 2017-05-24T05:35+0000 #
#####################################################################
# random = 14.0, targets = 1.0, density = 0.04, gridShift = 1.0, perturbation = 0.5, connfactor = 0.1
#
# The columns have the following meaning: 
# time se[Mean] 
0.0 NaN 
1.2024264217210618 NaN 
2.2024264217210616 1.0 
3.2024264217210616 1.0 
#####################################################################
# End of data export. Simulation finished at: 2017-05-24T05:35+0000 #
#####################################################################
