0.000000000000000000e+00 nan
0.000000000000000000e+00 6.001049940959360396e-03
0.000000000000000000e+00 1.959616577188875719e-01
4.440892098500626162e-16 1.873998736358633843e-01
0.000000000000000000e+00 1.870128866227387110e-01
0.000000000000000000e+00 1.865239016944517936e-01
8.881784197001252323e-16 1.851383146331184171e-01
8.881784197001252323e-16 1.840403672667042523e-01
0.000000000000000000e+00 1.831279347464223606e-01
3.552713678800500929e-15 1.822293197954706623e-01
0.000000000000000000e+00 1.816373497435984641e-01
5.329070518200751394e-15 1.802554194763576201e-01
1.776356839400250465e-15 1.794421932832372668e-01
3.552713678800500929e-15 1.783017301097182539e-01
1.776356839400250465e-15 1.771856644770597178e-01
5.329070518200751394e-15 1.763739760526510103e-01
0.000000000000000000e+00 1.750112067627189461e-01
3.552713678800500929e-15 1.740216934618438183e-01
7.105427357601001859e-15 1.728714805216627348e-01
7.105427357601001859e-15 1.713024678667792733e-01
0.000000000000000000e+00 1.705130831822273818e-01
3.552713678800500929e-15 1.699469856547316249e-01
1.065814103640150279e-14 1.690301021589510344e-01
7.105427357601001859e-15 1.693179840100114408e-01
3.552713678800500929e-15 1.688987492732490492e-01
7.105427357601001859e-15 1.714585444775828249e-01
7.105427357601001859e-15 1.715833660163688656e-01
3.552713678800500929e-15 1.785365378975332651e-01
3.552713678800500929e-15 1.797517426493156212e-01
0.000000000000000000e+00 1.927330340899414685e-01
1.065814103640150279e-14 1.971743635322370236e-01
3.552713678800500929e-15 1.953302587857477512e-01
0.000000000000000000e+00 2.153552145776285176e-01
1.421085471520200372e-14 2.102113288949723491e-01
7.105427357601001859e-15 2.157564413277647530e-01
1.421085471520200372e-14 2.401190200293309707e-01
1.421085471520200372e-14 2.432535159811624048e-01
7.105427357601001859e-15 2.429818368243374938e-01
1.421085471520200372e-14 2.608967955114364634e-01
0.000000000000000000e+00 2.534047211041953185e-01
0.000000000000000000e+00 2.612208141845064335e-01
1.421085471520200372e-14 2.791325447536881499e-01
7.105427357601001859e-15 2.859517603612060088e-01
2.131628207280300558e-14 3.155105540708575962e-01
2.131628207280300558e-14 3.228251403637556471e-01
7.105427357601001859e-15 3.436013594042976460e-01
1.421085471520200372e-14 3.784966703936648025e-01
0.000000000000000000e+00 3.808919721242691181e-01
7.105427357601001859e-15 3.952577492547483251e-01
7.105427357601001859e-15 4.267312612425668839e-01
1.421085471520200372e-14 4.361996857057561794e-01
2.842170943040400743e-14 4.750094374424832511e-01
1.421085471520200372e-14 4.677685359483069738e-01
2.131628207280300558e-14 4.945050293448146617e-01
7.105427357601001859e-15 5.068809891035200854e-01
0.000000000000000000e+00 5.055013957300700245e-01
7.105427357601001859e-15 5.049521906776860414e-01
2.131628207280300558e-14 5.057426063233777525e-01
0.000000000000000000e+00 5.179987617397243671e-01
3.552713678800500929e-14 5.203655144669687704e-01
2.131628207280300558e-14 5.187449461618318658e-01
0.000000000000000000e+00 5.781560063606799860e-01
7.105427357601001859e-15 5.522032539292117681e-01
2.842170943040400743e-14 5.455230121472930405e-01
0.000000000000000000e+00 6.432034346120679702e-01
1.421085471520200372e-14 6.908671083742282670e-01
2.842170943040400743e-14 6.324567683784526606e-01
4.263256414560601115e-14 6.922631841221090765e-01
1.421085471520200372e-14 6.499950314428816212e-01
1.421085471520200372e-14 5.856127094386893717e-01
2.842170943040400743e-14 6.605898111773201853e-01
0.000000000000000000e+00 6.313757764979032183e-01
2.842170943040400743e-14 7.098110765947827083e-01
1.421085471520200372e-14 6.053645725742803352e-01
1.421085471520200372e-14 5.927101628615939477e-01
4.263256414560601115e-14 5.778912317737450177e-01
2.842170943040400743e-14 5.507514767728223237e-01
2.842170943040400743e-14 5.988335574247322102e-01
0.000000000000000000e+00 5.904410426185713323e-01
5.684341886080801487e-14 7.066946682681294334e-01
0.000000000000000000e+00 6.689135522622179364e-01
2.842170943040400743e-14 8.467265746834087281e-01
2.842170943040400743e-14 8.226754698671703281e-01
4.263256414560601115e-14 1.033271680036521589e+00
1.421085471520200372e-14 1.080484200634224790e+00
1.421085471520200372e-14 1.286739712634921595e+00
4.263256414560601115e-14 1.207240228410658034e+00
0.000000000000000000e+00 1.402006890957091301e+00
4.263256414560601115e-14 1.410322437007836216e+00
1.421085471520200372e-14 1.447313154015236858e+00
1.421085471520200372e-14 1.619634566380465435e+00
4.263256414560601115e-14 1.501359771589477532e+00
2.842170943040400743e-14 1.796480679924622237e+00
2.842170943040400743e-14 1.639502160899896532e+00
0.000000000000000000e+00 1.943894107016426620e+00
5.684341886080801487e-14 1.645715291250217538e+00
1.421085471520200372e-14 2.102535818622953911e+00
2.842170943040400743e-14 1.843642881448705140e+00
1.421085471520200372e-14 2.319639243971976406e+00
2.842170943040400743e-14 2.645439431223075566e+00
2.842170943040400743e-14 4.363653964020458353e+00
0.000000000000000000e+00 5.770984560227680582e+00
5.684341886080801487e-14 7.047701472151262081e+00
2.842170943040400743e-14 9.925874320603478296e+00
2.842170943040400743e-14 9.893258946275024002e+00
2.842170943040400743e-14 1.244280634781312678e+01
4.263256414560601115e-14 1.568452925213442484e+01
1.421085471520200372e-14 1.129002724383816059e+01
1.421085471520200372e-14 1.635027511145670687e+01
5.684341886080801487e-14 1.561455252039236719e+01
0.000000000000000000e+00 1.964875632991516596e+01
5.684341886080801487e-14 1.866043735071753318e+01
1.421085471520200372e-14 1.837613846648921623e+01
1.421085471520200372e-14 1.877023231615336130e+01
4.263256414560601115e-14 1.488736496729409708e+01
2.842170943040400743e-14 1.579135434182448705e+01
0.000000000000000000e+00 1.926090406892542717e+01
4.263256414560601115e-14 1.688240283621755466e+01
7.105427357601001859e-14 1.936015838872785721e+01
0.000000000000000000e+00 1.783853581487291962e+01
4.263256414560601115e-14 2.044094836868720577e+01
1.421085471520200372e-14 2.010806511060170720e+01
0.000000000000000000e+00 1.711894218965701242e+01
2.842170943040400743e-14 1.726657847696794690e+01
1.421085471520200372e-14 2.108969714984478827e+01
0.000000000000000000e+00 1.930048472749857780e+01
5.684341886080801487e-14 1.917420316094709776e+01
0.000000000000000000e+00 1.952047923345413949e+01
0.000000000000000000e+00 1.452177477412134188e+01
2.842170943040400743e-14 1.782212792342742702e+01
2.842170943040400743e-14 1.316404140458252847e+01
5.684341886080801487e-14 1.244393500359064220e+01
5.684341886080801487e-14 1.273568643303006098e+01
0.000000000000000000e+00 9.046689243391314861e+00
8.526512829121202230e-14 7.520783721350814410e+00
5.684341886080801487e-14 5.592298966226579182e+00
2.842170943040400743e-14 5.340679285454014824e+00
2.842170943040400743e-14 4.626132729251266618e+00
2.842170943040400743e-14 3.966207409867852363e+00
2.842170943040400743e-14 4.118828314546370883e+00
5.684341886080801487e-14 3.390945177054940363e+00
8.526512829121202230e-14 3.079453884643483796e+00
0.000000000000000000e+00 2.916295927595026427e+00
5.684341886080801487e-14 3.024052813515356153e+00
5.684341886080801487e-14 2.838499877324364817e+00
2.842170943040400743e-14 2.692990214891519241e+00
2.842170943040400743e-14 2.569251982693576242e+00
0.000000000000000000e+00 2.766927003297521281e+00
2.842170943040400743e-14 2.510910737788461855e+00
5.684341886080801487e-14 2.752825813145957312e+00
8.526512829121202230e-14 2.739369654282624023e+00
0.000000000000000000e+00 2.526404144522108819e+00
5.684341886080801487e-14 2.267733742945230002e+00
5.684341886080801487e-14 2.020386576817795099e+00
5.684341886080801487e-14 2.229840162865090569e+00
5.684341886080801487e-14 1.897818313755665898e+00
0.000000000000000000e+00 2.121484116872770720e+00
8.526512829121202230e-14 1.602203385561564497e+00
1.136868377216160297e-13 9.100995523737793746e-01
2.842170943040400743e-14 6.883006383571418363e-01
0.000000000000000000e+00 4.967013067853322528e-01
2.842170943040400743e-14 4.799712037742267512e-01
5.684341886080801487e-14 3.418482239583918725e-01
8.526512829121202230e-14 2.682582626002782966e-01
5.684341886080801487e-14 2.105416608725435845e-01
0.000000000000000000e+00 1.420011581169250692e-01
8.526512829121202230e-14 1.140383459660808951e-01
8.526512829121202230e-14 1.018339242292758962e-01
2.842170943040400743e-14 1.018325844264259955e-01
2.842170943040400743e-14 1.018345950613397388e-01
2.842170943040400743e-14 1.018366112799396622e-01
2.842170943040400743e-14 1.018359385866839384e-01
8.526512829121202230e-14 1.018366112799396622e-01
8.526512829121202230e-14 1.018379585275570598e-01
0.000000000000000000e+00 1.018379585275570598e-01
5.684341886080801487e-14 1.018379585275570598e-01
8.526512829121202230e-14 1.018379585275570598e-01
5.684341886080801487e-14 1.018379585275570598e-01
2.842170943040400743e-14 1.018379585275570598e-01
0.000000000000000000e+00 1.018379585275570598e-01
2.842170943040400743e-14 1.018379585275570598e-01
1.136868377216160297e-13 1.018379585275570598e-01
8.526512829121202230e-14 1.018379585275570598e-01
0.000000000000000000e+00 1.018379585275570598e-01
5.684341886080801487e-14 1.018379585275570598e-01
5.684341886080801487e-14 1.018379585275570598e-01
5.684341886080801487e-14 1.018379585275570598e-01
5.684341886080801487e-14 1.018379585275570598e-01
0.000000000000000000e+00 1.018379585275570598e-01
8.526512829121202230e-14 1.018379585275570598e-01
1.136868377216160297e-13 1.018379585275570598e-01
5.684341886080801487e-14 1.018379585275570598e-01
2.842170943040400743e-14 1.018379585275570598e-01
2.842170943040400743e-14 1.018379585275570598e-01
5.684341886080801487e-14 1.018379585275570598e-01
8.526512829121202230e-14 1.018379585275570598e-01
2.842170943040400743e-14 1.018379585275570598e-01
0.000000000000000000e+00 1.018379585275570598e-01
5.684341886080801487e-14 1.018379585275570598e-01
8.526512829121202230e-14 1.018379585275570598e-01
5.684341886080801487e-14 1.018379585275570598e-01
2.842170943040400743e-14 1.018379585275570598e-01
0.000000000000000000e+00 1.018379585275570598e-01
2.842170943040400743e-14 1.018379585275570598e-01
1.136868377216160297e-13 1.018379585275570598e-01
8.526512829121202230e-14 1.018379585275570598e-01
5.684341886080801487e-14 1.018379585275570598e-01
5.684341886080801487e-14 1.018379585275570598e-01
5.684341886080801487e-14 1.018379585275570598e-01
5.684341886080801487e-14 1.018379585275570598e-01
5.684341886080801487e-14 1.018379585275570598e-01
5.684341886080801487e-14 1.018379585275570598e-01
8.526512829121202230e-14 1.018379585275570598e-01
1.136868377216160297e-13 1.018379585275570598e-01
2.842170943040400743e-14 1.018379585275570598e-01
0.000000000000000000e+00 1.018379585275570598e-01
2.842170943040400743e-14 1.018379585275570598e-01
8.526512829121202230e-14 1.018379585275570598e-01
1.136868377216160297e-13 1.018379585275570598e-01
0.000000000000000000e+00 1.018379585275570598e-01
