#####################################################################
# Alchemist log file - simulation started at: 2017-05-24T06:44+0000 #
#####################################################################
# random = 6.0, targets = 31.622776601683793, density = 3.5589026259761294, gridShift = 0.0, perturbation = 0.5, connfactor = 0.5
#
# The columns have the following meaning: 
# time se[Mean] 
0.0 NaN 
1.001281360956031 NaN 
2.001281360956031 NaN 
3.001281360956031 0.9988522708774369 
4.001281360956031 0.9966784316069315 
5.001281360956031 0.9888090351485562 
6.001281360956031 0.982509765017325 
7.001281360956031 0.971517517296491 
8.001281360956032 0.9663342258356408 
9.001281360956032 0.9576958173853122 
10.001281360956032 0.9433156832717186 
11.001281360956032 0.9370634445945266 
12.001281360956032 0.9147876543503196 
13.001281360956032 0.9117812673877684 
14.001281360956032 0.8863975888244641 
15.001281360956032 0.8806720274493459 
16.001281360956032 0.8606971810797919 
17.001281360956032 0.851582241627606 
18.001281360956032 0.84159959528684 
19.001281360956032 0.8213681479893998 
20.001281360956032 0.815369700556095 
21.001281360956032 0.8029796483016791 
22.001281360956032 0.7919353033880252 
23.001281360956032 0.7841552643644993 
24.001281360956032 0.779305437714544 
25.001281360956032 0.774157939306309 
26.001281360956032 0.7698527829992812 
27.001281360956032 0.7624561610946046 
28.001281360956032 0.7594763283310625 
29.001281360956032 0.7548896384266947 
30.001281360956032 0.7484731167625029 
31.001281360956032 0.7317293440317504 
32.00128136095603 0.7312295135696681 
33.00128136095603 0.7215090330601887 
34.00128136095603 0.6937112482867542 
35.00128136095603 0.7957024831498842 
36.00128136095603 0.7367663984600046 
37.00128136095603 0.9017703084373199 
38.00128136095603 0.8048414769127149 
39.00128136095603 0.9156460242945842 
40.00128136095603 0.9574810278735946 
41.00128136095603 1.0533956334105408 
42.00128136095603 1.0232129782897863 
43.00128136095603 1.0054530886283597 
44.00128136095603 1.0926213304506354 
45.00128136095603 0.9214399502200873 
46.00128136095603 1.0198571480894216 
47.00128136095603 0.9289407277708898 
48.00128136095603 0.9316085990469709 
49.00128136095603 0.7088341443016918 
50.00128136095603 0.5329987194227249 
51.00128136095603 0.7013995672239501 
52.00128136095603 0.4953233563183951 
53.00128136095603 0.48317408720106114 
54.00128136095603 0.5856613318398214 
55.00128136095603 0.35081327994420747 
56.00128136095603 0.24236542168609207 
57.00128136095603 0.25965188482008483 
58.00128136095603 0.1879253724022813 
59.00128136095603 0.17350244082168173 
60.00128136095603 0.16501186634749987 
61.00128136095603 0.16396239165951854 
62.00128136095603 0.14414002618878322 
63.00128136095603 0.1534048219464147 
64.00128136095603 0.14628170429182905 
65.00128136095603 0.1420588477876756 
66.00128136095603 0.14745764036985332 
67.00128136095603 0.13625731364283744 
68.00128136095603 0.12546150868744352 
69.00128136095603 0.12893617405233035 
70.00128136095603 0.12005918166236591 
71.00128136095603 0.12271139751752773 
72.00128136095603 0.11901130970696079 
73.00128136095603 0.11631768933928258 
74.00128136095603 0.11990590271253238 
75.00128136095603 0.11596434444792242 
76.00128136095603 0.11638518745349398 
77.00128136095603 0.11760958412479428 
78.00128136095603 0.11423192282954635 
79.00128136095603 0.11275070674320396 
80.00128136095603 0.1133235112362367 
81.00128136095603 0.11238535778220489 
82.00128136095603 0.11274215496326381 
83.00128136095603 0.11264092719724698 
84.00128136095603 0.11284338272928066 
85.00128136095603 0.11284338272928066 
86.00128136095603 0.11284338272928066 
87.00128136095603 0.11284338272928066 
88.00128136095603 0.11284338272928066 
89.00128136095603 0.11284338272928066 
90.00128136095603 0.11284338272928066 
91.00128136095603 0.11284338272928066 
92.00128136095603 0.11284338272928066 
93.00128136095603 0.11284338272928066 
94.00128136095603 0.11284338272928066 
95.00128136095603 0.11284338272928066 
96.00128136095603 0.11284338272928066 
97.00128136095603 0.11284338272928066 
98.00128136095603 0.11284338272928066 
99.00128136095603 0.11284338272928066 
100.00128136095603 0.11284338272928066 
101.00128136095603 0.11284338272928066 
102.00128136095603 0.11284338272928066 
103.00128136095603 0.11284338272928066 
104.00128136095603 0.11284338272928066 
105.00128136095603 0.11284338272928066 
106.00128136095603 0.11284338272928066 
107.00128136095603 0.11284338272928066 
108.00128136095603 0.11284338272928066 
109.00128136095603 0.11284338272928066 
110.00128136095603 0.11284338272928066 
111.00128136095603 0.11284338272928066 
112.00128136095603 0.11284338272928066 
113.00128136095603 0.11284338272928066 
114.00128136095603 0.11284338272928066 
115.00128136095603 0.11284338272928066 
116.00128136095603 0.11284338272928066 
117.00128136095603 0.11284338272928066 
118.00128136095603 0.11284338272928066 
119.00128136095603 0.11284338272928066 
120.00128136095603 0.11284338272928066 
121.00128136095603 0.11284338272928066 
122.00128136095603 0.11284338272928066 
123.00128136095603 0.11284338272928066 
124.00128136095603 0.11284338272928066 
125.00128136095603 0.11284338272928066 
126.00128136095603 0.11284338272928066 
127.00128136095603 0.11284338272928066 
128.00128136095603 0.11284338272928066 
#####################################################################
# End of data export. Simulation finished at: 2017-05-24T06:45+0000 #
#####################################################################
