#####################################################################
# Alchemist log file - simulation started at: 2017-05-24T08:09+0000 #
#####################################################################
# random = 14.0, targets = 10.0, density = 0.04, gridShift = 1.0, perturbation = 0.5, connfactor = 0.5
#
# The columns have the following meaning: 
# time se[Mean] 
0.0 NaN 
1.1155531677852877 NaN 
2.1155531677852877 1.0 
3.1155531677852877 1.0 
4.115553167785288 0.994537037037037 
5.115553167785288 0.9683333333333333 
6.115553167785288 0.9323148148148148 
7.115553167785288 0.8714814814814814 
8.115553167785288 0.7124074074074073 
9.115553167785288 0.5836111111111111 
10.115553167785288 0.5104629629629629 
11.115553167785288 0.32083333333333336 
12.115553167785288 0.2551851851851852 
13.115553167785288 0.3440740740740741 
14.115553167785288 0.36342592592592593 
15.115553167785288 0.36 
16.115553167785286 0.36 
17.115553167785286 0.36 
#####################################################################
# End of data export. Simulation finished at: 2017-05-24T08:09+0000 #
#####################################################################
