#####################################################################
# Alchemist log file - simulation started at: 2017-05-20T07:36+0000 #
#####################################################################
# random = 0.0, targets = 100.0, density = 10.026386447354522, gridShift = 0.0, perturbation = 0.5, connfactor = 0.75
#
# The columns have the following meaning: 
# time se[Mean] 
0.0 NaN 
1.0011337332612453 NaN 
2.0011337332612453 1.0005350321395776 
3.0011337332612453 1.0005781157534945 
4.001133733261245 1.0002930466278952 
5.001133733261245 0.9991574641618203 
6.001133733261245 0.996820544459749 
7.001133733261245 0.9947047680083665 
8.001133733261245 0.9929201095551474 
9.001133733261245 0.9901410104836241 
10.001133733261245 0.9867965577492093 
11.001133733261245 0.9830507078359352 
12.001133733261245 0.9783650156871748 
13.001133733261245 0.9725990032904805 
14.001133733261245 0.9685860556320783 
15.001133733261245 0.9625168490460158 
16.001133733261245 0.9579085826701358 
17.001133733261245 0.9542209379144986 
18.001133733261245 0.9478580412712988 
19.001133733261245 0.9469703352974187 
20.001133733261245 0.9432878685848384 
21.001133733261245 0.939883971661055 
22.001133733261245 0.9398844837261503 
23.001133733261245 0.9372704226609531 
24.001133733261245 0.93538790365779 
25.001133733261245 0.9343213517753292 
26.001133733261245 0.9314397076828896 
27.001133733261245 0.9302104919140903 
28.001133733261245 0.9283283969747984 
29.001133733261245 0.9264361091980409 
30.001133733261245 0.9238541048107335 
31.001133733261245 0.9214177934649525 
32.00113373326124 0.9218317454851547 
33.00113373326124 0.9180556518467502 
34.00113373326124 0.9178758914906644 
35.00113373326124 0.9147714448780736 
36.00113373326124 0.9108481035098459 
37.00113373326124 0.9120341023875115 
38.00113373326124 0.9043091278951128 
39.00113373326124 0.9012373067799204 
40.00113373326124 0.897692822161004 
41.00113373326124 0.89464173617488 
42.00113373326124 0.8927275380063261 
43.00113373326124 0.8869717343893481 
44.00113373326124 0.8861707344913783 
45.00113373326124 0.8815260872615039 
46.00113373326124 0.8870228452453831 
47.00113373326124 0.8803309451841649 
48.00113373326124 0.8779636880165289 
49.00113373326124 0.8754041609274564 
50.00113373326124 0.8764284161054995 
51.00113373326124 0.8694081681716151 
52.00113373326124 0.8695365396388122 
53.00113373326124 0.866006410697888 
54.00113373326124 0.8612091572288544 
55.00113373326124 0.8615613936077953 
56.00113373326124 0.8518492060759109 
57.00113373326124 0.8495612080399961 
58.00113373326124 0.852502604326089 
59.00113373326124 0.8443796800071421 
60.00113373326124 0.8408656081012145 
61.00113373326124 0.8384911348331806 
62.00113373326124 0.8351706120548918 
63.00113373326124 0.8354446172584432 
64.00113373326124 0.8283935446638095 
65.00113373326124 0.8330936364911746 
66.00113373326124 0.8226497002856848 
67.00113373326124 0.8214847611213137 
68.00113373326124 0.8172702498469544 
69.00113373326124 0.8111083314202634 
70.00113373326124 0.8113062576522805 
71.00113373326124 0.803830408886848 
72.00113373326124 0.7941669293949599 
73.00113373326124 0.7908366078716461 
74.00113373326124 0.7780099441383536 
75.00113373326124 0.7715990217834917 
76.00113373326124 0.7582033255535153 
77.00113373326124 0.7538306161361086 
78.00113373326124 0.7438516286603409 
79.00113373326124 0.7324067913988366 
80.00113373326124 0.7276166328690951 
81.00113373326124 0.7127120772115094 
82.00113373326124 0.7046944125599425 
83.00113373326124 0.7028507888225694 
84.00113373326124 0.6880924395469851 
85.00113373326124 0.6858822690286702 
86.00113373326124 0.6747817422967047 
87.00113373326124 0.6634339735741248 
88.00113373326124 0.6579578238189981 
89.00113373326124 0.647192383430262 
90.00113373326124 0.6372041800581575 
91.00113373326124 0.6284893614172024 
92.00113373326124 0.6230561262881341 
93.00113373326124 0.6110807844862766 
94.00113373326124 0.5995258340985614 
95.00113373326124 0.5927838058616469 
96.00113373326124 0.5905219154933172 
97.00113373326124 0.5712383691715132 
98.00113373326124 0.5698821657228855 
99.00113373326124 0.5603804707427815 
100.00113373326124 0.5514427118406287 
101.00113373326124 0.5476722553821041 
102.00113373326124 0.5342486812570146 
103.00113373326124 0.5285016082542598 
104.00113373326124 0.5191723752678298 
105.00113373326124 0.5161909001632486 
106.00113373326124 0.5138520897102338 
107.00113373326124 0.49601792100295894 
108.00113373326124 0.5021804190898889 
109.00113373326124 0.48788212427303335 
110.00113373326124 0.4793343632027345 
111.00113373326124 0.484954980359147 
112.00113373326124 0.4723335565248444 
113.00113373326124 0.47357993572084484 
114.00113373326124 0.46716150392817063 
115.00113373326124 0.46485915595347416 
116.00113373326124 0.4655381453423122 
117.00113373326124 0.4554828639934701 
118.00113373326124 0.45770338996020815 
119.00113373326124 0.45354562735945314 
120.00113373326124 0.4453822199265383 
121.00113373326124 0.44851517064585245 
122.00113373326124 0.437675844939292 
123.00113373326124 0.43194948474645434 
124.00113373326124 0.43129528938373646 
125.00113373326124 0.4149800689980616 
126.00113373326124 0.41793486123864915 
127.00113373326124 0.41158890610651977 
128.00113373326124 0.4004963020355065 
129.00113373326124 0.40317595908580756 
130.00113373326124 0.3909797074278136 
131.00113373326124 0.39327597247729834 
132.00113373326124 0.38170903224160807 
133.00113373326124 0.3792823302469136 
134.00113373326124 0.37600685261708006 
135.00113373326124 0.3683349422252831 
136.00113373326124 0.36586119337312534 
137.00113373326124 0.36227163490970316 
138.00113373326124 0.3544928381032548 
139.00113373326124 0.3584505764717887 
140.00113373326124 0.34699438131313143 
141.00113373326124 0.340534817238037 
142.00113373326124 0.34566585488725643 
143.00113373326124 0.3348552494643404 
144.00113373326124 0.3330638659320478 
145.00113373326124 0.3307662585450465 
146.00113373326124 0.32791421219773503 
147.00113373326124 0.3295700776706459 
148.00113373326124 0.32226125841750847 
149.00113373326124 0.32297223497602295 
150.00113373326124 0.32309404971431493 
151.00113373326124 0.31147448729721466 
152.00113373326124 0.3216244413835323 
153.00113373326124 0.3120395418834814 
154.00113373326124 0.3130156278696052 
155.00113373326124 0.3173295486429956 
156.00113373326124 0.3050122315324968 
157.00113373326124 0.3132498214467912 
158.00113373326124 0.3102673649372514 
159.00113373326124 0.309018285123967 
160.00113373326124 0.30867328461381494 
161.00113373326124 0.2992873214467912 
162.00113373326124 0.3058469901030508 
163.00113373326124 0.3019890291806959 
164.00113373326124 0.3010450700183655 
165.00113373326124 0.3016235773135395 
166.00113373326124 0.3567288580246914 
167.00113373326124 0.6826574928578724 
168.00113373326124 0.7408276987042173 
169.00113373326124 0.7375651553412905 
170.00113373326124 1.1231041698551167 
171.00113373326124 0.9578291398836831 
172.00113373326124 1.3409397389297055 
173.00113373326124 1.3415213358330775 
174.00113373326124 1.0647876166972745 
175.00113373326124 1.5074479683195612 
176.00113373326124 1.2876580763442549 
177.00113373326124 1.6162179056984003 
178.00113373326124 1.1750459187837972 
179.00113373326124 1.3394519239108313 
180.00113373326124 1.3949099307468635 
181.00113373326124 1.2844966342720112 
182.00113373326124 1.615536207402307 
183.00113373326124 1.44941643709826 
184.00113373326124 1.5596084908427736 
185.00113373326124 1.77960341865626 
186.00113373326124 1.338068582287524 
187.00113373326124 1.447895207759415 
188.00113373326124 1.8332814177124792 
189.00113373326124 1.6673853873329252 
190.00113373326124 1.7772208900877478 
191.00113373326124 1.721502794357721 
192.00113373326124 1.8867580125752472 
193.00113373326124 1.7759624802316112 
194.00113373326124 1.9412014450056156 
195.00113373326124 2.0510532624222044 
196.00113373326124 2.160950258902154 
197.00113373326124 1.7192355639730676 
198.00113373326124 2.4360429975257696 
199.00113373326124 1.8287287725742307 
200.00113373326124 2.1595506160085765 
201.00113373326124 2.324572914115909 
202.00113373326124 1.7174434764309758 
203.00113373326124 2.489481996735031 
204.00113373326124 2.2131847815273864 
205.00113373326124 2.0475270380573463 
206.00113373326124 1.8265397816549311 
207.00113373326124 1.219507765151519 
208.00113373326124 1.7158626045811773 
209.00113373326124 1.3846083078257263 
210.00113373326124 1.2742276540659023 
211.00113373326124 1.218848414064901 
212.00113373326124 0.9429471661055092 
213.00113373326124 0.6670672042393558 
214.00113373326124 0.6670276266452351 
215.00113373326124 0.5015071370268347 
216.00113373326124 0.39120117717579644 
217.00113373326124 0.3360272019436798 
218.00113373326124 0.2808758723599634 
219.00113373326124 0.2808903581267219 
220.00113373326124 0.2808935516784003 
221.00113373326124 0.28090000000000015 
222.00113373326124 0.28090000000000015 
223.00113373326124 0.28090000000000015 
224.00113373326124 0.28090000000000015 
225.00113373326124 0.28090000000000015 
226.00113373326124 0.28090000000000015 
227.00113373326124 0.28090000000000015 
228.00113373326124 0.28090000000000015 
229.00113373326124 0.28090000000000015 
230.00113373326124 0.28090000000000015 
231.00113373326124 0.28090000000000015 
232.00113373326124 0.28090000000000015 
233.00113373326124 0.28090000000000015 
234.00113373326124 0.28090000000000015 
235.00113373326124 0.28090000000000015 
236.00113373326124 0.28090000000000015 
237.00113373326124 0.28090000000000015 
238.00113373326124 0.28090000000000015 
239.00113373326124 0.28090000000000015 
240.00113373326124 0.28090000000000015 
241.00113373326124 0.28090000000000015 
242.00113373326124 0.28090000000000015 
243.00113373326124 0.28090000000000015 
244.00113373326124 0.28090000000000015 
245.00113373326124 0.28090000000000015 
246.00113373326124 0.28090000000000015 
247.00113373326124 0.28090000000000015 
248.00113373326124 0.28090000000000015 
249.00113373326124 0.28090000000000015 
250.00113373326124 0.28090000000000015 
251.00113373326124 0.28090000000000015 
252.00113373326124 0.28090000000000015 
253.00113373326124 0.28090000000000015 
254.00113373326124 0.28090000000000015 
255.00113373326124 0.28090000000000015 
256.0011337332612 0.28090000000000015 
257.0011337332612 0.28090000000000015 
258.0011337332612 0.28090000000000015 
259.0011337332612 0.28090000000000015 
260.0011337332612 0.28090000000000015 
261.0011337332612 0.28090000000000015 
262.0011337332612 0.28090000000000015 
263.0011337332612 0.28090000000000015 
264.0011337332612 0.28090000000000015 
265.0011337332612 0.28090000000000015 
266.0011337332612 0.28090000000000015 
267.0011337332612 0.28090000000000015 
268.0011337332612 0.28090000000000015 
269.0011337332612 0.28090000000000015 
270.0011337332612 0.28090000000000015 
271.0011337332612 0.28090000000000015 
272.0011337332612 0.28090000000000015 
273.0011337332612 0.28090000000000015 
274.0011337332612 0.28090000000000015 
275.0011337332612 0.28090000000000015 
276.0011337332612 0.28090000000000015 
277.0011337332612 0.28090000000000015 
278.0011337332612 0.28090000000000015 
279.0011337332612 0.28090000000000015 
280.0011337332612 0.28090000000000015 
281.0011337332612 0.28090000000000015 
282.0011337332612 0.28090000000000015 
283.0011337332612 0.28090000000000015 
284.0011337332612 0.28090000000000015 
285.0011337332612 0.28090000000000015 
286.0011337332612 0.28090000000000015 
287.0011337332612 0.28090000000000015 
288.0011337332612 0.28090000000000015 
289.0011337332612 0.28090000000000015 
290.0011337332612 0.28090000000000015 
291.0011337332612 0.28090000000000015 
292.0011337332612 0.28090000000000015 
293.0011337332612 0.28090000000000015 
294.0011337332612 0.28090000000000015 
295.0011337332612 0.28090000000000015 
296.0011337332612 0.28090000000000015 
#####################################################################
# End of data export. Simulation finished at: 2017-05-20T07:43+0000 #
#####################################################################
