#####################################################################
# Alchemist log file - simulation started at: 2017-05-23T08:38+0000 #
#####################################################################
# random = 11.0, targets = 10.0, density = 10.026386447354522, gridShift = 0.0, perturbation = 0.0, connfactor = 0.5
#
# The columns have the following meaning: 
# time se[Mean] 
0.0 NaN 
1.0000311017741008 NaN 
2.000031101774101 1.0 
3.000031101774101 0.9996464646464647 
4.000031101774101 0.9975803489439853 
5.000031101774101 0.991694214876033 
6.000031101774101 0.9856955922865015 
7.000031101774101 0.9770293847566576 
8.000031101774102 0.9721441689623508 
9.000031101774102 0.9635927456382002 
10.000031101774102 0.9627708907254361 
11.000031101774102 0.9534389348025712 
12.000031101774102 0.9553374655647382 
13.000031101774102 0.9479889807162535 
14.000031101774102 0.9447474747474748 
15.000031101774102 0.9412396694214875 
16.000031101774102 0.9388728191000919 
17.000031101774102 0.9315312213039484 
18.000031101774102 0.9304499540863177 
19.000031101774102 0.9202525252525252 
20.000031101774102 0.9181680440771353 
21.000031101774102 0.9107644628099175 
22.000031101774102 0.89869375573921 
23.000031101774102 0.8925459136822771 
24.000031101774102 0.880785123966942 
25.000031101774102 0.8672635445362715 
26.000031101774102 0.85349173553719 
27.000031101774102 0.8509710743801651 
28.000031101774102 0.8249035812672176 
29.000031101774102 0.8212373737373738 
30.000031101774102 0.8039095500459137 
31.000031101774102 0.7955716253443524 
32.0000311017741 0.7940036730945822 
33.0000311017741 0.76633608815427 
34.0000311017741 0.7733471074380166 
35.0000311017741 0.743526170798898 
36.0000311017741 0.7556611570247933 
37.0000311017741 0.727295684113866 
38.0000311017741 0.729501836547291 
39.0000311017741 0.7122428833792472 
40.0000311017741 0.7083471074380164 
41.0000311017741 0.705257116620753 
42.0000311017741 0.6861685032139577 
43.0000311017741 0.6977685950413224 
44.0000311017741 0.6728328741965104 
45.0000311017741 0.6799954086317724 
46.0000311017741 0.6583999081726354 
47.0000311017741 0.662589531680441 
48.0000311017741 0.6387695133149679 
49.0000311017741 0.6336179981634529 
50.0000311017741 0.625782828282828 
51.0000311017741 0.6111891643709826 
52.0000311017741 0.6101377410468314 
53.0000311017741 0.5871258034894394 
54.0000311017741 0.5871740128558306 
55.0000311017741 0.5716597796143248 
56.0000311017741 0.570955004591368 
57.0000311017741 0.5594352617079889 
58.0000311017741 0.5540151515151515 
59.0000311017741 0.543505509641873 
60.0000311017741 0.5365013774104688 
61.0000311017741 0.5296556473829201 
62.0000311017741 0.5205899908172638 
63.0000311017741 0.5147084481175397 
64.0000311017741 0.5017929292929288 
65.0000311017741 0.4919628099173556 
66.0000311017741 0.480523415977962 
67.0000311017741 0.4672130394857666 
68.0000311017741 0.45739898989899014 
69.0000311017741 0.4415840220385668 
70.0000311017741 0.4521946740128561 
71.0000311017741 0.4381978879706151 
72.0000311017741 0.4319100091827366 
73.0000311017741 0.43774104683195597 
74.0000311017741 0.43245638200183645 
75.0000311017741 0.38261937557392084 
76.0000311017741 0.40483011937557395 
77.0000311017741 0.3675826446280992 
78.0000311017741 0.3625 
79.0000311017741 0.3713429752066116 
80.0000311017741 0.3586799816345271 
81.0000311017741 0.3669559228650138 
82.0000311017741 0.36297520661157023 
83.0000311017741 0.3667424242424243 
84.0000311017741 0.38387970615243333 
85.0000311017741 0.3772382920110193 
86.0000311017741 0.32127640036730937 
87.0000311017741 0.3498806244260789 
88.0000311017741 0.31339990817263547 
89.0000311017741 0.2864485766758494 
90.0000311017741 0.30152203856749316 
91.0000311017741 0.28421028466483006 
92.0000311017741 0.28535123966942144 
93.0000311017741 0.2769765840220385 
94.0000311017741 0.28898760330578516 
95.0000311017741 0.26250459136822774 
96.0000311017741 0.2683011937557392 
97.0000311017741 0.22672865013774102 
98.0000311017741 0.2361248852157943 
99.0000311017741 0.24142561983471073 
100.0000311017741 0.23054866850321395 
101.0000311017741 0.22392561983471057 
102.0000311017741 0.18729797979797982 
103.0000311017741 0.212447199265381 
104.0000311017741 0.18558999081726352 
105.0000311017741 0.17845041322314042 
106.0000311017741 0.15523415977961433 
107.0000311017741 0.16645546372819103 
108.0000311017741 0.15292011019283752 
109.0000311017741 0.1319306703397613 
110.0000311017741 0.15020202020202017 
111.0000311017741 0.1349403122130395 
112.0000311017741 0.11491505968778697 
113.0000311017741 0.10442378328741966 
114.0000311017741 0.09414141414141408 
115.0000311017741 0.09132920110192838 
116.0000311017741 0.07845041322314056 
117.0000311017741 0.06918962350780526 
118.0000311017741 0.04972681359044998 
119.0000311017741 0.050045913682277336 
120.0000311017741 0.05356290174471994 
121.0000311017741 0.0400459136822772 
122.0000311017741 0.04362029384756678 
123.0000311017741 0.03287649219467382 
124.0000311017741 0.03529614325068882 
125.0000311017741 0.024341138659320524 
126.0000311017741 0.01695133149678593 
127.0000311017741 0.020649678604224037 
128.00003110177408 0.010183654729109303 
129.00003110177408 0.014269972451790559 
130.00003110177408 0.010665748393021096 
131.00003110177408 0.011577134986225946 
132.00003110177408 0.009595959595959588 
133.00003110177408 0.005140036730945857 
134.00003110177408 0.004088613406795223 
135.00003110177408 0.0019352617079889487 
136.00003110177408 0.0057966023875114375 
137.00003110177408 0.005796602387511434 
138.00003110177408 0.001930670339761255 
139.00003110177408 0.00386134067952251 
140.00003110177408 0.0038613406795225094 
141.00003110177408 0.0038613406795225094 
142.00003110177408 0.0 
143.00003110177408 0.0 
144.00003110177408 0.0 
145.00003110177408 0.0 
146.00003110177408 0.0 
147.00003110177408 0.0 
148.00003110177408 0.0 
149.00003110177408 0.0 
150.00003110177408 0.0 
151.00003110177408 0.0 
152.00003110177408 0.0 
153.00003110177408 0.0 
154.00003110177408 0.0 
155.00003110177408 0.0 
156.00003110177408 0.0 
157.00003110177408 0.0 
158.00003110177408 0.0 
159.00003110177408 0.0 
160.00003110177408 0.0 
161.00003110177408 0.0 
162.00003110177408 0.0 
163.00003110177408 0.0 
164.00003110177408 0.0 
165.00003110177408 0.0 
166.00003110177408 0.0 
167.00003110177408 0.0 
168.00003110177408 0.0 
169.00003110177408 0.0 
170.00003110177408 0.0 
171.00003110177408 0.0 
172.00003110177408 0.0 
173.00003110177408 0.0 
174.00003110177408 0.0 
175.00003110177408 0.0 
176.00003110177408 0.0 
177.00003110177408 0.0 
178.00003110177408 0.0 
179.00003110177408 0.0 
180.00003110177408 0.0 
181.00003110177408 0.0 
182.00003110177408 0.0 
183.00003110177408 0.0 
184.00003110177408 0.0 
185.00003110177408 0.0 
186.00003110177408 0.0 
187.00003110177408 0.0 
188.00003110177408 0.0 
189.00003110177408 0.0 
190.00003110177408 0.0 
191.00003110177408 0.0 
192.00003110177408 0.0 
193.00003110177408 0.0 
194.00003110177408 0.0 
195.00003110177408 0.0 
196.00003110177408 0.0 
197.00003110177408 0.0 
198.00003110177408 0.0 
199.00003110177408 0.0 
200.00003110177408 0.0 
201.00003110177408 0.0 
202.00003110177408 0.0 
203.00003110177408 0.0 
204.00003110177408 0.0 
205.00003110177408 0.0 
206.00003110177408 0.0 
207.00003110177408 0.0 
208.00003110177408 0.0 
209.00003110177408 0.0 
210.00003110177408 0.0 
211.00003110177408 0.0 
212.00003110177408 0.0 
213.00003110177408 0.0 
214.00003110177408 0.0 
215.00003110177408 0.0 
216.00003110177408 0.0 
#####################################################################
# End of data export. Simulation finished at: 2017-05-23T08:40+0000 #
#####################################################################
