#####################################################################
# Alchemist log file - simulation started at: 2017-05-21T08:15+0000 #
#####################################################################
# random = 2.0, targets = 10.0, density = 0.2247883923996312, gridShift = 1.0, perturbation = 0.0, connfactor = 1.5
#
# The columns have the following meaning: 
# time se[Mean] 
0.0 NaN 
1.003288451303821 NaN 
2.003288451303821 1.620595238095238 
3.003288451303821 1.929021164021164 
4.0032884513038205 2.0188888888888887 
5.0032884513038205 2.385244708994709 
6.0032884513038205 1.6716931216931217 
7.0032884513038205 2.1056349206349205 
8.00328845130382 2.083161375661376 
9.00328845130382 2.0269246031746033 
10.00328845130382 3.0175859788359793 
11.00328845130382 2.2075000000000005 
12.00328845130382 2.499636243386244 
13.00328845130382 1.3363227513227518 
14.00328845130382 1.296620370370371 
15.00328845130382 0.8553174603174607 
16.00328845130382 0.4674272486772489 
17.00328845130382 0.0879431216931218 
18.00328845130382 0.05593253968253977 
19.00328845130382 0.04784391534391543 
20.00328845130382 0.0425727513227514 
21.00328845130382 0.0395701058201059 
22.00328845130382 0.035873015873015945 
23.00328845130382 0.037592592592592664 
24.00328845130382 0.03969576719576726 
25.00328845130382 0.03969576719576726 
26.00328845130382 0.03984788359788367 
27.00328845130382 0.04000000000000007 
28.00328845130382 0.04000000000000007 
29.00328845130382 0.04000000000000007 
30.00328845130382 0.04000000000000007 
31.00328845130382 0.04000000000000007 
32.00328845130382 0.04000000000000007 
33.00328845130382 0.04000000000000007 
34.00328845130382 0.04000000000000007 
#####################################################################
# End of data export. Simulation finished at: 2017-05-21T08:15+0000 #
#####################################################################
