#####################################################################
# Alchemist log file - simulation started at: 2017-05-23T06:58+0000 #
#####################################################################
# random = 11.0, targets = 3.1622776601683795, density = 0.6332893950589894, gridShift = 1.0, perturbation = 0.5, connfactor = 0.75
#
# The columns have the following meaning: 
# time se[Mean] 
0.0 NaN 
1.0028758930102715 NaN 
2.0028758930102715 0.9940838274218481 
3.0028758930102715 1.0 
4.0028758930102715 0.9967641359331463 
5.0028758930102715 0.9876120992881405 
6.0028758930102715 0.9510039527081177 
7.0028758930102715 0.9310332127514396 
8.002875893010271 0.9236388098077308 
9.002875893010271 0.9317739534921803 
10.002875893010271 0.9667186845214611 
11.002875893010271 0.9793859885690608 
12.002875893010271 1.0018226132122834 
13.002875893010271 1.017017530341489 
14.002875893010271 1.0309486409298918 
15.002875893010271 1.0451266650985414 
16.00287589301027 1.036991521414092 
17.00287589301027 1.0051591976615413 
18.00287589301027 0.9748116065063969 
19.00287589301027 0.9430767948278327 
20.00287589301027 0.9210627082360487 
21.00287589301027 0.861163492829713 
22.00287589301027 0.8188796278274426 
23.00287589301027 0.8146304001647513 
24.00287589301027 0.8559787571233488 
25.00287589301027 0.8362323227617187 
26.00287589301027 0.8498257881765312 
27.00287589301027 0.943601166256851 
28.00287589301027 0.7007192029432108 
29.00287589301027 0.7639291222939273 
30.00287589301027 0.865160717328031 
31.00287589301027 0.7355893509400048 
32.00287589301027 0.8192282249589956 
33.00287589301027 0.6109887887199169 
34.00287589301027 0.6546503777428736 
35.00287589301027 0.5086332493410302 
36.00287589301027 0.5264144708685131 
37.00287589301027 0.45294467628135765 
38.00287589301027 0.40146978264673905 
39.00287589301027 0.38065445887351157 
40.00287589301027 0.48344211842158347 
41.00287589301027 0.3235427745927277 
42.00287589301027 0.3614830011479714 
43.00287589301027 0.4088971462285152 
44.00287589301027 0.373643730416419 
45.00287589301027 0.4025229087650405 
46.00287589301027 0.3121459505478074 
47.00287589301027 0.34069368630214103 
48.00287589301027 0.24957273622824264 
49.00287589301027 0.2622724658200752 
50.00287589301027 0.1765120899612663 
51.00287589301027 0.13882515079559857 
52.00287589301027 0.13508893593264829 
53.00287589301027 0.13508893593264829 
54.00287589301027 0.13508893593264829 
55.00287589301027 0.13508893593264829 
56.00287589301027 0.13508893593264829 
57.00287589301027 0.13508893593264829 
58.00287589301027 0.13508893593264829 
59.00287589301027 0.13508893593264829 
60.00287589301027 0.13508893593264829 
61.00287589301027 0.13508893593264829 
62.00287589301027 0.13508893593264829 
63.00287589301027 0.13508893593264829 
64.00287589301027 0.13508893593264829 
65.00287589301027 0.13508893593264829 
66.00287589301027 0.13508893593264829 
67.00287589301027 0.13508893593264829 
#####################################################################
# End of data export. Simulation finished at: 2017-05-23T06:58+0000 #
#####################################################################
