#####################################################################
# Alchemist log file - simulation started at: 2017-05-22T18:21+0000 #
#####################################################################
# random = 4.0, targets = 10.0, density = 10.026386447354522, gridShift = 0.0, perturbation = 0.5, connfactor = 0.1
#
# The columns have the following meaning: 
# time se[Mean] 
0.0 NaN 
1.0004793365590676 NaN 
2.0004793365590676 1.0 
3.0004793365590676 1.0 
4.000479336559067 1.0 
5.000479336559067 1.0 
6.000479336559067 1.0 
7.000479336559067 1.0 
8.000479336559067 1.0 
9.000479336559067 0.9998255280073461 
10.000479336559067 0.9994949494949495 
11.000479336559067 0.9986225895316805 
12.000479336559067 0.9964462809917355 
13.000479336559067 0.9938842975206612 
14.000479336559067 0.990018365472911 
15.000479336559067 0.985959595959596 
16.000479336559067 0.982910927456382 
17.000479336559067 0.9791643709825529 
18.000479336559067 0.9777685950413223 
19.000479336559067 0.975270890725436 
20.000479336559067 0.974398530762167 
21.000479336559067 0.9733425160697889 
22.000479336559067 0.9726262626262628 
23.000479336559067 0.9720293847566572 
24.000479336559067 0.9710468319559231 
25.000479336559067 0.9704315886134068 
26.000479336559067 0.9698530762167127 
27.000479336559067 0.9695041322314047 
28.000479336559067 0.9710376492194677 
29.000479336559067 0.9710560146923783 
30.000479336559067 0.9722773186409547 
31.000479336559067 0.9736547291092746 
32.00047933655907 0.9750688705234161 
33.00047933655907 0.9769880624426077 
34.00047933655907 0.9794123048668504 
35.00047933655907 0.9813498622589532 
36.00047933655907 0.9846648301193756 
37.00047933655907 0.9855188246097338 
38.00047933655907 0.9871074380165289 
39.00047933655907 0.9888521579430669 
40.00047933655907 0.9904040404040403 
41.00047933655907 0.9924977043158862 
42.00047933655907 0.9933700642791553 
43.00047933655907 0.9942424242424243 
44.00047933655907 0.9952892561983472 
45.00047933655907 0.9968595041322315 
46.00047933655907 0.9970339761248852 
47.00047933655907 0.9973829201101928 
48.00047933655907 0.9980808080808081 
49.00047933655907 0.9984297520661157 
50.00047933655907 0.9986042240587695 
51.00047933655907 0.9987786960514233 
52.00047933655907 0.9991276400367309 
53.00047933655907 1.0015335169880624 
54.00047933655907 0.9996510560146924 
55.00047933655907 1.0102846648301191 
56.00047933655907 1.014224058769513 
57.00047933655907 1.0080532598714416 
58.00047933655907 1.0195224977043162 
59.00047933655907 1.0203581267217627 
60.00047933655907 1.0196602387511478 
61.00047933655907 1.0179155188246094 
62.00047933655907 1.0262809917355373 
63.00047933655907 1.0264187327823693 
64.00047933655907 1.026556473829201 
65.00047933655907 1.0155371900826444 
66.00047933655907 1.0249127640036733 
67.00047933655907 1.0032598714416896 
68.00047933655907 1.0190358126721761 
69.00047933655907 1.0158402203856751 
70.00047933655907 1.0001101928374656 
71.00047933655907 1.0124885215794304 
72.00047933655907 1.0016528925619834 
73.00047933655907 1.0056749311294766 
74.00047933655907 1.001542699724518 
75.00047933655907 1.0025160697887971 
76.00047933655907 1.004848484848485 
77.00047933655907 0.995426997245179 
78.00047933655907 0.9868319559228651 
79.00047933655907 0.9694857667584941 
80.00047933655907 0.9889256198347113 
81.00047933655907 0.9790358126721759 
82.00047933655907 0.9721946740128558 
83.00047933655907 0.9560881542699723 
84.00047933655907 0.9717722681359044 
85.00047933655907 0.9465472910927455 
86.00047933655907 0.9569880624426076 
87.00047933655907 0.9422956841138658 
88.00047933655907 0.9328191000918272 
89.00047933655907 0.9394031221303948 
90.00047933655907 0.9181726354453633 
91.00047933655907 0.9122314049586778 
92.00047933655907 0.9096418732782373 
93.00047933655907 0.8995224977043164 
94.00047933655907 0.89358126721763 
95.00047933655907 0.8882185491276398 
96.00047933655907 0.8784481175390265 
97.00047933655907 0.8754269972451795 
98.00047933655907 0.8707713498622586 
99.00047933655907 0.8644628099173556 
100.00047933655907 0.8539761248852152 
101.00047933655907 0.8444352617079894 
102.00047933655907 0.8328466483011943 
103.00047933655907 0.8271166207529842 
104.00047933655907 0.8243158861340683 
105.00047933655907 0.8240955004591367 
106.00047933655907 0.8220569329660238 
107.00047933655907 0.8215426997245181 
108.00047933655907 0.8198530762167127 
109.00047933655907 0.8218640955004591 
110.00047933655907 0.8172359963269054 
111.00047933655907 0.8183654729109275 
112.00047933655907 0.8166666666666667 
113.00047933655907 0.8162626262626262 
114.00047933655907 0.8162167125803491 
115.00047933655907 0.8159320477502296 
116.00047933655907 0.8155922865013775 
117.00047933655907 0.8161340679522497 
118.00047933655907 0.8170798898071626 
119.00047933655907 0.8166758494031221 
120.00047933655907 0.8173278236914601 
121.00047933655907 0.8168044077134987 
122.00047933655907 0.8164554637281909 
123.00047933655907 0.8162809917355374 
124.00047933655907 0.8152341597796143 
125.00047933655907 0.8147107438016529 
126.00047933655907 0.8138383838383838 
127.00047933655907 0.8133149678604225 
128.00047933655907 0.8126170798898072 
129.00047933655907 0.8119191919191919 
130.00047933655907 0.8115702479338844 
131.00047933655907 0.8112213039485767 
132.00047933655907 0.8106978879706153 
133.00047933655907 0.8106978879706153 
134.00047933655907 0.8103489439853077 
135.00047933655907 0.8101744719926539 
136.00047933655907 0.81 
137.00047933655907 0.81 
138.00047933655907 0.81 
139.00047933655907 0.81 
140.00047933655907 0.81 
141.00047933655907 0.81 
142.00047933655907 0.81 
143.00047933655907 0.81 
144.00047933655907 0.81 
145.00047933655907 0.81 
146.00047933655907 0.81 
147.00047933655907 0.81 
148.00047933655907 0.81 
149.00047933655907 0.81 
150.00047933655907 0.81 
151.00047933655907 0.81 
152.00047933655907 0.81 
153.00047933655907 0.81 
154.00047933655907 0.81 
155.00047933655907 0.81 
156.00047933655907 0.81 
157.00047933655907 0.81 
158.00047933655907 0.81 
159.00047933655907 0.81 
160.00047933655907 0.81 
161.00047933655907 0.81 
162.00047933655907 0.81 
163.00047933655907 0.81 
164.00047933655907 0.81 
165.00047933655907 0.81 
166.00047933655907 0.81 
167.00047933655907 0.81 
168.00047933655907 0.81 
169.00047933655907 0.81 
170.00047933655907 0.81 
171.00047933655907 0.81 
172.00047933655907 0.81 
173.00047933655907 0.81 
174.00047933655907 0.81 
175.00047933655907 0.81 
176.00047933655907 0.81 
177.00047933655907 0.81 
178.00047933655907 0.81 
179.00047933655907 0.81 
180.00047933655907 0.81 
181.00047933655907 0.81 
182.00047933655907 0.81 
183.00047933655907 0.81 
184.00047933655907 0.81 
185.00047933655907 0.81 
186.00047933655907 0.81 
187.00047933655907 0.81 
188.00047933655907 0.81 
189.00047933655907 0.81 
190.00047933655907 0.81 
191.00047933655907 0.81 
192.00047933655907 0.81 
193.00047933655907 0.81 
194.00047933655907 0.81 
195.00047933655907 0.81 
196.00047933655907 0.81 
197.00047933655907 0.81 
198.00047933655907 0.81 
199.00047933655907 0.81 
200.00047933655907 0.81 
201.00047933655907 0.81 
202.00047933655907 0.81 
203.00047933655907 0.81 
204.00047933655907 0.81 
205.00047933655907 0.81 
206.00047933655907 0.81 
207.00047933655907 0.81 
208.00047933655907 0.81 
209.00047933655907 0.81 
#####################################################################
# End of data export. Simulation finished at: 2017-05-22T18:27+0000 #
#####################################################################
