#####################################################################
# Alchemist log file - simulation started at: 2017-05-24T13:24+0000 #
#####################################################################
# random = 15.0, targets = 1.0, density = 0.04, gridShift = 1.0, perturbation = 0.0, connfactor = 0.25
#
# The columns have the following meaning: 
# time se[Mean] 
0.0 NaN 
1.033500917323147 NaN 
2.0335009173231473 1.0 
3.0335009173231473 0.9166666666666666 
4.033500917323147 0.8333333333333334 
5.033500917323147 0.5 
6.033500917323147 0.41666666666666663 
7.033500917323147 0.08333333333333331 
8.033500917323147 0.0 
9.033500917323147 0.0 
#####################################################################
# End of data export. Simulation finished at: 2017-05-24T13:24+0000 #
#####################################################################
