#####################################################################
# Alchemist log file - simulation started at: 2017-05-23T06:57+0000 #
#####################################################################
# random = 11.0, targets = 3.1622776601683795, density = 0.6332893950589894, gridShift = 0.0, perturbation = 0.0, connfactor = 1.5
#
# The columns have the following meaning: 
# time se[Mean] 
0.0 NaN 
1.0028758930102715 NaN 
2.0028758930102715 1.0 
3.0028758930102715 1.0042126884693436 
4.0028758930102715 1.0765472202620654 
5.0028758930102715 1.2708453644899003 
6.0028758930102715 1.1714979045359568 
7.0028758930102715 1.6698880739443163 
8.002875893010271 1.5811684486094795 
9.002875893010271 1.6709940291315315 
10.002875893010271 1.8972907317233776 
11.002875893010271 2.0799655895398765 
12.002875893010271 2.1885104769691703 
13.002875893010271 2.517953084196313 
14.002875893010271 2.180806625216659 
15.002875893010271 1.9338210119867312 
16.00287589301027 2.1984863836142483 
17.00287589301027 1.7590319602692868 
18.00287589301027 1.6480405499043675 
19.00287589301027 1.464274655685102 
20.00287589301027 1.0932259005619753 
21.00287589301027 0.868913370014821 
22.00287589301027 0.565462109066592 
23.00287589301027 0.39621092540211345 
24.00287589301027 0.264053239595936 
25.00287589301027 0.24680726622833615 
26.00287589301027 0.22881002523345492 
27.00287589301027 0.21484811703697634 
28.00287589301027 0.18775726798586015 
29.00287589301027 0.1631737397658065 
30.00287589301027 0.15615092883307588 
31.00287589301027 0.18349698935780775 
32.00287589301027 0.15382954895213147 
33.00287589301027 0.1428613159621882 
34.00287589301027 0.17870476262667337 
35.00287589301027 0.12598829968856853 
36.00287589301027 0.15318350888498425 
37.00287589301027 0.17521577977156597 
38.00287589301027 0.13370972003392922 
39.00287589301027 0.113430597199923 
40.00287589301027 0.06550854767963753 
41.00287589301027 0.043460912410215304 
42.00287589301027 0.009347739330031789 
43.00287589301027 0.002633403898972392 
44.00287589301027 0.002633403898972392 
45.00287589301027 0.002633403898972392 
46.00287589301027 0.002633403898972392 
47.00287589301027 0.002633403898972392 
48.00287589301027 0.002633403898972392 
49.00287589301027 0.002633403898972392 
50.00287589301027 0.002633403898972392 
51.00287589301027 0.002633403898972392 
52.00287589301027 0.002633403898972392 
53.00287589301027 0.002633403898972392 
54.00287589301027 0.002633403898972392 
55.00287589301027 0.002633403898972392 
56.00287589301027 0.002633403898972392 
57.00287589301027 0.002633403898972392 
58.00287589301027 0.002633403898972392 
59.00287589301027 0.002633403898972392 
#####################################################################
# End of data export. Simulation finished at: 2017-05-23T06:57+0000 #
#####################################################################
