#####################################################################
# Alchemist log file - simulation started at: 2017-05-24T19:06+0000 #
#####################################################################
# random = 15.0, targets = 100.0, density = 0.04, gridShift = 1.0, perturbation = 0.0, connfactor = 0.5
#
# The columns have the following meaning: 
# time se[Mean] 
0.0 NaN 
1.0090872484315245 NaN 
2.0090872484315243 0.9869333333333333 
3.0090872484315243 1.0 
4.009087248431524 1.0088335648148148 
5.009087248431524 0.9978337962962963 
6.009087248431524 1.0229467592592594 
7.009087248431524 0.9391993055555556 
8.009087248431523 0.8893988425925926 
9.009087248431523 0.7031444444444445 
10.009087248431523 0.5931747685185185 
11.009087248431523 0.48073449074074076 
12.009087248431523 0.3583439814814815 
13.009087248431523 0.3888953703703704 
14.009087248431523 0.3622974537037038 
15.009087248431523 0.3721000000000001 
16.009087248431523 0.3721000000000001 
17.009087248431523 0.3721000000000001 
18.009087248431523 0.3721000000000001 
19.009087248431523 0.3721000000000001 
20.009087248431523 0.3721000000000001 
#####################################################################
# End of data export. Simulation finished at: 2017-05-24T19:06+0000 #
#####################################################################
