#####################################################################
# Alchemist log file - simulation started at: 2017-05-25T03:19+0000 #
#####################################################################
# random = 16.0, targets = 100.0, density = 5.0264212595847235, gridShift = 1.0, perturbation = 0.5, connfactor = 0.5
#
# The columns have the following meaning: 
# time se[Mean] 
0.0 NaN 
1.0036381828704857 NaN 
2.0036381828704855 1.0 
3.0036381828704855 0.9997972756410256 
4.0036381828704855 0.9983420551670552 
5.0036381828704855 0.9955237422299922 
6.0036381828704855 0.9914066530691531 
7.0036381828704855 0.9829280691530692 
8.003638182870485 0.9812242764180265 
9.003638182870485 0.9741471348096348 
10.003638182870485 0.9728885246697747 
11.003638182870485 0.9674370337995338 
12.003638182870485 0.9632698086635587 
13.003638182870485 0.9600458673271174 
14.003638182870485 0.956931827894328 
15.003638182870485 0.9538901563714064 
16.003638182870485 0.9514407682595183 
17.003638182870485 0.9504084061771562 
18.003638182870485 0.9479119998057498 
19.003638182870485 0.945984425990676 
20.003638182870485 0.9417170308857808 
21.003638182870485 0.9375301767676768 
22.003638182870485 0.9305855477855478 
23.003638182870485 0.9252530594405595 
24.003638182870485 0.915615913947164 
25.003638182870485 0.9069188374125875 
26.003638182870485 0.9027082604895105 
27.003638182870485 0.8893902680652681 
28.003638182870485 0.8794663364413364 
29.003638182870485 0.8716697455322456 
30.003638182870485 0.8670615918803418 
31.003638182870485 0.8587822358197358 
32.00363818287049 0.8451463335275836 
33.00363818287049 0.8450169337606838 
34.00363818287049 0.8415007430069931 
35.00363818287049 0.8299558323620824 
36.00363818287049 0.8276653894716395 
37.00363818287049 0.8182004322066823 
38.00363818287049 0.8154053855866357 
39.00363818287049 0.8046000874125875 
40.00363818287049 0.7970756604506605 
41.00363818287049 0.7922715034965035 
42.00363818287049 0.7863970036907537 
43.00363818287049 0.7762515491452991 
44.00363818287049 0.7683347659285159 
45.00363818287049 0.7635916132478633 
46.00363818287049 0.7501578185703186 
47.00363818287049 0.7435183177933178 
48.00363818287049 0.7260500582750583 
49.00363818287049 0.7169754613442114 
50.00363818287049 0.7069728583916085 
51.00363818287049 0.6814521513209014 
52.00363818287049 0.6720670405982907 
53.00363818287049 0.6523127282439782 
54.00363818287049 0.6350767968142969 
55.00363818287049 0.6105226884226885 
56.00363818287049 0.5936411907536908 
57.00363818287049 0.5817304875679876 
58.00363818287049 0.5517924582362083 
59.00363818287049 0.5380375825563326 
60.00363818287049 0.5223964597902098 
61.00363818287049 0.5111940850815851 
62.00363818287049 0.4845684003496503 
63.00363818287049 0.47253526126651124 
64.00363818287049 0.45243589257964256 
65.00363818287049 0.43185896464646456 
66.00363818287049 0.413256114024864 
67.00363818287049 0.3911520833333333 
68.00363818287049 0.38532232420357415 
69.00363818287049 0.3618939442501942 
70.00363818287049 0.3516849893162393 
71.00363818287049 0.3372865238927739 
72.00363818287049 0.3335006653069153 
73.00363818287049 0.3176572406759907 
74.00363818287049 0.30675854700854704 
75.00363818287049 0.31134691627816624 
76.00363818287049 0.3641800456487956 
77.00363818287049 0.35007405788655777 
78.00363818287049 0.4141090909090908 
79.00363818287049 0.44819008838383845 
80.00363818287049 0.3991279671717171 
81.00363818287049 0.4889188859751357 
82.00363818287049 0.4856253302253299 
83.00363818287049 0.5352095522533022 
84.00363818287049 0.5105770153457653 
85.00363818287049 0.49977651515151506 
86.00363818287049 0.6232662344599844 
87.00363818287049 0.485145775058275 
88.00363818287049 0.5733471493783993 
89.00363818287049 0.6041214743589742 
90.00363818287049 0.6136165161227659 
91.00363818287049 0.6267782876845374 
92.00363818287049 0.5228971833721832 
93.00363818287049 0.5672848921911423 
94.00363818287049 0.5447881021756021 
95.00363818287049 0.49585400155400144 
96.00363818287049 0.43948977272727263 
97.00363818287049 0.47026210178710165 
98.00363818287049 0.4352884955322455 
99.00363818287049 0.46913576146076147 
100.00363818287049 0.37257160062160044 
101.00363818287049 0.43374415792540794 
102.00363818287049 0.3130219988344987 
103.00363818287049 0.33772827797202787 
104.00363818287049 0.28810789627039624 
105.00363818287049 0.2977705128205127 
106.00363818287049 0.2658810945998445 
107.00363818287049 0.2530880536130536 
108.00363818287049 0.24432923465423467 
109.00363818287049 0.23399132672882675 
110.00363818287049 0.23587348970473968 
111.00363818287049 0.23583223581973584 
112.00363818287049 0.23816641414141415 
113.00363818287049 0.2358952165889666 
114.00363818287049 0.24007546134421134 
115.00363818287049 0.2369869318181818 
116.00363818287049 0.24359446386946387 
117.00363818287049 0.2411088238150738 
118.00363818287049 0.24581524378399378 
119.00363818287049 0.2447456730769231 
120.00363818287049 0.24720841588966588 
121.00363818287049 0.24730912004662003 
122.00363818287049 0.24865456002331002 
123.00363818287049 0.24937763209013208 
124.00363818287049 0.24968881604506604 
125.00363818287049 0.25 
126.00363818287049 0.25 
127.00363818287049 0.25 
128.00363818287047 0.25 
129.00363818287047 0.25 
130.00363818287047 0.25 
131.00363818287047 0.25 
132.00363818287047 0.25 
133.00363818287047 0.25 
134.00363818287047 0.25 
135.00363818287047 0.25 
136.00363818287047 0.25 
137.00363818287047 0.25 
138.00363818287047 0.25 
139.00363818287047 0.25 
140.00363818287047 0.25 
141.00363818287047 0.25 
142.00363818287047 0.25 
143.00363818287047 0.25 
144.00363818287047 0.25 
145.00363818287047 0.25 
146.00363818287047 0.25 
147.00363818287047 0.25 
148.00363818287047 0.25 
149.00363818287047 0.25 
150.00363818287047 0.25 
151.00363818287047 0.25 
152.00363818287047 0.25 
153.00363818287047 0.25 
154.00363818287047 0.25 
155.00363818287047 0.25 
156.00363818287047 0.25 
157.00363818287047 0.25 
158.00363818287047 0.25 
159.00363818287047 0.25 
160.00363818287047 0.25 
161.00363818287047 0.25 
162.00363818287047 0.25 
163.00363818287047 0.25 
164.00363818287047 0.25 
165.00363818287047 0.25 
166.00363818287047 0.25 
167.00363818287047 0.25 
168.00363818287047 0.25 
169.00363818287047 0.25 
170.00363818287047 0.25 
#####################################################################
# End of data export. Simulation finished at: 2017-05-25T03:20+0000 #
#####################################################################
