#####################################################################
# Alchemist log file - simulation started at: 2017-05-25T15:24+0000 #
#####################################################################
# random = 18.0, targets = 10.0, density = 5.0264212595847235, gridShift = 1.0, perturbation = 0.5, connfactor = 0.1
#
# The columns have the following meaning: 
# time se[Mean] 
0.0 NaN 
1.001562157851807 NaN 
2.001562157851807 1.0 
3.001562157851807 1.0 
4.001562157851807 1.0 
5.001562157851807 1.0 
6.001562157851807 1.0 
7.001562157851807 1.0 
8.001562157851808 1.0 
9.001562157851808 1.0 
10.001562157851808 1.0 
11.001562157851808 1.0 
12.001562157851808 1.0 
13.001562157851808 1.0 
14.001562157851808 1.0 
15.001562157851808 1.0 
16.001562157851808 1.0 
17.001562157851808 1.0 
18.001562157851808 1.0 
19.001562157851808 1.0 
20.001562157851808 1.0 
21.001562157851808 1.0 
22.001562157851808 1.0 
23.001562157851808 1.0 
24.001562157851808 1.0 
25.001562157851808 1.0 
26.001562157851808 1.0 
27.001562157851808 1.0 
28.001562157851808 1.0 
29.001562157851808 1.0 
30.001562157851808 1.0 
31.001562157851808 1.0 
32.00156215785181 1.0 
33.00156215785181 1.0 
34.00156215785181 1.0 
35.00156215785181 1.0 
36.00156215785181 1.0 
37.00156215785181 1.0 
38.00156215785181 1.0 
39.00156215785181 1.0 
40.00156215785181 1.0 
41.00156215785181 1.0 
42.00156215785181 1.0 
43.00156215785181 1.0 
44.00156215785181 1.0 
45.00156215785181 1.0 
46.00156215785181 1.0 
47.00156215785181 1.0 
48.00156215785181 1.0 
#####################################################################
# End of data export. Simulation finished at: 2017-05-25T15:24+0000 #
#####################################################################
