#####################################################################
# Alchemist log file - simulation started at: 2017-05-26T12:30+0000 #
#####################################################################
# random = 9.0, targets = 100.0, density = 0.1591589639397027, gridShift = 0.0, perturbation = 0.5, connfactor = 2.0
#
# The columns have the following meaning: 
# time se[Mean] 
0.0 NaN 
1.0078258106860618 NaN 
2.007825810686062 NaN 
3.007825810686062 1.541223888888889 
4.007825810686062 1.8304357222222223 
5.007825810686062 2.3208806111111113 
6.007825810686062 3.127396166666666 
7.007825810686062 2.58339375 
8.007825810686061 2.8923283888888887 
9.007825810686061 3.413120749999999 
10.007825810686061 1.5662396388888886 
11.007825810686061 1.5401816388888885 
12.007825810686061 1.6077228611111107 
13.007825810686061 1.6107984444444434 
14.007825810686061 2.545779277777775 
15.007825810686061 1.6418528055555535 
16.00782581068606 1.8920107222222193 
17.00782581068606 3.570894333333327 
18.00782581068606 1.926743638888885 
19.00782581068606 1.42778258333333 
20.00782581068606 1.9294096111111056 
21.00782581068606 0.5172096944444421 
22.00782581068606 0.3328136111111093 
23.00782581068606 0.3575108055555534 
24.00782581068606 0.24355305555555432 
25.00782581068606 0.2047258333333322 
26.00782581068606 0.2330387499999988 
27.00782581068606 0.22089999999999882 
28.00782581068606 0.22089999999999882 
29.00782581068606 0.22089999999999882 
30.00782581068606 0.22089999999999882 
31.00782581068606 0.22089999999999882 
32.00782581068606 0.22089999999999882 
33.00782581068606 0.22089999999999882 
34.00782581068606 0.22089999999999882 
35.00782581068606 0.22089999999999882 
36.00782581068606 0.22089999999999882 
37.00782581068606 0.22089999999999882 
#####################################################################
# End of data export. Simulation finished at: 2017-05-26T12:31+0000 #
#####################################################################
