#####################################################################
# Alchemist log file - simulation started at: 2017-05-23T00:31+0000 #
#####################################################################
# random = 10.0, targets = 10.0, density = 0.3174802103936399, gridShift = 1.0, perturbation = 0.5, connfactor = 1.5
#
# The columns have the following meaning: 
# time se[Mean] 
0.0 NaN 
1.0042217987811537 NaN 
2.0042217987811535 1.2624107142857142 
3.0042217987811535 1.4039434523809524 
4.0042217987811535 1.4589942956349207 
5.0042217987811535 1.59328125 
6.0042217987811535 1.3507304067460317 
7.0042217987811535 1.5866170634920633 
8.004221798781153 1.3892621527777778 
9.004221798781153 1.3137028769841268 
10.004221798781153 1.2709499007936507 
11.004221798781153 1.1322346230158733 
12.004221798781153 1.2334685019841272 
13.004221798781153 1.303246527777778 
14.004221798781153 1.155111607142857 
15.004221798781153 1.1350210813492065 
16.004221798781153 1.065747767857143 
17.004221798781153 1.127405753968254 
18.004221798781153 1.0983866567460319 
19.004221798781153 1.0706770833333334 
20.004221798781153 0.9992460317460319 
21.004221798781153 1.0036954365079367 
22.004221798781153 1.0159920634920636 
23.004221798781153 0.9805952380952382 
24.004221798781153 0.9259226190476192 
25.004221798781153 0.8695337301587304 
26.004221798781153 0.7861706349206351 
27.004221798781153 0.7572073412698413 
28.004221798781153 0.7052976190476191 
29.004221798781153 0.584593253968254 
30.004221798781153 0.5196626984126984 
31.004221798781153 0.4539335317460318 
32.00422179878115 0.3698363095238095 
33.00422179878115 0.3338640873015873 
34.00422179878115 0.3273561507936508 
35.00422179878115 0.2740128968253968 
36.00422179878115 0.2642460317460318 
37.00422179878115 0.26252480158730174 
38.00422179878115 0.24924603174603188 
39.00422179878115 0.25039682539682556 
40.00422179878115 0.24769841269841286 
41.00422179878115 0.25061507936507954 
42.00422179878115 0.24942460317460335 
43.00422179878115 0.25000000000000017 
44.00422179878115 0.25000000000000017 
45.00422179878115 0.25000000000000017 
46.00422179878115 0.25000000000000017 
47.00422179878115 0.25000000000000017 
48.00422179878115 0.25000000000000017 
49.00422179878115 0.25000000000000017 
50.00422179878115 0.25000000000000017 
51.00422179878115 0.25000000000000017 
52.00422179878115 0.25000000000000017 
53.00422179878115 0.25000000000000017 
#####################################################################
# End of data export. Simulation finished at: 2017-05-23T00:31+0000 #
#####################################################################
