#####################################################################
# Alchemist log file - simulation started at: 2017-05-22T20:37+0000 #
#####################################################################
# random = 4.0, targets = 31.622776601683793, density = 1.2632455339402642, gridShift = 0.0, perturbation = 0.5, connfactor = 1.0
#
# The columns have the following meaning: 
# time se[Mean] 
0.0 NaN 
1.0048193674555734 NaN 
2.0048193674555734 1.0307567970595624 
3.0048193674555734 1.0506462451830556 
4.004819367455573 1.0646685688178197 
5.004819367455573 1.0646534537654149 
6.004819367455573 1.0604458985797944 
7.004819367455573 1.0680299910314353 
8.004819367455573 1.0605455348002841 
9.004819367455573 1.056898674356248 
10.004819367455573 1.0382631173282626 
11.004819367455573 1.02663633052933 
12.004819367455573 1.0161288786442035 
13.004819367455573 1.0112107218110826 
14.004819367455573 0.9933515980785208 
15.004819367455573 0.9998155393138565 
16.004819367455575 1.0115750174372171 
17.004819367455575 1.0078972210997752 
18.004819367455575 1.0050063314931703 
19.004819367455575 1.0490500109028964 
20.004819367455575 1.0604726798097002 
21.004819367455575 1.0580108236675556 
22.004819367455575 1.0241060493744991 
23.004819367455575 1.0711579820578931 
24.004819367455575 1.032684684872516 
25.004819367455575 1.0400390020046277 
26.004819367455575 0.9905854806920307 
27.004819367455575 0.987649283117131 
28.004819367455575 0.9906971496279482 
29.004819367455575 0.9502217607712783 
30.004819367455575 0.938787758272552 
31.004819367455575 0.9260873533362692 
32.004819367455575 0.9236065732289866 
33.004819367455575 0.9240862236515758 
34.004819367455575 0.9159038012200246 
35.004819367455575 0.9086644008662009 
36.004819367455575 0.910696625197614 
37.004819367455575 0.9178516709416022 
38.004819367455575 0.9129554920794677 
39.004819367455575 0.9111924974644298 
40.004819367455575 0.9055433722127502 
41.004819367455575 0.9207495024040071 
42.004819367455575 0.9234851992687003 
43.004819367455575 0.900329742427876 
44.004819367455575 0.9155019532342519 
45.004819367455575 0.9401990048175721 
46.004819367455575 0.9418255221753097 
47.004819367455575 0.9260214294119613 
48.004819367455575 0.9768888143191012 
49.004819367455575 0.9849775561926689 
50.004819367455575 0.9874712760974768 
51.004819367455575 0.9222104153190056 
52.004819367455575 0.9781923716106089 
53.004819367455575 0.9561715800645764 
54.004819367455575 0.9654941283380566 
55.004819367455575 0.922101680843264 
56.004819367455575 0.9519433941919491 
57.004819367455575 0.9473395827037628 
58.004819367455575 0.9543076821961115 
59.004819367455575 0.9076152609093381 
60.004819367455575 0.9257763243293563 
61.004819367455575 0.9652517611644699 
62.004819367455575 0.9119972711827851 
63.004819367455575 0.8872322609360734 
64.00481936745558 0.8751702812630058 
65.00481936745558 0.8748811732258508 
66.00481936745558 0.8634014079039579 
67.00481936745558 0.8639151466363566 
68.00481936745558 0.8634141045726943 
69.00481936745558 0.864374571325619 
70.00481936745558 0.8702931674037405 
71.00481936745558 0.8752388717810857 
72.00481936745558 0.8752211937137682 
73.00481936745558 0.8752119026748497 
74.00481936745558 0.876628295340942 
75.00481936745558 0.8785936272793209 
76.00481936745558 0.877247079008043 
77.00481936745558 0.877247079008043 
78.00481936745558 0.877508893593265 
79.00481936745558 0.877508893593265 
80.00481936745558 0.877508893593265 
81.00481936745558 0.877508893593265 
82.00481936745558 0.877508893593265 
83.00481936745558 0.877508893593265 
84.00481936745558 0.877508893593265 
85.00481936745558 0.877508893593265 
86.00481936745558 0.877508893593265 
87.00481936745558 0.877508893593265 
88.00481936745558 0.877508893593265 
89.00481936745558 0.877508893593265 
90.00481936745558 0.877508893593265 
91.00481936745558 0.877508893593265 
92.00481936745558 0.877508893593265 
93.00481936745558 0.877508893593265 
94.00481936745558 0.877508893593265 
95.00481936745558 0.877508893593265 
96.00481936745558 0.877508893593265 
97.00481936745558 0.877508893593265 
98.00481936745558 0.877508893593265 
99.00481936745558 0.877508893593265 
100.00481936745558 0.877508893593265 
101.00481936745558 0.877508893593265 
102.00481936745558 0.877508893593265 
#####################################################################
# End of data export. Simulation finished at: 2017-05-22T20:38+0000 #
#####################################################################
