#####################################################################
# Alchemist log file - simulation started at: 2017-05-26T02:28+0000 #
#####################################################################
# random = 19.0, targets = 100.0, density = 3.5589026259761294, gridShift = 0.0, perturbation = 0.0, connfactor = 0.25
#
# The columns have the following meaning: 
# time se[Mean] 
0.0 NaN 
1.004337754240159 NaN 
2.004337754240159 1.0 
3.004337754240159 0.999950375 
4.004337754240159 0.9996608402777778 
5.004337754240159 0.9983011736111111 
6.004337754240159 0.9968173055555556 
7.004337754240159 0.9947144027777778 
8.004337754240158 0.9917026180555556 
9.004337754240158 0.9903505277777778 
10.004337754240158 0.9869562222222222 
11.004337754240158 0.9842943888888889 
12.004337754240158 0.9807925694444445 
13.004337754240158 0.9758080069444445 
14.004337754240158 0.9714528194444445 
15.004337754240158 0.9656733819444444 
16.004337754240158 0.9603068472222223 
17.004337754240158 0.957533125 
18.004337754240158 0.9502864305555556 
19.004337754240158 0.9488911041666667 
20.004337754240158 0.9427526388888889 
21.004337754240158 0.9417535069444444 
22.004337754240158 0.9372000833333334 
23.004337754240158 0.9362105277777777 
24.004337754240158 0.9336586805555555 
25.004337754240158 0.9303961458333333 
26.004337754240158 0.9310115833333332 
27.004337754240158 0.9254822430555555 
28.004337754240158 0.9264179097222222 
29.004337754240158 0.9232809444444444 
30.004337754240158 0.9231510694444444 
31.004337754240158 0.9215526944444444 
32.004337754240154 0.9206899027777777 
33.004337754240154 0.9156119652777778 
34.004337754240154 0.9143363958333333 
35.004337754240154 0.9158974861111111 
36.004337754240154 0.9105131597222222 
37.004337754240154 0.9159165347222222 
38.004337754240154 0.9103108263888888 
39.004337754240154 0.9127808125 
40.004337754240154 0.9105457152777777 
41.004337754240154 0.9113387222222222 
42.004337754240154 0.9101688888888889 
43.004337754240154 0.9110752013888889 
44.004337754240154 0.9075206388888889 
45.004337754240154 0.9087577638888888 
46.004337754240154 0.9075280208333333 
47.004337754240154 0.9017888055555556 
48.004337754240154 0.9065412708333334 
49.004337754240154 0.8918303611111111 
50.004337754240154 0.89112225 
51.004337754240154 0.8905687430555554 
52.004337754240154 0.8779755624999999 
53.004337754240154 0.8771578194444444 
54.004337754240154 0.8723566111111112 
55.004337754240154 0.8633223819444444 
56.004337754240154 0.8624385555555555 
57.004337754240154 0.8512084791666668 
58.004337754240154 0.8481756944444445 
59.004337754240154 0.8423652430555556 
60.004337754240154 0.8285320833333333 
61.004337754240154 0.8288199861111111 
62.004337754240154 0.8141279375 
63.004337754240154 0.8064742500000001 
64.00433775424015 0.8018527430555557 
65.00433775424015 0.790878923611111 
66.00433775424015 0.7827291319444445 
67.00433775424015 0.7796964444444444 
68.00433775424015 0.7647280624999999 
69.00433775424015 0.7546647083333332 
70.00433775424015 0.7504615 
71.00433775424015 0.73533175 
72.00433775424015 0.7346923819444444 
73.00433775424015 0.7206763263888888 
74.00433775424015 0.7174306875 
75.00433775424015 0.7069336944444444 
76.00433775424015 0.6981822777777779 
77.00433775424015 0.6931980625 
78.00433775424015 0.6867968680555555 
79.00433775424015 0.6785352083333334 
80.00433775424015 0.6807545 
81.00433775424015 0.6759820208333334 
82.00433775424015 0.6689626527777778 
83.00433775424015 0.668007625 
84.00433775424015 0.6615826041666667 
85.00433775424015 0.6589232152777778 
86.00433775424015 0.6525346944444445 
87.00433775424015 0.6500873472222222 
88.00433775424015 0.6465365972222222 
89.00433775424015 0.6437968819444444 
90.00433775424015 0.6393797569444445 
91.00433775424015 0.6424501041666666 
92.00433775424015 0.6366400347222222 
93.00433775424015 0.6359757847222223 
94.00433775424015 0.6350049930555556 
95.00433775424015 0.6326212361111111 
96.00433775424015 0.6321776666666666 
97.00433775424015 0.6308790833333333 
98.00433775424015 0.6305906111111111 
99.00433775424015 0.6292931111111111 
100.00433775424015 0.6272613611111111 
101.00433775424015 0.62694225 
102.00433775424015 0.62558275 
103.00433775424015 0.624667 
104.00433775424015 0.62453925 
105.00433775424015 0.624023 
106.00433775424015 0.62398225 
107.00433775424015 0.6240215 
108.00433775424015 0.6240607499999999 
109.00433775424015 0.6241 
110.00433775424015 0.6241 
111.00433775424015 0.6241 
112.00433775424015 0.6241 
113.00433775424015 0.6241 
114.00433775424015 0.6241 
115.00433775424015 0.6241 
116.00433775424015 0.6241 
117.00433775424015 0.6241 
118.00433775424015 0.6241 
119.00433775424015 0.6241 
120.00433775424015 0.6241 
121.00433775424015 0.6241 
122.00433775424015 0.6241 
123.00433775424015 0.6241 
124.00433775424015 0.6241 
125.00433775424015 0.6241 
126.00433775424015 0.6241 
127.00433775424015 0.6241 
128.00433775424017 0.6241 
129.00433775424017 0.6241 
130.00433775424017 0.6241 
131.00433775424017 0.6241 
132.00433775424017 0.6241 
133.00433775424017 0.6241 
134.00433775424017 0.6241 
135.00433775424017 0.6241 
136.00433775424017 0.6241 
137.00433775424017 0.6241 
138.00433775424017 0.6241 
139.00433775424017 0.6241 
140.00433775424017 0.6241 
141.00433775424017 0.6241 
142.00433775424017 0.6241 
143.00433775424017 0.6241 
144.00433775424017 0.6241 
145.00433775424017 0.6241 
146.00433775424017 0.6241 
147.00433775424017 0.6241 
148.00433775424017 0.6241 
149.00433775424017 0.6241 
150.00433775424017 0.6241 
151.00433775424017 0.6241 
152.00433775424017 0.6241 
#####################################################################
# End of data export. Simulation finished at: 2017-05-26T02:28+0000 #
#####################################################################
