#####################################################################
# Alchemist log file - simulation started at: 2017-05-24T17:25+0000 #
#####################################################################
# random = 15.0, targets = 31.622776601683793, density = 0.1591589639397027, gridShift = 1.0, perturbation = 0.5, connfactor = 0.5
#
# The columns have the following meaning: 
# time se[Mean] 
0.0 NaN 
1.0090872484315245 NaN 
2.0090872484315243 1.0055787961002807 
3.0090872484315243 1.0278397397214594 
4.009087248431524 1.0387714059960946 
5.009087248431524 1.0227424251026602 
6.009087248431524 1.0498341154936741 
7.009087248431524 1.0122645613494314 
8.009087248431523 1.008012567692151 
9.009087248431523 1.0132404872753573 
10.009087248431523 0.9593594954214211 
11.009087248431523 0.9720956430991317 
12.009087248431523 0.9388831010914844 
13.009087248431523 0.9421819281213012 
14.009087248431523 0.9548592547982897 
15.009087248431523 0.9562323535375864 
16.009087248431523 0.9299600151944398 
17.009087248431523 0.8960404309047236 
18.009087248431523 0.8304002613060099 
19.009087248431523 0.7847399234333009 
20.009087248431523 0.6861568430246948 
21.009087248431523 0.6263630171709722 
22.009087248431523 0.4781138283954743 
23.009087248431523 0.4371875412645233 
24.009087248431523 0.48349790090142303 
25.009087248431523 0.46255202556044256 
26.009087248431523 0.5588090812254198 
27.009087248431523 0.5796798513275713 
28.009087248431523 0.5976885478260864 
29.009087248431523 0.6079337571276503 
30.009087248431523 0.6068320040935014 
31.009087248431523 0.6062811275764269 
32.00908724843153 0.6062811275764269 
33.00908724843153 0.6062811275764269 
34.00908724843153 0.6062811275764269 
35.00908724843153 0.6062811275764269 
36.00908724843153 0.6062811275764269 
37.00908724843153 0.6062811275764269 
38.00908724843153 0.6062811275764269 
#####################################################################
# End of data export. Simulation finished at: 2017-05-24T17:25+0000 #
#####################################################################
