#####################################################################
# Alchemist log file - simulation started at: 2017-05-25T16:41+0000 #
#####################################################################
# random = 18.0, targets = 31.622776601683793, density = 0.11269076455391362, gridShift = 0.0, perturbation = 0.0, connfactor = 1.5
#
# The columns have the following meaning: 
# time se[Mean] 
0.0 NaN 
1.0067713218599703 NaN 
2.0067713218599703 1.3260346336714237 
3.0067713218599703 1.574282389569982 
4.00677132185997 1.8402059749491981 
5.00677132185997 2.546080640090814 
6.00677132185997 2.9673797128535186 
7.00677132185997 2.5603087255553336 
8.00677132185997 1.752930960593109 
9.00677132185997 0.9383698735311842 
10.00677132185997 0.4398909097587503 
11.00677132185997 0.30649294105059277 
12.00677132185997 0.2475136216559088 
13.00677132185997 0.18556641301950771 
14.00677132185997 0.1320055431872126 
15.00677132185997 0.02682836713635731 
16.006771321859972 3.8785069560481764E-4 
17.006771321859972 3.8785069560481764E-4 
18.006771321859972 3.8785069560481764E-4 
19.006771321859972 3.8785069560481764E-4 
20.006771321859972 3.8785069560481764E-4 
21.006771321859972 3.8785069560481764E-4 
22.006771321859972 3.8785069560481764E-4 
23.006771321859972 3.8785069560481764E-4 
24.006771321859972 3.8785069560481764E-4 
#####################################################################
# End of data export. Simulation finished at: 2017-05-25T16:41+0000 #
#####################################################################
