#####################################################################
# Alchemist log file - simulation started at: 2017-05-24T11:32+0000 #
#####################################################################
# random = 14.0, targets = 100.0, density = 1.2632455339402642, gridShift = 1.0, perturbation = 0.0, connfactor = 0.5
#
# The columns have the following meaning: 
# time se[Mean] 
0.0 NaN 
1.00680225313191 NaN 
2.00680225313191 1.0049080357142857 
3.00680225313191 1.0077852182539682 
4.0068022531319105 1.0084663855820106 
5.0068022531319105 1.01015248015873 
6.0068022531319105 1.0061706514550264 
7.0068022531319105 1.0072813822751323 
8.00680225313191 1.0012863425925926 
9.00680225313191 1.004763425925926 
10.00680225313191 0.9960282076719577 
11.00680225313191 0.9960160548941799 
12.00680225313191 0.9905247850529101 
13.00680225313191 0.9880330853174604 
14.00680225313191 0.980574718915344 
15.00680225313191 0.9732497354497355 
16.00680225313191 0.9675158068783068 
17.00680225313191 0.9562286375661376 
18.00680225313191 0.9453196428571429 
19.00680225313191 0.935285333994709 
20.00680225313191 0.9229021660052911 
21.00680225313191 0.9047618551587302 
22.00680225313191 0.8921765707671958 
23.00680225313191 0.8721222222222222 
24.00680225313191 0.847913392857143 
25.00680225313191 0.8397790839947091 
26.00680225313191 0.8214094742063492 
27.00680225313191 0.7964142030423281 
28.00680225313191 0.7791147652116402 
29.00680225313191 0.749810796957672 
30.00680225313191 0.7182200396825398 
31.00680225313191 0.7160148809523811 
32.00680225313191 0.6777870866402117 
33.00680225313191 0.6599455687830689 
34.00680225313191 0.6477842757936508 
35.00680225313191 0.6270737433862434 
36.00680225313191 0.6171715277777778 
37.00680225313191 0.6292520667989419 
38.00680225313191 0.6184892526455027 
39.00680225313191 0.6194915674603175 
40.00680225313191 0.628207671957672 
41.00680225313191 0.6355243716931217 
42.00680225313191 0.6478255787037037 
43.00680225313191 0.6512815641534392 
44.00680225313191 0.6542321593915345 
45.00680225313191 0.6552550595238096 
46.00680225313191 0.6554407738095238 
47.00680225313191 0.6560684193121693 
48.00680225313191 0.6560037698412698 
49.00680225313191 0.6561 
50.00680225313191 0.6561 
51.00680225313191 0.6561 
52.00680225313191 0.6561 
53.00680225313191 0.6561 
54.00680225313191 0.6561 
55.00680225313191 0.6561 
56.00680225313191 0.6561 
57.00680225313191 0.6561 
58.00680225313191 0.6561 
59.00680225313191 0.6561 
60.00680225313191 0.6561 
61.00680225313191 0.6561 
62.00680225313191 0.6561 
63.00680225313191 0.6561 
64.00680225313191 0.6561 
65.00680225313191 0.6561 
66.00680225313191 0.6561 
67.00680225313191 0.6561 
68.00680225313191 0.6561 
69.00680225313191 0.6561 
70.00680225313191 0.6561 
71.00680225313191 0.6561 
#####################################################################
# End of data export. Simulation finished at: 2017-05-24T11:32+0000 #
#####################################################################
