#####################################################################
# Alchemist log file - simulation started at: 2017-05-24T11:27+0000 #
#####################################################################
# random = 14.0, targets = 100.0, density = 0.11269076455391362, gridShift = 0.0, perturbation = 0.5, connfactor = 2.0
#
# The columns have the following meaning: 
# time se[Mean] 
0.0 NaN 
1.0090008223538587 NaN 
2.0090008223538587 1.388492 
3.0090008223538587 1.4682118055555555 
4.009000822353858 2.0288158333333333 
5.009000822353858 2.487861111111111 
6.009000822353858 3.061186333333333 
7.009000822353858 3.5739901666666665 
8.009000822353858 2.2561999444444445 
9.009000822353858 1.3963921944444444 
10.009000822353858 0.9633645277777778 
11.009000822353858 0.6872965000000001 
12.009000822353858 0.790782527777778 
13.009000822353858 1.4043576388888899 
14.009000822353858 2.18469902777778 
15.009000822353858 3.2912020833333364 
16.00900082235386 5.228735472222227 
17.00900082235386 4.016650361111114 
18.00900082235386 6.08867030555556 
19.00900082235386 4.38406866666667 
20.00900082235386 3.3475490555555565 
21.00900082235386 2.4253920277777783 
22.00900082235386 1.4583682500000006 
23.00900082235386 1.1740650000000006 
24.00900082235386 1.1881000000000006 
25.00900082235386 1.1881000000000006 
26.00900082235386 1.1881000000000006 
27.00900082235386 1.1881000000000006 
28.00900082235386 1.1881000000000006 
29.00900082235386 1.1881000000000006 
30.00900082235386 1.1881000000000006 
31.00900082235386 1.1881000000000006 
32.009000822353855 1.1881000000000006 
33.009000822353855 1.1881000000000006 
#####################################################################
# End of data export. Simulation finished at: 2017-05-24T11:27+0000 #
#####################################################################
