#####################################################################
# Alchemist log file - simulation started at: 2017-05-20T18:15+0000 #
#####################################################################
# random = 1.0, targets = 31.622776601683793, density = 0.07978946395100113, gridShift = 1.0, perturbation = 0.0, connfactor = 0.25
#
# The columns have the following meaning: 
# time se[Mean] 
0.0 NaN 
1.0048855897957667 NaN 
2.0048855897957667 1.0 
3.0048855897957667 0.9989514630021661 
4.004885589795767 0.9811222414856002 
5.004885589795767 0.9530076499906954 
6.004885589795767 0.918631077288731 
7.004885589795767 0.9038445407613346 
8.004885589795766 0.9057638369792247 
9.004885589795766 0.8853264303558799 
10.004885589795766 0.871984338272928 
11.004885589795766 0.8691720606127596 
12.004885589795766 0.8750966159330964 
13.004885589795766 0.8456738393314126 
14.004885589795766 0.8693720606127596 
15.004885589795766 0.8310124510305706 
16.004885589795766 0.8367370063509074 
17.004885589795766 0.8221756180500654 
18.004885589795766 0.8192633403898971 
19.004885589795766 0.8192633403898971 
20.004885589795766 0.8192633403898971 
21.004885589795766 0.8192633403898971 
22.004885589795766 0.8192633403898971 
23.004885589795766 0.8192633403898971 
24.004885589795766 0.8192633403898971 
25.004885589795766 0.8192633403898971 
#####################################################################
# End of data export. Simulation finished at: 2017-05-20T18:15+0000 #
#####################################################################
