#####################################################################
# Alchemist log file - simulation started at: 2017-05-24T06:06+0000 #
#####################################################################
# random = 6.0, targets = 31.622776601683793, density = 0.07978946395100113, gridShift = 1.0, perturbation = 0.5, connfactor = 0.1
#
# The columns have the following meaning: 
# time se[Mean] 
0.0 NaN 
1.0115592716150654 NaN 
2.0115592716150656 1.0 
3.0115592716150656 0.9938754446796633 
4.011559271615066 0.975501778718653 
5.011559271615066 0.9510035574373059 
6.011559271615066 0.9265053361559589 
7.011559271615066 0.9081316701949486 
8.011559271615067 0.8897580042339384 
9.011559271615067 0.8836334489136015 
10.011559271615067 0.8775088935932648 
11.011559271615067 0.8775088935932648 
12.011559271615067 0.8775088935932648 
13.011559271615067 0.8775088935932648 
14.011559271615067 0.8775088935932648 
15.011559271615067 0.8775088935932648 
#####################################################################
# End of data export. Simulation finished at: 2017-05-24T06:06+0000 #
#####################################################################
