#####################################################################
# Alchemist log file - simulation started at: 2017-05-24T20:19+0000 #
#####################################################################
# random = 7.0, targets = 10.0, density = 5.0264212595847235, gridShift = 1.0, perturbation = 0.0, connfactor = 2.0
#
# The columns have the following meaning: 
# time se[Mean] 
0.0 NaN 
1.001616958347866 NaN 
2.0016169583478662 1.0620541958041962 
3.0016169583478662 1.0965646853146858 
4.001616958347866 1.1330861499611502 
5.001616958347866 1.1578064296814292 
6.001616958347866 1.1415792540792538 
7.001616958347866 1.1477539821289817 
8.001616958347867 1.1557857420357422 
9.001616958347867 1.1400713869463868 
10.001616958347867 1.1735567210567215 
11.001616958347867 1.1392006604506608 
12.001616958347867 1.1770284576534575 
13.001616958347867 1.1535586635586639 
14.001616958347867 1.1611786130536135 
15.001616958347867 1.1676757964257964 
16.001616958347867 1.1223285742035742 
17.001616958347867 1.1215831390831394 
18.001616958347867 1.0850228243978248 
19.001616958347867 1.0973737373737378 
20.001616958347867 1.0629419191919196 
21.001616958347867 1.0502942890442888 
22.001616958347867 1.0398917055167054 
23.001616958347867 1.010313714063714 
24.001616958347867 0.9941302447552448 
25.001616958347867 0.9750223387723388 
26.001616958347867 0.9596843434343435 
27.001616958347867 0.9507468919968921 
28.001616958347867 0.9386732711732713 
29.001616958347867 0.9265234071484071 
30.001616958347867 0.9178151709401711 
31.001616958347867 0.9051728826728828 
32.00161695834787 0.8985334110334111 
33.00161695834787 0.8934469696969697 
34.00161695834787 0.8844721250971251 
35.00161695834787 0.8786421911421912 
36.00161695834787 0.8674771756021757 
37.00161695834787 0.8636766705516707 
38.00161695834787 0.8565428321678323 
39.00161695834787 0.846315073815074 
40.00161695834787 0.8421250971250971 
41.00161695834787 0.8361067404817406 
42.00161695834787 0.8239646464646464 
43.00161695834787 0.8208114801864804 
44.00161695834787 0.8097542735042738 
45.00161695834787 0.8050228243978242 
46.00161695834787 0.7910465229215228 
47.00161695834787 0.7844055944055947 
48.00161695834787 0.7709877622377622 
49.00161695834787 0.7666205322455325 
50.00161695834787 0.7550446775446776 
51.00161695834787 0.7494109362859364 
52.00161695834787 0.7359139471639471 
53.00161695834787 0.7289869852369852 
54.00161695834787 0.7181502525252529 
55.00161695834787 0.7092744755244756 
56.00161695834787 0.7007153263403265 
57.00161695834787 0.6889170551670549 
58.00161695834787 0.677069735819736 
59.00161695834787 0.6621959984459989 
60.00161695834787 0.6485275835275834 
61.00161695834787 0.6358648989898993 
62.00161695834787 0.6222848679098683 
63.00161695834787 0.6056968725718724 
64.00161695834787 0.5942225135975138 
65.00161695834787 0.5754613442113446 
66.00161695834787 0.559275446775447 
67.00161695834787 0.5426738539238541 
68.00161695834787 0.527547105672106 
69.00161695834787 0.5130196192696193 
70.00161695834787 0.49791278166278113 
71.00161695834787 0.48780642968142945 
72.00161695834787 0.47400932400932455 
73.00161695834787 0.4623033216783213 
74.00161695834787 0.45045405982906017 
75.00161695834787 0.43969891219891183 
76.00161695834787 0.42651952214452254 
77.00161695834787 0.417067793317793 
78.00161695834787 0.4076976495726492 
79.00161695834787 0.3972013403263403 
80.00161695834787 0.3876087801087801 
81.00161695834787 0.378641705516706 
82.00161695834787 0.3696212121212124 
83.00161695834787 0.36156857031857054 
84.00161695834787 0.3498620823620825 
85.00161695834787 0.3418473193473196 
86.00161695834787 0.33232808857808854 
87.00161695834787 0.3228559634809639 
88.00161695834787 0.3131356837606839 
89.00161695834787 0.30572601010101025 
90.00161695834787 0.29550893550893576 
91.00161695834787 0.28721105283605297 
92.00161695834787 0.27577505827505827 
93.00161695834787 0.26631167443667453 
94.00161695834787 0.2588102175602178 
95.00161695834787 0.24865821678321676 
96.00161695834787 0.24246066433566468 
97.00161695834787 0.23312937062937045 
98.00161695834787 0.2253409090909094 
99.00161695834787 0.21916472416472432 
100.00161695834787 0.2105837218337219 
101.00161695834787 0.20517336829836838 
102.00161695834787 0.2030094211344214 
103.00161695834787 0.19620192307692338 
104.00161695834787 0.18874174436674462 
105.00161695834787 0.18486353923853951 
106.00161695834787 0.1789374514374517 
107.00161695834787 0.17812305749805757 
108.00161695834787 0.17497717560217577 
109.00161695834787 0.18459207459207475 
110.00161695834787 0.22767094017094042 
111.00161695834787 0.2116924048174049 
112.00161695834787 0.1827777777777779 
113.00161695834787 0.29719891219891253 
114.00161695834787 0.5679341491841496 
115.00161695834787 0.4481308275058273 
116.00161695834787 0.4234999028749017 
117.00161695834787 0.5014233682983683 
118.00161695834787 0.3672552447552455 
119.00161695834787 0.22525835275835274 
120.00161695834787 0.38611499611499656 
121.00161695834787 0.35099747474747545 
122.00161695834787 0.25368444055943995 
123.00161695834787 0.5696930846930857 
124.00161695834787 0.41941433566433534 
125.00161695834787 0.4676762820512814 
126.00161695834787 0.3526719114219119 
127.00161695834787 0.4597809829059841 
128.00161695834788 0.22561722999222988 
129.00161695834788 0.3397785547785544 
130.00161695834788 0.2798926767676772 
131.00161695834788 0.42502476689976726 
132.00161695834788 0.32283168220668185 
133.00161695834788 0.28407439782439825 
134.00161695834788 0.19989316239316235 
135.00161695834788 0.39148018648018656 
136.00161695834788 0.35683177933177895 
137.00161695834788 0.10595036907536905 
138.00161695834788 0.26498543123543117 
139.00161695834788 0.23579156954156963 
140.00161695834788 0.14851495726495714 
141.00161695834788 0.2613427544677541 
142.00161695834788 0.03056526806526813 
143.00161695834788 0.15850281662781623 
144.00161695834788 0.010241841491841496 
145.00161695834788 0.13973533411033412 
146.00161695834788 0.008631507381507404 
147.00161695834788 0.11922251359751344 
148.00161695834788 0.006115481740481734 
149.00161695834788 0.11897533022533016 
150.00161695834788 0.0038791763791764006 
151.00161695834788 0.01890102952602954 
152.00161695834788 0.002820998445998436 
153.00161695834788 0.0023489704739704915 
154.00161695834788 0.001632672882672877 
155.00161695834788 0.0011149961149961168 
156.00161695834788 3.802447552447543E-4 
157.00161695834788 6.444250194250169E-4 
158.00161695834788 2.253302253302252E-4 
159.00161695834788 4.4677544677544916E-4 
160.00161695834788 7.91569541569541E-5 
161.00161695834788 6.410256410256332E-5 
162.00161695834788 3.642191142191124E-5 
163.00161695834788 3.4479409479408605E-5 
164.00161695834788 1.068376068376023E-5 
165.00161695834788 2.088189588189568E-5 
166.00161695834788 1.9425019425018146E-6 
167.00161695834788 9.712509712509115E-7 
168.00161695834788 4.856254856254526E-7 
169.00161695834788 4.856254856254549E-7 
170.00161695834788 2.8398992587956424E-31 
171.00161695834788 2.8398992587956424E-31 
172.00161695834788 2.8398992587956424E-31 
173.00161695834788 2.8398992587956424E-31 
174.00161695834788 2.8398992587956424E-31 
175.00161695834788 2.8398992587956424E-31 
176.00161695834788 2.8398992587956424E-31 
177.00161695834788 2.8398992587956424E-31 
178.00161695834788 2.8398992587956424E-31 
179.00161695834788 2.8398992587956424E-31 
180.00161695834788 2.8398992587956424E-31 
181.00161695834788 2.8398992587956424E-31 
182.00161695834788 2.8398992587956424E-31 
183.00161695834788 2.8398992587956424E-31 
184.00161695834788 2.8398992587956424E-31 
185.00161695834788 2.8398992587956424E-31 
186.00161695834788 2.8398992587956424E-31 
187.00161695834788 2.8398992587956424E-31 
188.00161695834788 2.8398992587956424E-31 
189.00161695834788 2.8398992587956424E-31 
190.00161695834788 2.8398992587956424E-31 
191.00161695834788 2.8398992587956424E-31 
192.00161695834788 2.8398992587956424E-31 
193.00161695834788 2.8398992587956424E-31 
194.00161695834788 2.8398992587956424E-31 
195.00161695834788 2.8398992587956424E-31 
196.00161695834788 2.8398992587956424E-31 
197.00161695834788 2.8398992587956424E-31 
198.00161695834788 2.8398992587956424E-31 
199.00161695834788 2.8398992587956424E-31 
200.00161695834788 2.8398992587956424E-31 
201.00161695834788 2.8398992587956424E-31 
202.00161695834788 2.8398992587956424E-31 
203.00161695834788 2.8398992587956424E-31 
204.00161695834788 2.8398992587956424E-31 
205.00161695834788 2.8398992587956424E-31 
206.00161695834788 2.8398992587956424E-31 
207.00161695834788 2.8398992587956424E-31 
208.00161695834788 2.8398992587956424E-31 
209.00161695834788 2.8398992587956424E-31 
210.00161695834788 2.8398992587956424E-31 
211.00161695834788 2.8398992587956424E-31 
212.00161695834788 2.8398992587956424E-31 
213.00161695834788 2.8398992587956424E-31 
214.00161695834788 2.8398992587956424E-31 
215.00161695834788 2.8398992587956424E-31 
#####################################################################
# End of data export. Simulation finished at: 2017-05-24T20:22+0000 #
#####################################################################
