#####################################################################
# Alchemist log file - simulation started at: 2017-05-25T13:34+0000 #
#####################################################################
# random = 8.0, targets = 10.0, density = 7.099073319511142, gridShift = 1.0, perturbation = 0.0, connfactor = 0.25
#
# The columns have the following meaning: 
# time se[Mean] 
0.0 NaN 
1.0009686244946094 NaN 
2.000968624494609 1.0 
3.000968624494609 0.9997564102564103 
4.000968624494609 0.9987820512820513 
5.000968624494609 0.9968333333333333 
6.000968624494609 0.9958589743589744 
7.000968624494609 0.9941794871794871 
8.00096862449461 0.9923333333333333 
9.00096862449461 0.9900897435897437 
10.00096862449461 0.981679487179487 
11.00096862449461 0.978102564102564 
12.00096862449461 0.9703205128205129 
13.00096862449461 0.9666923076923079 
14.00096862449461 0.9642820512820512 
15.00096862449461 0.9608461538461537 
16.00096862449461 0.9619102564102564 
17.00096862449461 0.9580128205128206 
18.00096862449461 0.961102564102564 
19.00096862449461 0.9549743589743592 
20.00096862449461 0.9515512820512819 
21.00096862449461 0.9424102564102563 
22.00096862449461 0.9355641025641024 
23.00096862449461 0.9244102564102562 
24.00096862449461 0.9197435897435893 
25.00096862449461 0.9084230769230767 
26.00096862449461 0.9018076923076926 
27.00096862449461 0.8945641025641026 
28.00096862449461 0.8888076923076923 
29.00096862449461 0.8823846153846151 
30.00096862449461 0.8749871794871795 
31.00096862449461 0.8757692307692306 
32.00096862449461 0.8725 
33.00096862449461 0.8784743589743591 
34.00096862449461 0.870346153846154 
35.00096862449461 0.8797948717948719 
36.00096862449461 0.8773846153846153 
37.00096862449461 0.8844487179487179 
38.00096862449461 0.8803846153846154 
39.00096862449461 0.8846794871794873 
40.00096862449461 0.8768974358974361 
41.00096862449461 0.8739102564102565 
42.00096862449461 0.8651794871794871 
43.00096862449461 0.8608846153846151 
44.00096862449461 0.8546410256410256 
45.00096862449461 0.8514615384615384 
46.00096862449461 0.8450512820512823 
47.00096862449461 0.8414230769230769 
48.00096862449461 0.8393717948717948 
49.00096862449461 0.8355256410256411 
50.00096862449461 0.8292051282051282 
51.00096862449461 0.829269230769231 
52.00096862449461 0.8206410256410257 
53.00096862449461 0.8235897435897434 
54.00096862449461 0.8236410256410254 
55.00096862449461 0.8178974358974366 
56.00096862449461 0.8119358974358974 
57.00096862449461 0.8122435897435897 
58.00096862449461 0.8105769230769232 
59.00096862449461 0.8023846153846151 
60.00096862449461 0.7976666666666665 
61.00096862449461 0.8038589743589748 
62.00096862449461 0.8078717948717954 
63.00096862449461 0.7931282051282053 
64.00096862449462 0.7815000000000004 
65.00096862449462 0.7844743589743591 
66.00096862449462 0.7783717948717945 
67.00096862449462 0.786666666666667 
68.00096862449462 0.7687307692307694 
69.00096862449462 0.7704615384615385 
70.00096862449462 0.7757435897435898 
71.00096862449462 0.7691794871794873 
72.00096862449462 0.7695769230769229 
73.00096862449462 0.7756153846153848 
74.00096862449462 0.7625512820512822 
75.00096862449462 0.7434615384615382 
76.00096862449462 0.7489358974358975 
77.00096862449462 0.7225897435897437 
78.00096862449462 0.7391923076923077 
79.00096862449462 0.7340512820512818 
80.00096862449462 0.7290897435897432 
81.00096862449462 0.7059743589743596 
82.00096862449462 0.707294871794872 
83.00096862449462 0.6791025641025649 
84.00096862449462 0.6622692307692306 
85.00096862449462 0.6564358974358983 
86.00096862449462 0.6312179487179479 
87.00096862449462 0.6207820512820506 
88.00096862449462 0.5964615384615396 
89.00096862449462 0.5890128205128201 
90.00096862449462 0.5616538461538461 
91.00096862449462 0.5599743589743585 
92.00096862449462 0.5407051282051284 
93.00096862449462 0.5252435897435893 
94.00096862449462 0.5095512820512818 
95.00096862449462 0.5071794871794875 
96.00096862449462 0.4959743589743585 
97.00096862449462 0.48735897435897396 
98.00096862449462 0.4756923076923079 
99.00096862449462 0.4710897435897435 
100.00096862449462 0.45756410256410274 
101.00096862449462 0.44697435897435855 
102.00096862449462 0.4346153846153843 
103.00096862449462 0.4251923076923079 
104.00096862449462 0.4138333333333333 
105.00096862449462 0.406717948717949 
106.00096862449462 0.39334615384615407 
107.00096862449462 0.38887179487179513 
108.00096862449462 0.3900769230769235 
109.00096862449462 0.3770128205128201 
110.00096862449462 0.3695384615384616 
111.00096862449462 0.36978205128205127 
112.00096862449462 0.367974358974359 
113.00096862449462 0.3487435897435899 
114.00096862449462 0.34401282051282056 
115.00096862449462 0.34591025641025624 
116.00096862449462 0.3523846153846154 
117.00096862449462 0.32437179487179485 
118.00096862449462 0.31016666666666676 
119.00096862449462 0.3080769230769233 
120.00096862449462 0.29474358974358983 
121.00096862449462 0.300679487179487 
122.00096862449462 0.2715897435897435 
123.00096862449462 0.2725128205128202 
124.00096862449462 0.2791538461538462 
125.00096862449462 0.266653846153846 
126.00096862449462 0.259269230769231 
127.00096862449462 0.27752564102564115 
128.00096862449462 0.2570384615384617 
129.00096862449462 0.23152564102564105 
130.00096862449462 0.24730769230769215 
131.00096862449462 0.21373076923076897 
132.00096862449462 0.2306282051282049 
133.00096862449462 0.2402948717948715 
134.00096862449462 0.22687179487179504 
135.00096862449462 0.20855128205128193 
136.00096862449462 0.22428205128205153 
137.00096862449462 0.1996025641025644 
138.00096862449462 0.1879230769230771 
139.00096862449462 0.19671794871794895 
140.00096862449462 0.178474358974359 
141.00096862449462 0.17574358974359 
142.00096862449462 0.1645512820512819 
143.00096862449462 0.16960256410256408 
144.00096862449462 0.15334615384615394 
145.00096862449462 0.16424358974358996 
146.00096862449462 0.15664102564102592 
147.00096862449462 0.15300000000000027 
148.00096862449462 0.1445641025641025 
149.00096862449462 0.14978205128205108 
150.00096862449462 0.1407435897435898 
151.00096862449462 0.13899999999999996 
152.00096862449462 0.13723076923076918 
153.00096862449462 0.13476923076923072 
154.00096862449462 0.13355128205128203 
155.00096862449462 0.13242307692307695 
156.00096862449462 0.13016666666666668 
157.00096862449462 0.1298589743589744 
158.00096862449462 0.1284487179487179 
159.00096862449462 0.12556410256410247 
160.00096862449462 0.1257692307692308 
161.00096862449462 0.12428205128205126 
162.00096862449462 0.12288461538461536 
163.00096862449462 0.12226923076923076 
164.00096862449462 0.1203717948717949 
165.00096862449462 0.11946153846153844 
166.00096862449462 0.12061538461538461 
167.00096862449462 0.12065384615384611 
168.00096862449462 0.11955128205128206 
169.00096862449462 0.12098717948717953 
170.00096862449462 0.11932051282051281 
171.00096862449462 0.12043589743589742 
172.00096862449462 0.11992307692307692 
173.00096862449462 0.11978205128205129 
174.00096862449462 0.1187179487179487 
175.00096862449462 0.11851282051282043 
176.00096862449462 0.11605128205128204 
177.00096862449462 0.11543589743589742 
178.00096862449462 0.11479487179487183 
179.00096862449462 0.11306410256410251 
180.00096862449462 0.11210256410256404 
181.00096862449462 0.1109102564102564 
182.00096862449462 0.10937179487179483 
183.00096862449462 0.10848717948717947 
184.00096862449462 0.10750000000000003 
185.00096862449462 0.10675641025641035 
186.00096862449462 0.10605128205128196 
187.00096862449462 0.10614102564102555 
188.00096862449462 0.10453846153846161 
189.00096862449462 0.1028205128205128 
190.00096862449462 0.10112820512820522 
191.00096862449462 0.09978205128205123 
192.00096862449462 0.09897435897435901 
193.00096862449462 0.09807692307692303 
194.00096862449462 0.09735897435897442 
195.00096862449462 0.09628205128205125 
196.00096862449462 0.09619230769230766 
197.00096862449462 0.09502564102564101 
198.00096862449462 0.0943076923076923 
199.00096862449462 0.09385897435897432 
200.00096862449462 0.09323076923076923 
201.00096862449462 0.09278205128205126 
202.00096862449462 0.09215384615384617 
203.00096862449462 0.09197435897435896 
204.00096862449462 0.09143589743589742 
205.00096862449462 0.09116666666666669 
206.00096862449462 0.09071794871794872 
207.00096862449462 0.09035897435897436 
208.00096862449462 0.09017948717948718 
209.00096862449462 0.09008974358974359 
210.00096862449462 0.09 
211.00096862449462 0.09 
212.00096862449462 0.09 
213.00096862449462 0.09 
214.00096862449462 0.09 
215.00096862449462 0.09 
216.00096862449462 0.09 
217.00096862449462 0.09 
218.00096862449462 0.09 
219.00096862449462 0.09 
220.00096862449462 0.09 
221.00096862449462 0.09 
222.00096862449462 0.09 
223.00096862449462 0.09 
224.00096862449462 0.09 
225.00096862449462 0.09 
226.00096862449462 0.09 
227.00096862449462 0.09 
228.00096862449462 0.09 
229.00096862449462 0.09 
230.00096862449462 0.09 
231.00096862449462 0.09 
232.00096862449462 0.09 
233.00096862449462 0.09 
234.00096862449462 0.09 
235.00096862449462 0.09 
236.00096862449462 0.09 
237.00096862449462 0.09 
238.00096862449462 0.09 
239.00096862449462 0.09 
240.00096862449462 0.09 
241.00096862449462 0.09 
242.00096862449462 0.09 
243.00096862449462 0.09 
244.00096862449462 0.09 
245.00096862449462 0.09 
246.00096862449462 0.09 
247.00096862449462 0.09 
248.00096862449462 0.09 
249.00096862449462 0.09 
250.00096862449462 0.09 
251.00096862449462 0.09 
252.00096862449462 0.09 
253.00096862449462 0.09 
254.00096862449462 0.09 
255.00096862449462 0.09 
256.0009686244946 0.09 
257.0009686244946 0.09 
258.0009686244946 0.09 
259.0009686244946 0.09 
260.0009686244946 0.09 
261.0009686244946 0.09 
262.0009686244946 0.09 
263.0009686244946 0.09 
264.0009686244946 0.09 
265.0009686244946 0.09 
266.0009686244946 0.09 
#####################################################################
# End of data export. Simulation finished at: 2017-05-25T13:40+0000 #
#####################################################################
