#####################################################################
# Alchemist log file - simulation started at: 2017-05-24T21:38+0000 #
#####################################################################
# random = 16.0, targets = 1.0, density = 10.026386447354522, gridShift = 1.0, perturbation = 0.5, connfactor = 0.5
#
# The columns have the following meaning: 
# time se[Mean] 
0.0 NaN 
1.000419502192421 NaN 
2.000419502192421 NaN 
3.000419502192421 1.0 
4.000419502192421 1.0 
5.000419502192421 1.0 
6.000419502192421 1.0011520737327189 
7.000419502192421 1.0013824884792626 
8.000419502192422 1.002073732718894 
9.000419502192422 1.002073732718894 
10.000419502192422 0.9951612903225806 
11.000419502192422 0.9942396313364055 
12.000419502192422 0.9788018433179722 
13.000419502192422 0.9707373271889398 
14.000419502192422 0.9569124423963139 
15.000419502192422 0.9421658986175118 
16.000419502192422 0.9327188940092168 
17.000419502192422 0.9214285714285718 
18.000419502192422 0.9073732718894008 
19.000419502192422 0.8921658986175105 
20.000419502192422 0.8824884792626722 
21.000419502192422 0.8675115207373281 
22.000419502192422 0.8527649769585255 
23.000419502192422 0.8396313364055288 
24.000419502192422 0.8225806451612909 
25.000419502192422 0.8073732718894 
26.000419502192422 0.7953917050691255 
27.000419502192422 0.7806451612903221 
28.000419502192422 0.7612903225806467 
29.000419502192422 0.7419354838709676 
30.000419502192422 0.7253456221198148 
31.000419502192422 0.7069124423963121 
32.00041950219242 0.693087557603685 
33.00041950219242 0.6709677419354831 
34.00041950219242 0.6552995391705068 
35.00041950219242 0.6387096774193534 
36.00041950219242 0.6175115207373292 
37.00041950219242 0.6036866359447023 
38.00041950219242 0.5852534562211996 
39.00041950219242 0.5686635944700457 
40.00041950219242 0.5502304147465427 
41.00041950219242 0.5382488479262658 
42.00041950219242 0.5225806451612908 
43.00041950219242 0.5115207373271893 
44.00041950219242 0.5041474654377887 
45.00041950219242 0.4986175115207385 
46.00041950219242 0.49400921658986297 
47.00041950219242 0.4921658986175098 
48.00041950219242 0.48663594470045884 
49.00041950219242 0.4875576036866338 
50.00041950219242 0.4866359447004583 
51.00041950219242 0.49677419354838503 
52.00041950219242 0.5050691244239606 
53.00041950219242 0.5216589861751179 
54.00041950219242 0.5336405529953904 
55.00041950219242 0.5483870967741938 
56.00041950219242 0.5631336405529979 
57.00041950219242 0.5815668202765008 
58.00041950219242 0.6036866359446995 
59.00041950219242 0.6221198156682018 
60.00041950219242 0.6377880184331769 
61.00041950219242 0.6552995391705062 
62.00041950219242 0.6663594470046114 
63.00041950219242 0.6866359447004601 
64.00041950219241 0.6995391705069146 
65.00041950219241 0.7142857142857146 
66.00041950219241 0.725345622119814 
67.00041950219241 0.7410138248847946 
68.00041950219241 0.7566820276497697 
69.00041950219241 0.770506912442396 
70.00041950219241 0.7824884792626756 
71.00041950219241 0.7917050691244265 
72.00041950219241 0.807373271889399 
73.00041950219241 0.8193548387096803 
74.00041950219241 0.8313364055299548 
75.00041950219241 0.8451612903225818 
76.00041950219241 0.8534562211981556 
77.00041950219241 0.8672811059907826 
78.00041950219241 0.8728110599078354 
79.00041950219241 0.8829493087557616 
80.00041950219241 0.8921658986175122 
81.00041950219241 0.9041474654377881 
82.00041950219241 0.914285714285716 
83.00041950219241 0.9244239631336398 
84.00041950219241 0.932718894009215 
85.00041950219241 0.9428571428571426 
86.00041950219241 0.9511520737327185 
87.00041950219241 0.9566820276497698 
88.00041950219241 0.9677419354838703 
89.00041950219241 0.976036866359447 
90.00041950219241 0.9834101382488479 
91.00041950219241 0.986175115207373 
92.00041950219241 0.9917050691244239 
93.00041950219241 0.9944700460829493 
94.00041950219241 0.9972350230414747 
95.00041950219241 1.465668202764977 
96.00041950219241 1.1797235023041488 
97.00041950219241 1.4656682027649763 
98.00041950219241 2.5767281105990603 
99.00041950219241 2.4705069124424086 
100.00041950219241 4.153456221198122 
101.00041950219241 5.803686635944645 
102.00041950219241 4.7661290322580765 
103.00041950219241 6.089631336405517 
104.00041950219241 10.068202764976947 
105.00041950219241 8.066589861751105 
106.00041950219241 9.136866359446996 
107.00041950219241 9.104147465437828 
108.00041950219241 10.14170506912449 
109.00041950219241 13.009216589861737 
110.00041950219241 13.442165898617493 
111.00041950219241 12.796774193548378 
112.00041950219241 16.342396313364027 
113.00041950219241 16.848156682027668 
114.00041950219241 16.023041474654427 
115.00041950219241 18.17096774193554 
116.00041950219241 17.67027649769591 
117.00041950219241 17.129723502304216 
118.00041950219241 16.6596774193548 
119.00041950219241 16.473732718894013 
120.00041950219241 15.07281105990789 
121.00041950219241 17.785714285714295 
122.00041950219241 15.771198156682066 
123.00041950219241 19.62811059907833 
124.00041950219241 20.196313364055374 
125.00041950219241 18.71382488479259 
126.00041950219241 20.20460829493083 
127.00041950219241 17.181105990783344 
128.00041950219241 13.864746543778809 
129.00041950219241 17.320967741935473 
130.00041950219241 16.12188940092167 
131.00041950219241 14.091244239631324 
132.00041950219241 16.505760368663605 
133.00041950219241 17.558755760368665 
134.00041950219241 13.810599078340985 
135.00041950219241 15.60990783410139 
136.00041950219241 16.84493087557605 
137.00041950219241 14.95990783410138 
138.00041950219241 17.014746543778806 
139.00041950219241 15.739861751152073 
140.00041950219241 14.821198156682076 
141.00041950219241 14.328571428571435 
142.00041950219241 17.847695852534557 
143.00041950219241 14.139631336405532 
144.00041950219241 15.85921658986175 
145.00041950219241 13.549078341013836 
146.00041950219241 12.557603686635934 
147.00041950219241 10.848156682027664 
148.00041950219241 9.177419354838722 
149.00041950219241 6.005760368663556 
150.00041950219241 6.765668202764943 
151.00041950219241 4.667511520737307 
152.00041950219241 5.434792626728084 
153.00041950219241 5.102073732718857 
154.00041950219241 4.1709677419355184 
155.00041950219241 3.5896313364055157 
156.00041950219241 4.408755760368626 
157.00041950219241 1.8705069124424054 
158.00041950219241 3.3578341013824766 
159.00041950219241 3.9682027649769713 
160.00041950219241 2.191705069124441 
161.00041950219241 3.4691244239631365 
162.00041950219241 6.026958525345629 
163.00041950219241 3.4271889400921567 
164.00041950219241 5.253225806451615 
165.00041950219241 4.499539170506913 
166.00041950219241 5.592396313364027 
167.00041950219241 7.426497695852556 
168.00041950219241 7.0467741935484 
169.00041950219241 6.671658986175134 
170.00041950219241 9.613133640552995 
171.00041950219241 8.869124423963138 
172.00041950219241 8.495161290322583 
173.00041950219241 10.33364055299543 
174.00041950219241 9.222811059907835 
175.00041950219241 9.2214285714286 
176.00041950219241 8.850460829493091 
177.00041950219241 8.848617511520738 
178.00041950219241 7.742626728110635 
179.00041950219241 10.322811059907828 
180.00041950219241 7.741935483870961 
181.00041950219241 11.797235023041486 
182.00041950219241 10.691244239631365 
183.00041950219241 9.953917050691226 
184.00041950219241 11.428571428571455 
185.00041950219241 8.479262672811068 
186.00041950219241 7.004608294930864 
187.00041950219241 10.322580645161286 
188.00041950219241 8.110599078341018 
189.00041950219241 7.373271889400909 
190.00041950219241 9.585253456221196 
191.00041950219241 9.585253456221192 
192.00041950219241 6.635944700460808 
193.00041950219241 9.21658986175115 
194.00041950219241 9.216589861751167 
195.00041950219241 7.741935483870962 
196.00041950219241 9.953917050691247 
197.00041950219241 8.110599078341018 
198.00041950219241 8.110599078341018 
199.00041950219241 7.741935483870961 
200.00041950219241 10.691244239631338 
201.00041950219241 6.6359447004608105 
202.00041950219241 9.585253456221196 
203.00041950219241 6.635944700460823 
204.00041950219241 7.0046082949308595 
205.00041950219241 5.52995391705068 
206.00041950219241 4.792626728110588 
207.00041950219241 2.580645161290338 
208.00041950219241 4.055299539170485 
209.00041950219241 1.8433179723502333 
210.00041950219241 3.317972350230451 
211.00041950219241 2.211981566820288 
212.00041950219241 2.211981566820292 
213.00041950219241 1.4746543778802097 
214.00041950219241 1.8433179723502666 
215.00041950219241 0.0 
216.00041950219241 0.7373271889401057 
217.00041950219241 0.36866359447005287 
218.00041950219241 0.0 
219.00041950219241 0.0 
220.00041950219241 0.0 
221.00041950219241 0.0 
222.00041950219241 0.0 
223.00041950219241 0.0 
224.00041950219241 0.0 
225.00041950219241 0.0 
226.00041950219241 0.0 
227.00041950219241 0.0 
228.00041950219241 0.0 
229.00041950219241 0.0 
230.00041950219241 0.0 
231.00041950219241 0.0 
232.00041950219241 0.0 
233.00041950219241 0.0 
234.00041950219241 0.0 
235.00041950219241 0.0 
236.00041950219241 0.0 
237.00041950219241 0.0 
238.00041950219241 0.0 
239.00041950219241 0.0 
240.00041950219241 0.0 
241.00041950219241 0.0 
242.00041950219241 0.0 
243.00041950219241 0.0 
244.00041950219241 0.0 
245.00041950219241 0.0 
246.00041950219241 0.0 
247.00041950219241 0.0 
248.00041950219241 0.0 
249.00041950219241 0.0 
250.00041950219241 0.0 
251.00041950219241 0.0 
252.00041950219241 0.0 
253.00041950219241 0.0 
254.00041950219241 0.0 
255.00041950219241 0.0 
256.0004195021924 0.0 
257.0004195021924 0.0 
258.0004195021924 0.0 
259.0004195021924 0.0 
260.0004195021924 0.0 
261.0004195021924 0.0 
262.0004195021924 0.0 
263.0004195021924 0.0 
264.0004195021924 0.0 
265.0004195021924 0.0 
266.0004195021924 0.0 
267.0004195021924 0.0 
268.0004195021924 0.0 
269.0004195021924 0.0 
270.0004195021924 0.0 
271.0004195021924 0.0 
272.0004195021924 0.0 
273.0004195021924 0.0 
274.0004195021924 0.0 
275.0004195021924 0.0 
276.0004195021924 0.0 
277.0004195021924 0.0 
278.0004195021924 0.0 
279.0004195021924 0.0 
280.0004195021924 0.0 
281.0004195021924 0.0 
282.0004195021924 0.0 
283.0004195021924 0.0 
284.0004195021924 0.0 
285.0004195021924 0.0 
286.0004195021924 0.0 
287.0004195021924 0.0 
288.0004195021924 0.0 
#####################################################################
# End of data export. Simulation finished at: 2017-05-24T21:40+0000 #
#####################################################################
