#####################################################################
# Alchemist log file - simulation started at: 2017-05-23T22:11+0000 #
#####################################################################
# random = 13.0, targets = 1.0, density = 10.026386447354522, gridShift = 1.0, perturbation = 0.5, connfactor = 1.5
#
# The columns have the following meaning: 
# time se[Mean] 
0.0 NaN 
1.0002602723432414 NaN 
2.000260272343241 1.0474654377880177 
3.000260272343241 1.0888376856118798 
4.000260272343241 1.1386840757808518 
5.000260272343241 1.071915002560165 
6.000260272343241 1.2635944700460808 
7.000260272343241 1.1705069124423986 
8.00026027234324 1.2282130056323581 
9.00026027234324 1.264260112647211 
10.00026027234324 1.1254736303123387 
11.00026027234324 1.1522529441884262 
12.00026027234324 1.1506656426011268 
13.00026027234324 1.1709165386584741 
14.00026027234324 1.135816692268304 
15.00026027234324 1.074372759856632 
16.00026027234324 1.0778289810547887 
17.00026027234324 1.0110855094726061 
18.00026027234324 0.9997439836149514 
19.00026027234324 0.9799795186891961 
20.00026027234324 0.9814388120839732 
21.00026027234324 0.9743215565796213 
22.00026027234324 0.9748335893497182 
23.00026027234324 0.9724270353302611 
24.00026027234324 0.9731950844854069 
25.00026027234324 0.9743215565796212 
26.00026027234324 0.9750384024577574 
27.00026027234324 0.9765488991295448 
28.00026027234324 0.9775473630312338 
29.00026027234324 0.9729646697388636 
30.00026027234324 0.9739119303635433 
31.00026027234324 0.9728110599078341 
32.00026027234324 0.9607782898105478 
33.00026027234324 0.9497439836149519 
34.00026027234324 0.9447260624679973 
35.00026027234324 1.0404505888376854 
36.00026027234324 1.0439836149513564 
37.00026027234324 1.5872503840245802 
38.00026027234324 1.690834613415261 
39.00026027234324 2.0021249359959112 
40.00026027234324 1.9011776753712228 
41.00026027234324 2.782462877624168 
42.00026027234324 3.211239119303633 
43.00026027234324 3.199180747567831 
44.00026027234324 3.413645673323076 
45.00026027234324 3.7230158730158887 
46.00026027234324 3.5213517665130483 
47.00026027234324 4.693676395289319 
48.00026027234324 3.801408090117762 
49.00026027234324 3.9799539170506746 
50.00026027234324 3.678264208909366 
51.00026027234324 5.070686123911946 
52.00026027234324 4.301817716333856 
53.00026027234324 4.512007168458789 
54.00026027234324 5.364592933947784 
55.00026027234324 4.455376344085999 
56.00026027234324 4.000307219662047 
57.00026027234324 4.8496159754224095 
58.00026027234324 3.9251152073732616 
59.00026027234324 3.3496927803379464 
60.00026027234324 3.059651817716327 
61.00026027234324 1.9237071172554998 
62.00026027234324 1.6480542754736263 
63.00026027234324 0.7535330261136721 
64.00026027234324 0.7159754224270355 
65.00026027234324 0.37511520737326753 
66.00026027234324 0.4681003584229423 
67.00026027234324 0.34173067076293 
68.00026027234324 0.32793138760880813 
69.00026027234324 0.31461853558627834 
70.00026027234324 0.29825908858167216 
71.00026027234324 0.28561187916026853 
72.00026027234324 0.2773169482846888 
73.00026027234324 0.25140809011776966 
74.00026027234324 0.24608294930875896 
75.00026027234324 0.2257040450588838 
76.00026027234324 0.21484895033282075 
77.00026027234324 0.19856630824372834 
78.00026027234324 0.1832053251408091 
79.00026027234324 0.17204301075268655 
80.00026027234324 0.1528929851510469 
81.00026027234324 0.14132104454684874 
82.00026027234324 0.125857654889913 
83.00026027234324 0.11070148489503433 
84.00026027234324 0.09769585253456327 
85.00026027234324 0.07875064004096116 
86.00026027234324 0.06359447004608224 
87.00026027234324 0.04884792626728174 
88.00026027234324 0.036866359447005045 
89.00026027234324 0.02222222222222229 
90.00026027234324 0.014746543778801694 
91.00026027234324 0.008294930875576072 
92.00026027234324 0.005939580133128508 
93.00026027234324 0.004608294930875568 
94.00026027234324 0.006963645673323023 
95.00026027234324 0.008602150537634308 
96.00026027234324 0.008602150537634282 
97.00026027234324 0.009421402969790126 
98.00026027234324 0.010650281618023689 
99.00026027234324 0.009831029185867781 
100.00026027234324 0.014336917562724105 
101.00026027234324 0.011059907834101398 
102.00026027234324 0.011879160266257054 
103.00026027234324 0.010650281618023567 
104.00026027234324 0.015975422427035205 
105.00026027234324 0.013108038914490562 
106.00026027234324 0.013927291346646178 
107.00026027234324 0.017204301075268755 
108.00026027234324 0.014746543778801826 
109.00026027234324 0.014746543778801809 
110.00026027234324 0.018433179723502224 
111.00026027234324 0.016794674859190964 
112.00026027234324 0.013517665130568337 
113.00026027234324 0.01843317972350229 
114.00026027234324 0.010650281618023512 
115.00026027234324 0.012698412698412709 
116.00026027234324 0.010650281618023595 
117.00026027234324 0.012288786482334849 
118.00026027234324 0.009831029185867776 
119.00026027234324 0.011879160266257148 
120.00026027234324 0.01187916026625716 
121.00026027234324 0.010650281618023685 
122.00026027234324 0.01187916026625707 
123.00026027234324 0.011469534050179243 
124.00026027234324 0.011469534050179178 
125.00026027234324 0.013108038914490703 
126.00026027234324 0.009011776753712319 
127.00026027234324 0.00614439324116736 
128.00026027234324 0.006144393241167352 
129.00026027234324 0.004505888376856141 
130.00026027234324 0.003686635944700405 
131.00026027234324 0.002048131080389195 
132.00026027234324 8.192524321556703E-4 
133.00026027234324 4.096262160778353E-4 
134.00026027234324 4.096262160778354E-4 
135.00026027234324 1.1093356479670479E-31 
136.00026027234324 1.1093356479670479E-31 
137.00026027234324 1.1093356479670479E-31 
138.00026027234324 1.1093356479670479E-31 
139.00026027234324 1.1093356479670479E-31 
140.00026027234324 1.1093356479670479E-31 
141.00026027234324 1.1093356479670479E-31 
142.00026027234324 1.1093356479670479E-31 
143.00026027234324 1.1093356479670479E-31 
144.00026027234324 1.1093356479670479E-31 
145.00026027234324 1.1093356479670479E-31 
146.00026027234324 1.1093356479670479E-31 
147.00026027234324 1.1093356479670479E-31 
148.00026027234324 1.1093356479670479E-31 
149.00026027234324 1.1093356479670479E-31 
150.00026027234324 1.1093356479670479E-31 
151.00026027234324 1.1093356479670479E-31 
152.00026027234324 1.1093356479670479E-31 
153.00026027234324 1.1093356479670479E-31 
154.00026027234324 1.1093356479670479E-31 
155.00026027234324 1.1093356479670479E-31 
156.00026027234324 1.1093356479670479E-31 
157.00026027234324 1.1093356479670479E-31 
158.00026027234324 1.1093356479670479E-31 
159.00026027234324 1.1093356479670479E-31 
160.00026027234324 1.1093356479670479E-31 
161.00026027234324 1.1093356479670479E-31 
162.00026027234324 1.1093356479670479E-31 
163.00026027234324 1.1093356479670479E-31 
164.00026027234324 1.1093356479670479E-31 
165.00026027234324 1.1093356479670479E-31 
166.00026027234324 1.1093356479670479E-31 
167.00026027234324 1.1093356479670479E-31 
168.00026027234324 1.1093356479670479E-31 
169.00026027234324 1.1093356479670479E-31 
170.00026027234324 1.1093356479670479E-31 
171.00026027234324 1.1093356479670479E-31 
172.00026027234324 1.1093356479670479E-31 
173.00026027234324 1.1093356479670479E-31 
174.00026027234324 1.1093356479670479E-31 
175.00026027234324 1.1093356479670479E-31 
176.00026027234324 1.1093356479670479E-31 
177.00026027234324 1.1093356479670479E-31 
178.00026027234324 1.1093356479670479E-31 
179.00026027234324 1.1093356479670479E-31 
180.00026027234324 1.1093356479670479E-31 
181.00026027234324 1.1093356479670479E-31 
182.00026027234324 1.1093356479670479E-31 
183.00026027234324 1.1093356479670479E-31 
184.00026027234324 1.1093356479670479E-31 
185.00026027234324 1.1093356479670479E-31 
186.00026027234324 1.1093356479670479E-31 
187.00026027234324 1.1093356479670479E-31 
188.00026027234324 1.1093356479670479E-31 
189.00026027234324 1.1093356479670479E-31 
190.00026027234324 1.1093356479670479E-31 
191.00026027234324 1.1093356479670479E-31 
192.00026027234324 1.1093356479670479E-31 
193.00026027234324 1.1093356479670479E-31 
194.00026027234324 1.1093356479670479E-31 
195.00026027234324 1.1093356479670479E-31 
196.00026027234324 1.1093356479670479E-31 
197.00026027234324 1.1093356479670479E-31 
198.00026027234324 1.1093356479670479E-31 
199.00026027234324 1.1093356479670479E-31 
200.00026027234324 1.1093356479670479E-31 
201.00026027234324 1.1093356479670479E-31 
202.00026027234324 1.1093356479670479E-31 
203.00026027234324 1.1093356479670479E-31 
204.00026027234324 1.1093356479670479E-31 
205.00026027234324 1.1093356479670479E-31 
#####################################################################
# End of data export. Simulation finished at: 2017-05-23T22:13+0000 #
#####################################################################
