#####################################################################
# Alchemist log file - simulation started at: 2017-05-26T08:28+0000 #
#####################################################################
# random = 9.0, targets = 31.622776601683793, density = 0.11269076455391362, gridShift = 0.0, perturbation = 0.5, connfactor = 0.5
#
# The columns have the following meaning: 
# time se[Mean] 
0.0 NaN 
1.0274843760556778 NaN 
2.0274843760556776 NaN 
3.0274843760556776 1.0445030576440903 
4.0274843760556776 1.033251606199951 
5.0274843760556776 1.030808450738483 
6.0274843760556776 1.0029853776836903 
7.0274843760556776 1.0122309255338946 
8.027484376055678 1.0443534726784425 
9.027484376055678 1.0486183173345838 
10.027484376055678 0.8752616055511635 
11.027484376055678 0.8480883848578634 
12.027484376055678 0.7901369719404803 
13.027484376055678 0.7040289605284975 
14.027484376055678 0.6900516351357341 
15.027484376055678 0.681348509319577 
16.02748437605568 0.6656559544696778 
17.02748437605568 0.6749856651338733 
18.02748437605568 0.6781326205482975 
19.02748437605568 0.6638399471171548 
20.02748437605568 0.668360117283669 
21.02748437605568 0.6627961471641985 
22.02748437605568 0.6586165029079292 
23.02748437605568 0.6586165029079292 
24.02748437605568 0.6565266807797945 
25.02748437605568 0.6565266807797945 
26.02748437605568 0.6565266807797945 
27.02748437605568 0.6565266807797945 
28.02748437605568 0.6565266807797945 
29.02748437605568 0.6565266807797945 
30.02748437605568 0.6565266807797945 
31.02748437605568 0.6565266807797945 
32.02748437605568 0.6565266807797945 
#####################################################################
# End of data export. Simulation finished at: 2017-05-26T08:28+0000 #
#####################################################################
