#####################################################################
# Alchemist log file - simulation started at: 2017-05-23T09:31+0000 #
#####################################################################
# random = 11.0, targets = 10.0, density = 20.0, gridShift = 1.0, perturbation = 0.0, connfactor = 0.25
#
# The columns have the following meaning: 
# time se[Mean] 
0.0 NaN 
1.0000311017741008 NaN 
2.000031101774101 1.0 
3.000031101774101 0.9999098243948742 
4.000031101774101 0.9993782629330802 
5.000031101774101 0.9976222116753678 
6.000031101774101 0.9971333649738965 
7.000031101774101 0.9943331751305173 
8.000031101774102 0.9943948742287613 
9.000031101774102 0.9935121025154248 
10.000031101774102 0.9928998576174656 
11.000031101774102 0.9905742762221168 
12.000031101774102 0.9895443758898909 
13.000031101774102 0.9880541053630754 
14.000031101774102 0.9850783103939249 
15.000031101774102 0.9840056953013765 
16.000031101774102 0.9800996677740863 
17.000031101774102 0.9773327005220693 
18.000031101774102 0.9753393450403416 
19.000031101774102 0.9731324157570004 
20.000031101774102 0.9706264831514001 
21.000031101774102 0.9696630280018982 
22.000031101774102 0.9660939724727099 
23.000031101774102 0.9649691504508778 
24.000031101774102 0.9626578073089702 
25.000031101774102 0.9607593735168485 
26.000031101774102 0.9581110583768393 
27.000031101774102 0.9554769814902705 
28.000031101774102 0.9521974371143808 
29.000031101774102 0.9485809207403892 
30.000031101774102 0.9459563360227812 
31.000031101774102 0.9411912672045561 
32.0000311017741 0.9384100616990985 
33.0000311017741 0.934793545325107 
34.0000311017741 0.9294447081158045 
35.0000311017741 0.9256525866160417 
36.0000311017741 0.9199810156620789 
37.0000311017741 0.913735168485999 
38.0000311017741 0.9078215472235406 
39.0000311017741 0.9017180825818699 
40.0000311017741 0.8954342667299477 
41.0000311017741 0.8890412909349787 
42.0000311017741 0.8853773137161842 
43.0000311017741 0.8784670147128623 
44.0000311017741 0.874138585666825 
45.0000311017741 0.869667774086379 
46.0000311017741 0.8651589938300904 
47.0000311017741 0.8607403891789274 
48.0000311017741 0.8554485049833889 
49.0000311017741 0.8502562885619366 
50.0000311017741 0.846373991457048 
51.0000311017741 0.8413146654010443 
52.0000311017741 0.8367536782154724 
53.0000311017741 0.8329615567157096 
54.0000311017741 0.8268485999050783 
55.0000311017741 0.8240389178927384 
56.0000311017741 0.818357854769815 
57.0000311017741 0.8150972947318463 
58.0000311017741 0.8110014238253442 
59.0000311017741 0.8055766492643568 
60.0000311017741 0.8033792121499764 
61.0000311017741 0.7981917418130042 
62.0000311017741 0.7924916943521597 
63.0000311017741 0.7893925011865213 
64.0000311017741 0.7857000474608447 
65.0000311017741 0.7799715234931178 
66.0000311017741 0.7758471760797341 
67.0000311017741 0.7723208353108677 
68.0000311017741 0.7655766492643568 
69.0000311017741 0.7627669672520168 
70.0000311017741 0.7604176554342665 
71.0000311017741 0.7531656383483638 
72.0000311017741 0.7494304698623637 
73.0000311017741 0.7464072140484098 
74.0000311017741 0.7430802088277173 
75.0000311017741 0.73828666350261 
76.0000311017741 0.7333981964878973 
77.0000311017741 0.7312909349786442 
78.0000311017741 0.7274798291409587 
79.0000311017741 0.7213621262458458 
80.0000311017741 0.7203464641670616 
81.0000311017741 0.7158329378262933 
82.0000311017741 0.7113716184148093 
83.0000311017741 0.7108305647840532 
84.0000311017741 0.7068153773137166 
85.0000311017741 0.703004271476031 
86.0000311017741 0.6999620313241581 
87.0000311017741 0.6980968201233987 
88.0000311017741 0.6941101091599421 
89.0000311017741 0.6910061699098246 
90.0000311017741 0.6879401993355488 
91.0000311017741 0.6816184148077845 
92.0000311017741 0.6789131466540109 
93.0000311017741 0.6732747982914078 
94.0000311017741 0.6695253915519702 
95.0000311017741 0.6652301850972953 
96.0000311017741 0.6598908400569535 
97.0000311017741 0.6556098718557203 
98.0000311017741 0.6482629330802102 
99.0000311017741 0.6442667299477945 
100.0000311017741 0.6377978168011399 
101.0000311017741 0.6299857617465585 
102.0000311017741 0.6229235880398678 
103.0000311017741 0.6168248694826759 
104.0000311017741 0.6095491219743702 
105.0000311017741 0.6012624584717599 
106.0000311017741 0.5948837209302315 
107.0000311017741 0.5841907925961097 
108.0000311017741 0.5767584242999526 
109.0000311017741 0.5718509729473192 
110.0000311017741 0.561613668723305 
111.0000311017741 0.5550450878025617 
112.0000311017741 0.549212149976269 
113.0000311017741 0.5409349786426185 
114.0000311017741 0.5351162790697668 
115.0000311017741 0.5286710963455139 
116.0000311017741 0.5231181775035587 
117.0000311017741 0.5176886568580938 
118.0000311017741 0.5122733744660652 
119.0000311017741 0.5041575700047449 
120.0000311017741 0.5057332700522073 
121.0000311017741 0.5266729947793061 
122.0000311017741 0.5191836734693867 
123.0000311017741 0.5331466540104405 
124.0000311017741 0.5478262933080214 
125.0000311017741 0.5261461794019925 
126.0000311017741 0.5727906976744189 
127.0000311017741 0.5049216896060751 
128.00003110177408 0.5181347887992412 
129.00003110177408 0.558694826767917 
130.00003110177408 0.5034314190792593 
131.00003110177408 0.5127100142382536 
132.00003110177408 0.5387422876127195 
133.00003110177408 0.4738965353583293 
134.00003110177408 0.5033459895586138 
135.00003110177408 0.5285666824869482 
136.00003110177408 0.47414333175130585 
137.00003110177408 0.4603701945894637 
138.00003110177408 0.47674893213099195 
139.00003110177408 0.45098243948742356 
140.00003110177408 0.42177503559563384 
141.00003110177408 0.4279639297579499 
142.00003110177408 0.4200711912672034 
143.00003110177408 0.3939012814428099 
144.00003110177408 0.40006644518272333 
145.00003110177408 0.38692928334124393 
146.00003110177408 0.38607024205030915 
147.00003110177408 0.36113431419079367 
148.00003110177408 0.3624015187470342 
149.00003110177408 0.396478405315615 
150.00003110177408 0.34474608448030397 
151.00003110177408 0.3818652112007593 
152.00003110177408 0.3643663977218798 
153.00003110177408 0.3504888467014729 
154.00003110177408 0.3616611295681067 
155.00003110177408 0.3438395823445645 
156.00003110177408 0.33379212149976206 
157.00003110177408 0.337650688182249 
158.00003110177408 0.3114997626957769 
159.00003110177408 0.3096630280019003 
160.00003110177408 0.32969625059326124 
161.00003110177408 0.3311865211200757 
162.00003110177408 0.3032225913621253 
163.00003110177408 0.302714760322735 
164.00003110177408 0.3045230185097303 
165.00003110177408 0.3016896060749879 
166.00003110177408 0.26600379686758524 
167.00003110177408 0.2815567157095386 
168.00003110177408 0.2538490745135261 
169.00003110177408 0.26340294257237773 
170.00003110177408 0.26787375415282266 
171.00003110177408 0.23794019933554733 
172.00003110177408 0.24088751779781667 
173.00003110177408 0.23911722828666337 
174.00003110177408 0.24290460370194594 
175.00003110177408 0.24124822021831996 
176.00003110177408 0.23068818224964327 
177.00003110177408 0.22261509254864792 
178.00003110177408 0.2333364973896542 
179.00003110177408 0.20364499288087348 
180.00003110177408 0.2290033222591354 
181.00003110177408 0.2127195064072147 
182.00003110177408 0.2198433792121501 
183.00003110177408 0.20392975794969176 
184.00003110177408 0.19542002847650708 
185.00003110177408 0.19520645467489334 
186.00003110177408 0.19292358803986676 
187.00003110177408 0.19263407688656864 
188.00003110177408 0.19192691029900355 
189.00003110177408 0.18958709065021356 
190.00003110177408 0.18921214997626928 
191.00003110177408 0.18771238728049328 
192.00003110177408 0.18652586616041758 
193.00003110177408 0.18567631703844353 
194.00003110177408 0.18527764594209806 
195.00003110177408 0.18519221642145256 
196.00003110177408 0.18340294257237785 
197.00003110177408 0.18310393925011823 
198.00003110177408 0.18185571903179926 
199.00003110177408 0.1806834361651637 
200.00003110177408 0.17968675842430018 
201.00003110177408 0.17800664451827208 
202.00003110177408 0.17681537731371674 
203.00003110177408 0.17619364024679593 
204.00003110177408 0.17509729473184635 
205.00003110177408 0.17268153773137157 
206.00003110177408 0.1722876127195065 
207.00003110177408 0.1709017560512574 
208.00003110177408 0.1701945894636928 
209.00003110177408 0.16872330327479815 
210.00003110177408 0.16739439962031313 
211.00003110177408 0.16688182249644024 
212.00003110177408 0.1655481727574751 
213.00003110177408 0.16409112482202184 
214.00003110177408 0.1639060275272899 
215.00003110177408 0.162282866635026 
216.00003110177408 0.16180825818699573 
217.00003110177408 0.16087802562885622 
218.00003110177408 0.159734219269103 
219.00003110177408 0.15965828191741813 
220.00003110177408 0.15943996203132413 
221.00003110177408 0.15956336022781206 
222.00003110177408 0.1594542002847651 
223.00003110177408 0.15956810631229235 
224.00003110177408 0.15976744186046513 
225.00003110177408 0.15996203132415757 
226.00003110177408 0.15994304698623635 
227.00003110177408 0.15996677740863788 
228.00003110177408 0.16 
229.00003110177408 0.16 
230.00003110177408 0.16 
231.00003110177408 0.16 
232.00003110177408 0.16 
233.00003110177408 0.16 
234.00003110177408 0.16 
235.00003110177408 0.16 
236.00003110177408 0.16 
237.00003110177408 0.16 
238.00003110177408 0.16 
239.00003110177408 0.16 
240.00003110177408 0.16 
241.00003110177408 0.16 
242.00003110177408 0.16 
243.00003110177408 0.16 
244.00003110177408 0.16 
245.00003110177408 0.16 
246.00003110177408 0.16 
247.00003110177408 0.16 
248.00003110177408 0.16 
249.00003110177408 0.16 
250.00003110177408 0.16 
251.00003110177408 0.16 
252.00003110177408 0.16 
253.00003110177408 0.16 
254.00003110177408 0.16 
255.00003110177408 0.16 
256.0000311017741 0.16 
257.0000311017741 0.16 
258.0000311017741 0.16 
259.0000311017741 0.16 
260.0000311017741 0.16 
261.0000311017741 0.16 
262.0000311017741 0.16 
263.0000311017741 0.16 
264.0000311017741 0.16 
265.0000311017741 0.16 
266.0000311017741 0.16 
267.0000311017741 0.16 
268.0000311017741 0.16 
269.0000311017741 0.16 
270.0000311017741 0.16 
271.0000311017741 0.16 
272.0000311017741 0.16 
273.0000311017741 0.16 
274.0000311017741 0.16 
275.0000311017741 0.16 
276.0000311017741 0.16 
277.0000311017741 0.16 
278.0000311017741 0.16 
279.0000311017741 0.16 
280.0000311017741 0.16 
281.0000311017741 0.16 
282.0000311017741 0.16 
283.0000311017741 0.16 
284.0000311017741 0.16 
285.0000311017741 0.16 
286.0000311017741 0.16 
287.0000311017741 0.16 
288.0000311017741 0.16 
289.0000311017741 0.16 
290.0000311017741 0.16 
291.0000311017741 0.16 
292.0000311017741 0.16 
293.0000311017741 0.16 
294.0000311017741 0.16 
295.0000311017741 0.16 
296.0000311017741 0.16 
297.0000311017741 0.16 
298.0000311017741 0.16 
299.0000311017741 0.16 
300.0000311017741 0.16 
301.0000311017741 0.16 
302.0000311017741 0.16 
303.0000311017741 0.16 
304.0000311017741 0.16 
305.0000311017741 0.16 
306.0000311017741 0.16 
307.0000311017741 0.16 
308.0000311017741 0.16 
309.0000311017741 0.16 
310.0000311017741 0.16 
311.0000311017741 0.16 
312.0000311017741 0.16 
313.0000311017741 0.16 
314.0000311017741 0.16 
315.0000311017741 0.16 
316.0000311017741 0.16 
317.0000311017741 0.16 
318.0000311017741 0.16 
319.0000311017741 0.16 
320.0000311017741 0.16 
321.0000311017741 0.16 
322.0000311017741 0.16 
323.0000311017741 0.16 
324.0000311017741 0.16 
325.0000311017741 0.16 
326.0000311017741 0.16 
327.0000311017741 0.16 
328.0000311017741 0.16 
329.0000311017741 0.16 
#####################################################################
# End of data export. Simulation finished at: 2017-05-23T09:38+0000 #
#####################################################################
