#####################################################################
# Alchemist log file - simulation started at: 2017-05-24T03:35+0000 #
#####################################################################
# random = 13.0, targets = 100.0, density = 0.2247883923996312, gridShift = 0.0, perturbation = 0.5, connfactor = 0.1
#
# The columns have the following meaning: 
# time se[Mean] 
0.0 NaN 
1.0093475742791087 NaN 
2.0093475742791087 NaN 
3.0093475742791087 0.9995389660493827 
4.009347574279109 0.9985251543209877 
5.009347574279109 0.9969585648148148 
6.009347574279109 0.9929088734567901 
7.009347574279109 0.9887952160493827 
8.009347574279108 0.9820163580246913 
9.009347574279108 0.9739034722222222 
10.009347574279108 0.9616277777777777 
11.009347574279108 0.9534236111111111 
12.009347574279108 0.9375298611111111 
13.009347574279108 0.9362388888888888 
14.009347574279108 0.9223722222222221 
15.009347574279108 0.9131909722222222 
16.009347574279108 0.9141284722222222 
17.009347574279108 0.9036604166666666 
18.009347574279108 0.9303194444444444 
19.009347574279108 0.9307680555555555 
20.009347574279108 0.9369229166666666 
21.009347574279108 0.9403638888888889 
22.009347574279108 0.9403638888888889 
23.009347574279108 0.9409 
24.009347574279108 0.9409 
25.009347574279108 0.9409 
26.009347574279108 0.9409 
27.009347574279108 0.9409 
28.009347574279108 0.9409 
29.009347574279108 0.9409 
30.009347574279108 0.9409 
31.009347574279108 0.9409 
32.009347574279104 0.9409 
33.009347574279104 0.9409 
34.009347574279104 0.9409 
35.009347574279104 0.9409 
36.009347574279104 0.9409 
#####################################################################
# End of data export. Simulation finished at: 2017-05-24T03:35+0000 #
#####################################################################
