#####################################################################
# Alchemist log file - simulation started at: 2017-05-23T23:08+0000 #
#####################################################################
# random = 13.0, targets = 3.1622776601683795, density = 2.519842099789746, gridShift = 0.0, perturbation = 0.0, connfactor = 2.0
#
# The columns have the following meaning: 
# time se[Mean] 
0.0 NaN 
1.0019663140528798 NaN 
2.00196631405288 1.1867114518414836 
3.00196631405288 1.3275576130137332 
4.00196631405288 1.3877316694608628 
5.00196631405288 1.322730652371852 
6.00196631405288 1.2734408065829377 
7.00196631405288 1.2230461295902528 
8.00196631405288 1.2960973165603555 
9.00196631405288 1.247242534534143 
10.00196631405288 1.30232240977177 
11.00196631405288 1.328276734461551 
12.00196631405288 1.3264645633017504 
13.00196631405288 1.476000571158209 
14.00196631405288 1.426766259019836 
15.00196631405288 1.5932729506180374 
16.00196631405288 1.5708702761313569 
17.00196631405288 1.6735819610136764 
18.00196631405288 1.7150744732850454 
19.00196631405288 2.1720433847687093 
20.00196631405288 2.5237297146654547 
21.00196631405288 2.619323366926914 
22.00196631405288 2.6891437978796575 
23.00196631405288 2.6719627943551876 
24.00196631405288 3.209521566749416 
25.00196631405288 3.1606231574553525 
26.00196631405288 3.5348547735640397 
27.00196631405288 3.4072605920739187 
28.00196631405288 3.406027167095939 
29.00196631405288 3.676588157580656 
30.00196631405288 3.9007488300454236 
31.00196631405288 4.0213180001824576 
32.00196631405288 4.046570212091514 
33.00196631405288 3.485980541885285 
34.00196631405288 3.2129930682180388 
35.00196631405288 2.6823885701643686 
36.00196631405288 2.6256968905168034 
37.00196631405288 2.615653880757299 
38.00196631405288 2.4333268172558715 
39.00196631405288 2.1900010321742154 
40.00196631405288 1.7217367572637943 
41.00196631405288 1.0040401981429439 
42.00196631405288 0.7100054295269904 
43.00196631405288 0.4410721281012151 
44.00196631405288 0.3975833705695267 
45.00196631405288 0.36285865719486093 
46.00196631405288 0.3348922559199854 
47.00196631405288 0.3079287506686052 
48.00196631405288 0.2922944728710077 
49.00196631405288 0.26714959486713147 
50.00196631405288 0.24536993161567577 
51.00196631405288 0.23569416424741954 
52.00196631405288 0.3630098965659514 
53.00196631405288 0.4634201217739718 
54.00196631405288 0.5091495483347659 
55.00196631405288 0.5598131627941598 
56.00196631405288 0.5544233272884058 
57.00196631405288 0.8003999266208436 
58.00196631405288 0.7735182189446516 
59.00196631405288 0.9423177394140893 
60.00196631405288 0.8975776606699809 
61.00196631405288 0.9120624875342953 
62.00196631405288 1.0560443536282558 
63.00196631405288 1.1415891694083817 
64.00196631405288 1.2635666016087963 
65.00196631405288 1.284265732654395 
66.00196631405288 1.2004733663285876 
67.00196631405288 1.149262721661154 
68.00196631405288 1.1164498399282738 
69.00196631405288 1.1347106329787395 
70.00196631405288 1.1304922460437785 
71.00196631405288 0.9745908879352776 
72.00196631405288 0.7456009352257853 
73.00196631405288 0.5160087266751229 
74.00196631405288 0.2363667245438738 
75.00196631405288 0.10750644963350411 
76.00196631405288 0.004029616446326066 
77.00196631405288 0.0036991572314727505 
78.00196631405288 0.0030549243662460622 
79.00196631405288 0.0028193131239441353 
80.00196631405288 0.0026334038989723777 
81.00196631405288 0.0026334038989723777 
82.00196631405288 0.0026334038989723777 
83.00196631405288 0.0026334038989723777 
84.00196631405288 0.0026334038989723777 
85.00196631405288 0.0026334038989723777 
86.00196631405288 0.0026334038989723777 
87.00196631405288 0.0026334038989723777 
88.00196631405288 0.0026334038989723777 
89.00196631405288 0.0026334038989723777 
90.00196631405288 0.0026334038989723777 
91.00196631405288 0.0026334038989723777 
92.00196631405288 0.0026334038989723777 
93.00196631405288 0.0026334038989723777 
94.00196631405288 0.0026334038989723777 
95.00196631405288 0.0026334038989723777 
96.00196631405288 0.0026334038989723777 
97.00196631405288 0.0026334038989723777 
98.00196631405288 0.0026334038989723777 
99.00196631405288 0.0026334038989723777 
100.00196631405288 0.0026334038989723777 
101.00196631405288 0.0026334038989723777 
102.00196631405288 0.0026334038989723777 
103.00196631405288 0.0026334038989723777 
104.00196631405288 0.0026334038989723777 
105.00196631405288 0.0026334038989723777 
106.00196631405288 0.0026334038989723777 
107.00196631405288 0.0026334038989723777 
108.00196631405288 0.0026334038989723777 
109.00196631405288 0.0026334038989723777 
110.00196631405288 0.0026334038989723777 
111.00196631405288 0.0026334038989723777 
112.00196631405288 0.0026334038989723777 
113.00196631405288 0.0026334038989723777 
114.00196631405288 0.0026334038989723777 
115.00196631405288 0.0026334038989723777 
#####################################################################
# End of data export. Simulation finished at: 2017-05-23T23:08+0000 #
#####################################################################
