#####################################################################
# Alchemist log file - simulation started at: 2017-05-23T17:21+0000 #
#####################################################################
# random = 5.0, targets = 100.0, density = 0.4483936332993466, gridShift = 0.0, perturbation = 0.5, connfactor = 1.5
#
# The columns have the following meaning: 
# time se[Mean] 
0.0 NaN 
1.0052461206074068 NaN 
2.005246120607407 1.085260546875 
3.005246120607407 1.1269771918402778 
4.005246120607406 1.2199009440104167 
5.005246120607406 1.2520654405381946 
6.005246120607406 1.237497873263889 
7.005246120607406 1.3103172960069445 
8.005246120607406 1.437835959201389 
9.005246120607406 1.7220014973958333 
10.005246120607406 2.4508404622395834 
11.005246120607406 2.6778042860243056 
12.005246120607406 3.3288786132812493 
13.005246120607406 4.932654264322916 
14.005246120607406 4.366947884114583 
15.005246120607406 5.403438400607639 
16.005246120607406 5.941012402343751 
17.005246120607406 5.647022233072915 
18.005246120607406 6.6451288953993055 
19.005246120607406 5.051196408420139 
20.005246120607406 6.492819097222221 
21.005246120607406 7.039996299913194 
22.005246120607406 5.990356206597221 
23.005246120607406 6.887549565972222 
24.005246120607406 6.5641943901909725 
25.005246120607406 8.57635314670139 
26.005246120607406 9.12375986328125 
27.005246120607406 15.53294098307292 
28.005246120607406 14.639463888888892 
29.005246120607406 18.39124449869792 
30.005246120607406 23.379709266493062 
31.005246120607406 19.29073663194445 
32.00524612060741 25.27832766927084 
33.00524612060741 19.315496191406258 
34.00524612060741 20.948527951388893 
35.00524612060741 22.914199348958345 
36.00524612060741 15.703999793836807 
37.00524612060741 15.779389160156256 
38.00524612060741 11.694802853732641 
39.00524612060741 8.939828114149305 
40.00524612060741 8.898910221354168 
41.00524612060741 8.877953125000001 
42.00524612060741 8.8773015625 
43.00524612060741 8.879624175347223 
44.00524612060741 8.880089670138888 
45.00524612060741 8.8804 
46.00524612060741 8.8804 
47.00524612060741 8.8804 
48.00524612060741 8.8804 
49.00524612060741 8.8804 
50.00524612060741 8.8804 
51.00524612060741 8.8804 
52.00524612060741 8.8804 
53.00524612060741 8.8804 
54.00524612060741 8.8804 
55.00524612060741 8.8804 
56.00524612060741 8.8804 
57.00524612060741 8.8804 
58.00524612060741 8.8804 
59.00524612060741 8.8804 
60.00524612060741 8.8804 
61.00524612060741 8.8804 
#####################################################################
# End of data export. Simulation finished at: 2017-05-23T17:22+0000 #
#####################################################################
