#####################################################################
# Alchemist log file - simulation started at: 2017-05-23T08:46+0000 #
#####################################################################
# random = 11.0, targets = 10.0, density = 10.026386447354522, gridShift = 1.0, perturbation = 0.5, connfactor = 1.0
#
# The columns have the following meaning: 
# time se[Mean] 
0.0 NaN 
1.0000311017741008 NaN 
2.000031101774101 1.0005668202764977 
3.000031101774101 1.0013379416282642 
4.000031101774101 1.001168714797747 
5.000031101774101 1.0021966205837174 
6.000031101774101 0.9977339989759345 
7.000031101774101 0.9945668202764978 
8.000031101774102 0.9957690732206862 
9.000031101774102 0.9908061955965183 
10.000031101774102 0.993047363031234 
11.000031101774102 0.991826676907322 
12.000031101774102 0.9915192012288787 
13.000031101774102 0.9917839221710189 
14.000031101774102 0.9898812083973375 
15.000031101774102 0.9900445468509983 
16.000031101774102 0.9890376344086023 
17.000031101774102 0.9869580133128522 
18.000031101774102 0.986442396313364 
19.000031101774102 0.9851733230926778 
20.000031101774102 0.982767793138761 
21.000031101774102 0.9793689196108553 
22.000031101774102 0.9765409626216076 
23.000031101774102 0.9729073220686126 
24.000031101774102 0.9670309779825911 
25.000031101774102 0.9623886328725038 
26.000031101774102 0.9600829493087555 
27.000031101774102 0.9537252944188429 
28.000031101774102 0.9495893497183822 
29.000031101774102 0.9458822324628774 
30.000031101774102 0.9402726574500766 
31.000031101774102 0.9383251408090116 
32.0000311017741 0.9344477726574504 
33.0000311017741 0.9303136200716844 
34.0000311017741 0.9306426011264721 
35.0000311017741 0.9271428571428572 
36.0000311017741 0.9260199692780338 
37.0000311017741 0.9251607782898107 
38.0000311017741 0.9253184843830006 
39.0000311017741 0.9244288274449562 
40.0000311017741 0.9223620071684586 
41.0000311017741 0.9209493087557604 
42.0000311017741 0.9164124423963137 
43.0000311017741 0.913251664106503 
44.0000311017741 0.9126088069636459 
45.0000311017741 0.9102916026625707 
46.0000311017741 0.9053707117255504 
47.0000311017741 0.8985378904249871 
48.0000311017741 0.89423783922171 
49.0000311017741 0.8897803379416284 
50.0000311017741 0.8898489503328215 
51.0000311017741 0.8847903225806454 
52.0000311017741 0.8909674859190986 
53.0000311017741 0.879989759344598 
54.0000311017741 0.8831024065540195 
55.0000311017741 0.8787626728110599 
56.0000311017741 0.8811236559139787 
57.0000311017741 0.880910138248848 
58.0000311017741 0.8895314900153608 
59.0000311017741 0.8842877624167945 
60.0000311017741 0.885709165386585 
61.0000311017741 0.8885133128520226 
62.0000311017741 0.8930156169994882 
63.0000311017741 0.8880389144905275 
64.0000311017741 0.8990138248847929 
65.0000311017741 0.8937427035330262 
66.0000311017741 0.9027434715821814 
67.0000311017741 0.8944139784946235 
68.0000311017741 0.9091331285202255 
69.0000311017741 0.8977775217613928 
70.0000311017741 0.9032229902713773 
71.0000311017741 0.9074308755760369 
72.0000311017741 1.0041884280593958 
73.0000311017741 1.013864055299539 
74.0000311017741 1.4120442908346145 
75.0000311017741 1.7066456733230928 
76.0000311017741 1.8106850998463866 
77.0000311017741 1.9023013312851986 
78.0000311017741 1.5064301075268791 
79.0000311017741 2.301365079365068 
80.0000311017741 1.988892217101889 
81.0000311017741 2.582824628776241 
82.0000311017741 2.573778289810539 
83.0000311017741 2.3692585765488863 
84.0000311017741 2.36070430107527 
85.0000311017741 2.6436620583717385 
86.0000311017741 2.2419062980030757 
87.0000311017741 2.627890168970809 
88.0000311017741 2.9175755248335924 
89.0000311017741 2.5080865335381497 
90.0000311017741 2.308132104454683 
91.0000311017741 2.997373783922169 
92.0000311017741 2.586577060931895 
93.0000311017741 2.6719114183307724 
94.0000311017741 2.166486175115206 
95.0000311017741 3.3519050179211436 
96.0000311017741 2.7310478750640006 
97.0000311017741 2.9314516129032224 
98.0000311017741 3.311163338453656 
99.0000311017741 2.79353661034306 
100.0000311017741 2.983382744495646 
101.0000311017741 3.4650862775217597 
102.0000311017741 3.3521213517665127 
103.0000311017741 3.8321797235023056 
104.0000311017741 2.41953097798259 
105.0000311017741 3.6090839733742937 
106.0000311017741 3.676714029697901 
107.0000311017741 3.1741538658474133 
108.0000311017741 3.7520207373271828 
109.0000311017741 3.927582437275987 
110.0000311017741 3.711376088069638 
111.0000311017741 3.9933310291858657 
112.0000311017741 3.1725258576548887 
113.0000311017741 4.352095494111618 
114.0000311017741 3.4214418842805907 
115.0000311017741 4.311437019969281 
116.0000311017741 2.9843794162826454 
117.0000311017741 2.2804828469022036 
118.0000311017741 2.556411674347159 
119.0000311017741 1.6373781362007205 
120.0000311017741 1.733808499743984 
121.0000311017741 1.42373169482847 
122.0000311017741 1.2146518177163323 
123.0000311017741 1.5075204813107983 
124.0000311017741 1.0940750128008192 
125.0000311017741 1.003653865847412 
126.0000311017741 1.0810104966717893 
127.0000311017741 0.7839805427547353 
128.00003110177408 0.8524723502304153 
129.00003110177408 0.946946492575524 
130.00003110177408 1.042356374807988 
131.00003110177408 1.2544495647721443 
132.00003110177408 1.3222427035330229 
133.00003110177408 1.092078341013824 
134.00003110177408 0.9889946236559141 
135.00003110177408 1.382969790066563 
136.00003110177408 1.0509887352790548 
137.00003110177408 1.4991490015361009 
138.00003110177408 1.4955855094726063 
139.00003110177408 1.3391410650281608 
140.00003110177408 1.3359244751664074 
141.00003110177408 1.5568771121351754 
142.00003110177408 1.2550348182283646 
143.00003110177408 1.54881003584229 
144.00003110177408 1.7624157706093162 
145.00003110177408 1.464774705581154 
146.00003110177408 1.3076075268817218 
147.00003110177408 1.8285320020481324 
148.00003110177408 1.5199672299027105 
149.00003110177408 1.594214285714282 
150.00003110177408 1.2176730670762927 
151.00003110177408 2.1043484383000473 
152.00003110177408 1.6609833589349674 
153.00003110177408 1.8056223758320527 
154.00003110177408 2.106178955453147 
155.00003110177408 1.732883256528415 
156.00003110177408 1.8849444444444394 
157.00003110177408 2.25268228366615 
158.00003110177408 2.1801602662570363 
159.00003110177408 2.5525704045058815 
160.00003110177408 1.5061116231438796 
161.00003110177408 2.402296722990267 
162.00003110177408 2.4760686123911895 
163.00003110177408 2.105523809523806 
164.00003110177408 2.55336533538146 
165.00003110177408 2.6943709677419294 
166.00003110177408 2.552087045570909 
167.00003110177408 2.7733663594469955 
168.00003110177408 2.17564157706093 
169.00003110177408 3.072967229902699 
170.00003110177408 2.402546850998466 
171.00003110177408 3.0742519201228897 
172.00003110177408 2.105397593445973 
173.00003110177408 1.5822974910394167 
174.00003110177408 1.8093008192524362 
175.00003110177408 1.1378146441372339 
176.00003110177408 1.2160527393753093 
177.00003110177408 0.9876082949308664 
178.00003110177408 0.8373881208397285 
179.00003110177408 1.062278033794165 
180.00003110177408 0.761345366103427 
181.00003110177408 0.6873870967741915 
182.00003110177408 0.7607839221710275 
183.00003110177408 0.5370683563748022 
184.00003110177408 0.538254224270352 
185.00003110177408 0.6111134152585748 
186.00003110177408 0.4618978494623656 
187.00003110177408 0.4623668714797791 
188.00003110177408 0.461148745519709 
189.00003110177408 0.23766897081413163 
190.00003110177408 0.38656451612903125 
191.00003110177408 0.2366420890937014 
192.00003110177408 0.16240681003584242 
193.00003110177408 0.1619692780337943 
194.00003110177408 0.1610545314900155 
195.00003110177408 0.16174475166410662 
196.00003110177408 0.16104889912954443 
197.00003110177408 0.16063748079877124 
198.00003110177408 0.16052201740911431 
199.00003110177408 0.16050947260624693 
200.00003110177408 0.16043317972350246 
201.00003110177408 0.16035637480798787 
202.00003110177408 0.16034434203789058 
203.00003110177408 0.16030619559651832 
204.00003110177408 0.1602549923195086 
205.00003110177408 0.16021735791090644 
206.00003110177408 0.16012800819252446 
207.00003110177408 0.1601024065540196 
208.00003110177408 0.1601024065540196 
209.00003110177408 0.16002560163850502 
210.00003110177408 0.16000000000000014 
211.00003110177408 0.16000000000000014 
212.00003110177408 0.16000000000000014 
213.00003110177408 0.16000000000000014 
214.00003110177408 0.16000000000000014 
215.00003110177408 0.16000000000000014 
216.00003110177408 0.16000000000000014 
217.00003110177408 0.16000000000000014 
218.00003110177408 0.16000000000000014 
219.00003110177408 0.16000000000000014 
220.00003110177408 0.16000000000000014 
221.00003110177408 0.16000000000000014 
222.00003110177408 0.16000000000000014 
223.00003110177408 0.16000000000000014 
224.00003110177408 0.16000000000000014 
225.00003110177408 0.16000000000000014 
226.00003110177408 0.16000000000000014 
227.00003110177408 0.16000000000000014 
228.00003110177408 0.16000000000000014 
229.00003110177408 0.16000000000000014 
230.00003110177408 0.16000000000000014 
231.00003110177408 0.16000000000000014 
232.00003110177408 0.16000000000000014 
233.00003110177408 0.16000000000000014 
234.00003110177408 0.16000000000000014 
235.00003110177408 0.16000000000000014 
236.00003110177408 0.16000000000000014 
237.00003110177408 0.16000000000000014 
238.00003110177408 0.16000000000000014 
239.00003110177408 0.16000000000000014 
240.00003110177408 0.16000000000000014 
241.00003110177408 0.16000000000000014 
242.00003110177408 0.16000000000000014 
243.00003110177408 0.16000000000000014 
244.00003110177408 0.16000000000000014 
245.00003110177408 0.16000000000000014 
246.00003110177408 0.16000000000000014 
247.00003110177408 0.16000000000000014 
248.00003110177408 0.16000000000000014 
249.00003110177408 0.16000000000000014 
250.00003110177408 0.16000000000000014 
251.00003110177408 0.16000000000000014 
252.00003110177408 0.16000000000000014 
253.00003110177408 0.16000000000000014 
254.00003110177408 0.16000000000000014 
255.00003110177408 0.16000000000000014 
256.0000311017741 0.16000000000000014 
257.0000311017741 0.16000000000000014 
258.0000311017741 0.16000000000000014 
259.0000311017741 0.16000000000000014 
260.0000311017741 0.16000000000000014 
261.0000311017741 0.16000000000000014 
262.0000311017741 0.16000000000000014 
263.0000311017741 0.16000000000000014 
264.0000311017741 0.16000000000000014 
265.0000311017741 0.16000000000000014 
266.0000311017741 0.16000000000000014 
267.0000311017741 0.16000000000000014 
268.0000311017741 0.16000000000000014 
269.0000311017741 0.16000000000000014 
270.0000311017741 0.16000000000000014 
271.0000311017741 0.16000000000000014 
272.0000311017741 0.16000000000000014 
273.0000311017741 0.16000000000000014 
274.0000311017741 0.16000000000000014 
275.0000311017741 0.16000000000000014 
276.0000311017741 0.16000000000000014 
277.0000311017741 0.16000000000000014 
278.0000311017741 0.16000000000000014 
279.0000311017741 0.16000000000000014 
#####################################################################
# End of data export. Simulation finished at: 2017-05-23T08:48+0000 #
#####################################################################
