#####################################################################
# Alchemist log file - simulation started at: 2017-05-23T12:30+0000 #
#####################################################################
# random = 5.0, targets = 10.0, density = 20.0, gridShift = 0.0, perturbation = 0.5, connfactor = 1.0
#
# The columns have the following meaning: 
# time se[Mean] 
0.0 NaN 
1.0000808414316675 NaN 
2.0000808414316675 1.0002906427221172 
3.0000808414316675 1.0005680266750683 
4.000080841431668 1.0008205668452006 
5.000080841431668 1.0005867005356017 
6.000080841431668 0.9988471434572568 
7.000080841431668 0.9963827189666038 
8.000080841431668 0.994072706626759 
9.000080841431668 0.9923554334698593 
10.000080841431668 0.9888032648078134 
11.000080841431668 0.9862620116572148 
12.000080841431668 0.9819460525624868 
13.000080841431668 0.9796397487397605 
14.000080841431668 0.9770253426275992 
15.000080841431668 0.9749614379857173 
16.000080841431668 0.9727136499684941 
17.000080841431668 0.9710835433732411 
18.000080841431668 0.969345331863054 
19.000080841431668 0.9669045696807392 
20.000080841431668 0.9655857159735352 
21.000080841431668 0.9591038187880698 
22.000080841431668 0.958281643824827 
23.000080841431668 0.956998103077085 
24.000080841431668 0.9497399443394248 
25.000080841431668 0.9485383519743751 
26.000080841431668 0.9429309756353705 
27.000080841431668 0.938853838479311 
28.000080841431668 0.9310684467548829 
29.000080841431668 0.9238018207834494 
30.000080841431668 0.9184618515017839 
31.000080841431668 0.9115847511027102 
32.00008084143167 0.9062493108065539 
33.00008084143167 0.8979654353077076 
34.00008084143167 0.8938575469964297 
35.00008084143167 0.8796131983826934 
36.00008084143167 0.880759425540854 
37.00008084143167 0.8708438681474477 
38.00008084143167 0.8668084107855486 
39.00008084143167 0.8605690440558714 
40.00008084143167 0.8515246271791644 
41.00008084143167 0.852605512234824 
42.00008084143167 0.8430249684940132 
43.00008084143167 0.8391189810438981 
44.00008084143167 0.8367738526570045 
45.00008084143167 0.8352538201008186 
46.00008084143167 0.8304538174753207 
47.00008084143167 0.8275056776412515 
48.00008084143167 0.8245870746691878 
49.00008084143167 0.8212339844570479 
50.00008084143167 0.8198490666351603 
51.00008084143167 0.8161345765070359 
52.00008084143167 0.8138951900861159 
53.00008084143167 0.8131541430371763 
54.00008084143167 0.8095328909367789 
55.00008084143167 0.8049002966813699 
56.00008084143167 0.8044547167086751 
57.00008084143167 0.8016483209934884 
58.00008084143167 0.7992643680424275 
59.00008084143167 0.7949660982461667 
60.00008084143167 0.7915468454631369 
61.00008084143167 0.7876711497059441 
62.00008084143167 0.7822574039067428 
63.00008084143167 0.7794646279668129 
64.00008084143167 0.7746985927326198 
65.00008084143167 0.7701318656794786 
66.00008084143167 0.763383808548625 
67.00008084143167 0.7591741165196382 
68.00008084143167 0.7535421589476988 
69.00008084143167 0.7481846972799826 
70.00008084143167 0.740899791272841 
71.00008084143167 0.7361123582230625 
72.00008084143167 0.7304465317160258 
73.00008084143167 0.7238576782713718 
74.00008084143167 0.7169656453476158 
75.00008084143167 0.7094324984246997 
76.00008084143167 0.7037682800357058 
77.00008084143167 0.6987911218756554 
78.00008084143167 0.6922217955786599 
79.00008084143167 0.687251594990549 
80.00008084143167 0.6833326441398873 
81.00008084143167 0.6778192278407893 
82.00008084143167 0.6728407241125818 
83.00008084143167 0.6669395544528468 
84.00008084143167 0.6628614655534559 
85.00008084143167 0.6576710184310024 
86.00008084143167 0.6538995549779457 
87.00008084143167 0.6480134162990981 
88.00008084143167 0.6423031860428488 
89.00008084143167 0.6371458858433107 
90.00008084143167 0.6326797482146622 
91.00008084143167 0.6269543228838483 
92.00008084143167 0.622243685675277 
93.00008084143167 0.6184756025519852 
94.00008084143167 0.6148600280928388 
95.00008084143167 0.6116762825561851 
96.00008084143167 0.6089242346670874 
97.00008084143167 0.605419029615627 
98.00008084143167 0.6027195901596304 
99.00008084143167 0.5996315112371355 
100.00008084143167 0.5965826507036323 
101.00008084143167 0.5927882797731561 
102.00008084143167 0.5901729875551366 
103.00008084143167 0.5883968047679048 
104.00008084143167 0.5865947936357916 
105.00008084143167 0.5818663030350771 
106.00008084143167 0.57818036520689 
107.00008084143167 0.576863579080026 
108.00008084143167 0.5743601659315265 
109.00008084143167 0.5715802549359386 
110.00008084143167 0.5680439377231684 
111.00008084143167 0.5655266422495272 
112.00008084143167 0.5619973154274314 
113.00008084143167 0.5587929597248483 
114.00008084143167 0.5565257101974372 
115.00008084143167 0.5577467640726747 
116.00008084143167 0.5540412006406212 
117.00008084143167 0.5712292913778624 
118.00008084143167 0.5610940453686205 
119.00008084143167 0.5678299923860534 
120.00008084143167 0.5675932708464609 
121.00008084143167 0.5780669436567946 
122.00008084143167 0.558033041902962 
123.00008084143167 0.5786827544108378 
124.00008084143167 0.5642243291850453 
125.00008084143167 0.5552786967023733 
126.00008084143167 0.5856441005040957 
127.00008084143167 0.54178090868515 
128.00008084143167 0.5616468769691243 
129.00008084143167 0.5808780652699013 
130.00008084143167 0.5620756209304768 
131.00008084143167 0.5607407188615838 
132.00008084143167 0.5719343034551563 
133.00008084143167 0.5540925291430373 
134.00008084143167 0.5781832860743544 
135.00008084143167 0.5417766750682627 
136.00008084143167 0.5867129082650703 
137.00008084143167 0.5916977788279775 
138.00008084143167 0.6831349440768746 
139.00008084143167 0.644316156007142 
140.00008084143167 0.7121197621298037 
141.00008084143167 0.7831572936357908 
142.00008084143167 0.845280731463977 
143.00008084143167 0.7758816753308118 
144.00008084143167 0.9153580524049557 
145.00008084143167 0.9037657858118053 
146.00008084143167 0.8200045618042432 
147.00008084143167 1.0149010515122876 
148.00008084143167 0.8440238723482462 
149.00008084143167 0.8792967601344254 
150.00008084143167 1.0850389230203734 
151.00008084143167 0.9045459856122665 
152.00008084143167 0.9342220318735553 
153.00008084143167 1.0683369105755096 
154.00008084143167 1.0083439666036529 
155.00008084143167 1.049362003780718 
156.00008084143167 1.0225894638731352 
157.00008084143167 1.0508490535076669 
158.00008084143167 1.1138577439088437 
159.00008084143167 1.0899545132325141 
160.00008084143167 1.0329630067212754 
161.00008084143167 1.1274979324196581 
162.00008084143167 1.2111429452846052 
163.00008084143167 1.1716111373660998 
164.00008084143167 1.1905020281978569 
165.00008084143167 1.319332663831129 
166.00008084143167 1.2520910785549224 
167.00008084143167 1.2225872978365913 
168.00008084143167 1.2943490731989105 
169.00008084143167 1.250415714923334 
170.00008084143167 1.1130071807393445 
171.00008084143167 1.304068473009875 
172.00008084143167 1.0897932419659726 
173.00008084143167 0.95890608590632 
174.00008084143167 1.1273695783448867 
175.00008084143167 0.9614734955891633 
176.00008084143167 0.8867763796996444 
177.00008084143167 1.0055678297626558 
178.00008084143167 0.8959234863999177 
179.00008084143167 0.8357085236819999 
180.00008084143167 0.9380148275047262 
181.00008084143167 0.8046821505461023 
182.00008084143167 0.8350506393089681 
183.00008084143167 1.6475251719701756 
184.00008084143167 3.0463534118357543 
185.00008084143167 3.1760849873976067 
186.00008084143167 9.241814219701665 
187.00008084143167 7.512549720384345 
188.00008084143167 10.745599696754926 
189.00008084143167 12.204848475897828 
190.00008084143167 16.602949551039806 
191.00008084143167 12.180227105650026 
192.00008084143167 18.98750026254984 
193.00008084143167 16.683951572673866 
194.00008084143167 13.657420086378925 
195.00008084143167 24.30941070678417 
196.00008084143167 12.901120825456829 
197.00008084143167 19.723436154431827 
198.00008084143167 25.016794200272997 
199.00008084143167 23.416204020951454 
200.00008084143167 21.773450364944306 
201.00008084143167 27.790674326559596 
202.00008084143167 25.442471021056367 
203.00008084143167 29.89409594229158 
204.00008084143167 23.038013646030194 
205.00008084143167 29.116920683679822 
206.00008084143167 29.817655035706764 
207.00008084143167 32.88646529090528 
208.00008084143167 27.553183745536675 
209.00008084143167 32.859209888941415 
210.00008084143167 37.415266094307924 
211.00008084143167 39.68528194575718 
212.00008084143167 35.13266901648814 
213.00008084143167 43.48847917979416 
214.00008084143167 40.43846441136316 
215.00008084143167 38.16769920972488 
216.00008084143167 40.43940069706993 
217.00008084143167 40.42950752205414 
218.00008084143167 30.553792040800268 
219.00008084143167 44.22376982251633 
220.00008084143167 27.49191979757402 
221.00008084143167 24.47037981122663 
222.00008084143167 29.759419994486446 
223.00008084143167 26.70686597484773 
224.00008084143167 23.673610159367794 
225.00008084143167 30.502919160890574 
226.00008084143167 25.176116624658693 
227.00008084143167 25.184502074144106 
228.00008084143167 29.7316150099769 
229.00008084143167 23.649883132482696 
230.00008084143167 26.694074117832415 
231.00008084143167 28.201064967968932 
232.00008084143167 22.884882804295266 
233.00008084143167 31.242449984246996 
234.00008084143167 29.711939259084208 
235.00008084143167 19.088371599979002 
236.00008084143167 28.20169564561015 
237.00008084143167 25.1413309310019 
238.00008084143167 19.834653598246156 
239.00008084143167 24.387708628701922 
240.00008084143167 23.615058417349285 
241.00008084143167 25.89833448198911 
242.00008084143167 23.617613585643724 
243.00008084143167 25.897802654379262 
244.00008084143167 24.373893450693206 
245.00008084143167 23.616080688143267 
246.00008084143167 22.093854363579144 
247.00008084143167 16.774417007981494 
248.00008084143167 7.65547528092835 
249.00008084143167 4.606513764177666 
250.00008084143167 3.0691827150283904 
251.00008084143167 0.021715304032766315 
252.00008084143167 0.7772673479836285 
253.00008084143167 1.5308467233774592 
254.00008084143167 0.011884714345725692 
255.00008084143167 1.532488250892649 
256.00008084143167 0.010887451428271407 
257.00008084143167 0.013061922390254081 
258.00008084143167 0.01079106280193241 
259.00008084143167 0.010210368094938072 
260.00008084143167 0.010172889098928833 
261.00008084143167 0.009981490233144331 
262.00008084143167 0.009839582020583942 
263.00008084143167 0.009850084015963066 
264.00008084143167 0.009735743541272879 
265.00008084143167 0.009642932157109884 
266.00008084143167 0.009742307288384827 
267.00008084143167 0.009740863264020199 
268.00008084143167 0.009789828817475353 
269.00008084143167 0.009890910522999405 
270.00008084143167 0.009939350976685607 
271.00008084143167 0.009960486242386088 
272.00008084143167 0.009990548204158824 
273.00008084143167 0.009990548204158825 
274.00008084143167 0.009980965133375376 
275.00008084143167 0.009992911153119127 
276.00008084143167 0.009991598403696737 
277.00008084143167 0.009992911153119127 
278.00008084143167 0.010000000000000035 
279.00008084143167 0.010000000000000035 
280.00008084143167 0.010000000000000035 
281.00008084143167 0.010000000000000035 
282.00008084143167 0.010000000000000035 
283.00008084143167 0.010000000000000035 
284.00008084143167 0.010000000000000035 
285.00008084143167 0.010000000000000035 
286.00008084143167 0.010000000000000035 
287.00008084143167 0.010000000000000035 
288.00008084143167 0.010000000000000035 
289.00008084143167 0.010000000000000035 
290.00008084143167 0.010000000000000035 
291.00008084143167 0.010000000000000035 
292.00008084143167 0.010000000000000035 
293.00008084143167 0.010000000000000035 
294.00008084143167 0.010000000000000035 
295.00008084143167 0.010000000000000035 
296.00008084143167 0.010000000000000035 
297.00008084143167 0.010000000000000035 
298.00008084143167 0.010000000000000035 
299.00008084143167 0.010000000000000035 
300.00008084143167 0.010000000000000035 
301.00008084143167 0.010000000000000035 
302.00008084143167 0.010000000000000035 
303.00008084143167 0.010000000000000035 
304.00008084143167 0.010000000000000035 
305.00008084143167 0.010000000000000035 
306.00008084143167 0.010000000000000035 
307.00008084143167 0.010000000000000035 
308.00008084143167 0.010000000000000035 
309.00008084143167 0.010000000000000035 
310.00008084143167 0.010000000000000035 
311.00008084143167 0.010000000000000035 
312.00008084143167 0.010000000000000035 
313.00008084143167 0.010000000000000035 
314.00008084143167 0.010000000000000035 
315.00008084143167 0.010000000000000035 
316.00008084143167 0.010000000000000035 
317.00008084143167 0.010000000000000035 
318.00008084143167 0.010000000000000035 
319.00008084143167 0.010000000000000035 
320.00008084143167 0.010000000000000035 
321.00008084143167 0.010000000000000035 
322.00008084143167 0.010000000000000035 
323.00008084143167 0.010000000000000035 
324.00008084143167 0.010000000000000035 
325.00008084143167 0.010000000000000035 
326.00008084143167 0.010000000000000035 
327.00008084143167 0.010000000000000035 
328.00008084143167 0.010000000000000035 
329.00008084143167 0.010000000000000035 
330.00008084143167 0.010000000000000035 
331.00008084143167 0.010000000000000035 
332.00008084143167 0.010000000000000035 
333.00008084143167 0.010000000000000035 
334.00008084143167 0.010000000000000035 
335.00008084143167 0.010000000000000035 
336.00008084143167 0.010000000000000035 
337.00008084143167 0.010000000000000035 
338.00008084143167 0.010000000000000035 
339.00008084143167 0.010000000000000035 
340.00008084143167 0.010000000000000035 
341.00008084143167 0.010000000000000035 
342.00008084143167 0.010000000000000035 
343.00008084143167 0.010000000000000035 
344.00008084143167 0.010000000000000035 
345.00008084143167 0.010000000000000035 
346.00008084143167 0.010000000000000035 
347.00008084143167 0.010000000000000035 
348.00008084143167 0.010000000000000035 
349.00008084143167 0.010000000000000035 
350.00008084143167 0.010000000000000035 
351.00008084143167 0.010000000000000035 
352.00008084143167 0.010000000000000035 
353.00008084143167 0.010000000000000035 
354.00008084143167 0.010000000000000035 
355.00008084143167 0.010000000000000035 
356.00008084143167 0.010000000000000035 
357.00008084143167 0.010000000000000035 
358.00008084143167 0.010000000000000035 
359.00008084143167 0.010000000000000035 
360.00008084143167 0.010000000000000035 
361.00008084143167 0.010000000000000035 
362.00008084143167 0.010000000000000035 
363.00008084143167 0.010000000000000035 
364.00008084143167 0.010000000000000035 
365.00008084143167 0.010000000000000035 
366.00008084143167 0.010000000000000035 
367.00008084143167 0.010000000000000035 
368.00008084143167 0.010000000000000035 
369.00008084143167 0.010000000000000035 
370.00008084143167 0.010000000000000035 
371.00008084143167 0.010000000000000035 
372.00008084143167 0.010000000000000035 
373.00008084143167 0.010000000000000035 
374.00008084143167 0.010000000000000035 
375.00008084143167 0.010000000000000035 
376.00008084143167 0.010000000000000035 
377.00008084143167 0.010000000000000035 
378.00008084143167 0.010000000000000035 
379.00008084143167 0.010000000000000035 
380.00008084143167 0.010000000000000035 
381.00008084143167 0.010000000000000035 
382.00008084143167 0.010000000000000035 
383.00008084143167 0.010000000000000035 
384.00008084143167 0.010000000000000035 
385.00008084143167 0.010000000000000035 
#####################################################################
# End of data export. Simulation finished at: 2017-05-23T12:54+0000 #
#####################################################################
