#####################################################################
# Alchemist log file - simulation started at: 2017-05-25T18:47+0000 #
#####################################################################
# random = 18.0, targets = 100.0, density = 3.5589026259761294, gridShift = 1.0, perturbation = 0.0, connfactor = 2.0
#
# The columns have the following meaning: 
# time se[Mean] 
0.0 NaN 
1.001562157851807 NaN 
2.001562157851807 1.0358275119617224 
3.001562157851807 1.0517967038809144 
4.001562157851807 1.0855916866028708 
5.001562157851807 1.1474932349813929 
6.001562157851807 1.199880356193514 
7.001562157851807 1.2794756113769272 
8.001562157851808 1.302385466507177 
9.001562157851808 1.3309289540138225 
10.001562157851808 1.343307702020202 
11.001562157851808 1.3317853867623604 
12.001562157851808 1.3274244085592768 
13.001562157851808 1.2828297913343965 
14.001562157851808 1.2594392676767676 
15.001562157851808 1.2141020667198297 
16.001562157851808 1.156736509835194 
17.001562157851808 1.1037207602339183 
18.001562157851808 1.0756027046783627 
19.001562157851808 1.0480432682083998 
20.001562157851808 1.027300691121744 
21.001562157851808 1.013527465443913 
22.001562157851808 0.997739792663477 
23.001562157851808 0.9999798245614037 
24.001562157851808 0.9901281432748538 
25.001562157851808 0.9938882243487507 
26.001562157851808 0.9916749269005849 
27.001562157851808 0.9905403309409887 
28.001562157851808 0.98863423046252 
29.001562157851808 0.9881786881977672 
30.001562157851808 0.9820971424774056 
31.001562157851808 0.987199076289208 
32.00156215785181 0.9771053495481127 
33.00156215785181 0.9827422913343967 
34.00156215785181 0.9778874734183945 
35.00156215785181 0.9806724747474749 
36.00156215785181 0.9792824295587453 
37.00156215785181 0.9852531499202553 
38.00156215785181 0.9774271929824562 
39.00156215785181 0.9818026581605529 
40.00156215785181 0.9847126927166401 
41.00156215785181 0.9800917862838916 
42.00156215785181 0.9879487240829347 
43.00156215785181 0.9836362107921319 
44.00156215785181 0.9899648591174908 
45.00156215785181 0.9842941387559809 
46.00156215785181 0.989646364965444 
47.00156215785181 0.9989435473152579 
48.00156215785181 0.996860187400319 
49.00156215785181 1.0032489633173844 
50.00156215785181 1.004552485380117 
51.00156215785181 1.005956519138756 
52.00156215785181 1.0069968899521533 
53.00156215785181 1.0054936935140883 
54.00156215785181 1.0110659423179162 
55.00156215785181 0.9989359449760767 
56.00156215785181 0.9992678694843169 
57.00156215785181 0.9797931884635832 
58.00156215785181 0.9773459396597554 
59.00156215785181 0.9538104199893677 
60.00156215785181 0.9698362506645404 
61.00156215785181 0.9310406897926637 
62.00156215785181 0.9467479930887828 
63.00156215785181 0.9174004385964913 
64.00156215785181 0.9188365430622011 
65.00156215785181 0.9020499933545988 
66.00156215785181 0.898562965178097 
67.00156215785181 0.8723159423179163 
68.00156215785181 0.8755656499202553 
69.00156215785181 0.8561569444444447 
70.00156215785181 0.8519891746411485 
71.00156215785181 0.8431644338118025 
72.00156215785181 0.8255368155236579 
73.00156215785181 0.8369735579479004 
74.00156215785181 0.8121757642211592 
75.00156215785181 0.8133906366294528 
76.00156215785181 0.8149258506113772 
77.00156215785181 0.8039928163211061 
78.00156215785181 0.8077858984582672 
79.00156215785181 0.8135300970228605 
80.00156215785181 0.8228124202551839 
81.00156215785181 0.826120175438597 
82.00156215785181 0.8161001461988306 
83.00156215785181 0.8252750465178101 
84.00156215785181 0.8069791600212658 
85.00156215785181 0.8166779040404045 
86.00156215785181 0.8129404173312074 
87.00156215785181 0.8163716307814994 
88.00156215785181 0.7866315922381717 
89.00156215785181 0.7696909622541205 
90.00156215785181 0.7359129585326958 
91.00156215785181 0.6985694510898464 
92.00156215785181 0.6781743686868692 
93.00156215785181 0.648488516746412 
94.00156215785181 0.6345294258373211 
95.00156215785181 0.6181415005316325 
96.00156215785181 0.5940557216905905 
97.00156215785181 0.5986820773524726 
98.00156215785181 0.5768889686337058 
99.00156215785181 0.5666772594364702 
100.00156215785181 0.5460242623604469 
101.00156215785181 0.5425144736842109 
102.00156215785181 0.5306935340244554 
103.00156215785181 0.5240662812333868 
104.00156215785181 0.5204026780967574 
105.00156215785181 0.5140636031366299 
106.00156215785181 0.5136606525784162 
107.00156215785181 0.5098955675172785 
108.00156215785181 0.5073962453482195 
109.00156215785181 0.5063300770866564 
110.00156215785181 0.5038262293992561 
111.00156215785181 0.5033803761297186 
112.00156215785181 0.5028804558745352 
113.00156215785181 0.5014883838383842 
114.00156215785181 0.5019711722488043 
115.00156215785181 0.49952576422115935 
116.00156215785181 0.5005686802232859 
117.00156215785181 0.49759703615098394 
118.00156215785181 0.498128349282297 
119.00156215785181 0.4969733187134507 
120.00156215785181 0.49633211722488074 
121.00156215785181 0.4956479864433816 
122.00156215785181 0.49440985513025026 
123.00156215785181 0.49372860180754957 
124.00156215785181 0.4925183213716112 
125.00156215785181 0.4923254784688999 
126.00156215785181 0.49228105396065963 
127.00156215785181 0.4922894736842109 
128.00156215785182 0.4922379186602875 
129.00156215785182 0.4916246212121216 
130.00156215785182 0.49158812466773033 
131.00156215785182 0.4910408359914943 
132.00156215785182 0.4907735911749073 
133.00156215785182 0.49046002791068616 
134.00156215785182 0.4903473219032433 
135.00156215785182 0.49015890483785257 
136.00156215785182 0.4900794524189265 
137.00156215785182 0.4900000000000004 
138.00156215785182 0.4900000000000004 
139.00156215785182 0.4900000000000004 
140.00156215785182 0.4900000000000004 
141.00156215785182 0.4900000000000004 
142.00156215785182 0.4900000000000004 
143.00156215785182 0.4900000000000004 
144.00156215785182 0.4900000000000004 
145.00156215785182 0.4900000000000004 
146.00156215785182 0.4900000000000004 
147.00156215785182 0.4900000000000004 
148.00156215785182 0.4900000000000004 
149.00156215785182 0.4900000000000004 
150.00156215785182 0.4900000000000004 
151.00156215785182 0.4900000000000004 
152.00156215785182 0.4900000000000004 
153.00156215785182 0.4900000000000004 
154.00156215785182 0.4900000000000004 
155.00156215785182 0.4900000000000004 
156.00156215785182 0.4900000000000004 
157.00156215785182 0.4900000000000004 
158.00156215785182 0.4900000000000004 
159.00156215785182 0.4900000000000004 
160.00156215785182 0.4900000000000004 
161.00156215785182 0.4900000000000004 
162.00156215785182 0.4900000000000004 
163.00156215785182 0.4900000000000004 
164.00156215785182 0.4900000000000004 
165.00156215785182 0.4900000000000004 
166.00156215785182 0.4900000000000004 
167.00156215785182 0.4900000000000004 
168.00156215785182 0.4900000000000004 
169.00156215785182 0.4900000000000004 
170.00156215785182 0.4900000000000004 
171.00156215785182 0.4900000000000004 
172.00156215785182 0.4900000000000004 
173.00156215785182 0.4900000000000004 
174.00156215785182 0.4900000000000004 
175.00156215785182 0.4900000000000004 
176.00156215785182 0.4900000000000004 
177.00156215785182 0.4900000000000004 
178.00156215785182 0.4900000000000004 
#####################################################################
# End of data export. Simulation finished at: 2017-05-25T18:48+0000 #
#####################################################################
