#####################################################################
# Alchemist log file - simulation started at: 2017-05-23T21:57+0000 #
#####################################################################
# random = 13.0, targets = 1.0, density = 5.0264212595847235, gridShift = 0.0, perturbation = 0.5, connfactor = 0.5
#
# The columns have the following meaning: 
# time se[Mean] 
0.0 NaN 
1.0002602723432414 NaN 
2.000260272343241 NaN 
3.000260272343241 1.0 
4.000260272343241 0.9969618055555556 
5.000260272343241 0.9943576388888888 
6.000260272343241 0.9826388888888887 
7.000260272343241 0.9661458333333331 
8.00026027234324 0.953125 
9.00026027234324 0.9461805555555552 
10.00026027234324 0.9422743055555551 
11.00026027234324 0.9388020833333337 
12.00026027234324 0.9375 
13.00026027234324 0.9340277777777772 
14.00026027234324 0.9279513888888885 
15.00026027234324 0.9318576388888885 
16.00026027234324 0.9253472222222228 
17.00026027234324 0.9270833333333338 
18.00026027234324 0.9266493055555549 
19.00026027234324 0.9279513888888885 
20.00026027234324 0.92578125 
21.00026027234324 0.9270833333333338 
22.00026027234324 0.9309895833333337 
23.00026027234324 0.9296875 
24.00026027234324 0.93359375 
25.00026027234324 0.9361979166666663 
26.00026027234324 0.9375 
27.00026027234324 0.9375 
28.00026027234324 0.9401041666666663 
29.00026027234324 0.94140625 
30.00026027234324 0.9401041666666664 
31.00026027234324 0.9388020833333337 
32.00026027234324 0.9427083333333336 
33.00026027234324 0.9388020833333336 
34.00026027234324 0.94140625 
35.00026027234324 0.9401041666666664 
36.00026027234324 0.9388020833333336 
37.00026027234324 0.9375 
38.00026027234324 0.94140625 
39.00026027234324 0.9375 
40.00026027234324 0.9375 
41.00026027234324 0.9388020833333336 
42.00026027234324 0.9375 
43.00026027234324 0.9361979166666663 
44.00026027234324 0.9375 
45.00026027234324 0.9375 
46.00026027234324 0.9375 
47.00026027234324 0.9401041666666664 
48.00026027234324 0.9401041666666664 
49.00026027234324 0.9388020833333337 
50.00026027234324 0.9401041666666664 
51.00026027234324 0.9401041666666664 
52.00026027234324 0.9388020833333337 
53.00026027234324 0.9401041666666663 
54.00026027234324 0.9401041666666664 
55.00026027234324 0.9401041666666663 
56.00026027234324 0.9440104166666664 
57.00026027234324 0.9427083333333336 
58.00026027234324 0.9453125 
59.00026027234324 0.9518229166666665 
60.00026027234324 0.94921875 
61.00026027234324 0.9557291666666666 
62.00026027234324 0.9609375 
63.00026027234324 0.9635416666666669 
64.00026027234324 0.9674479166666669 
65.00026027234324 0.9713541666666669 
66.00026027234324 0.9778645833333333 
67.00026027234324 0.9830729166666665 
68.00026027234324 0.9856770833333335 
69.00026027234324 0.9869791666666666 
70.00026027234324 0.9895833333333334 
71.00026027234324 0.9947916666666667 
72.00026027234324 0.9986979166666666 
73.00026027234324 0.9986979166666666 
74.00026027234324 1.0 
75.00026027234324 1.0 
76.00026027234324 1.0 
77.00026027234324 1.0 
78.00026027234324 1.0 
79.00026027234324 1.0 
80.00026027234324 1.0 
81.00026027234324 1.0 
82.00026027234324 1.0 
83.00026027234324 1.0 
84.00026027234324 1.0 
85.00026027234324 1.0 
86.00026027234324 1.0 
87.00026027234324 1.0 
88.00026027234324 1.0 
89.00026027234324 1.0 
90.00026027234324 1.0 
91.00026027234324 5.602864583333338 
92.00026027234324 10.205729166666677 
93.00026027234324 10.205729166666664 
94.00026027234324 37.822916666666636 
95.00026027234324 47.033854166666686 
96.00026027234324 24.026909722222204 
97.00026027234324 70.05642361111097 
98.00026027234324 51.67317708333338 
99.00026027234324 56.30295138888903 
100.00026027234324 70.0859375 
101.00026027234324 83.92013888888906 
102.00026027234324 65.54123263888904 
103.00026027234324 111.56163194444441 
104.00026027234324 83.91015625 
105.00026027234324 83.98263888888906 
106.00026027234324 106.93315972222209 
107.00026027234324 111.55685763888903 
108.00026027234324 88.53081597222204 
109.00026027234324 129.92708333333326 
110.00026027234324 88.46875 
111.00026027234324 102.3324652777781 
112.00026027234324 129.85026041666669 
113.00026027234324 83.81640625 
114.00026027234324 116.01041666666673 
115.00026027234324 83.74826388888896 
116.00026027234324 79.11414930555557 
117.00026027234324 97.51258680555549 
118.00026027234324 92.818142361111 
119.00026027234324 83.57421875 
120.00026027234324 88.15928819444454 
121.00026027234324 83.4713541666667 
122.00026027234324 88.09592013888899 
123.00026027234324 88.00130208333331 
124.00026027234324 78.75 
125.00026027234324 28.110677083333314 
126.00026027234324 5.058159722222251 
127.00026027234324 14.221354166666588 
128.00026027234324 0.3771701388888887 
129.00026027234324 4.877604166666673 
130.00026027234324 0.2005208333333332 
131.00026027234324 0.1853298611111113 
132.00026027234324 0.15625 
133.00026027234324 0.07378472222222225 
134.00026027234324 0.02907986111111119 
135.00026027234324 0.031684027777777644 
136.00026027234324 0.00434027777777777 
137.00026027234324 0.008680555555555658 
138.00026027234324 0.001736111111111091 
139.00026027234324 4.3402777777777277E-4 
140.00026027234324 4.3402777777777277E-4 
141.00026027234324 0.0 
142.00026027234324 0.0 
143.00026027234324 0.0 
144.00026027234324 0.0 
145.00026027234324 0.0 
146.00026027234324 0.0 
147.00026027234324 0.0 
148.00026027234324 0.0 
149.00026027234324 0.0 
150.00026027234324 0.0 
151.00026027234324 0.0 
152.00026027234324 0.0 
153.00026027234324 0.0 
154.00026027234324 0.0 
155.00026027234324 0.0 
156.00026027234324 0.0 
157.00026027234324 0.0 
158.00026027234324 0.0 
159.00026027234324 0.0 
160.00026027234324 0.0 
161.00026027234324 0.0 
162.00026027234324 0.0 
163.00026027234324 0.0 
164.00026027234324 0.0 
165.00026027234324 0.0 
166.00026027234324 0.0 
167.00026027234324 0.0 
168.00026027234324 0.0 
169.00026027234324 0.0 
170.00026027234324 0.0 
171.00026027234324 0.0 
172.00026027234324 0.0 
173.00026027234324 0.0 
174.00026027234324 0.0 
175.00026027234324 0.0 
176.00026027234324 0.0 
177.00026027234324 0.0 
178.00026027234324 0.0 
179.00026027234324 0.0 
180.00026027234324 0.0 
181.00026027234324 0.0 
182.00026027234324 0.0 
183.00026027234324 0.0 
184.00026027234324 0.0 
185.00026027234324 0.0 
186.00026027234324 0.0 
187.00026027234324 0.0 
188.00026027234324 0.0 
189.00026027234324 0.0 
190.00026027234324 0.0 
191.00026027234324 0.0 
192.00026027234324 0.0 
#####################################################################
# End of data export. Simulation finished at: 2017-05-23T21:57+0000 #
#####################################################################
