#####################################################################
# Alchemist log file - simulation started at: 2017-05-25T18:43+0000 #
#####################################################################
# random = 18.0, targets = 100.0, density = 2.519842099789746, gridShift = 0.0, perturbation = 0.5, connfactor = 2.0
#
# The columns have the following meaning: 
# time se[Mean] 
0.0 NaN 
1.001562157851807 NaN 
2.001562157851807 1.064737651384083 
3.001562157851807 1.0998550413302577 
4.001562157851807 1.1531061250480583 
5.001562157851807 1.2274699947135717 
6.001562157851807 1.3365568843713957 
7.001562157851807 1.4719660515186468 
8.001562157851808 1.499866075547866 
9.001562157851808 1.580769420415225 
10.001562157851808 1.7488525687235679 
11.001562157851808 1.780067474048443 
12.001562157851808 1.902628277585544 
13.001562157851808 1.9942446607074205 
14.001562157851808 2.2039924163783167 
15.001562157851808 2.411736964148405 
16.001562157851808 2.3469386774317575 
17.001562157851808 2.749323776912726 
18.001562157851808 3.0497168925413307 
19.001562157851808 3.075988730296041 
20.001562157851808 4.151244430026915 
21.001562157851808 4.467352496635909 
22.001562157851808 4.255329728950404 
23.001562157851808 5.855794622260671 
24.001562157851808 5.947059006151482 
25.001562157851808 6.022972856593615 
26.001562157851808 6.167619019127262 
27.001562157851808 6.0441840205690145 
28.001562157851808 6.7325746707996945 
29.001562157851808 6.890819081603225 
30.001562157851808 9.348656115436361 
31.001562157851808 10.113989273356411 
32.00156215785181 8.919271905036533 
33.00156215785181 13.581278558727401 
34.00156215785181 13.35422119136871 
35.00156215785181 13.924263540465205 
36.00156215785181 13.723823332372163 
37.00156215785181 13.319561745482504 
38.00156215785181 14.154668637062668 
39.00156215785181 15.768643079584782 
40.00156215785181 15.432820352748944 
41.00156215785181 15.829399644367552 
42.00156215785181 16.190235351787777 
43.00156215785181 16.103787939734723 
44.00156215785181 18.416829959630913 
45.00156215785181 18.026236101499425 
46.00156215785181 19.258124963956174 
47.00156215785181 16.42920472414456 
48.00156215785181 17.213225199442522 
49.00156215785181 14.885216423971553 
50.00156215785181 13.749230663687047 
51.00156215785181 14.22460792003076 
52.00156215785181 14.286217264994233 
53.00156215785181 14.815357379373323 
54.00156215785181 16.334888518838916 
55.00156215785181 15.831677897923875 
56.00156215785181 23.1973093377547 
57.00156215785181 25.809356581603236 
58.00156215785181 23.02536314398309 
59.00156215785181 33.43380717993079 
60.00156215785181 33.96176258169937 
61.00156215785181 34.68025972702805 
62.00156215785181 35.132379825067275 
63.00156215785181 33.62131732987313 
64.00156215785181 34.13385006247597 
65.00156215785181 45.92417336601307 
66.00156215785181 39.564136839196465 
67.00156215785181 82.14705804017694 
68.00156215785181 95.8827052720108 
69.00156215785181 76.38775084582855 
70.00156215785181 143.94437677095357 
71.00156215785181 142.24218308342952 
72.00156215785181 148.01325830690124 
73.00156215785181 140.2540641868513 
74.00156215785181 129.96548949202236 
75.00156215785181 123.51960049500194 
76.00156215785181 148.13874807285669 
77.00156215785181 139.30818125240293 
78.00156215785181 136.29698586120728 
79.00156215785181 136.40028446270674 
80.00156215785181 130.64766995866978 
81.00156215785181 156.04466203383313 
82.00156215785181 143.599862564879 
83.00156215785181 176.93491206987707 
84.00156215785181 129.2649787101116 
85.00156215785181 148.56010248221833 
86.00156215785181 99.40602948625526 
87.00156215785181 78.03644740003851 
88.00156215785181 63.52539342800849 
89.00156215785181 42.65184363946559 
90.00156215785181 42.65602354623222 
91.00156215785181 42.21852147731642 
92.00156215785181 28.29688523885044 
93.00156215785181 28.305141349480966 
94.00156215785181 28.30165214100346 
95.00156215785181 28.287673356401385 
96.00156215785181 28.28734436514802 
97.00156215785181 28.285264806805074 
98.00156215785181 28.288663247308726 
99.00156215785181 28.294672066032295 
100.00156215785181 28.293027157823914 
101.00156215785181 28.299036668589004 
102.00156215785181 28.299093771626296 
103.00156215785181 28.30065577422145 
104.00156215785181 28.30175845588235 
105.00156215785181 28.301481358131486 
106.00156215785181 28.302216998269895 
107.00156215785181 28.302952638408303 
108.00156215785181 28.3024 
109.00156215785181 28.3024 
110.00156215785181 28.3024 
111.00156215785181 28.3024 
112.00156215785181 28.3024 
113.00156215785181 28.3024 
114.00156215785181 28.3024 
115.00156215785181 28.3024 
116.00156215785181 28.3024 
117.00156215785181 28.3024 
118.00156215785181 28.3024 
119.00156215785181 28.3024 
120.00156215785181 28.3024 
121.00156215785181 28.3024 
122.00156215785181 28.3024 
123.00156215785181 28.3024 
124.00156215785181 28.3024 
125.00156215785181 28.3024 
126.00156215785181 28.3024 
127.00156215785181 28.3024 
128.00156215785182 28.3024 
129.00156215785182 28.3024 
130.00156215785182 28.3024 
131.00156215785182 28.3024 
132.00156215785182 28.3024 
133.00156215785182 28.3024 
134.00156215785182 28.3024 
135.00156215785182 28.3024 
136.00156215785182 28.3024 
137.00156215785182 28.3024 
138.00156215785182 28.3024 
139.00156215785182 28.3024 
140.00156215785182 28.3024 
141.00156215785182 28.3024 
142.00156215785182 28.3024 
143.00156215785182 28.3024 
144.00156215785182 28.3024 
#####################################################################
# End of data export. Simulation finished at: 2017-05-25T18:43+0000 #
#####################################################################
