#####################################################################
# Alchemist log file - simulation started at: 2017-05-25T07:29+0000 #
#####################################################################
# random = 17.0, targets = 10.0, density = 0.2247883923996312, gridShift = 1.0, perturbation = 0.5, connfactor = 0.5
#
# The columns have the following meaning: 
# time se[Mean] 
0.0 NaN 
1.0045647570182237 NaN 
2.0045647570182235 1.0098809523809524 
3.0045647570182235 1.017962962962963 
4.0045647570182235 1.0003455687830687 
5.0045647570182235 0.9664087301587302 
6.0045647570182235 0.9207953042328042 
7.0045647570182235 0.854905753968254 
8.004564757018223 0.8311160714285714 
9.004564757018223 0.7679001322751323 
10.004564757018223 0.7240426587301588 
11.004564757018223 0.7430621693121693 
12.004564757018223 0.7186755952380952 
13.004564757018223 0.6499867724867725 
14.004564757018223 0.6488690476190475 
15.004564757018223 0.612308201058201 
16.004564757018223 0.5795568783068783 
17.004564757018223 0.5283796296296296 
18.004564757018223 0.4707473544973545 
19.004564757018223 0.45285714285714285 
20.004564757018223 0.40158730158730155 
21.004564757018223 0.3748677248677249 
22.004564757018223 0.3310648148148148 
23.004564757018223 0.30498015873015877 
24.004564757018223 0.2964351851851852 
25.004564757018223 0.28234126984126984 
26.004564757018223 0.3049272486772487 
27.004564757018223 0.27891534391534395 
28.004564757018223 0.31206349206349204 
29.004564757018223 0.3287301587301587 
30.004564757018223 0.34425925925925926 
31.004564757018223 0.3564021164021164 
32.00456475701822 0.3582010582010582 
33.00456475701822 0.36 
34.00456475701822 0.36 
35.00456475701822 0.36 
36.00456475701822 0.36 
37.00456475701822 0.36 
38.00456475701822 0.36 
39.00456475701822 0.36 
40.00456475701822 0.36 
#####################################################################
# End of data export. Simulation finished at: 2017-05-25T07:29+0000 #
#####################################################################
