#####################################################################
# Alchemist log file - simulation started at: 2017-05-26T14:32+0000 #
#####################################################################
# random = 9.0, targets = 100.0, density = 10.026386447354522, gridShift = 0.0, perturbation = 0.5, connfactor = 0.25
#
# The columns have the following meaning: 
# time se[Mean] 
0.0 NaN 
1.0015323036356916 NaN 
2.001532303635692 1.0 
3.001532303635692 0.9998720844811754 
4.001532303635692 0.9993150826446281 
5.001532303635692 0.9987227272727273 
6.001532303635692 0.9975897612488521 
7.001532303635692 0.9965778007346189 
8.001532303635692 0.9960316574839302 
9.001532303635692 0.9957491735537191 
10.001532303635692 0.9945622819100092 
11.001532303635692 0.9935703397612489 
12.001532303635692 0.9910226354453627 
13.001532303635692 0.9893118227731864 
14.001532303635692 0.9879705693296603 
15.001532303635692 0.9848168044077136 
16.001532303635692 0.9821078512396694 
17.001532303635692 0.9792840220385676 
18.001532303635692 0.9756453397612489 
19.001532303635692 0.9742540633608816 
20.001532303635692 0.9730765610651975 
21.001532303635692 0.9698808769513315 
22.001532303635692 0.9686770661157025 
23.001532303635692 0.9663921946740129 
24.001532303635692 0.9642054866850321 
25.001532303635692 0.962454981634527 
26.001532303635692 0.9611583562901744 
27.001532303635692 0.9583525482093664 
28.001532303635692 0.9577633608815427 
29.001532303635692 0.9554867998163452 
30.001532303635692 0.9534058539944903 
31.001532303635692 0.9507842516069789 
32.00153230363569 0.9493544077134985 
33.00153230363569 0.9456370293847567 
34.00153230363569 0.9441575068870522 
35.00153230363569 0.9407287419651056 
36.00153230363569 0.9382207759412304 
37.00153230363569 0.9365061294765841 
38.00153230363569 0.9322128558310377 
39.00153230363569 0.9286764921946741 
40.00153230363569 0.9246377180899907 
41.00153230363569 0.9216416666666667 
42.00153230363569 0.9191683195592285 
43.00153230363569 0.913604476584022 
44.00153230363569 0.9088721533516989 
45.00153230363569 0.9057835399449036 
46.00153230363569 0.9025418732782369 
47.00153230363569 0.8975716023875115 
48.00153230363569 0.889445684113866 
49.00153230363569 0.8857484618916436 
50.00153230363569 0.8802056703397614 
51.00153230363569 0.8702830348943986 
52.00153230363569 0.8705385215794307 
53.00153230363569 0.8552869834710743 
54.00153230363569 0.8506705463728191 
55.00153230363569 0.8447318411386592 
56.00153230363569 0.8330319329660237 
57.00153230363569 0.8300906565656565 
58.00153230363569 0.824049678604224 
59.00153230363569 0.8104421717171717 
60.00153230363569 0.8100840449954085 
61.00153230363569 0.8002348025711662 
62.00153230363569 0.7872632690541781 
63.00153230363569 0.7855279384756657 
64.00153230363568 0.7713180899908172 
65.00153230363568 0.7566436868686868 
66.00153230363568 0.7571879935720843 
67.00153230363568 0.7404176767676767 
68.00153230363568 0.7374835169880624 
69.00153230363568 0.7307842516069789 
70.00153230363568 0.7139504591368229 
71.00153230363568 0.7155010330578513 
72.00153230363568 0.7120097107438017 
73.00153230363568 0.6994387970615243 
74.00153230363568 0.7033136363636364 
75.00153230363568 0.6948884986225895 
76.00153230363568 0.6863012626262626 
77.00153230363568 0.6901757116620753 
78.00153230363568 0.6744584251606979 
79.00153230363568 0.6756816345270891 
80.00153230363568 0.6751174471992654 
81.00153230363568 0.6681186179981634 
82.00153230363568 0.6637920339761249 
83.00153230363568 0.6658714187327824 
84.00153230363568 0.6670322543617998 
85.00153230363568 0.6591326216712581 
86.00153230363568 0.6508640955004591 
87.00153230363568 0.6455301423324151 
88.00153230363568 0.6492825987144168 
89.00153230363568 0.6471208907254361 
90.00153230363568 0.6477107208448117 
91.00153230363568 0.6414986914600551 
92.00153230363568 0.6400385215794306 
93.00153230363568 0.6395724977043159 
94.00153230363568 0.6293796831955923 
95.00153230363568 0.6318070247933885 
96.00153230363568 0.6222711202938476 
97.00153230363568 0.6178207988980716 
98.00153230363568 0.6176727502295685 
99.00153230363568 0.6157822314049587 
100.00153230363568 0.6119206382001837 
101.00153230363568 0.6058620293847568 
102.00153230363568 0.5940608356290175 
103.00153230363568 0.5959214187327824 
104.00153230363568 0.5956672176308541 
105.00153230363568 0.5902847337006428 
106.00153230363568 0.5999595959595961 
107.00153230363568 0.5902311753902664 
108.00153230363568 0.6309799357208448 
109.00153230363568 0.6194404040404041 
110.00153230363568 0.6346135445362718 
111.00153230363568 0.6409398760330579 
112.00153230363568 0.6257738980716254 
113.00153230363568 0.620643044077135 
114.00153230363568 0.6501363177226813 
115.00153230363568 0.6405405647382919 
116.00153230363568 0.6461573921028466 
117.00153230363568 0.6337749540863178 
118.00153230363568 0.6273834710743801 
119.00153230363568 0.6450339072543618 
120.00153230363568 0.6462633379247016 
121.00153230363568 0.6388540633608815 
122.00153230363568 0.6761727961432508 
123.00153230363568 0.6306898530762166 
124.00153230363568 0.6488209595959596 
125.00153230363568 0.679900987144169 
126.00153230363568 0.6558718549127639 
127.00153230363568 0.6313167125803489 
128.00153230363568 0.626553650137741 
129.00153230363568 0.6307405876951332 
130.00153230363568 0.6536804866850323 
131.00153230363568 0.6490853535353536 
132.00153230363568 0.6142810835629017 
133.00153230363568 0.6348621212121212 
134.00153230363568 0.5925386593204773 
135.00153230363568 0.6037741505968778 
136.00153230363568 0.5477800734618916 
137.00153230363568 0.5933907024793388 
138.00153230363568 0.5664812213039486 
139.00153230363568 0.6044878099173554 
140.00153230363568 0.5713866161616161 
141.00153230363568 0.5939472910927457 
142.00153230363568 0.5869578053259871 
143.00153230363568 0.5793798668503214 
144.00153230363568 0.5741005050505052 
145.00153230363568 0.5968393709825528 
146.00153230363568 0.5861988521579431 
147.00153230363568 0.5952564967860422 
148.00153230363568 0.5715168503213957 
149.00153230363568 0.5780852157943066 
150.00153230363568 0.5713368686868687 
151.00153230363568 0.5393260101010101 
152.00153230363568 0.5877462580348943 
153.00153230363568 0.5874719467401286 
154.00153230363568 0.5623782598714417 
155.00153230363568 0.5890272268135904 
156.00153230363568 0.5902289256198348 
157.00153230363568 0.5677053948576675 
158.00153230363568 0.5917077134986226 
159.00153230363568 0.5840339761248852 
160.00153230363568 0.6004004132231405 
161.00153230363568 0.608585583103765 
162.00153230363568 0.6034443755739209 
163.00153230363568 0.5949171487603306 
164.00153230363568 0.6234707070707071 
165.00153230363568 0.5827544995408632 
166.00153230363568 0.6486813131313135 
167.00153230363568 0.5463047291092745 
168.00153230363568 0.6023974977043159 
169.00153230363568 0.6278323691460058 
170.00153230363568 0.6140013085399447 
171.00153230363568 0.5721199954086319 
172.00153230363568 0.5878148989898989 
173.00153230363568 0.5839814049586777 
174.00153230363568 0.6219042929292921 
175.00153230363568 0.6181937098255277 
176.00153230363568 0.5738423553719008 
177.00153230363568 0.605673461891644 
178.00153230363568 0.5564797520661156 
179.00153230363568 0.570028810835629 
180.00153230363568 0.5041715564738292 
181.00153230363568 0.5257966712580352 
182.00153230363568 0.49833406795224944 
183.00153230363568 0.5206585629017448 
184.00153230363568 0.47106209825528017 
185.00153230363568 0.48950387970615256 
186.00153230363568 0.4715692837465567 
187.00153230363568 0.4782471074380164 
188.00153230363568 0.4798604224058772 
189.00153230363568 0.48055169880624427 
190.00153230363568 0.47498510101010094 
191.00153230363568 0.47681283287419696 
192.00153230363568 0.45742917814508716 
193.00153230363568 0.46424876033057866 
194.00153230363568 0.4211961202938478 
195.00153230363568 0.4030254132231403 
196.00153230363568 0.4141150826446277 
197.00153230363568 0.38487839761248854 
198.00153230363568 0.38115404040404055 
199.00153230363568 0.3766101239669422 
200.00153230363568 0.37193608815427 
201.00153230363568 0.3721 
202.00153230363568 0.3721 
203.00153230363568 0.3721 
204.00153230363568 0.3721 
205.00153230363568 0.3721 
206.00153230363568 0.3721 
207.00153230363568 0.3721 
208.00153230363568 0.3721 
209.00153230363568 0.3721 
210.00153230363568 0.3721 
211.00153230363568 0.3721 
212.00153230363568 0.3721 
213.00153230363568 0.3721 
214.00153230363568 0.3721 
215.00153230363568 0.3721 
216.00153230363568 0.3721 
217.00153230363568 0.3721 
218.00153230363568 0.3721 
219.00153230363568 0.3721 
220.00153230363568 0.3721 
221.00153230363568 0.3721 
222.00153230363568 0.3721 
223.00153230363568 0.3721 
224.00153230363568 0.3721 
225.00153230363568 0.3721 
226.00153230363568 0.3721 
227.00153230363568 0.3721 
228.00153230363568 0.3721 
229.00153230363568 0.3721 
230.00153230363568 0.3721 
231.00153230363568 0.3721 
232.00153230363568 0.3721 
233.00153230363568 0.3721 
234.00153230363568 0.3721 
235.00153230363568 0.3721 
236.00153230363568 0.3721 
237.00153230363568 0.3721 
238.00153230363568 0.3721 
239.00153230363568 0.3721 
240.00153230363568 0.3721 
241.00153230363568 0.3721 
242.00153230363568 0.3721 
243.00153230363568 0.3721 
244.00153230363568 0.3721 
245.00153230363568 0.3721 
246.00153230363568 0.3721 
247.00153230363568 0.3721 
248.00153230363568 0.3721 
249.00153230363568 0.3721 
250.00153230363568 0.3721 
251.00153230363568 0.3721 
252.00153230363568 0.3721 
253.00153230363568 0.3721 
254.00153230363568 0.3721 
255.00153230363568 0.3721 
256.0015323036357 0.3721 
257.0015323036357 0.3721 
258.0015323036357 0.3721 
259.0015323036357 0.3721 
260.0015323036357 0.3721 
261.0015323036357 0.3721 
262.0015323036357 0.3721 
263.0015323036357 0.3721 
264.0015323036357 0.3721 
265.0015323036357 0.3721 
266.0015323036357 0.3721 
267.0015323036357 0.3721 
268.0015323036357 0.3721 
269.0015323036357 0.3721 
270.0015323036357 0.3721 
271.0015323036357 0.3721 
272.0015323036357 0.3721 
273.0015323036357 0.3721 
274.0015323036357 0.3721 
275.0015323036357 0.3721 
#####################################################################
# End of data export. Simulation finished at: 2017-05-26T14:38+0000 #
#####################################################################
