#####################################################################
# Alchemist log file - simulation started at: 2017-05-25T16:57+0000 #
#####################################################################
# random = 18.0, targets = 31.622776601683793, density = 7.099073319511142, gridShift = 0.0, perturbation = 0.5, connfactor = 0.25
#
# The columns have the following meaning: 
# time se[Mean] 
0.0 NaN 
1.001562157851807 NaN 
2.001562157851807 NaN 
3.001562157851807 0.9998412103234608 
4.001562157851807 0.9983403614575629 
5.001562157851807 0.9965346883406273 
6.001562157851807 0.993994053516 
7.001562157851807 0.9893505743846241 
8.001562157851808 0.9876730786993299 
9.001562157851808 0.9832983963276608 
10.001562157851808 0.9797307306463451 
11.001562157851808 0.9766187126257652 
12.001562157851808 0.9724409229620149 
13.001562157851808 0.9701100982220902 
14.001562157851808 0.9651222653672191 
15.001562157851808 0.9631216128076707 
16.001562157851808 0.9606305719501291 
17.001562157851808 0.9575212672246999 
18.001562157851808 0.9552618824000726 
19.001562157851808 0.9534311859032836 
20.001562157851808 0.9488376366323478 
21.001562157851808 0.9472008063427104 
22.001562157851808 0.9456672923796036 
23.001562157851808 0.9463454938832135 
24.001562157851808 0.9419011679622862 
25.001562157851808 0.941666647703347 
26.001562157851808 0.9406560362045687 
27.001562157851808 0.938600072569754 
28.001562157851808 0.9372879765263223 
29.001562157851808 0.9331502145031266 
30.001562157851808 0.9318421072650501 
31.001562157851808 0.9264992297808234 
32.00156215785181 0.9243574937567193 
33.00156215785181 0.9220669985190968 
34.00156215785181 0.9178007458586437 
35.00156215785181 0.9140717508242493 
36.00156215785181 0.9105686720268515 
37.00156215785181 0.9066364180773869 
38.00156215785181 0.9018118618725072 
39.00156215785181 0.8967181957023037 
40.00156215785181 0.8916959581035298 
41.00156215785181 0.8848186383832146 
42.00156215785181 0.877941677243993 
43.00156215785181 0.871466120550227 
44.00156215785181 0.8631434933772357 
45.00156215785181 0.8582596372917357 
46.00156215785181 0.8487008409640631 
47.00156215785181 0.8452300686827818 
48.00156215785181 0.8373870333465272 
49.00156215785181 0.8316904321186236 
50.00156215785181 0.8279894869648508 
51.00156215785181 0.8187377073275314 
52.00156215785181 0.8135853676879401 
53.00156215785181 0.807176137524786 
54.00156215785181 0.7977684324369521 
55.00156215785181 0.7920514230457838 
56.00156215785181 0.7822174297196466 
57.00156215785181 0.7811114212493996 
58.00156215785181 0.7904967924164601 
59.00156215785181 0.7977348629184133 
60.00156215785181 0.8138114333350877 
61.00156215785181 0.8037329460063344 
62.00156215785181 0.8414725315898478 
63.00156215785181 0.7897079437779159 
64.00156215785181 0.835044131669419 
65.00156215785181 0.8251221054514616 
66.00156215785181 0.7989849634925107 
67.00156215785181 0.8107902359272601 
68.00156215785181 0.791819005468506 
69.00156215785181 0.7871936690009853 
70.00156215785181 0.7870094000793648 
71.00156215785181 0.7773978402362576 
72.00156215785181 0.7903345582852412 
73.00156215785181 0.7661448885336637 
74.00156215785181 0.773487514342304 
75.00156215785181 0.7593979475297343 
76.00156215785181 0.7692950157464163 
77.00156215785181 0.8455397841279363 
78.00156215785181 0.8109842703993323 
79.00156215785181 0.8835436133587644 
80.00156215785181 0.8138351158884792 
81.00156215785181 0.8916638864415652 
82.00156215785181 0.8766006687052142 
83.00156215785181 0.8572489222553146 
84.00156215785181 0.8600908264790562 
85.00156215785181 0.851831057312992 
86.00156215785181 0.7918295245405748 
87.00156215785181 0.8239516812797891 
88.00156215785181 0.8508425351823307 
89.00156215785181 0.8192440713314983 
90.00156215785181 0.764794743152331 
91.00156215785181 0.7580075668576286 
92.00156215785181 0.7160733123524833 
93.00156215785181 0.6788915502241281 
94.00156215785181 0.7771847414695957 
95.00156215785181 0.6706979116702971 
96.00156215785181 0.6847735015173602 
97.00156215785181 0.7184376997209532 
98.00156215785181 0.6615586978336505 
99.00156215785181 0.661193106121957 
100.00156215785181 0.692810002580357 
101.00156215785181 0.6506306786078856 
102.00156215785181 0.6862676013865533 
103.00156215785181 0.5622533556131895 
104.00156215785181 0.5994261609113315 
105.00156215785181 0.6517696709675839 
106.00156215785181 0.5563902651237135 
107.00156215785181 0.527034538900082 
108.00156215785181 0.5026904643505974 
109.00156215785181 0.5436300875783666 
110.00156215785181 0.45426140378555213 
111.00156215785181 0.5292598908300438 
112.00156215785181 0.4250814345626596 
113.00156215785181 0.4179647682560211 
114.00156215785181 0.4352950882946644 
115.00156215785181 0.39177483067430224 
116.00156215785181 0.3731694353471458 
117.00156215785181 0.3677478584612329 
118.00156215785181 0.39468229774266317 
119.00156215785181 0.3624208010341354 
120.00156215785181 0.3636287584214247 
121.00156215785181 0.33451212537045194 
122.00156215785181 0.3327915755438355 
123.00156215785181 0.35472335536304817 
124.00156215785181 0.32840156493614575 
125.00156215785181 0.3173411350913431 
126.00156215785181 0.31815785673309505 
127.00156215785181 0.33190665813153303 
128.00156215785182 0.3169841062470559 
129.00156215785182 0.33457480744652124 
130.00156215785182 0.303384181535569 
131.00156215785182 0.3031593154677009 
132.00156215785182 0.3091535825929373 
133.00156215785182 0.3035870291849456 
134.00156215785182 0.29568174898485394 
135.00156215785182 0.29925698139915696 
136.00156215785182 0.3052788736849819 
137.00156215785182 0.30282344405619677 
138.00156215785182 0.297486341935798 
139.00156215785182 0.3015239033478787 
140.00156215785182 0.2965015030863909 
141.00156215785182 0.3004951161157756 
142.00156215785182 0.2925994910688922 
143.00156215785182 0.2961062631568858 
144.00156215785182 0.30105365345873564 
145.00156215785182 0.29363256800596094 
146.00156215785182 0.2903343078047277 
147.00156215785182 0.2895097427544194 
148.00156215785182 0.2928080029556523 
149.00156215785182 0.28703604760349427 
150.00156215785182 0.2928080029556523 
151.00156215785182 0.28291322235195265 
152.00156215785182 0.2837377874022609 
153.00156215785182 0.2845623524525693 
154.00156215785182 0.2804395272010278 
155.00156215785182 0.2787903971004111 
156.00156215785182 0.2787903971004111 
157.00156215785182 0.2796149621507194 
158.00156215785182 0.2787903971004111 
159.00156215785182 0.27714126699979447 
160.00156215785182 0.27714126699979447 
161.00156215785182 0.27631670194948615 
162.00156215785182 0.27631670194948615 
163.00156215785182 0.27631670194948615 
164.00156215785182 0.27631670194948615 
165.00156215785182 0.27631670194948615 
166.00156215785182 0.27631670194948615 
167.00156215785182 0.27631670194948615 
168.00156215785182 0.27631670194948615 
169.00156215785182 0.27631670194948615 
170.00156215785182 0.27631670194948615 
171.00156215785182 0.27631670194948615 
172.00156215785182 0.27631670194948615 
173.00156215785182 0.27631670194948615 
174.00156215785182 0.27631670194948615 
175.00156215785182 0.27631670194948615 
176.00156215785182 0.27631670194948615 
177.00156215785182 0.27631670194948615 
178.00156215785182 0.27631670194948615 
179.00156215785182 0.27631670194948615 
180.00156215785182 0.27631670194948615 
181.00156215785182 0.27631670194948615 
182.00156215785182 0.27631670194948615 
183.00156215785182 0.27631670194948615 
184.00156215785182 0.27631670194948615 
185.00156215785182 0.27631670194948615 
186.00156215785182 0.27631670194948615 
187.00156215785182 0.27631670194948615 
188.00156215785182 0.27631670194948615 
189.00156215785182 0.27631670194948615 
190.00156215785182 0.27631670194948615 
191.00156215785182 0.27631670194948615 
192.00156215785182 0.27631670194948615 
193.00156215785182 0.27631670194948615 
194.00156215785182 0.27631670194948615 
195.00156215785182 0.27631670194948615 
196.00156215785182 0.27631670194948615 
197.00156215785182 0.27631670194948615 
198.00156215785182 0.27631670194948615 
199.00156215785182 0.27631670194948615 
200.00156215785182 0.27631670194948615 
201.00156215785182 0.27631670194948615 
202.00156215785182 0.27631670194948615 
203.00156215785182 0.27631670194948615 
204.00156215785182 0.27631670194948615 
205.00156215785182 0.27631670194948615 
206.00156215785182 0.27631670194948615 
207.00156215785182 0.27631670194948615 
208.00156215785182 0.27631670194948615 
209.00156215785182 0.27631670194948615 
210.00156215785182 0.27631670194948615 
211.00156215785182 0.27631670194948615 
212.00156215785182 0.27631670194948615 
213.00156215785182 0.27631670194948615 
214.00156215785182 0.27631670194948615 
215.00156215785182 0.27631670194948615 
216.00156215785182 0.27631670194948615 
217.00156215785182 0.27631670194948615 
218.00156215785182 0.27631670194948615 
219.00156215785182 0.27631670194948615 
220.00156215785182 0.27631670194948615 
#####################################################################
# End of data export. Simulation finished at: 2017-05-25T16:58+0000 #
#####################################################################
