#####################################################################
# Alchemist log file - simulation started at: 2017-05-26T09:22+0000 #
#####################################################################
# random = 9.0, targets = 31.622776601683793, density = 5.0264212595847235, gridShift = 1.0, perturbation = 0.0, connfactor = 1.5
#
# The columns have the following meaning: 
# time se[Mean] 
0.0 NaN 
1.0015323036356916 NaN 
2.001532303635692 1.021945170142401 
3.001532303635692 1.0332111034298546 
4.001532303635692 1.0432197922159405 
5.001532303635692 1.0483753106953584 
6.001532303635692 1.0428378494553576 
7.001532303635692 1.051304714950899 
8.001532303635692 1.0594678599022367 
9.001532303635692 1.061772038811103 
10.001532303635692 1.0406710015981688 
11.001532303635692 1.042255515307363 
12.001532303635692 1.025895267226376 
13.001532303635692 1.0264474988901309 
14.001532303635692 1.0219264164198296 
15.001532303635692 1.0251328586391093 
16.001532303635692 1.027586154994998 
17.001532303635692 1.0371577896284583 
18.001532303635692 1.0388931683628781 
19.001532303635692 1.0460754075170102 
20.001532303635692 1.0490530194057728 
21.001532303635692 1.034702282380923 
22.001532303635692 1.0449536498319536 
23.001532303635692 1.0453673561009866 
24.001532303635692 1.0429558064075655 
25.001532303635692 1.0538841046890777 
26.001532303635692 1.0541447602814271 
27.001532303635692 1.061626343494101 
28.001532303635692 1.0671760512807762 
29.001532303635692 1.0705944146056916 
30.001532303635692 1.0673733939298944 
31.001532303635692 1.0682936616625025 
32.00153230363569 1.0700129532364815 
33.00153230363569 1.0593579672328803 
34.00153230363569 1.0674094005196832 
35.00153230363569 1.0553902783258091 
36.00153230363569 1.068667602070871 
37.00153230363569 1.0551056824073355 
38.00153230363569 1.0667025594345216 
39.00153230363569 1.0510307703211836 
40.00153230363569 1.059633922385433 
41.00153230363569 1.0454051654641687 
42.00153230363569 1.0521445756948253 
43.00153230363569 1.0408498399700998 
44.00153230363569 1.0417902511316406 
45.00153230363569 1.0254695090720842 
46.00153230363569 1.0199483357725547 
47.00153230363569 1.008894121229651 
48.00153230363569 0.991875644596151 
49.00153230363569 0.980615240703787 
50.00153230363569 0.9673510497834341 
51.00153230363569 0.9519023881146728 
52.00153230363569 0.9368138633779054 
53.00153230363569 0.9196365164955334 
54.00153230363569 0.90176917931051 
55.00153230363569 0.8910392461397219 
56.00153230363569 0.86902389800635 
57.00153230363569 0.8547608759832426 
58.00153230363569 0.8422898634183381 
59.00153230363569 0.822493488222832 
60.00153230363569 0.8104452699617933 
61.00153230363569 0.7851435589762041 
62.00153230363569 0.7746293678502407 
63.00153230363569 0.763736145490363 
64.00153230363568 0.7455530172789497 
65.00153230363568 0.733734927346406 
66.00153230363568 0.7207454650543156 
67.00153230363568 0.6994413036008984 
68.00153230363568 0.6935805021074978 
69.00153230363568 0.673527468117709 
70.00153230363568 0.6655196926365129 
71.00153230363568 0.6523048944684123 
72.00153230363568 0.6406660053172003 
73.00153230363568 0.6323832763857137 
74.00153230363568 0.6231493912181991 
75.00153230363568 0.6050603510498428 
76.00153230363568 0.6013498640973995 
77.00153230363568 0.5872055800401892 
78.00153230363568 0.5784931590795611 
79.00153230363568 0.5717755402990875 
80.00153230363568 0.5534735486865653 
81.00153230363568 0.5505937104685167 
82.00153230363568 0.5353543299305384 
83.00153230363568 0.5284103938348442 
84.00153230363568 0.5227645849369932 
85.00153230363568 0.5081836670259258 
86.00153230363568 0.502357528592738 
87.00153230363568 0.49525994668365003 
88.00153230363568 0.4861843253836497 
89.00153230363568 0.47913102487589243 
90.00153230363568 0.4683385220641768 
91.00153230363568 0.46145386024045265 
92.00153230363568 0.45136634192076114 
93.00153230363568 0.44353104913344327 
94.00153230363568 0.4392343614771494 
95.00153230363568 0.43191534875337834 
96.00153230363568 0.4194431571029903 
97.00153230363568 0.4163754032265359 
98.00153230363568 0.4012633861061018 
99.00153230363568 0.39396626553094455 
100.00153230363568 0.3897466100232206 
101.00153230363568 0.37755931330955617 
102.00153230363568 0.3717846764180336 
103.00153230363568 0.36197297645049115 
104.00153230363568 0.3552168505148902 
105.00153230363568 0.34686044442311464 
106.00153230363568 0.33992522724576274 
107.00153230363568 0.3331662944310059 
108.00153230363568 0.3258408024940612 
109.00153230363568 0.3171804703065268 
110.00153230363568 0.3156995183325353 
111.00153230363568 0.305628005334104 
112.00153230363568 0.3011007116007555 
113.00153230363568 0.2963026321607545 
114.00153230363568 0.29134504853901944 
115.00153230363568 0.290590544739292 
116.00153230363568 0.2860640004835749 
117.00153230363568 0.283293660755458 
118.00153230363568 0.280653479256949 
119.00153230363568 0.2779122743637909 
120.00153230363568 0.2763618177446729 
121.00153230363568 0.27275470024115966 
122.00153230363568 0.27073276010073577 
123.00153230363568 0.2692091487762188 
124.00153230363568 0.268456717720645 
125.00153230363568 0.26515830409629004 
126.00153230363568 0.26493076614142624 
127.00153230363568 0.2641701071529972 
128.00153230363568 0.2614260461906833 
129.00153230363568 0.2611998736378597 
130.00153230363568 0.25892953636995464 
131.00153230363568 0.2567155433993209 
132.00153230363568 0.25558800734172454 
133.00153230363568 0.2541411223553685 
134.00153230363568 0.2525079023277948 
135.00153230363568 0.25138456291242767 
136.00153230363568 0.24942952685526074 
137.00153230363568 0.24782711012420405 
138.00153230363568 0.24764667467933324 
139.00153230363568 0.247064999236454 
140.00153230363568 0.24611818118622675 
141.00153230363568 0.24504426357060097 
142.00153230363568 0.24557258512555616 
143.00153230363568 0.24456793550702152 
144.00153230363568 0.24452897279483438 
145.00153230363568 0.2443267101168437 
146.00153230363568 0.24409791448449694 
147.00153230363568 0.24419632744807326 
148.00153230363568 0.2438118483959273 
149.00153230363568 0.24388839559255615 
150.00153230363568 0.2441952820575925 
151.00153230363568 0.24394527754839054 
152.00153230363568 0.244137840336763 
153.00153230363568 0.24412752209088012 
154.00153230363568 0.24416345319406974 
155.00153230363568 0.2441085367257655 
156.00153230363568 0.24408984273594225 
157.00153230363568 0.2440804957410306 
158.00153230363568 0.24407124587121612 
159.00153230363568 0.24406209312649874 
160.00153230363568 0.244071148746119 
161.00153230363568 0.244071148746119 
162.00153230363568 0.244071148746119 
163.00153230363568 0.244071148746119 
164.00153230363568 0.244071148746119 
165.00153230363568 0.244071148746119 
166.00153230363568 0.244071148746119 
167.00153230363568 0.244071148746119 
168.00153230363568 0.244071148746119 
169.00153230363568 0.244071148746119 
170.00153230363568 0.244071148746119 
171.00153230363568 0.244071148746119 
172.00153230363568 0.244071148746119 
173.00153230363568 0.244071148746119 
174.00153230363568 0.244071148746119 
175.00153230363568 0.244071148746119 
176.00153230363568 0.244071148746119 
177.00153230363568 0.244071148746119 
178.00153230363568 0.244071148746119 
179.00153230363568 0.244071148746119 
180.00153230363568 0.244071148746119 
181.00153230363568 0.244071148746119 
182.00153230363568 0.244071148746119 
183.00153230363568 0.244071148746119 
184.00153230363568 0.244071148746119 
185.00153230363568 0.244071148746119 
186.00153230363568 0.244071148746119 
187.00153230363568 0.244071148746119 
188.00153230363568 0.244071148746119 
189.00153230363568 0.244071148746119 
190.00153230363568 0.244071148746119 
191.00153230363568 0.244071148746119 
192.00153230363568 0.244071148746119 
193.00153230363568 0.244071148746119 
194.00153230363568 0.244071148746119 
195.00153230363568 0.244071148746119 
196.00153230363568 0.244071148746119 
197.00153230363568 0.244071148746119 
198.00153230363568 0.244071148746119 
199.00153230363568 0.244071148746119 
200.00153230363568 0.244071148746119 
201.00153230363568 0.244071148746119 
202.00153230363568 0.244071148746119 
203.00153230363568 0.244071148746119 
204.00153230363568 0.244071148746119 
205.00153230363568 0.244071148746119 
#####################################################################
# End of data export. Simulation finished at: 2017-05-26T09:24+0000 #
#####################################################################
