#####################################################################
# Alchemist log file - simulation started at: 2017-05-25T19:13+0000 #
#####################################################################
# random = 18.0, targets = 100.0, density = 10.026386447354522, gridShift = 1.0, perturbation = 0.5, connfactor = 0.1
#
# The columns have the following meaning: 
# time se[Mean] 
0.0 NaN 
1.0000499264234746 NaN 
2.0000499264234746 1.0 
3.0000499264234746 1.0 
4.000049926423475 1.0 
5.000049926423475 0.9999816589861751 
6.000049926423475 1.0 
7.000049926423475 0.9998899539170507 
8.000049926423475 0.9998716129032258 
9.000049926423475 0.9997432258064516 
10.000049926423475 0.9996148387096774 
11.000049926423475 0.9995964976958526 
12.000049926423475 0.9992663594470046 
13.000049926423475 0.9994864516129032 
14.000049926423475 0.9990095852534562 
15.000049926423475 0.9991379723502304 
16.000049926423475 0.9990106912442396 
17.000049926423475 0.9988823041474655 
18.000049926423475 0.9990334562211981 
19.000049926423475 0.9983253456221198 
20.000049926423475 0.9984320737327189 
21.000049926423475 0.9977656221198157 
22.000049926423475 0.9974527188940092 
23.000049926423475 0.9968924423963134 
24.000049926423475 0.9963449769585253 
25.000049926423475 0.9964850691244239 
26.000049926423475 0.9955236866359447 
27.000049926423475 0.995409400921659 
28.000049926423475 0.9951872811059908 
29.000049926423475 0.9946583410138249 
30.000049926423475 0.9945082949308756 
31.000049926423475 0.9932093087557604 
32.00004992642347 0.9925604608294931 
33.00004992642347 0.9919188940092166 
34.00004992642347 0.9905172350230415 
35.00004992642347 0.9899647926267281 
36.00004992642347 0.9883285714285714 
37.00004992642347 0.9873611059907834 
38.00004992642347 0.9865007373271889 
39.00004992642347 0.9849664516129032 
40.00004992642347 0.9835396313364055 
41.00004992642347 0.9824654377880184 
42.00004992642347 0.981178341013825 
43.00004992642347 0.9799964976958525 
44.00004992642347 0.9784926267281107 
45.00004992642347 0.9774358525345622 
46.00004992642347 0.9756327188940092 
47.00004992642347 0.9740254377880184 
48.00004992642347 0.9731276497695852 
49.00004992642347 0.970998801843318 
50.00004992642347 0.9694834101382488 
51.00004992642347 0.9683884792626728 
52.00004992642347 0.9669171428571428 
53.00004992642347 0.9666793548387096 
54.00004992642347 0.9656288479262672 
55.00004992642347 0.9653087557603687 
56.00004992642347 0.9645828571428572 
57.00004992642347 0.96418599078341 
58.00004992642347 0.9640624884792627 
59.00004992642347 0.9636146543778802 
60.00004992642347 0.9634247926267281 
61.00004992642347 0.9632339170506912 
62.00004992642347 0.9626009216589863 
63.00004992642347 0.9615247926267281 
64.00004992642347 0.9590863594470046 
65.00004992642347 0.9579444239631336 
66.00004992642347 0.9564264516129033 
67.00004992642347 0.9549370506912442 
68.00004992642347 0.9539257142857142 
69.00004992642347 0.9514747465437787 
70.00004992642347 0.9521257142857142 
71.00004992642347 0.9508848847926268 
72.00004992642347 0.9472468202764976 
73.00004992642347 0.9462858986175116 
74.00004992642347 0.9448729032258064 
75.00004992642347 0.94460866359447 
76.00004992642347 0.9425214746543779 
77.00004992642347 0.9420622119815668 
78.00004992642347 0.941548202764977 
79.00004992642347 0.9384317050691243 
80.00004992642347 0.9366239631336405 
81.00004992642347 0.936901198156682 
82.00004992642347 0.9335291244239632 
83.00004992642347 0.9327342857142856 
84.00004992642347 0.9311838709677419 
85.00004992642347 0.929858801843318 
86.00004992642347 0.9289984331797234 
87.00004992642347 0.928374193548387 
88.00004992642347 0.9299339170506912 
89.00004992642347 0.9280401843317972 
90.00004992642347 0.9277909677419355 
91.00004992642347 0.9272912442396313 
92.00004992642347 0.9220138248847926 
93.00004992642347 0.9213806451612904 
94.00004992642347 0.9207641474654378 
95.00004992642347 0.9176138248847926 
96.00004992642347 0.9157071889400922 
97.00004992642347 0.9140343778801843 
98.00004992642347 0.913341935483871 
99.00004992642347 0.9121190783410138 
100.00004992642347 0.9118847926267281 
101.00004992642347 0.91007732718894 
102.00004992642347 0.9083499539170506 
103.00004992642347 0.9083699539170507 
104.00004992642347 0.9079242396313364 
105.00004992642347 0.906373271889401 
106.00004992642347 0.9079232258064516 
107.00004992642347 0.9066041474654377 
108.00004992642347 0.9039259907834102 
109.00004992642347 0.9041048847926266 
110.00004992642347 0.9042408294930876 
111.00004992642347 0.9017964976958525 
112.00004992642347 0.9012938248847926 
113.00004992642347 0.9006861751152073 
114.00004992642347 0.903065529953917 
115.00004992642347 0.9025560368663594 
116.00004992642347 0.9050654377880184 
117.00004992642347 0.9057442396313363 
118.00004992642347 0.9060259907834102 
119.00004992642347 0.9085435023041475 
120.00004992642347 0.9075060829493088 
121.00004992642347 0.9081556682027649 
122.00004992642347 0.9105378801843318 
123.00004992642347 0.9106457142857143 
124.00004992642347 0.9095683870967741 
125.00004992642347 0.9091032258064516 
126.00004992642347 0.9105516129032258 
127.00004992642347 0.9103600921658986 
128.00004992642346 0.9087270967741935 
129.00004992642346 0.9101720737327189 
130.00004992642346 0.9094685714285714 
131.00004992642346 0.9101043317972349 
132.00004992642346 0.9121211059907833 
133.00004992642346 0.9119840552995392 
134.00004992642346 0.9126428571428572 
135.00004992642346 0.9157478341013825 
136.00004992642346 0.9164248847926267 
137.00004992642346 0.9163849769585253 
138.00004992642346 0.9165840552995391 
139.00004992642346 0.9176588018433179 
140.00004992642346 0.9171812903225806 
141.00004992642346 0.9187335483870968 
142.00004992642346 0.9206445161290322 
143.00004992642346 0.9210426728110599 
144.00004992642346 0.9214009216589861 
145.00004992642346 0.9216 
146.00004992642346 0.9216 
147.00004992642346 0.9216 
148.00004992642346 0.9216 
149.00004992642346 0.9216 
150.00004992642346 0.9216 
151.00004992642346 0.9216 
152.00004992642346 0.9216 
153.00004992642346 0.9216 
154.00004992642346 0.9216 
155.00004992642346 0.9216 
156.00004992642346 0.9216 
157.00004992642346 0.9216 
158.00004992642346 0.9216 
159.00004992642346 0.9216 
160.00004992642346 0.9216 
161.00004992642346 0.9216 
162.00004992642346 0.9216 
163.00004992642346 0.9216 
164.00004992642346 0.9216 
165.00004992642346 0.9216 
166.00004992642346 0.9216 
167.00004992642346 0.9216 
168.00004992642346 0.9216 
169.00004992642346 0.9216 
170.00004992642346 0.9216 
171.00004992642346 0.9216 
172.00004992642346 0.9216 
173.00004992642346 0.9216 
174.00004992642346 0.9216 
175.00004992642346 0.9216 
176.00004992642346 0.9216 
177.00004992642346 0.9216 
178.00004992642346 0.9216 
179.00004992642346 0.9216 
180.00004992642346 0.9216 
181.00004992642346 0.9216 
182.00004992642346 0.9216 
183.00004992642346 0.9216 
184.00004992642346 0.9216 
185.00004992642346 0.9216 
186.00004992642346 0.9216 
187.00004992642346 0.9216 
188.00004992642346 0.9216 
189.00004992642346 0.9216 
190.00004992642346 0.9216 
191.00004992642346 0.9216 
192.00004992642346 0.9216 
193.00004992642346 0.9216 
194.00004992642346 0.9216 
195.00004992642346 0.9216 
196.00004992642346 0.9216 
197.00004992642346 0.9216 
198.00004992642346 0.9216 
199.00004992642346 0.9216 
200.00004992642346 0.9216 
201.00004992642346 0.9216 
202.00004992642346 0.9216 
203.00004992642346 0.9216 
204.00004992642346 0.9216 
205.00004992642346 0.9216 
206.00004992642346 0.9216 
207.00004992642346 0.9216 
208.00004992642346 0.9216 
209.00004992642346 0.9216 
210.00004992642346 0.9216 
211.00004992642346 0.9216 
212.00004992642346 0.9216 
213.00004992642346 0.9216 
214.00004992642346 0.9216 
#####################################################################
# End of data export. Simulation finished at: 2017-05-25T19:14+0000 #
#####################################################################
