#####################################################################
# Alchemist log file - simulation started at: 2017-05-25T18:35+0000 #
#####################################################################
# random = 18.0, targets = 100.0, density = 0.2247883923996312, gridShift = 1.0, perturbation = 0.5, connfactor = 1.5
#
# The columns have the following meaning: 
# time se[Mean] 
0.0 NaN 
1.0067713218599703 NaN 
2.0067713218599703 1.072954761904762 
3.0067713218599703 1.1465326058201057 
4.00677132185997 1.227768253968254 
5.00677132185997 1.3104859788359788 
6.00677132185997 1.4345772486772488 
7.00677132185997 1.3781953042328043 
8.00677132185997 1.394061970899471 
9.00677132185997 1.5951198412698415 
10.00677132185997 1.5914379629629634 
11.00677132185997 1.365297486772487 
12.00677132185997 1.3930716931216935 
13.00677132185997 1.396129100529101 
14.00677132185997 1.1219607142857146 
15.00677132185997 1.011128637566138 
16.006771321859972 1.0813270502645507 
17.006771321859972 0.8722777116402122 
18.006771321859972 0.6420728174603179 
19.006771321859972 0.6490540343915349 
20.006771321859972 0.6406271825396831 
21.006771321859972 0.5636145502645508 
22.006771321859972 0.7383490740740747 
23.006771321859972 1.2023814153439165 
24.006771321859972 0.8549146825396833 
25.006771321859972 1.1549021164021176 
26.006771321859972 1.6409806878306894 
27.006771321859972 1.3140361111111125 
28.006771321859972 1.3079757275132289 
29.006771321859972 1.6216961640211656 
30.006771321859972 1.1326601190476202 
31.006771321859972 0.6411176587301595 
32.00677132185997 0.6383749338624346 
33.00677132185997 0.6354246031746039 
34.00677132185997 0.47478425925925977 
35.00677132185997 0.4745548941798947 
36.00677132185997 0.47613822751322804 
37.00677132185997 0.4751881613756619 
38.00677132185997 0.4761000000000005 
39.00677132185997 0.4761000000000005 
40.00677132185997 0.4761000000000005 
41.00677132185997 0.4761000000000005 
42.00677132185997 0.4761000000000005 
43.00677132185997 0.4761000000000005 
44.00677132185997 0.4761000000000005 
45.00677132185997 0.4761000000000005 
46.00677132185997 0.4761000000000005 
47.00677132185997 0.4761000000000005 
48.00677132185997 0.4761000000000005 
49.00677132185997 0.4761000000000005 
#####################################################################
# End of data export. Simulation finished at: 2017-05-25T18:35+0000 #
#####################################################################
