#####################################################################
# Alchemist log file - simulation started at: 2017-05-23T00:35+0000 #
#####################################################################
# random = 4.0, targets = 100.0, density = 0.894427190999916, gridShift = 1.0, perturbation = 0.5, connfactor = 1.0
#
# The columns have the following meaning: 
# time se[Mean] 
0.0 NaN 
1.0035718759004084 NaN 
2.003571875900408 1.0473295833333334 
3.003571875900408 1.066950324074074 
4.003571875900408 1.1118970138888888 
5.003571875900408 1.1578819444444444 
6.003571875900408 1.1654013425925926 
7.003571875900408 1.2091789583333334 
8.003571875900409 1.1888572916666666 
9.003571875900409 1.1998966435185185 
10.003571875900409 1.1691131944444444 
11.003571875900409 1.1629467361111112 
12.003571875900409 1.1436124074074074 
13.003571875900409 1.11987 
14.003571875900409 1.1345066203703704 
15.003571875900409 1.1859650462962963 
16.00357187590041 1.1761135648148149 
17.00357187590041 1.2435083796296296 
18.00357187590041 1.3308666203703705 
19.00357187590041 1.259702175925926 
20.00357187590041 1.3403492824074075 
21.00357187590041 1.3236610648148148 
22.00357187590041 1.306299328703704 
23.00357187590041 1.3523430787037038 
24.00357187590041 1.3774115798611113 
25.00357187590041 1.3849447569444446 
26.00357187590041 1.358961875 
27.00357187590041 1.3989993807870371 
28.00357187590041 1.337219982638889 
29.00357187590041 1.3672714814814817 
30.00357187590041 1.3743108101851853 
31.00357187590041 1.467911527777778 
32.003571875900406 1.4313716030092594 
33.003571875900406 1.5017072569444447 
34.003571875900406 1.5008102488425927 
35.003571875900406 1.5261338888888891 
36.003571875900406 1.5669356076388892 
37.003571875900406 1.577377476851852 
38.003571875900406 1.576813894675926 
39.003571875900406 1.5845155208333335 
40.003571875900406 1.490761082175926 
41.003571875900406 1.5413234664351854 
42.003571875900406 1.4855513136574077 
43.003571875900406 1.427552743055556 
44.003571875900406 1.3581381250000002 
45.003571875900406 1.420104010416667 
46.003571875900406 1.3904156770833336 
47.003571875900406 1.3808330266203708 
48.003571875900406 1.3867920891203707 
49.003571875900406 1.397885092592593 
50.003571875900406 1.4081067361111115 
51.003571875900406 1.4182188194444447 
52.003571875900406 1.4222861574074077 
53.003571875900406 1.4739189351851856 
54.003571875900406 1.5283584259259262 
55.003571875900406 1.6179696296296298 
56.003571875900406 1.8428767361111114 
57.003571875900406 1.6665570601851856 
58.003571875900406 1.7983861805555557 
59.003571875900406 1.7515993750000005 
60.003571875900406 1.7018743750000003 
61.003571875900406 1.8290967361111115 
62.003571875900406 1.8252476851851855 
63.003571875900406 1.8639965046296298 
64.0035718759004 1.9504908564814818 
65.0035718759004 1.8596956250000003 
66.0035718759004 1.8597897453703707 
67.0035718759004 1.768056851851852 
68.0035718759004 1.6371355555555556 
69.0035718759004 1.459505092592593 
70.0035718759004 1.5489350925925929 
71.0035718759004 1.4598956481481487 
72.0035718759004 1.4159025000000003 
73.0035718759004 1.4161000000000004 
74.0035718759004 1.4161000000000004 
75.0035718759004 1.4161000000000004 
76.0035718759004 1.4161000000000004 
77.0035718759004 1.4161000000000004 
78.0035718759004 1.4161000000000004 
79.0035718759004 1.4161000000000004 
80.0035718759004 1.4161000000000004 
81.0035718759004 1.4161000000000004 
82.0035718759004 1.4161000000000004 
83.0035718759004 1.4161000000000004 
84.0035718759004 1.4161000000000004 
85.0035718759004 1.4161000000000004 
86.0035718759004 1.4161000000000004 
87.0035718759004 1.4161000000000004 
88.0035718759004 1.4161000000000004 
89.0035718759004 1.4161000000000004 
90.0035718759004 1.4161000000000004 
91.0035718759004 1.4161000000000004 
92.0035718759004 1.4161000000000004 
#####################################################################
# End of data export. Simulation finished at: 2017-05-23T00:36+0000 #
#####################################################################
