#####################################################################
# Alchemist log file - simulation started at: 2017-05-22T23:58+0000 #
#####################################################################
# random = 4.0, targets = 31.622776601683793, density = 20.0, gridShift = 1.0, perturbation = 0.5, connfactor = 2.0
#
# The columns have the following meaning: 
# time se[Mean] 
0.0 NaN 
1.000075526147678 NaN 
2.000075526147678 1.008025964744131 
3.000075526147678 1.0139979220234532 
4.000075526147678 1.0179174038613894 
5.000075526147678 1.0232339919473388 
6.000075526147678 1.019798240798545 
7.000075526147678 1.0241200190381532 
8.000075526147679 1.0255887727020325 
9.000075526147679 1.0213638396443703 
10.000075526147679 1.0229414037108706 
11.000075526147679 1.017846266770335 
12.000075526147679 1.0204188142714732 
13.000075526147679 1.0188538115071686 
14.000075526147679 1.0189355194768595 
15.000075526147679 1.0197417447283648 
16.00007552614768 1.023247518302062 
17.00007552614768 1.025860732017116 
18.00007552614768 1.0277340786476539 
19.00007552614768 1.0309746619509856 
20.00007552614768 1.034772675493706 
21.00007552614768 1.0370308573193174 
22.00007552614768 1.0350415165641416 
23.00007552614768 1.0378924888017076 
24.00007552614768 1.037173813599257 
25.00007552614768 1.0340665424441242 
26.00007552614768 1.035318998675457 
27.00007552614768 1.0329370472340702 
28.00007552614768 1.029079292352954 
29.00007552614768 1.028725274627452 
30.00007552614768 1.0261786613995063 
31.00007552614768 1.0257225149695504 
32.00007552614768 1.0267415137786968 
33.00007552614768 1.0254851141690908 
34.00007552614768 1.0274044297907603 
35.00007552614768 1.0296581218165461 
36.00007552614768 1.0313209477951093 
37.00007552614768 1.034248438509619 
38.00007552614768 1.0395392525512297 
39.00007552614768 1.0459331827074643 
40.00007552614768 1.047927776938615 
41.00007552614768 1.058883762178781 
42.00007552614768 1.0657276130465705 
43.00007552614768 1.0744306273120903 
44.00007552614768 1.0815995794162858 
45.00007552614768 1.0898058159384445 
46.00007552614768 1.0996351229466854 
47.00007552614768 1.1056858744722284 
48.00007552614768 1.115483828317655 
49.00007552614768 1.126321895771946 
50.00007552614768 1.1336165495106543 
51.00007552614768 1.143328776761981 
52.00007552614768 1.153611355309963 
53.00007552614768 1.1634429772585284 
54.00007552614768 1.1711963773126455 
55.00007552614768 1.183266347555436 
56.00007552614768 1.187596131295125 
57.00007552614768 1.193593526901907 
58.00007552614768 1.1941133918798426 
59.00007552614768 1.1990047422490953 
60.00007552614768 1.1969324334312628 
61.00007552614768 1.1979628383061127 
62.00007552614768 1.1981307200559712 
63.00007552614768 1.195672328711427 
64.00007552614768 1.1951411275323236 
65.00007552614768 1.1924834014345278 
66.00007552614768 1.1881603618917695 
67.00007552614768 1.184514589371363 
68.00007552614768 1.1813933150651004 
69.00007552614768 1.1785985117707491 
70.00007552614768 1.173943932394505 
71.00007552614768 1.1808647863640827 
72.00007552614768 1.195242229750361 
73.00007552614768 1.1927387898022106 
74.00007552614768 1.2072136546556709 
75.00007552614768 1.2050060179262803 
76.00007552614768 1.2358880054735462 
77.00007552614768 1.2168912192225596 
78.00007552614768 1.2307453536383686 
79.00007552614768 1.2546795789417031 
80.00007552614768 1.23726568238409 
81.00007552614768 1.2780965561069437 
82.00007552614768 1.2835951082713175 
83.00007552614768 1.2672768803505023 
84.00007552614768 1.307603689770567 
85.00007552614768 1.2803693647341075 
86.00007552614768 1.3381017688417483 
87.00007552614768 1.2688853727003875 
88.00007552614768 1.346302096387487 
89.00007552614768 1.3100453976531339 
90.00007552614768 1.3103019601576122 
91.00007552614768 1.3088484916097118 
92.00007552614768 1.3060145782056474 
93.00007552614768 1.3324175705818568 
94.00007552614768 1.3563381185454606 
95.00007552614768 1.3395254961172327 
96.00007552614768 1.32856470433526 
97.00007552614768 1.303205598256316 
98.00007552614768 1.3704218562088795 
99.00007552614768 1.3692587323549668 
100.00007552614768 1.335739487423363 
101.00007552614768 1.4205463081536884 
102.00007552614768 1.344497655481969 
103.00007552614768 1.3705421972881002 
104.00007552614768 1.4096816587585232 
105.00007552614768 1.3596821792859557 
106.00007552614768 1.3939203185177909 
107.00007552614768 1.4406647094136433 
108.00007552614768 1.3913322501653589 
109.00007552614768 1.364649972603318 
110.00007552614768 1.4737729003540894 
111.00007552614768 1.4138037073910517 
112.00007552614768 1.4737708059115633 
113.00007552614768 1.4046060632499533 
114.00007552614768 1.491062762189669 
115.00007552614768 1.4295739167121084 
116.00007552614768 1.4498883897231818 
117.00007552614768 1.4925519792838147 
118.00007552614768 1.4253902391557567 
119.00007552614768 1.461346986673498 
120.00007552614768 1.4778939271631388 
121.00007552614768 1.474798553574476 
122.00007552614768 1.4927785561160645 
123.00007552614768 1.5329912664059961 
124.00007552614768 1.553754006716578 
125.00007552614768 1.500110014739818 
126.00007552614768 1.5227854353271493 
127.00007552614768 1.6076087986143546 
128.00007552614767 1.5272203581765873 
129.00007552614767 1.5493703187823122 
130.00007552614767 1.5327688432115865 
131.00007552614767 1.5502151497991579 
132.00007552614767 1.5980543811176264 
133.00007552614767 1.57386119922622 
134.00007552614767 1.6287056525615966 
135.00007552614767 1.6283157055681934 
136.00007552614767 1.5823367744116486 
137.00007552614767 1.6253191663190294 
138.00007552614767 1.6193122201971661 
139.00007552614767 1.5970251226550074 
140.00007552614767 1.5868037658834038 
141.00007552614767 1.6218693936613269 
142.00007552614767 1.5715593916371031 
143.00007552614767 1.5957071478232734 
144.00007552614767 1.619665331245122 
145.00007552614767 1.6508407428713008 
146.00007552614767 1.6764192191403249 
147.00007552614767 1.6294993705506242 
148.00007552614767 1.6684606792689154 
149.00007552614767 1.6779368964382424 
150.00007552614767 1.7629107673563786 
151.00007552614767 1.7740857086788129 
152.00007552614767 1.7929202166967768 
153.00007552614767 1.853073957031631 
154.00007552614767 1.8351589019972059 
155.00007552614767 1.8913584803305539 
156.00007552614767 1.9357743164264105 
157.00007552614767 1.9244604310933981 
158.00007552614767 2.0453513858932713 
159.00007552614767 2.0218940163799077 
160.00007552614767 2.038958550689422 
161.00007552614767 2.096784638428946 
162.00007552614767 2.165715525863176 
163.00007552614767 2.1696596801791395 
164.00007552614767 2.20483781337749 
165.00007552614767 2.232878921090315 
166.00007552614767 2.3030528390812206 
167.00007552614767 2.3060456709073236 
168.00007552614767 2.3582326409724366 
169.00007552614767 2.380027422658108 
170.00007552614767 2.4097298085260497 
171.00007552614767 2.533852907088906 
172.00007552614767 2.5322642261961805 
173.00007552614767 2.628481812901107 
174.00007552614767 2.701489873803151 
175.00007552614767 2.685891668490136 
176.00007552614767 2.7604177517155493 
177.00007552614767 2.7609211148431188 
178.00007552614767 2.7909015282437837 
179.00007552614767 2.9522203660164696 
180.00007552614767 2.83364332269491 
181.00007552614767 2.878040649056249 
182.00007552614767 2.8583173622815963 
183.00007552614767 2.9821557326482964 
184.00007552614767 2.987450135288583 
185.00007552614767 2.9089970345919816 
186.00007552614767 3.147658684670388 
187.00007552614767 3.075000539812918 
188.00007552614767 3.083456506894042 
189.00007552614767 3.2113147213753575 
190.00007552614767 3.1899687163222796 
191.00007552614767 3.1449224996585508 
192.00007552614767 3.161254989009187 
193.00007552614767 3.274080910905127 
194.00007552614767 3.2426149019036754 
195.00007552614767 3.1998669558853363 
196.00007552614767 3.4608096071838133 
197.00007552614767 3.3370496107441117 
198.00007552614767 3.3261655847450236 
199.00007552614767 3.5361392709880572 
200.00007552614767 3.443959134597126 
201.00007552614767 3.541191694946501 
202.00007552614767 3.698710387277608 
203.00007552614767 3.602942533147242 
204.00007552614767 3.5737164417340357 
205.00007552614767 3.845945096654665 
206.00007552614767 3.678631767454796 
207.00007552614767 3.8239328300368345 
208.00007552614767 3.882961242601139 
209.00007552614767 3.9061219085458307 
210.00007552614767 3.97286121824974 
211.00007552614767 3.8659703952528193 
212.00007552614767 3.9323761768609478 
213.00007552614767 4.060160106789835 
214.00007552614767 4.117000362339641 
215.00007552614767 4.394077217012209 
216.00007552614767 4.177076378734033 
217.00007552614767 4.482813880577754 
218.00007552614767 4.510918511591074 
219.00007552614767 4.504391435661942 
220.00007552614767 4.4877384006720185 
221.00007552614767 4.615627772177499 
222.00007552614767 4.877718872427423 
223.00007552614767 4.817675405095084 
224.00007552614767 4.869287394734506 
225.00007552614767 4.8777053609283945 
226.00007552614767 4.99175786243352 
227.00007552614767 5.18133374088329 
228.00007552614767 5.172207521293546 
229.00007552614767 5.151464946354542 
230.00007552614767 5.5585153257190125 
231.00007552614767 5.167845723754876 
232.00007552614767 5.191405343620201 
233.00007552614767 5.398225100441032 
234.00007552614767 5.117855034023281 
235.00007552614767 5.205214491460805 
236.00007552614767 5.649178232057741 
237.00007552614767 5.219435846486183 
238.00007552614767 5.129556538810684 
239.00007552614767 5.332552387827036 
240.00007552614767 5.240905431877404 
241.00007552614767 5.453329370443137 
242.00007552614767 5.17103547677747 
243.00007552614767 5.6752843331134795 
244.00007552614767 5.138697167953643 
245.00007552614767 5.228758088597742 
246.00007552614767 5.517464766224936 
247.00007552614767 5.156437643706081 
248.00007552614767 5.36723362370049 
249.00007552614767 5.6860979035775046 
250.00007552614767 5.488229656114148 
251.00007552614767 5.3409826356741545 
252.00007552614767 5.678723702099067 
253.00007552614767 5.57741219951818 
254.00007552614767 5.37420470304624 
255.00007552614767 5.219134397220581 
256.00007552614767 5.436301556538284 
257.00007552614767 5.157817382724554 
258.00007552614767 5.045700648910004 
259.00007552614767 5.040892472996401 
260.00007552614767 4.967893303203185 
261.00007552614767 5.033429007798494 
262.00007552614767 4.926561689078241 
263.00007552614767 5.101185420938118 
264.00007552614767 5.2165486182805205 
265.00007552614767 5.0988387278077205 
266.00007552614767 5.018625268459391 
267.00007552614767 4.890067263918713 
268.00007552614767 4.68418529545968 
269.00007552614767 4.688119017432503 
270.00007552614767 4.7181676124656935 
271.00007552614767 4.305888931264211 
272.00007552614767 4.205257958470581 
273.00007552614767 4.134469753482733 
274.00007552614767 4.239462954206697 
275.00007552614767 4.01451171800575 
276.00007552614767 4.103993757663384 
277.00007552614767 4.361675977146342 
278.00007552614767 3.9222532326075457 
279.00007552614767 3.8780302355355225 
280.00007552614767 3.955289590734301 
281.00007552614767 3.637707276827202 
282.00007552614767 3.345016193744635 
283.00007552614767 3.4902347356165966 
284.00007552614767 3.1403450229746332 
285.00007552614767 3.079086651118328 
286.00007552614767 3.0185457520591132 
287.00007552614767 2.9340419982789774 
288.00007552614767 2.890563802786507 
289.00007552614767 2.727307813525453 
290.00007552614767 2.8195655330273164 
291.00007552614767 2.719767767987495 
292.00007552614767 2.7252410950512393 
293.00007552614767 2.7169636777118176 
294.00007552614767 2.571640097654335 
295.00007552614767 2.5066102242055552 
296.00007552614767 2.542656255182513 
297.00007552614767 2.463237872228031 
298.00007552614767 2.460634580069121 
299.00007552614767 2.451077819980663 
300.00007552614767 2.301234368791806 
301.00007552614767 2.281899494250394 
302.00007552614767 2.24391520031018 
303.00007552614767 2.2319729130031125 
304.00007552614767 2.2432799671095007 
305.00007552614767 2.204356937639005 
306.00007552614767 2.204773261742943 
307.00007552614767 2.184570162685974 
308.00007552614767 2.1749027153950236 
309.00007552614767 2.175077771376684 
310.00007552614767 2.1747578806325176 
311.00007552614767 2.174362319725506 
312.00007552614767 2.175415531040283 
313.00007552614767 2.1743157638897244 
314.00007552614767 2.1745749007988673 
315.00007552614767 2.17475851933207 
316.00007552614767 2.17406157670687 
317.00007552614767 2.17473081511916 
318.00007552614767 2.1739107109896256 
319.00007552614767 2.1743448976403927 
320.00007552614767 2.173893085262704 
321.00007552614767 2.1739455204421922 
322.00007552614767 2.1740831172499915 
323.00007552614767 2.173750399597657 
324.00007552614767 2.173956791689337 
325.00007552614767 2.173778215519147 
326.00007552614767 2.17386619843101 
327.00007552614767 2.173622228337482 
328.00007552614767 2.1740341160382197 
329.00007552614767 2.1736132045369336 
330.00007552614767 2.1737897504376518 
331.00007552614767 2.173825799145611 
332.00007552614767 2.17361901154689 
333.00007552614767 2.173891087600404 
334.00007552614767 2.173654638380673 
335.00007552614767 2.1737579003443535 
336.00007552614767 2.173727975051983 
337.00007552614767 2.173654242873633 
338.00007552614767 2.1737425421911283 
339.00007552614767 2.173668678177098 
340.00007552614767 2.173712880570118 
341.00007552614767 2.1736832980505154 
342.00007552614767 2.173690687088632 
343.00007552614767 2.1736832980505154 
344.00007552614767 2.1736832980505154 
345.00007552614767 2.1736832980505154 
346.00007552614767 2.1736832980505154 
347.00007552614767 2.1736832980505154 
348.00007552614767 2.1736832980505154 
349.00007552614767 2.1736832980505154 
350.00007552614767 2.1736832980505154 
351.00007552614767 2.1736832980505154 
352.00007552614767 2.1736832980505154 
353.00007552614767 2.1736832980505154 
354.00007552614767 2.1736832980505154 
355.00007552614767 2.1736832980505154 
356.00007552614767 2.1736832980505154 
357.00007552614767 2.1736832980505154 
358.00007552614767 2.1736832980505154 
359.00007552614767 2.1736832980505154 
360.00007552614767 2.1736832980505154 
361.00007552614767 2.1736832980505154 
362.00007552614767 2.1736832980505154 
363.00007552614767 2.1736832980505154 
364.00007552614767 2.1736832980505154 
365.00007552614767 2.1736832980505154 
366.00007552614767 2.1736832980505154 
367.00007552614767 2.1736832980505154 
368.00007552614767 2.1736832980505154 
369.00007552614767 2.1736832980505154 
370.00007552614767 2.1736832980505154 
371.00007552614767 2.1736832980505154 
372.00007552614767 2.1736832980505154 
373.00007552614767 2.1736832980505154 
374.00007552614767 2.1736832980505154 
375.00007552614767 2.1736832980505154 
376.00007552614767 2.1736832980505154 
377.00007552614767 2.1736832980505154 
378.00007552614767 2.1736832980505154 
379.00007552614767 2.1736832980505154 
380.00007552614767 2.1736832980505154 
381.00007552614767 2.1736832980505154 
382.00007552614767 2.1736832980505154 
383.00007552614767 2.1736832980505154 
384.00007552614767 2.1736832980505154 
385.00007552614767 2.1736832980505154 
386.00007552614767 2.1736832980505154 
387.00007552614767 2.1736832980505154 
388.00007552614767 2.1736832980505154 
389.00007552614767 2.1736832980505154 
390.00007552614767 2.1736832980505154 
391.00007552614767 2.1736832980505154 
392.00007552614767 2.1736832980505154 
393.00007552614767 2.1736832980505154 
394.00007552614767 2.1736832980505154 
395.00007552614767 2.1736832980505154 
396.00007552614767 2.1736832980505154 
397.00007552614767 2.1736832980505154 
398.00007552614767 2.1736832980505154 
399.00007552614767 2.1736832980505154 
400.00007552614767 2.1736832980505154 
401.00007552614767 2.1736832980505154 
402.00007552614767 2.1736832980505154 
403.00007552614767 2.1736832980505154 
404.00007552614767 2.1736832980505154 
405.00007552614767 2.1736832980505154 
406.00007552614767 2.1736832980505154 
407.00007552614767 2.1736832980505154 
408.00007552614767 2.1736832980505154 
409.00007552614767 2.1736832980505154 
410.00007552614767 2.1736832980505154 
411.00007552614767 2.1736832980505154 
412.00007552614767 2.1736832980505154 
413.00007552614767 2.1736832980505154 
414.00007552614767 2.1736832980505154 
415.00007552614767 2.1736832980505154 
416.00007552614767 2.1736832980505154 
417.00007552614767 2.1736832980505154 
418.00007552614767 2.1736832980505154 
419.00007552614767 2.1736832980505154 
420.00007552614767 2.1736832980505154 
421.00007552614767 2.1736832980505154 
422.00007552614767 2.1736832980505154 
423.00007552614767 2.1736832980505154 
424.00007552614767 2.1736832980505154 
425.00007552614767 2.1736832980505154 
426.00007552614767 2.1736832980505154 
427.00007552614767 2.1736832980505154 
428.00007552614767 2.1736832980505154 
429.00007552614767 2.1736832980505154 
430.00007552614767 2.1736832980505154 
431.00007552614767 2.1736832980505154 
432.00007552614767 2.1736832980505154 
433.00007552614767 2.1736832980505154 
434.00007552614767 2.1736832980505154 
435.00007552614767 2.1736832980505154 
436.00007552614767 2.1736832980505154 
437.00007552614767 2.1736832980505154 
438.00007552614767 2.1736832980505154 
439.00007552614767 2.1736832980505154 
440.00007552614767 2.1736832980505154 
441.00007552614767 2.1736832980505154 
#####################################################################
# End of data export. Simulation finished at: 2017-05-23T00:57+0000 #
#####################################################################
