#####################################################################
# Alchemist log file - simulation started at: 2017-05-25T11:34+0000 #
#####################################################################
# random = 8.0, targets = 3.1622776601683795, density = 14.160781367816199, gridShift = 1.0, perturbation = 0.0, connfactor = 1.5
#
# The columns have the following meaning: 
# time se[Mean] 
0.0 NaN 
1.0009270308328329 NaN 
2.000927030832833 1.0085659682834474 
3.000927030832833 1.0125464024701225 
4.000927030832833 1.0214417052266551 
5.000927030832833 1.0261554543828961 
6.000927030832833 1.0198863151316908 
7.000927030832833 1.0222309101839222 
8.000927030832834 1.0166343604925216 
9.000927030832834 1.009273564362437 
10.000927030832834 1.006339147193443 
11.000927030832834 1.0026754776757567 
12.000927030832834 0.9921733432210086 
13.000927030832834 0.9939530609718323 
14.000927030832834 0.9919087929564581 
15.000927030832834 0.9926755624726699 
16.000927030832834 0.9941265263068234 
17.000927030832834 0.9951922682282562 
18.000927030832834 0.9947612142095646 
19.000927030832834 0.9972558741097719 
20.000927030832834 0.9967569421297305 
21.000927030832834 0.9985032040598756 
22.000927030832834 0.998253738069855 
23.000927030832834 1.0 
24.000927030832834 0.9995010680199585 
25.000927030832834 1.0 
26.000927030832834 1.0 
27.000927030832834 1.0 
28.000927030832834 1.0 
29.000927030832834 1.0 
30.000927030832834 1.0 
31.000927030832834 1.0 
32.000927030832834 1.0 
33.000927030832834 1.0 
34.000927030832834 1.0 
35.000927030832834 1.0 
36.000927030832834 0.9998073890436396 
37.000927030832834 0.9990369452181983 
38.000927030832834 0.9996147780872793 
39.000927030832834 0.9978812794800364 
40.000927030832834 0.9992295561745587 
41.000927030832834 0.9984591123491173 
42.000927030832834 0.9978134015186864 
43.000927030832834 0.9986975554114483 
44.000927030832834 0.998130745470057 
45.000927030832834 0.997387762204437 
46.000927030832834 0.9979839666196675 
47.000927030832834 0.9967273541370866 
48.000927030832834 0.9963311092966763 
49.000927030832834 0.9952286242829448 
50.000927030832834 0.9929838174103683 
51.000927030832834 0.9895858592700623 
52.000927030832834 0.9850393917652821 
53.000927030832834 0.98032293716787 
54.000927030832834 0.975020529555762 
55.000927030832834 0.9681488061389251 
56.000927030832834 0.9613817037757376 
57.000927030832834 0.9571272483693628 
58.000927030832834 0.9523916557947782 
59.000927030832834 0.9485067714845405 
60.000927030832834 0.9411566048743694 
61.000927030832834 0.9339159189465365 
62.000927030832834 0.9294765780476053 
63.000927030832834 0.9194677864601453 
64.00092703083283 0.9096405497765008 
65.00092703083283 0.9023573164662463 
66.00092703083283 0.8939313526009791 
67.00092703083283 0.889868159889496 
68.00092703083283 0.8839629771410175 
69.00092703083283 0.8751154302122091 
70.00092703083283 0.8721204951666189 
71.00092703083283 0.8652187979935618 
72.00092703083283 0.8571229490467643 
73.00092703083283 0.8472307435540108 
74.00092703083283 0.8403936345226175 
75.00092703083283 0.8324633242840008 
76.00092703083283 0.8229822569354475 
77.00092703083283 0.8156046374096549 
78.00092703083283 0.8108263026598135 
79.00092703083283 0.8011512786414946 
80.00092703083283 0.7962503357814006 
81.00092703083283 0.7871602959097207 
82.00092703083283 0.777078971717324 
83.00092703083283 0.770037464918925 
84.00092703083283 0.7584792542907312 
85.00092703083283 0.7520654674440599 
86.00092703083283 0.7424345402326314 
87.00092703083283 0.7309393670475947 
88.00092703083283 0.7275398658529812 
89.00092703083283 0.716923641937499 
90.00092703083283 0.7055709991073728 
91.00092703083283 0.6983805809296313 
92.00092703083283 0.6881907640334533 
93.00092703083283 0.6728985029220891 
94.00092703083283 0.6693591768137371 
95.00092703083283 0.6549719556117143 
96.00092703083283 0.6466569963725951 
97.00092703083283 0.6334202171750347 
98.00092703083283 0.621223846771907 
99.00092703083283 0.611299542638174 
100.00092703083283 0.600105492223775 
101.00092703083283 0.5908808562681886 
102.00092703083283 0.5764116391502813 
103.00092703083283 0.5633695932457708 
104.00092703083283 0.551724571664159 
105.00092703083283 0.5369467049267456 
106.00092703083283 0.5227346970991206 
107.00092703083283 0.5068649850601573 
108.00092703083283 0.49516697117678266 
109.00092703083283 0.48051655816394945 
110.00092703083283 0.4685688898678829 
111.00092703083283 0.4569167144606487 
112.00092703083283 0.44317346369384825 
113.00092703083283 0.42927396821763697 
114.00092703083283 0.4118869599855381 
115.00092703083283 0.4040514204520101 
116.00092703083283 0.3863033597732939 
117.00092703083283 0.37950184800976355 
118.00092703083283 0.3684325165760164 
119.00092703083283 0.36153585726205206 
120.00092703083283 0.3561396707455124 
121.00092703083283 0.3485628682681833 
122.00092703083283 0.34021505032723054 
123.00092703083283 0.3322681229520396 
124.00092703083283 0.3222842583434741 
125.00092703083283 0.31284381592961713 
126.00092703083283 0.3014617811737186 
127.00092703083283 0.2972361562471927 
128.00092703083283 0.29187265020207903 
129.00092703083283 0.2928034395787874 
130.00092703083283 0.28412029062985883 
131.00092703083283 0.28069779382230164 
132.00092703083283 0.27325423916740454 
133.00092703083283 0.2691605010615138 
134.00092703083283 0.2520740121110456 
135.00092703083283 0.25162131201491494 
136.00092703083283 0.23972874689100135 
137.00092703083283 0.23715908068448235 
138.00092703083283 0.2371227437402871 
139.00092703083283 0.21999756631720657 
140.00092703083283 0.22270324694091195 
141.00092703083283 0.21773540772785607 
142.00092703083283 0.2093115789396085 
143.00092703083283 0.19903338637714307 
144.00092703083283 0.1919947785387193 
145.00092703083283 0.18541023816839244 
146.00092703083283 0.1761401635146112 
147.00092703083283 0.17119320139990718 
148.00092703083283 0.16641971226439184 
149.00092703083283 0.160849472212247 
150.00092703083283 0.1566704470967491 
151.00092703083283 0.15024139264900493 
152.00092703083283 0.14685273360360418 
153.00092703083283 0.14496163820338337 
154.00092703083283 0.13955693940748515 
155.00092703083283 0.1447479872066571 
156.00092703083283 0.16566315733596207 
157.00092703083283 0.13683374922112393 
158.00092703083283 0.1538466068814416 
159.00092703083283 0.13980282027058225 
160.00092703083283 0.1453705827992504 
161.00092703083283 0.11892793772564757 
162.00092703083283 0.12661248431219646 
163.00092703083283 0.23540648768559114 
164.00092703083283 0.4854707537653188 
165.00092703083283 1.1061985990995797 
166.00092703083283 0.7084553378883696 
167.00092703083283 1.2108996155097271 
168.00092703083283 0.9620320551691827 
169.00092703083283 1.3185068259201005 
170.00092703083283 0.6986262233481405 
171.00092703083283 1.056144495372277 
172.00092703083283 0.8088091207065694 
173.00092703083283 1.0395281257584772 
174.00092703083283 1.4074193686943528 
175.00092703083283 0.7946767980354604 
176.00092703083283 1.2835017532330106 
177.00092703083283 1.2818401952080007 
178.00092703083283 1.153728050194159 
179.00092703083283 0.9078237196660169 
180.00092703083283 0.7948783516259127 
181.00092703083283 0.7794410304008046 
182.00092703083283 0.5409897471412619 
183.00092703083283 0.5479177615977656 
184.00092703083283 0.6430295807865385 
185.00092703083283 0.6504634939000736 
186.00092703083283 0.7750237621119523 
187.00092703083283 0.6392502838499463 
188.00092703083283 0.6456900009424562 
189.00092703083283 1.0070941452553852 
190.00092703083283 0.6392578400015778 
191.00092703083283 0.7607941517172628 
192.00092703083283 1.0043045870371312 
193.00092703083283 0.3830136137149028 
194.00092703083283 0.6263687566309848 
195.00092703083283 0.7481094686617483 
196.00092703083283 0.3716698561873823 
197.00092703083283 0.6299218213004631 
198.00092703083283 0.5022186666134837 
199.00092703083283 0.502431393333308 
200.00092703083283 0.49721715767641755 
201.00092703083283 0.506318429282989 
202.00092703083283 0.2524052491841322 
203.00092703083283 0.26145836773310305 
204.00092703083283 0.25206547233977483 
205.00092703083283 0.012370912832759986 
206.00092703083283 0.3793077902225713 
207.00092703083283 0.2566299345453544 
208.00092703083283 0.2520360778659324 
209.00092703083283 0.13873313307351118 
210.00092703083283 0.38353943589061784 
211.00092703083283 0.12954135836782435 
212.00092703083283 0.3741645250058189 
213.00092703083283 0.12494518073677677 
214.00092703083283 0.25185313520562946 
215.00092703083283 0.24725715109338056 
216.00092703083283 0.24725676405577035 
217.00092703083283 0.12494518073677689 
218.00092703083283 0.36956815385595665 
219.00092703083283 0.3695683473747829 
220.00092703083283 0.12494498721796617 
221.00092703083283 0.12494498721796689 
222.00092703083283 0.0026334038989724354 
223.00092703083283 0.12494498721796655 
224.00092703083283 0.0026334038989724354 
225.00092703083283 0.0026334038989724354 
226.00092703083283 0.0026334038989724354 
227.00092703083283 0.0026334038989724354 
228.00092703083283 0.0026334038989724354 
229.00092703083283 0.0026334038989724354 
230.00092703083283 0.0026334038989724354 
231.00092703083283 0.0026334038989724354 
232.00092703083283 0.0026334038989724354 
233.00092703083283 0.0026334038989724354 
234.00092703083283 0.0026334038989724354 
235.00092703083283 0.0026334038989724354 
236.00092703083283 0.0026334038989724354 
237.00092703083283 0.0026334038989724354 
238.00092703083283 0.0026334038989724354 
239.00092703083283 0.0026334038989724354 
240.00092703083283 0.0026334038989724354 
241.00092703083283 0.0026334038989724354 
242.00092703083283 0.0026334038989724354 
243.00092703083283 0.0026334038989724354 
244.00092703083283 0.0026334038989724354 
245.00092703083283 0.0026334038989724354 
246.00092703083283 0.0026334038989724354 
247.00092703083283 0.0026334038989724354 
248.00092703083283 0.0026334038989724354 
249.00092703083283 0.0026334038989724354 
250.00092703083283 0.0026334038989724354 
251.00092703083283 0.0026334038989724354 
252.00092703083283 0.0026334038989724354 
253.00092703083283 0.0026334038989724354 
254.00092703083283 0.0026334038989724354 
255.00092703083283 0.0026334038989724354 
256.0009270308328 0.0026334038989724354 
257.0009270308328 0.0026334038989724354 
258.0009270308328 0.0026334038989724354 
259.0009270308328 0.0026334038989724354 
260.0009270308328 0.0026334038989724354 
261.0009270308328 0.0026334038989724354 
262.0009270308328 0.0026334038989724354 
263.0009270308328 0.0026334038989724354 
264.0009270308328 0.0026334038989724354 
265.0009270308328 0.0026334038989724354 
266.0009270308328 0.0026334038989724354 
267.0009270308328 0.0026334038989724354 
268.0009270308328 0.0026334038989724354 
269.0009270308328 0.0026334038989724354 
270.0009270308328 0.0026334038989724354 
271.0009270308328 0.0026334038989724354 
272.0009270308328 0.0026334038989724354 
273.0009270308328 0.0026334038989724354 
274.0009270308328 0.0026334038989724354 
275.0009270308328 0.0026334038989724354 
276.0009270308328 0.0026334038989724354 
277.0009270308328 0.0026334038989724354 
278.0009270308328 0.0026334038989724354 
279.0009270308328 0.0026334038989724354 
280.0009270308328 0.0026334038989724354 
281.0009270308328 0.0026334038989724354 
282.0009270308328 0.0026334038989724354 
283.0009270308328 0.0026334038989724354 
284.0009270308328 0.0026334038989724354 
285.0009270308328 0.0026334038989724354 
286.0009270308328 0.0026334038989724354 
287.0009270308328 0.0026334038989724354 
288.0009270308328 0.0026334038989724354 
289.0009270308328 0.0026334038989724354 
290.0009270308328 0.0026334038989724354 
291.0009270308328 0.0026334038989724354 
292.0009270308328 0.0026334038989724354 
293.0009270308328 0.0026334038989724354 
294.0009270308328 0.0026334038989724354 
295.0009270308328 0.0026334038989724354 
296.0009270308328 0.0026334038989724354 
297.0009270308328 0.0026334038989724354 
298.0009270308328 0.0026334038989724354 
299.0009270308328 0.0026334038989724354 
300.0009270308328 0.0026334038989724354 
301.0009270308328 0.0026334038989724354 
302.0009270308328 0.0026334038989724354 
303.0009270308328 0.0026334038989724354 
304.0009270308328 0.0026334038989724354 
305.0009270308328 0.0026334038989724354 
306.0009270308328 0.0026334038989724354 
#####################################################################
# End of data export. Simulation finished at: 2017-05-25T11:44+0000 #
#####################################################################
