#####################################################################
# Alchemist log file - simulation started at: 2017-05-23T18:37+0000 #
#####################################################################
# random = 5.0, targets = 100.0, density = 7.099073319511142, gridShift = 0.0, perturbation = 0.0, connfactor = 0.75
#
# The columns have the following meaning: 
# time se[Mean] 
0.0 NaN 
1.0031365367908396 NaN 
2.00313653679084 1.002787213010204 
3.00313653679084 1.0051599897250567 
4.00313653679084 1.0072317548894558 
5.00313653679084 1.0081692522321428 
6.00313653679084 1.0064705835459185 
7.00313653679084 1.0063383467970521 
8.00313653679084 1.0050482178287983 
9.00313653679084 1.0065098134566326 
10.00313653679084 1.0053744977678571 
11.00313653679084 1.0073515128968253 
12.00313653679084 1.0054924550028346 
13.00313653679084 1.0050638047406464 
14.00313653679084 1.0029313828656463 
15.00313653679084 1.0006564147534014 
16.00313653679084 0.9997767529407596 
17.00313653679084 0.9953486784297052 
18.00313653679084 0.9919237847222222 
19.00313653679084 0.9847034199617347 
20.00313653679084 0.9800065228174604 
21.00313653679084 0.9728288389314059 
22.00313653679084 0.9649962505314627 
23.00313653679084 0.9605514898667801 
24.00313653679084 0.9524868675595238 
25.00313653679084 0.9479025324192177 
26.00313653679084 0.9431481363378685 
27.00313653679084 0.9372073545564059 
28.00313653679084 0.9340885531816894 
29.00313653679084 0.9290263073979592 
30.00313653679084 0.925708808992347 
31.00313653679084 0.9217801977040817 
32.00313653679084 0.9223652972647393 
33.00313653679084 0.919771234587585 
34.00313653679084 0.9225562668296484 
35.00313653679084 0.9202000336592971 
36.00313653679084 0.9202415355725624 
37.00313653679084 0.920915874787415 
38.00313653679084 0.9215793730513039 
39.00313653679084 0.922808168579932 
40.00313653679084 0.9218811702806123 
41.00313653679084 0.9243560515873016 
42.00313653679084 0.9224933124291383 
43.00313653679084 0.926216618835034 
44.00313653679084 0.9238421015802155 
45.00313653679084 0.9274213506235828 
46.00313653679084 0.9257856389951814 
47.00313653679084 0.9270894106079932 
48.00313653679084 0.9275581189767574 
49.00313653679084 0.9247398986678005 
50.00313653679084 0.926140873901644 
51.00313653679084 0.924105963010204 
52.00313653679084 0.9242954365079366 
53.00313653679084 0.921995632263322 
54.00313653679084 0.9203759778911564 
55.00313653679084 0.9217617391227324 
56.00313653679084 0.9174101270195579 
57.00313653679084 0.9169813642644559 
58.00313653679084 0.913351347257653 
59.00313653679084 0.9112670103458052 
60.00313653679084 0.9110045262896825 
61.00313653679084 0.907844463931406 
62.00313653679084 0.905871051232993 
63.00313653679084 0.9059586105796484 
64.00313653679083 0.8989622936153628 
65.00313653679083 0.8947204267644558 
66.00313653679083 0.8935237360048186 
67.00313653679083 0.890670665922619 
68.00313653679083 0.8821762569090135 
69.00313653679083 0.880879397852891 
70.00313653679083 0.8795173531391722 
71.00313653679083 0.8715232018849203 
72.00313653679083 0.8699619499362243 
73.00313653679083 0.8638711787840135 
74.00313653679083 0.852412538088152 
75.00313653679083 0.8509223976048755 
76.00313653679083 0.8454613343253965 
77.00313653679083 0.8338168420493198 
78.00313653679083 0.8247106753117912 
79.00313653679083 0.8236978298611108 
80.00313653679083 0.8091378729095807 
81.00313653679083 0.8058137613378683 
82.00313653679083 0.793582672548186 
83.00313653679083 0.7825351137329929 
84.00313653679083 0.778338021719104 
85.00313653679083 0.7674456216340702 
86.00313653679083 0.7559346726190476 
87.00313653679083 0.7487373299319728 
88.00313653679083 0.7410236624858273 
89.00313653679083 0.7299617745535713 
90.00313653679083 0.7208555679563491 
91.00313653679083 0.7139458599064629 
92.00313653679083 0.6970493719883785 
93.00313653679083 0.6882369198200111 
94.00313653679083 0.6781390066964287 
95.00313653679083 0.6686050940688776 
96.00313653679083 0.6542833581349207 
97.00313653679083 0.64384063385771 
98.00313653679083 0.6347193585246602 
99.00313653679083 0.619150506660998 
100.00313653679083 0.6127282587514171 
101.00313653679083 0.5967003233064061 
102.00313653679083 0.5821779770762476 
103.00313653679083 0.577146301906179 
104.00313653679083 0.5636196818310656 
105.00313653679083 0.5542523526077096 
106.00313653679083 0.5485038513321997 
107.00313653679083 0.5365203621031747 
108.00313653679083 0.5329976624503968 
109.00313653679083 0.5265615079365078 
110.00313653679083 0.5165995845734127 
111.00313653679083 0.5150670333758504 
112.00313653679083 0.5095839285714285 
113.00313653679083 0.5046499831703516 
114.00313653679083 0.5002490229946147 
115.00313653679083 0.4953895780187075 
116.00313653679083 0.4952927304776077 
117.00313653679083 0.4864277184311225 
118.00313653679083 0.4839418269912133 
119.00313653679083 0.4799219113166102 
120.00313653679083 0.4744656843466554 
121.00313653679083 0.4719841836734696 
122.00313653679083 0.46827311065051025 
123.00313653679083 0.46584903008078216 
124.00313653679083 0.46420299302012497 
125.00313653679083 0.4636250814909298 
126.00313653679083 0.4598149278982427 
127.00313653679083 0.4581063704648525 
128.00313653679083 0.454617325680272 
129.00313653679083 0.450807066680839 
130.00313653679083 0.4451529744189342 
131.00313653679083 0.44108759300595246 
132.00313653679083 0.43583124734268713 
133.00313653679083 0.43105471407312934 
134.00313653679083 0.4262960096017574 
135.00313653679083 0.4217724817531179 
136.00313653679083 0.4188627170138889 
137.00313653679083 0.41664452593537415 
138.00313653679083 0.413454582979025 
139.00313653679083 0.4108807814271542 
140.00313653679083 0.4092662671839569 
141.00313653679083 0.4085662538973923 
142.00313653679083 0.40663814218395694 
143.00313653679083 0.40577989477040816 
144.00313653679083 0.4051097842261905 
145.00313653679083 0.4041293792517007 
146.00313653679083 0.40331406161422906 
147.00313653679083 0.402726846832483 
148.00313653679083 0.4018131315547052 
149.00313653679083 0.4011509043721655 
150.00313653679083 0.4003172255881519 
151.00313653679083 0.3996846318735827 
152.00313653679083 0.3990496580924036 
153.00313653679083 0.3985883822278911 
154.00313653679083 0.39823346619897954 
155.00313653679083 0.39798836716978453 
156.00313653679083 0.3976874875992063 
157.00313653679083 0.39752310090702947 
158.00313653679083 0.39737267573696144 
159.00313653679083 0.3972330498866213 
160.00313653679083 0.39712022392290247 
161.00313653679083 0.39703428287981857 
162.00313653679083 0.39698056972789114 
163.00313653679083 0.3969429705215419 
164.00313653679083 0.39691074263038545 
165.00313653679083 0.3969 
166.00313653679083 0.3969 
167.00313653679083 0.3969 
168.00313653679083 0.3969 
169.00313653679083 0.3969 
170.00313653679083 0.3969 
171.00313653679083 0.3969 
172.00313653679083 0.3969 
173.00313653679083 0.3969 
174.00313653679083 0.3969 
175.00313653679083 0.3969 
176.00313653679083 0.3969 
177.00313653679083 0.3969 
178.00313653679083 0.3969 
179.00313653679083 0.3969 
180.00313653679083 0.3969 
181.00313653679083 0.3969 
182.00313653679083 0.3969 
183.00313653679083 0.3969 
184.00313653679083 0.3969 
185.00313653679083 0.3969 
186.00313653679083 0.3969 
187.00313653679083 0.3969 
188.00313653679083 0.3969 
189.00313653679083 0.3969 
190.00313653679083 0.3969 
191.00313653679083 0.3969 
192.00313653679083 0.3969 
193.00313653679083 0.3969 
194.00313653679083 0.3969 
195.00313653679083 0.3969 
196.00313653679083 0.3969 
197.00313653679083 0.3969 
198.00313653679083 0.3969 
199.00313653679083 0.3969 
200.00313653679083 0.3969 
201.00313653679083 0.3969 
202.00313653679083 0.3969 
203.00313653679083 0.3969 
204.00313653679083 0.3969 
205.00313653679083 0.3969 
206.00313653679083 0.3969 
207.00313653679083 0.3969 
208.00313653679083 0.3969 
209.00313653679083 0.3969 
210.00313653679083 0.3969 
211.00313653679083 0.3969 
212.00313653679083 0.3969 
213.00313653679083 0.3969 
214.00313653679083 0.3969 
215.00313653679083 0.3969 
216.00313653679083 0.3969 
217.00313653679083 0.3969 
218.00313653679083 0.3969 
219.00313653679083 0.3969 
220.00313653679083 0.3969 
221.00313653679083 0.3969 
222.00313653679083 0.3969 
223.00313653679083 0.3969 
224.00313653679083 0.3969 
225.00313653679083 0.3969 
226.00313653679083 0.3969 
#####################################################################
# End of data export. Simulation finished at: 2017-05-23T18:48+0000 #
#####################################################################
