#####################################################################
# Alchemist log file - simulation started at: 2017-05-23T18:04+0000 #
#####################################################################
# random = 12.0, targets = 31.622776601683793, density = 2.519842099789746, gridShift = 0.0, perturbation = 0.5, connfactor = 1.5
#
# The columns have the following meaning: 
# time se[Mean] 
0.0 NaN 
1.0005590746559656 NaN 
2.000559074655966 1.0293280093184758 
3.000559074655966 1.047941893053151 
4.000559074655966 1.0688409875702662 
5.000559074655966 1.1198746184898252 
6.000559074655966 1.095781137330652 
7.000559074655966 1.1649162292625341 
8.000559074655966 1.155344990291983 
9.000559074655966 1.1601557584709254 
10.000559074655966 1.1886894683190865 
11.000559074655966 1.1719715783271232 
12.000559074655966 1.1877352097460494 
13.000559074655966 1.2172884479895458 
14.000559074655966 1.24666043288116 
15.000559074655966 1.2729632232627344 
16.000559074655968 1.3384042011041462 
17.000559074655968 1.4798653265752102 
18.000559074655968 1.6614054168853853 
19.000559074655968 1.7179193605701286 
20.000559074655968 2.057650968762576 
21.000559074655968 2.288056413645087 
22.000559074655968 2.466012308088884 
23.000559074655968 2.613999317875922 
24.000559074655968 3.012974879431613 
25.000559074655968 3.0310516363101168 
26.000559074655968 3.126334487680674 
27.000559074655968 3.314403920158692 
28.000559074655968 3.1158595567081355 
29.000559074655968 3.2032184266274797 
30.000559074655968 3.0019873683478497 
31.000559074655968 3.0726186171868055 
32.00055907465597 2.9984414539715503 
33.00055907465597 2.9555611035279057 
34.00055907465597 2.9237861092367603 
35.00055907465597 2.9037589124139136 
36.00055907465597 2.849202325568261 
37.00055907465597 2.845601151013906 
38.00055907465597 2.8168352673103962 
39.00055907465597 2.835204617240842 
40.00055907465597 2.82452881500836 
41.00055907465597 2.8721089295102904 
42.00055907465597 2.935443818008942 
43.00055907465597 2.93298990538545 
44.00055907465597 3.0170688976251143 
45.00055907465597 3.15441116328534 
46.00055907465597 3.2373816120269505 
47.00055907465597 3.3651045333487533 
48.00055907465597 4.0076302902057765 
49.00055907465597 6.015457395529759 
50.00055907465597 4.9967558001622026 
51.00055907465597 7.761883169663376 
52.00055907465597 10.256042831388706 
53.00055907465597 10.127905705397975 
54.00055907465597 10.647029240494335 
55.00055907465597 14.20603870464398 
56.00055907465597 13.248192252984593 
57.00055907465597 14.242330249489337 
58.00055907465597 17.22298137418325 
59.00055907465597 13.861494753389401 
60.00055907465597 17.34801434362657 
61.00055907465597 12.891499658549684 
62.00055907465597 20.30375813192137 
63.00055907465597 21.43925294143442 
64.00055907465597 17.559396189317656 
65.00055907465597 19.148336153048415 
66.00055907465597 21.813372839048277 
67.00055907465597 22.255795084005516 
68.00055907465597 18.250672981814922 
69.00055907465597 19.679881616871974 
70.00055907465597 14.312746430714444 
71.00055907465597 15.289894673501873 
72.00055907465597 12.81337137069674 
73.00055907465597 17.758601907809165 
74.00055907465597 15.384034258711878 
75.00055907465597 12.398056278682613 
76.00055907465597 13.486165248912776 
77.00055907465597 12.445419124416055 
78.00055907465597 14.373120183363032 
79.00055907465597 9.054815183817919 
80.00055907465597 8.112086518033989 
81.00055907465597 7.175046491163832 
82.00055907465597 6.206565112716238 
83.00055907465597 7.157967125137262 
84.00055907465597 7.155612812730634 
85.00055907465597 6.183486980923984 
86.00055907465597 6.66638131972192 
87.00055907465597 6.185285611551052 
88.00055907465597 6.183479479960781 
89.00055907465597 6.182736132541157 
90.00055907465597 6.1832786969313265 
91.00055907465597 6.182269545978671 
92.00055907465597 6.181541000558279 
93.00055907465597 6.181905273268475 
94.00055907465597 6.181541000558279 
95.00055907465597 6.181541000558279 
96.00055907465597 6.181541000558279 
97.00055907465597 6.181541000558279 
98.00055907465597 6.181541000558279 
99.00055907465597 6.181541000558279 
100.00055907465597 6.181541000558279 
101.00055907465597 6.181541000558279 
102.00055907465597 6.181541000558279 
103.00055907465597 6.181541000558279 
104.00055907465597 6.181541000558279 
105.00055907465597 6.181541000558279 
106.00055907465597 6.181541000558279 
107.00055907465597 6.181541000558279 
108.00055907465597 6.181541000558279 
109.00055907465597 6.181541000558279 
110.00055907465597 6.181541000558279 
111.00055907465597 6.181541000558279 
112.00055907465597 6.181541000558279 
113.00055907465597 6.181541000558279 
114.00055907465597 6.181541000558279 
115.00055907465597 6.181541000558279 
116.00055907465597 6.181541000558279 
117.00055907465597 6.181541000558279 
118.00055907465597 6.181541000558279 
119.00055907465597 6.181541000558279 
120.00055907465597 6.181541000558279 
121.00055907465597 6.181541000558279 
122.00055907465597 6.181541000558279 
123.00055907465597 6.181541000558279 
124.00055907465597 6.181541000558279 
125.00055907465597 6.181541000558279 
126.00055907465597 6.181541000558279 
127.00055907465597 6.181541000558279 
128.00055907465597 6.181541000558279 
129.00055907465597 6.181541000558279 
130.00055907465597 6.181541000558279 
#####################################################################
# End of data export. Simulation finished at: 2017-05-23T18:05+0000 #
#####################################################################
