#####################################################################
# Alchemist log file - simulation started at: 2017-05-22T05:33+0000 #
#####################################################################
# random = 3.0, targets = 31.622776601683793, density = 14.160781367816199, gridShift = 1.0, perturbation = 0.5, connfactor = 1.0
#
# The columns have the following meaning: 
# time se[Mean] 
0.0 NaN 
1.0005923698108095 NaN 
2.0005923698108097 1.0021409725110912 
3.0005923698108097 1.0043796109751122 
4.00059236981081 1.004817937312479 
5.00059236981081 1.004967676677718 
6.00059236981081 0.9997729367674101 
7.00059236981081 0.994889075131966 
8.00059236981081 0.9946573156361793 
9.00059236981081 0.9930779644575135 
10.00059236981081 0.9901649391401912 
11.00059236981081 0.9883759209852342 
12.00059236981081 0.9869892751891756 
13.00059236981081 0.9840429188677864 
14.00059236981081 0.9823698271199772 
15.00059236981081 0.9787838503807891 
16.00059236981081 0.9759353069846985 
17.00059236981081 0.9736957930586359 
18.00059236981081 0.9680289410571483 
19.00059236981081 0.9653472926192301 
20.00059236981081 0.9609105664775314 
21.00059236981081 0.9576219761909093 
22.00059236981081 0.9518983956782354 
23.00059236981081 0.9472389895058853 
24.00059236981081 0.9412388295420773 
25.00059236981081 0.9352228108949246 
26.00059236981081 0.9283334361675576 
27.00059236981081 0.9211271190943189 
28.00059236981081 0.9148797085097059 
29.00059236981081 0.9077269449836597 
30.00059236981081 0.8999498208146438 
31.00059236981081 0.8948201008842877 
32.00059236981081 0.888425825228477 
33.00059236981081 0.8828065992643522 
34.00059236981081 0.8791922781801818 
35.00059236981081 0.8753653251933659 
36.00059236981081 0.8721879328562336 
37.00059236981081 0.8685244142419768 
38.00059236981081 0.8656625958253347 
39.00059236981081 0.8618573095086857 
40.00059236981081 0.859675585496511 
41.00059236981081 0.8567310978181163 
42.00059236981081 0.8511237439409906 
43.00059236981081 0.8497760683510129 
44.00059236981081 0.8418464940819816 
45.00059236981081 0.8383206705786008 
46.00059236981081 0.8339535107375091 
47.00059236981081 0.8266623169245922 
48.00059236981081 0.8227872416333071 
49.00059236981081 0.8137691276777239 
50.00059236981081 0.8097295464839619 
51.00059236981081 0.8015357465013986 
52.00059236981081 0.7988371412916756 
53.00059236981081 0.7955386454154526 
54.00059236981081 0.7846550358251769 
55.00059236981081 0.787425937962635 
56.00059236981081 0.7809328478268299 
57.00059236981081 0.7697217633772621 
58.00059236981081 0.7726672382513475 
59.00059236981081 0.7662616225967402 
60.00059236981081 0.761307699097655 
61.00059236981081 0.756299292855683 
62.00059236981081 0.7607133499273028 
63.00059236981081 0.7541211706147061 
64.00059236981082 0.7524401483586466 
65.00059236981082 0.7543760955650382 
66.00059236981082 0.7485416386253825 
67.00059236981082 0.7475807336926733 
68.00059236981082 0.7431841146609313 
69.00059236981082 0.739885894002167 
70.00059236981082 0.7387197118141273 
71.00059236981082 0.7398988301475712 
72.00059236981082 0.7403518847257755 
73.00059236981082 0.7318693514524844 
74.00059236981082 0.7327852242997979 
75.00059236981082 0.7329548398185488 
76.00059236981082 0.7228999662286888 
77.00059236981082 0.7249266095987091 
78.00059236981082 0.7256600504051169 
79.00059236981082 0.7282012378183806 
80.00059236981082 0.7121727678789462 
81.00059236981082 0.7037668398118289 
82.00059236981082 0.7027608552112632 
83.00059236981082 0.7083121032856663 
84.00059236981082 0.689810909578043 
85.00059236981082 0.6832839347759029 
86.00059236981082 0.6825900699796175 
87.00059236981082 0.6802402619103047 
88.00059236981082 0.6732278829311019 
89.00059236981082 0.6715193949879118 
90.00059236981082 0.6709280219858972 
91.00059236981082 0.6691915690552583 
92.00059236981082 0.6550700368746941 
93.00059236981082 0.6593206161279075 
94.00059236981082 0.6545688656084928 
95.00059236981082 0.6604613011324862 
96.00059236981082 0.6521765008063833 
97.00059236981082 0.6503234653027299 
98.00059236981082 0.6501214214901455 
99.00059236981082 0.6444245018761491 
100.00059236981082 0.6430326141109634 
101.00059236981082 0.6563264696738015 
102.00059236981082 0.6374390000049518 
103.00059236981082 0.6606776216172274 
104.00059236981082 0.6620665351214283 
105.00059236981082 0.6518884638444172 
106.00059236981082 0.6685147975396876 
107.00059236981082 0.6683698215516566 
108.00059236981082 0.6662463017019684 
109.00059236981082 0.6742797494902137 
110.00059236981082 0.6863589168793313 
111.00059236981082 0.679629420672468 
112.00059236981082 0.6742707064771652 
113.00059236981082 0.6959744928059001 
114.00059236981082 0.6876497292104439 
115.00059236981082 0.6973051499357713 
116.00059236981082 0.7093368119279938 
117.00059236981082 0.6925526685398916 
118.00059236981082 0.7023879931307762 
119.00059236981082 0.7209932910010367 
120.00059236981082 0.7310274892070656 
121.00059236981082 0.7033378731902361 
122.00059236981082 0.7329415924486176 
123.00059236981082 0.7215662774092529 
124.00059236981082 0.6918600255644479 
125.00059236981082 0.7210314888304092 
126.00059236981082 0.7142341089823638 
127.00059236981082 0.7350182879813533 
128.00059236981082 0.6972915734728569 
129.00059236981082 0.7029558780778966 
130.00059236981082 0.6843409821422948 
131.00059236981082 0.7335336296000414 
132.00059236981082 0.6765438396246788 
133.00059236981082 0.6759797978910097 
134.00059236981082 0.6636292354765498 
135.00059236981082 0.6653876785917109 
136.00059236981082 0.644491380569167 
137.00059236981082 0.6261809710711462 
138.00059236981082 0.6681967417037947 
139.00059236981082 0.6571326702724208 
140.00059236981082 0.5878321817093661 
141.00059236981082 0.6045192377138093 
142.00059236981082 0.6023646412072846 
143.00059236981082 0.6110622895188323 
144.00059236981082 0.5938256811203855 
145.00059236981082 0.6023622415687612 
146.00059236981082 0.5781639392300384 
147.00059236981082 0.5586183579749956 
148.00059236981082 0.5603370062777215 
149.00059236981082 0.5728767813916263 
150.00059236981082 0.5535579654243059 
151.00059236981082 0.5261206292346834 
152.00059236981082 0.5064671428062677 
153.00059236981082 0.5558740195205633 
154.00059236981082 0.4980939530764588 
155.00059236981082 0.5317207464258399 
156.00059236981082 0.48843368864352016 
157.00059236981082 0.46226832679918717 
158.00059236981082 0.4771288206232057 
159.00059236981082 0.4576928561976015 
160.00059236981082 0.46374387229082803 
161.00059236981082 0.4299546616714841 
162.00059236981082 0.3878919202041245 
163.00059236981082 0.394858904716854 
164.00059236981082 0.3716140972102732 
165.00059236981082 0.3917047518867137 
166.00059236981082 0.45332429709720456 
167.00059236981082 0.39147972367938616 
168.00059236981082 0.5636367569397389 
169.00059236981082 1.054181132665863 
170.00059236981082 1.9149799341673823 
171.00059236981082 1.128936021049807 
172.00059236981082 3.4388170717764193 
173.00059236981082 3.9387854848897943 
174.00059236981082 3.08638855819399 
175.00059236981082 5.034147588223363 
176.00059236981082 4.997533849869207 
177.00059236981082 5.4667611014838995 
178.00059236981082 6.565257562968264 
179.00059236981082 7.92056502477213 
180.00059236981082 7.5638583216494535 
181.00059236981082 7.660938718699688 
182.00059236981082 9.87345112395751 
183.00059236981082 9.526258946415563 
184.00059236981082 11.090834368482918 
185.00059236981082 12.571926807340585 
186.00059236981082 11.016525461130438 
187.00059236981082 12.638838671558105 
188.00059236981082 14.866123468527222 
189.00059236981082 16.087166141296322 
190.00059236981082 14.02510110442953 
191.00059236981082 17.26374620187049 
192.00059236981082 16.49658688929046 
193.00059236981082 13.931071536875203 
194.00059236981082 17.240527853786013 
195.00059236981082 17.183609949549 
196.00059236981082 19.855060049071785 
197.00059236981082 16.22045367315188 
198.00059236981082 17.173192878720887 
199.00059236981082 16.207038831524414 
200.00059236981082 21.313895780935578 
201.00059236981082 16.11941942991211 
202.00059236981082 16.531300562854895 
203.00059236981082 16.403273888767995 
204.00059236981082 16.758336431922228 
205.00059236981082 14.915327147150013 
206.00059236981082 14.17254579104926 
207.00059236981082 18.83551387825388 
208.00059236981082 18.010925205013542 
209.00059236981082 11.928851246901674 
210.00059236981082 14.331641171319555 
211.00059236981082 14.641070224005768 
212.00059236981082 15.926833379893282 
213.00059236981082 15.079533825866104 
214.00059236981082 16.595002024856548 
215.00059236981082 14.618207284344065 
216.00059236981082 13.054008960013174 
217.00059236981082 13.924187918165606 
218.00059236981082 16.143943580556748 
219.00059236981082 14.373265759521786 
220.00059236981082 12.31917870422326 
221.00059236981082 11.098907020875352 
222.00059236981082 16.04715538857788 
223.00059236981082 11.095483775150592 
224.00059236981082 14.686140521891977 
225.00059236981082 11.032321184013083 
226.00059236981082 8.945252333239141 
227.00059236981082 10.507430865779584 
228.00059236981082 9.175361029439598 
229.00059236981082 9.911552723414635 
230.00059236981082 7.026187891316898 
231.00059236981082 3.2911544348611836 
232.00059236981082 4.216096325923535 
233.00059236981082 1.9036905073658372 
234.00059236981082 0.5169931054205738 
235.00059236981082 0.055039949944022074 
236.00059236981082 0.05517071965891256 
237.00059236981082 0.054682998635292565 
238.00059236981082 0.0551655794500982 
239.00059236981082 0.05599228536248338 
240.00059236981082 0.055741591311916486 
241.00059236981082 0.055683644877122296 
242.00059236981082 0.05642714770351708 
243.00059236981082 0.05641970610986594 
244.00059236981082 0.056824514728363314 
245.00059236981082 0.056779135793679485 
246.00059236981082 0.05707471395315616 
247.00059236981082 0.057230941268339705 
248.00059236981082 0.057212740820708576 
249.00059236981082 0.057406716389070335 
250.00059236981082 0.05736873187430835 
251.00059236981082 0.057322021855459836 
252.00059236981082 0.0574715559281586 
253.00059236981082 0.05760213056523128 
254.00059236981082 0.05774039320420027 
255.00059236981082 0.057735443543014554 
256.0005923698108 0.05792948586262372 
257.0005923698108 0.05804818293234697 
258.0005923698108 0.05805606138464196 
259.0005923698108 0.0581073390561412 
260.0005923698108 0.058124263044078854 
261.0005923698108 0.058118615264139466 
262.0005923698108 0.05812201301984274 
263.0005923698108 0.05811351863058456 
264.0005923698108 0.058108421997029654 
265.0005923698108 0.05810672311917802 
266.0005923698108 0.05810672311917802 
267.0005923698108 0.05810672311917802 
268.0005923698108 0.05810672311917802 
269.0005923698108 0.05810672311917802 
270.0005923698108 0.05810672311917802 
271.0005923698108 0.05810672311917802 
272.0005923698108 0.05810672311917802 
273.0005923698108 0.05810672311917802 
274.0005923698108 0.05810672311917802 
275.0005923698108 0.05810672311917802 
276.0005923698108 0.05810672311917802 
277.0005923698108 0.05810672311917802 
278.0005923698108 0.05810672311917802 
279.0005923698108 0.05810672311917802 
280.0005923698108 0.05810672311917802 
281.0005923698108 0.05810672311917802 
282.0005923698108 0.05810672311917802 
283.0005923698108 0.05810672311917802 
284.0005923698108 0.05810672311917802 
285.0005923698108 0.05810672311917802 
286.0005923698108 0.05810672311917802 
287.0005923698108 0.05810672311917802 
288.0005923698108 0.05810672311917802 
289.0005923698108 0.05810672311917802 
290.0005923698108 0.05810672311917802 
291.0005923698108 0.05810672311917802 
292.0005923698108 0.05810672311917802 
293.0005923698108 0.05810672311917802 
294.0005923698108 0.05810672311917802 
295.0005923698108 0.05810672311917802 
296.0005923698108 0.05810672311917802 
297.0005923698108 0.05810672311917802 
298.0005923698108 0.05810672311917802 
299.0005923698108 0.05810672311917802 
300.0005923698108 0.05810672311917802 
301.0005923698108 0.05810672311917802 
302.0005923698108 0.05810672311917802 
303.0005923698108 0.05810672311917802 
304.0005923698108 0.05810672311917802 
305.0005923698108 0.05810672311917802 
306.0005923698108 0.05810672311917802 
307.0005923698108 0.05810672311917802 
308.0005923698108 0.05810672311917802 
309.0005923698108 0.05810672311917802 
310.0005923698108 0.05810672311917802 
311.0005923698108 0.05810672311917802 
312.0005923698108 0.05810672311917802 
313.0005923698108 0.05810672311917802 
314.0005923698108 0.05810672311917802 
315.0005923698108 0.05810672311917802 
316.0005923698108 0.05810672311917802 
317.0005923698108 0.05810672311917802 
318.0005923698108 0.05810672311917802 
319.0005923698108 0.05810672311917802 
320.0005923698108 0.05810672311917802 
321.0005923698108 0.05810672311917802 
322.0005923698108 0.05810672311917802 
323.0005923698108 0.05810672311917802 
324.0005923698108 0.05810672311917802 
325.0005923698108 0.05810672311917802 
326.0005923698108 0.05810672311917802 
327.0005923698108 0.05810672311917802 
328.0005923698108 0.05810672311917802 
329.0005923698108 0.05810672311917802 
330.0005923698108 0.05810672311917802 
331.0005923698108 0.05810672311917802 
332.0005923698108 0.05810672311917802 
333.0005923698108 0.05810672311917802 
334.0005923698108 0.05810672311917802 
335.0005923698108 0.05810672311917802 
336.0005923698108 0.05810672311917802 
337.0005923698108 0.05810672311917802 
338.0005923698108 0.05810672311917802 
339.0005923698108 0.05810672311917802 
340.0005923698108 0.05810672311917802 
341.0005923698108 0.05810672311917802 
342.0005923698108 0.05810672311917802 
343.0005923698108 0.05810672311917802 
344.0005923698108 0.05810672311917802 
345.0005923698108 0.05810672311917802 
346.0005923698108 0.05810672311917802 
347.0005923698108 0.05810672311917802 
#####################################################################
# End of data export. Simulation finished at: 2017-05-22T05:50+0000 #
#####################################################################
