#####################################################################
# Alchemist log file - simulation started at: 2017-05-23T16:33+0000 #
#####################################################################
# random = 12.0, targets = 10.0, density = 1.7841466528270753, gridShift = 0.0, perturbation = 0.0, connfactor = 0.5
#
# The columns have the following meaning: 
# time se[Mean] 
0.0 NaN 
1.0005590746559656 NaN 
2.000559074655966 1.0 
3.000559074655966 0.9997086419753086 
4.000559074655966 0.998041975308642 
5.000559074655966 0.9869506172839506 
6.000559074655966 0.9906666666666667 
7.000559074655966 0.9702320987654321 
8.000559074655966 0.971416049382716 
9.000559074655966 0.9633987654320988 
10.000559074655966 0.9616753086419753 
11.000559074655966 0.9621493827160493 
12.000559074655966 0.9588333333333333 
13.000559074655966 0.9568456790123456 
14.000559074655966 0.9538555555555556 
15.000559074655966 0.9490333333333334 
16.000559074655968 0.9498777777777777 
17.000559074655968 0.9469444444444444 
18.000559074655968 0.9458444444444445 
19.000559074655968 0.9419777777777777 
20.000559074655968 0.9412666666666666 
21.000559074655968 0.9446666666666667 
22.000559074655968 0.9354777777777776 
23.000559074655968 0.9317888888888889 
24.000559074655968 0.9270444444444443 
25.000559074655968 0.9169555555555555 
26.000559074655968 0.9089222222222222 
27.000559074655968 0.8986777777777777 
28.000559074655968 0.8875333333333334 
29.000559074655968 0.8765666666666667 
30.000559074655968 0.8648222222222223 
31.000559074655968 0.8516 
32.00055907465597 0.833941975308642 
33.00055907465597 0.8121950617283947 
34.00055907465597 0.7856456790123457 
35.00055907465597 0.7620296296296294 
36.00055907465597 0.7308888888888894 
37.00055907465597 0.698158024691358 
38.00055907465597 0.6615506172839508 
39.00055907465597 0.6306135802469136 
40.00055907465597 0.5978395061728397 
41.00055907465597 0.5673703703703706 
42.00055907465597 0.5475296296296297 
43.00055907465597 0.5184765432098768 
44.00055907465597 0.4984074074074077 
45.00055907465597 0.47225925925925916 
46.00055907465597 0.4481493827160493 
47.00055907465597 0.42572839506172844 
48.00055907465597 0.4026740740740742 
49.00055907465597 0.3808469135802469 
50.00055907465597 0.3557716049382716 
51.00055907465597 0.3342333333333334 
52.00055907465597 0.3158246913580248 
53.00055907465597 0.3026530864197531 
54.00055907465597 0.30629506172839505 
55.00055907465597 0.35066790123456776 
56.00055907465597 0.32178518518518506 
57.00055907465597 0.38600000000000007 
58.00055907465597 0.37873950617283925 
59.00055907465597 0.43419999999999936 
60.00055907465597 0.4656839506172843 
61.00055907465597 0.32513950617283943 
62.00055907465597 0.3955049382716048 
63.00055907465597 0.34232222222222214 
64.00055907465597 0.3041876543209878 
65.00055907465597 0.3247555555555554 
66.00055907465597 0.2698444444444445 
67.00055907465597 0.25097654320987656 
68.00055907465597 0.26988271604938263 
69.00055907465597 0.2673851851851851 
70.00055907465597 0.25 
71.00055907465597 0.2673851851851851 
72.00055907465597 0.25057901234567903 
73.00055907465597 0.26694938271604934 
74.00055907465597 0.25057901234567903 
75.00055907465597 0.26694938271604934 
76.00055907465597 0.25057901234567903 
77.00055907465597 0.2675666666666666 
78.00055907465597 0.25057901234567903 
79.00055907465597 0.25 
80.00055907465597 0.25057901234567903 
81.00055907465597 0.25 
82.00055907465597 0.25 
83.00055907465597 0.25 
84.00055907465597 0.25 
85.00055907465597 0.25 
86.00055907465597 0.25 
87.00055907465597 0.25 
88.00055907465597 0.25 
89.00055907465597 0.25 
90.00055907465597 0.25 
91.00055907465597 0.25 
92.00055907465597 0.25 
93.00055907465597 0.25 
94.00055907465597 0.25 
95.00055907465597 0.25 
96.00055907465597 0.25 
97.00055907465597 0.25 
98.00055907465597 0.25 
99.00055907465597 0.25 
100.00055907465597 0.25 
101.00055907465597 0.25 
102.00055907465597 0.25 
103.00055907465597 0.25 
104.00055907465597 0.25 
105.00055907465597 0.25 
106.00055907465597 0.25 
107.00055907465597 0.25 
108.00055907465597 0.25 
109.00055907465597 0.25 
110.00055907465597 0.25 
#####################################################################
# End of data export. Simulation finished at: 2017-05-23T16:33+0000 #
#####################################################################
