#####################################################################
# Alchemist log file - simulation started at: 2017-05-24T02:15+0000 #
#####################################################################
# random = 13.0, targets = 31.622776601683793, density = 10.026386447354522, gridShift = 0.0, perturbation = 0.0, connfactor = 2.0
#
# The columns have the following meaning: 
# time se[Mean] 
0.0 NaN 
1.0002602723432414 NaN 
2.000260272343241 1.042953240986227 
3.000260272343241 1.0684437912168852 
4.000260272343241 1.1024967280603035 
5.000260272343241 1.117398989769065 
6.000260272343241 1.1669225553455824 
7.000260272343241 1.1578881835233072 
8.00026027234324 1.2316800067631255 
9.00026027234324 1.2262401301386028 
10.00026027234324 1.2547121339327778 
11.00026027234324 1.2356225343147766 
12.00026027234324 1.2416981487563727 
13.00026027234324 1.2001768935784598 
14.00026027234324 1.1941170337036364 
15.00026027234324 1.150490808810448 
16.00026027234324 1.1414312720935111 
17.00026027234324 1.111197807748893 
18.00026027234324 1.1063544899031765 
19.00026027234324 1.0785984427569064 
20.00026027234324 1.0723968938175514 
21.00026027234324 1.0525066945210424 
22.00026027234324 1.0448961659175973 
23.00026027234324 1.0290375488299426 
24.00026027234324 1.0264785695655323 
25.00026027234324 1.0107840748362635 
26.00026027234324 1.001901653999804 
27.00026027234324 1.0007195122765298 
28.00026027234324 0.9901744322565512 
29.00026027234324 0.9836196661551132 
30.00026027234324 0.9790520805652432 
31.00026027234324 0.9695007303987933 
32.00026027234324 0.9622232003174417 
33.00026027234324 0.9531425606056128 
34.00026027234324 0.9406206767539512 
35.00026027234324 0.9268659200993039 
36.00026027234324 0.9162700399764994 
37.00026027234324 0.9060805173525744 
38.00026027234324 0.8973612689681896 
39.00026027234324 0.8938545520970204 
40.00026027234324 0.8892777757538336 
41.00026027234324 0.8814544194155113 
42.00026027234324 0.8764771414327333 
43.00026027234324 0.8672976949513719 
44.00026027234324 0.8606674428335841 
45.00026027234324 0.855395148698512 
46.00026027234324 0.8531690094390862 
47.00026027234324 0.8539004538164011 
48.00026027234324 0.8553421190625445 
49.00026027234324 0.8560267138028058 
50.00026027234324 0.8567465197449269 
51.00026027234324 0.857151074193979 
52.00026027234324 0.8584614509724561 
53.00026027234324 0.8605445602642718 
54.00026027234324 0.8627448315765913 
55.00026027234324 0.8642728735504793 
56.00026027234324 0.8664580702107327 
57.00026027234324 0.868590647071545 
58.00026027234324 0.8715045807371746 
59.00026027234324 0.873776623293546 
60.00026027234324 0.8752199609889783 
61.00026027234324 0.8769598155249125 
62.00026027234324 0.8795857491666119 
63.00026027234324 0.8817701809391081 
64.00026027234324 0.884701725902005 
65.00026027234324 0.8868623728571654 
66.00026027234324 0.8885338466183282 
67.00026027234324 0.890766381983716 
68.00026027234324 0.8927024005086015 
69.00026027234324 0.894618728866717 
70.00026027234324 0.8973105955743109 
71.00026027234324 0.8986796736734424 
72.00026027234324 0.900624249658271 
73.00026027234324 0.9022423528471623 
74.00026027234324 0.9052399560319901 
75.00026027234324 0.9073754803818742 
76.00026027234324 0.9093863841198542 
77.00026027234324 0.9115426330554846 
78.00026027234324 0.9130279011640207 
79.00026027234324 0.9128342889560399 
80.00026027234324 0.914019128210093 
81.00026027234324 0.9153501499889809 
82.00026027234324 0.9124921106236316 
83.00026027234324 0.9125619929440645 
84.00026027234324 0.9105946521056693 
85.00026027234324 0.9086947423126254 
86.00026027234324 0.9083152992395659 
87.00026027234324 0.9059944774791511 
88.00026027234324 0.9049671306488433 
89.00026027234324 0.902195449472656 
90.00026027234324 0.8996744775684747 
91.00026027234324 0.8968668333967542 
92.00026027234324 0.8938260070779104 
93.00026027234324 0.8905826512624744 
94.00026027234324 0.8869001475864509 
95.00026027234324 0.884247281320629 
96.00026027234324 0.8808460919547537 
97.00026027234324 0.8763050614657073 
98.00026027234324 0.8740123402345719 
99.00026027234324 0.868214962490186 
100.00026027234324 0.8632290211240735 
101.00026027234324 0.8571281685989317 
102.00026027234324 0.852017926976947 
103.00026027234324 0.8410877085955238 
104.00026027234324 0.8354823740148587 
105.00026027234324 0.8278969223365977 
106.00026027234324 0.8159928899573405 
107.00026027234324 0.8145804108259411 
108.00026027234324 0.801459618567229 
109.00026027234324 0.7991066280204174 
110.00026027234324 0.7889292515193492 
111.00026027234324 0.7830354922152402 
112.00026027234324 0.7736002960828706 
113.00026027234324 0.7659578211411365 
114.00026027234324 0.7561265303859105 
115.00026027234324 0.7476569191885345 
116.00026027234324 0.7358266770644991 
117.00026027234324 0.7456629368402253 
118.00026027234324 0.7389014005513557 
119.00026027234324 0.7146794257001726 
120.00026027234324 0.739348653951765 
121.00026027234324 0.6995713247215886 
122.00026027234324 0.6915460189839768 
123.00026027234324 0.6728091015974155 
124.00026027234324 0.6534558408900312 
125.00026027234324 0.6313272292634814 
126.00026027234324 0.6346179324675324 
127.00026027234324 0.6228753506003736 
128.00026027234324 0.602046766037035 
129.00026027234324 0.6116062129569619 
130.00026027234324 0.6294473701641825 
131.00026027234324 0.6205933279017833 
132.00026027234324 0.5941429208902833 
133.00026027234324 0.6311858366497236 
134.00026027234324 0.5641415289678193 
135.00026027234324 0.5756332640711805 
136.00026027234324 0.534508981229234 
137.00026027234324 0.5219031231985716 
138.00026027234324 0.5031994577925862 
139.00026027234324 0.4911176645228103 
140.00026027234324 0.47669282594428225 
141.00026027234324 0.4641918268563833 
142.00026027234324 0.4541595310435746 
143.00026027234324 0.4408767787230903 
144.00026027234324 0.4269747419416931 
145.00026027234324 0.43066430004100953 
146.00026027234324 0.41566351985130345 
147.00026027234324 0.39999086390666705 
148.00026027234324 0.40536134068084 
149.00026027234324 0.38452282915455877 
150.00026027234324 0.3830380255677706 
151.00026027234324 0.3784950856409383 
152.00026027234324 0.3670214538542271 
153.00026027234324 0.3550218008615967 
154.00026027234324 0.3645782540723716 
155.00026027234324 0.34046776280955987 
156.00026027234324 0.3390116861722988 
157.00026027234324 0.32545327840644883 
158.00026027234324 0.3298064401915926 
159.00026027234324 0.31636283708881535 
160.00026027234324 0.3055846761137426 
161.00026027234324 0.3094067205213229 
162.00026027234324 0.30447711047681486 
163.00026027234324 0.3077404565033813 
164.00026027234324 0.30449652872900096 
165.00026027234324 0.3049467762863358 
166.00026027234324 0.29409950275331204 
167.00026027234324 0.3047446491535803 
168.00026027234324 0.29635841115271505 
169.00026027234324 0.3011332968099942 
170.00026027234324 0.2892226553035183 
171.00026027234324 0.28832328676449365 
172.00026027234324 0.28188133663536563 
173.00026027234324 0.281015008429841 
174.00026027234324 0.28032834334060946 
175.00026027234324 0.279454490732993 
176.00026027234324 0.27875646404908583 
177.00026027234324 0.27806256959658354 
178.00026027234324 0.2773697082019326 
179.00026027234324 0.2768951377828771 
180.00026027234324 0.27659375427164407 
181.00026027234324 0.2764089762007348 
182.00026027234324 0.27632439147042326 
183.00026027234324 0.2763167019494858 
184.00026027234324 0.2763167019494858 
185.00026027234324 0.2763167019494858 
186.00026027234324 0.2763167019494858 
187.00026027234324 0.2763167019494858 
188.00026027234324 0.2763167019494858 
189.00026027234324 0.2763167019494858 
190.00026027234324 0.2763167019494858 
191.00026027234324 0.2763167019494858 
192.00026027234324 0.2763167019494858 
193.00026027234324 0.2763167019494858 
194.00026027234324 0.2763167019494858 
195.00026027234324 0.2763167019494858 
196.00026027234324 0.2763167019494858 
197.00026027234324 0.2763167019494858 
198.00026027234324 0.2763167019494858 
199.00026027234324 0.2763167019494858 
200.00026027234324 0.2763167019494858 
201.00026027234324 0.2763167019494858 
202.00026027234324 0.2763167019494858 
203.00026027234324 0.2763167019494858 
204.00026027234324 0.2763167019494858 
205.00026027234324 0.2763167019494858 
206.00026027234324 0.2763167019494858 
207.00026027234324 0.2763167019494858 
208.00026027234324 0.2763167019494858 
209.00026027234324 0.2763167019494858 
210.00026027234324 0.2763167019494858 
211.00026027234324 0.2763167019494858 
212.00026027234324 0.2763167019494858 
213.00026027234324 0.2763167019494858 
214.00026027234324 0.2763167019494858 
215.00026027234324 0.2763167019494858 
216.00026027234324 0.2763167019494858 
217.00026027234324 0.2763167019494858 
218.00026027234324 0.2763167019494858 
219.00026027234324 0.2763167019494858 
220.00026027234324 0.2763167019494858 
221.00026027234324 0.2763167019494858 
222.00026027234324 0.2763167019494858 
223.00026027234324 0.2763167019494858 
224.00026027234324 0.2763167019494858 
225.00026027234324 0.2763167019494858 
226.00026027234324 0.2763167019494858 
227.00026027234324 0.2763167019494858 
228.00026027234324 0.2763167019494858 
229.00026027234324 0.2763167019494858 
230.00026027234324 0.2763167019494858 
231.00026027234324 0.2763167019494858 
232.00026027234324 0.2763167019494858 
233.00026027234324 0.2763167019494858 
234.00026027234324 0.2763167019494858 
235.00026027234324 0.2763167019494858 
236.00026027234324 0.2763167019494858 
237.00026027234324 0.2763167019494858 
238.00026027234324 0.2763167019494858 
239.00026027234324 0.2763167019494858 
240.00026027234324 0.2763167019494858 
241.00026027234324 0.2763167019494858 
242.00026027234324 0.2763167019494858 
243.00026027234324 0.2763167019494858 
244.00026027234324 0.2763167019494858 
245.00026027234324 0.2763167019494858 
246.00026027234324 0.2763167019494858 
247.00026027234324 0.2763167019494858 
248.00026027234324 0.2763167019494858 
249.00026027234324 0.2763167019494858 
250.00026027234324 0.2763167019494858 
251.00026027234324 0.2763167019494858 
252.00026027234324 0.2763167019494858 
253.00026027234324 0.2763167019494858 
254.00026027234324 0.2763167019494858 
255.00026027234324 0.2763167019494858 
256.0002602723432 0.2763167019494858 
257.0002602723432 0.2763167019494858 
258.0002602723432 0.2763167019494858 
#####################################################################
# End of data export. Simulation finished at: 2017-05-24T02:18+0000 #
#####################################################################
