#####################################################################
# Alchemist log file - simulation started at: 2017-05-23T21:46+0000 #
#####################################################################
# random = 13.0, targets = 1.0, density = 0.07978946395100113, gridShift = 1.0, perturbation = 0.0, connfactor = 2.0
#
# The columns have the following meaning: 
# time se[Mean] 
0.0 NaN 
1.0170171764237625 NaN 
2.0170171764237628 3.8875 
3.0170171764237628 5.569444444444445 
4.017017176423763 5.027777777777778 
5.017017176423763 4.220833333333334 
6.017017176423763 4.298611111111112 
7.017017176423763 4.608333333333334 
8.017017176423764 4.265277777777779 
9.017017176423764 4.273611111111112 
10.017017176423764 2.7569444444444455 
11.017017176423764 3.8027777777777785 
12.017017176423764 1.656944444444445 
13.017017176423764 2.761111111111111 
14.017017176423764 3.997222222222223 
15.017017176423764 2.594444444444445 
16.017017176423764 2.565277777777778 
17.017017176423764 1.0097222222222226 
18.017017176423764 0.22638888888888917 
19.017017176423764 0.15277777777777815 
20.017017176423764 0.0763888888888891 
21.017017176423764 0.07083333333333348 
22.017017176423764 0.04861111111111121 
23.017017176423764 0.02222222222222224 
24.017017176423764 0.018055555555555585 
25.017017176423764 0.005555555555555569 
26.017017176423764 1.9721522630525295E-31 
27.017017176423764 1.9721522630525295E-31 
28.017017176423764 1.9721522630525295E-31 
29.017017176423764 1.9721522630525295E-31 
#####################################################################
# End of data export. Simulation finished at: 2017-05-23T21:46+0000 #
#####################################################################
