#####################################################################
# Alchemist log file - simulation started at: 2017-05-24T14:55+0000 #
#####################################################################
# random = 7.0, targets = 1.0, density = 0.04, gridShift = 0.0, perturbation = 0.0, connfactor = 0.75
#
# The columns have the following meaning: 
# time se[Mean] 
0.0 NaN 
1.0724373403975138 NaN 
2.0724373403975136 1.0 
3.0724373403975136 1.0 
4.072437340397514 0.9809027777777778 
5.072437340397514 0.8993055555555556 
6.072437340397514 0.6788194444444444 
7.072437340397514 0.26041666666666663 
8.072437340397514 0.0 
9.072437340397514 0.0 
#####################################################################
# End of data export. Simulation finished at: 2017-05-24T14:55+0000 #
#####################################################################
