#####################################################################
# Alchemist log file - simulation started at: 2017-05-22T23:08+0000 #
#####################################################################
# random = 10.0, targets = 3.1622776601683795, density = 5.0264212595847235, gridShift = 0.0, perturbation = 0.0, connfactor = 0.1
#
# The columns have the following meaning: 
# time se[Mean] 
0.0 NaN 
1.0007035023519422 NaN 
2.000703502351942 1.0 
3.000703502351942 1.0 
4.000703502351942 1.0 
5.000703502351942 1.0 
6.000703502351942 1.0 
7.000703502351942 1.0 
8.000703502351943 1.0 
9.000703502351943 1.0 
10.000703502351943 1.0 
11.000703502351943 1.0 
12.000703502351943 1.0 
13.000703502351943 1.0 
14.000703502351943 1.0 
15.000703502351943 1.0 
16.000703502351943 1.0 
17.000703502351943 1.0 
18.000703502351943 1.0 
19.000703502351943 1.0 
20.000703502351943 1.0 
21.000703502351943 1.0 
22.000703502351943 1.0 
23.000703502351943 1.0 
24.000703502351943 1.0 
25.000703502351943 1.0 
26.000703502351943 1.0 
27.000703502351943 1.0 
28.000703502351943 1.0 
29.000703502351943 1.0 
30.000703502351943 1.0 
31.000703502351943 1.0 
32.00070350235194 1.0 
33.00070350235194 1.0 
34.00070350235194 1.0 
35.00070350235194 1.0 
36.00070350235194 1.0 
37.00070350235194 1.0 
38.00070350235194 1.0 
39.00070350235194 1.0 
40.00070350235194 1.0 
41.00070350235194 1.0 
42.00070350235194 1.0 
43.00070350235194 1.0 
44.00070350235194 1.0 
45.00070350235194 1.0 
46.00070350235194 1.0 
47.00070350235194 1.0 
48.00070350235194 1.0 
49.00070350235194 1.0 
50.00070350235194 1.0 
51.00070350235194 1.0 
52.00070350235194 1.0 
#####################################################################
# End of data export. Simulation finished at: 2017-05-22T23:09+0000 #
#####################################################################
