#####################################################################
# Alchemist log file - simulation started at: 2017-05-24T02:02+0000 #
#####################################################################
# random = 13.0, targets = 31.622776601683793, density = 5.0264212595847235, gridShift = 0.0, perturbation = 0.0, connfactor = 1.0
#
# The columns have the following meaning: 
# time se[Mean] 
0.0 NaN 
1.0002602723432414 NaN 
2.000260272343241 1.003076875208861 
3.000260272343241 1.0073877614379176 
4.000260272343241 1.0118253043633336 
5.000260272343241 1.03536241809388 
6.000260272343241 1.035050982292915 
7.000260272343241 1.0627551075253736 
8.00026027234324 1.0503363001042056 
9.00026027234324 1.0481461362085995 
10.00026027234324 1.020664949526727 
11.00026027234324 1.0107916657170477 
12.00026027234324 0.999746641675263 
13.00026027234324 0.9851768161077842 
14.00026027234324 0.9814921367981325 
15.00026027234324 0.970413076316391 
16.00026027234324 0.9664253064231135 
17.00026027234324 0.9562028351192366 
18.00026027234324 0.9499817837354497 
19.00026027234324 0.938876142461781 
20.00026027234324 0.9196745328212784 
21.00026027234324 0.9082016912062443 
22.00026027234324 0.8918082093786079 
23.00026027234324 0.8834139353361254 
24.00026027234324 0.8599450021026711 
25.00026027234324 0.8560840975561645 
26.00026027234324 0.8331100646380154 
27.00026027234324 0.8314493008359043 
28.00026027234324 0.8192455243524399 
29.00026027234324 0.8202092055227542 
30.00026027234324 0.8010052637481834 
31.00026027234324 0.793135689118292 
32.00026027234324 0.7883209986220876 
33.00026027234324 0.7845794401597933 
34.00026027234324 0.7639527936469442 
35.00026027234324 0.7468426885962556 
36.00026027234324 0.7374550681273345 
37.00026027234324 0.715111304300282 
38.00026027234324 0.7209002508706719 
39.00026027234324 0.6924661780737627 
40.00026027234324 0.693646072937485 
41.00026027234324 0.6692809387094865 
42.00026027234324 0.6668584182511003 
43.00026027234324 0.6491210566975969 
44.00026027234324 0.6441968536022552 
45.00026027234324 0.6225961540541922 
46.00026027234324 0.6120585625766068 
47.00026027234324 0.5936851915246786 
48.00026027234324 0.5754714719526094 
49.00026027234324 0.5640406068639102 
50.00026027234324 0.542083337639862 
51.00026027234324 0.5239567012137043 
52.00026027234324 0.5011279311531388 
53.00026027234324 0.49020932044222626 
54.00026027234324 0.4740532704325909 
55.00026027234324 0.4664842705030726 
56.00026027234324 0.4550793504491268 
57.00026027234324 0.4491531281834703 
58.00026027234324 0.4366846366547898 
59.00026027234324 0.42611456833173655 
60.00026027234324 0.41276656902338676 
61.00026027234324 0.40001511504917936 
62.00026027234324 0.3862409439807667 
63.00026027234324 0.3730154517427447 
64.00026027234324 0.35677922197550826 
65.00026027234324 0.3423026718082127 
66.00026027234324 0.3194037844546892 
67.00026027234324 0.3137737482921373 
68.00026027234324 0.29842059129073084 
69.00026027234324 0.28269733937509356 
70.00026027234324 0.2717134283742852 
71.00026027234324 0.26284474596364965 
72.00026027234324 0.25306688413745887 
73.00026027234324 0.25042125425146294 
74.00026027234324 0.24186652370106906 
75.00026027234324 0.24080953530221666 
76.00026027234324 0.230605018352211 
77.00026027234324 0.2174914546484878 
78.00026027234324 0.21646081682371543 
79.00026027234324 0.20568198675889945 
80.00026027234324 0.1976554363062514 
81.00026027234324 0.19240424783174298 
82.00026027234324 0.18322965407056452 
83.00026027234324 0.18180986942947275 
84.00026027234324 0.1762142556272557 
85.00026027234324 0.17408911890380496 
86.00026027234324 0.1728604475612961 
87.00026027234324 0.16917382323225694 
88.00026027234324 0.1685395815756392 
89.00026027234324 0.16753375292539782 
90.00026027234324 0.1671916701731331 
91.00026027234324 0.16695051542486025 
92.00026027234324 0.16551208537589818 
93.00026027234324 0.16475726096604648 
94.00026027234324 0.16407733753730436 
95.00026027234324 0.16282334170665644 
96.00026027234324 0.16238997786295659 
97.00026027234324 0.16153856976561742 
98.00026027234324 0.1611881431592711 
99.00026027234324 0.16068786703426413 
100.00026027234324 0.16029480315606773 
101.00026027234324 0.160203623251003 
102.00026027234324 0.15986053654173654 
103.00026027234324 0.15979946883850776 
104.00026027234324 0.159535915622269 
105.00026027234324 0.1594522347526981 
106.00026027234324 0.15936419077938394 
107.00026027234324 0.15932723251375405 
108.00026027234324 0.15933448913601583 
109.00026027234324 0.15933448913601583 
110.00026027234324 0.15933448913601583 
111.00026027234324 0.15933448913601583 
112.00026027234324 0.15933448913601583 
113.00026027234324 0.15933448913601583 
114.00026027234324 0.15933448913601583 
115.00026027234324 0.15933448913601583 
116.00026027234324 0.15933448913601583 
117.00026027234324 0.15933448913601583 
118.00026027234324 0.15933448913601583 
119.00026027234324 0.15933448913601583 
120.00026027234324 0.15933448913601583 
121.00026027234324 0.15933448913601583 
122.00026027234324 0.15933448913601583 
123.00026027234324 0.15933448913601583 
124.00026027234324 0.15933448913601583 
125.00026027234324 0.15933448913601583 
126.00026027234324 0.15933448913601583 
127.00026027234324 0.15933448913601583 
128.00026027234324 0.15933448913601583 
129.00026027234324 0.15933448913601583 
130.00026027234324 0.15933448913601583 
131.00026027234324 0.15933448913601583 
132.00026027234324 0.15933448913601583 
133.00026027234324 0.15933448913601583 
134.00026027234324 0.15933448913601583 
135.00026027234324 0.15933448913601583 
136.00026027234324 0.15933448913601583 
137.00026027234324 0.15933448913601583 
138.00026027234324 0.15933448913601583 
139.00026027234324 0.15933448913601583 
140.00026027234324 0.15933448913601583 
141.00026027234324 0.15933448913601583 
142.00026027234324 0.15933448913601583 
143.00026027234324 0.15933448913601583 
144.00026027234324 0.15933448913601583 
145.00026027234324 0.15933448913601583 
146.00026027234324 0.15933448913601583 
147.00026027234324 0.15933448913601583 
148.00026027234324 0.15933448913601583 
149.00026027234324 0.15933448913601583 
150.00026027234324 0.15933448913601583 
151.00026027234324 0.15933448913601583 
152.00026027234324 0.15933448913601583 
153.00026027234324 0.15933448913601583 
154.00026027234324 0.15933448913601583 
155.00026027234324 0.15933448913601583 
156.00026027234324 0.15933448913601583 
157.00026027234324 0.15933448913601583 
158.00026027234324 0.15933448913601583 
#####################################################################
# End of data export. Simulation finished at: 2017-05-24T02:03+0000 #
#####################################################################
