#####################################################################
# Alchemist log file - simulation started at: 2017-05-24T01:53+0000 #
#####################################################################
# random = 13.0, targets = 31.622776601683793, density = 0.3174802103936399, gridShift = 1.0, perturbation = 0.5, connfactor = 0.75
#
# The columns have the following meaning: 
# time se[Mean] 
0.0 NaN 
1.0093475742791087 NaN 
2.0093475742791087 1.002935069339436 
3.0093475742791087 1.0171372017509022 
4.009347574279109 1.0141272580868428 
5.009347574279109 1.0035650296568965 
6.009347574279109 0.9710656625237531 
7.009347574279109 0.9881867035393678 
8.009347574279108 0.961924485639105 
9.009347574279108 0.9750815056307097 
10.009347574279108 0.9561165592408185 
11.009347574279108 0.9436288943869423 
12.009347574279108 0.9260140934716944 
13.009347574279108 0.8970739854577993 
14.009347574279108 0.8852120249480008 
15.009347574279108 0.8608562124220145 
16.009347574279108 0.8483648670335844 
17.009347574279108 0.83046866074406 
18.009347574279108 0.8130964987597044 
19.009347574279108 0.801673030313398 
20.009347574279108 0.7775675584448812 
21.009347574279108 0.7689080548546574 
22.009347574279108 0.7375971038178125 
23.009347574279108 0.7214605767645926 
24.009347574279108 0.6876587067586057 
25.009347574279108 0.6587188703147642 
26.009347574279108 0.6245238093882285 
27.009347574279108 0.5748188055851965 
28.009347574279108 0.577809999039239 
29.009347574279108 0.5483220938368306 
30.009347574279108 0.5581661077395434 
31.009347574279108 0.5309568765594405 
32.009347574279104 0.5676499660684637 
33.009347574279104 0.5425980960624769 
34.009347574279104 0.57952034562091 
35.009347574279104 0.5972894449704163 
36.009347574279104 0.6049709788299081 
37.009347574279104 0.6056249371317389 
38.009347574279104 0.6060623974281976 
39.009347574279104 0.6062811275764269 
40.009347574279104 0.6062811275764269 
41.009347574279104 0.6062811275764269 
42.009347574279104 0.6062811275764269 
43.009347574279104 0.6062811275764269 
44.009347574279104 0.6062811275764269 
45.009347574279104 0.6062811275764269 
46.009347574279104 0.6062811275764269 
47.009347574279104 0.6062811275764269 
48.009347574279104 0.6062811275764269 
49.009347574279104 0.6062811275764269 
#####################################################################
# End of data export. Simulation finished at: 2017-05-24T01:53+0000 #
#####################################################################
