#####################################################################
# Alchemist log file - simulation started at: 2017-05-21T14:12+0000 #
#####################################################################
# random = 2.0, targets = 31.622776601683793, density = 20.0, gridShift = 1.0, perturbation = 0.5, connfactor = 0.1
#
# The columns have the following meaning: 
# time se[Mean] 
0.0 NaN 
1.0002668521400264 NaN 
2.0002668521400264 NaN 
3.0002668521400264 1.0 
4.000266852140026 0.9999142208544802 
5.000266852140026 1.0 
6.000266852140026 0.9995711042724013 
7.000266852140026 0.9992279876903223 
8.000266852140026 0.9989706502537631 
9.000266852140026 0.9984559753806446 
10.000266852140026 0.9987133128172038 
11.000266852140026 0.9981986379440854 
12.000266852140026 0.9984559753806446 
13.000266852140026 0.9982844170896051 
14.000266852140026 0.9982844170896051 
15.000266852140026 0.9980270796530458 
16.000266852140026 0.9986275336716841 
17.000266852140026 0.9986275336716841 
18.000266852140026 0.9983701962351248 
19.000266852140026 0.9986275336716841 
20.000266852140026 0.9986275336716841 
21.000266852140026 0.9986275336716841 
22.000266852140026 0.9989706502537631 
23.000266852140026 0.9989706502537631 
24.000266852140026 0.9991422085448025 
25.000266852140026 0.9991897859312303 
26.000266852140026 0.9986548278784203 
27.000266852140026 0.9973267416609697 
28.000266852140026 0.9965401414729768 
29.000266852140026 0.9962494649034307 
30.000266852140026 0.994863243372071 
31.000266852140026 0.9933265794046346 
32.00026685214003 0.9924180132874468 
33.00026685214003 0.9892044512191044 
34.00026685214003 0.9886938062968198 
35.00026685214003 0.9871217882209793 
36.00026685214003 0.9856228429622378 
37.00026685214003 0.9834671071470145 
38.00026685214003 0.9788127351338399 
39.00026685214003 0.9803985084127237 
40.00026685214003 0.9787958654290623 
41.00026685214003 0.9764441247667512 
42.00026685214003 0.9764488539673334 
43.00026685214003 0.9751231323501738 
44.00026685214003 0.973112359869002 
45.00026685214003 0.9739070199586624 
46.00026685214003 0.9733645678284106 
47.00026685214003 0.9735401560702838 
48.00026685214003 0.9724025955978962 
49.00026685214003 0.9722293719563138 
50.00026685214003 0.9709629679532096 
51.00026685214003 0.9716389928147602 
52.00026685214003 0.9706746559839544 
53.00026685214003 0.9700477404338513 
54.00026685214003 0.9701298392534113 
55.00026685214003 0.9695484861143193 
56.00026685214003 0.9693045542559295 
57.00026685214003 0.9683276445222255 
58.00026685214003 0.9690138776863835 
59.00026685214003 0.9682113738944071 
60.00026685214003 0.968606930489019 
61.00026685214003 0.9681418479777453 
62.00026685214003 0.968839471744656 
63.00026685214003 0.9691301483142021 
64.00026685214003 0.9695370955115669 
65.00026685214003 0.9697115014532942 
66.00026685214003 0.9699440427089313 
67.00026685214003 0.9705253958480234 
68.00026685214003 0.970699801789751 
69.00026685214003 0.9714555608705709 
70.00026685214003 0.9721531846374815 
71.00026685214003 0.972501996520937 
72.00026685214003 0.973257755601757 
73.00026685214003 0.974071649996486 
74.00026685214003 0.9746530031355785 
75.00026685214003 0.975408762216398 
76.00026685214003 0.9758738447276721 
77.00026685214003 0.9765133331806735 
78.00026685214003 0.9772690922614934 
79.00026685214003 0.9777341747727671 
80.00026685214003 0.9782573925979501 
81.00026685214003 0.978780610423133 
82.00026685214003 0.9793038282483161 
83.00026685214003 0.9799433167013176 
84.00026685214003 0.9806409404682283 
85.00026685214003 0.9815129701768666 
86.00026685214003 0.9821229163644655 
87.00026685214003 0.9826442357558565 
88.00026685214003 0.9833409103058713 
89.00026685214003 0.9833352150044945 
90.00026685214003 0.9837936529974961 
91.00026685214003 0.9843130739550949 
92.00026685214003 0.9844484454624592 
93.00026685214003 0.9846466983682132 
94.00026685214003 0.9849288319856947 
95.00026685214003 0.9851804741208775 
96.00026685214003 0.9852033718680079 
97.00026685214003 0.9853063534592815 
98.00026685214003 0.9855846902091787 
99.00026685214003 0.9855447065579195 
100.00026685214003 0.9855609597867774 
101.00026685214003 0.9854904846532193 
102.00026685214003 0.9853599757719599 
103.00026685214003 0.9849101972726478 
104.00026685214003 0.9846014855820766 
105.00026685214003 0.9841488594320765 
106.00026685214003 0.9835237257741405 
107.00026685214003 0.9829853204786203 
108.00026685214003 0.9824726605809192 
109.00026685214003 0.9816979171621778 
110.00026685214003 0.9809555636595274 
111.00026685214003 0.980033108913773 
112.00026685214003 0.9793165008089415 
113.00026685214003 0.9781910470729525 
114.00026685214003 0.9770951356023666 
115.00026685214003 0.9761459862418983 
116.00026685214003 0.9749881425898185 
117.00026685214003 0.9736558929960111 
118.00026685214003 0.9722941011368011 
119.00026685214003 0.9710828682552929 
120.00026685214003 0.9696333988167714 
121.00026685214003 0.9686270633592893 
122.00026685214003 0.9672080854030666 
123.00026685214003 0.9660854793177671 
124.00026685214003 0.9646595747539893 
125.00026685214003 0.9625089041716456 
126.00026685214003 0.9621110641049103 
127.00026685214003 0.9578963887040329 
128.00026685214004 0.9559308475385566 
129.00026685214004 0.9569529972435492 
130.00026685214004 0.9515034614878088 
131.00026685214004 0.9536797205759059 
132.00026685214004 0.950404482875861 
133.00026685214004 0.9484015236205328 
134.00026685214004 0.9502370661402979 
135.00026685214004 0.9443581870200205 
136.00026685214004 0.9441376005457011 
137.00026685214004 0.9441907702844553 
138.00026685214004 0.9419140548160512 
139.00026685214004 0.941331085332449 
140.00026685214004 0.9390543698640449 
141.00026685214004 0.9388259075652753 
142.00026685214004 0.9349145306428736 
143.00026685214004 0.9349677003816297 
144.00026685214004 0.9354718799258757 
145.00026685214004 0.934341398016124 
146.00026685214004 0.9312138716430924 
147.00026685214004 0.930083389733342 
148.00026685214004 0.9313497533860056 
149.00026685214004 0.9266466500897838 
150.00026685214004 0.9274541281125065 
151.00026685214004 0.9251774126441027 
152.00026685214004 0.9248012390183189 
153.00026685214004 0.9252384582073083 
154.00026685214004 0.9211931605743955 
155.00026685214004 0.9209568224511742 
156.00026685214004 0.9205058126456838 
157.00026685214004 0.9241670608283625 
158.00026685214004 0.9201138873709988 
159.00026685214004 0.925106498529197 
160.00026685214004 0.9211124096026382 
161.00026685214004 0.9251064985291968 
162.00026685214004 0.9254393392730769 
163.00026685214004 0.9247736577853171 
164.00026685214004 0.9257721800169567 
165.00026685214004 0.9277692244802361 
166.00026685214004 0.9231094540659177 
167.00026685214004 0.9267707022485963 
168.00026685214004 0.925106498529197 
169.00026685214004 0.9244408170414369 
170.00026685214004 0.9267707022485961 
171.00026685214004 0.9261050207608365 
172.00026685214004 0.9271035429924759 
173.00026685214004 0.9274363837363562 
174.00026685214004 0.9257721800169567 
175.00026685214004 0.9264378615047162 
176.00026685214004 0.9271035429924759 
177.00026685214004 0.9257721800169567 
178.00026685214004 0.9274363837363563 
179.00026685214004 0.9297662689435154 
180.00026685214004 0.9277692244802362 
181.00026685214004 0.9274363837363562 
182.00026685214004 0.928102065224116 
183.00026685214004 0.9281020652241159 
184.00026685214004 0.9291005874557551 
185.00026685214004 0.927769224480236 
186.00026685214004 0.9271035429924758 
187.00026685214004 0.9304319504312752 
188.00026685214004 0.9291005874557552 
189.00026685214004 0.9281020652241158 
190.00026685214004 0.9304319504312752 
191.00026685214004 0.9327618356384342 
192.00026685214004 0.9340931986139536 
193.00026685214004 0.9364230838211127 
194.00026685214004 0.9370887653088725 
195.00026685214004 0.9377544467966323 
196.00026685214004 0.9377544467966323 
197.00026685214004 0.9377544467966323 
198.00026685214004 0.9377544467966323 
199.00026685214004 0.9377544467966323 
200.00026685214004 0.9377544467966323 
201.00026685214004 0.9377544467966323 
202.00026685214004 0.9377544467966323 
203.00026685214004 0.9377544467966323 
204.00026685214004 0.9377544467966323 
205.00026685214004 0.9377544467966323 
206.00026685214004 0.9377544467966323 
207.00026685214004 0.9377544467966323 
208.00026685214004 0.9377544467966323 
209.00026685214004 0.9377544467966323 
210.00026685214004 0.9377544467966323 
211.00026685214004 0.9377544467966323 
212.00026685214004 0.9377544467966323 
213.00026685214004 0.9377544467966323 
214.00026685214004 0.9377544467966323 
215.00026685214004 0.9377544467966323 
216.00026685214004 0.9377544467966323 
217.00026685214004 0.9377544467966323 
218.00026685214004 0.9377544467966323 
219.00026685214004 0.9377544467966323 
220.00026685214004 0.9377544467966323 
221.00026685214004 0.9377544467966323 
222.00026685214004 0.9377544467966323 
223.00026685214004 0.9377544467966323 
224.00026685214004 0.9377544467966323 
225.00026685214004 0.9377544467966323 
226.00026685214004 0.9377544467966323 
227.00026685214004 0.9377544467966323 
228.00026685214004 0.9377544467966323 
229.00026685214004 0.9377544467966323 
230.00026685214004 0.9377544467966323 
231.00026685214004 0.9377544467966323 
232.00026685214004 0.9377544467966323 
233.00026685214004 0.9377544467966323 
234.00026685214004 0.9377544467966323 
235.00026685214004 0.9377544467966323 
236.00026685214004 0.9377544467966323 
237.00026685214004 0.9377544467966323 
238.00026685214004 0.9377544467966323 
239.00026685214004 0.9377544467966323 
240.00026685214004 0.9377544467966323 
241.00026685214004 0.9377544467966323 
242.00026685214004 0.9377544467966323 
243.00026685214004 0.9377544467966323 
244.00026685214004 0.9377544467966323 
245.00026685214004 0.9377544467966323 
246.00026685214004 0.9377544467966323 
247.00026685214004 0.9377544467966323 
248.00026685214004 0.9377544467966323 
249.00026685214004 0.9377544467966323 
250.00026685214004 0.9377544467966323 
251.00026685214004 0.9377544467966323 
252.00026685214004 0.9377544467966323 
253.00026685214004 0.9377544467966323 
254.00026685214004 0.9377544467966323 
255.00026685214004 0.9377544467966323 
256.00026685214004 0.9377544467966323 
257.00026685214004 0.9377544467966323 
258.00026685214004 0.9377544467966323 
259.00026685214004 0.9377544467966323 
260.00026685214004 0.9377544467966323 
261.00026685214004 0.9377544467966323 
262.00026685214004 0.9377544467966323 
263.00026685214004 0.9377544467966323 
264.00026685214004 0.9377544467966323 
265.00026685214004 0.9377544467966323 
266.00026685214004 0.9377544467966323 
267.00026685214004 0.9377544467966323 
268.00026685214004 0.9377544467966323 
269.00026685214004 0.9377544467966323 
270.00026685214004 0.9377544467966323 
271.00026685214004 0.9377544467966323 
272.00026685214004 0.9377544467966323 
273.00026685214004 0.9377544467966323 
274.00026685214004 0.9377544467966323 
275.00026685214004 0.9377544467966323 
276.00026685214004 0.9377544467966323 
277.00026685214004 0.9377544467966323 
278.00026685214004 0.9377544467966323 
279.00026685214004 0.9377544467966323 
280.00026685214004 0.9377544467966323 
281.00026685214004 0.9377544467966323 
282.00026685214004 0.9377544467966323 
283.00026685214004 0.9377544467966323 
284.00026685214004 0.9377544467966323 
285.00026685214004 0.9377544467966323 
286.00026685214004 0.9377544467966323 
287.00026685214004 0.9377544467966323 
288.00026685214004 0.9377544467966323 
289.00026685214004 0.9377544467966323 
290.00026685214004 0.9377544467966323 
291.00026685214004 0.9377544467966323 
292.00026685214004 0.9377544467966323 
293.00026685214004 0.9377544467966323 
294.00026685214004 0.9377544467966323 
#####################################################################
# End of data export. Simulation finished at: 2017-05-21T14:40+0000 #
#####################################################################
