#####################################################################
# Alchemist log file - simulation started at: 2017-05-22T14:49+0000 #
#####################################################################
# random = 4.0, targets = 3.1622776601683795, density = 0.11269076455391362, gridShift = 1.0, perturbation = 0.0, connfactor = 0.75
#
# The columns have the following meaning: 
# time se[Mean] 
0.0 NaN 
1.007462068749906 NaN 
2.007462068749906 1.0 
3.007462068749906 1.0 
4.007462068749906 0.9601053361559589 
5.007462068749906 0.8058249020611415 
6.007462068749906 0.5582814357904755 
7.007462068749906 0.40081958942706236 
8.007462068749906 0.3070302617389801 
9.007462068749906 0.1824690853352967 
10.007462068749906 0.10291376094027765 
11.007462068749906 0.050153693295517346 
12.007462068749906 0.023744437956571357 
13.007462068749906 0.005276662530981546 
14.007462068749906 0.002633403898972407 
15.007462068749906 0.002633403898972407 
16.007462068749906 0.002633403898972407 
17.007462068749906 0.002633403898972407 
18.007462068749906 0.002633403898972407 
19.007462068749906 0.002633403898972407 
#####################################################################
# End of data export. Simulation finished at: 2017-05-22T14:49+0000 #
#####################################################################
