#####################################################################
# Alchemist log file - simulation started at: 2017-05-21T01:10+0000 #
#####################################################################
# random = 1.0, targets = 100.0, density = 14.160781367816199, gridShift = 1.0, perturbation = 0.5, connfactor = 0.5
#
# The columns have the following meaning: 
# time se[Mean] 
0.0 NaN 
1.0000417374280275 NaN 
2.0000417374280275 0.9999736772486773 
3.0000417374280275 0.9998814226925338 
4.0000417374280275 0.9991321263227513 
5.0000417374280275 0.9980728946208113 
6.0000417374280275 0.995824871399177 
7.0000417374280275 0.9927172876249265 
8.000041737428027 0.9912984843474427 
9.000041737428027 0.9874037588183422 
10.000041737428027 0.9848538231187537 
11.000041737428027 0.9825271935626102 
12.000041737428027 0.9795409281305114 
13.000041737428027 0.977541010802469 
14.000041737428027 0.9748897358171663 
15.000041737428027 0.971635447898295 
16.000041737428027 0.9690896586566725 
17.000041737428027 0.9657199221046443 
18.000041737428027 0.9633182613168724 
19.000041737428027 0.9595729019694296 
20.000041737428027 0.9564948688271606 
21.000041737428027 0.9540991990005879 
22.000041737428027 0.9491606848912405 
23.000041737428027 0.9458370315255733 
24.000041737428027 0.9440379519400353 
25.000041737428027 0.9385654670047031 
26.000041737428027 0.9357607840975897 
27.000041737428027 0.9330503968253968 
28.000041737428027 0.928739779908877 
29.000041737428027 0.925315472516167 
30.000041737428027 0.9228017857142857 
31.000041737428027 0.9211278806584362 
32.00004173742803 0.9176827858612582 
33.00004173742803 0.9180135618753675 
34.00004173742803 0.9158052891681363 
35.00004173742803 0.915207438639036 
36.00004173742803 0.9135217757936507 
37.00004173742803 0.9120106830540857 
38.00004173742803 0.9102166978982952 
39.00004173742803 0.907980019106408 
40.00004173742803 0.9055915913433276 
41.00004173742803 0.9031435570987655 
42.00004173742803 0.8999781948118754 
43.00004173742803 0.8935555776014109 
44.00004173742803 0.8925854625955321 
45.00004173742803 0.8867954162992358 
46.00004173742803 0.8844610596707819 
47.00004173742803 0.8813491144914756 
48.00004173742803 0.877632280643739 
49.00004173742803 0.8725739197530864 
50.00004173742803 0.8717474757495591 
51.00004173742803 0.8660773203262787 
52.00004173742803 0.863235982510288 
53.00004173742803 0.859381431878307 
54.00004173742803 0.851510802469136 
55.00004173742803 0.8437728927836567 
56.00004173742803 0.8402236533656674 
57.00004173742803 0.8303847626396236 
58.00004173742803 0.8212931529247502 
59.00004173742803 0.8169534409905936 
60.00004173742803 0.8064954126249266 
61.00004173742803 0.7969927064961787 
62.00004173742803 0.791010491990006 
63.00004173742803 0.7809110137419162 
64.00004173742803 0.7723441486625517 
65.00004173742803 0.7697941560111696 
66.00004173742803 0.7584534005731919 
67.00004173742803 0.7506361037624927 
68.00004173742803 0.7500040454144616 
69.00004173742803 0.7454295194003526 
70.00004173742803 0.7342762602880659 
71.00004173742803 0.7306246509406228 
72.00004173742803 0.7230842666078782 
73.00004173742803 0.7150692570546738 
74.00004173742803 0.7077184156378599 
75.00004173742803 0.7035820142563197 
76.00004173742803 0.6903617522780716 
77.00004173742803 0.684075690770135 
78.00004173742803 0.6774642746913577 
79.00004173742803 0.6673973691945913 
80.00004173742803 0.6625164002792477 
81.00004173742803 0.6611436452821865 
82.00004173742803 0.6491898386978244 
83.00004173742803 0.6462610486478539 
84.00004173742803 0.6499781396972373 
85.00004173742803 0.6443133028365666 
86.00004173742803 0.6425281893004111 
87.00004173742803 0.6380743404614936 
88.00004173742803 0.6359863719870661 
89.00004173742803 0.6320939759700179 
90.00004173742803 0.6359443838183421 
91.00004173742803 0.6356633065108763 
92.00004173742803 0.6353891993680192 
93.00004173742803 0.6385075360082301 
94.00004173742803 0.6401289131393296 
95.00004173742803 0.6405879170340979 
96.00004173742803 0.6390469613462668 
97.00004173742803 0.6404898736037625 
98.00004173742803 0.6401205687830688 
99.00004173742803 0.63622569260729 
100.00004173742803 0.6357841747501466 
101.00004173742803 0.6330883561140506 
102.00004173742803 0.6336282168577306 
103.00004173742803 0.6290564116696064 
104.00004173742803 0.6304566615226334 
105.00004173742803 0.6263727292768956 
106.00004173742803 0.6216307355967076 
107.00004173742803 0.6215159373162845 
108.00004173742803 0.6189107363315696 
109.00004173742803 0.6125301513815402 
110.00004173742803 0.6131564135067606 
111.00004173742803 0.6077374742798357 
112.00004173742803 0.6021509002057615 
113.00004173742803 0.6025712062757204 
114.00004173742803 0.6167424125514404 
115.00004173742803 0.6380913378159909 
116.00004173742803 0.6331157389035861 
117.00004173742803 0.6569413929306293 
118.00004173742803 0.6660269822898295 
119.00004173742803 0.6899291832010586 
120.00004173742803 0.6724289737654325 
121.00004173742803 0.7390316064079938 
122.00004173742803 0.6942084931657847 
123.00004173742803 0.7721270502645498 
124.00004173742803 0.7573872115667268 
125.00004173742803 0.7526034685479127 
126.00004173742803 0.7910685368900653 
127.00004173742803 0.8390978762492646 
128.00004173742803 0.7936504997060542 
129.00004173742803 0.8199166097148735 
130.00004173742803 0.9087686305849503 
131.00004173742803 0.7922812665343907 
132.00004173742803 0.9027541023662554 
133.00004173742803 0.952805774176954 
134.00004173742803 0.8955676568930034 
135.00004173742803 0.90730613058495 
136.00004173742803 1.013690417401527 
137.00004173742803 0.9062725088183422 
138.00004173742803 1.01562433127572 
139.00004173742803 1.0630106389623741 
140.00004173742803 0.9553264329805998 
141.00004173742803 0.8821267783656669 
142.00004173742803 1.0098073375955314 
143.00004173742803 0.9946247281011158 
144.00004173742803 1.002438830099941 
145.00004173742803 1.0256711291152258 
146.00004173742803 1.0199436342592578 
147.00004173742803 1.002577645502645 
148.00004173742803 0.9454771017048788 
149.00004173742803 0.9996110596707818 
150.00004173742803 0.9870829934597304 
151.00004173742803 0.8657251708553793 
152.00004173742803 0.9546506668871257 
153.00004173742803 0.9396400536449142 
154.00004173742803 0.9845560258671362 
155.00004173742803 1.0153108520723104 
156.00004173742803 0.9157332433127572 
157.00004173742803 1.049554805996472 
158.00004173742803 1.0327343364197514 
159.00004173742803 0.9049486478542036 
160.00004173742803 0.9922986313198134 
161.00004173742803 1.0245245241769545 
162.00004173742803 1.0110514017489713 
163.00004173742803 1.0758995205026478 
164.00004173742803 0.9561942791005293 
165.00004173742803 1.0211932466196343 
166.00004173742803 1.0377604368753661 
167.00004173742803 0.9898305867871819 
168.00004173742803 1.1017562628600819 
169.00004173742803 1.0397940751763668 
170.00004173742803 1.0355831569664897 
171.00004173742803 1.047896211787183 
172.00004173742803 1.178906358392124 
173.00004173742803 0.9146845329952966 
174.00004173742803 0.9870513062169305 
175.00004173742803 0.8342428644914757 
176.00004173742803 0.8047424401087594 
177.00004173742803 0.8358984825102875 
178.00004173742803 0.7267258395796592 
179.00004173742803 0.6868221468988833 
180.00004173742803 0.7940904541446211 
181.00004173742803 0.77638637749853 
182.00004173742803 0.8157660714285713 
183.00004173742803 0.8496979332010578 
184.00004173742803 0.8392110743680191 
185.00004173742803 0.8555739877278071 
186.00004173742803 0.8439309450323341 
187.00004173742803 0.8817765027924749 
188.00004173742803 0.9124778788212815 
189.00004173742803 0.8507727605085245 
190.00004173742803 0.8733311544679601 
191.00004173742803 0.9541630566578483 
192.00004173742803 0.9911129519400348 
193.00004173742803 0.9498737195032338 
194.00004173742803 0.9211504243827158 
195.00004173742803 1.0609370296884189 
196.00004173742803 0.9850026804085833 
197.00004173742803 0.9380487985008814 
198.00004173742803 1.196663462669018 
199.00004173742803 1.0598610853909463 
200.00004173742803 1.1928544422398581 
201.00004173742803 1.36088551403586 
202.00004173742803 1.2202909391534382 
203.00004173742803 1.2710878343621392 
204.00004173742803 1.5238516865079363 
205.00004173742803 1.2976309597295714 
206.00004173742803 1.5018055610670213 
207.00004173742803 1.6228002590387995 
208.00004173742803 1.491347679673722 
209.00004173742803 1.477339831349206 
210.00004173742803 1.8085302854938277 
211.00004173742803 1.5332585721634326 
212.00004173742803 1.5433279118900636 
213.00004173742803 1.6839527869635544 
214.00004173742803 1.4122813326719559 
215.00004173742803 1.5497412092151697 
216.00004173742803 1.5375315715020594 
217.00004173742803 1.5122827730011743 
218.00004173742803 1.5276515928130512 
219.00004173742803 1.6508739932392713 
220.00004173742803 1.494437398956497 
221.00004173742803 1.630444492210465 
222.00004173742803 1.8074861845972945 
223.00004173742803 1.5910485743680207 
224.00004173742803 1.3413046626984144 
225.00004173742803 1.6855086676954734 
226.00004173742803 1.6129481848912435 
227.00004173742803 1.5313184193121716 
228.00004173742803 1.6728879188712509 
229.00004173742803 1.5694877810846621 
230.00004173742803 1.5608084968400893 
231.00004173742803 1.5231793485449685 
232.00004173742803 1.4786203685332204 
233.00004173742803 1.502301811434439 
234.00004173742803 1.3155574239418097 
235.00004173742803 1.3839513650058883 
236.00004173742803 1.355603591637292 
237.00004173742803 1.5296297178130622 
238.00004173742803 1.362430809082895 
239.00004173742803 1.13605301660787 
240.00004173742803 1.4214724922839574 
241.00004173742803 1.1555166409464857 
242.00004173742803 0.8251475767930705 
243.00004173742803 1.023326653439167 
244.00004173742803 0.8552265873015918 
245.00004173742803 0.8287109145355638 
246.00004173742803 0.9343090498236385 
247.00004173742803 0.7050295432833716 
248.00004173742803 0.7051253821281659 
249.00004173742803 0.7971582800558615 
250.00004173742803 0.6883582782187025 
251.00004173742803 0.7387551715902303 
252.00004173742803 0.7816890928130386 
253.00004173742803 0.6624419569370993 
254.00004173742803 0.6156942294973717 
255.00004173742803 0.9188840075690754 
256.00004173742803 0.45073420598178243 
257.00004173742803 0.42957872942387587 
258.00004173742803 0.3325801036155227 
259.00004173742803 0.12189674639917725 
260.00004173742803 0.09781898883009994 
261.00004173742803 0.09627189888301 
262.00004173742803 0.0961 
263.00004173742803 0.0961 
264.00004173742803 0.0961 
265.00004173742803 0.0961 
266.00004173742803 0.0961 
267.00004173742803 0.0961 
268.00004173742803 0.0961 
269.00004173742803 0.0961 
270.00004173742803 0.0961 
271.00004173742803 0.0961 
272.00004173742803 0.0961 
273.00004173742803 0.0961 
274.00004173742803 0.0961 
275.00004173742803 0.0961 
276.00004173742803 0.0961 
277.00004173742803 0.0961 
278.00004173742803 0.0961 
279.00004173742803 0.0961 
280.00004173742803 0.0961 
281.00004173742803 0.0961 
282.00004173742803 0.0961 
283.00004173742803 0.0961 
284.00004173742803 0.0961 
285.00004173742803 0.0961 
286.00004173742803 0.0961 
287.00004173742803 0.0961 
288.00004173742803 0.0961 
289.00004173742803 0.0961 
290.00004173742803 0.0961 
291.00004173742803 0.0961 
292.00004173742803 0.0961 
293.00004173742803 0.0961 
294.00004173742803 0.0961 
295.00004173742803 0.0961 
296.00004173742803 0.0961 
297.00004173742803 0.0961 
298.00004173742803 0.0961 
299.00004173742803 0.0961 
300.00004173742803 0.0961 
301.00004173742803 0.0961 
302.00004173742803 0.0961 
303.00004173742803 0.0961 
304.00004173742803 0.0961 
305.00004173742803 0.0961 
306.00004173742803 0.0961 
307.00004173742803 0.0961 
308.00004173742803 0.0961 
309.00004173742803 0.0961 
310.00004173742803 0.0961 
311.00004173742803 0.0961 
312.00004173742803 0.0961 
313.00004173742803 0.0961 
314.00004173742803 0.0961 
315.00004173742803 0.0961 
316.00004173742803 0.0961 
317.00004173742803 0.0961 
318.00004173742803 0.0961 
319.00004173742803 0.0961 
320.00004173742803 0.0961 
321.00004173742803 0.0961 
322.00004173742803 0.0961 
323.00004173742803 0.0961 
324.00004173742803 0.0961 
325.00004173742803 0.0961 
326.00004173742803 0.0961 
327.00004173742803 0.0961 
328.00004173742803 0.0961 
329.00004173742803 0.0961 
330.00004173742803 0.0961 
331.00004173742803 0.0961 
332.00004173742803 0.0961 
333.00004173742803 0.0961 
334.00004173742803 0.0961 
335.00004173742803 0.0961 
336.00004173742803 0.0961 
337.00004173742803 0.0961 
338.00004173742803 0.0961 
339.00004173742803 0.0961 
340.00004173742803 0.0961 
341.00004173742803 0.0961 
342.00004173742803 0.0961 
343.00004173742803 0.0961 
344.00004173742803 0.0961 
345.00004173742803 0.0961 
#####################################################################
# End of data export. Simulation finished at: 2017-05-21T01:33+0000 #
#####################################################################
