#####################################################################
# Alchemist log file - simulation started at: 2017-05-25T15:51+0000 #
#####################################################################
# random = 8.0, targets = 31.622776601683793, density = 0.2247883923996312, gridShift = 1.0, perturbation = 0.5, connfactor = 2.0
#
# The columns have the following meaning: 
# time se[Mean] 
0.0 NaN 
1.0447112257851685 NaN 
2.0447112257851687 1.0411699721448617 
3.0447112257851687 1.1290037477148935 
4.044711225785169 1.4255537490473043 
5.044711225785169 1.8347590833298784 
6.044711225785169 2.2647765777515843 
7.044711225785169 2.93145039050026 
8.044711225785168 2.150260468264603 
9.044711225785168 2.52276935983001 
10.044711225785168 1.8451490648717948 
11.044711225785168 1.804469299500604 
12.044711225785168 1.881334612150385 
13.044711225785168 1.6099637225864292 
14.044711225785168 1.9449022626875854 
15.044711225785168 2.2121394805974632 
16.044711225785168 2.055597253458544 
17.044711225785168 2.510230931871619 
18.044711225785168 1.9105623459169738 
19.044711225785168 2.008991758367797 
20.044711225785168 1.9500649758737687 
21.044711225785168 1.759817120915086 
22.044711225785168 2.4215815953812982 
23.044711225785168 2.121961110975709 
24.044711225785168 2.149680104676623 
25.044711225785168 2.641848011923461 
26.044711225785168 1.9237930107089076 
27.044711225785168 2.1282458430710243 
28.044711225785168 1.8767887353997577 
29.044711225785168 1.8773889821639926 
30.044711225785168 1.827658626841281 
31.044711225785168 1.09231576909992 
32.044711225785164 1.0708212902035057 
33.044711225785164 0.8080762554213576 
34.044711225785164 0.8225942000942508 
35.044711225785164 0.8092830189591109 
36.044711225785164 0.8200671895682446 
37.044711225785164 0.8174883492829125 
38.044711225785164 0.8192633403898977 
39.044711225785164 0.8192633403898977 
40.044711225785164 0.8192633403898977 
41.044711225785164 0.8192633403898977 
42.044711225785164 0.8192633403898977 
43.044711225785164 0.8192633403898977 
44.044711225785164 0.8192633403898977 
45.044711225785164 0.8192633403898977 
46.044711225785164 0.8192633403898977 
47.044711225785164 0.8192633403898977 
48.044711225785164 0.8192633403898977 
#####################################################################
# End of data export. Simulation finished at: 2017-05-25T15:54+0000 #
#####################################################################
