#####################################################################
# Alchemist log file - simulation started at: 2017-05-24T06:46+0000 #
#####################################################################
# random = 14.0, targets = 3.1622776601683795, density = 1.7841466528270753, gridShift = 1.0, perturbation = 0.5, connfactor = 0.1
#
# The columns have the following meaning: 
# time se[Mean] 
0.0 NaN 
1.00680225313191 NaN 
2.00680225313191 1.0 
3.00680225313191 1.0 
4.0068022531319105 1.0 
5.0068022531319105 1.0 
6.0068022531319105 1.0 
7.0068022531319105 1.0 
8.00680225313191 1.0 
9.00680225313191 1.0 
10.00680225313191 1.0 
11.00680225313191 1.0 
12.00680225313191 1.0 
13.00680225313191 1.0 
14.00680225313191 1.0 
15.00680225313191 1.0 
16.00680225313191 1.0 
17.00680225313191 1.0 
18.00680225313191 1.0 
19.00680225313191 1.0 
20.00680225313191 1.0 
21.00680225313191 1.0 
22.00680225313191 1.0 
23.00680225313191 1.0 
24.00680225313191 1.0 
25.00680225313191 1.0 
26.00680225313191 1.0 
27.00680225313191 1.0 
#####################################################################
# End of data export. Simulation finished at: 2017-05-24T06:46+0000 #
#####################################################################
