#####################################################################
# Alchemist log file - simulation started at: 2017-05-25T07:54+0000 #
#####################################################################
# random = 8.0, targets = 1.0, density = 0.2247883923996312, gridShift = 1.0, perturbation = 0.5, connfactor = 0.1
#
# The columns have the following meaning: 
# time se[Mean] 
0.0 NaN 
1.0490773234798803 NaN 
2.0490773234798803 1.0 
3.0490773234798803 1.0 
4.04907732347988 1.0 
5.04907732347988 1.0 
6.04907732347988 1.0 
7.04907732347988 1.0 
8.04907732347988 1.0 
9.04907732347988 1.0 
#####################################################################
# End of data export. Simulation finished at: 2017-05-25T07:54+0000 #
#####################################################################
