#####################################################################
# Alchemist log file - simulation started at: 2017-05-25T19:46+0000 #
#####################################################################
# random = 18.0, targets = 100.0, density = 20.0, gridShift = 0.0, perturbation = 0.0, connfactor = 0.75
#
# The columns have the following meaning: 
# time se[Mean] 
0.0 NaN 
1.0000499264234746 NaN 
2.0000499264234746 1.0004550094517959 
3.0000499264234746 1.000943545867465 
4.000049926423475 1.0013501729547365 
5.000049926423475 1.0011625872978367 
6.000049926423475 1.0002773373503466 
7.000049926423475 0.9993801472904852 
8.000049926423475 0.9985450502783029 
9.000049926423475 0.997353621547469 
10.000049926423475 0.9960884399285864 
11.000049926423475 0.9940635692344045 
12.000049926423475 0.9925352033448855 
13.000049926423475 0.9896343136289645 
14.000049926423475 0.988121733879437 
15.000049926423475 0.9848889358196807 
16.000049926423475 0.9834244191083806 
17.000049926423475 0.979823168058181 
18.000049926423475 0.9784177188353287 
19.000049926423475 0.9746053629095778 
20.000049926423475 0.9728505359299516 
21.000049926423475 0.9695086930266751 
22.000049926423475 0.9660828233301827 
23.000049926423475 0.9633122765044109 
24.000049926423475 0.9588287049070573 
25.000049926423475 0.9569803635659526 
26.000049926423475 0.9511824436174123 
27.000049926423475 0.9492680322542532 
28.000049926423475 0.9435075975372821 
29.000049926423475 0.9413180995326612 
30.000049926423475 0.9368227722642302 
31.000049926423475 0.9332082027147658 
32.00004992642347 0.9294357021896661 
33.00004992642347 0.9258961887602393 
34.00004992642347 0.9245915465500946 
35.00004992642347 0.9201351534604074 
36.00004992642347 0.9201739498004622 
37.00004992642347 0.9159930742622349 
38.00004992642347 0.915651498831653 
39.00004992642347 0.9126699002966814 
40.00004992642347 0.9117918412623398 
41.00004992642347 0.909827835210565 
42.00004992642347 0.9093130323198907 
43.00004992642347 0.9084311285706784 
44.00004992642347 0.9079342719491703 
45.00004992642347 0.9071232386184624 
46.00004992642347 0.906538344426066 
47.00004992642347 0.9067683709436042 
48.00004992642347 0.9047822122453265 
49.00004992642347 0.9059543084436044 
50.00004992642347 0.9041746859247007 
51.00004992642347 0.903053140752993 
52.00004992642347 0.9034722822805084 
53.00004992642347 0.9024478290406428 
54.00004992642347 0.901903876220857 
55.00004992642347 0.9022059700561855 
56.00004992642347 0.9026137418609534 
57.00004992642347 0.9013469084751101 
58.00004992642347 0.9003613789119933 
59.00004992642347 0.9003432862712666 
60.00004992642347 0.896728872610796 
61.00004992642347 0.8965379663542322 
62.00004992642347 0.8950887205287755 
63.00004992642347 0.8929531240154379 
64.00004992642347 0.8903958989708044 
65.00004992642347 0.8893239557078345 
66.00004992642347 0.8854427759399286 
67.00004992642347 0.8838399971775888 
68.00004992642347 0.8802822339056922 
69.00004992642347 0.8778148701690821 
70.00004992642347 0.8728348725320314 
71.00004992642347 0.8692935061567948 
72.00004992642347 0.8651932209619827 
73.00004992642347 0.8610646703029822 
74.00004992642347 0.8570452652410203 
75.00004992642347 0.8529622482802981 
76.00004992642347 0.8490108879437099 
77.00004992642347 0.8459859699905488 
78.00004992642347 0.8406582667112996 
79.00004992642347 0.8353076185412727 
80.00004992642347 0.8289155810228941 
81.00004992642347 0.8240821173991808 
82.00004992642347 0.8182009162990974 
83.00004992642347 0.8143588626995383 
84.00004992642347 0.8067908192869143 
85.00004992642347 0.8009777292060495 
86.00004992642347 0.7967188523944544 
87.00004992642347 0.7911603526701321 
88.00004992642347 0.7835027738395288 
89.00004992642347 0.7813076700666887 
90.00004992642347 0.7739561827215906 
91.00004992642347 0.7673671159551557 
92.00004992642347 0.7636829716708673 
93.00004992642347 0.7560834541062802 
94.00004992642347 0.7504556773130656 
95.00004992642347 0.7440613050698375 
96.00004992642347 0.7371621232409158 
97.00004992642347 0.729907306763286 
98.00004992642347 0.7279664362791444 
99.00004992642347 0.7198891002415441 
100.00004992642347 0.7154328325194291 
101.00004992642347 0.7096571590789735 
102.00004992642347 0.7057111577137155 
103.00004992642347 0.700064174083701 
104.00004992642347 0.6952045201244476 
105.00004992642347 0.6896858383874195 
106.00004992642347 0.6866105902777787 
107.00004992642347 0.6807700082703205 
108.00004992642347 0.6763940735927318 
109.00004992642347 0.6705449928455166 
110.00004992642347 0.6662092342076252 
111.00004992642347 0.6625960289329966 
112.00004992642347 0.65726782779353 
113.00004992642347 0.6527623372190722 
114.00004992642347 0.6490126644218644 
115.00004992642347 0.6458938930896876 
116.00004992642347 0.6413318558338574 
117.00004992642347 0.6366978050829657 
118.00004992642347 0.6349255746560593 
119.00004992642347 0.6297477036730724 
120.00004992642347 0.6271848774548424 
121.00004992642347 0.6214217368331226 
122.00004992642347 0.6219732510895818 
123.00004992642347 0.631279684546313 
124.00004992642347 0.6126442120877972 
125.00004992642347 0.6384481411468181 
126.00004992642347 0.6244765503570682 
127.00004992642347 0.6190710309021215 
128.00004992642346 0.6173864983721912 
129.00004992642346 0.6123561971618361 
130.00004992642346 0.5920712776990125 
131.00004992642346 0.5912000997689564 
132.00004992642346 0.5763050452242174 
133.00004992642346 0.5685783091131064 
134.00004992642346 0.564452338663096 
135.00004992642346 0.5622194011237135 
136.00004992642346 0.5531585361531194 
137.00004992642346 0.5472825427299939 
138.00004992642346 0.5511819109693342 
139.00004992642346 0.5407874711195126 
140.00004992642346 0.5423749740731993 
141.00004992642346 0.5408114865574462 
142.00004992642346 0.5136866526202476 
143.00004992642346 0.5312518250498848 
144.00004992642346 0.5034601659315273 
145.00004992642346 0.5177661071072257 
146.00004992642346 0.5081211818683051 
147.00004992642346 0.49492886013967663 
148.00004992642346 0.484195268194707 
149.00004992642346 0.4897770272132957 
150.00004992642346 0.4737209567317793 
151.00004992642346 0.4676229357015337 
152.00004992642346 0.46744420749317384 
153.00004992642346 0.4570835719255404 
154.00004992642346 0.473075214962718 
155.00004992642346 0.45720054971382024 
156.00004992642346 0.4707520245877965 
157.00004992642346 0.46084427378701937 
158.00004992642346 0.4559751929741656 
159.00004992642346 0.4488889548545477 
160.00004992642346 0.4523640651254979 
161.00004992642346 0.4305884169554715 
162.00004992642346 0.42550094977420694 
163.00004992642346 0.41176263324406626 
164.00004992642346 0.39796216721802113 
165.00004992642346 0.3960856995641675 
166.00004992642346 0.3880826063983411 
167.00004992642346 0.38321118101501755 
168.00004992642346 0.37588703200483065 
169.00004992642346 0.37652013888888863 
170.00004992642346 0.36305902843415194 
171.00004992642346 0.35533396181211935 
172.00004992642346 0.358646813957152 
173.00004992642346 0.3310573622269469 
174.00004992642346 0.3464338984719594 
175.00004992642346 0.32668263265332864 
176.00004992642346 0.3275450686567947 
177.00004992642346 0.32436559316582675 
178.00004992642346 0.30733133959514713 
179.00004992642346 0.30543865226580613 
180.00004992642346 0.3032539182288384 
181.00004992642346 0.29435716137628704 
182.00004992642346 0.2840321866467131 
183.00004992642346 0.28345320278040437 
184.00004992642346 0.2742339929899182 
185.00004992642346 0.2700128101370511 
186.00004992642346 0.26613043740810854 
187.00004992642346 0.2572726144061117 
188.00004992642346 0.25441894822516303 
189.00004992642346 0.2473664851790591 
190.00004992642346 0.239353142722118 
191.00004992642346 0.23609074183469922 
192.00004992642346 0.22710993948225194 
193.00004992642346 0.22355063733984445 
194.00004992642346 0.21625006104284858 
195.00004992642346 0.2080476167034235 
196.00004992642346 0.20573898406322283 
197.00004992642346 0.1995560954237553 
198.00004992642346 0.19759150880854864 
199.00004992642346 0.19303848456206685 
200.00004992642346 0.1902330803008829 
201.00004992642346 0.18584588354599846 
202.00004992642346 0.18029986478680915 
203.00004992642346 0.17926680844360493 
204.00004992642346 0.17456164211825279 
205.00004992642346 0.1736865377546742 
206.00004992642346 0.1721181405560813 
207.00004992642346 0.1678539323408946 
208.00004992642346 0.16864945652173982 
209.00004992642346 0.16348898012497343 
210.00004992642346 0.16340012077294716 
211.00004992642346 0.16067014249895012 
212.00004992642346 0.15751559611951343 
213.00004992642346 0.15208586365784532 
214.00004992642346 0.15252100234982166 
215.00004992642346 0.1501051686226636 
216.00004992642346 0.1449848718756564 
217.00004992642346 0.14538167204893968 
218.00004992642346 0.14007974657372463 
219.00004992642346 0.14099721894034847 
220.00004992642346 0.13534968494013852 
221.00004992642346 0.1357281981857809 
222.00004992642346 0.13055605308758725 
223.00004992642346 0.1278005694050619 
224.00004992642346 0.12489651727578227 
225.00004992642346 0.1224713584331023 
226.00004992642346 0.12009536139991635 
227.00004992642346 0.11778857842365059 
228.00004992642346 0.11585448829027516 
229.00004992642346 0.113450548072884 
230.00004992642346 0.11205379023577001 
231.00004992642346 0.11088639564954869 
232.00004992642346 0.10976657214870812 
233.00004992642346 0.10896479402961584 
234.00004992642346 0.10784234240443212 
235.00004992642346 0.10688603365889518 
236.00004992642346 0.10525888173440473 
237.00004992642346 0.10428341406742307 
238.00004992642346 0.10294506242123509 
239.00004992642346 0.10187910628019332 
240.00004992642346 0.1010170752599246 
241.00004992642346 0.0999980718992859 
242.00004992642346 0.09937356680581831 
243.00004992642346 0.09837270170394907 
244.00004992642346 0.0975731585407481 
245.00004992642346 0.09648548689876095 
246.00004992642346 0.09549282483984481 
247.00004992642346 0.09441457742596089 
248.00004992642346 0.09333884655272019 
249.00004992642346 0.09221511302772524 
250.00004992642346 0.09117109522684315 
251.00004992642346 0.09022440138626343 
252.00004992642346 0.08915850366257094 
253.00004992642346 0.08833754496166778 
254.00004992642346 0.08768640221329561 
255.00004992642346 0.0870651832598194 
256.00004992642346 0.08668265398550731 
257.00004992642346 0.08636804538174754 
258.00004992642346 0.0861501316031297 
259.00004992642346 0.08588602873608496 
260.00004992642346 0.08574326198540227 
261.00004992642346 0.08553870215028357 
262.00004992642346 0.0853379817790381 
263.00004992642346 0.08520752894612486 
264.00004992642346 0.08507418576717081 
265.00004992642346 0.08491945790012607 
266.00004992642346 0.08478058049779465 
267.00004992642346 0.08467638724795218 
268.00004992642346 0.08455956666141574 
269.00004992642346 0.08444431874868732 
270.00004992642346 0.0843711136053351 
271.00004992642346 0.08429305128912001 
272.00004992642346 0.08423250794213408 
273.00004992642346 0.08419099716446132 
274.00004992642346 0.08415790406427229 
275.00004992642346 0.08413650460775055 
276.00004992642346 0.08411789343100197 
277.00004992642346 0.0841103231332704 
278.00004992642346 0.08410344104442352 
279.00004992642346 0.08410000000000008 
280.00004992642346 0.08410000000000008 
281.00004992642346 0.08410000000000008 
282.00004992642346 0.08410000000000008 
283.00004992642346 0.08410000000000008 
284.00004992642346 0.08410000000000008 
285.00004992642346 0.08410000000000008 
286.00004992642346 0.08410000000000008 
287.00004992642346 0.08410000000000008 
288.00004992642346 0.08410000000000008 
289.00004992642346 0.08410000000000008 
290.00004992642346 0.08410000000000008 
291.00004992642346 0.08410000000000008 
292.00004992642346 0.08410000000000008 
293.00004992642346 0.08410000000000008 
294.00004992642346 0.08410000000000008 
295.00004992642346 0.08410000000000008 
296.00004992642346 0.08410000000000008 
297.00004992642346 0.08410000000000008 
298.00004992642346 0.08410000000000008 
299.00004992642346 0.08410000000000008 
300.00004992642346 0.08410000000000008 
301.00004992642346 0.08410000000000008 
302.00004992642346 0.08410000000000008 
303.00004992642346 0.08410000000000008 
304.00004992642346 0.08410000000000008 
305.00004992642346 0.08410000000000008 
306.00004992642346 0.08410000000000008 
307.00004992642346 0.08410000000000008 
308.00004992642346 0.08410000000000008 
309.00004992642346 0.08410000000000008 
310.00004992642346 0.08410000000000008 
311.00004992642346 0.08410000000000008 
312.00004992642346 0.08410000000000008 
313.00004992642346 0.08410000000000008 
314.00004992642346 0.08410000000000008 
315.00004992642346 0.08410000000000008 
316.00004992642346 0.08410000000000008 
317.00004992642346 0.08410000000000008 
318.00004992642346 0.08410000000000008 
319.00004992642346 0.08410000000000008 
320.00004992642346 0.08410000000000008 
321.00004992642346 0.08410000000000008 
322.00004992642346 0.08410000000000008 
323.00004992642346 0.08410000000000008 
324.00004992642346 0.08410000000000008 
325.00004992642346 0.08410000000000008 
326.00004992642346 0.08410000000000008 
327.00004992642346 0.08410000000000008 
328.00004992642346 0.08410000000000008 
329.00004992642346 0.08410000000000008 
330.00004992642346 0.08410000000000008 
331.00004992642346 0.08410000000000008 
332.00004992642346 0.08410000000000008 
333.00004992642346 0.08410000000000008 
334.00004992642346 0.08410000000000008 
335.00004992642346 0.08410000000000008 
336.00004992642346 0.08410000000000008 
337.00004992642346 0.08410000000000008 
338.00004992642346 0.08410000000000008 
339.00004992642346 0.08410000000000008 
340.00004992642346 0.08410000000000008 
341.00004992642346 0.08410000000000008 
342.00004992642346 0.08410000000000008 
343.00004992642346 0.08410000000000008 
344.00004992642346 0.08410000000000008 
345.00004992642346 0.08410000000000008 
346.00004992642346 0.08410000000000008 
347.00004992642346 0.08410000000000008 
348.00004992642346 0.08410000000000008 
349.00004992642346 0.08410000000000008 
350.00004992642346 0.08410000000000008 
351.00004992642346 0.08410000000000008 
352.00004992642346 0.08410000000000008 
353.00004992642346 0.08410000000000008 
354.00004992642346 0.08410000000000008 
355.00004992642346 0.08410000000000008 
356.00004992642346 0.08410000000000008 
357.00004992642346 0.08410000000000008 
358.00004992642346 0.08410000000000008 
359.00004992642346 0.08410000000000008 
360.00004992642346 0.08410000000000008 
361.00004992642346 0.08410000000000008 
362.00004992642346 0.08410000000000008 
363.00004992642346 0.08410000000000008 
364.00004992642346 0.08410000000000008 
365.00004992642346 0.08410000000000008 
366.00004992642346 0.08410000000000008 
367.00004992642346 0.08410000000000008 
368.00004992642346 0.08410000000000008 
369.00004992642346 0.08410000000000008 
370.00004992642346 0.08410000000000008 
371.00004992642346 0.08410000000000008 
372.00004992642346 0.08410000000000008 
373.00004992642346 0.08410000000000008 
374.00004992642346 0.08410000000000008 
375.00004992642346 0.08410000000000008 
376.00004992642346 0.08410000000000008 
377.00004992642346 0.08410000000000008 
378.00004992642346 0.08410000000000008 
379.00004992642346 0.08410000000000008 
380.00004992642346 0.08410000000000008 
381.00004992642346 0.08410000000000008 
382.00004992642346 0.08410000000000008 
383.00004992642346 0.08410000000000008 
384.00004992642346 0.08410000000000008 
385.00004992642346 0.08410000000000008 
386.00004992642346 0.08410000000000008 
#####################################################################
# End of data export. Simulation finished at: 2017-05-25T19:57+0000 #
#####################################################################
