#####################################################################
# Alchemist log file - simulation started at: 2017-05-25T18:34+0000 #
#####################################################################
# random = 18.0, targets = 100.0, density = 0.2247883923996312, gridShift = 0.0, perturbation = 0.5, connfactor = 0.25
#
# The columns have the following meaning: 
# time se[Mean] 
0.0 NaN 
1.0067713218599703 NaN 
2.0067713218599703 0.9994472222222223 
3.0067713218599703 0.9987109567901234 
4.00677132185997 0.9934940586419753 
5.00677132185997 0.990528163580247 
6.00677132185997 0.9788369598765432 
7.00677132185997 0.9780305555555556 
8.00677132185997 0.9690898148148148 
9.00677132185997 0.9693278549382716 
10.00677132185997 0.9675638888888889 
11.00677132185997 0.9579129629629629 
12.00677132185997 0.9603650462962963 
13.00677132185997 0.9568699845679012 
14.00677132185997 0.9513170524691358 
15.00677132185997 0.9444135802469136 
16.006771321859972 0.9297747685185185 
17.006771321859972 0.9332391203703704 
18.006771321859972 0.9133005401234568 
19.006771321859972 0.9082824074074074 
20.006771321859972 0.9052128086419753 
21.006771321859972 0.902983950617284 
22.006771321859972 0.8954459876543209 
23.006771321859972 0.8947515432098765 
24.006771321859972 0.8684570216049383 
25.006771321859972 0.847055787037037 
26.006771321859972 0.870807561728395 
27.006771321859972 0.8227036265432099 
28.006771321859972 0.8311173611111111 
29.006771321859972 0.8399648148148149 
30.006771321859972 0.8478563271604939 
31.006771321859972 0.8740574845679012 
32.00677132185997 0.8652057098765432 
33.00677132185997 0.8832537037037037 
34.00677132185997 0.8834262345679013 
35.00677132185997 0.8832524691358026 
36.00677132185997 0.8836 
37.00677132185997 0.8836 
38.00677132185997 0.8836 
39.00677132185997 0.8836 
40.00677132185997 0.8836 
41.00677132185997 0.8836 
42.00677132185997 0.8836 
43.00677132185997 0.8836 
44.00677132185997 0.8836 
45.00677132185997 0.8836 
46.00677132185997 0.8836 
47.00677132185997 0.8836 
#####################################################################
# End of data export. Simulation finished at: 2017-05-25T18:34+0000 #
#####################################################################
