#####################################################################
# Alchemist log file - simulation started at: 2017-05-22T03:26+0000 #
#####################################################################
# random = 3.0, targets = 31.622776601683793, density = 0.2247883923996312, gridShift = 1.0, perturbation = 0.5, connfactor = 1.0
#
# The columns have the following meaning: 
# time se[Mean] 
0.0 NaN 
1.0016359619213666 NaN 
2.001635961921367 0.9910370462100742 
3.001635961921367 1.046402088883005 
4.001635961921367 0.934056052444294 
5.001635961921367 1.4558969677235212 
6.001635961921367 1.1758655339612216 
7.001635961921367 1.516803945639857 
8.001635961921366 1.3696786766769355 
9.001635961921366 1.3550213215075273 
10.001635961921366 1.3290962210580028 
11.001635961921366 1.2281447022741718 
12.001635961921366 1.1107704952587603 
13.001635961921366 1.0544198881512603 
14.001635961921366 0.9890703846199651 
15.001635961921366 0.9279657485475166 
16.001635961921366 0.8912736686695354 
17.001635961921366 0.8330031197726641 
18.001635961921366 0.8424724275654745 
19.001635961921366 1.0496826109666693 
20.001635961921366 0.9328528435291611 
21.001635961921366 1.0251261872197783 
22.001635961921366 1.0901430632584754 
23.001635961921366 1.1266749268257197 
24.001635961921366 1.1355839873222526 
25.001635961921366 1.1453269807667157 
26.001635961921366 1.0337605421320268 
27.001635961921366 0.9214947516734883 
28.001635961921366 0.9250351615863871 
29.001635961921366 0.9306617222089301 
30.001635961921366 0.9377544467966326 
31.001635961921366 0.9377544467966326 
32.001635961921366 0.9377544467966326 
33.001635961921366 0.9377544467966326 
34.001635961921366 0.9377544467966326 
35.001635961921366 0.9377544467966326 
36.001635961921366 0.9377544467966326 
37.001635961921366 0.9377544467966326 
38.001635961921366 0.9377544467966326 
39.001635961921366 0.9377544467966326 
40.001635961921366 0.9377544467966326 
#####################################################################
# End of data export. Simulation finished at: 2017-05-22T03:26+0000 #
#####################################################################
