#####################################################################
# Alchemist log file - simulation started at: 2017-05-20T18:23+0000 #
#####################################################################
# random = 1.0, targets = 31.622776601683793, density = 0.2247883923996312, gridShift = 1.0, perturbation = 0.0, connfactor = 1.0
#
# The columns have the following meaning: 
# time se[Mean] 
0.0 NaN 
1.0048855897957667 NaN 
2.0048855897957667 1.1677539227749654 
3.0048855897957667 1.2091891418520755 
4.004885589795767 1.241988893967751 
5.004885589795767 1.1984088382073181 
6.004885589795767 1.286632702595489 
7.004885589795767 1.1306029109991378 
8.004885589795766 1.2825945114943877 
9.004885589795766 1.3340821648819674 
10.004885589795766 1.1782358030420004 
11.004885589795766 1.1502668799251599 
12.004885589795766 1.0495428313038802 
13.004885589795766 0.8928344806384013 
14.004885589795766 0.8578956155221725 
15.004885589795766 0.8485846983772525 
16.004885589795766 0.7597127440655632 
17.004885589795766 0.7968425978068574 
18.004885589795766 0.8313658733635969 
19.004885589795766 0.7279990657026449 
20.004885589795766 0.7022725466387917 
21.004885589795766 0.773515877843955 
22.004885589795766 0.5362029066157232 
23.004885589795766 0.5977366321879349 
24.004885589795766 0.44934392500007897 
25.004885589795766 0.36612525631423803 
26.004885589795766 0.35138433452679485 
27.004885589795766 0.34023547735150467 
28.004885589795766 0.37445368864097955 
29.004885589795766 0.3418064118344185 
30.004885589795766 0.37710482603910367 
31.004885589795766 0.3850533615595891 
32.00488558979576 0.3850533615595891 
33.00488558979576 0.3850533615595891 
34.00488558979576 0.3850533615595891 
35.00488558979576 0.3850533615595891 
36.00488558979576 0.3850533615595891 
37.00488558979576 0.3850533615595891 
38.00488558979576 0.3850533615595891 
39.00488558979576 0.3850533615595891 
40.00488558979576 0.3850533615595891 
#####################################################################
# End of data export. Simulation finished at: 2017-05-20T18:23+0000 #
#####################################################################
