#####################################################################
# Alchemist log file - simulation started at: 2017-05-25T07:27+0000 #
#####################################################################
# random = 17.0, targets = 10.0, density = 0.04, gridShift = 1.0, perturbation = 0.5, connfactor = 0.25
#
# The columns have the following meaning: 
# time se[Mean] 
0.0 NaN 
1.0045647570182237 NaN 
2.0045647570182235 1.0341666666666667 
3.0045647570182235 1.0854166666666667 
4.0045647570182235 1.0683333333333334 
5.0045647570182235 1.0597916666666667 
6.0045647570182235 1.025787037037037 
7.0045647570182235 0.9777777777777777 
8.004564757018223 0.9243055555555555 
9.004564757018223 0.9759259259259259 
10.004564757018223 0.8190740740740741 
11.004564757018223 0.8337268518518518 
12.004564757018223 0.7012962962962963 
13.004564757018223 0.7208333333333333 
14.004564757018223 0.5908333333333333 
15.004564757018223 0.630462962962963 
16.004564757018223 0.6237037037037038 
17.004564757018223 0.6314814814814815 
18.004564757018223 0.64 
19.004564757018223 0.64 
20.004564757018223 0.64 
#####################################################################
# End of data export. Simulation finished at: 2017-05-25T07:27+0000 #
#####################################################################
