#####################################################################
# Alchemist log file - simulation started at: 2017-05-25T08:45+0000 #
#####################################################################
# random = 17.0, targets = 10.0, density = 20.0, gridShift = 1.0, perturbation = 0.0, connfactor = 2.0
#
# The columns have the following meaning: 
# time se[Mean] 
0.0 NaN 
1.0002469869236763 NaN 
2.0002469869236763 1.0051696725201706 
3.0002469869236763 1.0073841164372728 
4.000246986923676 1.0129623477297893 
5.000246986923676 1.0175179296524812 
6.000246986923676 1.0269712070874863 
7.000246986923676 1.042575014501925 
8.000246986923676 1.0423937404419132 
9.000246986923676 1.0463786057058482 
10.000246986923676 1.0453381585192214 
11.000246986923676 1.0354572061382692 
12.000246986923676 1.0385776248483896 
13.000246986923676 1.0321870220956606 
14.000246986923676 1.0333483626008535 
15.000246986923676 1.0350723777883235 
16.000246986923678 1.0355829773769967 
17.000246986923678 1.038140721404842 
18.000246986923678 1.0354445499129874 
19.000246986923678 1.0391242155777045 
20.000246986923678 1.0385760428202282 
21.000246986923678 1.0381504772451622 
22.000246986923678 1.0328269524864202 
23.000246986923678 1.0329879238517108 
24.000246986923678 1.0250929441544054 
25.000246986923678 1.0170272372514897 
26.000246986923678 1.0088996994146497 
27.000246986923678 1.0010121025154242 
28.000246986923678 0.9930105995886732 
29.000246986923678 0.9878003216790585 
30.000246986923678 0.9776029636660862 
31.000246986923678 0.9728782365659449 
32.00024698692368 0.9636025417919103 
33.00024698692368 0.9602879291251383 
34.00024698692368 0.9549754785635185 
35.00024698692368 0.9500784422296051 
36.00024698692368 0.9449666455729578 
37.00024698692368 0.9396469440489373 
38.00024698692368 0.9351775826609714 
39.00024698692368 0.9311987818383167 
40.00024698692368 0.9249687549438379 
41.00024698692368 0.9205580604334758 
42.00024698692368 0.9133134261456517 
43.00024698692368 0.9096713336497388 
44.00024698692368 0.9016451774508257 
45.00024698692368 0.8951572799662503 
46.00024698692368 0.8868372620365973 
47.00024698692368 0.8790378632072983 
48.00024698692368 0.8717195327743503 
49.00024698692368 0.8617360122343507 
50.00024698692368 0.858192664662764 
51.00024698692368 0.847694721299373 
52.00024698692368 0.8414495333016931 
53.00024698692368 0.834093234192902 
54.00024698692368 0.8247898539260664 
55.00024698692368 0.8173181985972681 
56.00024698692368 0.8076286716236882 
57.00024698692368 0.799120787850024 
58.00024698692368 0.7883194905869316 
59.00024698692368 0.7795645467489308 
60.00024698692368 0.7697753520012653 
61.00024698692368 0.7609029425723777 
62.00024698692368 0.75219638242894 
63.00024698692368 0.7439960712967364 
64.00024698692368 0.7374604492959986 
65.00024698692368 0.7300939988398463 
66.00024698692368 0.7230224647998723 
67.00024698692368 0.7164882929916178 
68.00024698692368 0.7095347518852512 
69.00024698692368 0.7036260085429524 
70.00024698692368 0.6961219216368727 
71.00024698692368 0.6902435005009788 
72.00024698692368 0.6823704055265509 
73.00024698692368 0.6753873332278665 
74.00024698692368 0.6691475504930657 
75.00024698692368 0.6654111954859478 
76.00024698692368 0.6578182513315377 
77.00024698692368 0.654440357538365 
78.00024698692368 0.6496174128566155 
79.00024698692368 0.6442103042767475 
80.00024698692368 0.6390555291884163 
81.00024698692368 0.6350547118072035 
82.00024698692368 0.6335391288298261 
83.00024698692368 0.6319219005431663 
84.00024698692368 0.6288093919738413 
85.00024698692368 0.6291802457417055 
86.00024698692368 0.6299854980751955 
87.00024698692368 0.6267165005537106 
88.00024698692368 0.6249418604651186 
89.00024698692368 0.6248824025734327 
90.00024698692368 0.6245036386647708 
91.00024698692368 0.6237708959552837 
92.00024698692368 0.6199510889627199 
93.00024698692368 0.6201829879238508 
94.00024698692368 0.6199239308126349 
95.00024698692368 0.6222861625270234 
96.00024698692368 0.6224061329958337 
97.00024698692368 0.625564388546117 
98.00024698692368 0.623020091757635 
99.00024698692368 0.626105574012549 
100.00024698692368 0.6292379897695507 
101.00024698692368 0.6280852185835557 
102.00024698692368 0.6321937457153399 
103.00024698692368 0.6325606444128048 
104.00024698692368 0.6367505141591524 
105.00024698692368 0.6344719981015656 
106.00024698692368 0.6397852396772662 
107.00024698692368 0.6371922955228616 
108.00024698692368 0.6432482993197283 
109.00024698692368 0.6443395032431578 
110.00024698692368 0.6447082476401413 
111.00024698692368 0.6500560301640036 
112.00024698692368 0.6490568475452199 
113.00024698692368 0.6540536834888996 
114.00024698692368 0.6550407372251229 
115.00024698692368 0.6587727416548017 
116.00024698692368 0.6615621209724204 
117.00024698692368 0.6644544639561248 
118.00024698692368 0.6681844908506038 
119.00024698692368 0.6713244212413653 
120.00024698692368 0.6757153403997258 
121.00024698692368 0.6781715709539633 
122.00024698692368 0.680065126825924 
123.00024698692368 0.6827272847123349 
124.00024698692368 0.6854777725043506 
125.00024698692368 0.686823155618837 
126.00024698692368 0.6881293835363604 
127.00024698692368 0.6917348257132312 
128.00024698692368 0.6910342509096665 
129.00024698692368 0.6903560881717036 
130.00024698692368 0.6864246163581719 
131.00024698692368 0.6831548278226011 
132.00024698692368 0.6806056531139592 
133.00024698692368 0.6771029109318145 
134.00024698692368 0.672820492538101 
135.00024698692368 0.668693244739756 
136.00024698692368 0.6653411907398624 
137.00024698692368 0.6612181616832773 
138.00024698692368 0.6577262300268937 
139.00024698692368 0.6536718873595944 
140.00024698692368 0.6492306069714715 
141.00024698692368 0.6455794178136363 
142.00024698692368 0.6408669514317351 
143.00024698692368 0.6380322206401932 
144.00024698692368 0.6325722459526448 
145.00024698692368 0.6292110952908311 
146.00024698692368 0.6256520592733223 
147.00024698692368 0.6199587354321575 
148.00024698692368 0.6161743922375167 
149.00024698692368 0.6128671623688243 
150.00024698692368 0.6082575278173282 
151.00024698692368 0.6050507567368048 
152.00024698692368 0.6011826978853566 
153.00024698692368 0.5961770289511164 
154.00024698692368 0.5919122765385215 
155.00024698692368 0.587151162790698 
156.00024698692368 0.5832490903338088 
157.00024698692368 0.5792795180087531 
158.00024698692368 0.5764904023624948 
159.00024698692368 0.5729313663449869 
160.00024698692368 0.5703514739229021 
161.00024698692368 0.5804293888097878 
162.00024698692368 0.5919042345620417 
163.00024698692368 0.6094315245478036 
164.00024698692368 0.7321196540631764 
165.00024698692368 0.8243450403417152 
166.00024698692368 0.909725649949903 
167.00024698692368 1.30865646258503 
168.00024698692368 1.4515082001792938 
169.00024698692368 1.234103912882982 
170.00024698692368 1.682472578178554 
171.00024698692368 1.4223346780572677 
172.00024698692368 1.1560131572008636 
173.00024698692368 1.5428574065285048 
174.00024698692368 1.2091507145493878 
175.00024698692368 1.3479598428518706 
176.00024698692368 1.2682374887939627 
177.00024698692368 1.1098247903812688 
178.00024698692368 1.1962975267626486 
179.00024698692368 1.124123424563626 
180.00024698692368 0.880154379581286 
181.00024698692368 1.1363584348468072 
182.00024698692368 1.096830011074196 
183.00024698692368 0.9753523967726601 
184.00024698692368 0.925286347096981 
185.00024698692368 1.1693861730738788 
186.00024698692368 0.9208077572114088 
187.00024698692368 1.0546386384010946 
188.00024698692368 0.9794689658809247 
189.00024698692368 0.7913325950535234 
190.00024698692368 0.9819805674207694 
191.00024698692368 0.6541629752676266 
192.00024698692368 0.8476632125718517 
193.00024698692368 0.6765644940146599 
194.00024698692368 0.8281321520856401 
195.00024698692368 0.5987789379317616 
196.00024698692368 0.7775823973000034 
197.00024698692368 0.6487921214997631 
198.00024698692368 0.7079415176923495 
199.00024698692368 0.785971233454621 
200.00024698692368 0.7291309391973855 
201.00024698692368 0.762933475715868 
202.00024698692368 0.671049675684228 
203.00024698692368 0.6902569477403362 
204.00024698692368 0.5885682645151081 
205.00024698692368 0.45792332436850675 
206.00024698692368 0.5381444128038808 
207.00024698692368 0.3636724147023149 
208.00024698692368 0.41742735854031526 
209.00024698692368 0.2099467383852768 
210.00024698692368 0.32718082581870034 
211.00024698692368 0.3083714338448565 
212.00024698692368 0.1910635184306283 
213.00024698692368 0.22873134525127775 
214.00024698692368 0.2166312028687431 
215.00024698692368 0.2103924748193852 
216.00024698692368 0.14311659547539954 
217.00024698692368 0.19834612139429464 
218.00024698692368 0.12697081158044643 
219.00024698692368 0.18194826767916364 
220.00024698692368 0.16426172019195212 
221.00024698692368 0.1516959341876286 
222.00024698692368 0.15045536043874916 
223.00024698692368 0.14391301481833232 
224.00024698692368 0.07419000158202818 
225.00024698692368 0.1249785107841586 
226.00024698692368 0.12110702420503013 
227.00024698692368 0.05279887148657884 
228.00024698692368 0.09703949796973027 
229.00024698692368 0.09206362389917087 
230.00024698692368 0.029624400147655966 
231.00024698692368 0.029431788219163767 
232.00024698692368 0.02023229446817493 
233.00024698692368 0.019397379106681538 
234.00024698692368 0.013442097769340336 
235.00024698692368 0.01442888783420357 
236.00024698692368 0.013821257185044449 
237.00024698692368 0.009084401202341429 
238.00024698692368 0.009769946738385354 
239.00024698692368 0.007766835416337033 
240.00024698692368 0.006701471286188868 
241.00024698692368 0.005975715867742532 
242.00024698692368 0.006515978484416999 
243.00024698692368 0.0035776248483890293 
244.00024698692368 0.00539379317618527 
245.00024698692368 0.004181300427147539 
246.00024698692368 0.0037991087908031585 
247.00024698692368 0.00336563307493548 
248.00024698692368 0.002510415018720655 
249.00024698692368 0.001946949322364603 
250.00024698692368 0.002892870326425144 
251.00024698692368 0.00202196382428944 
252.00024698692368 7.890365448505058E-4 
253.00024698692368 0.0017837367505141792 
254.00024698692368 0.001718741760270037 
255.00024698692368 4.8792385171122723E-4 
256.0002469869237 4.8568264515108184E-4 
257.0002469869237 4.158097347466118E-4 
258.0002469869237 3.7283130306386454E-4 
259.0002469869237 3.4896904498234594E-4 
260.0002469869237 3.13900754100095E-4 
261.0002469869237 2.802826556979401E-4 
262.0002469869237 2.4851025681590054E-4 
263.0002469869237 2.189790644940145E-4 
264.0002469869237 1.8812951537204624E-4 
265.0002469869237 1.7099087697094442E-4 
266.0002469869237 1.5002900384960058E-4 
267.0002469869237 1.2498022464800464E-4 
268.0002469869237 1.0283183040658463E-4 
269.0002469869237 8.266097136529187E-5 
270.0002469869237 6.974107472446625E-5 
271.0002469869237 5.141591520329238E-5 
272.0002469869237 4.020988240257405E-5 
273.0002469869237 3.0849549121974104E-5 
274.0002469869237 2.1752887201392536E-5 
275.0002469869237 1.5292938880978966E-5 
276.0002469869237 1.028318304065819E-5 
277.0002469869237 9.49216896060778E-6 
278.0002469869237 5.800769920371532E-6 
279.0002469869237 3.1640563202024352E-6 
280.0002469869237 2.109370880135126E-6 
281.0002469869237 5.273427200337816E-7 
282.0002469869237 5.273427200337816E-7 
283.0002469869237 1.262177448353619E-31 
284.0002469869237 1.262177448353619E-31 
285.0002469869237 1.262177448353619E-31 
286.0002469869237 1.262177448353619E-31 
287.0002469869237 1.262177448353619E-31 
288.0002469869237 1.262177448353619E-31 
289.0002469869237 1.262177448353619E-31 
290.0002469869237 1.262177448353619E-31 
291.0002469869237 1.262177448353619E-31 
292.0002469869237 1.262177448353619E-31 
293.0002469869237 1.262177448353619E-31 
294.0002469869237 1.262177448353619E-31 
295.0002469869237 1.262177448353619E-31 
296.0002469869237 1.262177448353619E-31 
297.0002469869237 1.262177448353619E-31 
298.0002469869237 1.262177448353619E-31 
299.0002469869237 1.262177448353619E-31 
300.0002469869237 1.262177448353619E-31 
301.0002469869237 1.262177448353619E-31 
302.0002469869237 1.262177448353619E-31 
303.0002469869237 1.262177448353619E-31 
304.0002469869237 1.262177448353619E-31 
305.0002469869237 1.262177448353619E-31 
306.0002469869237 1.262177448353619E-31 
307.0002469869237 1.262177448353619E-31 
308.0002469869237 1.262177448353619E-31 
309.0002469869237 1.262177448353619E-31 
310.0002469869237 1.262177448353619E-31 
311.0002469869237 1.262177448353619E-31 
312.0002469869237 1.262177448353619E-31 
313.0002469869237 1.262177448353619E-31 
314.0002469869237 1.262177448353619E-31 
315.0002469869237 1.262177448353619E-31 
316.0002469869237 1.262177448353619E-31 
317.0002469869237 1.262177448353619E-31 
318.0002469869237 1.262177448353619E-31 
319.0002469869237 1.262177448353619E-31 
320.0002469869237 1.262177448353619E-31 
321.0002469869237 1.262177448353619E-31 
322.0002469869237 1.262177448353619E-31 
323.0002469869237 1.262177448353619E-31 
324.0002469869237 1.262177448353619E-31 
325.0002469869237 1.262177448353619E-31 
326.0002469869237 1.262177448353619E-31 
327.0002469869237 1.262177448353619E-31 
328.0002469869237 1.262177448353619E-31 
329.0002469869237 1.262177448353619E-31 
330.0002469869237 1.262177448353619E-31 
331.0002469869237 1.262177448353619E-31 
332.0002469869237 1.262177448353619E-31 
333.0002469869237 1.262177448353619E-31 
334.0002469869237 1.262177448353619E-31 
335.0002469869237 1.262177448353619E-31 
336.0002469869237 1.262177448353619E-31 
337.0002469869237 1.262177448353619E-31 
338.0002469869237 1.262177448353619E-31 
339.0002469869237 1.262177448353619E-31 
340.0002469869237 1.262177448353619E-31 
341.0002469869237 1.262177448353619E-31 
342.0002469869237 1.262177448353619E-31 
343.0002469869237 1.262177448353619E-31 
344.0002469869237 1.262177448353619E-31 
345.0002469869237 1.262177448353619E-31 
346.0002469869237 1.262177448353619E-31 
347.0002469869237 1.262177448353619E-31 
348.0002469869237 1.262177448353619E-31 
349.0002469869237 1.262177448353619E-31 
350.0002469869237 1.262177448353619E-31 
351.0002469869237 1.262177448353619E-31 
352.0002469869237 1.262177448353619E-31 
353.0002469869237 1.262177448353619E-31 
354.0002469869237 1.262177448353619E-31 
355.0002469869237 1.262177448353619E-31 
356.0002469869237 1.262177448353619E-31 
357.0002469869237 1.262177448353619E-31 
358.0002469869237 1.262177448353619E-31 
359.0002469869237 1.262177448353619E-31 
360.0002469869237 1.262177448353619E-31 
361.0002469869237 1.262177448353619E-31 
362.0002469869237 1.262177448353619E-31 
363.0002469869237 1.262177448353619E-31 
364.0002469869237 1.262177448353619E-31 
365.0002469869237 1.262177448353619E-31 
366.0002469869237 1.262177448353619E-31 
367.0002469869237 1.262177448353619E-31 
368.0002469869237 1.262177448353619E-31 
369.0002469869237 1.262177448353619E-31 
370.0002469869237 1.262177448353619E-31 
371.0002469869237 1.262177448353619E-31 
372.0002469869237 1.262177448353619E-31 
373.0002469869237 1.262177448353619E-31 
374.0002469869237 1.262177448353619E-31 
375.0002469869237 1.262177448353619E-31 
376.0002469869237 1.262177448353619E-31 
377.0002469869237 1.262177448353619E-31 
378.0002469869237 1.262177448353619E-31 
379.0002469869237 1.262177448353619E-31 
380.0002469869237 1.262177448353619E-31 
381.0002469869237 1.262177448353619E-31 
382.0002469869237 1.262177448353619E-31 
#####################################################################
# End of data export. Simulation finished at: 2017-05-25T08:53+0000 #
#####################################################################
