#####################################################################
# Alchemist log file - simulation started at: 2017-05-24T01:55+0000 #
#####################################################################
# random = 13.0, targets = 31.622776601683793, density = 0.894427190999916, gridShift = 1.0, perturbation = 0.5, connfactor = 0.25
#
# The columns have the following meaning: 
# time se[Mean] 
0.0 NaN 
1.0093475742791087 NaN 
2.0093475742791087 1.0 
3.0093475742791087 0.9994812870566386 
4.009347574279109 0.9969543890064982 
5.009347574279109 0.9852573246425195 
6.009347574279109 0.9770912508820705 
7.009347574279109 0.9489933260538322 
8.009347574279108 0.9451269558402744 
9.009347574279108 0.9275386694892922 
10.009347574279108 0.9256304843825133 
11.009347574279108 0.9219141141689554 
12.009347574279108 0.9134626607984784 
13.009347574279108 0.9021989297678329 
14.009347574279108 0.8908018654038541 
15.009347574279108 0.8810276065366263 
16.009347574279108 0.8717220606127597 
17.009347574279108 0.8657641719590896 
18.009347574279108 0.857731431531974 
19.009347574279108 0.8520922558216653 
20.009347574279108 0.8411472377343812 
21.009347574279108 0.8433574691178548 
22.009347574279108 0.8402618581243531 
23.009347574279108 0.8356267749674338 
24.009347574279108 0.8211800070565638 
25.009347574279108 0.8110768038625009 
26.009347574279108 0.807475054038915 
27.009347574279108 0.7895391104177363 
28.009347574279108 0.7855353143174557 
29.009347574279108 0.7893516845310136 
30.009347574279108 0.7885016845310135 
31.009347574279108 0.7964633692849642 
32.009347574279104 0.7593417784957157 
33.009347574279104 0.7538338898420457 
34.009347574279104 0.743499399591344 
35.009347574279104 0.7341730944474214 
36.009347574279104 0.6987076424882571 
37.009347574279104 0.7076128919590149 
38.009347574279104 0.7091053575485877 
39.009347574279104 0.7740315107147369 
40.009347574279104 0.7854502814482324 
41.009347574279104 0.7972197895632809 
42.009347574279104 0.780731293444391 
43.009347574279104 0.7507345544285882 
44.009347574279104 0.6930602955613602 
45.009347574279104 0.5770742652549804 
46.009347574279104 0.7801906568611671 
47.009347574279104 0.7431529056262683 
48.009347574279104 0.6700914595352923 
49.009347574279104 0.6181964414480083 
50.009347574279104 0.7176930862761719 
51.009347574279104 0.5247602955613603 
52.009347574279104 0.5421226310116628 
53.009347574279104 0.4545759572884322 
54.009347574279104 0.4555422408167888 
55.009347574279104 0.4409483218567389 
56.009347574279104 0.4578667094519243 
57.009347574279104 0.4642678663692926 
58.009347574279104 0.4675444679663241 
59.009347574279104 0.4675444679663241 
60.009347574279104 0.4675444679663241 
61.009347574279104 0.4675444679663241 
62.009347574279104 0.4675444679663241 
63.009347574279104 0.4675444679663241 
64.0093475742791 0.4675444679663241 
65.0093475742791 0.4675444679663241 
66.0093475742791 0.4675444679663241 
67.0093475742791 0.4675444679663241 
68.0093475742791 0.4675444679663241 
69.0093475742791 0.4675444679663241 
70.0093475742791 0.4675444679663241 
71.0093475742791 0.4675444679663241 
72.0093475742791 0.4675444679663241 
73.0093475742791 0.4675444679663241 
74.0093475742791 0.4675444679663241 
75.0093475742791 0.4675444679663241 
76.0093475742791 0.4675444679663241 
#####################################################################
# End of data export. Simulation finished at: 2017-05-24T01:55+0000 #
#####################################################################
