#####################################################################
# Alchemist log file - simulation started at: 2017-05-25T12:51+0000 #
#####################################################################
# random = 8.0, targets = 10.0, density = 0.2247883923996312, gridShift = 1.0, perturbation = 0.5, connfactor = 0.5
#
# The columns have the following meaning: 
# time se[Mean] 
0.0 NaN 
1.0490773234798803 NaN 
2.0490773234798803 1.0 
3.0490773234798803 1.0 
4.04907732347988 0.9954761904761905 
5.04907732347988 0.9882010582010582 
6.04907732347988 0.981904761904762 
7.04907732347988 0.941984126984127 
8.04907732347988 0.9228306878306879 
9.04907732347988 0.9256613756613756 
10.04907732347988 0.8448478835978837 
11.04907732347988 0.8396362433862434 
12.04907732347988 0.831792328042328 
13.04907732347988 0.6610185185185186 
14.04907732347988 0.6806349206349206 
15.04907732347988 0.5567195767195767 
16.049077323479878 0.6024603174603175 
17.049077323479878 0.6284589947089947 
18.049077323479878 0.6339351851851852 
19.049077323479878 0.7207142857142858 
20.049077323479878 0.7737698412698413 
21.049077323479878 0.8226785714285714 
22.049077323479878 0.8662632275132275 
23.049077323479878 0.8449603174603174 
24.049077323479878 0.8223015873015873 
25.049077323479878 0.8421097883597883 
26.049077323479878 0.7660449735449736 
27.049077323479878 0.695462962962963 
28.049077323479878 0.7023280423280424 
29.049077323479878 0.6164484126984127 
30.049077323479878 0.5509656084656085 
31.049077323479878 0.5224537037037037 
32.04907732347988 0.546792328042328 
33.04907732347988 0.5185119047619048 
34.04907732347988 0.47097222222222224 
35.04907732347988 0.5616798941798942 
36.04907732347988 0.5235449735449735 
37.04907732347988 0.5659656084656085 
38.04907732347988 0.5533730158730159 
39.04907732347988 0.6255621693121693 
40.04907732347988 0.6255621693121693 
41.04907732347988 0.64 
42.04907732347988 0.64 
43.04907732347988 0.64 
44.04907732347988 0.64 
45.04907732347988 0.64 
46.04907732347988 0.64 
47.04907732347988 0.64 
48.04907732347988 0.64 
#####################################################################
# End of data export. Simulation finished at: 2017-05-25T12:51+0000 #
#####################################################################
