#####################################################################
# Alchemist log file - simulation started at: 2017-05-23T10:16+0000 #
#####################################################################
# random = 5.0, targets = 10.0, density = 0.05649405772326896, gridShift = 1.0, perturbation = 0.0, connfactor = 2.0
#
# The columns have the following meaning: 
# time se[Mean] 
0.0 NaN 
1.1058771900388789 NaN 
2.105877190038879 1.131875 
3.105877190038879 1.5912847222222224 
4.105877190038878 2.1288715277777777 
5.105877190038878 2.957638888888889 
6.105877190038878 2.5495659722222226 
7.105877190038878 2.5406423611111117 
8.105877190038878 1.121788194444445 
9.105877190038878 0.9710590277777783 
10.105877190038878 0.8452604166666672 
11.105877190038878 0.6121527777777782 
12.105877190038878 0.1898958333333335 
13.105877190038878 0.03673611111111119 
14.105877190038878 0.009184027777777798 
15.105877190038878 1.262177448353619E-31 
16.10587719003888 1.262177448353619E-31 
17.10587719003888 1.262177448353619E-31 
18.10587719003888 1.262177448353619E-31 
19.10587719003888 1.262177448353619E-31 
#####################################################################
# End of data export. Simulation finished at: 2017-05-23T10:17+0000 #
#####################################################################
