#####################################################################
# Alchemist log file - simulation started at: 2017-05-22T23:00+0000 #
#####################################################################
# random = 10.0, targets = 3.1622776601683795, density = 0.07978946395100113, gridShift = 1.0, perturbation = 0.0, connfactor = 1.5
#
# The columns have the following meaning: 
# time se[Mean] 
0.0 NaN 
1.0042217987811537 NaN 
2.0042217987811535 2.615613016156407 
3.0042217987811535 3.0578934695146027 
4.0042217987811535 3.1937705965960284 
5.0042217987811535 1.8884644256269407 
6.0042217987811535 1.1157456495202578 
7.0042217987811535 0.7064476979262034 
8.004221798781153 0.6583483486225553 
9.004221798781153 0.5602052055708143 
10.004221798781153 0.4735825252860208 
11.004221798781153 0.3204102185078483 
12.004221798781153 0.6147960465487587 
13.004221798781153 0.5631294761989823 
14.004221798781153 1.2478074230886613 
15.004221798781153 1.5586260300834434 
16.004221798781153 1.6544738971215476 
17.004221798781153 1.688757603961502 
18.004221798781153 2.0027926004332204 
19.004221798781153 1.3006147498604317 
20.004221798781153 0.31656570126839345 
21.004221798781153 0.18981154342243156 
22.004221798781153 0.004811832373101964 
23.004221798781153 0.0026480339206333765 
24.004221798781153 0.0026334038989724207 
25.004221798781153 0.0026334038989724207 
26.004221798781153 0.0026334038989724207 
27.004221798781153 0.0026334038989724207 
#####################################################################
# End of data export. Simulation finished at: 2017-05-22T23:00+0000 #
#####################################################################
