#####################################################################
# Alchemist log file - simulation started at: 2017-05-22T04:13+0000 #
#####################################################################
# random = 3.0, targets = 31.622776601683793, density = 7.099073319511142, gridShift = 0.0, perturbation = 0.0, connfactor = 0.75
#
# The columns have the following meaning: 
# time se[Mean] 
0.0 NaN 
1.0016359619213666 NaN 
2.001635961921367 1.0013009296572115 
3.001635961921367 1.0023625587281857 
4.001635961921367 1.0037549124661695 
5.001635961921367 1.0032018604754496 
6.001635961921367 1.001864884193504 
7.001635961921367 0.999527287909379 
8.001635961921366 0.9995604129078788 
9.001635961921366 0.9951102082848927 
10.001635961921366 0.9935851256704397 
11.001635961921366 0.9895830176855309 
12.001635961921366 0.9863812743738063 
13.001635961921366 0.9812495578270694 
14.001635961921366 0.9779560384894885 
15.001635961921366 0.9715443725415027 
16.001635961921366 0.9656120508682883 
17.001635961921366 0.9613615297273069 
18.001635961921366 0.9520793305408505 
19.001635961921366 0.9482884401940255 
20.001635961921366 0.9377567231614395 
21.001635961921366 0.9305699840334734 
22.001635961921366 0.9227715433054146 
23.001635961921366 0.9126462588532521 
24.001635961921366 0.9042660364506546 
25.001635961921366 0.8929155276456814 
26.001635961921366 0.88374942872013 
27.001635961921366 0.8744732069656699 
28.001635961921366 0.8708573003064078 
29.001635961921366 0.8570903313877154 
30.001635961921366 0.8509530272044658 
31.001635961921366 0.8361371238724603 
32.001635961921366 0.8282525023551405 
33.001635961921366 0.8078157404586197 
34.001635961921366 0.8028836877690716 
35.001635961921366 0.7843697569762884 
36.001635961921366 0.776656495502023 
37.001635961921366 0.7646357042691662 
38.001635961921366 0.7518822333091051 
39.001635961921366 0.7424216375412206 
40.001635961921366 0.7232090006586757 
41.001635961921366 0.7188019697415456 
42.001635961921366 0.7006207335629197 
43.001635961921366 0.6970585320390957 
44.001635961921366 0.6789314620882281 
45.001635961921366 0.6749832687233667 
46.001635961921366 0.6590790406949397 
47.001635961921366 0.649002772028824 
48.001635961921366 0.6429379960015438 
49.001635961921366 0.6301193953886137 
50.001635961921366 0.6243558776325295 
51.001635961921366 0.6082097486137367 
52.001635961921366 0.6038789058169917 
53.001635961921366 0.5938344117504977 
54.001635961921366 0.5934839717122283 
55.001635961921366 0.5794091235676126 
56.001635961921366 0.5732213694802131 
57.001635961921366 0.564636092835586 
58.001635961921366 0.5538717604139743 
59.001635961921366 0.5506720414241877 
60.001635961921366 0.537317753069577 
61.001635961921366 0.533372825580257 
62.001635961921366 0.5219735127789608 
63.001635961921366 0.5179644344469988 
64.00163596192137 0.5086796500940813 
65.00163596192137 0.501739176868896 
66.00163596192137 0.4963564383478138 
67.00163596192137 0.4905888125425532 
68.00163596192137 0.483788984150387 
69.00163596192137 0.4738032817560855 
70.00163596192137 0.468405077919485 
71.00163596192137 0.45783741951366547 
72.00163596192137 0.45215114291475417 
73.00163596192137 0.44310456650150254 
74.00163596192137 0.4335293896303934 
75.00163596192137 0.4258784527968834 
76.00163596192137 0.41503351247433173 
77.00163596192137 0.4069057691706962 
78.00163596192137 0.3977169814611845 
79.00163596192137 0.3933746412388637 
80.00163596192137 0.40726424328882305 
81.00163596192137 0.39463283024877227 
82.00163596192137 0.42479198404646057 
83.00163596192137 0.38714451402250283 
84.00163596192137 0.3902696078286291 
85.00163596192137 0.3888643666751591 
86.00163596192137 0.37817035481141315 
87.00163596192137 0.3610831568326102 
88.00163596192137 0.3729264744316792 
89.00163596192137 0.3554615218655 
90.00163596192137 0.3495438972962718 
91.00163596192137 0.34306701353278946 
92.00163596192137 0.32066308508749447 
93.00163596192137 0.3365594690051947 
94.00163596192137 0.324237655873122 
95.00163596192137 0.339751217212988 
96.00163596192137 0.32596419642575963 
97.00163596192137 0.35422604259968277 
98.00163596192137 0.3235521789562268 
99.00163596192137 0.3233358008884816 
100.00163596192137 0.3064738241038724 
101.00163596192137 0.2879492251737827 
102.00163596192137 0.27193035360040785 
103.00163596192137 0.27710803830493436 
104.00163596192137 0.26452450204024697 
105.00163596192137 0.26001083437555433 
106.00163596192137 0.2706095325835907 
107.00163596192137 0.2848912247222749 
108.00163596192137 0.29731525106013684 
109.00163596192137 0.34626469421042383 
110.00163596192137 0.28214505652073857 
111.00163596192137 0.3110979421699094 
112.00163596192137 0.33497173283746773 
113.00163596192137 0.3149785125501059 
114.00163596192137 0.33759019405404095 
115.00163596192137 0.30142996270456685 
116.00163596192137 0.28747285048595894 
117.00163596192137 0.2826312298511941 
118.00163596192137 0.25884631697967886 
119.00163596192137 0.22236195438331616 
120.00163596192137 0.26846941725604095 
121.00163596192137 0.23385699411242608 
122.00163596192137 0.22763917212094886 
123.00163596192137 0.21834343622345295 
124.00163596192137 0.1955292526171755 
125.00163596192137 0.23179691527838914 
126.00163596192137 0.2109358869075512 
127.00163596192137 0.174727123177058 
128.00163596192135 0.15796413897140296 
129.00163596192135 0.15397049861755205 
130.00163596192135 0.15003606546328574 
131.00163596192135 0.15741790054841726 
132.00163596192135 0.1355216772340222 
133.00163596192135 0.12149007903466184 
134.00163596192135 0.11905818281666168 
135.00163596192135 0.10171923691215427 
136.00163596192135 0.11522948110792436 
137.00163596192135 0.10523515227421029 
138.00163596192135 0.11363747112964867 
139.00163596192135 0.11126066323028862 
140.00163596192135 0.09467597539801216 
141.00163596192135 0.1090319273286818 
142.00163596192135 0.09369785496142448 
143.00163596192135 0.10964389246552426 
144.00163596192135 0.10874163917485924 
145.00163596192135 0.0924329821587299 
146.00163596192135 0.0990420476949631 
147.00163596192135 0.09259782952591308 
148.00163596192135 0.0990541622059347 
149.00163596192135 0.0990541622059347 
150.00163596192135 0.09259782952591308 
151.00163596192135 0.09259782952591308 
152.00163596192135 0.09259782952591308 
153.00163596192135 0.09259782952591308 
154.00163596192135 0.09259782952591308 
155.00163596192135 0.09259782952591308 
156.00163596192135 0.09259782952591308 
157.00163596192135 0.09259782952591308 
158.00163596192135 0.09259782952591308 
159.00163596192135 0.09259782952591308 
160.00163596192135 0.09259782952591308 
161.00163596192135 0.09259782952591308 
162.00163596192135 0.09259782952591308 
163.00163596192135 0.09259782952591308 
164.00163596192135 0.09259782952591308 
165.00163596192135 0.09259782952591308 
166.00163596192135 0.09259782952591308 
167.00163596192135 0.09259782952591308 
168.00163596192135 0.09259782952591308 
169.00163596192135 0.09259782952591308 
170.00163596192135 0.09259782952591308 
171.00163596192135 0.09259782952591308 
172.00163596192135 0.09259782952591308 
173.00163596192135 0.09259782952591308 
174.00163596192135 0.09259782952591308 
175.00163596192135 0.09259782952591308 
176.00163596192135 0.09259782952591308 
177.00163596192135 0.09259782952591308 
178.00163596192135 0.09259782952591308 
179.00163596192135 0.09259782952591308 
180.00163596192135 0.09259782952591308 
181.00163596192135 0.09259782952591308 
182.00163596192135 0.09259782952591308 
183.00163596192135 0.09259782952591308 
184.00163596192135 0.09259782952591308 
185.00163596192135 0.09259782952591308 
186.00163596192135 0.09259782952591308 
187.00163596192135 0.09259782952591308 
188.00163596192135 0.09259782952591308 
189.00163596192135 0.09259782952591308 
190.00163596192135 0.09259782952591308 
191.00163596192135 0.09259782952591308 
192.00163596192135 0.09259782952591308 
193.00163596192135 0.09259782952591308 
194.00163596192135 0.09259782952591308 
195.00163596192135 0.09259782952591308 
196.00163596192135 0.09259782952591308 
197.00163596192135 0.09259782952591308 
198.00163596192135 0.09259782952591308 
199.00163596192135 0.09259782952591308 
200.00163596192135 0.09259782952591308 
201.00163596192135 0.09259782952591308 
202.00163596192135 0.09259782952591308 
203.00163596192135 0.09259782952591308 
204.00163596192135 0.09259782952591308 
205.00163596192135 0.09259782952591308 
206.00163596192135 0.09259782952591308 
207.00163596192135 0.09259782952591308 
208.00163596192135 0.09259782952591308 
209.00163596192135 0.09259782952591308 
210.00163596192135 0.09259782952591308 
211.00163596192135 0.09259782952591308 
#####################################################################
# End of data export. Simulation finished at: 2017-05-22T04:20+0000 #
#####################################################################
