#####################################################################
# Alchemist log file - simulation started at: 2017-05-25T17:10+0000 #
#####################################################################
# random = 18.0, targets = 31.622776601683793, density = 10.026386447354522, gridShift = 1.0, perturbation = 0.5, connfactor = 0.25
#
# The columns have the following meaning: 
# time se[Mean] 
0.0 NaN 
1.0000499264234746 NaN 
2.0000499264234746 1.0 
3.0000499264234746 0.999772366624135 
4.000049926423475 0.9990857798605955 
5.000049926423475 0.9981770896751081 
6.000049926423475 0.9956139100491619 
7.000049926423475 0.9935762695742115 
8.000049926423475 0.9937410038227 
9.000049926423475 0.9929544252560206 
10.000049926423475 0.9920994176080479 
11.000049926423475 0.9902783506011282 
12.000049926423475 0.988348075201207 
13.000049926423475 0.9860680548066127 
14.000049926423475 0.9818077631105275 
15.000049926423475 0.9823038091739655 
16.000049926423475 0.9803845936818785 
17.000049926423475 0.9808251138898295 
18.000049926423475 0.9799959126934696 
19.000049926423475 0.9804954190765359 
20.000049926423475 0.9812743980550095 
21.000049926423475 0.9815444277442386 
22.000049926423475 0.9829026284112223 
23.000049926423475 0.9863357885452366 
24.000049926423475 0.9853379401481269 
25.000049926423475 0.988378958974104 
26.000049926423475 0.9859150922023483 
27.000049926423475 0.9851377302255309 
28.000049926423475 0.9846080518059576 
29.000049926423475 0.9822314999278515 
30.000049926423475 0.983058857806239 
31.000049926423475 0.9809175388922039 
32.00004992642347 0.9796322747385764 
33.00004992642347 0.9729405243792805 
34.00004992642347 0.96907795312631 
35.00004992642347 0.9613664009919864 
36.00004992642347 0.9544949656141398 
37.00004992642347 0.9479675952330211 
38.00004992642347 0.9384129300478508 
39.00004992642347 0.9333906394885618 
40.00004992642347 0.9267985127689222 
41.00004992642347 0.9176845670168914 
42.00004992642347 0.9161775971964741 
43.00004992642347 0.9065252147639544 
44.00004992642347 0.9045205793778974 
45.00004992642347 0.9003726431084322 
46.00004992642347 0.8975706529421986 
47.00004992642347 0.8931136116431463 
48.00004992642347 0.8913008666582289 
49.00004992642347 0.8839254609500997 
50.00004992642347 0.8797846798330684 
51.00004992642347 0.8752165868230393 
52.00004992642347 0.8683940485526231 
53.00004992642347 0.8696115757718599 
54.00004992642347 0.8692689531421791 
55.00004992642347 0.8702016114623986 
56.00004992642347 0.8665869172955483 
57.00004992642347 0.8633207955574893 
58.00004992642347 0.864514419521652 
59.00004992642347 0.8594685339922076 
60.00004992642347 0.8600626736633389 
61.00004992642347 0.8572720730846708 
62.00004992642347 0.8519388915558436 
63.00004992642347 0.8470222941924539 
64.00004992642347 0.8412955724733909 
65.00004992642347 0.8364084845912787 
66.00004992642347 0.8312883588328329 
67.00004992642347 0.823642596256291 
68.00004992642347 0.8182869784300179 
69.00004992642347 0.8116339541418613 
70.00004992642347 0.8031399381188551 
71.00004992642347 0.7958059824745256 
72.00004992642347 0.7876850801000292 
73.00004992642347 0.7775574374172021 
74.00004992642347 0.7687450210019119 
75.00004992642347 0.758467047041469 
76.00004992642347 0.7488320064961713 
77.00004992642347 0.7388961779421959 
78.00004992642347 0.7266926869207925 
79.00004992642347 0.7195747184615512 
80.00004992642347 0.7074509427455907 
81.00004992642347 0.6971452181526953 
82.00004992642347 0.6884098693224793 
83.00004992642347 0.67590076387801 
84.00004992642347 0.6681320442959623 
85.00004992642347 0.659444051843806 
86.00004992642347 0.647659413847318 
87.00004992642347 0.6383115627422213 
88.00004992642347 0.6285587925567301 
89.00004992642347 0.6210979915452123 
90.00004992642347 0.6095026536075155 
91.00004992642347 0.6012706150528987 
92.00004992642347 0.5943841002557758 
93.00004992642347 0.584916379300223 
94.00004992642347 0.5763091253705867 
95.00004992642347 0.5678362155334761 
96.00004992642347 0.5610054806945048 
97.00004992642347 0.5855205005155548 
98.00004992642347 0.6679619839274729 
99.00004992642347 0.7520671936544223 
100.00004992642347 0.8038890749313801 
101.00004992642347 0.9134305190297826 
102.00004992642347 0.8456430174136793 
103.00004992642347 0.987262325302689 
104.00004992642347 0.8011673048110707 
105.00004992642347 1.036231411803577 
106.00004992642347 1.0014700056148462 
107.00004992642347 1.0853888089091879 
108.00004992642347 1.0777543656245685 
109.00004992642347 1.0143017736843383 
110.00004992642347 0.9158310697669161 
111.00004992642347 0.9158728031101666 
112.00004992642347 1.056966333163679 
113.00004992642347 1.0560647859082306 
114.00004992642347 1.1975748034356455 
115.00004992642347 1.1343203158005077 
116.00004992642347 1.1289845300361598 
117.00004992642347 0.9984518019697292 
118.00004992642347 1.1432315577100511 
119.00004992642347 1.0494941928671153 
120.00004992642347 0.9899584548934853 
121.00004992642347 1.1929619548182286 
122.00004992642347 1.307017291461969 
123.00004992642347 1.0922304073800013 
124.00004992642347 1.142852324225286 
125.00004992642347 1.0159444845621333 
126.00004992642347 1.2851696198580322 
127.00004992642347 1.2108265245913512 
128.00004992642346 1.2952933187522846 
129.00004992642346 1.3817967289264463 
130.00004992642346 1.0490770116093082 
131.00004992642346 1.4587855291225673 
132.00004992642346 1.2704341269717012 
133.00004992642346 1.1478950500951017 
134.00004992642346 1.3552032900252184 
135.00004992642346 1.2041406741660396 
136.00004992642346 1.3235771294378351 
137.00004992642346 1.0749594516138887 
138.00004992642346 1.2787033304488407 
139.00004992642346 1.0438650742338123 
140.00004992642346 0.8630578264041185 
141.00004992642346 1.2483511280669048 
142.00004992642346 0.9516794000913761 
143.00004992642346 0.9216589533994918 
144.00004992642346 0.8574377466310662 
145.00004992642346 0.6177910408436654 
146.00004992642346 0.6267007474398123 
147.00004992642346 0.4388001425316877 
148.00004992642346 0.5880412763940461 
149.00004992642346 0.4489426881938579 
150.00004992642346 0.41628230868705746 
151.00004992642346 0.44144746306107807 
152.00004992642346 0.3208049596278526 
153.00004992642346 0.37812876882647556 
154.00004992642346 0.313311308292223 
155.00004992642346 0.31303419485629724 
156.00004992642346 0.31560496045761544 
157.00004992642346 0.3095451673795561 
158.00004992642346 0.311007611093413 
159.00004992642346 0.31128311155321353 
160.00004992642346 0.3073704856302091 
161.00004992642346 0.3073370204070446 
162.00004992642346 0.30776912134077467 
163.00004992642346 0.3061925334794605 
164.00004992642346 0.3053091019463989 
165.00004992642346 0.30846946463333913 
166.00004992642346 0.3053181777991949 
167.00004992642346 0.3031308510980356 
168.00004992642346 0.3039106897712634 
169.00004992642346 0.3042489518171422 
170.00004992642346 0.3040985674673773 
171.00004992642346 0.3050816893250776 
172.00004992642346 0.30531850330759586 
173.00004992642346 0.30609559978912093 
174.00004992642346 0.30389468771743805 
175.00004992642346 0.3057399345870113 
176.00004992642346 0.30489427467866276 
177.00004992642346 0.3053841086434666 
178.00004992642346 0.3057657674345293 
179.00004992642346 0.3066660479330991 
180.00004992642346 0.3066955706123295 
181.00004992642346 0.30512959641775206 
182.00004992642346 0.30521138135748477 
183.00004992642346 0.30372143583240657 
184.00004992642346 0.30421576653186705 
185.00004992642346 0.30421576653186705 
186.00004992642346 0.30525995378627474 
187.00004992642346 0.3037626349893071 
188.00004992642346 0.30462093901970516 
189.00004992642346 0.3051263296269996 
190.00004992642346 0.3031236202227376 
191.00004992642346 0.3019792148488735 
192.00004992642346 0.3039819242531356 
193.00004992642346 0.30340972156620355 
194.00004992642346 0.3045541269400676 
195.00004992642346 0.3019792148488735 
196.00004992642346 0.30255141753580556 
197.00004992642346 0.30169311350540756 
198.00004992642346 0.3008348094750095 
199.00004992642346 0.3039819242531356 
200.00004992642346 0.2999765054446116 
201.00004992642346 0.30169311350540756 
202.00004992642346 0.3028375188792716 
203.00004992642346 0.30083480947500946 
204.00004992642346 0.30226531619233954 
205.00004992642346 0.3011209108184756 
206.00004992642346 0.30340972156620355 
207.00004992642346 0.30140701216194143 
208.00004992642346 0.3036958229096695 
209.00004992642346 0.30541243097046555 
210.00004992642346 0.3016931135054078 
211.00004992642346 0.30455412694006767 
212.00004992642346 0.30484022828353363 
213.00004992642346 0.30541243097046555 
214.00004992642346 0.30770124171819374 
215.00004992642346 0.30770124171819374 
216.00004992642346 0.30941784977898973 
217.00004992642346 0.30798734306165965 
218.00004992642346 0.30941784977898973 
219.00004992642346 0.3097039511224557 
220.00004992642346 0.30941784977898973 
221.00004992642346 0.31056225515285374 
222.00004992642346 0.3099900524659217 
223.00004992642346 0.31056225515285374 
224.00004992642346 0.31056225515285374 
225.00004992642346 0.31056225515285374 
226.00004992642346 0.31056225515285374 
227.00004992642346 0.31056225515285374 
228.00004992642346 0.31056225515285374 
229.00004992642346 0.31056225515285374 
230.00004992642346 0.31056225515285374 
231.00004992642346 0.31056225515285374 
232.00004992642346 0.31056225515285374 
233.00004992642346 0.31056225515285374 
234.00004992642346 0.31056225515285374 
235.00004992642346 0.31056225515285374 
236.00004992642346 0.31056225515285374 
237.00004992642346 0.31056225515285374 
238.00004992642346 0.31056225515285374 
239.00004992642346 0.31056225515285374 
240.00004992642346 0.31056225515285374 
241.00004992642346 0.31056225515285374 
242.00004992642346 0.31056225515285374 
243.00004992642346 0.31056225515285374 
244.00004992642346 0.31056225515285374 
245.00004992642346 0.31056225515285374 
246.00004992642346 0.31056225515285374 
247.00004992642346 0.31056225515285374 
248.00004992642346 0.31056225515285374 
249.00004992642346 0.31056225515285374 
250.00004992642346 0.31056225515285374 
251.00004992642346 0.31056225515285374 
252.00004992642346 0.31056225515285374 
253.00004992642346 0.31056225515285374 
254.00004992642346 0.31056225515285374 
255.00004992642346 0.31056225515285374 
256.00004992642346 0.31056225515285374 
257.00004992642346 0.31056225515285374 
258.00004992642346 0.31056225515285374 
259.00004992642346 0.31056225515285374 
260.00004992642346 0.31056225515285374 
261.00004992642346 0.31056225515285374 
262.00004992642346 0.31056225515285374 
263.00004992642346 0.31056225515285374 
264.00004992642346 0.31056225515285374 
265.00004992642346 0.31056225515285374 
266.00004992642346 0.31056225515285374 
267.00004992642346 0.31056225515285374 
268.00004992642346 0.31056225515285374 
269.00004992642346 0.31056225515285374 
270.00004992642346 0.31056225515285374 
271.00004992642346 0.31056225515285374 
272.00004992642346 0.31056225515285374 
273.00004992642346 0.31056225515285374 
274.00004992642346 0.31056225515285374 
275.00004992642346 0.31056225515285374 
276.00004992642346 0.31056225515285374 
277.00004992642346 0.31056225515285374 
278.00004992642346 0.31056225515285374 
279.00004992642346 0.31056225515285374 
280.00004992642346 0.31056225515285374 
281.00004992642346 0.31056225515285374 
282.00004992642346 0.31056225515285374 
283.00004992642346 0.31056225515285374 
284.00004992642346 0.31056225515285374 
285.00004992642346 0.31056225515285374 
286.00004992642346 0.31056225515285374 
287.00004992642346 0.31056225515285374 
288.00004992642346 0.31056225515285374 
289.00004992642346 0.31056225515285374 
290.00004992642346 0.31056225515285374 
291.00004992642346 0.31056225515285374 
292.00004992642346 0.31056225515285374 
293.00004992642346 0.31056225515285374 
294.00004992642346 0.31056225515285374 
#####################################################################
# End of data export. Simulation finished at: 2017-05-25T17:12+0000 #
#####################################################################
