#####################################################################
# Alchemist log file - simulation started at: 2017-05-25T07:53+0000 #
#####################################################################
# random = 8.0, targets = 1.0, density = 0.07978946395100113, gridShift = 1.0, perturbation = 0.5, connfactor = 0.5
#
# The columns have the following meaning: 
# time se[Mean] 
0.0 NaN 
1.0490773234798803 NaN 
2.0490773234798803 1.0 
3.0490773234798803 1.0 
4.04907732347988 1.0 
5.04907732347988 1.0 
#####################################################################
# End of data export. Simulation finished at: 2017-05-25T07:53+0000 #
#####################################################################
