#####################################################################
# Alchemist log file - simulation started at: 2017-05-23T16:29+0000 #
#####################################################################
# random = 12.0, targets = 10.0, density = 0.04, gridShift = 0.0, perturbation = 0.5, connfactor = 0.75
#
# The columns have the following meaning: 
# time se[Mean] 
0.0 NaN 
1.0242474491697862 NaN 
2.024247449169786 0.98203125 
3.024247449169786 0.94515625 
4.024247449169787 0.7857638888888889 
5.024247449169787 0.77453125 
6.024247449169787 0.6549479166666666 
7.024247449169787 0.6455381944444445 
8.024247449169787 0.55640625 
9.024247449169787 0.4586631944444445 
10.024247449169787 0.3559375 
11.024247449169787 0.3671875 
12.024247449169787 0.2718229166666667 
13.024247449169787 0.1898263888888889 
14.024247449169787 0.19786458333333334 
15.024247449169787 0.26164930555555554 
16.024247449169785 0.1875 
17.024247449169785 0.23374999999999999 
18.024247449169785 0.27140624999999996 
19.024247449169785 0.11953124999999999 
20.024247449169785 0.1490625 
21.024247449169785 0.09 
22.024247449169785 0.09 
23.024247449169785 0.09 
24.024247449169785 0.09 
#####################################################################
# End of data export. Simulation finished at: 2017-05-23T16:29+0000 #
#####################################################################
