#####################################################################
# Alchemist log file - simulation started at: 2017-05-23T23:48+0000 #
#####################################################################
# random = 13.0, targets = 3.1622776601683795, density = 20.0, gridShift = 0.0, perturbation = 0.0, connfactor = 1.0
#
# The columns have the following meaning: 
# time se[Mean] 
0.0 NaN 
1.0002602723432414 NaN 
2.000260272343241 1.0 
3.000260272343241 1.0000894914380947 
4.000260272343241 1.0001990368748754 
5.000260272343241 1.000877192263745 
6.000260272343241 1.002832738127627 
7.000260272343241 1.0006320367642974 
8.00026027234324 1.0008617508558102 
9.00026027234324 0.996299294790131 
10.00026027234324 0.9958296079672387 
11.00026027234324 0.9894682551162807 
12.00026027234324 0.9888462202204017 
13.00026027234324 0.986217960327901 
14.00026027234324 0.9856479514289964 
15.00026027234324 0.9855281976141972 
16.00026027234324 0.9864833772460017 
17.00026027234324 0.9882831028007805 
18.00026027234324 0.9900073282063656 
19.00026027234324 0.9919122981923073 
20.00026027234324 0.9932839480335494 
21.00026027234324 0.99326001151065 
22.00026027234324 0.9929112179468221 
23.00026027234324 0.9901131034774082 
24.00026027234324 0.9882246110888684 
25.00026027234324 0.9837947606826227 
26.00026027234324 0.9790746248110788 
27.00026027234324 0.975022684528526 
28.00026027234324 0.9702586513761527 
29.00026027234324 0.9677152164276772 
30.00026027234324 0.9616844681008275 
31.00026027234324 0.9595442375875876 
32.00026027234324 0.9524502188630235 
33.00026027234324 0.9452588294727254 
34.00026027234324 0.9415799911379247 
35.00026027234324 0.9376187383721547 
36.00026027234324 0.9345056581924913 
37.00026027234324 0.9283768200577831 
38.00026027234324 0.9268630296112041 
39.00026027234324 0.9213484531306386 
40.00026027234324 0.9181566618889513 
41.00026027234324 0.912051243092777 
42.00026027234324 0.9086323291436076 
43.00026027234324 0.904048887054946 
44.00026027234324 0.8994341464001091 
45.00026027234324 0.8949587987188236 
46.00026027234324 0.8911057454359673 
47.00026027234324 0.8855571227574505 
48.00026027234324 0.881908443544552 
49.00026027234324 0.87640469588117 
50.00026027234324 0.8710182148137192 
51.00026027234324 0.865465446466966 
52.00026027234324 0.8605609859723121 
53.00026027234324 0.8529620929618976 
54.00026027234324 0.8451774288508115 
55.00026027234324 0.8378115659202778 
56.00026027234324 0.8314778849723546 
57.00026027234324 0.8249758964487778 
58.00026027234324 0.8156654736296644 
59.00026027234324 0.8063154609079167 
60.00026027234324 0.7964790233529456 
61.00026027234324 0.7904501418058038 
62.00026027234324 0.7818272530737036 
63.00026027234324 0.7719663051770589 
64.00026027234324 0.7668754513218289 
65.00026027234324 0.7603544961612463 
66.00026027234324 0.7558853144445457 
67.00026027234324 0.7463457486216039 
68.00026027234324 0.7414784940655237 
69.00026027234324 0.7348798622116522 
70.00026027234324 0.7294065322623581 
71.00026027234324 0.7238003389718096 
72.00026027234324 0.7140704927122444 
73.00026027234324 0.7079492185785685 
74.00026027234324 0.7016391671202501 
75.00026027234324 0.6961440214681006 
76.00026027234324 0.6897141650227732 
77.00026027234324 0.6840983847037411 
78.00026027234324 0.6767528864466609 
79.00026027234324 0.6700162614764215 
80.00026027234324 0.6651105052897482 
81.00026027234324 0.6578277083301757 
82.00026027234324 0.6487756035299113 
83.00026027234324 0.6403413888676608 
84.00026027234324 0.6317876798931551 
85.00026027234324 0.6230586156159668 
86.00026027234324 0.6128289773149215 
87.00026027234324 0.6050376830478371 
88.00026027234324 0.5930662543821223 
89.00026027234324 0.5837966193650672 
90.00026027234324 0.5704099642660931 
91.00026027234324 0.5594565225155943 
92.00026027234324 0.5467680247215899 
93.00026027234324 0.5349394073622221 
94.00026027234324 0.520391489850268 
95.00026027234324 0.5077381247055328 
96.00026027234324 0.49749216505483934 
97.00026027234324 0.48295813193551446 
98.00026027234324 0.4695405912895653 
99.00026027234324 0.4553670604929686 
100.00026027234324 0.443610524949997 
101.00026027234324 0.4305057113735747 
102.00026027234324 0.4193520366695107 
103.00026027234324 0.40608870632441213 
104.00026027234324 0.39576994844629576 
105.00026027234324 0.38614317826709843 
106.00026027234324 0.37510226173338324 
107.00026027234324 0.3662926241663077 
108.00026027234324 0.35731488189170185 
109.00026027234324 0.3491239084184526 
110.00026027234324 0.3398370711996646 
111.00026027234324 0.33207552030418164 
112.00026027234324 0.3232960921208578 
113.00026027234324 0.3155584311278967 
114.00026027234324 0.30852022313192445 
115.00026027234324 0.30255425394371965 
116.00026027234324 0.29695097090528516 
117.00026027234324 0.2908262829906475 
118.00026027234324 0.2847315970397986 
119.00026027234324 0.27964687072208233 
120.00026027234324 0.27365406568328243 
121.00026027234324 0.2977922334214952 
122.00026027234324 0.32401975331354776 
123.00026027234324 0.44112527860929257 
124.00026027234324 0.5289917859053872 
125.00026027234324 0.664806421294217 
126.00026027234324 0.7962291204330887 
127.00026027234324 0.8860475389761975 
128.00026027234324 1.1042680754821523 
129.00026027234324 1.2652197323860341 
130.00026027234324 1.396306609207542 
131.00026027234324 1.2552594984112235 
132.00026027234324 1.3533943228251286 
133.00026027234324 1.2981950522925516 
134.00026027234324 1.2653852217046426 
135.00026027234324 1.2596597167502719 
136.00026027234324 1.0856398158619052 
137.00026027234324 0.8193516963363633 
138.00026027234324 0.8938326256415271 
139.00026027234324 0.9296115881979475 
140.00026027234324 0.5737067641543655 
141.00026027234324 0.39020578642387965 
142.00026027234324 0.6119803850022059 
143.00026027234324 0.5422299359746279 
144.00026027234324 0.3590580919503293 
145.00026027234324 0.295900913480768 
146.00026027234324 0.4116254081768073 
147.00026027234324 0.2243858815617241 
148.00026027234324 0.37616160011203814 
149.00026027234324 0.2497493848857899 
150.00026027234324 0.26404200813942663 
151.00026027234324 0.3090052087708277 
152.00026027234324 0.3080799053283996 
153.00026027234324 0.2444543627994132 
154.00026027234324 0.26170999000489664 
155.00026027234324 0.2969604869733611 
156.00026027234324 0.22359327524669814 
157.00026027234324 0.209225687235586 
158.00026027234324 0.28588238361879353 
159.00026027234324 0.24640380005186913 
160.00026027234324 0.16261990527192285 
161.00026027234324 0.2649734391673183 
162.00026027234324 0.23235588564282822 
163.00026027234324 0.2333668393968908 
164.00026027234324 0.1788407684540125 
165.00026027234324 0.25886777021184804 
166.00026027234324 0.22130878201444398 
167.00026027234324 0.2146121087938301 
168.00026027234324 0.2050841493853524 
169.00026027234324 0.20774403763651 
170.00026027234324 0.2034789311497791 
171.00026027234324 0.19298241579755948 
172.00026027234324 0.13388226531712685 
173.00026027234324 0.18693872693715236 
174.00026027234324 0.12471149770521951 
175.00026027234324 0.1471530991957329 
176.00026027234324 0.06255583061378428 
177.00026027234324 0.11635446531108048 
178.00026027234324 0.05195605452041403 
179.00026027234324 0.06688698557846386 
180.00026027234324 0.06266150833180938 
181.00026027234324 0.014992857825641774 
182.00026027234324 0.06036598197677225 
183.00026027234324 0.01399441591805477 
184.00026027234324 0.011527105199407443 
185.00026027234324 0.012807042258811305 
186.00026027234324 0.011223712938760254 
187.00026027234324 0.004998221459711568 
188.00026027234324 0.010620853010219618 
189.00026027234324 0.0046271973530977685 
190.00026027234324 0.008023007190335779 
191.00026027234324 0.007181929862009542 
192.00026027234324 0.004120665528249038 
193.00026027234324 0.007340289472563551 
194.00026027234324 0.0039631867697782356 
195.00026027234324 0.004121546380332433 
196.00026027234324 0.0039631867697782295 
197.00026027234324 0.0039631867697782356 
198.00026027234324 0.003963186769778209 
199.00026027234324 0.003963186769778231 
200.00026027234324 0.0026334038989724207 
201.00026027234324 0.003963186769778229 
202.00026027234324 0.0026334038989724207 
203.00026027234324 0.0032982953343753457 
204.00026027234324 0.0032982953343753466 
205.00026027234324 0.0026334038989724207 
206.00026027234324 0.0032982953343753474 
207.00026027234324 0.0026334038989724207 
208.00026027234324 0.0026334038989724207 
209.00026027234324 0.0026334038989724207 
210.00026027234324 0.0026334038989724207 
211.00026027234324 0.0026334038989724207 
212.00026027234324 0.0026334038989724207 
213.00026027234324 0.0026334038989724207 
214.00026027234324 0.0026334038989724207 
215.00026027234324 0.0026334038989724207 
216.00026027234324 0.0026334038989724207 
217.00026027234324 0.0026334038989724207 
218.00026027234324 0.0026334038989724207 
219.00026027234324 0.0026334038989724207 
220.00026027234324 0.0026334038989724207 
221.00026027234324 0.0026334038989724207 
222.00026027234324 0.0026334038989724207 
223.00026027234324 0.0026334038989724207 
224.00026027234324 0.0026334038989724207 
225.00026027234324 0.0026334038989724207 
226.00026027234324 0.0026334038989724207 
227.00026027234324 0.0026334038989724207 
228.00026027234324 0.0026334038989724207 
229.00026027234324 0.0026334038989724207 
230.00026027234324 0.0026334038989724207 
231.00026027234324 0.0026334038989724207 
232.00026027234324 0.0026334038989724207 
233.00026027234324 0.0026334038989724207 
234.00026027234324 0.0026334038989724207 
235.00026027234324 0.0026334038989724207 
236.00026027234324 0.0026334038989724207 
237.00026027234324 0.0026334038989724207 
238.00026027234324 0.0026334038989724207 
239.00026027234324 0.0026334038989724207 
240.00026027234324 0.0026334038989724207 
241.00026027234324 0.0026334038989724207 
242.00026027234324 0.0026334038989724207 
243.00026027234324 0.0026334038989724207 
244.00026027234324 0.0026334038989724207 
245.00026027234324 0.0026334038989724207 
246.00026027234324 0.0026334038989724207 
247.00026027234324 0.0026334038989724207 
248.00026027234324 0.0026334038989724207 
249.00026027234324 0.0026334038989724207 
250.00026027234324 0.0026334038989724207 
251.00026027234324 0.0026334038989724207 
252.00026027234324 0.0026334038989724207 
253.00026027234324 0.0026334038989724207 
254.00026027234324 0.0026334038989724207 
255.00026027234324 0.0026334038989724207 
256.0002602723432 0.0026334038989724207 
257.0002602723432 0.0026334038989724207 
258.0002602723432 0.0026334038989724207 
259.0002602723432 0.0026334038989724207 
260.0002602723432 0.0026334038989724207 
261.0002602723432 0.0026334038989724207 
262.0002602723432 0.0026334038989724207 
263.0002602723432 0.0026334038989724207 
264.0002602723432 0.0026334038989724207 
265.0002602723432 0.0026334038989724207 
266.0002602723432 0.0026334038989724207 
267.0002602723432 0.0026334038989724207 
268.0002602723432 0.0026334038989724207 
269.0002602723432 0.0026334038989724207 
270.0002602723432 0.0026334038989724207 
271.0002602723432 0.0026334038989724207 
272.0002602723432 0.0026334038989724207 
273.0002602723432 0.0026334038989724207 
274.0002602723432 0.0026334038989724207 
275.0002602723432 0.0026334038989724207 
276.0002602723432 0.0026334038989724207 
277.0002602723432 0.0026334038989724207 
278.0002602723432 0.0026334038989724207 
279.0002602723432 0.0026334038989724207 
280.0002602723432 0.0026334038989724207 
281.0002602723432 0.0026334038989724207 
282.0002602723432 0.0026334038989724207 
283.0002602723432 0.0026334038989724207 
284.0002602723432 0.0026334038989724207 
285.0002602723432 0.0026334038989724207 
286.0002602723432 0.0026334038989724207 
287.0002602723432 0.0026334038989724207 
288.0002602723432 0.0026334038989724207 
289.0002602723432 0.0026334038989724207 
290.0002602723432 0.0026334038989724207 
291.0002602723432 0.0026334038989724207 
292.0002602723432 0.0026334038989724207 
293.0002602723432 0.0026334038989724207 
294.0002602723432 0.0026334038989724207 
295.0002602723432 0.0026334038989724207 
296.0002602723432 0.0026334038989724207 
297.0002602723432 0.0026334038989724207 
298.0002602723432 0.0026334038989724207 
299.0002602723432 0.0026334038989724207 
300.0002602723432 0.0026334038989724207 
301.0002602723432 0.0026334038989724207 
302.0002602723432 0.0026334038989724207 
303.0002602723432 0.0026334038989724207 
304.0002602723432 0.0026334038989724207 
305.0002602723432 0.0026334038989724207 
306.0002602723432 0.0026334038989724207 
307.0002602723432 0.0026334038989724207 
308.0002602723432 0.0026334038989724207 
309.0002602723432 0.0026334038989724207 
310.0002602723432 0.0026334038989724207 
311.0002602723432 0.0026334038989724207 
312.0002602723432 0.0026334038989724207 
313.0002602723432 0.0026334038989724207 
314.0002602723432 0.0026334038989724207 
#####################################################################
# End of data export. Simulation finished at: 2017-05-23T23:55+0000 #
#####################################################################
