#####################################################################
# Alchemist log file - simulation started at: 2017-05-26T05:52+0000 #
#####################################################################
# random = 9.0, targets = 10.0, density = 2.519842099789746, gridShift = 0.0, perturbation = 0.0, connfactor = 1.5
#
# The columns have the following meaning: 
# time se[Mean] 
0.0 NaN 
1.0078258106860618 NaN 
2.007825810686062 1.0987975778546715 
3.007825810686062 1.1793762014609765 
4.007825810686062 1.2350213860053825 
5.007825810686062 1.251632785467128 
6.007825810686062 1.2520520953479433 
7.007825810686062 1.2735130718954248 
8.007825810686061 1.2473289119569397 
9.007825810686061 1.2891923779315648 
10.007825810686061 1.1883811514802 
11.007825810686061 1.2236831987697039 
12.007825810686061 1.1182653306420607 
13.007825810686061 1.104175557477893 
14.007825810686061 1.0552758554402153 
15.007825810686061 1.0468536139946176 
16.00782581068606 1.0417277008842754 
17.00782581068606 0.9740933775470973 
18.00782581068606 1.010497645136486 
19.00782581068606 0.9470016339869282 
20.00782581068606 0.9686562860438293 
21.00782581068606 0.9102797001153403 
22.00782581068606 0.938511630142253 
23.00782581068606 0.9038201653210304 
24.00782581068606 0.9182129469434833 
25.00782581068606 0.8706269223375624 
26.00782581068606 0.8814518454440601 
27.00782581068606 0.8575223471741638 
28.00782581068606 0.8441174067666283 
29.00782581068606 0.8233410226835832 
30.00782581068606 0.8099293540945791 
31.00782581068606 0.7852998846597462 
32.00782581068606 0.7511248077662437 
33.00782581068606 0.7352597558631295 
34.00782581068606 0.7067137639369473 
35.00782581068606 0.6883302095347943 
36.00782581068606 0.6510133121876204 
37.00782581068606 0.632223423683199 
38.00782581068606 0.5951468185313341 
39.00782581068606 0.56421568627451 
40.00782581068606 0.5396563821607071 
41.00782581068606 0.49890859284890443 
42.00782581068606 0.47029531910803574 
43.00782581068606 0.437284698193003 
44.00782581068606 0.40589244521337947 
45.00782581068606 0.3723284313725489 
46.00782581068606 0.3362379853902345 
47.00782581068606 0.30762951749327144 
48.00782581068606 0.2794305074971166 
49.00782581068606 0.33452950788158403 
50.00782581068606 0.8137925317185707 
51.00782581068606 0.4348901864667436 
52.00782581068606 0.8532706170703585 
53.00782581068606 0.6824089292579782 
54.00782581068606 0.6694641484044604 
55.00782581068606 0.6483924452133805 
56.00782581068606 0.716534505959247 
57.00782581068606 0.5591628219915421 
58.00782581068606 0.4908294886582093 
59.00782581068606 0.396416762783545 
60.00782581068606 0.43496131295655555 
61.00782581068606 0.20402585544021531 
62.00782581068606 0.26500480584390634 
63.00782581068606 0.19675701653210284 
64.00782581068606 0.15598351595540183 
65.00782581068606 0.15448697616301438 
66.00782581068606 0.12775567089580947 
67.00782581068606 0.13573361207228007 
68.00782581068606 0.029639081122645117 
69.00782581068606 0.11063845636293748 
70.00782581068606 0.09824009996155335 
71.00782581068606 0.022541810841983808 
72.00782581068606 0.022026384083044945 
73.00782581068606 0.021765186466743542 
74.00782581068606 0.021568627450980354 
75.00782581068606 0.010198721645520954 
76.00782581068606 0.021263456362937336 
77.00782581068606 0.02114667435601686 
78.00782581068606 0.009968281430219147 
79.00782581068606 0.01 
80.00782581068606 0.01 
81.00782581068606 0.01 
82.00782581068606 0.01 
83.00782581068606 0.01 
84.00782581068606 0.01 
85.00782581068606 0.01 
86.00782581068606 0.01 
87.00782581068606 0.01 
88.00782581068606 0.01 
89.00782581068606 0.01 
90.00782581068606 0.01 
91.00782581068606 0.01 
92.00782581068606 0.01 
93.00782581068606 0.01 
94.00782581068606 0.01 
95.00782581068606 0.01 
96.00782581068606 0.01 
97.00782581068606 0.01 
98.00782581068606 0.01 
99.00782581068606 0.01 
100.00782581068606 0.01 
101.00782581068606 0.01 
102.00782581068606 0.01 
103.00782581068606 0.01 
104.00782581068606 0.01 
105.00782581068606 0.01 
106.00782581068606 0.01 
107.00782581068606 0.01 
108.00782581068606 0.01 
109.00782581068606 0.01 
110.00782581068606 0.01 
111.00782581068606 0.01 
112.00782581068606 0.01 
113.00782581068606 0.01 
#####################################################################
# End of data export. Simulation finished at: 2017-05-26T05:55+0000 #
#####################################################################
