#####################################################################
# Alchemist log file - simulation started at: 2017-05-19T22:37+0000 #
#####################################################################
# random = 0.0, targets = 10.0, density = 0.4483936332993466, gridShift = 0.0, perturbation = 0.0, connfactor = 1.5
#
# The columns have the following meaning: 
# time se[Mean] 
0.0 NaN 
1.0011337332612453 NaN 
2.0011337332612453 1.226328125 
3.0011337332612453 1.3380653211805555 
4.001133733261245 1.3593196614583334 
5.001133733261245 1.5500531684027776 
6.001133733261245 1.5480023871527775 
7.001133733261245 1.6615950520833331 
8.001133733261245 1.8164442274305554 
9.001133733261245 1.7789192708333332 
10.001133733261245 1.9153309461805554 
11.001133733261245 1.775962456597222 
12.001133733261245 2.6851193576388885 
13.001133733261245 2.355806206597222 
14.001133733261245 2.9099750434027776 
15.001133733261245 2.725696614583333 
16.001133733261245 2.871536458333333 
17.001133733261245 2.0446473524305553 
18.001133733261245 2.1880273437499995 
19.001133733261245 1.5085243055555553 
20.001133733261245 1.0495865885416664 
21.001133733261245 0.3012207031249998 
22.001133733261245 0.28488064236111094 
23.001133733261245 0.26484157986111095 
24.001133733261245 0.2592523871527776 
25.001133733261245 0.2509277343749999 
26.001133733261245 0.2543695746527776 
27.001133733261245 0.25027560763888873 
28.001133733261245 0.25231011284722205 
29.001133733261245 0.24861436631944428 
30.001133733261245 0.24999999999999983 
31.001133733261245 0.24961914062499985 
32.00113373326124 0.24999999999999983 
33.00113373326124 0.24999999999999983 
34.00113373326124 0.24999999999999983 
35.00113373326124 0.24999999999999983 
36.00113373326124 0.24999999999999983 
37.00113373326124 0.24999999999999983 
38.00113373326124 0.24999999999999983 
39.00113373326124 0.24999999999999983 
40.00113373326124 0.24999999999999983 
41.00113373326124 0.24999999999999983 
42.00113373326124 0.24999999999999983 
#####################################################################
# End of data export. Simulation finished at: 2017-05-19T22:37+0000 #
#####################################################################
