#####################################################################
# Alchemist log file - simulation started at: 2017-05-23T09:56+0000 #
#####################################################################
# random = 11.0, targets = 31.622776601683793, density = 1.2632455339402642, gridShift = 1.0, perturbation = 0.5, connfactor = 0.5
#
# The columns have the following meaning: 
# time se[Mean] 
0.0 NaN 
1.0028758930102715 NaN 
2.0028758930102715 1.0009485945417167 
3.0028758930102715 1.001470715334336 
4.0028758930102715 0.9996353648752412 
5.0028758930102715 0.9981198501628561 
6.0028758930102715 0.9877310410310779 
7.0028758930102715 0.9835789721838963 
8.002875893010271 0.9785528094633743 
9.002875893010271 0.9669664331454081 
10.002875893010271 0.9645559735803307 
11.002875893010271 0.9467129903855287 
12.002875893010271 0.9413995558466103 
13.002875893010271 0.932005481031939 
14.002875893010271 0.9210276309368732 
15.002875893010271 0.904190425956099 
16.00287589301027 0.9009183504251552 
17.00287589301027 0.8700799622680021 
18.00287589301027 0.8463445224056454 
19.00287589301027 0.8234469572761599 
20.00287589301027 0.7875749517161648 
21.00287589301027 0.7470553504177114 
22.00287589301027 0.7148747026490556 
23.00287589301027 0.6795472793317686 
24.00287589301027 0.6635043964899454 
25.00287589301027 0.6404944803449975 
26.00287589301027 0.645468497971122 
27.00287589301027 0.653023678373773 
28.00287589301027 0.6691767078788726 
29.00287589301027 0.6740577139944816 
30.00287589301027 0.6925727385048147 
31.00287589301027 0.7078077356235083 
32.00287589301027 0.7222846903581552 
33.00287589301027 0.7412389289220763 
34.00287589301027 0.7547617556519766 
35.00287589301027 0.764731911696845 
36.00287589301027 0.7680313714100416 
37.00287589301027 0.7832360311851447 
38.00287589301027 0.7949066853450013 
39.00287589301027 0.8046359870966389 
40.00287589301027 0.8030602089386155 
41.00287589301027 0.815229174367282 
42.00287589301027 0.8160993859234869 
43.00287589301027 0.8150723048134073 
44.00287589301027 0.814115529012756 
45.00287589301027 0.8238642277939142 
46.00287589301027 0.8242480934576488 
47.00287589301027 0.8286500034906649 
48.00287589301027 0.8163130540271293 
49.00287589301027 0.8047022167793311 
50.00287589301027 0.7885023861231801 
51.00287589301027 0.7715314267379019 
52.00287589301027 0.7567623764490268 
53.00287589301027 0.7368887651013589 
54.00287589301027 0.7211456749538224 
55.00287589301027 0.7006054851695797 
56.00287589301027 0.68618712050214 
57.00287589301027 0.6664826218344616 
58.00287589301027 0.6439883316611295 
59.00287589301027 0.6328092438149606 
60.00287589301027 0.6117123268616255 
61.00287589301027 0.7984584794503438 
62.00287589301027 0.9933499359918442 
63.00287589301027 0.9657583898009103 
64.00287589301027 1.713633947231773 
65.00287589301027 2.0370793769807136 
66.00287589301027 2.0141891897697537 
67.00287589301027 2.402573685331263 
68.00287589301027 3.14480050531905 
69.00287589301027 2.500508028407958 
70.00287589301027 3.726114611637923 
71.00287589301027 2.449419414449393 
72.00287589301027 3.905248750778786 
73.00287589301027 4.486140438142875 
74.00287589301027 1.9267868997319126 
75.00287589301027 5.225374151930309 
76.00287589301027 4.019539868656824 
77.00287589301027 2.6462374402602777 
78.00287589301027 5.045441915223399 
79.00287589301027 4.145884257956885 
80.00287589301027 2.4079247446574157 
81.00287589301027 3.7142370953786394 
82.00287589301027 2.5343423309206607 
83.00287589301027 1.7899345473221873 
84.00287589301027 1.3628070372906929 
85.00287589301027 0.8926321672048639 
86.00287589301027 0.8198672548469113 
87.00287589301027 0.27612476413279946 
88.00287589301027 0.41227520078367097 
89.00287589301027 0.27631670194948615 
90.00287589301027 0.27631670194948615 
91.00287589301027 0.27631670194948615 
92.00287589301027 0.27631670194948615 
93.00287589301027 0.27631670194948615 
94.00287589301027 0.27631670194948615 
95.00287589301027 0.27631670194948615 
96.00287589301027 0.27631670194948615 
97.00287589301027 0.27631670194948615 
98.00287589301027 0.27631670194948615 
99.00287589301027 0.27631670194948615 
100.00287589301027 0.27631670194948615 
101.00287589301027 0.27631670194948615 
102.00287589301027 0.27631670194948615 
103.00287589301027 0.27631670194948615 
104.00287589301027 0.27631670194948615 
105.00287589301027 0.27631670194948615 
106.00287589301027 0.27631670194948615 
107.00287589301027 0.27631670194948615 
108.00287589301027 0.27631670194948615 
109.00287589301027 0.27631670194948615 
110.00287589301027 0.27631670194948615 
111.00287589301027 0.27631670194948615 
#####################################################################
# End of data export. Simulation finished at: 2017-05-23T09:56+0000 #
#####################################################################
