#####################################################################
# Alchemist log file - simulation started at: 2017-05-26T05:31+0000 #
#####################################################################
# random = 9.0, targets = 10.0, density = 0.07978946395100113, gridShift = 1.0, perturbation = 0.0, connfactor = 0.1
#
# The columns have the following meaning: 
# time se[Mean] 
0.0 NaN 
1.034185494435238 NaN 
2.034185494435238 1.0 
3.034185494435238 1.0 
4.034185494435238 1.0 
5.034185494435238 1.0 
#####################################################################
# End of data export. Simulation finished at: 2017-05-26T05:31+0000 #
#####################################################################
