#####################################################################
# Alchemist log file - simulation started at: 2017-05-24T13:26+0000 #
#####################################################################
# random = 15.0, targets = 1.0, density = 0.6332893950589894, gridShift = 0.0, perturbation = 0.0, connfactor = 0.5
#
# The columns have the following meaning: 
# time se[Mean] 
0.0 NaN 
1.0090872484315245 NaN 
2.0090872484315243 1.0 
3.0090872484315243 1.0 
4.009087248431524 1.0 
5.009087248431524 1.0 
6.009087248431524 1.0 
7.009087248431524 1.0 
8.009087248431523 1.0 
9.009087248431523 1.0 
10.009087248431523 0.9876543209876543 
11.009087248431523 0.962962962962963 
12.009087248431523 0.9259259259259258 
13.009087248431523 0.8765432098765432 
14.009087248431523 0.7901234567901234 
15.009087248431523 0.6790123456790124 
16.009087248431523 0.5679012345679013 
17.009087248431523 0.41975308641975306 
18.009087248431523 0.2962962962962963 
19.009087248431523 0.23456790123456794 
20.009087248431523 0.1358024691358025 
21.009087248431523 0.09876543209876543 
22.009087248431523 0.012345679012345656 
23.009087248431523 0.0 
24.009087248431523 0.0 
25.009087248431523 0.012345679012345677 
26.009087248431523 0.03703703703703707 
27.009087248431523 0.06172839506172836 
28.009087248431523 0.07407407407407414 
29.009087248431523 0.07407407407407408 
30.009087248431523 0.08641975308641979 
31.009087248431523 0.0864197530864198 
32.00908724843153 0.037037037037037056 
33.00908724843153 0.024691358024691357 
34.00908724843153 0.012345679012345677 
35.00908724843153 0.012345679012345677 
36.00908724843153 0.0 
37.00908724843153 0.0 
38.00908724843153 0.0 
39.00908724843153 0.0 
40.00908724843153 0.0 
41.00908724843153 0.0 
42.00908724843153 0.0 
43.00908724843153 0.0 
44.00908724843153 0.0 
45.00908724843153 0.0 
46.00908724843153 0.0 
47.00908724843153 0.0 
48.00908724843153 0.0 
49.00908724843153 0.0 
50.00908724843153 0.0 
51.00908724843153 0.0 
52.00908724843153 0.0 
#####################################################################
# End of data export. Simulation finished at: 2017-05-24T13:26+0000 #
#####################################################################
