0.000000000000000000e+00 nan
2.220446049250313081e-16 1.583425315172660996e-02
4.440892098500626162e-16 1.877432372292086038e-01
8.881784197001252323e-16 1.794285880808804134e-01
8.881784197001252323e-16 1.788139827089238465e-01
8.881784197001252323e-16 1.777578171295073339e-01
1.776356839400250465e-15 1.764443038409421460e-01
2.664535259100375697e-15 1.750612280891821471e-01
1.776356839400250465e-15 1.747039905755620737e-01
1.776356839400250465e-15 1.733027424968047736e-01
1.776356839400250465e-15 1.726440416084531748e-01
3.552713678800500929e-15 1.721383913327741710e-01
3.552713678800500929e-15 1.709109742854597602e-01
0.000000000000000000e+00 1.701315868870534320e-01
5.329070518200751394e-15 1.689700662726389968e-01
0.000000000000000000e+00 1.685116660568948543e-01
3.552713678800500929e-15 1.678930550883905304e-01
3.552713678800500929e-15 1.671619800107769227e-01
3.552713678800500929e-15 1.669317484787926631e-01
7.105427357601001859e-15 1.661156738664667232e-01
3.552713678800500929e-15 1.663715104393408695e-01
3.552713678800500929e-15 1.655414543829338003e-01
7.105427357601001859e-15 1.650099146642294567e-01
3.552713678800500929e-15 1.642260596084214597e-01
7.105427357601001859e-15 1.638428719035328607e-01
3.552713678800500929e-15 1.618781139240028644e-01
0.000000000000000000e+00 1.612480401798957463e-01
7.105427357601001859e-15 1.606774519360129327e-01
1.065814103640150279e-14 1.597840250691718589e-01
0.000000000000000000e+00 1.568225278911360432e-01
0.000000000000000000e+00 1.569725730230265293e-01
1.065814103640150279e-14 1.532120340150412985e-01
7.105427357601001859e-15 1.506290726725467155e-01
7.105427357601001859e-15 1.511288079132333262e-01
7.105427357601001859e-15 1.472121988724386932e-01
7.105427357601001859e-15 1.464752028912829906e-01
7.105427357601001859e-15 1.451059226595950713e-01
1.421085471520200372e-14 1.425587348622152917e-01
1.421085471520200372e-14 1.412633927716808457e-01
7.105427357601001859e-15 1.411995681925028168e-01
7.105427357601001859e-15 1.405116306238166912e-01
2.131628207280300558e-14 1.397233004603563034e-01
7.105427357601001859e-15 1.410977326081848116e-01
0.000000000000000000e+00 1.419996287786808586e-01
1.421085471520200372e-14 1.454594589167339802e-01
2.131628207280300558e-14 1.462007623322985062e-01
7.105427357601001859e-15 1.453104274979736266e-01
0.000000000000000000e+00 1.468214092922206782e-01
1.421085471520200372e-14 1.451207800634819467e-01
2.131628207280300558e-14 1.464068603340381303e-01
7.105427357601001859e-15 1.458063543023978281e-01
0.000000000000000000e+00 1.454509263777365169e-01
0.000000000000000000e+00 1.457004608749105923e-01
2.842170943040400743e-14 1.458097739755508382e-01
1.421085471520200372e-14 1.460544309829390763e-01
1.421085471520200372e-14 1.459506691833640790e-01
2.131628207280300558e-14 1.451228992479943747e-01
3.552713678800500929e-14 1.448865115300151940e-01
0.000000000000000000e+00 1.445487239384984635e-01
0.000000000000000000e+00 1.444422146064240908e-01
0.000000000000000000e+00 1.444463426726705912e-01
3.552713678800500929e-14 1.442880661848886803e-01
2.131628207280300558e-14 1.442049738946163118e-01
2.842170943040400743e-14 1.442131786609450739e-01
1.421085471520200372e-14 1.441473106877342314e-01
4.263256414560601115e-14 1.441473106877342314e-01
1.421085471520200372e-14 1.441473106877342314e-01
0.000000000000000000e+00 1.441473106877342314e-01
1.421085471520200372e-14 1.441473106877342314e-01
4.263256414560601115e-14 1.441473106877342314e-01
1.421085471520200372e-14 1.441473106877342314e-01
2.842170943040400743e-14 1.441473106877342314e-01
1.421085471520200372e-14 1.441473106877342314e-01
4.263256414560601115e-14 1.441473106877342314e-01
2.842170943040400743e-14 1.441473106877342314e-01
0.000000000000000000e+00 1.441473106877342314e-01
2.842170943040400743e-14 1.441473106877342314e-01
4.263256414560601115e-14 1.441473106877342314e-01
1.421085471520200372e-14 1.441473106877342314e-01
4.263256414560601115e-14 1.441473106877342314e-01
