#####################################################################
# Alchemist log file - simulation started at: 2017-05-24T06:48+0000 #
#####################################################################
# random = 14.0, targets = 3.1622776601683795, density = 3.5589026259761294, gridShift = 0.0, perturbation = 0.0, connfactor = 0.5
#
# The columns have the following meaning: 
# time se[Mean] 
0.0 NaN 
1.0015837731381736 NaN 
2.0015837731381736 1.0 
3.0015837731381736 1.0 
4.001583773138174 1.0 
5.001583773138174 1.0 
6.001583773138174 1.0 
7.001583773138174 1.0 
8.001583773138174 0.9986688611699158 
9.001583773138174 0.9986688611699158 
10.001583773138174 0.9906820281894106 
11.001583773138174 0.9840263340389898 
12.001583773138174 0.9752083622284003 
13.001583773138174 0.9510855856267166 
14.001583773138174 0.9564101409470533 
15.001583773138174 0.8903663664623388 
16.001583773138172 0.918151420724191 
17.001583773138172 0.8584256180500656 
18.001583773138172 0.8800615616712445 
19.001583773138172 0.8288160084678767 
20.001583773138172 0.8451273967687185 
21.001583773138172 0.8053620930361085 
22.001583773138172 0.8273291754873714 
23.001583773138172 0.8228291754873718 
24.001583773138172 0.8231668978272034 
25.001583773138172 0.8206668978272031 
26.001583773138172 0.8334782861280454 
27.001583773138172 0.8404651191085505 
28.001583773138172 0.843289674428887 
29.001583773138172 0.8571010627297292 
30.001583773138172 0.8680747286907392 
31.001583773138172 0.8693466592756967 
32.00158377313817 0.8814672558216655 
33.00158377313817 0.8681405204456132 
34.00158377313817 0.8722150757659495 
35.00158377313817 0.8498137850695605 
36.00158377313817 0.839458535598803 
37.00158377313817 0.8095857589971188 
38.00158377313817 0.7904498153759401 
39.00158377313817 0.7536318772762621 
40.00158377313817 0.7162883607179003 
41.00158377313817 0.6889046693901048 
42.00158377313817 0.7014018493343525 
43.00158377313817 0.7075372011139389 
44.00158377313817 0.7384898558090099 
45.00158377313817 0.7120777033607987 
46.00158377313817 0.7877175356479291 
47.00158377313817 0.7413390033544714 
48.00158377313817 0.6675517931161261 
49.00158377313817 0.6877324738836387 
50.00158377313817 0.5381578944840797 
51.00158377313817 0.5168632873655472 
52.00158377313817 0.4583026113024103 
53.00158377313817 0.34418333809911755 
54.00158377313817 0.3487213761554359 
55.00158377313817 0.2758792648091061 
56.00158377313817 0.22467382858503784 
57.00158377313817 0.2288982838372654 
58.00158377313817 0.1949889129180512 
59.00158377313817 0.18975059767200175 
60.00158377313817 0.1762110966135173 
61.00158377313817 0.15849029886670513 
62.00158377313817 0.15814306701279365 
63.00158377313817 0.14628705714588597 
64.00158377313818 0.13426657511556067 
65.00158377313818 0.13443251028114428 
66.00158377313818 0.13459478794131266 
67.00158377313818 0.13475706560148104 
68.00158377313818 0.13492300076706468 
69.00158377313818 0.13508893593264829 
70.00158377313818 0.13508893593264829 
71.00158377313818 0.13508893593264829 
72.00158377313818 0.13508893593264829 
73.00158377313818 0.13508893593264829 
74.00158377313818 0.13508893593264829 
75.00158377313818 0.13508893593264829 
76.00158377313818 0.13508893593264829 
77.00158377313818 0.13508893593264829 
78.00158377313818 0.13508893593264829 
79.00158377313818 0.13508893593264829 
80.00158377313818 0.13508893593264829 
81.00158377313818 0.13508893593264829 
82.00158377313818 0.13508893593264829 
83.00158377313818 0.13508893593264829 
84.00158377313818 0.13508893593264829 
85.00158377313818 0.13508893593264829 
86.00158377313818 0.13508893593264829 
87.00158377313818 0.13508893593264829 
88.00158377313818 0.13508893593264829 
89.00158377313818 0.13508893593264829 
90.00158377313818 0.13508893593264829 
91.00158377313818 0.13508893593264829 
92.00158377313818 0.13508893593264829 
93.00158377313818 0.13508893593264829 
94.00158377313818 0.13508893593264829 
95.00158377313818 0.13508893593264829 
96.00158377313818 0.13508893593264829 
97.00158377313818 0.13508893593264829 
98.00158377313818 0.13508893593264829 
99.00158377313818 0.13508893593264829 
100.00158377313818 0.13508893593264829 
101.00158377313818 0.13508893593264829 
102.00158377313818 0.13508893593264829 
103.00158377313818 0.13508893593264829 
104.00158377313818 0.13508893593264829 
105.00158377313818 0.13508893593264829 
106.00158377313818 0.13508893593264829 
107.00158377313818 0.13508893593264829 
108.00158377313818 0.13508893593264829 
109.00158377313818 0.13508893593264829 
110.00158377313818 0.13508893593264829 
111.00158377313818 0.13508893593264829 
#####################################################################
# End of data export. Simulation finished at: 2017-05-24T06:48+0000 #
#####################################################################
