#####################################################################
# Alchemist log file - simulation started at: 2017-05-25T02:55+0000 #
#####################################################################
# random = 16.0, targets = 31.622776601683793, density = 20.0, gridShift = 1.0, perturbation = 0.5, connfactor = 1.5
#
# The columns have the following meaning: 
# time se[Mean] 
0.0 NaN 
1.000419502192421 NaN 
2.000419502192421 1.0047380449674999 
3.000419502192421 1.0090094120361237 
4.000419502192421 1.0130504647324108 
5.000419502192421 1.0157390877459567 
6.000419502192421 1.0127244986637125 
7.000419502192421 1.0132208801190667 
8.000419502192422 1.00890055595512 
9.000419502192422 1.0092983512165858 
10.000419502192422 1.0076389859246233 
11.000419502192422 1.008069828430415 
12.000419502192422 1.0066455130567877 
13.000419502192422 1.007268168471239 
14.000419502192422 1.0032209637972915 
15.000419502192422 1.0007202674452538 
16.000419502192422 0.9981562569234433 
17.000419502192422 0.9951121937730204 
18.000419502192422 0.9922321640861653 
19.000419502192422 0.989037179409921 
20.000419502192422 0.9860322951854874 
21.000419502192422 0.9831727747335932 
22.000419502192422 0.9806860087557614 
23.000419502192422 0.9800039120732023 
24.000419502192422 0.9771592567977248 
25.000419502192422 0.9777288234822537 
26.000419502192422 0.9761082823205683 
27.000419502192422 0.9762269893617835 
28.000419502192422 0.9764507201317466 
29.000419502192422 0.9753793684242058 
30.000419502192422 0.9772630589638543 
31.000419502192422 0.9774152472658506 
32.00041950219242 0.9777437709537183 
33.00041950219242 0.9755409023844748 
34.00041950219242 0.9800005480188646 
35.00041950219242 0.976132128707411 
36.00041950219242 0.9769099944298556 
37.00041950219242 0.9757409636409575 
38.00041950219242 0.9733618713665128 
39.00041950219242 0.9759495608145478 
40.00041950219242 0.9716944191936766 
41.00041950219242 0.97479286323956 
42.00041950219242 0.9717382787155253 
43.00041950219242 0.9743094614430986 
44.00041950219242 0.9723854967774985 
45.00041950219242 0.975245580605338 
46.00041950219242 0.9782213332810158 
47.00041950219242 0.977625490521321 
48.00041950219242 0.9818220331170417 
49.00041950219242 0.9844002501714676 
50.00041950219242 0.9855183156851928 
51.00041950219242 0.990976792681786 
52.00041950219242 0.9885130283220877 
53.00041950219242 0.9933527479279576 
54.00041950219242 0.9995222642162537 
55.00041950219242 1.0005952000121592 
56.00041950219242 0.9982014838268949 
57.00041950219242 1.0174799466959634 
58.00041950219242 1.0139953824452022 
59.00041950219242 1.0198066646146722 
60.00041950219242 1.0416383697901004 
61.00041950219242 1.0309733350752566 
62.00041950219242 1.0481356428950344 
63.00041950219242 1.0490379596492414 
64.00041950219241 1.0656200646412273 
65.00041950219241 1.0375865803143298 
66.00041950219241 1.0704383199543521 
67.00041950219241 1.0599227260783266 
68.00041950219241 1.0574801061565942 
69.00041950219241 1.0637126962933936 
70.00041950219241 1.0599225473742888 
71.00041950219241 1.0549687021775622 
72.00041950219241 1.0575673402075831 
73.00041950219241 1.0533126193058 
74.00041950219241 1.0213356849083726 
75.00041950219241 1.057637549853062 
76.00041950219241 1.0567916714886407 
77.00041950219241 1.031352407865234 
78.00041950219241 1.0460669072266524 
79.00041950219241 1.0456819524721876 
80.00041950219241 1.0169408722674929 
81.00041950219241 1.0140209880487578 
82.00041950219241 0.9998275710612969 
83.00041950219241 1.0047502432654294 
84.00041950219241 0.9721827788663113 
85.00041950219241 0.9737165485981188 
86.00041950219241 0.9712349960939648 
87.00041950219241 0.9610958267607339 
88.00041950219241 0.9402942206774545 
89.00041950219241 0.95277433919816 
90.00041950219241 0.9504966312423356 
91.00041950219241 0.9456279746964307 
92.00041950219241 0.9335431543821727 
93.00041950219241 0.9453144614087315 
94.00041950219241 0.9503672551492198 
95.00041950219241 0.9389097977113999 
96.00041950219241 0.9371621130383588 
97.00041950219241 0.9474406042084552 
98.00041950219241 0.9354933715565517 
99.00041950219241 0.938963580914565 
100.00041950219241 0.9332768367213784 
101.00041950219241 0.9283964877234829 
102.00041950219241 0.92687791221018 
103.00041950219241 0.915203040831196 
104.00041950219241 0.9167688362915699 
105.00041950219241 0.915409183075785 
106.00041950219241 0.9117827355695344 
107.00041950219241 0.9040947855285852 
108.00041950219241 0.9059355780465477 
109.00041950219241 0.9068283123937895 
110.00041950219241 0.9011530816331371 
111.00041950219241 0.9013898996619564 
112.00041950219241 0.9044264503456452 
113.00041950219241 0.8994401622326973 
114.00041950219241 0.8970407254822845 
115.00041950219241 0.8956083753290536 
116.00041950219241 0.8908568113718831 
117.00041950219241 0.8892333395749203 
118.00041950219241 0.8830298784255184 
119.00041950219241 0.8818416687883812 
120.00041950219241 0.8811493934414617 
121.00041950219241 0.8747451125232888 
122.00041950219241 0.879308958462701 
123.00041950219241 0.8749828653543184 
124.00041950219241 0.8766564511720615 
125.00041950219241 0.8774725939206658 
126.00041950219241 0.8838353439692253 
127.00041950219241 0.8841805666922163 
128.00041950219241 0.8839784061182976 
129.00041950219241 0.885767377006351 
130.00041950219241 0.8874123326445341 
131.00041950219241 0.8910102299387684 
132.00041950219241 0.8879909179378419 
133.00041950219241 0.890515582748631 
134.00041950219241 0.8877926322986036 
135.00041950219241 0.8902549653834568 
136.00041950219241 0.8851510275234922 
137.00041950219241 0.8813389177001828 
138.00041950219241 0.8860021919012876 
139.00041950219241 0.8782121030940215 
140.00041950219241 0.8747840754041482 
141.00041950219241 0.8743959444385713 
142.00041950219241 0.8728047594688745 
143.00041950219241 0.8662247379197121 
144.00041950219241 0.8599355387345452 
145.00041950219241 0.8560557870247519 
146.00041950219241 0.8509802274510054 
147.00041950219241 0.8402734498056549 
148.00041950219241 0.8357354433720136 
149.00041950219241 0.8362075574413947 
150.00041950219241 0.819678843369246 
151.00041950219241 0.8195927194658329 
152.00041950219241 0.8099310780242149 
153.00041950219241 0.8085418560279264 
154.00041950219241 0.7997142202214675 
155.00041950219241 0.7915015953874994 
156.00041950219241 0.7908644084985428 
157.00041950219241 0.7812585810487658 
158.00041950219241 0.7745532142393441 
159.00041950219241 0.768888399785299 
160.00041950219241 0.7668600344353311 
161.00041950219241 0.7574038930797424 
162.00041950219241 0.7526849355969689 
163.00041950219241 0.7481286214227947 
164.00041950219241 0.7411194864593371 
165.00041950219241 0.7364483699973031 
166.00041950219241 0.7423720542953115 
167.00041950219241 0.7519605791005227 
168.00041950219241 0.7347755805952199 
169.00041950219241 0.7787939769324528 
170.00041950219241 0.7566672466264468 
171.00041950219241 0.7825126314036928 
172.00041950219241 0.8154270510469869 
173.00041950219241 0.8005695700889219 
174.00041950219241 0.8388813153996882 
175.00041950219241 0.8331150541111915 
176.00041950219241 0.8809774773770973 
177.00041950219241 0.8180936781170228 
178.00041950219241 0.9080351864498244 
179.00041950219241 0.8818935751608903 
180.00041950219241 0.8816217300370632 
181.00041950219241 0.8949750523197385 
182.00041950219241 0.8849973890831562 
183.00041950219241 0.9180184262315343 
184.00041950219241 0.8900960016920714 
185.00041950219241 0.9080808802136711 
186.00041950219241 0.8222424574540634 
187.00041950219241 0.9171057465355702 
188.00041950219241 0.9360750679340144 
189.00041950219241 0.856599860642664 
190.00041950219241 0.920560230054124 
191.00041950219241 0.9232608178545735 
192.00041950219241 0.8677006087232463 
193.00041950219241 0.8699239591789388 
194.00041950219241 0.8443780643447636 
195.00041950219241 0.8823338149337511 
196.00041950219241 0.8269151721489654 
197.00041950219241 0.8497460452737057 
198.00041950219241 0.9053087028040951 
199.00041950219241 0.8756012846429322 
200.00041950219241 0.8516587516827877 
201.00041950219241 0.8981377849686937 
202.00041950219241 0.9022657387243025 
203.00041950219241 0.9082046524322099 
204.00041950219241 0.870194553362453 
205.00041950219241 0.9364641153858854 
206.00041950219241 0.9688878421200574 
207.00041950219241 0.9295161589942215 
208.00041950219241 0.9953608752801673 
209.00041950219241 1.0254317120185 
210.00041950219241 1.0289921821484214 
211.00041950219241 1.049889770465455 
212.00041950219241 1.0647937798044578 
213.00041950219241 1.0090137438556075 
214.00041950219241 1.0751192095230973 
215.00041950219241 1.0604610090610591 
216.00041950219241 1.0415257113008296 
217.00041950219241 1.0032815839685338 
218.00041950219241 0.9978395970781966 
219.00041950219241 1.033468523884647 
220.00041950219241 1.0341025842412273 
221.00041950219241 0.9974308798995132 
222.00041950219241 0.9472251593264962 
223.00041950219241 0.9933758090813863 
224.00041950219241 0.997773469726405 
225.00041950219241 0.9515927033918167 
226.00041950219241 0.9663416397724129 
227.00041950219241 0.9716856182325353 
228.00041950219241 0.880080951312534 
229.00041950219241 0.9014708777414303 
230.00041950219241 0.8459081707098824 
231.00041950219241 0.8477175892238519 
232.00041950219241 0.8100085872731363 
233.00041950219241 0.8211154188131984 
234.00041950219241 0.8836584165130849 
235.00041950219241 0.8400717260843413 
236.00041950219241 0.8140063417575496 
237.00041950219241 0.8294426898309045 
238.00041950219241 0.8340232299134649 
239.00041950219241 0.8243938068584047 
240.00041950219241 0.7946030705282773 
241.00041950219241 0.7986957499296117 
242.00041950219241 0.8577210452444026 
243.00041950219241 0.7796131125181469 
244.00041950219241 0.8118198161607616 
245.00041950219241 0.8561009528237431 
246.00041950219241 0.8033349750100978 
247.00041950219241 0.8434568997287429 
248.00041950219241 0.8038537877970625 
249.00041950219241 0.8073011039546901 
250.00041950219241 0.7904462719725593 
251.00041950219241 0.8017491627256894 
252.00041950219241 0.777812875816763 
253.00041950219241 0.7263877203481717 
254.00041950219241 0.7375963026862769 
255.00041950219241 0.7301536746919008 
256.0004195021924 0.757224315759522 
257.0004195021924 0.7110328399039775 
258.0004195021924 0.738648587579667 
259.0004195021924 0.6850275356795775 
260.0004195021924 0.684153682555914 
261.0004195021924 0.7191676851917055 
262.0004195021924 0.6566479761383817 
263.0004195021924 0.6818401707144176 
264.0004195021924 0.6356809062196105 
265.0004195021924 0.6400111956416198 
266.0004195021924 0.6278229838465944 
267.0004195021924 0.5803944810959292 
268.0004195021924 0.6051329193579753 
269.0004195021924 0.5962068916860432 
270.0004195021924 0.5975985478233218 
271.0004195021924 0.5990487675884105 
272.0004195021924 0.5841034045984186 
273.0004195021924 0.5592413889125494 
274.0004195021924 0.5800143770218348 
275.0004195021924 0.5641300581969655 
276.0004195021924 0.5698958254281534 
277.0004195021924 0.5598463405931255 
278.0004195021924 0.5571089889139393 
279.0004195021924 0.5591348859492574 
280.0004195021924 0.5578636454639102 
281.0004195021924 0.558720300374095 
282.0004195021924 0.5580134149057374 
283.0004195021924 0.5580357325758756 
284.0004195021924 0.5580318767339832 
285.0004195021924 0.5580281790949069 
286.0004195021924 0.5580318503668472 
287.0004195021924 0.5580281263606349 
288.0004195021924 0.5580355743730596 
289.0004195021924 0.5580355743730596 
290.0004195021924 0.5580355743730596 
291.0004195021924 0.5580355743730596 
292.0004195021924 0.5580355743730596 
293.0004195021924 0.5580355743730596 
294.0004195021924 0.5580355743730596 
295.0004195021924 0.5580355743730596 
296.0004195021924 0.5580355743730596 
297.0004195021924 0.5580355743730596 
298.0004195021924 0.5580355743730596 
299.0004195021924 0.5580355743730596 
300.0004195021924 0.5580355743730596 
301.0004195021924 0.5580355743730596 
302.0004195021924 0.5580355743730596 
303.0004195021924 0.5580355743730596 
304.0004195021924 0.5580355743730596 
305.0004195021924 0.5580355743730596 
306.0004195021924 0.5580355743730596 
307.0004195021924 0.5580355743730596 
308.0004195021924 0.5580355743730596 
309.0004195021924 0.5580355743730596 
310.0004195021924 0.5580355743730596 
311.0004195021924 0.5580355743730596 
312.0004195021924 0.5580355743730596 
313.0004195021924 0.5580355743730596 
314.0004195021924 0.5580355743730596 
315.0004195021924 0.5580355743730596 
316.0004195021924 0.5580355743730596 
317.0004195021924 0.5580355743730596 
318.0004195021924 0.5580355743730596 
319.0004195021924 0.5580355743730596 
320.0004195021924 0.5580355743730596 
321.0004195021924 0.5580355743730596 
322.0004195021924 0.5580355743730596 
323.0004195021924 0.5580355743730596 
324.0004195021924 0.5580355743730596 
325.0004195021924 0.5580355743730596 
326.0004195021924 0.5580355743730596 
327.0004195021924 0.5580355743730596 
328.0004195021924 0.5580355743730596 
329.0004195021924 0.5580355743730596 
330.0004195021924 0.5580355743730596 
331.0004195021924 0.5580355743730596 
332.0004195021924 0.5580355743730596 
333.0004195021924 0.5580355743730596 
334.0004195021924 0.5580355743730596 
335.0004195021924 0.5580355743730596 
336.0004195021924 0.5580355743730596 
337.0004195021924 0.5580355743730596 
338.0004195021924 0.5580355743730596 
339.0004195021924 0.5580355743730596 
340.0004195021924 0.5580355743730596 
341.0004195021924 0.5580355743730596 
342.0004195021924 0.5580355743730596 
343.0004195021924 0.5580355743730596 
344.0004195021924 0.5580355743730596 
345.0004195021924 0.5580355743730596 
346.0004195021924 0.5580355743730596 
347.0004195021924 0.5580355743730596 
348.0004195021924 0.5580355743730596 
349.0004195021924 0.5580355743730596 
350.0004195021924 0.5580355743730596 
351.0004195021924 0.5580355743730596 
352.0004195021924 0.5580355743730596 
353.0004195021924 0.5580355743730596 
354.0004195021924 0.5580355743730596 
355.0004195021924 0.5580355743730596 
356.0004195021924 0.5580355743730596 
357.0004195021924 0.5580355743730596 
358.0004195021924 0.5580355743730596 
359.0004195021924 0.5580355743730596 
360.0004195021924 0.5580355743730596 
361.0004195021924 0.5580355743730596 
362.0004195021924 0.5580355743730596 
363.0004195021924 0.5580355743730596 
364.0004195021924 0.5580355743730596 
365.0004195021924 0.5580355743730596 
366.0004195021924 0.5580355743730596 
367.0004195021924 0.5580355743730596 
368.0004195021924 0.5580355743730596 
369.0004195021924 0.5580355743730596 
370.0004195021924 0.5580355743730596 
371.0004195021924 0.5580355743730596 
372.0004195021924 0.5580355743730596 
373.0004195021924 0.5580355743730596 
374.0004195021924 0.5580355743730596 
375.0004195021924 0.5580355743730596 
376.0004195021924 0.5580355743730596 
377.0004195021924 0.5580355743730596 
378.0004195021924 0.5580355743730596 
379.0004195021924 0.5580355743730596 
380.0004195021924 0.5580355743730596 
381.0004195021924 0.5580355743730596 
382.0004195021924 0.5580355743730596 
383.0004195021924 0.5580355743730596 
384.0004195021924 0.5580355743730596 
385.0004195021924 0.5580355743730596 
386.0004195021924 0.5580355743730596 
387.0004195021924 0.5580355743730596 
#####################################################################
# End of data export. Simulation finished at: 2017-05-25T03:02+0000 #
#####################################################################
