0.000000000000000000e+00 nan
1.000021631288212864e+00 2.878718563525174412e-01
2.000043262576425729e+00 9.639927371291410196e-01
3.000064893864638815e+00 9.765825869924179559e-01
4.000086525152851458e+00 9.801930017961093533e-01
5.000108156441061880e+00 9.840876319837246200e-01
6.000129787729277631e+00 9.815745886399447340e-01
7.000151419017487164e+00 9.870391457683761471e-01
8.000173050305702915e+00 9.878862668757694143e-01
9.000194681593912449e+00 9.902939451232555257e-01
1.000021631288212376e+01 9.914503886312932002e-01
1.100023794417034395e+01 9.934569209927869293e-01
1.200025957545855526e+01 9.963539960929402861e-01
1.300028120674676479e+01 9.967239615599828850e-01
1.400030283803497433e+01 9.999262557266654916e-01
1.500032446932318031e+01 1.004219097846367204e+00
1.600034610061140583e+01 1.005369709207276419e+00
1.700036773189960826e+01 1.012717663930630119e+00
1.800038936318782490e+01 1.018260062889362549e+00
1.900041099447605220e+01 1.022501848535765534e+00
2.000043262576424752e+01 1.032001046675818046e+00
2.100045425705246416e+01 1.041096004573249356e+00
2.200047588834068790e+01 1.047331804223169627e+00
2.300049751962888323e+01 1.057319581424856825e+00
2.400051915091711052e+01 1.064860726302912175e+00
2.500054078220530585e+01 1.075541831974756057e+00
2.600056241349352959e+01 1.077876819831350419e+00
2.700058404478173912e+01 1.093848626075704766e+00
2.800060567606994866e+01 1.091280852625571729e+00
2.900062730735816885e+01 1.107069276531662316e+00
3.000064893864636062e+01 1.109046248470586526e+00
3.100067056993459857e+01 1.112238886435769736e+00
3.200069220122281166e+01 1.121920794203892235e+00
3.300071383251100343e+01 1.123336873443775641e+00
3.400073546379921652e+01 1.137055340756842448e+00
3.500075709508745803e+01 1.140719371111786895e+00
3.600077872637564980e+01 1.146190640820212714e+00
3.700080035766384867e+01 1.163285433254311663e+00
3.800082198895210439e+01 1.164304142980004952e+00
3.900084362024029616e+01 1.176871836140419569e+00
4.000086525152849504e+01 1.185032783600158401e+00
4.100088688281672944e+01 1.198156711740351765e+00
4.200090851410492832e+01 1.202151332444652887e+00
4.300093014539312009e+01 1.205980570642834149e+00
4.400095177668137580e+01 1.226490811063231767e+00
4.500097340796957468e+01 1.221823698793533586e+00
4.600099503925776645e+01 1.235395125410892359e+00
4.700101667054602217e+01 1.245742109764578220e+00
4.800103830183422104e+01 1.244756136239940636e+00
4.900105993312241282e+01 1.292652637792702786e+00
5.000108156441061169e+01 1.280545715297678688e+00
5.100110319569885320e+01 1.269337047484579761e+00
5.200112482698705918e+01 1.311133338567451956e+00
5.300114645827525806e+01 1.296857173821396758e+00
5.400116808956347825e+01 1.297872165256548804e+00
5.500118972085169844e+01 1.340109475942643291e+00
5.600121135213989731e+01 1.336185254422052049e+00
5.700123298342812461e+01 1.332656875388454898e+00
5.800125461471633770e+01 1.382490148075164349e+00
5.900127624600455079e+01 1.361362464796374461e+00
6.000129787729272124e+01 1.363674077649089877e+00
6.100131950858098406e+01 1.386896753469510246e+00
6.200134113986919715e+01 1.393810996734838215e+00
6.300136277115736760e+01 1.400620868130503460e+00
6.400138440244562332e+01 1.392984786260177632e+00
6.500140603373384351e+01 1.387348463762034134e+00
6.600142766502200686e+01 1.404050767796032329e+00
6.700144929631026969e+01 1.369346225512554582e+00
6.800147092759843304e+01 1.419710984264699993e+00
6.900149255888665323e+01 1.425697197567641572e+00
7.000151419017491605e+01 1.428014581429102758e+00
7.100153582146306519e+01 1.403551215638761063e+00
7.200155745275129959e+01 1.465927518414392949e+00
7.300157908403956242e+01 1.456369691110839915e+00
7.400160071532769734e+01 1.476441028173049119e+00
7.500162234661594596e+01 1.479518976463368940e+00
7.600164397790420878e+01 1.451890642538941067e+00
7.700166560919234371e+01 1.411958558659516028e+00
7.800168724048059232e+01 1.463244196416187970e+00
7.900170887176881251e+01 1.417355136047312225e+00
8.000173050305699007e+01 1.406147180130938645e+00
8.100175213434522448e+01 1.444931988578598947e+00
8.200177376563345888e+01 1.423141114894269865e+00
8.300179539692163644e+01 1.391748344255862690e+00
8.400181702820985663e+01 1.380963389167549460e+00
8.500183865949810524e+01 1.366755643184927260e+00
8.600186029078624017e+01 1.318358583285041297e+00
8.700188192207450300e+01 1.286312605106935569e+00
8.800190355336275161e+01 1.284793732566615221e+00
8.900192518465088654e+01 1.274511433945936245e+00
9.000194681593914936e+01 1.266550317381336166e+00
9.100196844722739797e+01 1.268493944965449094e+00
9.200199007851553290e+01 1.254357641212399566e+00
9.300201170980379572e+01 1.243658781073241792e+00
9.400203334109204434e+01 1.242176919329838425e+00
9.500205497238017927e+01 1.237238251553117507e+00
9.600207660366844209e+01 1.237412110447029923e+00
9.700209823495657702e+01 1.235542822174788835e+00
9.800211986624482563e+01 1.230420577421532213e+00
9.900214149753308845e+01 1.236425926276515375e+00
1.000021631288212234e+02 1.233430109589998880e+00
1.010021847601094720e+02 1.234076611919554756e+00
1.020022063913977064e+02 1.228694016592327243e+00
1.030022280226858555e+02 1.228032069797696080e+00
1.040022496539741184e+02 1.227503340146832933e+00
1.050022712852623528e+02 1.228725666425445562e+00
1.060022929165505161e+02 1.228617585733611683e+00
1.070023145478387647e+02 1.225624777927760922e+00
1.080023361791269565e+02 1.226231656414009441e+00
1.090023578104151483e+02 1.225646140464845102e+00
1.100023794417033969e+02 1.225638876029994551e+00
1.110024010729916455e+02 1.225640132622728640e+00
1.120024227042797946e+02 1.225646617047395415e+00
1.130024443355680006e+02 1.225653106181157748e+00
1.140024659668562492e+02 1.225653106181157748e+00
1.150024875981444126e+02 1.225654728464598442e+00
1.160025092294326754e+02 1.225654728464598442e+00
1.170025308607209382e+02 1.225654728464598442e+00
1.180025524920091016e+02 1.225654728464598442e+00
1.190025741232972791e+02 1.225654728464598442e+00
1.200025957545854425e+02 1.225654728464598442e+00
1.210026173858737053e+02 1.225654728464598442e+00
1.220026390171619681e+02 1.225654728464598442e+00
1.230026606484502310e+02 1.225654728464598442e+00
1.240026822797383943e+02 1.225654728464598442e+00
1.250027039110265719e+02 1.225654728464598442e+00
1.260027255423147352e+02 1.225654728464598442e+00
1.270027471736029980e+02 1.225654728464598442e+00
1.280027688048912466e+02 1.225654728464598442e+00
1.290027904361794526e+02 1.225654728464598442e+00
1.300028120674676870e+02 1.225654728464598442e+00
1.310028336987558362e+02 1.225654728464598442e+00
1.320028553300440137e+02 1.225654728464598442e+00
1.330028769613322766e+02 1.225654728464598442e+00
1.340028985926205394e+02 1.225654728464598442e+00
1.350029202239087454e+02 1.225654728464598442e+00
1.360029418551968661e+02 1.225654728464598442e+00
1.370029634864851005e+02 1.225654728464598442e+00
1.380029851177733065e+02 1.225654728464598442e+00
1.390030067490615693e+02 1.225654728464598442e+00
1.400030283803498321e+02 1.225654728464598442e+00
1.410030500116380097e+02 1.225654728464598442e+00
1.420030716429261304e+02 1.225654728464598442e+00
1.430030932742143932e+02 1.225654728464598442e+00
1.440031149055025992e+02 1.225654728464598442e+00
1.450031365367908336e+02 1.225654728464598442e+00
