#####################################################################
# Alchemist log file - simulation started at: 2017-05-23T07:42+0000 #
#####################################################################
# random = 5.0, targets = 3.1622776601683795, density = 0.2247883923996312, gridShift = 0.0, perturbation = 0.5, connfactor = 0.75
#
# The columns have the following meaning: 
# time se[Mean] 
0.0 NaN 
1.0628592424154633 NaN 
2.0628592424154633 1.0 
3.0628592424154633 1.0 
4.062859242415463 1.0 
5.062859242415463 1.0 
6.062859242415463 1.0 
7.062859242415463 0.9895224284191294 
8.062859242415463 0.9630198574916444 
9.062859242415463 0.9241472776917623 
10.062859242415463 0.8575051014132975 
11.062859242415463 0.7539883368752616 
12.062859242415463 0.7263405502250867 
13.062859242415463 0.5517957064545387 
14.062859242415463 0.5035013651085478 
15.062859242415463 0.4057757550118382 
16.062859242415463 0.2423582244226412 
17.062859242415463 0.2700627450733474 
18.062859242415463 0.18837833639349202 
19.062859242415463 0.15083780446320072 
20.062859242415463 0.20355045290371845 
21.062859242415463 0.21929937494365426 
22.062859242415463 0.22712119261268854 
23.062859242415463 0.22550488613722403 
24.062859242415463 0.18806172715652208 
25.062859242415463 0.24924620241347173 
26.062859242415463 0.1911319983487521 
27.062859242415463 0.22379954853951553 
28.062859242415463 0.29374780893351493 
29.062859242415463 0.16722031954276056 
30.062859242415463 0.1350889359326484 
31.062859242415463 0.1350889359326484 
32.06285924241546 0.1350889359326484 
33.06285924241546 0.1350889359326484 
34.06285924241546 0.1350889359326484 
35.06285924241546 0.1350889359326484 
36.06285924241546 0.1350889359326484 
37.06285924241546 0.1350889359326484 
38.06285924241546 0.1350889359326484 
39.06285924241546 0.1350889359326484 
#####################################################################
# End of data export. Simulation finished at: 2017-05-23T07:42+0000 #
#####################################################################
