#####################################################################
# Alchemist log file - simulation started at: 2017-05-25T02:40+0000 #
#####################################################################
# random = 7.0, targets = 100.0, density = 0.1591589639397027, gridShift = 0.0, perturbation = 0.0, connfactor = 0.75
#
# The columns have the following meaning: 
# time se[Mean] 
0.0 NaN 
1.001616958347866 NaN 
2.0016169583478662 1.251847 
3.0016169583478662 1.330777111111111 
4.001616958347866 1.43766625 
5.001616958347866 1.2689151388888888 
6.001616958347866 1.4085789166666667 
7.001616958347866 1.1348426944444445 
8.001616958347867 1.0127751944444443 
9.001616958347867 1.0613684444444444 
10.001616958347867 0.7638382222222222 
11.001616958347867 0.6397091666666667 
12.001616958347867 0.5711008888888889 
13.001616958347867 0.5257912777777778 
14.001616958347867 0.4866803055555556 
15.001616958347867 0.4474041666666667 
16.001616958347867 0.44652736111111113 
17.001616958347867 0.4489 
18.001616958347867 0.4489 
19.001616958347867 0.4489 
20.001616958347867 0.4489 
21.001616958347867 0.4489 
22.001616958347867 0.4489 
23.001616958347867 0.4489 
24.001616958347867 0.4489 
25.001616958347867 0.4489 
26.001616958347867 0.4489 
27.001616958347867 0.4489 
#####################################################################
# End of data export. Simulation finished at: 2017-05-25T02:40+0000 #
#####################################################################
