#####################################################################
# Alchemist log file - simulation started at: 2017-05-19T23:55+0000 #
#####################################################################
# random = 0.0, targets = 10.0, density = 14.160781367816199, gridShift = 1.0, perturbation = 0.0, connfactor = 0.1
#
# The columns have the following meaning: 
# time se[Mean] 
0.0 NaN 
1.0006766750413718 NaN 
2.0006766750413716 1.0 
3.0006766750413716 1.0 
4.000676675041372 1.0 
5.000676675041372 1.0 
6.000676675041372 1.0 
7.000676675041372 1.0 
8.000676675041372 1.0 
9.000676675041372 1.0 
10.000676675041372 1.0 
11.000676675041372 1.0 
12.000676675041372 1.0 
13.000676675041372 1.0 
14.000676675041372 1.0 
15.000676675041372 1.0 
16.000676675041372 1.0 
17.000676675041372 1.0 
18.000676675041372 1.0 
19.000676675041372 1.0 
20.000676675041372 1.0 
21.000676675041372 1.0 
22.000676675041372 1.0 
23.000676675041372 1.0 
24.000676675041372 1.0 
25.000676675041372 1.0 
26.000676675041372 1.0 
27.000676675041372 1.0 
28.000676675041372 1.0 
29.000676675041372 1.0 
30.000676675041372 1.0 
31.000676675041372 1.0 
32.000676675041376 1.0 
33.000676675041376 1.0 
34.000676675041376 1.0 
35.000676675041376 1.0 
36.000676675041376 1.0 
37.000676675041376 1.0 
38.000676675041376 1.0 
39.000676675041376 1.0 
40.000676675041376 1.0 
41.000676675041376 1.0 
42.000676675041376 1.0 
43.000676675041376 1.0 
44.000676675041376 1.0 
45.000676675041376 1.0 
46.000676675041376 1.0 
47.000676675041376 1.0 
48.000676675041376 1.0 
49.000676675041376 1.0 
50.000676675041376 1.0 
51.000676675041376 1.0 
52.000676675041376 1.0 
53.000676675041376 1.0 
54.000676675041376 1.0 
55.000676675041376 1.0 
56.000676675041376 1.0 
57.000676675041376 1.0 
58.000676675041376 1.0 
59.000676675041376 1.0 
60.000676675041376 1.0 
61.000676675041376 1.0 
62.000676675041376 1.0 
63.000676675041376 1.0 
64.00067667504138 1.0 
65.00067667504138 1.0 
66.00067667504138 1.0 
67.00067667504138 1.0 
68.00067667504138 1.0 
69.00067667504138 1.0 
70.00067667504138 1.0 
71.00067667504138 1.0 
72.00067667504138 1.0 
73.00067667504138 1.0 
74.00067667504138 1.0 
75.00067667504138 1.0 
76.00067667504138 1.0 
77.00067667504138 1.0 
78.00067667504138 1.0 
79.00067667504138 1.0 
80.00067667504138 1.0 
81.00067667504138 1.0 
82.00067667504138 1.0 
83.00067667504138 1.0 
84.00067667504138 1.0 
#####################################################################
# End of data export. Simulation finished at: 2017-05-19T23:58+0000 #
#####################################################################
