#####################################################################
# Alchemist log file - simulation started at: 2017-05-25T12:54+0000 #
#####################################################################
# random = 8.0, targets = 10.0, density = 0.6332893950589894, gridShift = 0.0, perturbation = 0.5, connfactor = 0.25
#
# The columns have the following meaning: 
# time se[Mean] 
0.0 NaN 
1.0447112257851685 NaN 
2.0447112257851687 1.0 
3.0447112257851687 0.9976543209876543 
4.044711225785169 0.9894135802469136 
5.044711225785169 0.9776851851851852 
6.044711225785169 0.9447839506172839 
7.044711225785169 0.923611111111111 
8.044711225785168 0.9117592592592593 
9.044711225785168 0.9034567901234568 
10.044711225785168 0.9011728395061729 
11.044711225785168 0.90820987654321 
12.044711225785168 0.9083333333333333 
13.044711225785168 0.9041975308641975 
14.044711225785168 0.9225925925925926 
15.044711225785168 0.8471913580246914 
16.044711225785168 0.8541666666666667 
17.044711225785168 0.7522222222222222 
18.044711225785168 0.7259876543209877 
19.044711225785168 0.6297530864197531 
20.044711225785168 0.6470679012345679 
21.044711225785168 0.5743518518518519 
22.044711225785168 0.5607716049382716 
23.044711225785168 0.5724691358024692 
24.044711225785168 0.4845987654320988 
25.044711225785168 0.5298148148148148 
26.044711225785168 0.4666666666666667 
27.044711225785168 0.46867283950617283 
28.044711225785168 0.4159259259259259 
29.044711225785168 0.43592592592592594 
30.044711225785168 0.4301234567901234 
31.044711225785168 0.4067901234567901 
32.044711225785164 0.46358024691358024 
33.044711225785164 0.45802469135802465 
34.044711225785164 0.46802469135802466 
35.044711225785164 0.48518518518518516 
36.044711225785164 0.48518518518518516 
37.044711225785164 0.48839506172839503 
38.044711225785164 0.49 
39.044711225785164 0.49 
40.044711225785164 0.49 
41.044711225785164 0.49 
42.044711225785164 0.49 
43.044711225785164 0.49 
44.044711225785164 0.49 
45.044711225785164 0.49 
46.044711225785164 0.49 
47.044711225785164 0.49 
48.044711225785164 0.49 
49.044711225785164 0.49 
50.044711225785164 0.49 
51.044711225785164 0.49 
52.044711225785164 0.49 
53.044711225785164 0.49 
54.044711225785164 0.49 
#####################################################################
# End of data export. Simulation finished at: 2017-05-25T12:56+0000 #
#####################################################################
