#####################################################################
# Alchemist log file - simulation started at: 2017-05-19T19:59+0000 #
#####################################################################
# random = 0.0, targets = 3.1622776601683795, density = 0.6332893950589894, gridShift = 1.0, perturbation = 0.0, connfactor = 1.0
#
# The columns have the following meaning: 
# time se[Mean] 
0.0 NaN 
1.0011337332612453 NaN 
2.0011337332612453 1.0244151844011224 
3.0011337332612453 1.0283625505691485 
4.001133733261245 1.0431676120361892 
5.001133733261245 1.0241942797482728 
6.001133733261245 0.9458058058667406 
7.001133733261245 0.8781288340863805 
8.001133733261245 0.8291750298977655 
9.001133733261245 0.7623590045323451 
10.001133733261245 0.7509067830941856 
11.001133733261245 0.7088210649332922 
12.001133733261245 0.7404194795692943 
13.001133733261245 0.7434831629146617 
14.001133733261245 0.7259198517691443 
15.001133733261245 0.7194871156227792 
16.001133733261245 0.701092096701891 
17.001133733261245 0.6283046939988595 
18.001133733261245 0.5550136893838068 
19.001133733261245 0.5704133197974993 
20.001133733261245 0.4220996643897408 
21.001133733261245 0.3695591538632029 
22.001133733261245 0.2635229040333725 
23.001133733261245 0.24297070661250847 
24.001133733261245 0.18631385750487586 
25.001133733261245 0.1346959789808324 
26.001133733261245 0.10959207169376366 
27.001133733261245 0.1174998084935142 
28.001133733261245 0.11009894612546287 
29.001133733261245 0.10259732056750054 
30.001133733261245 0.10314977483340507 
31.001133733261245 0.08641158361639595 
32.00113373326124 0.0775779851019796 
33.00113373326124 0.05411471415042689 
34.00113373326124 0.046265476033566795 
35.00113373326124 0.034488442655488796 
36.00113373326124 0.026314306983696776 
37.00113373326124 0.017077826939663487 
38.00113373326124 0.011609965899060173 
39.00113373326124 0.007659370018862927 
40.00113373326124 0.005680810260962963 
41.00113373326124 0.004335790033303566 
42.00113373326124 0.00427081052231718 
43.00113373326124 0.0034521072106447996 
44.00113373326124 0.0032701731413842714 
45.00113373326124 0.0029972720374934784 
46.00113373326124 0.0027243709336026854 
47.00113373326124 0.0026334038989724207 
48.00113373326124 0.0026334038989724207 
49.00113373326124 0.0026334038989724207 
50.00113373326124 0.0026334038989724207 
51.00113373326124 0.0026334038989724207 
52.00113373326124 0.0026334038989724207 
53.00113373326124 0.0026334038989724207 
54.00113373326124 0.0026334038989724207 
55.00113373326124 0.0026334038989724207 
56.00113373326124 0.0026334038989724207 
57.00113373326124 0.0026334038989724207 
58.00113373326124 0.0026334038989724207 
59.00113373326124 0.0026334038989724207 
60.00113373326124 0.0026334038989724207 
61.00113373326124 0.0026334038989724207 
62.00113373326124 0.0026334038989724207 
#####################################################################
# End of data export. Simulation finished at: 2017-05-19T19:59+0000 #
#####################################################################
