#####################################################################
# Alchemist log file - simulation started at: 2017-05-23T17:36+0000 #
#####################################################################
# random = 12.0, targets = 10.0, density = 20.0, gridShift = 1.0, perturbation = 0.0, connfactor = 0.1
#
# The columns have the following meaning: 
# time se[Mean] 
0.0 NaN 
1.000297589316342 NaN 
2.000297589316342 1.0 
3.000297589316342 1.0 
4.000297589316342 1.0 
5.000297589316342 1.0 
6.000297589316342 1.0 
7.000297589316342 1.0 
8.000297589316343 1.0 
9.000297589316343 1.0 
10.000297589316343 1.0 
11.000297589316343 1.0 
12.000297589316343 1.0 
13.000297589316343 1.0 
14.000297589316343 1.0 
15.000297589316343 1.0 
16.000297589316343 1.0 
17.000297589316343 1.0 
18.000297589316343 1.0 
19.000297589316343 1.0 
20.000297589316343 1.0 
21.000297589316343 1.0 
22.000297589316343 1.0 
23.000297589316343 1.0 
24.000297589316343 1.0 
25.000297589316343 1.0 
26.000297589316343 1.0 
27.000297589316343 1.0 
28.000297589316343 1.0 
29.000297589316343 1.0 
30.000297589316343 1.0 
31.000297589316343 1.0 
32.00029758931635 1.0 
33.00029758931635 1.0 
34.00029758931635 1.0 
35.00029758931635 1.0 
36.00029758931635 1.0 
37.00029758931635 1.0 
38.00029758931635 1.0 
39.00029758931635 1.0 
40.00029758931635 1.0 
41.00029758931635 1.0 
42.00029758931635 1.0 
43.00029758931635 1.0 
44.00029758931635 1.0 
45.00029758931635 1.0 
46.00029758931635 1.0 
47.00029758931635 1.0 
48.00029758931635 1.0 
49.00029758931635 1.0 
50.00029758931635 1.0 
51.00029758931635 1.0 
52.00029758931635 1.0 
53.00029758931635 1.0 
54.00029758931635 1.0 
55.00029758931635 1.0 
56.00029758931635 1.0 
57.00029758931635 1.0 
58.00029758931635 1.0 
59.00029758931635 1.0 
60.00029758931635 1.0 
61.00029758931635 1.0 
62.00029758931635 1.0 
63.00029758931635 1.0 
64.00029758931635 1.0 
65.00029758931635 1.0 
66.00029758931635 1.0 
67.00029758931635 1.0 
68.00029758931635 1.0 
69.00029758931635 1.0 
70.00029758931635 1.0 
71.00029758931635 1.0 
72.00029758931635 1.0 
73.00029758931635 1.0 
74.00029758931635 1.0 
75.00029758931635 1.0 
76.00029758931635 1.0 
77.00029758931635 1.0 
78.00029758931635 1.0 
79.00029758931635 1.0 
80.00029758931635 1.0 
81.00029758931635 1.0 
82.00029758931635 1.0 
83.00029758931635 1.0 
84.00029758931635 1.0 
85.00029758931635 1.0 
86.00029758931635 1.0 
87.00029758931635 1.0 
88.00029758931635 1.0 
89.00029758931635 1.0 
90.00029758931635 1.0 
91.00029758931635 1.0 
92.00029758931635 1.0 
93.00029758931635 1.0 
94.00029758931635 1.0 
95.00029758931635 1.0 
96.00029758931635 1.0 
97.00029758931635 1.0 
98.00029758931635 1.0 
99.00029758931635 1.0 
100.00029758931635 1.0 
101.00029758931635 1.0 
102.00029758931635 1.0 
#####################################################################
# End of data export. Simulation finished at: 2017-05-23T17:38+0000 #
#####################################################################
