0.000000000000000000e+00 nan
2.220446049250313081e-16 2.004162389823285761e-02
4.440892098500626162e-16 1.528530512511761252e-01
0.000000000000000000e+00 1.531353696485782401e-01
8.881784197001252323e-16 1.509728111253082483e-01
2.664535259100375697e-15 1.567118210719230798e-01
0.000000000000000000e+00 1.571033067288457319e-01
0.000000000000000000e+00 1.682352528367824507e-01
1.776356839400250465e-15 2.063360556126950240e-01
0.000000000000000000e+00 2.262883145240394134e-01
5.329070518200751394e-15 2.577939835048640993e-01
3.552713678800500929e-15 2.645723071898679057e-01
0.000000000000000000e+00 2.853977411177882062e-01
5.329070518200751394e-15 2.860475387747737352e-01
0.000000000000000000e+00 2.917355600491382539e-01
5.329070518200751394e-15 2.924853321494674807e-01
3.552713678800500929e-15 2.813973963444690862e-01
7.105427357601001859e-15 2.740747908545040912e-01
0.000000000000000000e+00 2.689182127061329752e-01
3.552713678800500929e-15 2.699670039252485276e-01
1.065814103640150279e-14 2.716491245739952598e-01
1.065814103640150279e-14 2.790795033452062035e-01
7.105427357601001859e-15 2.716501909738280318e-01
1.065814103640150279e-14 3.041687863369260114e-01
0.000000000000000000e+00 2.726882958368112564e-01
3.552713678800500929e-15 2.778032827529995918e-01
1.065814103640150279e-14 2.795722082894812610e-01
1.421085471520200372e-14 2.732925515908389280e-01
0.000000000000000000e+00 2.795722082894812610e-01
0.000000000000000000e+00 2.795722082894812610e-01
1.065814103640150279e-14 2.795722082894812610e-01
7.105427357601001859e-15 2.795722082894812610e-01
