#####################################################################
# Alchemist log file - simulation started at: 2017-05-24T01:54+0000 #
#####################################################################
# random = 13.0, targets = 31.622776601683793, density = 0.894427190999916, gridShift = 0.0, perturbation = 0.5, connfactor = 0.5
#
# The columns have the following meaning: 
# time se[Mean] 
0.0 NaN 
1.0093475742791087 NaN 
2.0093475742791087 1.0 
3.0093475742791087 0.9993081298085946 
4.009347574279109 0.9970026248455677 
5.009347574279109 0.9902156951996502 
6.009347574279109 0.9813072412972395 
7.009347574279109 0.97284550302313 
8.009347574279108 0.9644401299190802 
9.009347574279108 0.9655545988054629 
10.009347574279108 0.943618332452893 
11.009347574279108 0.9466921171379316 
12.009347574279108 0.9353869722046741 
13.009347574279108 0.9149126081539277 
14.009347574279108 0.9130589534831371 
15.009347574279108 0.8899657006795788 
16.009347574279108 0.880904049675485 
17.009347574279108 0.8670816535450176 
18.009347574279108 0.8471473644947188 
19.009347574279108 0.8439703734961013 
20.009347574279108 0.8322360902306741 
21.009347574279108 0.8173362943871988 
22.009347574279108 0.8154241474229984 
23.009347574279108 0.8047397662537414 
24.009347574279108 0.7924853714950558 
25.009347574279108 0.7582825022175562 
26.009347574279108 0.7398858917845231 
27.009347574279108 0.714583980399191 
28.009347574279108 0.6751420446545389 
29.009347574279108 0.6253190880555949 
30.009347574279108 0.5789205490652604 
31.009347574279108 0.5819732585439521 
32.009347574279104 0.5613741103409712 
33.009347574279104 0.5307273979813474 
34.009347574279104 0.5139880906676334 
35.009347574279104 0.4910549967463932 
36.009347574279104 0.49565338482137317 
37.009347574279104 0.5202861134751098 
38.009347574279104 0.5188097802162127 
39.009347574279104 0.5293130497980891 
40.009347574279104 0.5240004192697074 
41.009347574279104 0.5219432049152208 
42.009347574279104 0.4865042767111535 
43.009347574279104 0.45940495185328833 
44.009347574279104 0.4534200897692914 
45.009347574279104 0.4183020344986546 
46.009347574279104 0.46538599047288653 
47.009347574279104 0.4597131236241031 
48.009347574279104 0.523343704165105 
49.009347574279104 0.6654338189039719 
50.009347574279104 0.7290303253190608 
51.009347574279104 0.9792286619611812 
52.009347574279104 0.8902084932768896 
53.009347574279104 1.4643553889948497 
54.009347574279104 1.4670189514689236 
55.009347574279104 0.9793566900890089 
56.009347574279104 1.1449804137044517 
57.009347574279104 1.2259996876308263 
58.009347574279104 1.3071004460931133 
59.009347574279104 0.8934659946832139 
60.009347574279104 0.975026408763725 
61.009347574279104 0.8080444881097772 
62.009347574279104 0.5592951071685061 
63.009347574279104 0.31115033592205543 
64.0093475742791 0.3108562955374546 
65.0093475742791 0.31056225515285374 
66.0093475742791 0.31056225515285374 
67.0093475742791 0.31056225515285374 
68.0093475742791 0.31056225515285374 
69.0093475742791 0.31056225515285374 
70.0093475742791 0.31056225515285374 
71.0093475742791 0.31056225515285374 
72.0093475742791 0.31056225515285374 
73.0093475742791 0.31056225515285374 
74.0093475742791 0.31056225515285374 
75.0093475742791 0.31056225515285374 
76.0093475742791 0.31056225515285374 
77.0093475742791 0.31056225515285374 
78.0093475742791 0.31056225515285374 
79.0093475742791 0.31056225515285374 
80.0093475742791 0.31056225515285374 
81.0093475742791 0.31056225515285374 
82.0093475742791 0.31056225515285374 
83.0093475742791 0.31056225515285374 
84.0093475742791 0.31056225515285374 
85.0093475742791 0.31056225515285374 
#####################################################################
# End of data export. Simulation finished at: 2017-05-24T01:54+0000 #
#####################################################################
