#####################################################################
# Alchemist log file - simulation started at: 2017-05-20T12:57+0000 #
#####################################################################
# random = 1.0, targets = 3.1622776601683795, density = 0.6332893950589894, gridShift = 0.0, perturbation = 0.5, connfactor = 0.75
#
# The columns have the following meaning: 
# time se[Mean] 
0.0 NaN 
1.0048855897957667 NaN 
2.0048855897957667 1.0 
3.0048855897957667 0.9909609514617228 
4.004885589795767 0.939192183683501 
5.004885589795767 0.8915386422427279 
6.004885589795767 0.8406109814871328 
7.004885589795767 0.8061008778690032 
8.004885589795766 0.7814781545138324 
9.004885589795766 0.6560613798271839 
10.004885589795766 0.6774027829474263 
11.004885589795766 0.595203061942146 
12.004885589795766 0.5919144932232145 
13.004885589795766 0.5747930032743706 
14.004885589795766 0.5483942160930788 
15.004885589795766 0.5124943561712257 
16.004885589795766 0.5094476722794407 
17.004885589795766 0.4686239188109144 
18.004885589795766 0.4771974497056215 
19.004885589795766 0.473703048323973 
20.004885589795766 0.4458496252121536 
21.004885589795766 0.4361318589738452 
22.004885589795766 0.45895337473739234 
23.004885589795766 0.4446151048748154 
24.004885589795766 0.4163102092304161 
25.004885589795766 0.39827182423321483 
26.004885589795766 0.36661355158892467 
27.004885589795766 0.3468604651691716 
28.004885589795766 0.3057623394962006 
29.004885589795766 0.2673789419316653 
30.004885589795766 0.2363739578385254 
31.004885589795766 0.7365004852522768 
32.00488558979576 1.220989223929568 
33.00488558979576 0.6625782250491462 
34.00488558979576 3.2778559439983277 
35.00488558979576 2.1857468832405456 
36.00488558979576 4.277394395435006 
37.00488558979576 3.21490403212598 
38.00488558979576 4.785339900453807 
39.00488558979576 5.299335496389692 
40.00488558979576 3.1839316781018283 
41.00488558979576 3.1753871887070284 
42.00488558979576 3.6965085951438224 
43.00488558979576 3.167784880817781 
44.00488558979576 1.5851008431733982 
45.00488558979576 2.1125899895982085 
46.00488558979576 1.0576116967485905 
47.00488558979576 0.002633403898972407 
48.00488558979576 0.002633403898972407 
49.00488558979576 0.002633403898972407 
50.00488558979576 0.002633403898972407 
51.00488558979576 0.002633403898972407 
52.00488558979576 0.002633403898972407 
53.00488558979576 0.002633403898972407 
54.00488558979576 0.002633403898972407 
55.00488558979576 0.002633403898972407 
56.00488558979576 0.002633403898972407 
57.00488558979576 0.002633403898972407 
58.00488558979576 0.002633403898972407 
59.00488558979576 0.002633403898972407 
60.00488558979576 0.002633403898972407 
61.00488558979576 0.002633403898972407 
62.00488558979576 0.002633403898972407 
63.00488558979576 0.002633403898972407 
#####################################################################
# End of data export. Simulation finished at: 2017-05-20T12:57+0000 #
#####################################################################
