#####################################################################
# Alchemist log file - simulation started at: 2017-05-24T03:34+0000 #
#####################################################################
# random = 13.0, targets = 100.0, density = 0.11269076455391362, gridShift = 0.0, perturbation = 0.0, connfactor = 0.25
#
# The columns have the following meaning: 
# time se[Mean] 
0.0 NaN 
1.0093475742791087 NaN 
2.0093475742791087 1.0 
3.0093475742791087 0.99980025 
4.009347574279109 1.0014801111111111 
5.009347574279109 0.999201 
6.009347574279109 1.0116950277777779 
7.009347574279109 0.9999175555555555 
8.009347574279108 1.0265466666666667 
9.009347574279108 1.0232907222222223 
10.009347574279108 1.0199109166666667 
11.009347574279108 1.015617888888889 
12.009347574279108 0.9907009444444445 
13.009347574279108 0.9572339999999999 
14.009347574279108 0.8947690833333333 
15.009347574279108 0.8933311666666667 
16.009347574279108 0.8899222222222223 
17.009347574279108 0.8836 
18.009347574279108 0.8836 
19.009347574279108 0.8836 
20.009347574279108 0.8836 
21.009347574279108 0.8836 
22.009347574279108 0.8836 
23.009347574279108 0.8836 
24.009347574279108 0.8836 
25.009347574279108 0.8836 
26.009347574279108 0.8836 
#####################################################################
# End of data export. Simulation finished at: 2017-05-24T03:34+0000 #
#####################################################################
