#####################################################################
# Alchemist log file - simulation started at: 2017-05-24T00:23+0000 #
#####################################################################
# random = 13.0, targets = 10.0, density = 1.2632455339402642, gridShift = 0.0, perturbation = 0.0, connfactor = 0.5
#
# The columns have the following meaning: 
# time se[Mean] 
0.0 NaN 
1.0093475742791087 NaN 
2.0093475742791087 1.0 
3.0093475742791087 0.9982988165680473 
4.009347574279109 0.9903994082840236 
5.009347574279109 0.974689349112426 
6.009347574279109 0.9561538461538461 
7.009347574279109 0.9310207100591715 
8.009347574279108 0.9056656804733728 
9.009347574279108 0.8923520710059172 
10.009347574279108 0.8618047337278106 
11.009347574279108 0.8427662721893492 
12.009347574279108 0.8179289940828403 
13.009347574279108 0.8099852071005917 
14.009347574279108 0.7945857988165681 
15.009347574279108 0.7852218934911243 
16.009347574279108 0.772396449704142 
17.009347574279108 0.7536538461538462 
18.009347574279108 0.7392011834319527 
19.009347574279108 0.717603550295858 
20.009347574279108 0.6960798816568048 
21.009347574279108 0.6732988165680474 
22.009347574279108 0.6440680473372782 
23.009347574279108 0.6162130177514793 
24.009347574279108 0.5808875739644971 
25.009347574279108 0.5436982248520711 
26.009347574279108 0.506198224852071 
27.009347574279108 0.47931952662721894 
28.009347574279108 0.42680473372781064 
29.009347574279108 0.39424556213017753 
30.009347574279108 0.3582692307692308 
31.009347574279108 0.3222189349112426 
32.009347574279104 0.29152366863905327 
33.009347574279104 0.25474852071005916 
34.009347574279104 0.22448224852071008 
35.009347574279104 0.19264792899408284 
36.009347574279104 0.1767603550295858 
37.009347574279104 0.1507396449704142 
38.009347574279104 0.1689792899408284 
39.009347574279104 0.2709023668639053 
40.009347574279104 0.23420118343195262 
41.009347574279104 0.3576479289940827 
42.009347574279104 0.30270710059171596 
43.009347574279104 0.29863905325443785 
44.009347574279104 0.36397928994082845 
45.009347574279104 0.18031065088757398 
46.009347574279104 0.4219822485207101 
47.009347574279104 0.21960059171597643 
48.009347574279104 0.21701183431952667 
49.009347574279104 0.19826923076923075 
50.009347574279104 0.11655325443786983 
51.009347574279104 0.06897928994082841 
52.009347574279104 0.08923076923076918 
53.009347574279104 0.06776627218934912 
54.009347574279104 0.03815088757396448 
55.009347574279104 0.0881952662721894 
56.009347574279104 0.05591715976331359 
57.009347574279104 0.029733727810650878 
58.009347574279104 0.032884615384615346 
59.009347574279104 0.011508875739644963 
60.009347574279104 0.0034467455621301777 
61.009347574279104 0.0039053254437869823 
62.009347574279104 0.003372781065088757 
63.009347574279104 0.0015976331360946746 
64.0093475742791 0.002426035502958579 
65.0093475742791 0.002011834319526627 
66.0093475742791 1.77514792899408E-4 
67.0093475742791 0.0 
68.0093475742791 0.0 
69.0093475742791 0.0 
70.0093475742791 0.0 
71.0093475742791 0.0 
72.0093475742791 0.0 
73.0093475742791 0.0 
74.0093475742791 0.0 
75.0093475742791 0.0 
76.0093475742791 0.0 
77.0093475742791 0.0 
78.0093475742791 0.0 
79.0093475742791 0.0 
80.0093475742791 0.0 
81.0093475742791 0.0 
82.0093475742791 0.0 
83.0093475742791 0.0 
84.0093475742791 0.0 
85.0093475742791 0.0 
86.0093475742791 0.0 
87.0093475742791 0.0 
88.0093475742791 0.0 
89.0093475742791 0.0 
90.0093475742791 0.0 
91.0093475742791 0.0 
#####################################################################
# End of data export. Simulation finished at: 2017-05-24T00:23+0000 #
#####################################################################
