#####################################################################
# Alchemist log file - simulation started at: 2017-05-25T02:59+0000 #
#####################################################################
# random = 16.0, targets = 100.0, density = 0.07978946395100113, gridShift = 0.0, perturbation = 0.0, connfactor = 2.0
#
# The columns have the following meaning: 
# time se[Mean] 
0.0 NaN 
1.0066017814354276 NaN 
2.0066017814354273 1.5686390625 
3.0066017814354273 1.772906423611111 
4.006601781435427 1.973845876736111 
5.006601781435427 2.0226528211805554 
6.006601781435427 1.7443849392361108 
7.006601781435427 4.302862456597222 
8.006601781435428 3.2088286024305557 
9.006601781435428 4.422182118055556 
10.006601781435428 4.398742057291667 
11.006601781435428 1.5042880208333334 
12.006601781435428 1.8547609375000003 
13.006601781435428 0.03920355902777779 
14.006601781435428 0.008935069444444445 
15.006601781435428 4.3802083333333513E-4 
16.006601781435428 2.0194839173657903E-32 
17.006601781435428 2.0194839173657903E-32 
18.006601781435428 2.0194839173657903E-32 
19.006601781435428 2.0194839173657903E-32 
20.006601781435428 2.0194839173657903E-32 
21.006601781435428 2.0194839173657903E-32 
22.006601781435428 2.0194839173657903E-32 
23.006601781435428 2.0194839173657903E-32 
#####################################################################
# End of data export. Simulation finished at: 2017-05-25T02:59+0000 #
#####################################################################
