0.000000000000000000e+00 nan
0.000000000000000000e+00 1.739778295374397321e-02
0.000000000000000000e+00 1.884158273982781406e-01
4.440892098500626162e-16 1.757596268097235959e-01
0.000000000000000000e+00 1.754316675480577237e-01
2.664535259100375697e-15 1.749548858664072004e-01
8.881784197001252323e-16 1.741176476369261095e-01
0.000000000000000000e+00 1.734142454586209414e-01
0.000000000000000000e+00 1.727940448084659408e-01
3.552713678800500929e-15 1.719377430311812560e-01
5.329070518200751394e-15 1.716148148370077453e-01
1.776356839400250465e-15 1.708711349448074901e-01
1.776356839400250465e-15 1.700749581451480585e-01
1.776356839400250465e-15 1.698373411531282351e-01
0.000000000000000000e+00 1.690226845594867966e-01
0.000000000000000000e+00 1.685048761467476952e-01
0.000000000000000000e+00 1.674422382684135624e-01
7.105427357601001859e-15 1.674262756216706727e-01
7.105427357601001859e-15 1.661686545239967339e-01
7.105427357601001859e-15 1.650751813400977430e-01
1.065814103640150279e-14 1.647423633356421557e-01
0.000000000000000000e+00 1.635355932617842678e-01
3.552713678800500929e-15 1.632214301943485935e-01
3.552713678800500929e-15 1.634021389226608112e-01
3.552713678800500929e-15 1.620966986903326912e-01
1.421085471520200372e-14 1.621311975778333136e-01
3.552713678800500929e-15 1.631426957322567595e-01
3.552713678800500929e-15 1.631436387210160599e-01
0.000000000000000000e+00 1.620973377407577687e-01
0.000000000000000000e+00 1.616838437600714995e-01
0.000000000000000000e+00 1.621213993538468401e-01
0.000000000000000000e+00 1.612781419612010492e-01
0.000000000000000000e+00 1.612727517711254333e-01
2.131628207280300558e-14 1.613549950075413020e-01
1.421085471520200372e-14 1.616778331255551981e-01
7.105427357601001859e-15 1.617628457279927934e-01
1.421085471520200372e-14 1.621569470556873116e-01
1.421085471520200372e-14 1.621716897959128434e-01
1.421085471520200372e-14 1.622976585720787568e-01
7.105427357601001859e-15 1.623425333927584202e-01
2.131628207280300558e-14 1.623739597619771324e-01
2.131628207280300558e-14 1.623580956524835195e-01
0.000000000000000000e+00 1.623901256327749676e-01
1.421085471520200372e-14 1.623901256327749676e-01
7.105427357601001859e-15 1.623901256327749676e-01
0.000000000000000000e+00 1.623901256327749676e-01
7.105427357601001859e-15 1.623901256327749676e-01
1.421085471520200372e-14 1.623901256327749676e-01
7.105427357601001859e-15 1.623901256327749676e-01
1.421085471520200372e-14 1.623901256327749676e-01
2.842170943040400743e-14 1.623901256327749676e-01
1.421085471520200372e-14 1.623901256327749676e-01
7.105427357601001859e-15 1.623901256327749676e-01
2.842170943040400743e-14 1.623901256327749676e-01
0.000000000000000000e+00 1.623901256327749676e-01
