#####################################################################
# Alchemist log file - simulation started at: 2017-05-23T08:26+0000 #
#####################################################################
# random = 5.0, targets = 3.1622776601683795, density = 10.026386447354522, gridShift = 0.0, perturbation = 0.0, connfactor = 0.5
#
# The columns have the following meaning: 
# time se[Mean] 
0.0 NaN 
1.0031365367908396 NaN 
2.00313653679084 1.0 
3.00313653679084 1.0 
4.00313653679084 1.0 
5.00313653679084 1.0 
6.00313653679084 1.0 
7.00313653679084 1.0 
8.00313653679084 1.0 
9.00313653679084 1.0 
10.00313653679084 1.0 
11.00313653679084 1.0 
12.00313653679084 1.0 
13.00313653679084 1.0 
14.00313653679084 1.0 
15.00313653679084 1.0 
16.00313653679084 1.0 
17.00313653679084 1.0 
18.00313653679084 1.0 
19.00313653679084 1.0 
20.00313653679084 1.0 
21.00313653679084 1.0 
22.00313653679084 1.0 
23.00313653679084 1.0 
24.00313653679084 1.0 
25.00313653679084 1.0 
26.00313653679084 1.0 
27.00313653679084 1.0 
28.00313653679084 1.0 
29.00313653679084 1.0 
30.00313653679084 1.0 
31.00313653679084 1.0 
32.00313653679084 1.0 
33.00313653679084 1.0 
34.00313653679084 1.0 
35.00313653679084 0.9990921998511314 
36.00313653679084 0.9949720593731654 
37.00313653679084 0.9930162998431976 
38.00313653679084 0.9865916191850027 
39.00313653679084 0.9850547199214117 
40.00313653679084 0.9830288807753288 
41.00313653679084 0.9822725141104521 
42.00313653679084 0.9768023480384869 
43.00313653679084 0.9718968385910093 
44.00313653679084 0.980377994050384 
45.00313653679084 1.0245582624932204 
46.00313653679084 1.0189423159832907 
47.00313653679084 1.076718703346389 
48.00313653679084 1.0559600977513068 
49.00313653679084 1.0365064048230315 
50.00313653679084 1.0231326475184022 
51.00313653679084 1.0090468516411537 
52.00313653679084 0.9856075244211141 
53.00313653679084 0.9656254317291811 
54.00313653679084 0.8948748496050836 
55.00313653679084 0.9163584650555973 
56.00313653679084 0.8745762293482999 
57.00313653679084 0.8468773872530009 
58.00313653679084 0.8601231240128328 
59.00313653679084 0.78278755576004 
60.00313653679084 0.799197300981293 
61.00313653679084 0.7477965253342219 
62.00313653679084 0.7634047591231105 
63.00313653679084 0.7427436498587585 
64.00313653679083 0.7380387065180329 
65.00313653679083 0.7080127757389802 
66.00313653679083 0.7180832297856291 
67.00313653679083 0.6831493554535536 
68.00313653679083 0.6901049177413933 
69.00313653679083 0.6655684985174966 
70.00313653679083 0.6467680865579272 
71.00313653679083 0.618256522459092 
72.00313653679083 0.6163934388092036 
73.00313653679083 0.5889886235356718 
74.00313653679083 0.5597311821887833 
75.00313653679083 0.5313911659719152 
76.00313653679083 0.5035014782719018 
77.00313653679083 0.4777527745008348 
78.00313653679083 0.4488126773940281 
79.00313653679083 0.4216817267838458 
80.00313653679083 0.40441176028675674 
81.00313653679083 0.4101171478161359 
82.00313653679083 0.3968142708827062 
83.00313653679083 0.4061565120535889 
84.00313653679083 0.4021144746627228 
85.00313653679083 0.40395022119873153 
86.00313653679083 0.39613924216555996 
87.00313653679083 0.4514113080766135 
88.00313653679083 0.7014959445655614 
89.00313653679083 0.697615861915806 
90.00313653679083 1.0639056419035402 
91.00313653679083 1.00472050318283 
92.00313653679083 0.9328575351075442 
93.00313653679083 0.9229869100931527 
94.00313653679083 0.9138211327757715 
95.00313653679083 0.8303500743157539 
96.00313653679083 0.8240075642006662 
97.00313653679083 0.48806032215756745 
98.00313653679083 0.7278466332195301 
99.00313653679083 0.5914813794255792 
100.00313653679083 0.5187146468171393 
101.00313653679083 0.6965988088323051 
102.00313653679083 0.3701548982655268 
103.00313653679083 0.5489017475023655 
104.00313653679083 0.2848569652560092 
105.00313653679083 0.39860293207024483 
106.00313653679083 0.3209596923189612 
107.00313653679083 0.3061263858431995 
108.00313653679083 0.22995963848098894 
109.00313653679083 0.3454519426520744 
110.00313653679083 0.20453237824630546 
111.00313653679083 0.31924816951424595 
112.00313653679083 0.24039184446071085 
113.00313653679083 0.22694400376454935 
114.00313653679083 0.14842598586459843 
115.00313653679083 0.2602741977581365 
116.00313653679083 0.2512461455674397 
117.00313653679083 0.17890874672205687 
118.00313653679083 0.1703776897251327 
119.00313653679083 0.16543433782680497 
120.00313653679083 0.16048051243179753 
121.00313653679083 0.09305747910025557 
122.00313653679083 0.025907509676977105 
123.00313653679083 0.021853429119560036 
124.00313653679083 0.016380060027259103 
125.00313653679083 0.01266912299422297 
126.00313653679083 0.00847166426409305 
127.00313653679083 0.005187642808712661 
128.00313653679083 0.0034848168688858356 
129.00313653679083 0.002633403898972407 
130.00313653679083 0.002633403898972407 
131.00313653679083 0.002633403898972407 
132.00313653679083 0.002633403898972407 
133.00313653679083 0.002633403898972407 
134.00313653679083 0.002633403898972407 
135.00313653679083 0.002633403898972407 
136.00313653679083 0.002633403898972407 
137.00313653679083 0.002633403898972407 
138.00313653679083 0.002633403898972407 
139.00313653679083 0.002633403898972407 
140.00313653679083 0.002633403898972407 
141.00313653679083 0.002633403898972407 
142.00313653679083 0.002633403898972407 
143.00313653679083 0.002633403898972407 
144.00313653679083 0.002633403898972407 
145.00313653679083 0.002633403898972407 
146.00313653679083 0.002633403898972407 
147.00313653679083 0.002633403898972407 
148.00313653679083 0.002633403898972407 
149.00313653679083 0.002633403898972407 
150.00313653679083 0.002633403898972407 
151.00313653679083 0.002633403898972407 
152.00313653679083 0.002633403898972407 
153.00313653679083 0.002633403898972407 
154.00313653679083 0.002633403898972407 
155.00313653679083 0.002633403898972407 
156.00313653679083 0.002633403898972407 
157.00313653679083 0.002633403898972407 
158.00313653679083 0.002633403898972407 
159.00313653679083 0.002633403898972407 
160.00313653679083 0.002633403898972407 
161.00313653679083 0.002633403898972407 
162.00313653679083 0.002633403898972407 
163.00313653679083 0.002633403898972407 
164.00313653679083 0.002633403898972407 
165.00313653679083 0.002633403898972407 
166.00313653679083 0.002633403898972407 
167.00313653679083 0.002633403898972407 
168.00313653679083 0.002633403898972407 
169.00313653679083 0.002633403898972407 
170.00313653679083 0.002633403898972407 
171.00313653679083 0.002633403898972407 
172.00313653679083 0.002633403898972407 
173.00313653679083 0.002633403898972407 
174.00313653679083 0.002633403898972407 
175.00313653679083 0.002633403898972407 
176.00313653679083 0.002633403898972407 
177.00313653679083 0.002633403898972407 
178.00313653679083 0.002633403898972407 
179.00313653679083 0.002633403898972407 
180.00313653679083 0.002633403898972407 
181.00313653679083 0.002633403898972407 
182.00313653679083 0.002633403898972407 
183.00313653679083 0.002633403898972407 
184.00313653679083 0.002633403898972407 
185.00313653679083 0.002633403898972407 
186.00313653679083 0.002633403898972407 
187.00313653679083 0.002633403898972407 
188.00313653679083 0.002633403898972407 
189.00313653679083 0.002633403898972407 
190.00313653679083 0.002633403898972407 
191.00313653679083 0.002633403898972407 
192.00313653679083 0.002633403898972407 
193.00313653679083 0.002633403898972407 
194.00313653679083 0.002633403898972407 
195.00313653679083 0.002633403898972407 
196.00313653679083 0.002633403898972407 
197.00313653679083 0.002633403898972407 
198.00313653679083 0.002633403898972407 
199.00313653679083 0.002633403898972407 
200.00313653679083 0.002633403898972407 
201.00313653679083 0.002633403898972407 
202.00313653679083 0.002633403898972407 
#####################################################################
# End of data export. Simulation finished at: 2017-05-23T08:32+0000 #
#####################################################################
