#####################################################################
# Alchemist log file - simulation started at: 2017-05-23T01:31+0000 #
#####################################################################
# random = 4.0, targets = 100.0, density = 5.0264212595847235, gridShift = 0.0, perturbation = 0.5, connfactor = 2.0
#
# The columns have the following meaning: 
# time se[Mean] 
0.0 NaN 
1.0004793365590676 NaN 
2.0004793365590676 1.025910720486111 
3.0004793365590676 1.0396078595196758 
4.000479336559067 1.069952640335648 
5.000479336559067 1.1150950822241512 
6.000479336559067 1.149207095148534 
7.000479336559067 1.2273812102141204 
8.000479336559067 1.2598472161940586 
9.000479336559067 1.3185331814236112 
10.000479336559067 1.3873785385320214 
11.000479336559067 1.4617381872106483 
12.000479336559067 1.530979682677469 
13.000479336559067 1.5767980697820216 
14.000479336559067 1.609776200810185 
15.000479336559067 1.6634230022665895 
16.000479336559067 1.6721852768132717 
17.000479336559067 1.7043379026813272 
18.000479336559067 1.7304986135223763 
19.000479336559067 1.7157541618441357 
20.000479336559067 1.774915690104167 
21.000479336559067 1.7484204294463734 
22.000479336559067 1.7712780767746914 
23.000479336559067 1.790688858748071 
24.000479336559067 1.7854182930652005 
25.000479336559067 1.7749639998070987 
26.000479336559067 1.7985371358989197 
27.000479336559067 1.8340454041280865 
28.000479336559067 1.9712970847800928 
29.000479336559067 1.9360999180169742 
30.000479336559067 2.1988426601080246 
31.000479336559067 2.1405310583043993 
32.00047933655907 2.2550209430459116 
33.00047933655907 2.440858018663196 
34.00047933655907 2.589876915750388 
35.00047933655907 2.344339822048614 
36.00047933655907 2.462481827498071 
37.00047933655907 2.872838370466824 
38.00047933655907 2.709880923273534 
39.00047933655907 2.535159607687113 
40.00047933655907 2.992889814814815 
41.00047933655907 2.9534222186053207 
42.00047933655907 2.8005812777295542 
43.00047933655907 3.102953354070216 
44.00047933655907 3.0436521327642763 
45.00047933655907 2.8974272702064034 
46.00047933655907 3.091032458043984 
47.00047933655907 3.1976746612172064 
48.00047933655907 3.010759399112654 
49.00047933655907 3.1375137924382734 
50.00047933655907 3.0011073423032397 
51.00047933655907 3.0664132185571 
52.00047933655907 3.1511298611111114 
53.00047933655907 3.2588657612364953 
54.00047933655907 3.2349435751832574 
55.00047933655907 3.440337759211032 
56.00047933655907 4.173841617235723 
57.00047933655907 4.074638705632718 
58.00047933655907 4.899320733265811 
59.00047933655907 4.827187848427853 
60.00047933655907 5.295865309124227 
61.00047933655907 5.8605482867959084 
62.00047933655907 6.628014383198297 
63.00047933655907 5.659153006847992 
64.00047933655907 5.903709463011185 
65.00047933655907 7.712561243730711 
66.00047933655907 9.42845389539932 
67.00047933655907 14.588462999131949 
68.00047933655907 14.804433920476448 
69.00047933655907 24.443067103105665 
70.00047933655907 21.193427160493822 
71.00047933655907 25.659280659239986 
72.00047933655907 32.429314936583715 
73.00047933655907 37.62000359519683 
74.00047933655907 26.65674564887153 
75.00047933655907 27.488551246624205 
76.00047933655907 45.151161770592246 
77.00047933655907 41.748185527584866 
78.00047933655907 29.4908818612558 
79.00047933655907 44.98980459948882 
80.00047933655907 47.14861170548805 
81.00047933655907 40.329163129340266 
82.00047933655907 47.77646441936727 
83.00047933655907 53.52100014829281 
84.00047933655907 41.26898349971065 
85.00047933655907 57.95269236955056 
86.00047933655907 55.22301766493056 
87.00047933655907 58.55690357228973 
88.00047933655907 63.00780580994405 
89.00047933655907 48.210712370997314 
90.00047933655907 61.39578383487655 
91.00047933655907 61.495644233458734 
92.00047933655907 63.888483479214905 
93.00047933655907 65.08161484254437 
94.00047933655907 77.14701641227819 
95.00047933655907 68.91827960069446 
96.00047933655907 71.64177548104747 
97.00047933655907 75.37622338204089 
98.00047933655907 80.01893768807875 
99.00047933655907 73.35337770543985 
100.00047933655907 87.97997383897571 
101.00047933655907 74.3621321518133 
102.00047933655907 91.37586723451967 
103.00047933655907 99.48137329644092 
104.00047933655907 119.53409026933838 
105.00047933655907 94.84384816261577 
106.00047933655907 119.20288378544568 
107.00047933655907 132.04756747202939 
108.00047933655907 139.17386311969517 
109.00047933655907 105.21213748312111 
110.00047933655907 116.16744279031637 
111.00047933655907 154.82812280815963 
112.00047933655907 153.82993120539152 
113.00047933655907 116.72584169319059 
114.00047933655907 165.45153160566156 
115.00047933655907 169.48681970727236 
116.00047933655907 133.03460365668397 
117.00047933655907 170.67225484061538 
118.00047933655907 176.52376888020822 
119.00047933655907 144.8227388346355 
120.00047933655907 199.52715986086986 
121.00047933655907 188.53091394555364 
122.00047933655907 190.22199192105518 
123.00047933655907 196.78263453414345 
124.00047933655907 161.5018393470293 
125.00047933655907 201.7617251663772 
126.00047933655907 183.96020584972987 
127.00047933655907 204.83212428505973 
128.00047933655907 191.0466136115935 
129.00047933655907 205.54428990041467 
130.00047933655907 180.43312220654883 
131.00047933655907 157.3396313753858 
132.00047933655907 176.6896251036839 
133.00047933655907 169.45818267867475 
134.00047933655907 125.35603705150442 
135.00047933655907 151.95154055868971 
136.00047933655907 120.38072839144478 
137.00047933655907 111.12175905791872 
138.00047933655907 93.10024774184969 
139.00047933655907 86.25336809413572 
140.00047933655907 73.624445758584 
141.00047933655907 60.55734948037246 
142.00047933655907 43.127127487220285 
143.00047933655907 42.63132314935378 
144.00047933655907 36.35504993851273 
145.00047933655907 30.531251010320215 
146.00047933655907 30.50088767481674 
147.00047933655907 30.482688500675152 
148.00047933655907 30.467748772665892 
149.00047933655907 30.45330911458333 
150.00047933655907 30.422811065297065 
151.00047933655907 30.399652059220678 
152.00047933655907 30.384903145495755 
153.00047933655907 30.376849600935568 
154.00047933655907 30.364486449893903 
155.00047933655907 30.359963007571373 
156.00047933655907 30.35956175974151 
157.00047933655907 30.36008688392168 
158.00047933655907 30.359511703076773 
159.00047933655907 30.359765881799767 
160.00047933655907 30.359813382523146 
161.00047933655907 30.35981312210648 
162.00047933655907 30.360036236496914 
163.00047933655907 30.360036236496914 
164.00047933655907 30.360068118248456 
165.00047933655907 30.3601 
166.00047933655907 30.3601 
167.00047933655907 30.3601 
168.00047933655907 30.3601 
169.00047933655907 30.3601 
170.00047933655907 30.3601 
171.00047933655907 30.3601 
172.00047933655907 30.3601 
173.00047933655907 30.3601 
174.00047933655907 30.3601 
175.00047933655907 30.3601 
176.00047933655907 30.3601 
177.00047933655907 30.3601 
178.00047933655907 30.3601 
179.00047933655907 30.3601 
180.00047933655907 30.3601 
181.00047933655907 30.3601 
182.00047933655907 30.3601 
183.00047933655907 30.3601 
184.00047933655907 30.3601 
185.00047933655907 30.3601 
186.00047933655907 30.3601 
187.00047933655907 30.3601 
188.00047933655907 30.3601 
189.00047933655907 30.3601 
190.00047933655907 30.3601 
191.00047933655907 30.3601 
192.00047933655907 30.3601 
193.00047933655907 30.3601 
194.00047933655907 30.3601 
195.00047933655907 30.3601 
196.00047933655907 30.3601 
197.00047933655907 30.3601 
198.00047933655907 30.3601 
199.00047933655907 30.3601 
200.00047933655907 30.3601 
201.00047933655907 30.3601 
202.00047933655907 30.3601 
203.00047933655907 30.3601 
204.00047933655907 30.3601 
205.00047933655907 30.3601 
206.00047933655907 30.3601 
207.00047933655907 30.3601 
208.00047933655907 30.3601 
209.00047933655907 30.3601 
210.00047933655907 30.3601 
211.00047933655907 30.3601 
212.00047933655907 30.3601 
213.00047933655907 30.3601 
214.00047933655907 30.3601 
215.00047933655907 30.3601 
216.00047933655907 30.3601 
#####################################################################
# End of data export. Simulation finished at: 2017-05-23T01:43+0000 #
#####################################################################
