#####################################################################
# Alchemist log file - simulation started at: 2017-05-24T21:13+0000 #
#####################################################################
# random = 16.0, targets = 1.0, density = 0.3174802103936399, gridShift = 0.0, perturbation = 0.5, connfactor = 0.75
#
# The columns have the following meaning: 
# time se[Mean] 
0.0 NaN 
1.0086259768480754 NaN 
2.0086259768480756 1.1785714285714286 
3.0086259768480756 1.3571428571428572 
4.008625976848076 1.5357142857142858 
5.008625976848076 1.4591836734693877 
6.008625976848076 1.2551020408163267 
7.008625976848076 1.0765306122448979 
8.008625976848077 1.0510204081632653 
9.008625976848077 1.0 
10.008625976848077 0.9910714285714286 
11.008625976848077 0.9910714285714286 
12.008625976848077 0.9375 
13.008625976848077 0.8928571428571429 
14.008625976848077 0.8686224489795917 
15.008625976848077 0.8099489795918366 
16.008625976848077 0.7193877551020409 
17.008625976848077 0.5752551020408165 
18.008625976848077 0.5025510204081632 
19.008625976848077 0.4247448979591835 
20.008625976848077 0.3928571428571429 
21.008625976848077 0.4005102040816327 
22.008625976848077 0.16836734693877556 
23.008625976848077 0.7767857142857143 
24.008625976848077 0.6390306122448978 
25.008625976848077 0.34566326530612246 
26.008625976848077 0.715561224489796 
27.008625976848077 0.6658163265306124 
28.008625976848077 0.9770408163265307 
29.008625976848077 0.6428571428571431 
30.008625976848077 0.3341836734693877 
31.008625976848077 0.31887755102040793 
32.00862597684808 0.10714285714285712 
33.00862597684808 0.10714285714285719 
34.00862597684808 0.001275510204081632 
35.00862597684808 0.0012755102040816317 
36.00862597684808 0.0 
37.00862597684808 0.0 
38.00862597684808 0.0 
39.00862597684808 0.0 
40.00862597684808 0.0 
41.00862597684808 0.0 
42.00862597684808 0.0 
43.00862597684808 0.0 
44.00862597684808 0.0 
#####################################################################
# End of data export. Simulation finished at: 2017-05-24T21:13+0000 #
#####################################################################
