#####################################################################
# Alchemist log file - simulation started at: 2017-05-20T01:51+0000 #
#####################################################################
# random = 0.0, targets = 31.622776601683793, density = 2.519842099789746, gridShift = 0.0, perturbation = 0.0, connfactor = 0.75
#
# The columns have the following meaning: 
# time se[Mean] 
0.0 NaN 
1.0011337332612453 NaN 
2.0011337332612453 1.0040805976964093 
3.0011337332612453 1.0081459140914337 
4.001133733261245 1.0142855383737188 
5.001133733261245 1.0240783292619495 
6.001133733261245 1.0292431829933744 
7.001133733261245 1.0408269997351716 
8.001133733261245 1.0242535599729783 
9.001133733261245 1.0238657758125043 
10.001133733261245 1.0022439368923892 
11.001133733261245 0.9987623715854941 
12.001133733261245 0.9975875209304531 
13.001133733261245 0.9892104169222421 
14.001133733261245 0.9941970417524197 
15.001133733261245 0.9819988415141307 
16.001133733261245 0.9825731456055506 
17.001133733261245 0.9798568359553079 
18.001133733261245 0.9772321634904632 
19.001133733261245 0.9740149285740648 
20.001133733261245 0.970772173344288 
21.001133733261245 0.9696664762185838 
22.001133733261245 0.9667039811363398 
23.001133733261245 0.966202380487564 
24.001133733261245 0.9642138178312462 
25.001133733261245 0.9660271722411107 
26.001133733261245 0.9642318371814211 
27.001133733261245 0.9628948046813858 
28.001133733261245 0.95957531422903 
29.001133733261245 0.9564415581035188 
30.001133733261245 0.9493668774923517 
31.001133733261245 0.9445304090238261 
32.00113373326124 0.9324132500849514 
33.00113373326124 0.9234201599826832 
34.00113373326124 0.9105219707298832 
35.00113373326124 0.9045984056494907 
36.00113373326124 0.888312723919615 
37.00113373326124 0.8822610619676529 
38.00113373326124 0.8598777898557804 
39.00113373326124 0.8422382187047576 
40.00113373326124 0.8278073606887104 
41.00113373326124 0.7978415611546613 
42.00113373326124 0.7966658196503771 
43.00113373326124 0.7602928442967614 
44.00113373326124 0.7473851246001328 
45.00113373326124 0.7154678160819663 
46.00113373326124 0.6842220250035236 
47.00113373326124 0.6629228506467468 
48.00113373326124 0.6268374312407524 
49.00113373326124 0.6036826002197745 
50.00113373326124 0.5809003576169107 
51.00113373326124 0.5483719245390741 
52.00113373326124 0.5393466182013511 
53.00113373326124 0.5099714396337187 
54.00113373326124 0.4950450727084284 
55.00113373326124 0.49029370854549836 
56.00113373326124 0.47215162719261583 
57.00113373326124 0.46032790984637245 
58.00113373326124 0.4548945714654832 
59.00113373326124 0.43658828348795775 
60.00113373326124 0.4436225320281107 
61.00113373326124 0.4314262316628085 
62.00113373326124 0.4202934831156885 
63.00113373326124 0.42578054360636 
64.00113373326124 0.41695468794724 
65.00113373326124 0.4068093841495731 
66.00113373326124 0.40784684485559985 
67.00113373326124 0.4119592641181821 
68.00113373326124 0.411130472533624 
69.00113373326124 0.41693107556160636 
70.00113373326124 0.42687917866038055 
71.00113373326124 0.43121185626210484 
72.00113373326124 0.42692299262608896 
73.00113373326124 0.42599477146913045 
74.00113373326124 0.42406312349358105 
75.00113373326124 0.42523750377125535 
76.00113373326124 0.4251116034832795 
77.00113373326124 0.42529891476295667 
78.00113373326124 0.42529891476295667 
79.00113373326124 0.42529891476295667 
80.00113373326124 0.42529891476295667 
81.00113373326124 0.42529891476295667 
82.00113373326124 0.42529891476295667 
83.00113373326124 0.42529891476295667 
84.00113373326124 0.42529891476295667 
85.00113373326124 0.42529891476295667 
86.00113373326124 0.42529891476295667 
87.00113373326124 0.42529891476295667 
88.00113373326124 0.42529891476295667 
89.00113373326124 0.42529891476295667 
90.00113373326124 0.42529891476295667 
91.00113373326124 0.42529891476295667 
92.00113373326124 0.42529891476295667 
93.00113373326124 0.42529891476295667 
94.00113373326124 0.42529891476295667 
95.00113373326124 0.42529891476295667 
96.00113373326124 0.42529891476295667 
97.00113373326124 0.42529891476295667 
98.00113373326124 0.42529891476295667 
99.00113373326124 0.42529891476295667 
100.00113373326124 0.42529891476295667 
101.00113373326124 0.42529891476295667 
102.00113373326124 0.42529891476295667 
103.00113373326124 0.42529891476295667 
104.00113373326124 0.42529891476295667 
105.00113373326124 0.42529891476295667 
106.00113373326124 0.42529891476295667 
107.00113373326124 0.42529891476295667 
108.00113373326124 0.42529891476295667 
109.00113373326124 0.42529891476295667 
110.00113373326124 0.42529891476295667 
111.00113373326124 0.42529891476295667 
112.00113373326124 0.42529891476295667 
#####################################################################
# End of data export. Simulation finished at: 2017-05-20T01:53+0000 #
#####################################################################
