#####################################################################
# Alchemist log file - simulation started at: 2017-05-24T21:16+0000 #
#####################################################################
# random = 16.0, targets = 1.0, density = 1.7841466528270753, gridShift = 0.0, perturbation = 0.0, connfactor = 2.0
#
# The columns have the following meaning: 
# time se[Mean] 
0.0 NaN 
1.0066017814354276 NaN 
2.0066017814354273 1.0 
3.0066017814354273 1.0025 
4.006601781435427 1.015 
5.006601781435427 1.025 
6.006601781435427 1.0375 
7.006601781435427 1.04 
8.006601781435428 1.0375 
9.006601781435428 1.0225 
10.006601781435428 1.0175 
11.006601781435428 1.01 
12.006601781435428 1.01 
13.006601781435428 1.0025 
14.006601781435428 1.0025 
15.006601781435428 1.0 
16.006601781435428 1.0 
17.006601781435428 1.0 
18.006601781435428 1.0 
19.006601781435428 1.0 
20.006601781435428 1.0 
21.006601781435428 1.0 
22.006601781435428 1.0 
23.006601781435428 1.0 
24.006601781435428 1.0 
25.006601781435428 1.0 
26.006601781435428 1.0 
27.006601781435428 1.0 
28.006601781435428 1.0 
29.006601781435428 1.0 
30.006601781435428 0.9955555555555555 
31.006601781435428 0.9822222222222222 
32.00660178143543 0.9566666666666667 
33.00660178143543 0.9147222222222222 
34.00660178143543 0.8630555555555556 
35.00660178143543 0.8030555555555554 
36.00660178143543 0.7647222222222224 
37.00660178143543 0.7069444444444445 
38.00660178143543 0.6369444444444448 
39.00660178143543 0.5852777777777778 
40.00660178143543 0.8717901234567899 
41.00660178143543 1.5200925925925937 
42.00660178143543 2.8347530864197474 
43.00660178143543 5.2045061728395074 
44.00660178143543 7.9368827160493876 
45.00660178143543 8.238395061728392 
46.00660178143543 7.857716049382718 
47.00660178143543 11.267839506172841 
48.00660178143543 13.651203703703704 
49.00660178143543 13.6262037037037 
50.00660178143543 14.973086419753072 
51.00660178143543 14.96141975308643 
52.00660178143543 15.646111111111091 
53.00660178143543 12.866234567901234 
54.00660178143543 11.461296296296295 
55.00660178143543 11.105339506172838 
56.00660178143543 11.100061728395058 
57.00660178143543 9.710401234567898 
58.00660178143543 5.550030864197526 
59.00660178143543 2.4275308641975277 
60.00660178143543 1.7350617283950576 
61.00660178143543 0.0 
62.00660178143543 0.0 
63.00660178143543 0.0 
64.00660178143542 0.0 
65.00660178143542 0.0 
66.00660178143542 0.0 
67.00660178143542 0.0 
68.00660178143542 0.0 
69.00660178143542 0.0 
70.00660178143542 0.0 
71.00660178143542 0.0 
72.00660178143542 0.0 
73.00660178143542 0.0 
74.00660178143542 0.0 
75.00660178143542 0.0 
76.00660178143542 0.0 
77.00660178143542 0.0 
78.00660178143542 0.0 
79.00660178143542 0.0 
80.00660178143542 0.0 
81.00660178143542 0.0 
82.00660178143542 0.0 
83.00660178143542 0.0 
84.00660178143542 0.0 
85.00660178143542 0.0 
86.00660178143542 0.0 
87.00660178143542 0.0 
88.00660178143542 0.0 
89.00660178143542 0.0 
#####################################################################
# End of data export. Simulation finished at: 2017-05-24T21:17+0000 #
#####################################################################
