#####################################################################
# Alchemist log file - simulation started at: 2017-05-24T17:47+0000 #
#####################################################################
# random = 15.0, targets = 31.622776601683793, density = 10.026386447354522, gridShift = 0.0, perturbation = 0.0, connfactor = 2.0
#
# The columns have the following meaning: 
# time se[Mean] 
0.0 NaN 
1.0001976518064393 NaN 
2.000197651806439 1.0370353593447912 
3.000197651806439 1.0580817030146654 
4.000197651806439 1.087907947108011 
5.000197651806439 1.1139277978000506 
6.000197651806439 1.140969209002002 
7.000197651806439 1.1816127533106655 
8.000197651806438 1.1816220991782769 
9.000197651806438 1.2169964882708406 
10.000197651806438 1.1787378248372467 
11.000197651806438 1.2217478641851867 
12.000197651806438 1.1918350684864827 
13.000197651806438 1.2052950881289317 
14.000197651806438 1.184038333440456 
15.000197651806438 1.1666263578402682 
16.000197651806438 1.1498753975025495 
17.000197651806438 1.120391138162026 
18.000197651806438 1.1218995591137562 
19.000197651806438 1.0982065559242034 
20.000197651806438 1.0790012226140826 
21.000197651806438 1.069597013318314 
22.000197651806438 1.0444058931852047 
23.000197651806438 1.0411794811956365 
24.000197651806438 1.0127967252439714 
25.000197651806438 0.9850063805959398 
26.000197651806438 0.9679578881233907 
27.000197651806438 0.9611586159973846 
28.000197651806438 0.9601730461807916 
29.000197651806438 0.9585766790343827 
30.000197651806438 0.961128059061804 
31.000197651806438 0.9608814048313357 
32.00019765180644 0.9651383133227966 
33.00019765180644 0.9640328911278296 
34.00019765180644 0.9672187103288442 
35.00019765180644 0.9673353508046473 
36.00019765180644 0.9636505932721162 
37.00019765180644 0.9690878251648617 
38.00019765180644 0.967517049125039 
39.00019765180644 0.9687243017476329 
40.00019765180644 0.9634663342275464 
41.00019765180644 0.9602055276466406 
42.00019765180644 0.9587178521323172 
43.00019765180644 0.9529239898633572 
44.00019765180644 0.959613180383399 
45.00019765180644 0.9523399579147371 
46.00019765180644 0.9603956490954475 
47.00019765180644 0.9576778658480143 
48.00019765180644 0.9595370224422047 
49.00019765180644 0.9694454593035489 
50.00019765180644 0.9713252255628888 
51.00019765180644 0.9913552429933279 
52.00019765180644 0.9892329004235122 
53.00019765180644 0.9913099376126003 
54.00019765180644 0.9891657123525418 
55.00019765180644 0.9781579834762822 
56.00019765180644 0.9645022700732034 
57.00019765180644 0.9520197588217143 
58.00019765180644 0.941458020879698 
59.00019765180644 0.9418500902949871 
60.00019765180644 0.9377703913828705 
61.00019765180644 0.9344609162973568 
62.00019765180644 0.9337932514016387 
63.00019765180644 0.9198499565611855 
64.00019765180645 0.9207010336003337 
65.00019765180645 0.919348342540211 
66.00019765180645 0.9022755277771132 
67.00019765180645 0.8808240126834243 
68.00019765180645 0.836496401841463 
69.00019765180645 0.793007700441751 
70.00019765180645 0.7528791649432798 
71.00019765180645 0.731178682226879 
72.00019765180645 0.7098376263932679 
73.00019765180645 0.6882040014398607 
74.00019765180645 0.6651166211475107 
75.00019765180645 0.6457187934927358 
76.00019765180645 0.6269931026254435 
77.00019765180645 0.6244462816176565 
78.00019765180645 0.5878301562617074 
79.00019765180645 0.5824640630728325 
80.00019765180645 0.5439480410351624 
81.00019765180645 0.5200698813627664 
82.00019765180645 0.48391963959107615 
83.00019765180645 0.4467756928036059 
84.00019765180645 0.4064130938791398 
85.00019765180645 0.3713075193605772 
86.00019765180645 0.34115910332398924 
87.00019765180645 0.31146138166577064 
88.00019765180645 0.2840400632740035 
89.00019765180645 0.273126195032707 
90.00019765180645 0.26046951979204797 
91.00019765180645 0.25156973512106956 
92.00019765180645 0.24445580066400177 
93.00019765180645 0.23114727902539792 
94.00019765180645 0.22749291352001944 
95.00019765180645 0.22110834778737004 
96.00019765180645 0.21218962655688373 
97.00019765180645 0.2111934411368243 
98.00019765180645 0.20401510871795744 
99.00019765180645 0.2028261506370744 
100.00019765180645 0.2018476303518107 
101.00019765180645 0.1999635722258263 
102.00019765180645 0.1997118956768721 
103.00019765180645 0.1960745342774193 
104.00019765180645 0.18944234935461368 
105.00019765180645 0.1910005821455643 
106.00019765180645 0.1874130099363734 
107.00019765180645 0.1850387055268383 
108.00019765180645 0.18316245336690481 
109.00019765180645 0.1803532899264993 
110.00019765180645 0.17734283903549275 
111.00019765180645 0.17513419824842447 
112.00019765180645 0.17207538735438785 
113.00019765180645 0.17026565309737965 
114.00019765180645 0.1687293084127793 
115.00019765180645 0.16772046316792077 
116.00019765180645 0.16727442229331824 
117.00019765180645 0.16607871209118621 
118.00019765180645 0.16475322671350615 
119.00019765180645 0.16349399136843906 
120.00019765180645 0.16207511280786793 
121.00019765180645 0.16119077030117615 
122.00019765180645 0.16036276489808282 
123.00019765180645 0.15997310163405873 
124.00019765180645 0.15981237995339329 
125.00019765180645 0.15959692916885315 
126.00019765180645 0.15952476800148316 
127.00019765180645 0.15947406773748296 
128.00019765180645 0.15940633145836977 
129.00019765180645 0.15937132840069757 
130.00019765180645 0.1593383656108452 
131.00019765180645 0.15933448913601558 
132.00019765180645 0.15933448913601558 
133.00019765180645 0.15933448913601558 
134.00019765180645 0.15933448913601558 
135.00019765180645 0.15933448913601558 
136.00019765180645 0.15933448913601558 
137.00019765180645 0.15933448913601558 
138.00019765180645 0.15933448913601558 
139.00019765180645 0.15933448913601558 
140.00019765180645 0.15933448913601558 
141.00019765180645 0.15933448913601558 
142.00019765180645 0.15933448913601558 
143.00019765180645 0.15933448913601558 
144.00019765180645 0.15933448913601558 
145.00019765180645 0.15933448913601558 
146.00019765180645 0.15933448913601558 
147.00019765180645 0.15933448913601558 
148.00019765180645 0.15933448913601558 
149.00019765180645 0.15933448913601558 
150.00019765180645 0.15933448913601558 
151.00019765180645 0.15933448913601558 
152.00019765180645 0.15933448913601558 
153.00019765180645 0.15933448913601558 
154.00019765180645 0.15933448913601558 
155.00019765180645 0.15933448913601558 
156.00019765180645 0.15933448913601558 
157.00019765180645 0.15933448913601558 
158.00019765180645 0.15933448913601558 
159.00019765180645 0.15933448913601558 
160.00019765180645 0.15933448913601558 
161.00019765180645 0.15933448913601558 
162.00019765180645 0.15933448913601558 
163.00019765180645 0.15933448913601558 
164.00019765180645 0.15933448913601558 
165.00019765180645 0.15933448913601558 
166.00019765180645 0.15933448913601558 
167.00019765180645 0.15933448913601558 
168.00019765180645 0.15933448913601558 
169.00019765180645 0.15933448913601558 
170.00019765180645 0.15933448913601558 
171.00019765180645 0.15933448913601558 
172.00019765180645 0.15933448913601558 
173.00019765180645 0.15933448913601558 
174.00019765180645 0.15933448913601558 
175.00019765180645 0.15933448913601558 
176.00019765180645 0.15933448913601558 
177.00019765180645 0.15933448913601558 
178.00019765180645 0.15933448913601558 
179.00019765180645 0.15933448913601558 
180.00019765180645 0.15933448913601558 
181.00019765180645 0.15933448913601558 
182.00019765180645 0.15933448913601558 
183.00019765180645 0.15933448913601558 
184.00019765180645 0.15933448913601558 
185.00019765180645 0.15933448913601558 
186.00019765180645 0.15933448913601558 
187.00019765180645 0.15933448913601558 
188.00019765180645 0.15933448913601558 
189.00019765180645 0.15933448913601558 
190.00019765180645 0.15933448913601558 
191.00019765180645 0.15933448913601558 
192.00019765180645 0.15933448913601558 
193.00019765180645 0.15933448913601558 
194.00019765180645 0.15933448913601558 
195.00019765180645 0.15933448913601558 
196.00019765180645 0.15933448913601558 
197.00019765180645 0.15933448913601558 
198.00019765180645 0.15933448913601558 
199.00019765180645 0.15933448913601558 
200.00019765180645 0.15933448913601558 
201.00019765180645 0.15933448913601558 
202.00019765180645 0.15933448913601558 
203.00019765180645 0.15933448913601558 
204.00019765180645 0.15933448913601558 
205.00019765180645 0.15933448913601558 
#####################################################################
# End of data export. Simulation finished at: 2017-05-24T17:49+0000 #
#####################################################################
