0.000000000000000000e+00 nan
1.000006048906275202e+00 1.040596282921677496e-01
2.000012097812550405e+00 9.358301555855210729e-01
3.000018146718824052e+00 9.572438084195671326e-01
4.000024195625100809e+00 9.549034218854265399e-01
5.000030244531374457e+00 9.567002208478279091e-01
6.000036293437648105e+00 9.562077917902290780e-01
7.000042342343927970e+00 9.554999029912715214e-01
8.000048391250201618e+00 9.549720524946828659e-01
9.000054440156475266e+00 9.543190632779432470e-01
1.000006048906274891e+01 9.534028241724604724e-01
1.100006653796902079e+01 9.526823848663643624e-01
1.200007258687529621e+01 9.516262514540175799e-01
1.300007863578156808e+01 9.504660347563855805e-01
1.400008468468785594e+01 9.496378022716637224e-01
1.500009073359412426e+01 9.481828292363868593e-01
1.600009678250040324e+01 9.472370044062518035e-01
1.700010283140666800e+01 9.457806565840936042e-01
1.800010888031295053e+01 9.443276519653541756e-01
1.900011492921923661e+01 9.431027929206030613e-01
2.000012097812549783e+01 9.415178966756045931e-01
2.100012702703178036e+01 9.402237792084072732e-01
2.200013307593804157e+01 9.389549346715326816e-01
2.300013912484433476e+01 9.374996169618067254e-01
2.400014517375059242e+01 9.362216538365862872e-01
2.500015122265687850e+01 9.350189228367252747e-01
2.600015727156313616e+01 9.335211173551580810e-01
2.700016332046942935e+01 9.324433285114653858e-01
2.800016936937571188e+01 9.314586107599436282e-01
2.900017541828197309e+01 9.298600627291370158e-01
3.000018146718824852e+01 9.288374623676204367e-01
3.100018751609452750e+01 9.273457682897305876e-01
3.200019356500080647e+01 9.261180039805818609e-01
3.300019961390706413e+01 9.251095054869916678e-01
3.400020566281333601e+01 9.237241103681582688e-01
3.500021171171962919e+01 9.226172219183754741e-01
3.600021776062590106e+01 9.214764267314347057e-01
3.700022380953215162e+01 9.201807467032278032e-01
3.800022985843847323e+01 9.187572030666077971e-01
3.900023590734473800e+01 9.176753355586818595e-01
4.000024195625099566e+01 9.160847454820774116e-01
4.100024800515726042e+01 9.144848748404470484e-01
4.200025405406356072e+01 9.134420863677586988e-01
4.300026010296982548e+01 9.120089787372765988e-01
4.400026615187608314e+01 9.107529922680864809e-01
4.500027220078234791e+01 9.091092835753414869e-01
4.600027824968866952e+01 9.074433793605843901e-01
4.700028429859492718e+01 9.061682003271936958e-01
4.800029034750118484e+01 9.048139868256105389e-01
4.900029639640749224e+01 9.031491470847651248e-01
5.000030244531375700e+01 9.013415639979348581e-01
5.100030849422001467e+01 8.994063242377073886e-01
5.200031454312627233e+01 8.973560419833632729e-01
5.300032059203257973e+01 8.947061102427337209e-01
5.400032664093885870e+01 8.928706516194058196e-01
5.500033268984511636e+01 8.902381830744403590e-01
5.600033873875142376e+01 8.873463544226182220e-01
5.700034478765768853e+01 8.841479717280311679e-01
5.800035083656394619e+01 8.813234350186651689e-01
5.900035688547020385e+01 8.786783281594477968e-01
6.000036293437649704e+01 8.753486803930166094e-01
6.100036898328275470e+01 8.725345422609815937e-01
6.200037503218905499e+01 8.688707960706362199e-01
6.300038108109536239e+01 8.652943911657717813e-01
6.400038713000161295e+01 8.624359402321537527e-01
6.500039317890787061e+01 8.585114061978849076e-01
6.600039922781412827e+01 8.550423590479344638e-01
6.700040527672041435e+01 8.520287288770546086e-01
6.800041132562667201e+01 8.483926886693432534e-01
6.900041737453300073e+01 8.448220655497997722e-01
7.000042342343925839e+01 8.411480971631818404e-01
7.100042947234554447e+01 8.385352612604535238e-01
7.200043552125180213e+01 8.341563318997089471e-01
7.300044157015805979e+01 8.312823635600884442e-01
7.400044761906430324e+01 8.273569311424502359e-01
7.500045366797058932e+01 8.240641211546141376e-01
7.600045971687694646e+01 8.199144927674617556e-01
7.700046576578318991e+01 8.172760810449536395e-01
7.800047181468947599e+01 8.140858064794870286e-01
7.900047786359571944e+01 8.115644070429748336e-01
8.000048391250199131e+01 8.087255709863847564e-01
8.100048996140823476e+01 8.055194444949038690e-01
8.200049601031452084e+01 8.034400122769475017e-01
8.300050205922076429e+01 8.005333189673454752e-01
8.400050810812712143e+01 7.982524890185359601e-01
8.500051415703340751e+01 7.950328875711406562e-01
8.600052020593965096e+01 7.949877792425440459e-01
8.700052625484592284e+01 7.919637650568378540e-01
8.800053230375216629e+01 7.899945288937150201e-01
8.900053835265845237e+01 7.857189630098718736e-01
9.000054440156469582e+01 7.858217541418718310e-01
9.100055045047105295e+01 7.826603484358490848e-01
9.200055649937733904e+01 7.789549271474676129e-01
9.300056254828358249e+01 7.780259784652948651e-01
9.400056859718985436e+01 7.762931458345246893e-01
9.500057464609609781e+01 7.754287302697396855e-01
9.600058069500236968e+01 7.686700210140181566e-01
9.700058674390862734e+01 7.709827776084768880e-01
9.800059279281498448e+01 7.680369161101203712e-01
9.900059884172124214e+01 7.647947434777204734e-01
1.000006048906275140e+02 7.654130806259242803e-01
1.010006109395337575e+02 7.670769006620479225e-01
1.020006169884400293e+02 7.631523361298820918e-01
1.030006230373463154e+02 7.583757593994338020e-01
1.040006290862525447e+02 7.628551571314787783e-01
1.050006351351589302e+02 7.600388236055407587e-01
1.060006411840651595e+02 7.555964841764010176e-01
1.070006472329714455e+02 7.595090540037094939e-01
1.080006532818777174e+02 7.536221725439568031e-01
1.090006593307839609e+02 7.530655250019973046e-01
1.100006653796902327e+02 7.519446288079388863e-01
1.110006714285964762e+02 7.503425922354680644e-01
1.120006774775028475e+02 7.501230674921017805e-01
1.130006835264090626e+02 7.515359272159721771e-01
1.140006895753153771e+02 7.447989350288772847e-01
1.150006956242215779e+02 7.487428161061064902e-01
1.160007016731278924e+02 7.450055949555131063e-01
1.170007077220341785e+02 7.395245517349010589e-01
1.180007137709404077e+02 7.472093210153690768e-01
1.190007198198467933e+02 7.517075957504332218e-01
1.200007258687529941e+02 7.434486514689090386e-01
1.210007319176593086e+02 7.478388516884186821e-01
1.220007379665655094e+02 7.454339508799487923e-01
1.230007440154718239e+02 7.456367851825326243e-01
1.240007500643781100e+02 7.437208986413345047e-01
1.250007561132843392e+02 7.449021323140904149e-01
1.260007621621907248e+02 7.481791669599655581e-01
1.270007682110969114e+02 7.490093512282535171e-01
1.280007742600032259e+02 7.427504916988990624e-01
1.290007803089094125e+02 7.552202851001967865e-01
1.300007863578157412e+02 7.443088807941496965e-01
1.310007924067220699e+02 7.674089222599893567e-01
1.320007984556282565e+02 7.541399895384178764e-01
1.330008045045346705e+02 7.682455667407673827e-01
1.340008105534408287e+02 7.735485962691797113e-01
1.350008166023471574e+02 7.633251481407739014e-01
1.360008226512533440e+02 7.741885354920703399e-01
1.370008287001596727e+02 7.803863113280460340e-01
1.380008347490660015e+02 7.829352300460820091e-01
1.390008407979721881e+02 7.794762620696044086e-01
1.400008468468785168e+02 7.973197418263239244e-01
1.410008528957846750e+02 7.934278158440076778e-01
1.420008589446910889e+02 7.973150068106011901e-01
1.430008649935972755e+02 8.081045365080236076e-01
1.440008710425036043e+02 8.087894976809245629e-01
1.450008770914099330e+02 8.038109679833804755e-01
1.460008831403161196e+02 8.045559186097333004e-01
1.470008891892224483e+02 8.319811991950524233e-01
1.480008952381286065e+02 8.209986886132309980e-01
1.490009012870350205e+02 8.271742266579029668e-01
1.500009073359411786e+02 8.483430249616464858e-01
1.510009133848475358e+02 8.266438270355007667e-01
1.520009194337538929e+02 8.449179432377565968e-01
1.530009254826600511e+02 8.236476322284292939e-01
1.540009315315663798e+02 8.715440027773230236e-01
1.550009375804725380e+02 8.559694355029933144e-01
1.560009436293789520e+02 8.540783012870906132e-01
1.570009496782851102e+02 8.808850893982428376e-01
1.580009557271914389e+02 8.959152294596349764e-01
1.590009617760978244e+02 9.112651579938788604e-01
1.600009678250039826e+02 9.336778147388375970e-01
1.610009738739103113e+02 9.657336091499558739e-01
1.620009799228164695e+02 1.000418267540992945e+00
1.630009859717228835e+02 1.043356703703814059e+00
1.640009920206290417e+02 1.043567284680440466e+00
1.650009980695353704e+02 1.095924438330651451e+00
1.660010041184415286e+02 1.145635453498941914e+00
1.670010101673479141e+02 1.108746545276102946e+00
1.680010162162542429e+02 1.146073975449947824e+00
1.690010222651604010e+02 1.211773164474396092e+00
1.700010283140668150e+02 1.162673012059912026e+00
1.710010343629729732e+02 1.279868838759110394e+00
1.720010404118793019e+02 1.281865015424687559e+00
1.730010464607856875e+02 1.263760006077973230e+00
1.740010525096918457e+02 1.296457945239656295e+00
1.750010585585981744e+02 1.338947817361490600e+00
1.760010646075043326e+02 1.252669658387526974e+00
1.770010706564107466e+02 1.379770204714376725e+00
1.780010767053169047e+02 1.385759890170009223e+00
1.790010827542232335e+02 1.351752558009533312e+00
1.800010888031293916e+02 1.405374621782700784e+00
1.810010948520357772e+02 1.511599353846028837e+00
1.820011009009421059e+02 1.455909873945715471e+00
1.830011069498482641e+02 1.435166846482184067e+00
1.840011129987546781e+02 1.620992681000840374e+00
1.850011190476608363e+02 1.471058538808606597e+00
1.860011250965671650e+02 1.623057394664854103e+00
1.870011311454733232e+02 1.588940017593503118e+00
1.880011371943797087e+02 1.513357186079906436e+00
1.890011432432860374e+02 1.674175513486870548e+00
1.900011492921921956e+02 1.514201362133277717e+00
1.910011553410986096e+02 1.598503819707050022e+00
1.920011613900047394e+02 1.619424917139042464e+00
1.930011674389110965e+02 1.631105067541358755e+00
1.940011734878172547e+02 1.665565530064467614e+00
1.950011795367236118e+02 1.737370134459908178e+00
1.960011855856299690e+02 1.631781029809419525e+00
1.970011916345361271e+02 1.667319726191548890e+00
1.980011976834424843e+02 1.581379413316594151e+00
1.990012037323486709e+02 1.635240808663696255e+00
2.000012097812550280e+02 1.674468673616741121e+00
2.010012158301611862e+02 1.668700677625197804e+00
2.020012218790675149e+02 1.796294542482793410e+00
2.030012279279739005e+02 1.831188577747287605e+00
2.040012339768800587e+02 1.842566651774321551e+00
2.050012400257864158e+02 1.903897238669261860e+00
2.060012460746926308e+02 1.893656782316165854e+00
2.070012521235989027e+02 1.972302785374742351e+00
2.080012581725050893e+02 2.090417681133443395e+00
2.090012642214114749e+02 2.062632397317642141e+00
2.100012702703178604e+02 2.333903678221786571e+00
2.110012763192240470e+02 1.999418912238607682e+00
2.120012823681303189e+02 2.092415183999634554e+00
2.130012884170364771e+02 2.167708213446710275e+00
2.140012944659428911e+02 2.241497714067056890e+00
2.150013005148490493e+02 2.161385741163464935e+00
2.160013065637554348e+02 2.108016090871306147e+00
2.170013126126617067e+02 2.159575975695411376e+00
2.180013186615679217e+02 2.187994415894950695e+00
2.190013247104742788e+02 2.289858616684294024e+00
2.200013307593804655e+02 2.028141140079828819e+00
2.210013368082867657e+02 2.151373549464132395e+00
2.220013428571929524e+02 2.215683161910152243e+00
2.230013489060993095e+02 2.098699554628274289e+00
2.240013549550056950e+02 2.239283605926443155e+00
2.250013610039119101e+02 2.155014534853741726e+00
2.260013670528181251e+02 2.168726149490503463e+00
2.270013731017243401e+02 2.016677638131459283e+00
2.280013791506307541e+02 2.064115976724977042e+00
2.290013851995369691e+02 1.907677930798357790e+00
2.300013912484431557e+02 1.859810895819584475e+00
2.310013972973493708e+02 1.889888563228147467e+00
2.320014033462557848e+02 1.927222508468471096e+00
2.330014093951621419e+02 1.832483852402664093e+00
2.340014154440683569e+02 1.849659925251678994e+00
2.350014214929746004e+02 1.837500569357649161e+00
2.360014275418808154e+02 1.941269892134391162e+00
2.370014335907871725e+02 1.895416728049593047e+00
2.380014396396935865e+02 1.720544704795243129e+00
2.390014456885998015e+02 1.943012102210807557e+00
2.400014517375059881e+02 1.750426277612383119e+00
2.410014577864122032e+02 1.787378942747223753e+00
2.420014638353186172e+02 1.752891476310824093e+00
2.430014698842248606e+02 1.713269706942656123e+00
2.440014759331310188e+02 1.552671751703434744e+00
2.450014819820372338e+02 1.522161919677847086e+00
2.460014880309436478e+02 1.372376773496809532e+00
2.470014940798500049e+02 1.339756518597334356e+00
2.480015001287562200e+02 1.336619622586439737e+00
2.490015061776624634e+02 1.118859669099352194e+00
2.500015122265686784e+02 1.063931658964586413e+00
2.510015182754750356e+02 1.067287821957591865e+00
2.520015243243814496e+02 8.660335276914671310e-01
2.530015303732876646e+02 8.929125650245300916e-01
2.540015364221938228e+02 9.141627831247803870e-01
2.550015424711000662e+02 7.311799206157888475e-01
2.560015485200064518e+02 7.567059853653812507e-01
2.570015545689127521e+02 6.672459715333807218e-01
2.580015606178188250e+02 6.984876307617956526e-01
2.590015666667250684e+02 6.710647264387999966e-01
2.600015727156314824e+02 6.504272516061572196e-01
2.610015787645378964e+02 6.141631154855301533e-01
2.620015848134441399e+02 6.268076209534445553e-01
2.630015908623502696e+02 6.474538401017984057e-01
2.640015969112565131e+02 6.114960334921047957e-01
2.650016029601628702e+02 6.004943084821313670e-01
2.660016090090693410e+02 5.766155709361734383e-01
2.670016150579755276e+02 5.423503228546003863e-01
2.680016211068816574e+02 5.266470727580769839e-01
2.690016271557879577e+02 4.897688252029022138e-01
2.700016332046943148e+02 5.071884638841741566e-01
2.710016392536005583e+02 5.046293138026792802e-01
2.720016453025066880e+02 4.968674679251219306e-01
2.730016513514129315e+02 5.072960356535500814e-01
2.740016574003193455e+02 5.159517920598394314e-01
2.750016634492257595e+02 5.063744659139589599e-01
2.760016694981320029e+02 4.976857559899780514e-01
2.770016755470381327e+02 5.231889538479307378e-01
2.780016815959443761e+02 5.155664673910925755e-01
2.790016876448507332e+02 5.105940257577170627e-01
2.800016936937570335e+02 5.257775293046539344e-01
2.810016997426631633e+02 4.950635510179540177e-01
2.820017057915693499e+02 5.265318884019690726e-01
2.830017118404758207e+02 4.884625745662993790e-01
2.840017178893821779e+02 4.689264132737779311e-01
2.850017239382884213e+02 4.925705945677543718e-01
2.860017299871945511e+02 4.674987931317096113e-01
2.870017360361007945e+02 4.579331664050488859e-01
2.880017420850072085e+02 4.390341114433811698e-01
2.890017481339136225e+02 4.412789855601479960e-01
2.900017541828198659e+02 4.371029401384586288e-01
2.910017602317259389e+02 4.343038174029077436e-01
2.920017662806322392e+02 4.305134255656828390e-01
2.930017723295385963e+02 4.209573101226358194e-01
2.940017783784448966e+02 4.183513692330544376e-01
2.950017844273512537e+02 3.992035176308650346e-01
2.960017904762572130e+02 4.074201705064121604e-01
2.970017965251636838e+02 3.872413652206047052e-01
2.980018025740700409e+02 3.892979729918221721e-01
2.990018086229763412e+02 3.795777697574261311e-01
3.000018146718823573e+02 3.773126071814196791e-01
3.010018207207886576e+02 3.794223406874964732e-01
3.020018267696950716e+02 3.750338974093400668e-01
3.030018328186014855e+02 3.728753412562132996e-01
3.040018388675077858e+02 3.683245744022651258e-01
3.050018449164138019e+02 3.661239596724079615e-01
3.060018509653201022e+02 3.662630840051596670e-01
3.070018570142264593e+02 3.659055521906930397e-01
3.080018630631327596e+02 3.660739114497039148e-01
3.090018691120387757e+02 3.658479244962851151e-01
3.100018751609450760e+02 3.658556261604879456e-01
3.110018812098515468e+02 3.658997916585326471e-01
3.120018872587579040e+02 3.657895923777821912e-01
3.130018933076642043e+02 3.657403237708301558e-01
3.140018993565702203e+02 3.656356033114553927e-01
3.150019054054765206e+02 3.655871486991406072e-01
3.160019114543828778e+02 3.655878531232356621e-01
3.170019175032893486e+02 3.655870391285984677e-01
3.180019235521956489e+02 3.655870391285984677e-01
3.190019296011016650e+02 3.655870391285984677e-01
3.200019356500079653e+02 3.655870391285984677e-01
3.210019416989143224e+02 3.655870391285984677e-01
3.220019477478206227e+02 3.655870391285984677e-01
3.230019537967266388e+02 3.655870391285984677e-01
3.240019598456329391e+02 3.655870391285984677e-01
3.250019658945393530e+02 3.655870391285984677e-01
3.260019719434457670e+02 3.655870391285984677e-01
3.270019779923520673e+02 3.655870391285984677e-01
3.280019840412580834e+02 3.655870391285984677e-01
3.290019900901643837e+02 3.655870391285984677e-01
3.300019961390707408e+02 3.655870391285984677e-01
3.310020021879772116e+02 3.655870391285984677e-01
3.320020082368830572e+02 3.655870391285984677e-01
3.330020142857895280e+02 3.655870391285984677e-01
3.340020203346958283e+02 3.655870391285984677e-01
3.350020263836021854e+02 3.655870391285984677e-01
3.360020324325084857e+02 3.655870391285984677e-01
3.370020384814145018e+02 3.655870391285984677e-01
3.380020445303208021e+02 3.655870391285984677e-01
3.390020505792272161e+02 3.655870391285984677e-01
3.400020566281336301e+02 3.655870391285984677e-01
3.410020626770399303e+02 3.655870391285984677e-01
3.420020687259459464e+02 3.655870391285984677e-01
3.430020747748522467e+02 3.655870391285984677e-01
3.440020808237586039e+02 3.655870391285984677e-01
3.450020868726649041e+02 3.655870391285984677e-01
3.460020929215713750e+02 3.655870391285984677e-01
3.470020989704772205e+02 3.655870391285984677e-01
3.480021050193836913e+02 3.655870391285984677e-01
3.490021110682900485e+02 3.655870391285984677e-01
3.500021171171963488e+02 3.655870391285984677e-01
3.510021231661023648e+02 3.655870391285984677e-01
3.520021292150086651e+02 3.655870391285984677e-01
3.530021352639150791e+02 3.655870391285984677e-01
3.540021413128214931e+02 3.655870391285984677e-01
3.550021473617277934e+02 3.655870391285984677e-01
3.560021534106338095e+02 3.655870391285984677e-01
3.570021594595401098e+02 3.655870391285984677e-01
3.580021655084464669e+02 3.655870391285984677e-01
3.590021715573527672e+02 3.655870391285984677e-01
3.600021776062587833e+02 3.655870391285984677e-01
3.610021836551650836e+02 3.655870391285984677e-01
3.620021897040715544e+02 3.655870391285984677e-01
3.630021957529779115e+02 3.655870391285984677e-01
3.640022018018842118e+02 3.655870391285984677e-01
3.650022078507902279e+02 3.655870391285984677e-01
3.660022138996965282e+02 3.655870391285984677e-01
3.670022199486029422e+02 3.655870391285984677e-01
3.680022259975093561e+02 3.655870391285984677e-01
3.690022320464156564e+02 3.655870391285984677e-01
3.700022380953216725e+02 3.655870391285984677e-01
3.710022441442279728e+02 3.655870391285984677e-01
3.720022501931343299e+02 3.655870391285984677e-01
3.730022562420406871e+02 3.655870391285984677e-01
3.740022622909466463e+02 3.655870391285984677e-01
3.750022683398529466e+02 3.655870391285984677e-01
3.760022743887594174e+02 3.655870391285984677e-01
3.770022804376657746e+02 3.655870391285984677e-01
3.780022864865720749e+02 3.655870391285984677e-01
3.790022925354780909e+02 3.655870391285984677e-01
3.800022985843843912e+02 3.655870391285984677e-01
3.810023046332907484e+02 3.655870391285984677e-01
3.820023106821972192e+02 3.655870391285984677e-01
3.830023167311030647e+02 3.655870391285984677e-01
3.840023227800094787e+02 3.655870391285984677e-01
3.850023288289158359e+02 3.655870391285984677e-01
3.860023348778221930e+02 3.655870391285984677e-01
3.870023409267285501e+02 3.655870391285984677e-01
3.880023469756345094e+02 3.655870391285984677e-01
3.890023530245408097e+02 3.655870391285984677e-01
3.900023590734472236e+02 3.655870391285984677e-01
3.910023651223536376e+02 3.655870391285984677e-01
3.920023711712599379e+02 3.655870391285984677e-01
3.930023772201659540e+02 3.655870391285984677e-01
3.940023832690722543e+02 3.655870391285984677e-01
3.950023893179786114e+02 3.655870391285984677e-01
3.960023953668849686e+02 3.655870391285984677e-01
3.970024014157913825e+02 3.655870391285984677e-01
3.980024074646973418e+02 3.655870391285984677e-01
3.990024135136036989e+02 3.655870391285984677e-01
4.000024195625100560e+02 3.655870391285984677e-01
4.010024256114163563e+02 3.655870391285984677e-01
4.020024316603223724e+02 3.655870391285984677e-01
4.030024377092286727e+02 3.655870391285984677e-01
4.040024437581350298e+02 3.655870391285984677e-01
4.050024498070415007e+02 3.655870391285984677e-01
4.060024558559478010e+02 3.655870391285984677e-01
4.070024619048538170e+02 3.655870391285984677e-01
4.080024679537601173e+02 3.655870391285984677e-01
4.090024740026664745e+02 3.655870391285984677e-01
4.100024800515728316e+02 3.655870391285984677e-01
4.110024861004787908e+02 3.655870391285984677e-01
4.120024921493852617e+02 3.655870391285984677e-01
4.130024981982915619e+02 3.655870391285984677e-01
4.140025042471978054e+02 3.655870391285984677e-01
4.150025102961042762e+02 3.655870391285984677e-01
4.160025163450101786e+02 3.655870391285984677e-01
4.170025223939166494e+02 3.655870391285984677e-01
4.180025284428229497e+02 3.655870391285984677e-01
4.190025344917292500e+02 3.655870391285984677e-01
4.200025405406357208e+02 3.655870391285984677e-01
4.210025465895416232e+02 3.655870391285984677e-01
4.220025526384480941e+02 3.655870391285984677e-01
4.230025586873543375e+02 3.655870391285984677e-01
