#####################################################################
# Alchemist log file - simulation started at: 2017-05-24T20:08+0000 #
#####################################################################
# random = 15.0, targets = 100.0, density = 14.160781367816199, gridShift = 1.0, perturbation = 0.0, connfactor = 0.75
#
# The columns have the following meaning: 
# time se[Mean] 
0.0 NaN 
1.0001976518064393 NaN 
2.000197651806439 1.0004448247354498 
3.000197651806439 1.0007288010728983 
4.000197651806439 1.0005383524397413 
5.000197651806439 0.9998844870664315 
6.000197651806439 0.9980046443268665 
7.000197651806439 0.9964828593474426 
8.000197651806438 0.9952006944444445 
9.000197651806438 0.9931713771310994 
10.000197651806438 0.9912942919606114 
11.000197651806438 0.9902311471193416 
12.000197651806438 0.9874837485302763 
13.000197651806438 0.9868552028218694 
14.000197651806438 0.9842346560846561 
15.000197651806438 0.9825716765873015 
16.000197651806438 0.98035319664903 
17.000197651806438 0.9775672545561434 
18.000197651806438 0.9758034171075837 
19.000197651806438 0.9716909997795413 
20.000197651806438 0.9684749503968254 
21.000197651806438 0.9643339524544386 
22.000197651806438 0.9611135673868312 
23.000197651806438 0.9577463771310993 
24.000197651806438 0.9543277134773662 
25.000197651806438 0.9514042475014697 
26.000197651806438 0.9470582267783657 
27.000197651806438 0.9429438381834215 
28.000197651806438 0.9396395539388595 
29.000197651806438 0.9359960648148148 
30.000197651806438 0.9348426495443857 
31.000197651806438 0.9319823963844797 
32.00019765180644 0.9291196667401529 
33.00019765180644 0.9281017930629042 
34.00019765180644 0.924679069297472 
35.00019765180644 0.924076960243974 
36.00019765180644 0.9225896770282186 
37.00019765180644 0.9219993018812463 
38.00019765180644 0.9210479423868313 
39.00019765180644 0.9197049015285127 
40.00019765180644 0.9177943470752498 
41.00019765180644 0.9159323192239859 
42.00019765180644 0.9152973342886537 
43.00019765180644 0.913209022266314 
44.00019765180644 0.9114679067460317 
45.00019765180644 0.9100759939006468 
46.00019765180644 0.9079879207084067 
47.00019765180644 0.9055263025426218 
48.00019765180644 0.9035944720017638 
49.00019765180644 0.8997092886537333 
50.00019765180644 0.8971426697530867 
51.00019765180644 0.8947773736037625 
52.00019765180644 0.8915737838036449 
53.00019765180644 0.8921913084215165 
54.00019765180644 0.8867655037477957 
55.00019765180644 0.8855954842739563 
56.00019765180644 0.8828326848177543 
57.00019765180644 0.8772743588330397 
58.00019765180644 0.8761238885214582 
59.00019765180644 0.8674743257642559 
60.00019765180644 0.86395539388595 
61.00019765180644 0.8589099114491477 
62.00019765180644 0.8521173702968837 
63.00019765180644 0.8481284115961198 
64.00019765180645 0.8413516442533809 
65.00019765180645 0.8353065016901827 
66.00019765180645 0.8297245939888297 
67.00019765180645 0.8248460501175772 
68.00019765180645 0.8185427671222807 
69.00019765180645 0.8152025003674319 
70.00019765180645 0.8118454622281017 
71.00019765180645 0.8055828464873597 
72.00019765180645 0.8025584839800123 
73.00019765180645 0.7983758432539688 
74.00019765180645 0.7956437940917115 
75.00019765180645 0.7925326866549096 
76.00019765180645 0.7894891791593186 
77.00019765180645 0.7872923996913586 
78.00019765180645 0.7829347442680769 
79.00019765180645 0.7814737599206356 
80.00019765180645 0.7789138576572601 
81.00019765180645 0.7739051274985296 
82.00019765180645 0.772029186875368 
83.00019765180645 0.7689856407995294 
84.00019765180645 0.76593835978836 
85.00019765180645 0.7651579934597288 
86.00019765180645 0.7583332782186949 
87.00019765180645 0.756675431731335 
88.00019765180645 0.7521654192386839 
89.00019765180645 0.7502523736037633 
90.00019765180645 0.7462113407554376 
91.00019765180645 0.742354091343328 
92.00019765180645 0.7380719246031751 
93.00019765180645 0.7350913947677843 
94.00019765180645 0.7312458517048791 
95.00019765180645 0.7268483079805993 
96.00019765180645 0.7218449514991188 
97.00019765180645 0.7171736882716043 
98.00019765180645 0.7133879721487357 
99.00019765180645 0.7087042934303355 
100.00019765180645 0.7038390083039385 
101.00019765180645 0.6993492798353909 
102.00019765180645 0.6940562444885359 
103.00019765180645 0.6894502847589652 
104.00019765180645 0.6842994562022338 
105.00019765180645 0.6805546480011765 
106.00019765180645 0.6741013484714877 
107.00019765180645 0.6705405625367435 
108.00019765180645 0.665532027116402 
109.00019765180645 0.6599772192827751 
110.00019765180645 0.6554872905643742 
111.00019765180645 0.6501749467225162 
112.00019765180645 0.6459214983833041 
113.00019765180645 0.6386661136831274 
114.00019765180645 0.6348793044532628 
115.00019765180645 0.6294460299088773 
116.00019765180645 0.6230920690035275 
117.00019765180645 0.6166307153880072 
118.00019765180645 0.6116207102439744 
119.00019765180645 0.6073291446208114 
120.00019765180645 0.6026554508377425 
121.00019765180645 0.5994854497354498 
122.00019765180645 0.5942988021751913 
123.00019765180645 0.5884628233392125 
124.00019765180645 0.5828398276748973 
125.00019765180645 0.5770747740299825 
126.00019765180645 0.5702896182392713 
127.00019765180645 0.564898019547325 
128.00019765180645 0.5603517416225753 
129.00019765180645 0.5548894933127575 
130.00019765180645 0.5492576499118162 
131.00019765180645 0.5429667438271606 
132.00019765180645 0.5384428075396823 
133.00019765180645 0.5309185350529103 
134.00019765180645 0.5265312297912995 
135.00019765180645 0.5224396678424462 
136.00019765180645 0.5166729221781305 
137.00019765180645 0.5126837926219873 
138.00019765180645 0.5060772652116405 
139.00019765180645 0.5006955595972958 
140.00019765180645 0.4952783656672545 
141.00019765180645 0.487606354717813 
142.00019765180645 0.48154780827454446 
143.00019765180645 0.47700675154321037 
144.00019765180645 0.4696876837154617 
145.00019765180645 0.4625881227954145 
146.00019765180645 0.4556468933715461 
147.00019765180645 0.44936210501175755 
148.00019765180645 0.44264069297472086 
149.00019765180645 0.4323656231628456 
150.00019765180645 0.4256345311581424 
151.00019765180645 0.4164254648001178 
152.00019765180645 0.408712174823633 
153.00019765180645 0.3989850455614347 
154.00019765180645 0.3911718180482067 
155.00019765180645 0.38155872464726726 
156.00019765180645 0.3728651675485006 
157.00019765180645 0.3648684340094063 
158.00019765180645 0.35562666813639027 
159.00019765180645 0.34734111368312764 
160.00019765180645 0.34085168467078203 
161.00019765180645 0.33328226594650195 
162.00019765180645 0.3232945160934745 
163.00019765180645 0.31554773478836007 
164.00019765180645 0.3101035181510878 
165.00019765180645 0.30192754813345096 
166.00019765180645 0.29413164315108753 
167.00019765180645 0.2873886482216343 
168.00019765180645 0.28123988462669036 
169.00019765180645 0.2722806014844215 
170.00019765180645 0.2688918209876543 
171.00019765180645 0.25841752645502647 
172.00019765180645 0.2526916923868314 
173.00019765180645 0.24886898883009978 
174.00019765180645 0.2424203611845976 
175.00019765180645 0.2376964046884187 
176.00019765180645 0.23244726998824267 
177.00019765180645 0.23034748860964127 
178.00019765180645 0.22564115226337444 
179.00019765180645 0.2219969337889477 
180.00019765180645 0.21819711750440954 
181.00019765180645 0.21371908803644965 
182.00019765180645 0.2102959986772484 
183.00019765180645 0.2058383487654324 
184.00019765180645 0.20090826535861284 
185.00019765180645 0.1968717041446213 
186.00019765180645 0.1929679471634331 
187.00019765180645 0.18969417805702585 
188.00019765180645 0.18617135692239847 
189.00019765180645 0.18164120186654897 
190.00019765180645 0.1787373493533216 
191.00019765180645 0.1745312481628455 
192.00019765180645 0.17003395612874786 
193.00019765180645 0.16694103101116997 
194.00019765180645 0.16211910089653156 
195.00019765180645 0.16000413910934727 
196.00019765180645 0.15638586676954727 
197.00019765180645 0.1526126561581424 
198.00019765180645 0.14974346524103463 
199.00019765180645 0.14635906452087016 
200.00019765180645 0.14278795928865384 
201.00019765180645 0.140550982877719 
202.00019765180645 0.13800472699882435 
203.00019765180645 0.13571373824221056 
204.00019765180645 0.135155888080541 
205.00019765180645 0.13382770245443865 
206.00019765180645 0.13374059009406236 
207.00019765180645 0.13408502718988843 
208.00019765180645 0.13411852586713707 
209.00019765180645 0.13400871178718404 
210.00019765180645 0.13334203409758977 
211.00019765180645 0.13256619451793072 
212.00019765180645 0.13156850198412712 
213.00019765180645 0.13161137749853033 
214.00019765180645 0.13079303902116415 
215.00019765180645 0.13014836860670204 
216.00019765180645 0.12911489932392717 
217.00019765180645 0.12818592004703128 
218.00019765180645 0.12793361074368023 
219.00019765180645 0.1272518242945327 
220.00019765180645 0.12655910493827166 
221.00019765180645 0.12633550852439757 
222.00019765180645 0.1257043558935921 
223.00019765180645 0.12513537992357446 
224.00019765180645 0.1246687426513817 
225.00019765180645 0.12411364822163437 
226.00019765180645 0.12350890652557332 
227.00019765180645 0.12335659171075844 
228.00019765180645 0.12270685626102301 
229.00019765180645 0.122268244782481 
230.00019765180645 0.1218403935185186 
231.00019765180645 0.12142113830099949 
232.00019765180645 0.12098858024691371 
233.00019765180645 0.1204926183127573 
234.00019765180645 0.12011461456496188 
235.00019765180645 0.11965893224573793 
236.00019765180645 0.11927535457084075 
237.00019765180645 0.11884395208700775 
238.00019765180645 0.11844872317754274 
239.00019765180645 0.11822116218400952 
240.00019765180645 0.11792605085243987 
241.00019765180645 0.11771790307172263 
242.00019765180645 0.1174993496472664 
243.00019765180645 0.11721982840975909 
244.00019765180645 0.11696296296296307 
245.00019765180645 0.11677958370076434 
246.00019765180645 0.11657171516754859 
247.00019765180645 0.11638022119341572 
248.00019765180645 0.11623824955908298 
249.00019765180645 0.116131312463257 
250.00019765180645 0.11605355856848922 
251.00019765180645 0.11599626506466794 
252.00019765180645 0.11598994708994718 
253.00019765180645 0.11594772376543219 
254.00019765180645 0.11589232804232814 
255.00019765180645 0.11584130107289839 
256.00019765180645 0.11578056474132872 
257.00019765180645 0.11574582414756036 
258.00019765180645 0.11571390909758975 
259.00019765180645 0.11568520171957682 
260.00019765180645 0.11565950360082314 
261.00019765180645 0.11564820693709592 
262.00019765180645 0.11564067460317469 
263.00019765180645 0.11563163580246923 
264.00019765180645 0.11562560993533225 
265.00019765180645 0.11561657113462678 
266.00019765180645 0.11560903880070555 
267.00019765180645 0.11560753233392132 
268.00019765180645 0.11560301293356857 
269.00019765180645 0.11560150646678434 
270.00019765180645 0.11560000000000009 
271.00019765180645 0.11560000000000009 
272.00019765180645 0.11560000000000009 
273.00019765180645 0.11560000000000009 
274.00019765180645 0.11560000000000009 
275.00019765180645 0.11560000000000009 
276.00019765180645 0.11560000000000009 
277.00019765180645 0.11560000000000009 
278.00019765180645 0.11560000000000009 
279.00019765180645 0.11560000000000009 
280.00019765180645 0.11560000000000009 
281.00019765180645 0.11560000000000009 
282.00019765180645 0.11560000000000009 
283.00019765180645 0.11560000000000009 
284.00019765180645 0.11560000000000009 
285.00019765180645 0.11560000000000009 
286.00019765180645 0.11560000000000009 
287.00019765180645 0.11560000000000009 
288.00019765180645 0.11560000000000009 
289.00019765180645 0.11560000000000009 
290.00019765180645 0.11560000000000009 
291.00019765180645 0.11560000000000009 
292.00019765180645 0.11560000000000009 
293.00019765180645 0.11560000000000009 
294.00019765180645 0.11560000000000009 
295.00019765180645 0.11560000000000009 
296.00019765180645 0.11560000000000009 
297.00019765180645 0.11560000000000009 
298.00019765180645 0.11560000000000009 
299.00019765180645 0.11560000000000009 
300.00019765180645 0.11560000000000009 
301.00019765180645 0.11560000000000009 
302.00019765180645 0.11560000000000009 
303.00019765180645 0.11560000000000009 
304.00019765180645 0.11560000000000009 
305.00019765180645 0.11560000000000009 
306.00019765180645 0.11560000000000009 
307.00019765180645 0.11560000000000009 
308.00019765180645 0.11560000000000009 
309.00019765180645 0.11560000000000009 
310.00019765180645 0.11560000000000009 
311.00019765180645 0.11560000000000009 
312.00019765180645 0.11560000000000009 
313.00019765180645 0.11560000000000009 
314.00019765180645 0.11560000000000009 
315.00019765180645 0.11560000000000009 
316.00019765180645 0.11560000000000009 
317.00019765180645 0.11560000000000009 
318.00019765180645 0.11560000000000009 
319.00019765180645 0.11560000000000009 
320.00019765180645 0.11560000000000009 
321.00019765180645 0.11560000000000009 
322.00019765180645 0.11560000000000009 
323.00019765180645 0.11560000000000009 
324.00019765180645 0.11560000000000009 
325.00019765180645 0.11560000000000009 
326.00019765180645 0.11560000000000009 
327.00019765180645 0.11560000000000009 
328.00019765180645 0.11560000000000009 
329.00019765180645 0.11560000000000009 
330.00019765180645 0.11560000000000009 
331.00019765180645 0.11560000000000009 
332.00019765180645 0.11560000000000009 
333.00019765180645 0.11560000000000009 
334.00019765180645 0.11560000000000009 
335.00019765180645 0.11560000000000009 
336.00019765180645 0.11560000000000009 
337.00019765180645 0.11560000000000009 
338.00019765180645 0.11560000000000009 
339.00019765180645 0.11560000000000009 
340.00019765180645 0.11560000000000009 
341.00019765180645 0.11560000000000009 
342.00019765180645 0.11560000000000009 
343.00019765180645 0.11560000000000009 
344.00019765180645 0.11560000000000009 
345.00019765180645 0.11560000000000009 
346.00019765180645 0.11560000000000009 
347.00019765180645 0.11560000000000009 
348.00019765180645 0.11560000000000009 
349.00019765180645 0.11560000000000009 
350.00019765180645 0.11560000000000009 
351.00019765180645 0.11560000000000009 
352.00019765180645 0.11560000000000009 
#####################################################################
# End of data export. Simulation finished at: 2017-05-24T20:13+0000 #
#####################################################################
