#####################################################################
# Alchemist log file - simulation started at: 2017-05-23T02:40+0000 #
#####################################################################
# random = 4.0, targets = 100.0, density = 10.026386447354522, gridShift = 1.0, perturbation = 0.0, connfactor = 1.0
#
# The columns have the following meaning: 
# time se[Mean] 
0.0 NaN 
1.0004793365590676 NaN 
2.0004793365590676 1.002669400921659 
3.0004793365590676 1.0049953533026112 
4.000479336559067 1.0065744905273937 
5.000479336559067 1.0089654326676907 
6.000479336559067 1.0074505376344085 
7.000479336559067 1.009394810547875 
8.000479336559067 1.0075004249871993 
9.000479336559067 1.0051826139272912 
10.000479336559067 1.0031562186379928 
11.000479336559067 0.9984395775729646 
12.000479336559067 0.9962455120327701 
13.000479336559067 0.9937818253968254 
14.000479336559067 0.9914836533538146 
15.000479336559067 0.9899949974398361 
16.000479336559067 0.9897301177675372 
17.000479336559067 0.9874258525345623 
18.000479336559067 0.9841478699436764 
19.000479336559067 0.9829741551459293 
20.000479336559067 0.9788055401945724 
21.000479336559067 0.9761821018945213 
22.000479336559067 0.9743286687147977 
23.000479336559067 0.9707190629800307 
24.000479336559067 0.9673193266769073 
25.000479336559067 0.9648611034306196 
26.000479336559067 0.9609316641065028 
27.000479336559067 0.9567705760368664 
28.000479336559067 0.9544535023041474 
29.000479336559067 0.9503178827444956 
30.000479336559067 0.9474339170506912 
31.000479336559067 0.943063527905786 
32.00047933655907 0.9396415437788018 
33.00047933655907 0.9364634280593959 
34.00047933655907 0.9334731592421915 
35.00047933655907 0.9304686047107015 
36.00047933655907 0.9274278699436764 
37.00047933655907 0.9247310675883257 
38.00047933655907 0.9216028827444956 
39.00047933655907 0.9188333128520225 
40.00047933655907 0.9153003225806453 
41.00047933655907 0.9118159575012802 
42.00047933655907 0.9088735586277521 
43.00047933655907 0.904674948796723 
44.00047933655907 0.9008737967229903 
45.00047933655907 0.8973359190988225 
46.00047933655907 0.8924105145929341 
47.00047933655907 0.8891648617511521 
48.00047933655907 0.8851174756784435 
49.00047933655907 0.882157928827445 
50.00047933655907 0.8794840373783923 
51.00047933655907 0.8743688095238096 
52.00047933655907 0.8736296671786995 
53.00047933655907 0.8694038556067589 
54.00047933655907 0.8655317972350232 
55.00047933655907 0.864111474654378 
56.00047933655907 0.8619571326164875 
57.00047933655907 0.8577391679467488 
58.00047933655907 0.8557328136200718 
59.00047933655907 0.8553784152585766 
60.00047933655907 0.8518351638504865 
61.00047933655907 0.848931405529954 
62.00047933655907 0.8479657987711214 
63.00047933655907 0.845041013824885 
64.00047933655907 0.8427328417818741 
65.00047933655907 0.840045995903738 
66.00047933655907 0.8393212109575015 
67.00047933655907 0.8356681822836662 
68.00047933655907 0.833145652841782 
69.00047933655907 0.8320973169482848 
70.00047933655907 0.8295787992831543 
71.00047933655907 0.8246972478238609 
72.00047933655907 0.8260762596006146 
73.00047933655907 0.8205592933947774 
74.00047933655907 0.8181347619047621 
75.00047933655907 0.817330601638505 
76.00047933655907 0.8128303686635946 
77.00047933655907 0.8124328981054789 
78.00047933655907 0.8093873195084487 
79.00047933655907 0.8060409370199694 
80.00047933655907 0.8055775448028676 
81.00047933655907 0.8026867025089607 
82.00047933655907 0.7993257091653867 
83.00047933655907 0.7958645570916539 
84.00047933655907 0.7914902048131081 
85.00047933655907 0.7886671915002562 
86.00047933655907 0.7839731233998977 
87.00047933655907 0.7797096774193549 
88.00047933655907 0.7777606298003072 
89.00047933655907 0.7699776907322069 
90.00047933655907 0.7677823604710704 
91.00047933655907 0.7634081771633389 
92.00047933655907 0.7564501664106504 
93.00047933655907 0.7516293599590376 
94.00047933655907 0.7457724270353304 
95.00047933655907 0.7391751075268818 
96.00047933655907 0.7317996159754228 
97.00047933655907 0.7259479365079365 
98.00047933655907 0.7178422324628777 
99.00047933655907 0.7121943497183822 
100.00047933655907 0.7030997721454173 
101.00047933655907 0.6948861469534049 
102.00047933655907 0.6883202508960576 
103.00047933655907 0.6792504813108043 
104.00047933655907 0.6696756707629288 
105.00047933655907 0.6621143113159245 
106.00047933655907 0.6563615232974911 
107.00047933655907 0.6459422555043524 
108.00047933655907 0.6393250563236044 
109.00047933655907 0.6302255376344083 
110.00047933655907 0.6198177009728624 
111.00047933655907 0.6123369815668204 
112.00047933655907 0.5989883640552995 
113.00047933655907 0.5957733230926778 
114.00047933655907 0.5827513850486432 
115.00047933655907 0.5723172580645162 
116.00047933655907 0.5731129211469532 
117.00047933655907 0.564036817716334 
118.00047933655907 0.5601267332309269 
119.00047933655907 0.5645706272401435 
120.00047933655907 0.5541492114695342 
121.00047933655907 0.5425786584741423 
122.00047933655907 0.5418568766001025 
123.00047933655907 0.5242166615463391 
124.00047933655907 0.5289122862263185 
125.00047933655907 0.513337654889913 
126.00047933655907 0.4923457450076807 
127.00047933655907 0.49220746799795173 
128.00047933655907 0.4871644393241167 
129.00047933655907 0.47396799283154106 
130.00047933655907 0.44761556323604673 
131.00047933655907 0.46346311315924227 
132.00047933655907 0.45308871223758346 
133.00047933655907 0.4393438914490529 
134.00047933655907 0.4267398489503328 
135.00047933655907 0.4361659165386587 
136.00047933655907 0.42429528673835154 
137.00047933655907 0.40686409626216063 
138.00047933655907 0.41081029441884287 
139.00047933655907 0.40303522017409155 
140.00047933655907 0.36868838453661007 
141.00047933655907 0.37918602150537645 
142.00047933655907 0.3731975627240145 
143.00047933655907 0.35245212749616006 
144.00047933655907 0.3557584895033282 
145.00047933655907 0.35823465693804396 
146.00047933655907 0.3391697311827956 
147.00047933655907 0.3427208602150542 
148.00047933655907 0.3317738325652844 
149.00047933655907 0.34271979518689183 
150.00047933655907 0.33802785970302107 
151.00047933655907 0.32421569380440385 
152.00047933655907 0.3166605939580136 
153.00047933655907 0.31717087557603674 
154.00047933655907 0.3144717972350234 
155.00047933655907 0.2988874756784432 
156.00047933655907 0.3037694674859191 
157.00047933655907 0.30245059907834154 
158.00047933655907 0.29607348950332857 
159.00047933655907 0.2859374987199184 
160.00047933655907 0.2905688428059399 
161.00047933655907 0.2856728136200716 
162.00047933655907 0.27693280337941634 
163.00047933655907 0.2690079109062984 
164.00047933655907 0.2702998617511523 
165.00047933655907 0.25869907066052256 
166.00047933655907 0.24215423707117276 
167.00047933655907 0.24160640552995408 
168.00047933655907 0.23381864823348714 
169.00047933655907 0.23334392217101915 
170.00047933655907 0.2303109523809526 
171.00047933655907 0.2335077060931902 
172.00047933655907 0.23161994879672324 
173.00047933655907 0.2332949462365593 
174.00047933655907 0.23522155657962135 
175.00047933655907 0.23564915770609343 
176.00047933655907 0.23628094982078876 
177.00047933655907 0.23647976190476208 
178.00047933655907 0.23712317204301095 
179.00047933655907 0.23711876856118813 
180.00047933655907 0.23718124423963158 
181.00047933655907 0.23747493087557628 
182.00047933655907 0.2374013952892987 
183.00047933655907 0.23817255760368689 
184.00047933655907 0.23804426011264745 
185.00047933655907 0.23857132872503864 
186.00047933655907 0.2392970686123914 
187.00047933655907 0.2393668049155148 
188.00047933655907 0.24004552227342574 
189.00047933655907 0.24005242191500278 
190.00047933655907 0.24007595494111647 
191.00047933655907 0.24007445212493622 
192.00047933655907 0.2400819662058374 
193.00047933655907 0.24009098310291882 
194.00047933655907 0.24009248591909904 
195.00047933655907 0.24010000000000023 
196.00047933655907 0.24010000000000023 
197.00047933655907 0.24010000000000023 
198.00047933655907 0.24010000000000023 
199.00047933655907 0.24010000000000023 
200.00047933655907 0.24010000000000023 
201.00047933655907 0.24010000000000023 
202.00047933655907 0.24010000000000023 
203.00047933655907 0.24010000000000023 
204.00047933655907 0.24010000000000023 
205.00047933655907 0.24010000000000023 
206.00047933655907 0.24010000000000023 
207.00047933655907 0.24010000000000023 
208.00047933655907 0.24010000000000023 
209.00047933655907 0.24010000000000023 
210.00047933655907 0.24010000000000023 
211.00047933655907 0.24010000000000023 
212.00047933655907 0.24010000000000023 
213.00047933655907 0.24010000000000023 
214.00047933655907 0.24010000000000023 
215.00047933655907 0.24010000000000023 
216.00047933655907 0.24010000000000023 
217.00047933655907 0.24010000000000023 
218.00047933655907 0.24010000000000023 
219.00047933655907 0.24010000000000023 
220.00047933655907 0.24010000000000023 
221.00047933655907 0.24010000000000023 
222.00047933655907 0.24010000000000023 
223.00047933655907 0.24010000000000023 
224.00047933655907 0.24010000000000023 
225.00047933655907 0.24010000000000023 
226.00047933655907 0.24010000000000023 
227.00047933655907 0.24010000000000023 
228.00047933655907 0.24010000000000023 
229.00047933655907 0.24010000000000023 
230.00047933655907 0.24010000000000023 
231.00047933655907 0.24010000000000023 
232.00047933655907 0.24010000000000023 
233.00047933655907 0.24010000000000023 
234.00047933655907 0.24010000000000023 
235.00047933655907 0.24010000000000023 
236.00047933655907 0.24010000000000023 
237.00047933655907 0.24010000000000023 
238.00047933655907 0.24010000000000023 
239.00047933655907 0.24010000000000023 
240.00047933655907 0.24010000000000023 
241.00047933655907 0.24010000000000023 
242.00047933655907 0.24010000000000023 
243.00047933655907 0.24010000000000023 
244.00047933655907 0.24010000000000023 
245.00047933655907 0.24010000000000023 
246.00047933655907 0.24010000000000023 
247.00047933655907 0.24010000000000023 
248.00047933655907 0.24010000000000023 
249.00047933655907 0.24010000000000023 
250.00047933655907 0.24010000000000023 
251.00047933655907 0.24010000000000023 
252.00047933655907 0.24010000000000023 
253.00047933655907 0.24010000000000023 
254.00047933655907 0.24010000000000023 
255.00047933655907 0.24010000000000023 
256.00047933655907 0.24010000000000023 
257.00047933655907 0.24010000000000023 
258.00047933655907 0.24010000000000023 
259.00047933655907 0.24010000000000023 
260.00047933655907 0.24010000000000023 
261.00047933655907 0.24010000000000023 
262.00047933655907 0.24010000000000023 
263.00047933655907 0.24010000000000023 
264.00047933655907 0.24010000000000023 
265.00047933655907 0.24010000000000023 
#####################################################################
# End of data export. Simulation finished at: 2017-05-23T02:49+0000 #
#####################################################################
