#####################################################################
# Alchemist log file - simulation started at: 2017-05-24T00:33+0000 #
#####################################################################
# random = 6.0, targets = 3.1622776601683795, density = 0.1591589639397027, gridShift = 0.0, perturbation = 0.5, connfactor = 2.0
#
# The columns have the following meaning: 
# time se[Mean] 
0.0 NaN 
1.0115592716150654 NaN 
2.0115592716150656 1.0 
3.0115592716150656 0.9639532609841971 
4.011559271615066 1.030924000940875 
5.011559271615066 1.474373989179935 
6.011559271615066 1.4263973972145927 
7.011559271615066 2.234467004890468 
8.011559271615067 2.425004927366518 
9.011559271615067 2.721133363343086 
10.011559271615067 2.957846691972043 
11.011559271615067 3.126805727911393 
12.011559271615067 3.466093688914199 
13.011559271615067 4.601147261356382 
14.011559271615067 4.928787555457302 
15.011559271615067 6.301781318181075 
16.011559271615067 4.9354789968439015 
17.011559271615067 8.731691323777198 
18.011559271615067 6.648314678280225 
19.011559271615067 6.096243164544489 
20.011559271615067 4.4350316649218815 
21.011559271615067 4.336945328530704 
22.011559271615067 4.1417173313533295 
23.011559271615067 4.096765591161432 
24.011559271615067 3.9011911128946077 
25.011559271615067 3.797366596101027 
26.011559271615067 3.797366596101027 
27.011559271615067 3.797366596101027 
28.011559271615067 3.797366596101027 
29.011559271615067 3.797366596101027 
30.011559271615067 3.797366596101027 
31.011559271615067 3.797366596101027 
32.01155927161507 3.797366596101027 
#####################################################################
# End of data export. Simulation finished at: 2017-05-24T00:33+0000 #
#####################################################################
