#####################################################################
# Alchemist log file - simulation started at: 2017-05-25T05:06+0000 #
#####################################################################
# random = 17.0, targets = 1.0, density = 0.894427190999916, gridShift = 0.0, perturbation = 0.5, connfactor = 0.75
#
# The columns have the following meaning: 
# time se[Mean] 
0.0 NaN 
1.002823245690351 NaN 
2.002823245690351 1.0 
3.002823245690351 1.0 
4.002823245690351 1.0 
5.002823245690351 1.0 
6.002823245690351 1.0 
7.002823245690351 1.0 
8.002823245690351 1.0 
9.002823245690351 1.0 
10.002823245690351 1.0 
11.002823245690351 0.9974747474747475 
12.002823245690351 0.9827823691460055 
13.002823245690351 0.9607438016528925 
14.002823245690351 0.9205693296602387 
15.002823245690351 0.9995408631772268 
16.00282324569035 1.5034435261707988 
17.00282324569035 1.29247015610652 
18.00282324569035 1.8907254361799808 
19.00282324569035 2.407483930211203 
20.00282324569035 2.055555555555555 
21.00282324569035 2.9600550964187318 
22.00282324569035 2.0870064279155187 
23.00282324569035 2.1122589531680442 
24.00282324569035 1.6517447199265372 
25.00282324569035 1.4412304866850334 
26.00282324569035 1.2727272727272734 
27.00282324569035 0.3778696051423319 
28.00282324569035 0.0413223140495867 
29.00282324569035 4.930380657631324E-32 
30.00282324569035 4.930380657631324E-32 
31.00282324569035 4.930380657631324E-32 
32.00282324569035 4.930380657631324E-32 
33.00282324569035 4.930380657631324E-32 
34.00282324569035 4.930380657631324E-32 
35.00282324569035 4.930380657631324E-32 
36.00282324569035 4.930380657631324E-32 
37.00282324569035 4.930380657631324E-32 
38.00282324569035 4.930380657631324E-32 
39.00282324569035 4.930380657631324E-32 
40.00282324569035 4.930380657631324E-32 
41.00282324569035 4.930380657631324E-32 
42.00282324569035 4.930380657631324E-32 
43.00282324569035 4.930380657631324E-32 
44.00282324569035 4.930380657631324E-32 
45.00282324569035 4.930380657631324E-32 
46.00282324569035 4.930380657631324E-32 
47.00282324569035 4.930380657631324E-32 
48.00282324569035 4.930380657631324E-32 
#####################################################################
# End of data export. Simulation finished at: 2017-05-25T05:06+0000 #
#####################################################################
