#####################################################################
# Alchemist log file - simulation started at: 2017-05-24T13:35+0000 #
#####################################################################
# random = 15.0, targets = 1.0, density = 5.0264212595847235, gridShift = 1.0, perturbation = 0.0, connfactor = 0.25
#
# The columns have the following meaning: 
# time se[Mean] 
0.0 NaN 
1.0003675412420963 NaN 
2.0003675412420963 1.0 
3.0003675412420963 1.0 
4.000367541242096 1.0 
5.000367541242096 1.0 
6.000367541242096 1.0 
7.000367541242096 1.0 
8.000367541242095 1.0 
9.000367541242095 1.0 
10.000367541242095 1.0 
11.000367541242095 1.0 
12.000367541242095 1.0 
13.000367541242095 1.0 
14.000367541242095 1.0 
15.000367541242095 1.0 
16.000367541242095 1.0 
17.000367541242095 1.0 
18.000367541242095 1.0 
19.000367541242095 1.0 
20.000367541242095 1.0 
21.000367541242095 1.0 
22.000367541242095 1.0 
23.000367541242095 1.0 
24.000367541242095 1.0 
25.000367541242095 1.0 
26.000367541242095 1.0 
27.000367541242095 1.0 
28.000367541242095 1.0 
29.000367541242095 1.0 
30.000367541242095 1.0 
31.000367541242095 1.0 
32.0003675412421 1.0 
33.0003675412421 1.0 
34.0003675412421 1.0 
35.0003675412421 1.0 
36.0003675412421 1.0 
37.0003675412421 1.0 
38.0003675412421 1.0 
39.0003675412421 1.0 
40.0003675412421 1.0 
41.0003675412421 1.0 
42.0003675412421 1.0 
43.0003675412421 1.0 
44.0003675412421 1.0 
45.0003675412421 1.0 
46.0003675412421 1.0 
47.0003675412421 1.0 
48.0003675412421 1.0 
#####################################################################
# End of data export. Simulation finished at: 2017-05-24T13:35+0000 #
#####################################################################
