#####################################################################
# Alchemist log file - simulation started at: 2017-05-24T03:38+0000 #
#####################################################################
# random = 13.0, targets = 100.0, density = 0.6332893950589894, gridShift = 0.0, perturbation = 0.5, connfactor = 1.0
#
# The columns have the following meaning: 
# time se[Mean] 
0.0 NaN 
1.0093475742791087 NaN 
2.0093475742791087 1.0503070987654322 
3.0093475742791087 1.0841808641975308 
4.009347574279109 1.1414617541152263 
5.009347574279109 1.2198900805898492 
6.009347574279109 1.3350016460905352 
7.009347574279109 1.4682307270233197 
8.009347574279108 1.3937688185871058 
9.009347574279108 1.4130875085733883 
10.009347574279108 1.2679258573388204 
11.009347574279108 1.238606121399177 
12.009347574279108 1.2246572530864197 
13.009347574279108 1.1991962105624143 
14.009347574279108 1.199377409122085 
15.009347574279108 1.2182790294924555 
16.009347574279108 1.2240522119341566 
17.009347574279108 1.389496999314129 
18.009347574279108 1.441358479080933 
19.009347574279108 1.4879096793552815 
20.009347574279108 1.5753065586419754 
21.009347574279108 1.7228155692729767 
22.009347574279108 2.114560510973937 
23.009347574279108 2.474973328189301 
24.009347574279108 2.940790920781893 
25.009347574279108 2.8997604852537724 
26.009347574279108 3.0569971793552817 
27.009347574279108 2.7618269975994516 
28.009347574279108 3.1042250685871062 
29.009347574279108 3.484367746913581 
30.009347574279108 3.369608041838135 
31.009347574279108 3.255918938614541 
32.009347574279104 2.9186809585048015 
33.009347574279104 2.860003077846365 
34.009347574279104 2.592091160836763 
35.009347574279104 2.6271655606995887 
36.009347574279104 2.7328867798353915 
37.009347574279104 2.6808723422496574 
38.009347574279104 2.9748678926611802 
39.009347574279104 3.032417901234568 
40.009347574279104 3.110713160150892 
41.009347574279104 3.0397724365569276 
42.009347574279104 3.157694778806585 
43.009347574279104 2.924798756858711 
44.009347574279104 3.0960965020576134 
45.009347574279104 3.3289156550068593 
46.009347574279104 3.0935414266117975 
47.009347574279104 2.9183976508916327 
48.009347574279104 2.744221287722908 
49.009347574279104 2.743218715706447 
50.009347574279104 2.625235262345679 
51.009347574279104 2.625067524005487 
52.009347574279104 2.6247337620027436 
53.009347574279104 2.6244 
54.009347574279104 2.6244 
55.009347574279104 2.6244 
56.009347574279104 2.6244 
57.009347574279104 2.6244 
58.009347574279104 2.6244 
59.009347574279104 2.6244 
60.009347574279104 2.6244 
61.009347574279104 2.6244 
62.009347574279104 2.6244 
63.009347574279104 2.6244 
64.0093475742791 2.6244 
65.0093475742791 2.6244 
66.0093475742791 2.6244 
67.0093475742791 2.6244 
68.0093475742791 2.6244 
69.0093475742791 2.6244 
70.0093475742791 2.6244 
71.0093475742791 2.6244 
72.0093475742791 2.6244 
#####################################################################
# End of data export. Simulation finished at: 2017-05-24T03:38+0000 #
#####################################################################
