0.000000000000000000e+00 nan
2.220446049250313081e-16 1.481853903040997178e-02
4.440892098500626162e-16 2.002759604879297550e-01
0.000000000000000000e+00 1.774421730737938407e-01
8.881784197001252323e-16 1.774311763361114958e-01
2.664535259100375697e-15 1.774145650902543003e-01
0.000000000000000000e+00 1.773783252739368488e-01
8.881784197001252323e-16 1.773291438740764170e-01
1.776356839400250465e-15 1.773039547816999129e-01
1.776356839400250465e-15 1.772480452260743189e-01
5.329070518200751394e-15 1.772022979945969967e-01
1.776356839400250465e-15 1.771623148039975781e-01
0.000000000000000000e+00 1.771057808016239798e-01
1.776356839400250465e-15 1.770583568093025972e-01
1.776356839400250465e-15 1.770055760362871378e-01
1.776356839400250465e-15 1.769556655204344020e-01
3.552713678800500929e-15 1.769090634281630103e-01
3.552713678800500929e-15 1.768561878274652333e-01
3.552713678800500929e-15 1.768165719382197854e-01
1.065814103640150279e-14 1.767686016625269751e-01
1.065814103640150279e-14 1.767166132301583870e-01
7.105427357601001859e-15 1.766881669791827147e-01
3.552713678800500929e-15 1.766360046511239179e-01
3.552713678800500929e-15 1.766006552879879898e-01
0.000000000000000000e+00 1.765446040631114544e-01
0.000000000000000000e+00 1.764868499229020060e-01
3.552713678800500929e-15 1.764298624303762275e-01
0.000000000000000000e+00 1.763549858315022201e-01
3.552713678800500929e-15 1.762866789214590224e-01
3.552713678800500929e-15 1.761882282413846645e-01
3.552713678800500929e-15 1.761210584491577358e-01
7.105427357601001859e-15 1.760452978205429286e-01
7.105427357601001859e-15 1.759214377207449498e-01
7.105427357601001859e-15 1.758411577665792425e-01
7.105427357601001859e-15 1.757295247159363916e-01
1.421085471520200372e-14 1.755914927471429465e-01
7.105427357601001859e-15 1.754988748518270247e-01
2.131628207280300558e-14 1.753293081989113489e-01
2.131628207280300558e-14 1.752459750140560324e-01
2.131628207280300558e-14 1.751336274936875492e-01
2.131628207280300558e-14 1.749674609734489517e-01
7.105427357601001859e-15 1.748473483187802935e-01
1.421085471520200372e-14 1.747145056310878963e-01
7.105427357601001859e-15 1.746039151079584184e-01
7.105427357601001859e-15 1.744266107094520901e-01
1.421085471520200372e-14 1.742996693839968525e-01
7.105427357601001859e-15 1.741727797938250055e-01
2.131628207280300558e-14 1.740211447307796477e-01
0.000000000000000000e+00 1.739343285676210882e-01
2.131628207280300558e-14 1.738069827330900874e-01
0.000000000000000000e+00 1.737161414373959434e-01
2.842170943040400743e-14 1.735682252797899894e-01
7.105427357601001859e-15 1.734442758725928402e-01
2.131628207280300558e-14 1.733392709020462885e-01
0.000000000000000000e+00 1.731754133469854684e-01
2.842170943040400743e-14 1.730571623391343183e-01
7.105427357601001859e-15 1.729655743524771694e-01
0.000000000000000000e+00 1.728464072905390725e-01
7.105427357601001859e-15 1.727745522234127584e-01
2.131628207280300558e-14 1.727186560429313511e-01
7.105427357601001859e-15 1.726270342844055949e-01
7.105427357601001859e-15 1.725886969115968395e-01
1.421085471520200372e-14 1.725222875566698455e-01
2.131628207280300558e-14 1.724687245014230041e-01
1.421085471520200372e-14 1.724524458846794228e-01
1.421085471520200372e-14 1.723946634255872634e-01
1.421085471520200372e-14 1.723543359711406375e-01
1.421085471520200372e-14 1.723728061927881083e-01
1.421085471520200372e-14 1.723501299955812194e-01
2.842170943040400743e-14 1.723486409283557785e-01
2.842170943040400743e-14 1.723270555006251037e-01
0.000000000000000000e+00 1.724662057742088195e-01
1.421085471520200372e-14 1.725154096770923906e-01
2.842170943040400743e-14 1.725859010830936568e-01
4.263256414560601115e-14 1.726434004179407400e-01
0.000000000000000000e+00 1.727662425789434908e-01
4.263256414560601115e-14 1.728542674248068622e-01
2.842170943040400743e-14 1.729558234315246579e-01
4.263256414560601115e-14 1.729596509579935382e-01
0.000000000000000000e+00 1.730158375460312536e-01
4.263256414560601115e-14 1.730603602148383380e-01
4.263256414560601115e-14 1.729848371770056348e-01
1.421085471520200372e-14 1.730136496646211275e-01
0.000000000000000000e+00 1.728353846584016751e-01
2.842170943040400743e-14 1.725767158253516953e-01
4.263256414560601115e-14 1.725684256901225122e-01
1.421085471520200372e-14 1.723891145983289797e-01
1.421085471520200372e-14 1.721236231180941767e-01
1.421085471520200372e-14 1.721272395982178516e-01
2.842170943040400743e-14 1.717327141640145882e-01
2.842170943040400743e-14 1.715622037497028518e-01
1.421085471520200372e-14 1.714135576098497760e-01
1.421085471520200372e-14 1.709991178232848075e-01
1.421085471520200372e-14 1.708988400625777726e-01
4.263256414560601115e-14 1.706361895241661208e-01
2.842170943040400743e-14 1.702652618792842576e-01
0.000000000000000000e+00 1.702785075347719723e-01
2.842170943040400743e-14 1.696346506290475065e-01
4.263256414560601115e-14 1.696585564206005148e-01
2.842170943040400743e-14 1.691851183294895145e-01
0.000000000000000000e+00 1.687987036700090149e-01
4.263256414560601115e-14 1.686112104939078982e-01
5.684341886080801487e-14 1.682798665947104755e-01
1.421085471520200372e-14 1.680329341005147581e-01
1.421085471520200372e-14 1.677540609982580699e-01
1.421085471520200372e-14 1.674102832676242492e-01
4.263256414560601115e-14 1.672500935352379814e-01
2.842170943040400743e-14 1.666895563360174803e-01
0.000000000000000000e+00 1.663093161009735754e-01
2.842170943040400743e-14 1.662781734533169131e-01
5.684341886080801487e-14 1.657409849007499270e-01
1.421085471520200372e-14 1.654858664298937132e-01
1.421085471520200372e-14 1.651383869954800299e-01
1.421085471520200372e-14 1.648640643093818026e-01
0.000000000000000000e+00 1.646343225974526425e-01
4.263256414560601115e-14 1.644565039727002853e-01
1.421085471520200372e-14 1.641127109473890511e-01
1.421085471520200372e-14 1.638860044441468877e-01
4.263256414560601115e-14 1.637932127360609280e-01
1.421085471520200372e-14 1.634185443836131957e-01
1.421085471520200372e-14 1.633060280188532165e-01
4.263256414560601115e-14 1.629318056503221424e-01
1.421085471520200372e-14 1.627297735641741461e-01
5.684341886080801487e-14 1.626554711572291700e-01
2.842170943040400743e-14 1.621694866438250782e-01
0.000000000000000000e+00 1.620622121271273197e-01
4.263256414560601115e-14 1.617698945448582115e-01
7.105427357601001859e-14 1.616714951611324391e-01
2.842170943040400743e-14 1.614908189235434166e-01
5.684341886080801487e-14 1.615597274391475380e-01
2.842170943040400743e-14 1.612926903664730627e-01
8.526512829121202230e-14 1.611262867997046433e-01
2.842170943040400743e-14 1.610513570723055565e-01
0.000000000000000000e+00 1.609537625038317821e-01
2.842170943040400743e-14 1.608985546564615510e-01
5.684341886080801487e-14 1.607566646982362124e-01
2.842170943040400743e-14 1.608144964276558009e-01
5.684341886080801487e-14 1.608714391370311969e-01
5.684341886080801487e-14 1.606199382971470746e-01
2.842170943040400743e-14 1.607209279293002613e-01
5.684341886080801487e-14 1.604889297308507712e-01
0.000000000000000000e+00 1.604388671521924659e-01
0.000000000000000000e+00 1.604234215739224756e-01
5.684341886080801487e-14 1.599820133243509135e-01
2.842170943040400743e-14 1.601675751214421406e-01
5.684341886080801487e-14 1.597491561364365598e-01
5.684341886080801487e-14 1.596270650920159906e-01
2.842170943040400743e-14 1.597309424193465721e-01
8.526512829121202230e-14 1.595710931978709113e-01
2.842170943040400743e-14 1.592738883205392086e-01
0.000000000000000000e+00 1.593249622437845903e-01
2.842170943040400743e-14 1.591783547733616466e-01
8.526512829121202230e-14 1.589633821748068498e-01
5.684341886080801487e-14 1.590571222947029240e-01
5.684341886080801487e-14 1.589199151352284900e-01
5.684341886080801487e-14 1.587514798573644859e-01
8.526512829121202230e-14 1.589668815345378072e-01
2.842170943040400743e-14 1.584671686875797625e-01
0.000000000000000000e+00 1.584186650643777394e-01
2.842170943040400743e-14 1.583296884870054044e-01
8.526512829121202230e-14 1.582611098669231831e-01
2.842170943040400743e-14 1.582158251078499556e-01
8.526512829121202230e-14 1.579213258860256430e-01
8.526512829121202230e-14 1.578909266652577248e-01
2.842170943040400743e-14 1.575229275431686837e-01
5.684341886080801487e-14 1.575763611887598115e-01
0.000000000000000000e+00 1.574999119391748414e-01
0.000000000000000000e+00 1.572888604499492193e-01
5.684341886080801487e-14 1.570935415772610200e-01
2.842170943040400743e-14 1.572422054361264643e-01
8.526512829121202230e-14 1.568726300205573188e-01
8.526512829121202230e-14 1.566059103751170078e-01
2.842170943040400743e-14 1.568684867057216492e-01
8.526512829121202230e-14 1.568007750907335629e-01
2.842170943040400743e-14 1.568874260319699232e-01
0.000000000000000000e+00 1.568977050174730770e-01
2.842170943040400743e-14 1.570092298411426834e-01
8.526512829121202230e-14 1.567420527350105730e-01
5.684341886080801487e-14 1.565981113559201665e-01
1.136868377216160297e-13 1.563516530689469941e-01
5.684341886080801487e-14 1.562237456737041730e-01
8.526512829121202230e-14 1.560599834071076386e-01
2.842170943040400743e-14 1.557161273154174519e-01
0.000000000000000000e+00 1.559133454127256957e-01
2.842170943040400743e-14 1.555829020707445165e-01
8.526512829121202230e-14 1.555069211296109533e-01
2.842170943040400743e-14 1.551032887551478667e-01
8.526512829121202230e-14 1.550925407927135069e-01
8.526512829121202230e-14 1.549656448920034846e-01
5.684341886080801487e-14 1.547668683048142035e-01
5.684341886080801487e-14 1.548611848303905469e-01
0.000000000000000000e+00 1.544366233309783787e-01
0.000000000000000000e+00 1.546516366624409444e-01
5.684341886080801487e-14 1.546005684313205564e-01
5.684341886080801487e-14 1.545415306841201319e-01
8.526512829121202230e-14 1.545263979393657616e-01
8.526512829121202230e-14 1.545194833974429527e-01
2.842170943040400743e-14 1.543240692291553418e-01
5.684341886080801487e-14 1.543824543520731229e-01
2.842170943040400743e-14 1.542701317740636235e-01
0.000000000000000000e+00 1.541853837092166946e-01
2.842170943040400743e-14 1.543196908088601271e-01
8.526512829121202230e-14 1.541288460684829831e-01
5.684341886080801487e-14 1.540697686753640105e-01
1.136868377216160297e-13 1.542233588574544179e-01
8.526512829121202230e-14 1.535903853980459532e-01
2.842170943040400743e-14 1.540337624219858537e-01
2.842170943040400743e-14 1.542920118491387660e-01
2.842170943040400743e-14 1.540557024875486014e-01
2.842170943040400743e-14 1.541026638269640536e-01
2.842170943040400743e-14 1.542425541538975375e-01
8.526512829121202230e-14 1.539300930513319288e-01
8.526512829121202230e-14 1.538756326819512854e-01
8.526512829121202230e-14 1.540459467277905115e-01
5.684341886080801487e-14 1.536897085310072186e-01
0.000000000000000000e+00 1.537049862888515972e-01
0.000000000000000000e+00 1.535056625987258061e-01
5.684341886080801487e-14 1.535864034832674363e-01
5.684341886080801487e-14 1.534693694208211501e-01
2.842170943040400743e-14 1.536567320896256583e-01
1.136868377216160297e-13 1.533996190914425628e-01
1.136868377216160297e-13 1.533050533796778137e-01
2.842170943040400743e-14 1.531595567636629684e-01
5.684341886080801487e-14 1.534631036750759292e-01
2.842170943040400743e-14 1.530763373814694184e-01
0.000000000000000000e+00 1.532769365379864634e-01
2.842170943040400743e-14 1.532014254692471988e-01
8.526512829121202230e-14 1.531053987059435295e-01
0.000000000000000000e+00 1.532281054429642242e-01
1.421085471520200372e-13 1.527658125522067811e-01
8.526512829121202230e-14 1.528968024327763686e-01
0.000000000000000000e+00 1.526898497047213532e-01
2.842170943040400743e-14 1.526626593895462625e-01
2.842170943040400743e-14 1.526831918454761294e-01
2.842170943040400743e-14 1.525089851776116057e-01
0.000000000000000000e+00 1.523014350922694271e-01
8.526512829121202230e-14 1.523808094538151303e-01
2.842170943040400743e-14 1.523296529115128195e-01
2.842170943040400743e-14 1.518883010067637873e-01
5.684341886080801487e-14 1.517199430282356876e-01
2.842170943040400743e-14 1.516104029233387718e-01
0.000000000000000000e+00 1.512401427091456252e-01
8.526512829121202230e-14 1.512879961780310145e-01
5.684341886080801487e-14 1.512537401577183638e-01
2.842170943040400743e-14 1.511564487184712258e-01
1.136868377216160297e-13 1.509510627153585471e-01
1.136868377216160297e-13 1.512424129310910859e-01
2.842170943040400743e-14 1.510450988234863512e-01
5.684341886080801487e-14 1.511246100643462709e-01
8.526512829121202230e-14 1.511922541129656627e-01
0.000000000000000000e+00 1.510919797157168065e-01
5.684341886080801487e-14 1.513161113287906645e-01
8.526512829121202230e-14 1.513007311112895270e-01
2.842170943040400743e-14 1.514721946604022929e-01
1.421085471520200372e-13 1.513978861137769694e-01
8.526512829121202230e-14 1.514631263983929610e-01
5.684341886080801487e-14 1.512799930279779548e-01
0.000000000000000000e+00 1.514216577363462490e-01
1.136868377216160297e-13 1.514664191056226128e-01
0.000000000000000000e+00 1.512897080755118417e-01
5.684341886080801487e-14 1.513905393567040181e-01
1.136868377216160297e-13 1.514551928261640978e-01
1.705302565824240446e-13 1.513108231601605347e-01
5.684341886080801487e-14 1.517628759871351707e-01
5.684341886080801487e-14 1.516980848496552736e-01
1.136868377216160297e-13 1.518122229076575569e-01
0.000000000000000000e+00 1.519852693776053143e-01
1.136868377216160297e-13 1.521250128784426281e-01
5.684341886080801487e-14 1.521898175768483519e-01
5.684341886080801487e-14 1.524646932272024913e-01
1.136868377216160297e-13 1.525400845913709447e-01
1.705302565824240446e-13 1.524013539257602912e-01
5.684341886080801487e-14 1.526568237431306652e-01
5.684341886080801487e-14 1.524826094380792862e-01
1.136868377216160297e-13 1.527336278729702901e-01
0.000000000000000000e+00 1.528389159801457620e-01
1.136868377216160297e-13 1.526630225600327240e-01
5.684341886080801487e-14 1.528955385830846336e-01
5.684341886080801487e-14 1.529294764021148223e-01
1.705302565824240446e-13 1.529643991213883725e-01
1.136868377216160297e-13 1.531155597716091776e-01
5.684341886080801487e-14 1.532423371280041136e-01
0.000000000000000000e+00 1.533624903925274452e-01
1.136868377216160297e-13 1.534157817593024553e-01
0.000000000000000000e+00 1.533577863504472782e-01
5.684341886080801487e-14 1.534919612850831894e-01
1.136868377216160297e-13 1.535093706952922465e-01
1.705302565824240446e-13 1.534897684198174850e-01
5.684341886080801487e-14 1.535465498858941125e-01
5.684341886080801487e-14 1.536079610227517600e-01
1.136868377216160297e-13 1.536390612946691159e-01
0.000000000000000000e+00 1.536450839041005600e-01
1.136868377216160297e-13 1.536450839041005600e-01
5.684341886080801487e-14 1.536643609939169208e-01
5.684341886080801487e-14 1.536704244896792693e-01
1.136868377216160297e-13 1.536704244896792693e-01
1.705302565824240446e-13 1.536704244896792693e-01
5.684341886080801487e-14 1.536704244896792693e-01
5.684341886080801487e-14 1.536704244896792693e-01
1.705302565824240446e-13 1.536704244896792693e-01
0.000000000000000000e+00 1.536704244896792693e-01
1.705302565824240446e-13 1.536704244896792693e-01
5.684341886080801487e-14 1.536704244896792693e-01
5.684341886080801487e-14 1.536704244896792693e-01
1.705302565824240446e-13 1.536704244896792693e-01
1.136868377216160297e-13 1.536704244896792693e-01
1.136868377216160297e-13 1.536704244896792693e-01
0.000000000000000000e+00 1.536704244896792693e-01
1.136868377216160297e-13 1.536704244896792693e-01
0.000000000000000000e+00 1.536704244896792693e-01
1.136868377216160297e-13 1.536704244896792693e-01
1.136868377216160297e-13 1.536704244896792693e-01
1.705302565824240446e-13 1.536704244896792693e-01
5.684341886080801487e-14 1.536704244896792693e-01
5.684341886080801487e-14 1.536704244896792693e-01
1.705302565824240446e-13 1.536704244896792693e-01
0.000000000000000000e+00 1.536704244896792693e-01
1.705302565824240446e-13 1.536704244896792693e-01
5.684341886080801487e-14 1.536704244896792693e-01
5.684341886080801487e-14 1.536704244896792693e-01
1.705302565824240446e-13 1.536704244896792693e-01
1.705302565824240446e-13 1.536704244896792693e-01
5.684341886080801487e-14 1.536704244896792693e-01
5.684341886080801487e-14 1.536704244896792693e-01
1.705302565824240446e-13 1.536704244896792693e-01
0.000000000000000000e+00 1.536704244896792693e-01
1.705302565824240446e-13 1.536704244896792693e-01
5.684341886080801487e-14 1.536704244896792693e-01
5.684341886080801487e-14 1.536704244896792693e-01
1.705302565824240446e-13 1.536704244896792693e-01
1.136868377216160297e-13 1.536704244896792693e-01
1.136868377216160297e-13 1.536704244896792693e-01
0.000000000000000000e+00 1.536704244896792693e-01
2.273736754432320595e-13 1.536704244896792693e-01
0.000000000000000000e+00 1.536704244896792693e-01
1.136868377216160297e-13 1.536704244896792693e-01
1.136868377216160297e-13 1.536704244896792693e-01
1.705302565824240446e-13 1.536704244896792693e-01
5.684341886080801487e-14 1.536704244896792693e-01
5.684341886080801487e-14 1.536704244896792693e-01
1.705302565824240446e-13 1.536704244896792693e-01
0.000000000000000000e+00 1.536704244896792693e-01
1.705302565824240446e-13 1.536704244896792693e-01
5.684341886080801487e-14 1.536704244896792693e-01
5.684341886080801487e-14 1.536704244896792693e-01
1.705302565824240446e-13 1.536704244896792693e-01
1.705302565824240446e-13 1.536704244896792693e-01
5.684341886080801487e-14 1.536704244896792693e-01
5.684341886080801487e-14 1.536704244896792693e-01
1.705302565824240446e-13 1.536704244896792693e-01
0.000000000000000000e+00 1.536704244896792693e-01
1.705302565824240446e-13 1.536704244896792693e-01
5.684341886080801487e-14 1.536704244896792693e-01
5.684341886080801487e-14 1.536704244896792693e-01
1.705302565824240446e-13 1.536704244896792693e-01
1.136868377216160297e-13 1.536704244896792693e-01
1.136868377216160297e-13 1.536704244896792693e-01
0.000000000000000000e+00 1.536704244896792693e-01
2.273736754432320595e-13 1.536704244896792693e-01
0.000000000000000000e+00 1.536704244896792693e-01
1.136868377216160297e-13 1.536704244896792693e-01
1.136868377216160297e-13 1.536704244896792693e-01
1.705302565824240446e-13 1.536704244896792693e-01
5.684341886080801487e-14 1.536704244896792693e-01
5.684341886080801487e-14 1.536704244896792693e-01
1.705302565824240446e-13 1.536704244896792693e-01
0.000000000000000000e+00 1.536704244896792693e-01
1.705302565824240446e-13 1.536704244896792693e-01
5.684341886080801487e-14 1.536704244896792693e-01
5.684341886080801487e-14 1.536704244896792693e-01
1.705302565824240446e-13 1.536704244896792693e-01
1.136868377216160297e-13 1.536704244896792693e-01
5.684341886080801487e-14 1.536704244896792693e-01
5.684341886080801487e-14 1.536704244896792693e-01
1.705302565824240446e-13 1.536704244896792693e-01
0.000000000000000000e+00 1.536704244896792693e-01
1.705302565824240446e-13 1.536704244896792693e-01
