#####################################################################
# Alchemist log file - simulation started at: 2017-05-23T14:08+0000 #
#####################################################################
# random = 12.0, targets = 1.0, density = 14.160781367816199, gridShift = 0.0, perturbation = 0.0, connfactor = 0.5
#
# The columns have the following meaning: 
# time se[Mean] 
0.0 NaN 
1.0005590746559656 NaN 
2.000559074655966 1.0 
3.000559074655966 1.0 
4.000559074655966 1.0 
5.000559074655966 1.0 
6.000559074655966 1.0 
7.000559074655966 1.0 
8.000559074655966 1.0 
9.000559074655966 1.0 
10.000559074655966 1.0 
11.000559074655966 1.0 
12.000559074655966 1.0 
13.000559074655966 1.0 
14.000559074655966 1.0 
15.000559074655966 1.0 
16.000559074655968 1.0 
17.000559074655968 1.0 
18.000559074655968 1.0 
19.000559074655968 1.0 
20.000559074655968 1.0 
21.000559074655968 1.0 
22.000559074655968 1.0 
23.000559074655968 1.0 
24.000559074655968 1.0 
25.000559074655968 1.0 
26.000559074655968 1.0 
27.000559074655968 1.0 
28.000559074655968 1.0 
29.000559074655968 1.0 
30.000559074655968 1.0 
31.000559074655968 1.0 
32.00055907465597 1.0 
33.00055907465597 1.0 
34.00055907465597 1.0 
35.00055907465597 1.0 
36.00055907465597 1.0 
37.00055907465597 1.0 
38.00055907465597 1.0 
39.00055907465597 1.0 
40.00055907465597 1.0 
41.00055907465597 1.0 
42.00055907465597 1.0 
43.00055907465597 1.0 
44.00055907465597 1.0 
45.00055907465597 1.0 
46.00055907465597 0.9995069033530573 
47.00055907465597 1.0092044707429322 
48.00055907465597 1.084648257725182 
49.00055907465597 1.0787310979618683 
50.00055907465597 1.167159763313612 
51.00055907465597 1.3648915187376753 
52.00055907465597 1.3214990138067049 
53.00055907465597 1.4526627218934927 
54.00055907465597 1.540269559500331 
55.00055907465597 1.4518408941485905 
56.00055907465597 1.3767258382643006 
57.00055907465597 1.4275147928994074 
58.00055907465597 1.387245233399076 
59.00055907465597 1.2131821170282726 
60.00055907465597 1.272353714661407 
61.00055907465597 1.2077580539118984 
62.00055907465597 1.1137409598948063 
63.00055907465597 1.0958251150558844 
64.00055907465597 1.1526955950032867 
65.00055907465597 1.030736357659434 
66.00055907465597 0.9669625246548326 
67.00055907465597 1.0401051939513477 
68.00055907465597 0.9206114398422094 
69.00055907465597 0.9265285996055237 
70.00055907465597 0.8658777120315568 
71.00055907465597 0.805226824457594 
72.00055907465597 0.7807363576594338 
73.00055907465597 0.7005259697567384 
74.00055907465597 0.6531886916502312 
75.00055907465597 0.5608152531229487 
76.00055907465597 0.548323471400393 
77.00055907465597 0.5460223537146637 
78.00055907465597 0.42866535174227743 
79.00055907465597 0.3962853385930303 
80.00055907465597 0.4081196581196571 
81.00055907465597 0.2899408284023671 
82.00055907465597 0.2504930966469433 
83.00055907465597 0.238494411571334 
84.00055907465597 0.18967784352399716 
85.00055907465597 0.17899408284023652 
86.00055907465597 0.134286653517423 
87.00055907465597 0.10585141354372112 
88.00055907465597 0.08514135437212372 
89.00055907465597 0.07297830374753467 
90.00055907465597 0.060322156476002586 
91.00055907465597 0.048816568047337215 
92.00055907465597 0.03155818540433914 
93.00055907465597 0.04355687047994727 
94.00055907465597 0.03139381985535835 
95.00055907465597 0.036489151873767424 
96.00055907465597 0.03353057199211028 
97.00055907465597 0.026462853385930324 
98.00055907465597 0.0364891518737672 
99.00055907465597 0.0238330046022353 
100.00055907465597 0.025312294543063708 
101.00055907465597 0.021203155818540546 
102.00055907465597 0.02383300460223538 
103.00055907465597 0.02531229454306373 
104.00055907465597 0.014135437212360404 
105.00055907465597 0.014135437212360371 
106.00055907465597 0.016765285996055278 
107.00055907465597 0.010026298487836925 
108.00055907465597 0.0059171597633136406 
109.00055907465597 0.007067718606180193 
110.00055907465597 0.002958579881656838 
111.00055907465597 0.008547008547008574 
112.00055907465597 0.0014792899408284145 
113.00055907465597 0.0 
114.00055907465597 0.0014792899408284145 
115.00055907465597 0.0 
116.00055907465597 0.0014792899408284145 
117.00055907465597 0.0 
118.00055907465597 0.0 
119.00055907465597 0.0 
120.00055907465597 0.0 
121.00055907465597 0.0 
122.00055907465597 0.0 
123.00055907465597 0.0 
124.00055907465597 0.0 
125.00055907465597 0.0 
126.00055907465597 0.0 
127.00055907465597 0.0 
128.00055907465597 0.0 
129.00055907465597 0.0 
130.00055907465597 0.0 
131.00055907465597 0.0 
132.00055907465597 0.0 
133.00055907465597 0.0 
134.00055907465597 0.0 
135.00055907465597 0.0 
136.00055907465597 0.0 
137.00055907465597 0.0 
138.00055907465597 0.0 
139.00055907465597 0.0 
140.00055907465597 0.0 
141.00055907465597 0.0 
142.00055907465597 0.0 
143.00055907465597 0.0 
144.00055907465597 0.0 
145.00055907465597 0.0 
146.00055907465597 0.0 
147.00055907465597 0.0 
148.00055907465597 0.0 
149.00055907465597 0.0 
150.00055907465597 0.0 
151.00055907465597 0.0 
152.00055907465597 0.0 
153.00055907465597 0.0 
154.00055907465597 0.0 
155.00055907465597 0.0 
156.00055907465597 0.0 
157.00055907465597 0.0 
158.00055907465597 0.0 
159.00055907465597 0.0 
160.00055907465597 0.0 
161.00055907465597 0.0 
162.00055907465597 0.0 
163.00055907465597 0.0 
164.00055907465597 0.0 
165.00055907465597 0.0 
166.00055907465597 0.0 
167.00055907465597 0.0 
168.00055907465597 0.0 
169.00055907465597 0.0 
170.00055907465597 0.0 
171.00055907465597 0.0 
172.00055907465597 0.0 
173.00055907465597 0.0 
174.00055907465597 0.0 
175.00055907465597 0.0 
176.00055907465597 0.0 
177.00055907465597 0.0 
178.00055907465597 0.0 
179.00055907465597 0.0 
180.00055907465597 0.0 
181.00055907465597 0.0 
182.00055907465597 0.0 
183.00055907465597 0.0 
184.00055907465597 0.0 
185.00055907465597 0.0 
186.00055907465597 0.0 
187.00055907465597 0.0 
188.00055907465597 0.0 
189.00055907465597 0.0 
190.00055907465597 0.0 
191.00055907465597 0.0 
192.00055907465597 0.0 
193.00055907465597 0.0 
194.00055907465597 0.0 
195.00055907465597 0.0 
196.00055907465597 0.0 
197.00055907465597 0.0 
198.00055907465597 0.0 
199.00055907465597 0.0 
200.00055907465597 0.0 
201.00055907465597 0.0 
202.00055907465597 0.0 
203.00055907465597 0.0 
204.00055907465597 0.0 
#####################################################################
# End of data export. Simulation finished at: 2017-05-23T14:11+0000 #
#####################################################################
