#####################################################################
# Alchemist log file - simulation started at: 2017-05-24T19:06+0000 #
#####################################################################
# random = 15.0, targets = 100.0, density = 0.05649405772326896, gridShift = 1.0, perturbation = 0.0, connfactor = 1.0
#
# The columns have the following meaning: 
# time se[Mean] 
0.0 NaN 
1.0090872484315245 NaN 
2.0090872484315243 1.09391875 
3.0090872484315243 1.1307105902777776 
4.009087248431524 1.1597975694444445 
5.009087248431524 1.0536979166666667 
6.009087248431524 1.0112260416666667 
7.009087248431524 0.8949791666666667 
8.009087248431523 0.8015704861111111 
9.009087248431523 0.7591713541666667 
10.009087248431523 0.6187725694444445 
11.009087248431523 0.5292930555555557 
12.009087248431523 0.48606909722222236 
13.009087248431523 0.4221267361111113 
14.009087248431523 0.3238567708333335 
15.009087248431523 0.24623715277777788 
16.009087248431523 0.2283534722222223 
17.009087248431523 0.16402621527777778 
18.009087248431523 0.09229166666666669 
19.009087248431523 0.08248576388888891 
20.009087248431523 0.06291770833333335 
21.009087248431523 0.03720052083333338 
22.009087248431523 0.040000000000000056 
23.009087248431523 0.040000000000000056 
24.009087248431523 0.040000000000000056 
25.009087248431523 0.040000000000000056 
26.009087248431523 0.040000000000000056 
27.009087248431523 0.040000000000000056 
28.009087248431523 0.040000000000000056 
29.009087248431523 0.040000000000000056 
#####################################################################
# End of data export. Simulation finished at: 2017-05-24T19:06+0000 #
#####################################################################
