#####################################################################
# Alchemist log file - simulation started at: 2017-05-23T00:55+0000 #
#####################################################################
# random = 10.0, targets = 10.0, density = 10.026386447354522, gridShift = 1.0, perturbation = 0.0, connfactor = 1.5
#
# The columns have the following meaning: 
# time se[Mean] 
0.0 NaN 
1.0007035023519422 NaN 
2.000703502351942 1.001889400921659 
3.000703502351942 1.0040363543266768 
4.000703502351942 1.007010752688172 
5.000703502351942 1.0101344086021506 
6.000703502351942 1.007284178187404 
7.000703502351942 1.0074014336917563 
8.000703502351943 1.008100614439324 
9.000703502351943 1.01510496671787 
10.000703502351943 1.0167373271889402 
11.000703502351943 1.0328415258576549 
12.000703502351943 1.0316751152073733 
13.000703502351943 1.0354761904761907 
14.000703502351943 1.0518717357910905 
15.000703502351943 1.0246794674859192 
16.000703502351943 1.0456029185867897 
17.000703502351943 1.0119288274449563 
18.000703502351943 1.0258978494623656 
19.000703502351943 1.006689452124936 
20.000703502351943 1.0002698412698414 
21.000703502351943 0.991752432155658 
22.000703502351943 0.9798707117255508 
23.000703502351943 0.9750913978494623 
24.000703502351943 0.9675990783410137 
25.000703502351943 0.960277521761393 
26.000703502351943 0.9443343573988733 
27.000703502351943 0.9387772657450076 
28.000703502351943 0.9193509984639014 
29.000703502351943 0.9110855094726066 
30.000703502351943 0.8991249359959035 
31.000703502351943 0.8905583717357916 
32.00070350235194 0.8840368663594467 
33.00070350235194 0.876858934971838 
34.00070350235194 0.8689493087557602 
35.00070350235194 0.8643894009216591 
36.00070350235194 0.8578607270865332 
37.00070350235194 0.8527309267793145 
38.00070350235194 0.8458151561699947 
39.00070350235194 0.8409147465437788 
40.00070350235194 0.8355867895545318 
41.00070350235194 0.8271810035842289 
42.00070350235194 0.8229615975422421 
43.00070350235194 0.8160266257040454 
44.00070350235194 0.8107880184331798 
45.00070350235194 0.8042629288274447 
46.00070350235194 0.7987703533026116 
47.00070350235194 0.7926728110599081 
48.00070350235194 0.7877255504352274 
49.00070350235194 0.7789408602150543 
50.00070350235194 0.768504352278546 
51.00070350235194 0.7654697900665637 
52.00070350235194 0.7554961597542248 
53.00070350235194 0.7497619047619047 
54.00070350235194 0.7379418842805947 
55.00070350235194 0.7302462877624166 
56.00070350235194 0.7213725038402456 
57.00070350235194 0.7126116231438812 
58.00070350235194 0.7036643625192013 
59.00070350235194 0.6917247823860727 
60.00070350235194 0.6845325140809022 
61.00070350235194 0.671874039938556 
62.00070350235194 0.665503328213005 
63.00070350235194 0.6525624679979509 
64.00070350235194 0.6439866871479777 
65.00070350235194 0.6315501792114712 
66.00070350235194 0.6187309267793142 
67.00070350235194 0.6107608806963629 
68.00070350235194 0.5958620071684599 
69.00070350235194 0.5881085509472611 
70.00070350235194 0.5741771633384538 
71.00070350235194 0.5646513056835654 
72.00070350235194 0.5634237071172552 
73.00070350235194 0.5592406554019458 
74.00070350235194 0.5681282642089093 
75.00070350235194 0.5701658986175115 
76.00070350235194 0.5555125448028675 
77.00070350235194 0.5650320020481312 
78.00070350235194 0.566643369175627 
79.00070350235194 0.5623082437275986 
80.00070350235194 0.5441190476190477 
81.00070350235194 0.5152977470558117 
82.00070350235194 0.5056338965693803 
83.00070350235194 0.48724347158218106 
84.00070350235194 0.4758568868407576 
85.00070350235194 0.4702503840245779 
86.00070350235194 0.45528853046595036 
87.00070350235194 0.4478433179723506 
88.00070350235194 0.438293650793651 
89.00070350235194 0.43265156169994917 
90.00070350235194 0.4147066052227345 
91.00070350235194 0.41670788530465946 
92.00070350235194 0.40088684075780845 
93.00070350235194 0.3939756784434204 
94.00070350235194 0.39086175115207383 
95.00070350235194 0.38104301075268876 
96.00070350235194 0.37565386584741467 
97.00070350235194 0.36467562724014374 
98.00070350235194 0.35881874039938594 
99.00070350235194 0.34832078853046583 
100.00070350235194 0.335456733230927 
101.00070350235194 0.33032565284178195 
102.00070350235194 0.31646671786994396 
103.00070350235194 0.32181464413722516 
104.00070350235194 0.30340988223246307 
105.00070350235194 0.3072347670250898 
106.00070350235194 0.29585739887352797 
107.00070350235194 0.2882744495647722 
108.00070350235194 0.27476036866359466 
109.00070350235194 0.27395519713261657 
110.00070350235194 0.2755832053251411 
111.00070350235194 0.2729836149513571 
112.00070350235194 0.24484126984127014 
113.00070350235194 0.25116538658474163 
114.00070350235194 0.23988735279057888 
115.00070350235194 0.2480893497183821 
116.00070350235194 0.23897209421402982 
117.00070350235194 0.20743420378904256 
118.00070350235194 0.20048643113159254 
119.00070350235194 0.19355990783410149 
120.00070350235194 0.1847708653353816 
121.00070350235194 0.16843215565796224 
122.00070350235194 0.15847363031234002 
123.00070350235194 0.14827521761392728 
124.00070350235194 0.13148156682027662 
125.00070350235194 0.13520762928827448 
126.00070350235194 0.12275038402457775 
127.00070350235194 0.11534383000512047 
128.00070350235194 0.11156707629288286 
129.00070350235194 0.10310343061955973 
130.00070350235194 0.09858269329237082 
131.00070350235194 0.09558550947260641 
132.00070350235194 0.09034869431643633 
133.00070350235194 0.08898003072196625 
134.00070350235194 0.0883110599078343 
135.00070350235194 0.07709805427547375 
136.00070350235194 0.0776876600102408 
137.00070350235194 0.07180209933435754 
138.00070350235194 0.06045340501792124 
139.00070350235194 0.060984895033282194 
140.00070350235194 0.05863261648745524 
141.00070350235194 0.04798847926267287 
142.00070350235194 0.04904557091653891 
143.00070350235194 0.04612109575012795 
144.00070350235194 0.04143881208397335 
145.00070350235194 0.03724398361495133 
146.00070350235194 0.039878648233486864 
147.00070350235194 0.036024321556579954 
148.00070350235194 0.029053251408090255 
149.00070350235194 0.027732974910394444 
150.00070350235194 0.021979006656426023 
151.00070350235194 0.024875576036866385 
152.00070350235194 0.023299539170507085 
153.00070350235194 0.0180576036866359 
154.00070350235194 0.015411162314388108 
155.00070350235194 0.016226830517153155 
156.00070350235194 0.01606118791602668 
157.00070350235194 0.01350819252432157 
158.00070350235194 0.012354070660522314 
159.00070350235194 0.012002816180235574 
160.00070350235194 0.011520993343574051 
161.00070350235194 0.011332821300563262 
162.00070350235194 0.010742191500256053 
163.00070350235194 0.01084971838197647 
164.00070350235194 0.010770097286226356 
165.00070350235194 0.010343573988735323 
166.00070350235194 0.010312852022529476 
167.00070350235194 0.010269329237071207 
168.00070350235194 0.0102145417306708 
169.00070350235194 0.010141321044546885 
170.00070350235194 0.01010701484895037 
171.00070350235194 0.010077060931899676 
172.00070350235194 0.010059907834101416 
173.00070350235194 0.010033282130056359 
174.00070350235194 0.010023297491039461 
175.00070350235194 0.010019969278033829 
176.00070350235194 0.010009984639016933 
177.00070350235194 0.010009984639016933 
178.00070350235194 0.010003328213005667 
179.00070350235194 0.010003328213005667 
180.00070350235194 0.010000000000000035 
181.00070350235194 0.010000000000000035 
182.00070350235194 0.010000000000000035 
183.00070350235194 0.010000000000000035 
184.00070350235194 0.010000000000000035 
185.00070350235194 0.010000000000000035 
186.00070350235194 0.010000000000000035 
187.00070350235194 0.010000000000000035 
188.00070350235194 0.010000000000000035 
189.00070350235194 0.010000000000000035 
190.00070350235194 0.010000000000000035 
191.00070350235194 0.010000000000000035 
192.00070350235194 0.010000000000000035 
193.00070350235194 0.010000000000000035 
194.00070350235194 0.010000000000000035 
195.00070350235194 0.010000000000000035 
196.00070350235194 0.010000000000000035 
197.00070350235194 0.010000000000000035 
198.00070350235194 0.010000000000000035 
199.00070350235194 0.010000000000000035 
200.00070350235194 0.010000000000000035 
201.00070350235194 0.010000000000000035 
202.00070350235194 0.010000000000000035 
203.00070350235194 0.010000000000000035 
204.00070350235194 0.010000000000000035 
205.00070350235194 0.010000000000000035 
206.00070350235194 0.010000000000000035 
207.00070350235194 0.010000000000000035 
208.00070350235194 0.010000000000000035 
209.00070350235194 0.010000000000000035 
210.00070350235194 0.010000000000000035 
211.00070350235194 0.010000000000000035 
212.00070350235194 0.010000000000000035 
213.00070350235194 0.010000000000000035 
214.00070350235194 0.010000000000000035 
215.00070350235194 0.010000000000000035 
216.00070350235194 0.010000000000000035 
217.00070350235194 0.010000000000000035 
218.00070350235194 0.010000000000000035 
219.00070350235194 0.010000000000000035 
220.00070350235194 0.010000000000000035 
221.00070350235194 0.010000000000000035 
222.00070350235194 0.010000000000000035 
223.00070350235194 0.010000000000000035 
224.00070350235194 0.010000000000000035 
225.00070350235194 0.010000000000000035 
226.00070350235194 0.010000000000000035 
227.00070350235194 0.010000000000000035 
228.00070350235194 0.010000000000000035 
229.00070350235194 0.010000000000000035 
230.00070350235194 0.010000000000000035 
231.00070350235194 0.010000000000000035 
232.00070350235194 0.010000000000000035 
233.00070350235194 0.010000000000000035 
234.00070350235194 0.010000000000000035 
235.00070350235194 0.010000000000000035 
236.00070350235194 0.010000000000000035 
237.00070350235194 0.010000000000000035 
238.00070350235194 0.010000000000000035 
239.00070350235194 0.010000000000000035 
240.00070350235194 0.010000000000000035 
241.00070350235194 0.010000000000000035 
242.00070350235194 0.010000000000000035 
243.00070350235194 0.010000000000000035 
244.00070350235194 0.010000000000000035 
245.00070350235194 0.010000000000000035 
246.00070350235194 0.010000000000000035 
247.00070350235194 0.010000000000000035 
248.00070350235194 0.010000000000000035 
249.00070350235194 0.010000000000000035 
#####################################################################
# End of data export. Simulation finished at: 2017-05-23T00:57+0000 #
#####################################################################
