#####################################################################
# Alchemist log file - simulation started at: 2017-05-23T13:13+0000 #
#####################################################################
# random = 5.0, targets = 31.622776601683793, density = 0.05649405772326896, gridShift = 0.0, perturbation = 0.5, connfactor = 0.25
#
# The columns have the following meaning: 
# time se[Mean] 
0.0 NaN 
1.0183713707442061 NaN 
2.018371370744206 1.0 
3.018371370744206 1.0 
4.018371370744206 1.0 
5.018371370744206 1.0 
6.018371370744206 1.0 
7.018371370744206 0.9961096529247895 
8.018371370744205 0.9850783223228042 
9.018371370744205 0.9660953369467519 
10.018371370744205 0.9316404193128781 
11.018371370744205 0.8911217287758757 
12.018371370744205 0.8514780382388734 
13.018371370744205 0.8059486651500262 
14.018371370744205 0.7574987020039187 
15.018371370744205 0.7499116305631849 
16.018371370744205 0.761414176369442 
17.018371370744205 0.7510192694520736 
18.018371370744205 0.782728295759734 
19.018371370744205 0.8192633403898971 
20.018371370744205 0.8192633403898971 
21.018371370744205 0.8192633403898971 
22.018371370744205 0.8192633403898971 
23.018371370744205 0.8192633403898971 
24.018371370744205 0.8192633403898971 
25.018371370744205 0.8192633403898971 
#####################################################################
# End of data export. Simulation finished at: 2017-05-23T13:13+0000 #
#####################################################################
