#####################################################################
# Alchemist log file - simulation started at: 2017-05-24T21:46+0000 #
#####################################################################
# random = 16.0, targets = 1.0, density = 14.160781367816199, gridShift = 1.0, perturbation = 0.0, connfactor = 0.1
#
# The columns have the following meaning: 
# time se[Mean] 
0.0 NaN 
1.000419502192421 NaN 
2.000419502192421 1.0 
3.000419502192421 1.0 
4.000419502192421 1.0 
5.000419502192421 1.0 
6.000419502192421 1.0 
7.000419502192421 1.0 
8.000419502192422 1.0 
9.000419502192422 1.0 
10.000419502192422 1.0 
11.000419502192422 1.0 
12.000419502192422 1.0 
13.000419502192422 1.0 
14.000419502192422 1.0 
15.000419502192422 1.0 
16.000419502192422 1.0 
17.000419502192422 1.0 
18.000419502192422 1.0 
19.000419502192422 1.0 
20.000419502192422 1.0 
21.000419502192422 1.0 
22.000419502192422 1.0 
23.000419502192422 1.0 
24.000419502192422 1.0 
25.000419502192422 1.0 
26.000419502192422 1.0 
27.000419502192422 1.0 
28.000419502192422 1.0 
29.000419502192422 1.0 
30.000419502192422 1.0 
31.000419502192422 1.0 
32.00041950219242 1.0 
33.00041950219242 1.0 
34.00041950219242 1.0 
35.00041950219242 1.0 
36.00041950219242 1.0 
37.00041950219242 1.0 
38.00041950219242 1.0 
39.00041950219242 1.0 
40.00041950219242 1.0 
41.00041950219242 1.0 
42.00041950219242 1.0 
43.00041950219242 1.0 
44.00041950219242 1.0 
45.00041950219242 1.0 
46.00041950219242 1.0 
47.00041950219242 1.0 
48.00041950219242 1.0 
49.00041950219242 1.0 
50.00041950219242 1.0 
51.00041950219242 1.0 
52.00041950219242 1.0 
53.00041950219242 1.0 
54.00041950219242 1.0 
55.00041950219242 1.0 
56.00041950219242 1.0 
57.00041950219242 1.0 
58.00041950219242 1.0 
59.00041950219242 1.0 
60.00041950219242 1.0 
61.00041950219242 1.0 
62.00041950219242 1.0 
63.00041950219242 1.0 
64.00041950219241 1.0 
65.00041950219241 1.0 
66.00041950219241 1.0 
67.00041950219241 1.0 
68.00041950219241 1.0 
69.00041950219241 1.0 
70.00041950219241 1.0 
71.00041950219241 1.0 
72.00041950219241 1.0 
73.00041950219241 1.0 
74.00041950219241 1.0 
75.00041950219241 1.0 
76.00041950219241 1.0 
77.00041950219241 1.0 
78.00041950219241 1.0 
79.00041950219241 1.0 
80.00041950219241 1.0 
81.00041950219241 1.0 
82.00041950219241 1.0 
83.00041950219241 1.0 
84.00041950219241 1.0 
#####################################################################
# End of data export. Simulation finished at: 2017-05-24T21:47+0000 #
#####################################################################
