#####################################################################
# Alchemist log file - simulation started at: 2017-05-23T15:02+0000 #
#####################################################################
# random = 12.0, targets = 3.1622776601683795, density = 0.11269076455391362, gridShift = 1.0, perturbation = 0.5, connfactor = 0.25
#
# The columns have the following meaning: 
# time se[Mean] 
0.0 NaN 
1.0242474491697862 NaN 
2.024247449169786 1.0 
3.024247449169786 0.9787017787186529 
4.024247449169787 0.8722106723119177 
5.024247449169787 0.7657195659051826 
6.024247449169787 0.7444213446238356 
7.024247449169787 0.6220355743730592 
8.024247449169787 0.4812640338715067 
9.024247449169787 0.39347470618342456 
10.024247449169787 0.31087826362073046 
11.024247449169787 0.17540494440052493 
12.024247449169787 0.10891383799378979 
13.024247449169787 0.1165978295259131 
14.024247449169787 0.1085978295259131 
15.024247449169787 0.10859782952591311 
16.024247449169785 0.12979071465130124 
17.024247449169785 0.13508893593264829 
18.024247449169785 0.13508893593264829 
19.024247449169785 0.13508893593264829 
20.024247449169785 0.13508893593264829 
21.024247449169785 0.13508893593264829 
#####################################################################
# End of data export. Simulation finished at: 2017-05-23T15:02+0000 #
#####################################################################
