#####################################################################
# Alchemist log file - simulation started at: 2017-05-24T17:56+0000 #
#####################################################################
# random = 7.0, targets = 3.1622776601683795, density = 7.099073319511142, gridShift = 1.0, perturbation = 0.0, connfactor = 2.0
#
# The columns have the following meaning: 
# time se[Mean] 
0.0 NaN 
1.000984151344496 NaN 
2.000984151344496 1.0249055120062938 
3.000984151344496 1.0453163518288533 
4.000984151344496 1.0583898962772675 
5.000984151344496 1.12543476903399 
6.000984151344496 1.1184843373473599 
7.000984151344496 1.2585337530875322 
8.000984151344497 1.284590865414438 
9.000984151344497 1.3163523507496226 
10.000984151344497 1.3061499244594355 
11.000984151344497 1.255387460825878 
12.000984151344497 1.2132278678190183 
13.000984151344497 1.1166501017292703 
14.000984151344497 1.0818263085208413 
15.000984151344497 1.0258925518145574 
16.000984151344497 1.040474937447334 
17.000984151344497 1.0066025690418918 
18.000984151344497 1.0126143352427206 
19.000984151344497 1.0063510329897047 
20.000984151344497 1.0262809184867785 
21.000984151344497 1.0233876850193262 
22.000984151344497 1.0499561173440084 
23.000984151344497 1.069338695178931 
24.000984151344497 1.0784120140561557 
25.000984151344497 1.0903879396805192 
26.000984151344497 1.1151952395718034 
27.000984151344497 1.1405262313009745 
28.000984151344497 1.123476086984292 
29.000984151344497 1.129764508046281 
30.000984151344497 1.095760560823453 
31.000984151344497 1.085043448255298 
32.0009841513445 1.0724984747883193 
33.0009841513445 1.0431211561650362 
34.0009841513445 0.9877504551198548 
35.0009841513445 0.9706587011467201 
36.0009841513445 0.950951491483911 
37.0009841513445 0.9308019361219854 
38.0009841513445 0.9216356544627345 
39.0009841513445 0.8975064932631304 
40.0009841513445 0.8894903089397842 
41.0009841513445 0.8785482747041298 
42.0009841513445 0.8643677505002981 
43.0009841513445 0.8647186289931035 
44.0009841513445 0.8499581856215918 
45.0009841513445 0.8478296838479075 
46.0009841513445 0.8362132646778426 
47.0009841513445 0.8216560027933666 
48.0009841513445 0.8191383939685962 
49.0009841513445 0.8100725801362453 
50.0009841513445 0.7909254275741171 
51.0009841513445 0.7918907197929252 
52.0009841513445 0.7707800085072131 
53.0009841513445 0.7622273903164434 
54.0009841513445 0.751734829226356 
55.0009841513445 0.7355866272915645 
56.0009841513445 0.7278257303080113 
57.0009841513445 0.7217239974159139 
58.0009841513445 0.7121682261678244 
59.0009841513445 0.7097090830970925 
60.0009841513445 0.7024752467012774 
61.0009841513445 0.693829288130057 
62.0009841513445 0.6859068242552498 
63.0009841513445 0.6827365657372048 
64.0009841513445 0.677663099772072 
65.0009841513445 0.6711403911718892 
66.0009841513445 0.6661471508985706 
67.0009841513445 0.6626803680433759 
68.0009841513445 0.6558997486717392 
69.0009841513445 0.6439335887434697 
70.0009841513445 0.6363484987260888 
71.0009841513445 0.624334347013107 
72.0009841513445 0.615616040454046 
73.0009841513445 0.6046998728152205 
74.0009841513445 0.5982093956524792 
75.0009841513445 0.5826317470146735 
76.0009841513445 0.567280513150418 
77.0009841513445 0.5521527078476115 
78.0009841513445 0.5375965738190811 
79.0009841513445 0.5201355822708494 
80.0009841513445 0.51067539970611 
81.0009841513445 0.48750554595279066 
82.0009841513445 0.47704184014129847 
83.0009841513445 0.4575063307856064 
84.0009841513445 0.44045544609005893 
85.0009841513445 0.42320401074812813 
86.0009841513445 0.4045603152977911 
87.0009841513445 0.38656925719240914 
88.0009841513445 0.37266652064501155 
89.0009841513445 0.35521603023241066 
90.0009841513445 0.34335069350248987 
91.0009841513445 0.325020393304871 
92.0009841513445 0.31140442774684784 
93.0009841513445 0.2980186331893071 
94.0009841513445 0.28490687006126775 
95.0009841513445 0.2707316050690752 
96.0009841513445 0.2621017548075839 
97.0009841513445 0.24829124313300882 
98.0009841513445 0.2365162506927813 
99.0009841513445 0.22643754527332083 
100.0009841513445 0.21622538786233467 
101.0009841513445 0.20676296687335027 
102.0009841513445 0.1980442827158637 
103.0009841513445 0.18747750293345786 
104.0009841513445 0.17804132367006484 
105.0009841513445 0.17091995428215864 
106.0009841513445 0.16177655053797277 
107.0009841513445 0.1567968050213779 
108.0009841513445 0.15136047126108565 
109.0009841513445 0.14713346072691316 
110.0009841513445 0.14065162140431825 
111.0009841513445 0.13744312691900065 
112.0009841513445 0.13255372569209897 
113.0009841513445 0.12905171036938012 
114.0009841513445 0.1251118508926715 
115.0009841513445 0.12689249496094507 
116.0009841513445 0.13315507659240627 
117.0009841513445 0.1289756802445198 
118.0009841513445 0.125120172875991 
119.0009841513445 0.13074060348014485 
120.0009841513445 0.11765919120641459 
121.0009841513445 0.11862899731866795 
122.0009841513445 0.12059595936740003 
123.0009841513445 0.127440710939104 
124.0009841513445 0.11419660885750156 
125.0009841513445 0.12018816255921069 
126.0009841513445 0.11803268115073405 
127.0009841513445 0.09932972523488758 
128.00098415134448 0.09025866206955326 
129.00098415134448 0.09339483079400268 
130.00098415134448 0.08473200130721441 
131.00098415134448 0.09145230150798253 
132.00098415134448 0.08950224988944083 
133.00098415134448 0.07674022258027792 
134.00098415134448 0.0828903470824849 
135.00098415134448 0.1073426815792199 
136.00098415134448 0.1659054702308094 
137.00098415134448 0.17335338413536333 
138.00098415134448 0.1699315920347948 
139.00098415134448 0.4078560056433203 
140.00098415134448 0.7594710107365754 
141.00098415134448 0.7884810069431882 
142.00098415134448 0.7959585263838591 
143.00098415134448 1.2709725074042117 
144.00098415134448 0.8010140405010893 
145.00098415134448 1.0588361279265617 
146.00098415134448 1.2695139507614157 
147.00098415134448 1.5678821834177912 
148.00098415134448 1.1175698369917773 
149.00098415134448 1.562082219256504 
150.00098415134448 1.5058548775015583 
151.00098415134448 0.9703221233014867 
152.00098415134448 0.7694392779110922 
153.00098415134448 0.9012476568110066 
154.00098415134448 0.7623805105722457 
155.00098415134448 1.1265982021593361 
156.00098415134448 1.1271192853835443 
157.00098415134448 0.7903479973073093 
158.00098415134448 1.1842406893467445 
159.00098415134448 0.8636771968152818 
160.00098415134448 0.9842376710290137 
161.00098415134448 1.38022551295774 
162.00098415134448 1.2571410477909852 
163.00098415134448 0.5861138346300524 
164.00098415134448 1.3171358206849721 
165.00098415134448 1.3176325254790726 
166.00098415134448 0.6157787115451864 
167.00098415134448 1.378456135100596 
168.00098415134448 0.858525375862809 
169.00098415134448 0.9817061873794297 
170.00098415134448 1.4224229618637714 
171.00098415134448 1.2242612893229474 
172.00098415134448 0.43042625597775863 
173.00098415134448 1.1931310441753826 
174.00098415134448 0.20117744846085717 
175.00098415134448 0.20111184538170992 
176.00098415134448 0.20103312020493902 
177.00098415134448 0.0026671432604461636 
178.00098415134448 0.002633403898972464 
179.00098415134448 0.002644650352797031 
180.00098415134448 0.002633403898972464 
181.00098415134448 0.002633403898972464 
182.00098415134448 0.002633403898972464 
183.00098415134448 0.002633403898972464 
184.00098415134448 0.002633403898972464 
185.00098415134448 0.002633403898972464 
186.00098415134448 0.002633403898972464 
187.00098415134448 0.002633403898972464 
188.00098415134448 0.002633403898972464 
189.00098415134448 0.002633403898972464 
190.00098415134448 0.002633403898972464 
191.00098415134448 0.002633403898972464 
192.00098415134448 0.002633403898972464 
193.00098415134448 0.002633403898972464 
194.00098415134448 0.002633403898972464 
195.00098415134448 0.002633403898972464 
196.00098415134448 0.002633403898972464 
197.00098415134448 0.002633403898972464 
198.00098415134448 0.002633403898972464 
199.00098415134448 0.002633403898972464 
200.00098415134448 0.002633403898972464 
201.00098415134448 0.002633403898972464 
202.00098415134448 0.002633403898972464 
203.00098415134448 0.002633403898972464 
204.00098415134448 0.002633403898972464 
205.00098415134448 0.002633403898972464 
206.00098415134448 0.002633403898972464 
207.00098415134448 0.002633403898972464 
208.00098415134448 0.002633403898972464 
209.00098415134448 0.002633403898972464 
210.00098415134448 0.002633403898972464 
211.00098415134448 0.002633403898972464 
212.00098415134448 0.002633403898972464 
213.00098415134448 0.002633403898972464 
214.00098415134448 0.002633403898972464 
215.00098415134448 0.002633403898972464 
216.00098415134448 0.002633403898972464 
217.00098415134448 0.002633403898972464 
218.00098415134448 0.002633403898972464 
219.00098415134448 0.002633403898972464 
220.00098415134448 0.002633403898972464 
221.00098415134448 0.002633403898972464 
222.00098415134448 0.002633403898972464 
223.00098415134448 0.002633403898972464 
224.00098415134448 0.002633403898972464 
225.00098415134448 0.002633403898972464 
226.00098415134448 0.002633403898972464 
227.00098415134448 0.002633403898972464 
228.00098415134448 0.002633403898972464 
229.00098415134448 0.002633403898972464 
230.00098415134448 0.002633403898972464 
231.00098415134448 0.002633403898972464 
232.00098415134448 0.002633403898972464 
233.00098415134448 0.002633403898972464 
234.00098415134448 0.002633403898972464 
#####################################################################
# End of data export. Simulation finished at: 2017-05-24T18:00+0000 #
#####################################################################
