#####################################################################
# Alchemist log file - simulation started at: 2017-05-23T22:24+0000 #
#####################################################################
# random = 6.0, targets = 1.0, density = 1.7841466528270753, gridShift = 1.0, perturbation = 0.0, connfactor = 2.0
#
# The columns have the following meaning: 
# time se[Mean] 
0.0 NaN 
1.0043581642399184 NaN 
2.0043581642399184 1.3214285714285716 
3.0043581642399184 1.667286706349207 
4.004358164239918 1.792410714285716 
5.004358164239918 1.865699404761907 
6.004358164239918 2.0270337301587285 
7.004358164239918 1.7671130952380936 
8.004358164239918 1.9056299603174622 
9.004358164239918 1.3425099206349216 
10.004358164239918 1.3324652777777777 
11.004358164239918 1.132564484126984 
12.004358164239918 1.0343501984126986 
13.004358164239918 0.935887896825397 
14.004358164239918 0.935887896825397 
15.004358164239918 0.9317956349206351 
16.004358164239918 0.935887896825397 
17.004358164239918 0.9468005952380953 
18.004358164239918 0.9549851190476192 
19.004358164239918 0.9658978174603176 
20.004358164239918 0.9672619047619047 
21.004358164239918 0.9740823412698414 
22.004358164239918 0.9754464285714286 
23.004358164239918 0.9781746031746033 
24.004358164239918 0.9740823412698413 
25.004358164239918 0.9822668650793651 
26.004358164239918 0.968625992063492 
27.004358164239918 0.9781746031746033 
28.004358164239918 0.9601934523809523 
29.004358164239918 0.9384920634920636 
30.004358164239918 0.9456845238095238 
31.004358164239918 0.8950892857142858 
32.00435816423992 0.8909970238095238 
33.00435816423992 0.8291170634920636 
34.00435816423992 0.8009672619047618 
35.00435816423992 0.7416914682539683 
36.00435816423992 0.6966765873015873 
37.00435816423992 0.5985863095238094 
38.00435816423992 0.5380704365079364 
39.00435816423992 0.4727182539682542 
40.00435816423992 0.38343253968254 
41.00435816423992 0.363219246031746 
42.00435816423992 0.24454365079365087 
43.00435816423992 0.22805059523809523 
44.00435816423992 0.15662202380952384 
45.00435816423992 0.13194444444444445 
46.00435816423992 0.10553075396825401 
47.00435816423992 0.0777529761904762 
48.00435816423992 0.06671626984126988 
49.00435816423992 0.04588293650793653 
50.00435816423992 0.0355902777777778 
51.00435816423992 0.025049603174603165 
52.00435816423992 0.02132936507936507 
53.00435816423992 0.013764880952380957 
54.00435816423992 0.008432539682539692 
55.00435816423992 0.0039682539682539715 
56.00435816423992 0.001984126984126989 
57.00435816423992 9.92063492063496E-4 
58.00435816423992 4.96031746031748E-4 
59.00435816423992 1.968300403163755E-31 
60.00435816423992 1.9721522630525295E-31 
61.00435816423992 1.9721522630525295E-31 
62.00435816423992 1.9721522630525295E-31 
63.00435816423992 1.9721522630525295E-31 
64.00435816423992 1.9721522630525295E-31 
65.00435816423992 1.9721522630525295E-31 
66.00435816423992 1.9721522630525295E-31 
67.00435816423992 1.9721522630525295E-31 
68.00435816423992 1.9721522630525295E-31 
69.00435816423992 1.9721522630525295E-31 
70.00435816423992 1.9721522630525295E-31 
71.00435816423992 1.9721522630525295E-31 
72.00435816423992 1.9721522630525295E-31 
73.00435816423992 1.9721522630525295E-31 
74.00435816423992 1.9721522630525295E-31 
75.00435816423992 1.9721522630525295E-31 
76.00435816423992 1.9721522630525295E-31 
77.00435816423992 1.9721522630525295E-31 
78.00435816423992 1.9721522630525295E-31 
79.00435816423992 1.9721522630525295E-31 
80.00435816423992 1.9721522630525295E-31 
81.00435816423992 1.9721522630525295E-31 
82.00435816423992 1.9721522630525295E-31 
83.00435816423992 1.9721522630525295E-31 
84.00435816423992 1.9721522630525295E-31 
85.00435816423992 1.9721522630525295E-31 
#####################################################################
# End of data export. Simulation finished at: 2017-05-23T22:24+0000 #
#####################################################################
