#####################################################################
# Alchemist log file - simulation started at: 2017-05-23T15:35+0000 #
#####################################################################
# random = 12.0, targets = 3.1622776601683795, density = 14.160781367816199, gridShift = 0.0, perturbation = 0.5, connfactor = 1.0
#
# The columns have the following meaning: 
# time se[Mean] 
0.0 NaN 
1.0005590746559656 NaN 
2.000559074655966 NaN 
3.000559074655966 1.0 
4.000559074655966 0.9996499306166774 
5.000559074655966 0.9978995837000644 
6.000559074655966 0.9985997224667096 
7.000559074655966 0.9964318298501657 
8.000559074655966 0.9963319850881616 
9.000559074655966 0.9969477063189001 
10.000559074655966 0.9962236334881233 
11.000559074655966 0.9963480368956129 
12.000559074655966 0.9961867230631252 
13.000559074655966 0.9952923736241043 
14.000559074655966 0.9949256753121603 
15.000559074655966 0.9945540989998455 
16.000559074655968 0.9947556148077313 
17.000559074655968 0.9936304328319215 
18.000559074655968 0.993399288004456 
19.000559074655968 0.9926041824761774 
20.000559074655968 0.9908279790246936 
21.000559074655968 0.988825196455438 
22.000559074655968 0.9877879883964283 
23.000559074655968 0.9840277461487726 
24.000559074655968 0.9806901924319118 
25.000559074655968 0.9764422611986706 
26.000559074655968 0.9708992323987307 
27.000559074655968 0.9662019154146546 
28.000559074655968 0.9608864987913784 
29.000559074655968 0.9529803086470403 
30.000559074655968 0.9445128747641083 
31.000559074655968 0.937483780548816 
32.00055907465597 0.9249481607475365 
33.00055907465597 0.9219548115484247 
34.00055907465597 0.9077774637940541 
35.00055907465597 0.9014595397719355 
36.00055907465597 0.8910927519922198 
37.00055907465597 0.8822081808868961 
38.00055907465597 0.8699225471395218 
39.00055907465597 0.8652964077664878 
40.00055907465597 0.8553709811003763 
41.00055907465597 0.8490216716985812 
42.00055907465597 0.8327764523322687 
43.00055907465597 0.832437978831703 
44.00055907465597 0.8213639958491967 
45.00055907465597 0.8195630125824348 
46.00055907465597 0.8123916368683267 
47.00055907465597 0.8052371587128132 
48.00055907465597 0.7984613933614907 
49.00055907465597 0.7940670445943802 
50.00055907465597 0.7897866211993063 
51.00055907465597 0.7827845178306165 
52.00055907465597 0.7758825452515259 
53.00055907465597 0.7698307226820748 
54.00055907465597 0.7626666245738984 
55.00055907465597 0.7579682919285506 
56.00055907465597 0.7533693604391295 
57.00055907465597 0.744073134762528 
58.00055907465597 0.7403574589607839 
59.00055907465597 0.7312146385969078 
60.00055907465597 0.7273185992313832 
61.00055907465597 0.7227969614509314 
62.00055907465597 0.72080366625244 
63.00055907465597 0.7173553088038163 
64.00055907465597 0.7140202059521863 
65.00055907465597 0.7073828059679317 
66.00055907465597 0.707145116634389 
67.00055907465597 0.703687245551918 
68.00055907465597 0.7028566935986698 
69.00055907465597 0.702272836148925 
70.00055907465597 0.7003450036754236 
71.00055907465597 0.6987027197982609 
72.00055907465597 0.6965435501235705 
73.00055907465597 0.6956835877875457 
74.00055907465597 0.6980576581085257 
75.00055907465597 0.700365982209919 
76.00055907465597 0.7006149813986243 
77.00055907465597 0.7014560563145216 
78.00055907465597 0.7066647802444946 
79.00055907465597 0.7083140569664882 
80.00055907465597 0.7115550824683325 
81.00055907465597 0.7141629408557414 
82.00055907465597 0.7182627032609906 
83.00055907465597 0.7232047660147548 
84.00055907465597 0.7264129184068 
85.00055907465597 0.7310624397193838 
86.00055907465597 0.7350036039878699 
87.00055907465597 0.7393124996271921 
88.00055907465597 0.7430128829844305 
89.00055907465597 0.7465041331075907 
90.00055907465597 0.7511137884655428 
91.00055907465597 0.7560640694967554 
92.00055907465597 0.7582055771839357 
93.00055907465597 0.7646148891231928 
94.00055907465597 0.7677655135730972 
95.00055907465597 0.7726077315648578 
96.00055907465597 0.7758664190542091 
97.00055907465597 0.7808672351827317 
98.00055907465597 0.7844090204032056 
99.00055907465597 0.7879179325138802 
100.00055907465597 0.7906679524831463 
101.00055907465597 0.7958602398582272 
102.00055907465597 0.7996193765902199 
103.00055907465597 0.8029696905641377 
104.00055907465597 0.8073943628559624 
105.00055907465597 0.8120600321628585 
106.00055907465597 0.8145797242597405 
107.00055907465597 0.8161512877300711 
108.00055907465597 0.8190870115336878 
109.00055907465597 0.8228150052528992 
110.00055907465597 0.8255766075067877 
111.00055907465597 0.8287365794798955 
112.00055907465597 0.831597521831389 
113.00055907465597 0.8336346427769649 
114.00055907465597 0.8341896881622074 
115.00055907465597 0.8344341703678938 
116.00055907465597 0.8324607795172991 
117.00055907465597 0.8357089877047088 
118.00055907465597 0.8326893798256608 
119.00055907465597 0.8323506766231411 
120.00055907465597 0.8322882694141298 
121.00055907465597 0.8286579856818506 
122.00055907465597 0.8315711694975794 
123.00055907465597 0.8275178624802282 
124.00055907465597 0.8287038126889162 
125.00055907465597 0.8271827393886949 
126.00055907465597 0.8246964026024117 
127.00055907465597 0.8235715379832566 
128.00055907465597 0.8214609084783621 
129.00055907465597 0.8179752545907998 
130.00055907465597 0.8118573611794356 
131.00055907465597 0.8057403559134259 
132.00055907465597 0.8020485917122124 
133.00055907465597 0.7940239443481887 
134.00055907465597 0.786674262322625 
135.00055907465597 0.7786018129546343 
136.00055907465597 0.7682087364324183 
137.00055907465597 0.761447913573404 
138.00055907465597 0.7511516775568823 
139.00055907465597 0.7407943072241503 
140.00055907465597 0.729848683642109 
141.00055907465597 0.7180951930082412 
142.00055907465597 0.7038532982038123 
143.00055907465597 0.6906578653277233 
144.00055907465597 0.675565836644783 
145.00055907465597 0.7208859184175214 
146.00055907465597 0.8869322165549317 
147.00055907465597 0.7509644361326568 
148.00055907465597 1.0338634186615419 
149.00055907465597 1.0192838787100769 
150.00055907465597 0.9418399574634985 
151.00055907465597 1.1625620909858772 
152.00055907465597 1.1438851483735066 
153.00055907465597 1.4260055505169116 
154.00055907465597 1.1687345132157598 
155.00055907465597 1.3303945372164523 
156.00055907465597 1.3720112063790735 
157.00055907465597 1.5964946614016908 
158.00055907465597 1.510490518279617 
159.00055907465597 1.2564373517097212 
160.00055907465597 3.106979523053546 
161.00055907465597 8.049496501907868 
162.00055907465597 4.342381996825559 
163.00055907465597 12.73064241909173 
164.00055907465597 12.417706170079427 
165.00055907465597 10.946415480150597 
166.00055907465597 17.402268719245118 
167.00055907465597 17.266891610675344 
168.00055907465597 25.23595628799349 
169.00055907465597 18.871186965897895 
170.00055907465597 23.693761569320465 
171.00055907465597 25.25759290880403 
172.00055907465597 31.535864341552745 
173.00055907465597 30.135259762799326 
174.00055907465597 23.8892282161406 
175.00055907465597 31.565759018111773 
176.00055907465597 38.26737631740238 
177.00055907465597 23.801513237371875 
178.00055907465597 38.06941413665219 
179.00055907465597 30.25744622230655 
180.00055907465597 33.15671367876695 
181.00055907465597 38.288455869437435 
182.00055907465597 35.43743930449228 
183.00055907465597 38.21686770027494 
184.00055907465597 36.75808080622795 
185.00055907465597 40.078678511413145 
186.00055907465597 39.652851472446294 
187.00055907465597 39.94969462058034 
188.00055907465597 45.084901530265256 
189.00055907465597 45.872802529558314 
190.00055907465597 42.11295981912726 
191.00055907465597 52.09711221658343 
192.00055907465597 45.190569246034094 
193.00055907465597 47.97218600450423 
194.00055907465597 48.58000745209044 
195.00055907465597 43.067091684214354 
196.00055907465597 53.89425918888423 
197.00055907465597 61.87476237919279 
198.00055907465597 52.43440271106687 
199.00055907465597 55.51746519759563 
200.00055907465597 60.351653330036974 
201.00055907465597 48.85884064170755 
202.00055907465597 56.71997935771497 
203.00055907465597 67.12453784792841 
204.00055907465597 47.03723877661599 
205.00055907465597 71.53770461345363 
206.00055907465597 44.85731654215392 
207.00055907465597 69.95981125073077 
208.00055907465597 60.33775178614299 
209.00055907465597 35.17076039969659 
210.00055907465597 55.314010900825636 
211.00055907465597 50.65280007140047 
212.00055907465597 53.67623289146546 
213.00055907465597 53.61425012941432 
214.00055907465597 52.09953795444686 
215.00055907465597 55.36345866545503 
216.00055907465597 42.59898889991 
217.00055907465597 42.597065540759125 
218.00055907465597 26.807747683863365 
219.00055907465597 36.18301341443383 
220.00055907465597 18.880941920782412 
221.00055907465597 20.45335298561069 
222.00055907465597 18.87958605244965 
223.00055907465597 14.160774949962295 
224.00055907465597 14.160041940619413 
225.00055907465597 6.295341777743355 
226.00055907465597 7.8678399270763935 
227.00055907465597 4.72173517408348 
228.00055907465597 3.1488817638097526 
229.00055907465597 4.721783039678615 
230.00055907465597 7.8671715097103165 
231.00055907465597 3.148603206791805 
232.00055907465597 3.1485605289545253 
233.00055907465597 1.5755381412284606 
234.00055907465597 0.002685885197113437 
235.00055907465597 0.0026605095965508683 
236.00055907465597 0.002633403898972407 
237.00055907465597 0.002633403898972407 
238.00055907465597 0.002633403898972407 
239.00055907465597 0.002633403898972407 
240.00055907465597 0.002633403898972407 
241.00055907465597 0.002633403898972407 
242.00055907465597 0.002633403898972407 
243.00055907465597 0.002633403898972407 
244.00055907465597 0.002633403898972407 
245.00055907465597 0.002633403898972407 
246.00055907465597 0.002633403898972407 
247.00055907465597 0.002633403898972407 
248.00055907465597 0.002633403898972407 
249.00055907465597 0.002633403898972407 
250.00055907465597 0.002633403898972407 
251.00055907465597 0.002633403898972407 
252.00055907465597 0.002633403898972407 
253.00055907465597 0.002633403898972407 
254.00055907465597 0.002633403898972407 
255.00055907465597 0.002633403898972407 
256.00055907465594 0.002633403898972407 
257.00055907465594 0.002633403898972407 
258.00055907465594 0.002633403898972407 
259.00055907465594 0.002633403898972407 
260.00055907465594 0.002633403898972407 
261.00055907465594 0.002633403898972407 
262.00055907465594 0.002633403898972407 
263.00055907465594 0.002633403898972407 
264.00055907465594 0.002633403898972407 
265.00055907465594 0.002633403898972407 
266.00055907465594 0.002633403898972407 
267.00055907465594 0.002633403898972407 
268.00055907465594 0.002633403898972407 
269.00055907465594 0.002633403898972407 
270.00055907465594 0.002633403898972407 
271.00055907465594 0.002633403898972407 
272.00055907465594 0.002633403898972407 
273.00055907465594 0.002633403898972407 
274.00055907465594 0.002633403898972407 
275.00055907465594 0.002633403898972407 
276.00055907465594 0.002633403898972407 
277.00055907465594 0.002633403898972407 
278.00055907465594 0.002633403898972407 
279.00055907465594 0.002633403898972407 
280.00055907465594 0.002633403898972407 
281.00055907465594 0.002633403898972407 
282.00055907465594 0.002633403898972407 
283.00055907465594 0.002633403898972407 
284.00055907465594 0.002633403898972407 
285.00055907465594 0.002633403898972407 
286.00055907465594 0.002633403898972407 
287.00055907465594 0.002633403898972407 
288.00055907465594 0.002633403898972407 
289.00055907465594 0.002633403898972407 
290.00055907465594 0.002633403898972407 
291.00055907465594 0.002633403898972407 
292.00055907465594 0.002633403898972407 
293.00055907465594 0.002633403898972407 
294.00055907465594 0.002633403898972407 
295.00055907465594 0.002633403898972407 
296.00055907465594 0.002633403898972407 
297.00055907465594 0.002633403898972407 
298.00055907465594 0.002633403898972407 
299.00055907465594 0.002633403898972407 
300.00055907465594 0.002633403898972407 
301.00055907465594 0.002633403898972407 
302.00055907465594 0.002633403898972407 
303.00055907465594 0.002633403898972407 
304.00055907465594 0.002633403898972407 
305.00055907465594 0.002633403898972407 
306.00055907465594 0.002633403898972407 
307.00055907465594 0.002633403898972407 
308.00055907465594 0.002633403898972407 
309.00055907465594 0.002633403898972407 
310.00055907465594 0.002633403898972407 
311.00055907465594 0.002633403898972407 
312.00055907465594 0.002633403898972407 
313.00055907465594 0.002633403898972407 
314.00055907465594 0.002633403898972407 
315.00055907465594 0.002633403898972407 
316.00055907465594 0.002633403898972407 
317.00055907465594 0.002633403898972407 
318.00055907465594 0.002633403898972407 
319.00055907465594 0.002633403898972407 
320.00055907465594 0.002633403898972407 
321.00055907465594 0.002633403898972407 
322.00055907465594 0.002633403898972407 
323.00055907465594 0.002633403898972407 
324.00055907465594 0.002633403898972407 
325.00055907465594 0.002633403898972407 
326.00055907465594 0.002633403898972407 
327.00055907465594 0.002633403898972407 
328.00055907465594 0.002633403898972407 
#####################################################################
# End of data export. Simulation finished at: 2017-05-23T15:39+0000 #
#####################################################################
