#####################################################################
# Alchemist log file - simulation started at: 2017-05-26T00:41+0000 #
#####################################################################
# random = 19.0, targets = 31.622776601683793, density = 3.5589026259761294, gridShift = 0.0, perturbation = 0.5, connfactor = 0.25
#
# The columns have the following meaning: 
# time se[Mean] 
0.0 NaN 
1.004337754240159 NaN 
2.004337754240159 0.9998443861169916 
3.004337754240159 0.9996887722339831 
4.004337754240159 0.9976907917548737 
5.004337754240159 0.9932879891476296 
6.004337754240159 0.9933586030306379 
7.004337754240159 0.9837299284011076 
8.004337754240158 0.9828918589860655 
9.004337754240158 0.9789358980278465 
10.004337754240158 0.9739312537715772 
11.004337754240158 0.9651856485570889 
12.004337754240158 0.9599141626517942 
13.004337754240158 0.9551751322785332 
14.004337754240158 0.9528103101503984 
15.004337754240158 0.9502448741392554 
16.004337754240158 0.9470319825960787 
17.004337754240158 0.9454052298829859 
18.004337754240158 0.947222596479087 
19.004337754240158 0.9497080324902302 
20.004337754240158 0.9451496159999776 
21.004337754240158 0.9479762797771375 
22.004337754240158 0.9478912797771375 
23.004337754240158 0.9476706658941291 
24.004337754240158 0.9458082992980281 
25.004337754240158 0.945040229882986 
26.004337754240158 0.9408830411587502 
27.004337754240158 0.9374933079665482 
28.004337754240158 0.935992169136464 
29.004337754240158 0.9281146333370178 
30.004337754240158 0.9199146420055379 
31.004337754240158 0.9146375422172348 
32.004337754240154 0.913317017270159 
33.004337754240154 0.9063900064177887 
34.004337754240154 0.8913643209358877 
35.004337754240154 0.8911237070528794 
36.004337754240154 0.8833623990194499 
37.004337754240154 0.8698197829525912 
38.004337754240154 0.8627041777381029 
39.004337754240154 0.8479506896489579 
40.004337754240154 0.8437855204456127 
41.004337754240154 0.8344458848578635 
42.004337754240154 0.8122872362338934 
43.004337754240154 0.8017554119219085 
44.004337754240154 0.7779300908522583 
45.004337754240154 0.7614366027631134 
46.004337754240154 0.7070890560444156 
47.004337754240154 0.6806752295485803 
48.004337754240154 0.6606774442783763 
49.004337754240154 0.6043260363897629 
50.004337754240154 0.552464353024831 
51.004337754240154 0.5200467629635328 
52.004337754240154 0.4911067087016806 
53.004337754240154 0.4682506848130894 
54.004337754240154 0.44197782794399293 
55.004337754240154 0.44055161751501654 
56.004337754240154 0.4364358344286629 
57.004337754240154 0.436733209693284 
58.004337754240154 0.4511669016598547 
59.004337754240154 0.4588369103283748 
60.004337754240154 0.46586839623366944 
61.004337754240154 0.4948855156097442 
62.004337754240154 0.5089708517657031 
63.004337754240154 0.5210738149077724 
64.00433775424015 0.5464904266738115 
65.00433775424015 0.5386947758659912 
66.00433775424015 0.5467703094815871 
67.00433775424015 0.5529835567684945 
68.00433775424015 0.5533407910860623 
69.00433775424015 0.5589383551418003 
70.00433775424015 0.5583566826961203 
71.00433775424015 0.5614929843117609 
72.00433775424015 0.5598344159552034 
73.00433775424015 0.5571987044677422 
74.00433775424015 0.5604486611251416 
75.00433775424015 0.5579357695819648 
76.00433775424015 0.5586836437881014 
77.00433775424015 0.5591360993201351 
78.00433775424015 0.5580505743730593 
79.00433775424015 0.5583974160220846 
80.00433775424015 0.5580355743730593 
81.00433775424015 0.5580355743730593 
82.00433775424015 0.5580355743730593 
83.00433775424015 0.5580355743730593 
84.00433775424015 0.5580355743730593 
85.00433775424015 0.5580355743730593 
86.00433775424015 0.5580355743730593 
87.00433775424015 0.5580355743730593 
88.00433775424015 0.5580355743730593 
89.00433775424015 0.5580355743730593 
90.00433775424015 0.5580355743730593 
91.00433775424015 0.5580355743730593 
92.00433775424015 0.5580355743730593 
93.00433775424015 0.5580355743730593 
94.00433775424015 0.5580355743730593 
95.00433775424015 0.5580355743730593 
96.00433775424015 0.5580355743730593 
97.00433775424015 0.5580355743730593 
98.00433775424015 0.5580355743730593 
99.00433775424015 0.5580355743730593 
100.00433775424015 0.5580355743730593 
101.00433775424015 0.5580355743730593 
102.00433775424015 0.5580355743730593 
103.00433775424015 0.5580355743730593 
104.00433775424015 0.5580355743730593 
105.00433775424015 0.5580355743730593 
106.00433775424015 0.5580355743730593 
107.00433775424015 0.5580355743730593 
108.00433775424015 0.5580355743730593 
109.00433775424015 0.5580355743730593 
110.00433775424015 0.5580355743730593 
111.00433775424015 0.5580355743730593 
112.00433775424015 0.5580355743730593 
113.00433775424015 0.5580355743730593 
114.00433775424015 0.5580355743730593 
115.00433775424015 0.5580355743730593 
116.00433775424015 0.5580355743730593 
117.00433775424015 0.5580355743730593 
118.00433775424015 0.5580355743730593 
119.00433775424015 0.5580355743730593 
120.00433775424015 0.5580355743730593 
121.00433775424015 0.5580355743730593 
122.00433775424015 0.5580355743730593 
123.00433775424015 0.5580355743730593 
#####################################################################
# End of data export. Simulation finished at: 2017-05-26T00:41+0000 #
#####################################################################
