0.000000000000000000e+00 nan
0.000000000000000000e+00 3.551338455912420589e-01
0.000000000000000000e+00 2.175486105588260721e-01
4.440892098500626162e-16 2.361748889266866713e-01
0.000000000000000000e+00 2.327581703826605009e-01
2.664535259100375697e-15 3.876157263996125590e-01
8.881784197001252323e-16 2.682943505274005269e-01
0.000000000000000000e+00 3.735374900864956160e-01
0.000000000000000000e+00 3.267435569824512775e-01
3.552713678800500929e-15 2.745721509434306262e-01
5.329070518200751394e-15 2.633504832305846866e-01
1.776356839400250465e-15 2.301513290153209546e-01
1.776356839400250465e-15 8.943120862459320863e-02
1.776356839400250465e-15 7.870662085829878418e-02
0.000000000000000000e+00 7.896739040902044093e-02
0.000000000000000000e+00 7.526574239985105164e-02
0.000000000000000000e+00 8.221600806321420485e-02
7.105427357601001859e-15 6.979402295528083777e-02
7.105427357601001859e-15 6.545681753298236705e-02
7.105427357601001859e-15 6.545680011078564009e-02
1.065814103640150279e-14 6.545680011078564009e-02
0.000000000000000000e+00 6.545680011078564009e-02
3.552713678800500929e-15 6.545680011078564009e-02
3.552713678800500929e-15 6.545680011078564009e-02
3.552713678800500929e-15 6.545680011078564009e-02
