0.000000000000000000e+00 nan
2.220446049250313081e-16 1.323581350947528046e-02
4.440892098500626162e-16 1.755664541102158194e-01
0.000000000000000000e+00 1.754309502139241861e-01
8.881784197001252323e-16 1.743835875142025760e-01
2.664535259100375697e-15 1.729705581847337248e-01
0.000000000000000000e+00 1.722469497119279991e-01
8.881784197001252323e-16 1.705130579817064618e-01
1.776356839400250465e-15 1.700359610011010769e-01
1.776356839400250465e-15 1.696209529647325631e-01
5.329070518200751394e-15 1.675666452465043310e-01
1.776356839400250465e-15 1.670520554006516278e-01
0.000000000000000000e+00 1.658543715715773414e-01
0.000000000000000000e+00 1.634059098203211879e-01
1.776356839400250465e-15 1.619092001803153213e-01
3.552713678800500929e-15 1.619915296857227793e-01
3.552713678800500929e-15 1.613644638869174697e-01
7.105427357601001859e-15 1.626296830905680779e-01
3.552713678800500929e-15 1.631368734532543663e-01
1.065814103640150279e-14 1.621547938660813648e-01
1.065814103640150279e-14 1.616827596611240814e-01
3.552713678800500929e-15 1.609908631153568193e-01
3.552713678800500929e-15 1.610473998924738526e-01
7.105427357601001859e-15 1.610665750162197651e-01
0.000000000000000000e+00 1.610801649419965897e-01
1.421085471520200372e-14 1.610904472930347331e-01
0.000000000000000000e+00 1.610904472930347331e-01
3.552713678800500929e-15 1.610904472930347331e-01
3.552713678800500929e-15 1.610904472930347331e-01
1.065814103640150279e-14 1.610904472930347331e-01
7.105427357601001859e-15 1.610904472930347331e-01
0.000000000000000000e+00 1.610904472930347331e-01
