#####################################################################
# Alchemist log file - simulation started at: 2017-05-20T16:12+0000 #
#####################################################################
# random = 1.0, targets = 10.0, density = 7.099073319511142, gridShift = 1.0, perturbation = 0.0, connfactor = 0.5
#
# The columns have the following meaning: 
# time se[Mean] 
0.0 NaN 
1.0018431556818637 NaN 
2.001843155681864 1.0 
3.001843155681864 0.999875 
4.001843155681864 0.9978717948717949 
5.001843155681864 0.9923429487179487 
6.001843155681864 0.9882211538461538 
7.001843155681864 0.978099358974359 
8.001843155681865 0.9795 
9.001843155681865 0.9699102564102565 
10.001843155681865 0.9713333333333334 
11.001843155681865 0.9650769230769232 
12.001843155681865 0.9657307692307692 
13.001843155681865 0.9670416666666666 
14.001843155681865 0.9673044871794871 
15.001843155681865 0.9664871794871794 
16.001843155681865 0.9705673076923077 
17.001843155681865 0.9712788461538461 
18.001843155681865 0.9748205128205127 
19.001843155681865 0.9706217948717948 
20.001843155681865 0.9721089743589744 
21.001843155681865 0.9687339743589745 
22.001843155681865 0.964176282051282 
23.001843155681865 0.9558076923076924 
24.001843155681865 0.9494807692307693 
25.001843155681865 0.933025641025641 
26.001843155681865 0.9320641025641025 
27.001843155681865 0.9143878205128206 
28.001843155681865 0.907150641025641 
29.001843155681865 0.8989198717948718 
30.001843155681865 0.8885320512820511 
31.001843155681865 0.8713974358974358 
32.00184315568187 0.8641666666666665 
33.00184315568187 0.8492499999999998 
34.00184315568187 0.8331666666666667 
35.00184315568187 0.8247307692307694 
36.00184315568187 0.8059294871794869 
37.00184315568187 0.7973397435897436 
38.00184315568187 0.7872307692307695 
39.00184315568187 0.7704455128205131 
40.00184315568187 0.7545576923076922 
41.00184315568187 0.7382083333333335 
42.00184315568187 0.7182147435897436 
43.00184315568187 0.6948717948717953 
44.00184315568187 0.6779070512820511 
45.00184315568187 0.6553076923076927 
46.00184315568187 0.6348108974358975 
47.00184315568187 0.614775641025641 
48.00184315568187 0.5982500000000001 
49.00184315568187 0.5773846153846155 
50.00184315568187 0.5613044871794869 
51.00184315568187 0.5477884615384616 
52.00184315568187 0.5276698717948713 
53.00184315568187 0.5129358974358975 
54.00184315568187 0.5126794871794875 
55.00184315568187 0.49434615384615344 
56.00184315568187 0.4901858974358978 
57.00184315568187 0.4853397435897435 
58.00184315568187 0.480583333333333 
59.00184315568187 0.47646153846153827 
60.00184315568187 0.4767179487179489 
61.00184315568187 0.47113461538461565 
62.00184315568187 0.4655384615384612 
63.00184315568187 0.4660128205128202 
64.00184315568187 0.4693782051282052 
65.00184315568187 0.46093589743589725 
66.00184315568187 0.4597820512820514 
67.00184315568187 0.4698749999999998 
68.00184315568187 0.46670192307692293 
69.00184315568187 0.4633685897435896 
70.00184315568187 0.47050641025641016 
71.00184315568187 0.4688557692307692 
72.00184315568187 0.4665448717948717 
73.00184315568187 0.46783653846153844 
74.00184315568187 0.4756634615384616 
75.00184315568187 0.4677339743589743 
76.00184315568187 0.47070833333333323 
77.00184315568187 0.4784070512820513 
78.00184315568187 0.47346153846153843 
79.00184315568187 0.4708237179487179 
80.00184315568187 0.4773141025641025 
81.00184315568187 0.47163141025641026 
82.00184315568187 0.4711794871794874 
83.00184315568187 0.4764583333333332 
84.00184315568187 0.47449038461538434 
85.00184315568187 0.4726858974358977 
86.00184315568187 0.469429487179487 
87.00184315568187 0.4685320512820514 
88.00184315568187 0.46637820512820516 
89.00184315568187 0.46022435897435915 
90.00184315568187 0.4598269230769229 
91.00184315568187 0.4526185897435897 
92.00184315568187 0.4521666666666666 
93.00184315568187 0.44629807692307716 
94.00184315568187 0.4394038461538461 
95.00184315568187 0.4373076923076921 
96.00184315568187 0.4266506410256412 
97.00184315568187 0.4203942307692308 
98.00184315568187 0.43549358974358976 
99.00184315568187 0.40465064102564074 
100.00184315568187 0.5156314102564092 
101.00184315568187 0.4661217948717946 
102.00184315568187 0.5734679487179501 
103.00184315568187 0.6287980769230791 
104.00184315568187 0.5898044871794867 
105.00184315568187 0.6997884615384635 
106.00184315568187 0.7333814102564078 
107.00184315568187 0.6593910256410265 
108.00184315568187 0.8378493589743576 
109.00184315568187 0.8977692307692294 
110.00184315568187 0.7789839743589737 
111.00184315568187 0.9324807692307693 
112.00184315568187 0.9039070512820543 
113.00184315568187 0.7798141025641018 
114.00184315568187 0.8888942307692329 
115.00184315568187 0.827108974358973 
116.00184315568187 0.816650641025641 
117.00184315568187 0.7855192307692317 
118.00184315568187 0.7839583333333335 
119.00184315568187 0.8494230769230767 
120.00184315568187 0.8050256410256416 
121.00184315568187 0.7728589743589729 
122.00184315568187 0.8386698717948707 
123.00184315568187 0.7375833333333344 
124.00184315568187 0.7310929487179482 
125.00184315568187 0.703044871794872 
126.00184315568187 0.6521314102564099 
127.00184315568187 0.5561923076923071 
128.00184315568185 0.6465032051282058 
129.00184315568185 0.6766089743589748 
130.00184315568185 0.5743846153846148 
131.00184315568185 0.6252211538461531 
132.00184315568185 0.5707564102564106 
133.00184315568185 0.4737660256410256 
134.00184315568185 0.44774999999999987 
135.00184315568185 0.4968846153846158 
136.00184315568185 0.39214743589743295 
137.00184315568185 0.4939391025641038 
138.00184315568185 0.38528205128205256 
139.00184315568185 0.40393589743589525 
140.00184315568185 0.4024006410256417 
141.00184315568185 0.33708333333333296 
142.00184315568185 0.2777916666666687 
143.00184315568185 0.28292948717948735 
144.00184315568185 0.19266987179487263 
145.00184315568185 0.1523141025641019 
146.00184315568185 0.13264743589743547 
147.00184315568185 0.08825961538461506 
148.00184315568185 0.10471794871794898 
149.00184315568185 0.08062499999999986 
150.00184315568185 0.08127884615384656 
151.00184315568185 0.0605544871794863 
152.00184315568185 0.052721153846153834 
153.00184315568185 0.02639423076923057 
154.00184315568185 0.023708333333333238 
155.00184315568185 0.01332051282051292 
156.00184315568185 0.0110320512820512 
157.00184315568185 0.006814102564102625 
158.00184315568185 0.007641025641025569 
159.00184315568185 0.0035897435897435967 
160.00184315568185 0.00428846153846155 
161.00184315568185 0.0041185897435897754 
162.00184315568185 0.0030192307692307927 
163.00184315568185 0.0011185897435897598 
164.00184315568185 0.001003205128205116 
165.00184315568185 5.769230769230806E-5 
166.00184315568185 2.5641025641025396E-5 
167.00184315568185 1.923076923076894E-5 
168.00184315568185 3.2051282051281677E-6 
169.00184315568185 0.0 
170.00184315568185 0.0 
171.00184315568185 0.0 
172.00184315568185 0.0 
173.00184315568185 0.0 
174.00184315568185 0.0 
175.00184315568185 0.0 
176.00184315568185 0.0 
177.00184315568185 0.0 
178.00184315568185 0.0 
179.00184315568185 0.0 
180.00184315568185 0.0 
181.00184315568185 0.0 
182.00184315568185 0.0 
183.00184315568185 0.0 
184.00184315568185 0.0 
185.00184315568185 0.0 
186.00184315568185 0.0 
187.00184315568185 0.0 
188.00184315568185 0.0 
189.00184315568185 0.0 
190.00184315568185 0.0 
191.00184315568185 0.0 
192.00184315568185 0.0 
193.00184315568185 0.0 
194.00184315568185 0.0 
195.00184315568185 0.0 
196.00184315568185 0.0 
197.00184315568185 0.0 
198.00184315568185 0.0 
199.00184315568185 0.0 
200.00184315568185 0.0 
201.00184315568185 0.0 
202.00184315568185 0.0 
203.00184315568185 0.0 
204.00184315568185 0.0 
205.00184315568185 0.0 
206.00184315568185 0.0 
207.00184315568185 0.0 
208.00184315568185 0.0 
209.00184315568185 0.0 
210.00184315568185 0.0 
211.00184315568185 0.0 
212.00184315568185 0.0 
213.00184315568185 0.0 
214.00184315568185 0.0 
215.00184315568185 0.0 
216.00184315568185 0.0 
217.00184315568185 0.0 
218.00184315568185 0.0 
219.00184315568185 0.0 
220.00184315568185 0.0 
221.00184315568185 0.0 
222.00184315568185 0.0 
223.00184315568185 0.0 
224.00184315568185 0.0 
225.00184315568185 0.0 
#####################################################################
# End of data export. Simulation finished at: 2017-05-20T16:16+0000 #
#####################################################################
