#####################################################################
# Alchemist log file - simulation started at: 2017-05-24T02:12+0000 #
#####################################################################
# random = 13.0, targets = 31.622776601683793, density = 7.099073319511142, gridShift = 1.0, perturbation = 0.5, connfactor = 2.0
#
# The columns have the following meaning: 
# time se[Mean] 
0.0 NaN 
1.0002602723432414 NaN 
2.000260272343241 NaN 
3.000260272343241 NaN 
4.000260272343241 NaN 
5.000260272343241 NaN 
6.000260272343241 NaN 
7.000260272343241 NaN 
8.00026027234324 NaN 
9.00026027234324 NaN 
10.00026027234324 NaN 
11.00026027234324 NaN 
12.00026027234324 NaN 
13.00026027234324 NaN 
14.00026027234324 NaN 
15.00026027234324 NaN 
16.00026027234324 NaN 
17.00026027234324 NaN 
18.00026027234324 NaN 
19.00026027234324 NaN 
20.00026027234324 NaN 
21.00026027234324 NaN 
22.00026027234324 NaN 
23.00026027234324 NaN 
24.00026027234324 NaN 
25.00026027234324 NaN 
26.00026027234324 NaN 
27.00026027234324 NaN 
28.00026027234324 NaN 
29.00026027234324 NaN 
30.00026027234324 NaN 
31.00026027234324 NaN 
32.00026027234324 NaN 
33.00026027234324 NaN 
34.00026027234324 NaN 
35.00026027234324 NaN 
36.00026027234324 NaN 
37.00026027234324 NaN 
38.00026027234324 NaN 
39.00026027234324 NaN 
40.00026027234324 NaN 
41.00026027234324 NaN 
42.00026027234324 NaN 
43.00026027234324 NaN 
44.00026027234324 NaN 
45.00026027234324 NaN 
46.00026027234324 NaN 
47.00026027234324 NaN 
48.00026027234324 NaN 
49.00026027234324 NaN 
50.00026027234324 NaN 
51.00026027234324 NaN 
52.00026027234324 NaN 
53.00026027234324 NaN 
54.00026027234324 NaN 
55.00026027234324 NaN 
56.00026027234324 NaN 
57.00026027234324 NaN 
58.00026027234324 NaN 
59.00026027234324 NaN 
60.00026027234324 NaN 
61.00026027234324 NaN 
62.00026027234324 NaN 
63.00026027234324 NaN 
64.00026027234324 NaN 
65.00026027234324 NaN 
66.00026027234324 NaN 
67.00026027234324 NaN 
68.00026027234324 NaN 
69.00026027234324 NaN 
70.00026027234324 NaN 
71.00026027234324 NaN 
72.00026027234324 NaN 
73.00026027234324 NaN 
74.00026027234324 NaN 
75.00026027234324 NaN 
76.00026027234324 NaN 
77.00026027234324 NaN 
78.00026027234324 NaN 
79.00026027234324 NaN 
80.00026027234324 NaN 
81.00026027234324 NaN 
82.00026027234324 NaN 
83.00026027234324 NaN 
84.00026027234324 NaN 
85.00026027234324 NaN 
86.00026027234324 NaN 
87.00026027234324 NaN 
88.00026027234324 NaN 
89.00026027234324 NaN 
90.00026027234324 NaN 
91.00026027234324 NaN 
92.00026027234324 NaN 
93.00026027234324 NaN 
94.00026027234324 NaN 
95.00026027234324 NaN 
96.00026027234324 NaN 
97.00026027234324 NaN 
98.00026027234324 NaN 
99.00026027234324 NaN 
100.00026027234324 NaN 
101.00026027234324 NaN 
102.00026027234324 NaN 
103.00026027234324 NaN 
104.00026027234324 NaN 
105.00026027234324 NaN 
106.00026027234324 NaN 
107.00026027234324 NaN 
108.00026027234324 NaN 
109.00026027234324 NaN 
110.00026027234324 NaN 
111.00026027234324 NaN 
112.00026027234324 NaN 
113.00026027234324 NaN 
114.00026027234324 NaN 
115.00026027234324 NaN 
116.00026027234324 NaN 
117.00026027234324 NaN 
118.00026027234324 NaN 
119.00026027234324 NaN 
120.00026027234324 NaN 
121.00026027234324 NaN 
122.00026027234324 NaN 
123.00026027234324 NaN 
124.00026027234324 NaN 
125.00026027234324 NaN 
126.00026027234324 NaN 
127.00026027234324 NaN 
128.00026027234324 NaN 
129.00026027234324 NaN 
130.00026027234324 NaN 
131.00026027234324 NaN 
132.00026027234324 NaN 
133.00026027234324 NaN 
134.00026027234324 NaN 
135.00026027234324 NaN 
136.00026027234324 NaN 
137.00026027234324 NaN 
138.00026027234324 NaN 
139.00026027234324 NaN 
140.00026027234324 NaN 
141.00026027234324 NaN 
142.00026027234324 NaN 
143.00026027234324 NaN 
144.00026027234324 NaN 
145.00026027234324 NaN 
146.00026027234324 NaN 
147.00026027234324 NaN 
148.00026027234324 NaN 
149.00026027234324 NaN 
150.00026027234324 NaN 
151.00026027234324 NaN 
152.00026027234324 NaN 
153.00026027234324 NaN 
154.00026027234324 NaN 
155.00026027234324 NaN 
156.00026027234324 NaN 
157.00026027234324 NaN 
158.00026027234324 NaN 
159.00026027234324 NaN 
160.00026027234324 NaN 
161.00026027234324 NaN 
162.00026027234324 NaN 
163.00026027234324 NaN 
164.00026027234324 NaN 
165.00026027234324 NaN 
166.00026027234324 NaN 
167.00026027234324 NaN 
168.00026027234324 NaN 
169.00026027234324 NaN 
170.00026027234324 NaN 
171.00026027234324 NaN 
172.00026027234324 NaN 
173.00026027234324 NaN 
174.00026027234324 NaN 
175.00026027234324 NaN 
176.00026027234324 NaN 
177.00026027234324 NaN 
178.00026027234324 NaN 
179.00026027234324 NaN 
180.00026027234324 NaN 
181.00026027234324 NaN 
182.00026027234324 NaN 
183.00026027234324 NaN 
184.00026027234324 NaN 
185.00026027234324 NaN 
186.00026027234324 NaN 
187.00026027234324 NaN 
188.00026027234324 NaN 
189.00026027234324 NaN 
190.00026027234324 NaN 
191.00026027234324 NaN 
192.00026027234324 NaN 
193.00026027234324 NaN 
194.00026027234324 NaN 
195.00026027234324 NaN 
196.00026027234324 NaN 
197.00026027234324 NaN 
198.00026027234324 NaN 
199.00026027234324 NaN 
200.00026027234324 NaN 
201.00026027234324 NaN 
202.00026027234324 NaN 
203.00026027234324 NaN 
204.00026027234324 NaN 
205.00026027234324 NaN 
206.00026027234324 NaN 
207.00026027234324 NaN 
208.00026027234324 NaN 
209.00026027234324 NaN 
210.00026027234324 NaN 
211.00026027234324 NaN 
212.00026027234324 NaN 
213.00026027234324 NaN 
214.00026027234324 NaN 
215.00026027234324 NaN 
216.00026027234324 NaN 
217.00026027234324 NaN 
218.00026027234324 NaN 
219.00026027234324 NaN 
220.00026027234324 NaN 
221.00026027234324 NaN 
222.00026027234324 NaN 
223.00026027234324 NaN 
224.00026027234324 NaN 
225.00026027234324 NaN 
226.00026027234324 NaN 
227.00026027234324 NaN 
228.00026027234324 NaN 
229.00026027234324 NaN 
230.00026027234324 NaN 
231.00026027234324 NaN 
232.00026027234324 NaN 
233.00026027234324 NaN 
234.00026027234324 NaN 
235.00026027234324 NaN 
236.00026027234324 NaN 
237.00026027234324 NaN 
238.00026027234324 NaN 
239.00026027234324 NaN 
240.00026027234324 NaN 
241.00026027234324 NaN 
242.00026027234324 NaN 
243.00026027234324 NaN 
244.00026027234324 NaN 
245.00026027234324 NaN 
246.00026027234324 NaN 
247.00026027234324 NaN 
248.00026027234324 NaN 
249.00026027234324 NaN 
250.00026027234324 NaN 
251.00026027234324 NaN 
252.00026027234324 NaN 
253.00026027234324 NaN 
254.00026027234324 NaN 
255.00026027234324 NaN 
256.0002602723432 NaN 
257.0002602723432 NaN 
258.0002602723432 NaN 
259.0002602723432 NaN 
260.0002602723432 NaN 
261.0002602723432 NaN 
262.0002602723432 NaN 
263.0002602723432 NaN 
264.0002602723432 NaN 
265.0002602723432 NaN 
266.0002602723432 NaN 
267.0002602723432 NaN 
268.0002602723432 NaN 
269.0002602723432 NaN 
270.0002602723432 NaN 
271.0002602723432 NaN 
272.0002602723432 NaN 
273.0002602723432 NaN 
274.0002602723432 NaN 
275.0002602723432 NaN 
276.0002602723432 NaN 
277.0002602723432 NaN 
278.0002602723432 NaN 
279.0002602723432 NaN 
280.0002602723432 NaN 
281.0002602723432 NaN 
282.0002602723432 NaN 
283.0002602723432 NaN 
284.0002602723432 NaN 
285.0002602723432 NaN 
286.0002602723432 NaN 
287.0002602723432 NaN 
288.0002602723432 NaN 
289.0002602723432 NaN 
290.0002602723432 NaN 
291.0002602723432 NaN 
292.0002602723432 NaN 
293.0002602723432 NaN 
294.0002602723432 NaN 
#####################################################################
# End of data export. Simulation finished at: 2017-05-24T02:14+0000 #
#####################################################################
