#####################################################################
# Alchemist log file - simulation started at: 2017-05-24T16:07+0000 #
#####################################################################
# random = 15.0, targets = 10.0, density = 5.0264212595847235, gridShift = 1.0, perturbation = 0.0, connfactor = 2.0
#
# The columns have the following meaning: 
# time se[Mean] 
0.0 NaN 
1.0003675412420963 NaN 
2.0003675412420963 1.0556206293706294 
3.0003675412420963 1.0930764374514375 
4.000367541242096 1.1274796037296038 
5.000367541242096 1.1615034965034965 
6.000367541242096 1.131975038850039 
7.000367541242096 1.13138986013986 
8.000367541242095 1.1232007575757574 
9.000367541242095 1.13358682983683 
10.000367541242095 1.1443487762237763 
11.000367541242095 1.1486727855477856 
12.000367541242095 1.1571959984459987 
13.000367541242095 1.1311829836829839 
14.000367541242095 1.121823523698524 
15.000367541242095 1.0757439782439784 
16.000367541242095 1.0095308857808858 
17.000367541242095 1.012302836052836 
18.000367541242095 0.9423324592074593 
19.000367541242095 0.9617152292152295 
20.000367541242095 0.9237767094017094 
21.000367541242095 0.9249757187257187 
22.000367541242095 0.9167633061383063 
23.000367541242095 0.9121858003108004 
24.000367541242095 0.9013869463869464 
25.000367541242095 0.8993594599844598 
26.000367541242095 0.8930040792540793 
27.000367541242095 0.8825767288267288 
28.000367541242095 0.8717657342657343 
29.000367541242095 0.8668269230769232 
30.000367541242095 0.8546032439782444 
31.000367541242095 0.8473290598290597 
32.0003675412421 0.837462606837607 
33.0003675412421 0.8256434537684539 
34.0003675412421 0.8124946581196584 
35.0003675412421 0.8015608003107997 
36.0003675412421 0.7881580225330227 
37.0003675412421 0.7760125291375294 
38.0003675412421 0.7615394327894325 
39.0003675412421 0.7420775058275063 
40.0003675412421 0.7332546620046624 
41.0003675412421 0.7104142385392395 
42.0003675412421 0.7025844988344997 
43.0003675412421 0.6804375485625487 
44.0003675412421 0.6728074009324018 
45.0003675412421 0.6536344211344216 
46.0003675412421 0.638733974358974 
47.0003675412421 0.6278001165501165 
48.0003675412421 0.6033848096348088 
49.0003675412421 0.5907740870240871 
50.0003675412421 0.5711912393162394 
51.0003675412421 0.5524247280497275 
52.0003675412421 0.5282124125874115 
53.0003675412421 0.5133479020979022 
54.0003675412421 0.48627331002331087 
55.0003675412421 0.46261655011655045 
56.0003675412421 0.4421056721056719 
57.0003675412421 0.41906905594405597 
58.0003675412421 0.40749417249417225 
59.0003675412421 0.37732517482517475 
60.0003675412421 0.3746148989898992 
61.0003675412421 0.3485746891996895 
62.0003675412421 0.3367885586635589 
63.0003675412421 0.3136509324009324 
64.0003675412421 0.30161081973582005 
65.0003675412421 0.2964160839160841 
66.0003675412421 0.27483828671328714 
67.0003675412421 0.27195367132867126 
68.0003675412421 0.2578001165501165 
69.0003675412421 0.24408071095571113 
70.0003675412421 0.2306871600621601 
71.0003675412421 0.22209693084693077 
72.0003675412421 0.20193133255633294 
73.0003675412421 0.19711926961926987 
74.0003675412421 0.18381118881118905 
75.0003675412421 0.17480623543123558 
76.0003675412421 0.1637281468531471 
77.0003675412421 0.14080953768453786 
78.0003675412421 0.14330808080808094 
79.0003675412421 0.12649961149961167 
80.0003675412421 0.11987373737373755 
81.0003675412421 0.10971105283605308 
82.0003675412421 0.1040151515151515 
83.0003675412421 0.09770541958041969 
84.0003675412421 0.09662101787101803 
85.0003675412421 0.10944735819735829 
86.0003675412421 0.09540015540015549 
87.0003675412421 0.11557692307692313 
88.0003675412421 0.10476641414141423 
89.0003675412421 0.11115141802641816 
90.0003675412421 0.08979797979797992 
91.0003675412421 0.08917783605283612 
92.0003675412421 0.0938684926184927 
93.0003675412421 0.07866987179487187 
94.0003675412421 0.07815559440559447 
95.0003675412421 0.08144230769230774 
96.0003675412421 0.0728851010101011 
97.0003675412421 0.06581245143745153 
98.0003675412421 0.06844648407148413 
99.0003675412421 0.052059052059052126 
100.0003675412421 0.05464986402486409 
101.0003675412421 0.05400835275835287 
102.0003675412421 0.05218191530691538 
103.0003675412421 0.054161810411810465 
104.0003675412421 0.030844502719502797 
105.0003675412421 0.04645299145299152 
106.0003675412421 0.03621454933954939 
107.0003675412421 0.029855769230769283 
108.0003675412421 0.023331390831390908 
109.0003675412421 0.02599796037296039 
110.0003675412421 0.02012140637140645 
111.0003675412421 0.023284770784770818 
112.0003675412421 0.021753108003108142 
113.0003675412421 0.021018842268842326 
114.0003675412421 0.01519716394716398 
115.0003675412421 0.0190321484071485 
116.0003675412421 0.01773407148407149 
117.0003675412421 0.012268842268842298 
118.0003675412421 0.011457847707847756 
119.0003675412421 0.010554098679098714 
120.0003675412421 0.010119463869463908 
121.0003675412421 0.009866452991453025 
122.0003675412421 0.009772241647241681 
123.0003675412421 0.009755244755244787 
124.0003675412421 0.009827117327117364 
125.0003675412421 0.009916958041958076 
126.0003675412421 0.009943181818181854 
127.0003675412421 0.009969891219891254 
128.0003675412421 0.009994658119658155 
129.0003675412421 0.010000000000000035 
130.0003675412421 0.010000000000000035 
131.0003675412421 0.010000000000000035 
132.0003675412421 0.010000000000000035 
133.0003675412421 0.010000000000000035 
134.0003675412421 0.010000000000000035 
135.0003675412421 0.010000000000000035 
136.0003675412421 0.010000000000000035 
137.0003675412421 0.010000000000000035 
138.0003675412421 0.010000000000000035 
139.0003675412421 0.010000000000000035 
140.0003675412421 0.010000000000000035 
141.0003675412421 0.010000000000000035 
142.0003675412421 0.010000000000000035 
143.0003675412421 0.010000000000000035 
144.0003675412421 0.010000000000000035 
145.0003675412421 0.010000000000000035 
146.0003675412421 0.010000000000000035 
147.0003675412421 0.010000000000000035 
148.0003675412421 0.010000000000000035 
149.0003675412421 0.010000000000000035 
150.0003675412421 0.010000000000000035 
151.0003675412421 0.010000000000000035 
152.0003675412421 0.010000000000000035 
153.0003675412421 0.010000000000000035 
154.0003675412421 0.010000000000000035 
155.0003675412421 0.010000000000000035 
156.0003675412421 0.010000000000000035 
157.0003675412421 0.010000000000000035 
158.0003675412421 0.010000000000000035 
159.0003675412421 0.010000000000000035 
160.0003675412421 0.010000000000000035 
161.0003675412421 0.010000000000000035 
162.0003675412421 0.010000000000000035 
163.0003675412421 0.010000000000000035 
164.0003675412421 0.010000000000000035 
165.0003675412421 0.010000000000000035 
166.0003675412421 0.010000000000000035 
167.0003675412421 0.010000000000000035 
168.0003675412421 0.010000000000000035 
169.0003675412421 0.010000000000000035 
170.0003675412421 0.010000000000000035 
171.0003675412421 0.010000000000000035 
172.0003675412421 0.010000000000000035 
173.0003675412421 0.010000000000000035 
174.0003675412421 0.010000000000000035 
175.0003675412421 0.010000000000000035 
176.0003675412421 0.010000000000000035 
#####################################################################
# End of data export. Simulation finished at: 2017-05-24T16:08+0000 #
#####################################################################
