#####################################################################
# Alchemist log file - simulation started at: 2017-05-22T06:09+0000 #
#####################################################################
# random = 3.0, targets = 31.622776601683793, density = 20.0, gridShift = 0.0, perturbation = 0.5, connfactor = 2.0
#
# The columns have the following meaning: 
# time se[Mean] 
0.0 NaN 
1.0005923698108095 NaN 
2.0005923698108097 1.0080476493599666 
3.0005923698108097 1.014854444429019 
4.00059236981081 1.0221989415634982 
5.00059236981081 1.0341157512629728 
6.00059236981081 1.0333015597842885 
7.00059236981081 1.0445657270505084 
8.00059236981081 1.0491653237883833 
9.00059236981081 1.0543019551069 
10.00059236981081 1.0629435387771635 
11.00059236981081 1.0615650302684259 
12.00059236981081 1.0668545688745088 
13.00059236981081 1.0787172652984813 
14.00059236981081 1.0780261314412913 
15.00059236981081 1.087277048652237 
16.00059236981081 1.0970065809089284 
17.00059236981081 1.1081325805207973 
18.00059236981081 1.1163466542350082 
19.00059236981081 1.132378052837824 
20.00059236981081 1.1408120851362897 
21.00059236981081 1.1548937837360331 
22.00059236981081 1.1672073711638327 
23.00059236981081 1.1804667358061498 
24.00059236981081 1.1942696217694617 
25.00059236981081 1.2108157291478796 
26.00059236981081 1.2274611366890773 
27.00059236981081 1.248788585498541 
28.00059236981081 1.2689410989655852 
29.00059236981081 1.2943065025346772 
30.00059236981081 1.313402202896854 
31.00059236981081 1.3618534105745137 
32.00059236981081 1.38471029668272 
33.00059236981081 1.426425327736853 
34.00059236981081 1.4823060767916019 
35.00059236981081 1.5067899674772298 
36.00059236981081 1.5551832866177395 
37.00059236981081 1.6161597355195978 
38.00059236981081 1.6214905189675033 
39.00059236981081 1.6722681167529814 
40.00059236981081 1.706424599131378 
41.00059236981081 1.7200856718343787 
42.00059236981081 1.750804430000843 
43.00059236981081 1.8035998105457245 
44.00059236981081 1.8256780176023804 
45.00059236981081 1.8970903983858038 
46.00059236981081 1.911697147415484 
47.00059236981081 1.942619439997536 
48.00059236981081 2.0048824530652958 
49.00059236981081 2.004786311901658 
50.00059236981081 2.0463708755204717 
51.00059236981081 2.1031367907943816 
52.00059236981081 2.122112485713643 
53.00059236981081 2.1508398337729213 
54.00059236981081 2.2402240157335247 
55.00059236981081 2.2263731043998454 
56.00059236981081 2.307319720573499 
57.00059236981081 2.305715388561637 
58.00059236981081 2.3198165562242576 
59.00059236981081 2.344685080305764 
60.00059236981081 2.3629692930194435 
61.00059236981081 2.381594677532885 
62.00059236981081 2.4270320175597995 
63.00059236981081 2.3815647117341467 
64.00059236981082 2.4447268157741053 
65.00059236981082 2.4237413350836152 
66.00059236981082 2.4161161304594394 
67.00059236981082 2.43765330380183 
68.00059236981082 2.433636584558489 
69.00059236981082 2.428620861520326 
70.00059236981082 2.443771814560591 
71.00059236981082 2.514220654426727 
72.00059236981082 2.5165426518777205 
73.00059236981082 2.578502338851278 
74.00059236981082 2.6161117871051593 
75.00059236981082 2.6174015823916514 
76.00059236981082 2.635954611643394 
77.00059236981082 2.7173380071696975 
78.00059236981082 2.6788264701738416 
79.00059236981082 2.793889806515889 
80.00059236981082 2.7749174020918304 
81.00059236981082 2.785867809238151 
82.00059236981082 2.8040234474963475 
83.00059236981082 2.823364011813614 
84.00059236981082 2.837578494330819 
85.00059236981082 2.882403630327395 
86.00059236981082 2.830462596667132 
87.00059236981082 2.901613198267346 
88.00059236981082 2.876997543851363 
89.00059236981082 2.878953892316001 
90.00059236981082 2.9323184489887413 
91.00059236981082 2.9693377303202584 
92.00059236981082 2.977651430200434 
93.00059236981082 3.0345589138502027 
94.00059236981082 3.051753947452391 
95.00059236981082 3.0694684667544307 
96.00059236981082 3.172649242843288 
97.00059236981082 3.1432806330391982 
98.00059236981082 3.1747286231665006 
99.00059236981082 3.241422111219456 
100.00059236981082 3.2607131587820737 
101.00059236981082 3.2579625635083302 
102.00059236981082 3.366114837426383 
103.00059236981082 3.3461862026810585 
104.00059236981082 3.3771280286242575 
105.00059236981082 3.853324569355526 
106.00059236981082 4.848354951210691 
107.00059236981082 7.44110206990221 
108.00059236981082 12.562370282199296 
109.00059236981082 17.789113158763605 
110.00059236981082 23.517495503504946 
111.00059236981082 35.083772315854134 
112.00059236981082 30.394965519728846 
113.00059236981082 50.532095330394334 
114.00059236981082 47.894695514435725 
115.00059236981082 55.487465499013105 
116.00059236981082 68.82774118852063 
117.00059236981082 71.3425820326794 
118.00059236981082 69.87864243898329 
119.00059236981082 95.64975050143003 
120.00059236981082 81.4412303769555 
121.00059236981082 103.66485554027756 
122.00059236981082 97.87257203301394 
123.00059236981082 95.09828365526329 
124.00059236981082 96.91113166928335 
125.00059236981082 99.04823457797072 
126.00059236981082 93.38233424059707 
127.00059236981082 105.01953291383596 
128.00059236981082 86.34120476734572 
129.00059236981082 96.00901441587247 
130.00059236981082 88.62792201707826 
131.00059236981082 83.20453160170167 
132.00059236981082 89.31360303043546 
133.00059236981082 93.9775778897077 
134.00059236981082 89.5420230262558 
135.00059236981082 93.91639910156293 
136.00059236981082 96.13242453724511 
137.00059236981082 89.32870365945988 
138.00059236981082 103.87872176305584 
139.00059236981082 93.02347922850164 
140.00059236981082 96.8179975946311 
141.00059236981082 103.2955555201734 
142.00059236981082 109.236584985888 
143.00059236981082 96.16908320005882 
144.00059236981082 116.46804095416077 
145.00059236981082 112.40987061148849 
146.00059236981082 115.83888534780534 
147.00059236981082 110.39829501529584 
148.00059236981082 118.42387406317987 
149.00059236981082 119.7168041247979 
150.00059236981082 123.35424854288422 
151.00059236981082 133.80104254287167 
152.00059236981082 125.07660843420351 
153.00059236981082 135.37599842917095 
154.00059236981082 118.15736095649878 
155.00059236981082 128.30475263195706 
156.00059236981082 123.60870633697512 
157.00059236981082 110.4488302622299 
158.00059236981082 84.21691481982445 
159.00059236981082 91.99508184537784 
160.00059236981082 65.05748601626027 
161.00059236981082 60.305675128414485 
162.00059236981082 65.64915916302299 
163.00059236981082 63.903464606143714 
164.00059236981082 52.84877707314408 
165.00059236981082 69.90872435409314 
166.00059236981082 56.751851678362144 
167.00059236981082 65.30075050053688 
168.00059236981082 61.896438344551605 
169.00059236981082 59.802506531337514 
170.00059236981082 53.26789285591485 
171.00059236981082 68.89709900516768 
172.00059236981082 50.76762742411773 
173.00059236981082 68.20963302803064 
174.00059236981082 58.57718973138367 
175.00059236981082 59.10115351067013 
176.00059236981082 58.17175400395262 
177.00059236981082 56.90297604007983 
178.00059236981082 54.971058002326515 
179.00059236981082 59.778051900528496 
180.00059236981082 53.263346211411985 
181.00059236981082 58.15274081828168 
182.00059236981082 53.51138330211947 
183.00059236981082 54.127447563391435 
184.00059236981082 57.3862347475587 
185.00059236981082 56.70512374346276 
186.00059236981082 63.02277980334823 
187.00059236981082 61.9017359483576 
188.00059236981082 63.898933388606594 
189.00059236981082 68.41663755370544 
190.00059236981082 72.81618444132071 
191.00059236981082 67.56593808808536 
192.00059236981082 76.28258577481009 
193.00059236981082 75.63479885070643 
194.00059236981082 85.1832983438073 
195.00059236981082 76.6163913319342 
196.00059236981082 83.75024824342023 
197.00059236981082 82.95214659277863 
198.00059236981082 83.14606997096602 
199.00059236981082 80.48705323390826 
200.00059236981082 86.9734219974883 
201.00059236981082 78.99276323742541 
202.00059236981082 86.48099914172822 
203.00059236981082 85.90418754298712 
204.00059236981082 81.68165455995347 
205.00059236981082 86.70956244419864 
206.00059236981082 80.92420109104188 
207.00059236981082 85.58653793977095 
208.00059236981082 87.59317248776232 
209.00059236981082 79.26274797925237 
210.00059236981082 69.0529476533632 
211.00059236981082 78.93046869751231 
212.00059236981082 58.92529480984699 
213.00059236981082 57.50418546197331 
214.00059236981082 63.94870302258328 
215.00059236981082 61.60052399576954 
216.00059236981082 51.480516972241716 
217.00059236981082 63.748471959520224 
218.00059236981082 57.94391087265271 
219.00059236981082 61.58329660467323 
220.00059236981082 54.92042480139109 
221.00059236981082 57.03990745972053 
222.00059236981082 54.16742140978356 
223.00059236981082 59.19221936921547 
224.00059236981082 57.69204648957923 
225.00059236981082 59.16501358064336 
226.00059236981082 58.355411652897324 
227.00059236981082 51.87610900020644 
228.00059236981082 57.621554597484995 
229.00059236981082 56.86488698662971 
230.00059236981082 49.64888736891448 
231.00059236981082 41.67770970607913 
232.00059236981082 45.2895438034353 
233.00059236981082 32.2723826684583 
234.00059236981082 30.101393876393484 
235.00059236981082 31.54081783350486 
236.00059236981082 29.378356212390614 
237.00059236981082 25.76226676272892 
238.00059236981082 28.66449509796377 
239.00059236981082 25.052434704399445 
240.00059236981082 27.950848426317442 
241.00059236981082 23.617103812606377 
242.00059236981082 22.898561921599608 
243.00059236981082 20.71924762262533 
244.00059236981082 23.62219914757314 
245.00059236981082 18.56166248758736 
246.00059236981082 21.447000065778973 
247.00059236981082 18.559380020512982 
248.00059236981082 19.288605431781225 
249.00059236981082 18.561584647059583 
250.00059236981082 17.84376326031764 
251.00059236981082 17.845145640757515 
252.00059236981082 17.84414901785787 
253.00059236981082 17.848151641570716 
254.00059236981082 17.848764199676385 
255.00059236981082 17.847579580909102 
256.0005923698108 17.85200436505391 
257.0005923698108 17.8505959396655 
258.0005923698108 17.852240649183173 
259.0005923698108 17.85303303767995 
260.0005923698108 17.852925590890983 
261.0005923698108 17.853328886938623 
262.0005923698108 17.854261730783207 
263.0005923698108 17.85371484191664 
264.0005923698108 17.854426799657315 
265.0005923698108 17.85444816430391 
266.0005923698108 17.85471064417277 
267.0005923698108 17.854815051946822 
268.0005923698108 17.854888800983492 
269.0005923698108 17.854972835236758 
270.0005923698108 17.854962333416506 
271.0005923698108 17.855046452998483 
272.0005923698108 17.855004353825013 
273.0005923698108 17.855025390284254 
274.0005923698108 17.855046426743495 
275.0005923698108 17.855046426743495 
276.0005923698108 17.855046426743495 
277.0005923698108 17.855046426743495 
278.0005923698108 17.855046426743495 
279.0005923698108 17.855046426743495 
280.0005923698108 17.855046426743495 
281.0005923698108 17.855046426743495 
282.0005923698108 17.855046426743495 
283.0005923698108 17.855046426743495 
284.0005923698108 17.855046426743495 
285.0005923698108 17.855046426743495 
286.0005923698108 17.855046426743495 
287.0005923698108 17.855046426743495 
288.0005923698108 17.855046426743495 
289.0005923698108 17.855046426743495 
290.0005923698108 17.855046426743495 
291.0005923698108 17.855046426743495 
292.0005923698108 17.855046426743495 
293.0005923698108 17.855046426743495 
294.0005923698108 17.855046426743495 
295.0005923698108 17.855046426743495 
296.0005923698108 17.855046426743495 
297.0005923698108 17.855046426743495 
298.0005923698108 17.855046426743495 
299.0005923698108 17.855046426743495 
300.0005923698108 17.855046426743495 
301.0005923698108 17.855046426743495 
302.0005923698108 17.855046426743495 
303.0005923698108 17.855046426743495 
304.0005923698108 17.855046426743495 
305.0005923698108 17.855046426743495 
306.0005923698108 17.855046426743495 
307.0005923698108 17.855046426743495 
308.0005923698108 17.855046426743495 
309.0005923698108 17.855046426743495 
310.0005923698108 17.855046426743495 
311.0005923698108 17.855046426743495 
312.0005923698108 17.855046426743495 
313.0005923698108 17.855046426743495 
314.0005923698108 17.855046426743495 
315.0005923698108 17.855046426743495 
316.0005923698108 17.855046426743495 
317.0005923698108 17.855046426743495 
318.0005923698108 17.855046426743495 
319.0005923698108 17.855046426743495 
320.0005923698108 17.855046426743495 
321.0005923698108 17.855046426743495 
322.0005923698108 17.855046426743495 
323.0005923698108 17.855046426743495 
324.0005923698108 17.855046426743495 
325.0005923698108 17.855046426743495 
326.0005923698108 17.855046426743495 
327.0005923698108 17.855046426743495 
328.0005923698108 17.855046426743495 
329.0005923698108 17.855046426743495 
330.0005923698108 17.855046426743495 
331.0005923698108 17.855046426743495 
332.0005923698108 17.855046426743495 
333.0005923698108 17.855046426743495 
334.0005923698108 17.855046426743495 
335.0005923698108 17.855046426743495 
336.0005923698108 17.855046426743495 
337.0005923698108 17.855046426743495 
338.0005923698108 17.855046426743495 
339.0005923698108 17.855046426743495 
340.0005923698108 17.855046426743495 
341.0005923698108 17.855046426743495 
342.0005923698108 17.855046426743495 
343.0005923698108 17.855046426743495 
344.0005923698108 17.855046426743495 
345.0005923698108 17.855046426743495 
346.0005923698108 17.855046426743495 
347.0005923698108 17.855046426743495 
348.0005923698108 17.855046426743495 
349.0005923698108 17.855046426743495 
350.0005923698108 17.855046426743495 
351.0005923698108 17.855046426743495 
352.0005923698108 17.855046426743495 
353.0005923698108 17.855046426743495 
354.0005923698108 17.855046426743495 
355.0005923698108 17.855046426743495 
356.0005923698108 17.855046426743495 
357.0005923698108 17.855046426743495 
358.0005923698108 17.855046426743495 
359.0005923698108 17.855046426743495 
360.0005923698108 17.855046426743495 
361.0005923698108 17.855046426743495 
362.0005923698108 17.855046426743495 
363.0005923698108 17.855046426743495 
364.0005923698108 17.855046426743495 
365.0005923698108 17.855046426743495 
366.0005923698108 17.855046426743495 
367.0005923698108 17.855046426743495 
368.0005923698108 17.855046426743495 
369.0005923698108 17.855046426743495 
370.0005923698108 17.855046426743495 
371.0005923698108 17.855046426743495 
372.0005923698108 17.855046426743495 
373.0005923698108 17.855046426743495 
374.0005923698108 17.855046426743495 
375.0005923698108 17.855046426743495 
376.0005923698108 17.855046426743495 
377.0005923698108 17.855046426743495 
378.0005923698108 17.855046426743495 
379.0005923698108 17.855046426743495 
380.0005923698108 17.855046426743495 
#####################################################################
# End of data export. Simulation finished at: 2017-05-22T06:42+0000 #
#####################################################################
