#####################################################################
# Alchemist log file - simulation started at: 2017-05-24T19:28+0000 #
#####################################################################
# random = 7.0, targets = 3.1622776601683795, density = 20.0, gridShift = 1.0, perturbation = 0.5, connfactor = 0.1
#
# The columns have the following meaning: 
# time se[Mean] 
0.0 NaN 
1.0008200817491508 NaN 
2.0008200817491506 1.0 
3.0008200817491506 1.0 
4.000820081749151 1.0 
5.000820081749151 1.0 
6.000820081749151 1.0 
7.000820081749151 1.0 
8.00082008174915 1.0 
9.00082008174915 1.0 
10.00082008174915 1.0 
11.00082008174915 1.0 
12.00082008174915 1.0 
13.00082008174915 1.0 
14.00082008174915 1.0 
15.00082008174915 1.0 
16.00082008174915 1.0 
17.00082008174915 1.0 
18.00082008174915 1.0 
19.00082008174915 1.0 
20.00082008174915 1.0 
21.00082008174915 1.0 
22.00082008174915 1.0 
23.00082008174915 1.0 
24.00082008174915 1.0 
25.00082008174915 1.0 
26.00082008174915 1.0 
27.00082008174915 1.0 
28.00082008174915 1.0 
29.00082008174915 1.0 
30.00082008174915 1.0 
31.00082008174915 1.0 
32.000820081749154 1.0 
33.000820081749154 1.0 
34.000820081749154 1.0 
35.000820081749154 1.0 
36.000820081749154 1.0 
37.000820081749154 1.0 
38.000820081749154 1.0 
39.000820081749154 1.0 
40.000820081749154 1.0 
41.000820081749154 1.0 
42.000820081749154 1.0 
43.000820081749154 1.0 
44.000820081749154 1.0 
45.000820081749154 1.0 
46.000820081749154 1.0 
47.000820081749154 1.0 
48.000820081749154 1.0 
49.000820081749154 1.0 
50.000820081749154 1.0 
51.000820081749154 1.0 
52.000820081749154 1.0 
53.000820081749154 1.0 
54.000820081749154 1.0 
55.000820081749154 1.0 
56.000820081749154 1.0 
57.000820081749154 1.0 
58.000820081749154 1.0 
59.000820081749154 1.0 
60.000820081749154 1.0 
61.000820081749154 1.0 
62.000820081749154 1.0 
63.000820081749154 1.0 
64.00082008174915 1.0 
65.00082008174915 1.0 
66.00082008174915 1.0 
67.00082008174915 1.0 
68.00082008174915 1.0 
69.00082008174915 1.0 
70.00082008174915 1.0 
71.00082008174915 1.0 
72.00082008174915 1.0 
73.00082008174915 1.0 
74.00082008174915 1.0 
75.00082008174915 1.0 
76.00082008174915 1.0 
77.00082008174915 1.0 
78.00082008174915 1.0 
79.00082008174915 1.0 
80.00082008174915 1.0 
81.00082008174915 1.0 
82.00082008174915 1.0 
83.00082008174915 1.0 
84.00082008174915 1.0 
85.00082008174915 1.0 
86.00082008174915 1.0 
87.00082008174915 1.0 
88.00082008174915 1.0 
89.00082008174915 1.0 
90.00082008174915 1.0 
91.00082008174915 1.0 
92.00082008174915 1.0 
93.00082008174915 1.0 
94.00082008174915 1.0 
95.00082008174915 1.0 
96.00082008174915 1.0 
97.00082008174915 1.0 
98.00082008174915 1.0 
99.00082008174915 1.0 
100.00082008174915 1.0 
101.00082008174915 1.0 
102.00082008174915 1.0 
#####################################################################
# End of data export. Simulation finished at: 2017-05-24T19:39+0000 #
#####################################################################
