#####################################################################
# Alchemist log file - simulation started at: 2017-05-23T03:59+0000 #
#####################################################################
# random = 10.0, targets = 100.0, density = 5.0264212595847235, gridShift = 0.0, perturbation = 0.0, connfactor = 0.5
#
# The columns have the following meaning: 
# time se[Mean] 
0.0 NaN 
1.0007035023519422 NaN 
2.000703502351942 1.001137109375 
3.000703502351942 1.0021042739679784 
4.000703502351942 1.0030825834297838 
5.000703502351942 1.002053982204861 
6.000703502351942 1.0002919885706019 
7.000703502351942 0.9974064609857253 
8.000703502351943 0.9952732313368056 
9.000703502351943 0.9917556761188272 
10.000703502351943 0.9906029670621141 
11.000703502351943 0.9839427276234568 
12.000703502351943 0.9826134813850309 
13.000703502351943 0.9741792173032408 
14.000703502351943 0.969678456548997 
15.000703502351943 0.9658005509741512 
16.000703502351943 0.9545162856867284 
17.000703502351943 0.9510908998842593 
18.000703502351943 0.9443414556809414 
19.000703502351943 0.9377027367862654 
20.000703502351943 0.9312203763985339 
21.000703502351943 0.9250119176793982 
22.000703502351943 0.9194189633969907 
23.000703502351943 0.9117427023051697 
24.000703502351943 0.9075817672164351 
25.000703502351943 0.900162117814429 
26.000703502351943 0.8962598958333333 
27.000703502351943 0.8876657841435185 
28.000703502351943 0.8832784782503857 
29.000703502351943 0.8805438657407407 
30.000703502351943 0.8738694577064042 
31.000703502351943 0.8684353539737654 
32.00070350235194 0.8606914665316358 
33.00070350235194 0.8609094714506172 
34.00070350235194 0.8501398341049382 
35.00070350235194 0.8518534456983025 
36.00070350235194 0.8403208417727623 
37.00070350235194 0.842872860001929 
38.00070350235194 0.8303295693479938 
39.00070350235194 0.8308208104263117 
40.00070350235194 0.8251415858892747 
41.00070350235194 0.8212662820698302 
42.00070350235194 0.8142996636284722 
43.00070350235194 0.8085889564043209 
44.00070350235194 0.8060247745466821 
45.00070350235194 0.799056377797068 
46.00070350235194 0.7944913278838734 
47.00070350235194 0.7896046428915895 
48.00070350235194 0.7826261646412037 
49.00070350235194 0.7798255449459877 
50.00070350235194 0.7722279742959105 
51.00070350235194 0.7683323724440586 
52.00070350235194 0.7613993766878858 
53.00070350235194 0.754408135609568 
54.00070350235194 0.7483375204957562 
55.00070350235194 0.7403532069830248 
56.00070350235194 0.7335277898341048 
57.00070350235194 0.7233568106192131 
58.00070350235194 0.7076200352044754 
59.00070350235194 0.6971794536072531 
60.00070350235194 0.6898459755979939 
61.00070350235194 0.678413060619213 
62.00070350235194 0.6749147424768519 
63.00070350235194 0.664837223910108 
64.00070350235194 0.6564198905285493 
65.00070350235194 0.6474198049286265 
66.00070350235194 0.6360502097800926 
67.00070350235194 0.630088163097994 
68.00070350235194 0.6221332802854939 
69.00070350235194 0.6142435281635804 
70.00070350235194 0.6032075846354167 
71.00070350235194 0.586283869839892 
72.00070350235194 0.5738401258680556 
73.00070350235194 0.5543410602334106 
74.00070350235194 0.5421108844521606 
75.00070350235194 0.5422326485339507 
76.00070350235194 0.5206925467785493 
77.00070350235194 0.6129677903163581 
78.00070350235194 0.6361894555362656 
79.00070350235194 0.5805021580825618 
80.00070350235194 0.6313785554108797 
81.00070350235194 0.5328784758391204 
82.00070350235194 0.5157678385416667 
83.00070350235194 0.4971630401234568 
84.00070350235194 0.4512381148726853 
85.00070350235194 0.4907374457465279 
86.00070350235194 0.46295742066936735 
87.00070350235194 0.41770962094907405 
88.00070350235194 0.43455227502893534 
89.00070350235194 0.405474197048611 
90.00070350235194 0.41756364173418214 
91.00070350235194 0.3925132535204477 
92.00070350235194 0.41110314187885805 
93.00070350235194 0.41348674406828695 
94.00070350235194 0.3817486328125 
95.00070350235194 0.40709726441936744 
96.00070350235194 0.37648776282793217 
97.00070350235194 0.38877255859375 
98.00070350235194 0.396510343123071 
99.00070350235194 0.38028529972029324 
100.00070350235194 0.37969671706211416 
101.00070350235194 0.35983138623649696 
102.00070350235194 0.35999254075038584 
103.00070350235194 0.35864083357445986 
104.00070350235194 0.3433539351851852 
105.00070350235194 0.3560579234182099 
106.00070350235194 0.3406080680941358 
107.00070350235194 0.35460950038580247 
108.00070350235194 0.33971672935956787 
109.00070350235194 0.3388359471450617 
110.00070350235194 0.33862056327160495 
111.00070350235194 0.3377666763117284 
112.00070350235194 0.33760135030864197 
113.00070350235194 0.3363827305169753 
114.00070350235194 0.33698598572530863 
115.00070350235194 0.3365360291280864 
116.00070350235194 0.3365695360725308 
117.00070350235194 0.3360996141975308 
118.00070350235194 0.33631599151234565 
119.00070350235194 0.3363800347222222 
120.00070350235194 0.3364 
121.00070350235194 0.3364 
122.00070350235194 0.3364 
123.00070350235194 0.3364 
124.00070350235194 0.3364 
125.00070350235194 0.3364 
126.00070350235194 0.3364 
127.00070350235194 0.3364 
128.00070350235194 0.3364 
129.00070350235194 0.3364 
130.00070350235194 0.3364 
131.00070350235194 0.3364 
132.00070350235194 0.3364 
133.00070350235194 0.3364 
134.00070350235194 0.3364 
135.00070350235194 0.3364 
136.00070350235194 0.3364 
137.00070350235194 0.3364 
138.00070350235194 0.3364 
139.00070350235194 0.3364 
140.00070350235194 0.3364 
141.00070350235194 0.3364 
142.00070350235194 0.3364 
143.00070350235194 0.3364 
144.00070350235194 0.3364 
145.00070350235194 0.3364 
146.00070350235194 0.3364 
147.00070350235194 0.3364 
148.00070350235194 0.3364 
149.00070350235194 0.3364 
150.00070350235194 0.3364 
151.00070350235194 0.3364 
152.00070350235194 0.3364 
153.00070350235194 0.3364 
154.00070350235194 0.3364 
155.00070350235194 0.3364 
156.00070350235194 0.3364 
157.00070350235194 0.3364 
158.00070350235194 0.3364 
159.00070350235194 0.3364 
160.00070350235194 0.3364 
161.00070350235194 0.3364 
162.00070350235194 0.3364 
163.00070350235194 0.3364 
164.00070350235194 0.3364 
165.00070350235194 0.3364 
166.00070350235194 0.3364 
167.00070350235194 0.3364 
168.00070350235194 0.3364 
169.00070350235194 0.3364 
170.00070350235194 0.3364 
171.00070350235194 0.3364 
#####################################################################
# End of data export. Simulation finished at: 2017-05-23T04:00+0000 #
#####################################################################
