#####################################################################
# Alchemist log file - simulation started at: 2017-05-24T17:30+0000 #
#####################################################################
# random = 15.0, targets = 31.622776601683793, density = 2.519842099789746, gridShift = 0.0, perturbation = 0.0, connfactor = 0.1
#
# The columns have the following meaning: 
# time se[Mean] 
0.0 NaN 
1.00191619624553 NaN 
2.00191619624553 1.0 
3.00191619624553 1.0 
4.00191619624553 1.0 
5.00191619624553 0.9997846174629641 
6.00191619624553 0.9993538523888924 
7.00191619624553 0.9980684775819021 
8.00191619624553 0.9963454172856151 
9.00191619624553 0.9942261939913809 
10.00191619624553 0.9918569860839863 
11.00191619624553 0.9882439258609508 
12.00191619624553 0.9829008849264034 
13.00191619624553 0.9815878284585134 
14.00191619624553 0.9772732573025711 
15.00191619624553 0.9753417348844731 
16.00191619624553 0.9718886938766742 
17.00191619624553 0.968247951992739 
18.00191619624553 0.9593264529112808 
19.00191619624553 0.9580410781042905 
20.00191619624553 0.9503911129993727 
21.00191619624553 0.9471811361895093 
22.00191619624553 0.9456734584302582 
23.00191619624553 0.938468099229862 
24.00191619624553 0.9396834202195397 
25.00191619624553 0.9264387302367869 
26.00191619624553 0.9212739207679602 
27.00191619624553 0.9104806340102376 
28.00191619624553 0.9020098115834622 
29.00191619624553 0.8978820916385924 
30.00191619624553 0.8921982510278973 
31.00191619624553 0.8922060211081857 
32.00191619624553 0.8925139180383361 
33.00191619624553 0.8867323419494286 
34.00191619624553 0.8890963287717254 
35.00191619624553 0.88519176144418 
36.00191619624553 0.8790339339379364 
37.00191619624553 0.8795632841552841 
38.00191619624553 0.8796264175573718 
39.00191619624553 0.8764441224084082 
40.00191619624553 0.8697976175111028 
41.00191619624553 0.8583306245760894 
42.00191619624553 0.8453863076326315 
43.00191619624553 0.8250171237211403 
44.00191619624553 0.813017381908525 
45.00191619624553 0.7988560446452625 
46.00191619624553 0.7927864832068157 
47.00191619624553 0.7862341920327521 
48.00191619624553 0.789495037649664 
49.00191619624553 0.7897422270782007 
50.00191619624553 0.7804800514153112 
51.00191619624553 0.7879454681149141 
52.00191619624553 0.7818274637698929 
53.00191619624553 0.7692904785649248 
54.00191619624553 0.7800081211360875 
55.00191619624553 0.7835803854381207 
56.00191619624553 0.7811013005521911 
57.00191619624553 0.7721954647260262 
58.00191619624553 0.7741778559511728 
59.00191619624553 0.7709739498914707 
60.00191619624553 0.7708234000866497 
61.00191619624553 0.7680987020075939 
62.00191619624553 0.7663471103853436 
63.00191619624553 0.7647693788087799 
64.00191619624553 0.7636016510606131 
65.00191619624553 0.7630177871865297 
66.00191619624553 0.7630177871865297 
67.00191619624553 0.7630177871865297 
68.00191619624553 0.7630177871865297 
69.00191619624553 0.7630177871865297 
70.00191619624553 0.7630177871865297 
71.00191619624553 0.7630177871865297 
72.00191619624553 0.7630177871865297 
73.00191619624553 0.7630177871865297 
74.00191619624553 0.7630177871865297 
75.00191619624553 0.7630177871865297 
76.00191619624553 0.7630177871865297 
77.00191619624553 0.7630177871865297 
78.00191619624553 0.7630177871865297 
79.00191619624553 0.7630177871865297 
80.00191619624553 0.7630177871865297 
81.00191619624553 0.7630177871865297 
82.00191619624553 0.7630177871865297 
83.00191619624553 0.7630177871865297 
84.00191619624553 0.7630177871865297 
85.00191619624553 0.7630177871865297 
86.00191619624553 0.7630177871865297 
87.00191619624553 0.7630177871865297 
88.00191619624553 0.7630177871865297 
89.00191619624553 0.7630177871865297 
90.00191619624553 0.7630177871865297 
91.00191619624553 0.7630177871865297 
92.00191619624553 0.7630177871865297 
93.00191619624553 0.7630177871865297 
94.00191619624553 0.7630177871865297 
95.00191619624553 0.7630177871865297 
96.00191619624553 0.7630177871865297 
97.00191619624553 0.7630177871865297 
98.00191619624553 0.7630177871865297 
99.00191619624553 0.7630177871865297 
100.00191619624553 0.7630177871865297 
101.00191619624553 0.7630177871865297 
#####################################################################
# End of data export. Simulation finished at: 2017-05-24T17:30+0000 #
#####################################################################
