#####################################################################
# Alchemist log file - simulation started at: 2017-05-23T15:06+0000 #
#####################################################################
# random = 12.0, targets = 3.1622776601683795, density = 2.519842099789746, gridShift = 0.0, perturbation = 0.5, connfactor = 0.75
#
# The columns have the following meaning: 
# time se[Mean] 
0.0 NaN 
1.0005590746559656 NaN 
2.000559074655966 1.0 
3.000559074655966 1.0 
4.000559074655966 0.9961421762489019 
5.000559074655966 0.9974665642505175 
6.000559074655966 0.9820646105386854 
7.000559074655966 0.9641565374534383 
8.000559074655966 0.955637558007988 
9.000559074655966 0.9461665152399886 
10.000559074655966 0.9490156179999102 
11.000559074655966 0.9434327527338158 
12.000559074655966 0.939746926905094 
13.000559074655966 0.9319169516073957 
14.000559074655966 0.9343633759374438 
15.000559074655966 0.9219278901557744 
16.000559074655968 0.9108734500443485 
17.000559074655968 0.9060372590528809 
18.000559074655968 0.9005100389971681 
19.000559074655968 0.887613192200504 
20.000559074655968 0.8784011587743161 
21.000559074655968 0.865504311977653 
22.000559074655968 0.8581346852367021 
23.000559074655968 0.8562922785514645 
24.000559074655968 0.8526074651809894 
25.000559074655968 0.8581346852367021 
26.000559074655968 0.8673467186628903 
27.000559074655968 0.8728739387186033 
28.000559074655968 0.8747163454038412 
29.000559074655968 0.883928378830029 
30.000559074655968 0.8894555988857418 
31.000559074655968 0.8968252256266926 
32.00055907465597 0.9005100389971681 
33.00055907465597 0.9023524456824055 
34.00055907465597 0.9134068857938311 
35.00055907465597 0.9170916991643067 
36.00055907465597 0.9244613259052569 
37.00055907465597 0.9318309526462077 
38.00055907465597 0.9373581727019208 
39.00055907465597 0.9484126128133464 
40.00055907465597 0.9539398328690593 
41.00055907465597 0.9631518662952475 
42.00055907465597 0.9686790863509603 
43.00055907465597 0.9742063064066733 
44.00055907465597 0.9765859551511576 
45.00055907465597 0.9840385568096146 
46.00055907465597 1.1598960952622244 
47.00055907465597 1.508074064386963 
48.00055907465597 2.027615298576868 
49.00055907465597 2.0182616209791173 
50.00055907465597 2.0052453907612438 
51.00055907465597 1.9869134109505933 
52.00055907465597 2.151072013313698 
53.00055907465597 2.3038270774362206 
54.00055907465597 1.7564221731558016 
55.00055907465597 2.7907058781716256 
56.00055907465597 2.5908110671807956 
57.00055907465597 2.4005390877085855 
58.00055907465597 2.7158886268851044 
59.00055907465597 2.859351760031846 
60.00055907465597 2.6601389393018575 
61.00055907465597 3.310197895173657 
62.00055907465597 2.7460879108029657 
63.00055907465597 3.9432907900211056 
64.00055907465597 3.541077031121877 
65.00055907465597 3.34009159000484 
66.00055907465597 3.4701064732112736 
67.00055907465597 2.9143040111541625 
68.00055907465597 3.048296068205258 
69.00055907465597 2.4744175916390327 
70.00055907465597 3.329499843312036 
71.00055907465597 1.7180260588517842 
72.00055907465597 0.831870759165319 
73.00055907465597 1.151160057890084 
74.00055907465597 0.6920694194705366 
75.00055907465597 1.0771977539208022 
76.00055907465597 0.41979363694418637 
77.00055907465597 0.5957169451896424 
78.00055907465597 0.41937484583424295 
79.00055907465597 0.41734931751697546 
80.00055907465597 0.41373235884559734 
81.00055907465597 0.4769055200916639 
82.00055907465597 0.4040863940944714 
83.00055907465597 0.5376343152518179 
84.00055907465597 0.524783981544732 
85.00055907465597 0.5078036794496481 
86.00055907465597 0.5341973875135009 
87.00055907465597 0.6003228689363947 
88.00055907465597 0.5230458580588772 
89.00055907465597 0.7172315264550163 
90.00055907465597 0.9219128446624225 
91.00055907465597 1.7697509544272678 
92.00055907465597 2.7662474710658285 
93.00055907465597 2.6943206066993692 
94.00055907465597 2.735779419827777 
95.00055907465597 2.5997871059224025 
96.00055907465597 3.0271026635341083 
97.00055907465597 3.192152441748863 
98.00055907465597 2.2334319497847304 
99.00055907465597 4.091803483595814 
100.00055907465597 3.577387783493399 
101.00055907465597 3.3043035400772736 
102.00055907465597 3.874732966068336 
103.00055907465597 4.286383457469172 
104.00055907465597 3.820544255105457 
105.00055907465597 5.23598900535032 
106.00055907465597 4.167461501118594 
107.00055907465597 6.597020438874283 
108.00055907465597 5.902806541626764 
109.00055907465597 5.555737533525128 
110.00055907465597 5.902806541626773 
111.00055907465597 4.861599517321848 
112.00055907465597 5.2086685254234935 
113.00055907465597 4.167461501118583 
114.00055907465597 5.902806541626772 
115.00055907465597 2.779185468712063 
116.00055907465597 1.043840428203873 
117.00055907465597 1.7379784444071382 
118.00055907465597 0.6967714201022391 
119.00055907465597 1.3909094363055092 
120.00055907465597 0.002633403898972407 
121.00055907465597 0.34970241200060764 
122.00055907465597 0.002633403898972407 
123.00055907465597 0.002633403898972407 
124.00055907465597 0.002633403898972407 
125.00055907465597 0.002633403898972407 
126.00055907465597 0.002633403898972407 
127.00055907465597 0.002633403898972407 
128.00055907465597 0.002633403898972407 
129.00055907465597 0.002633403898972407 
130.00055907465597 0.002633403898972407 
131.00055907465597 0.002633403898972407 
132.00055907465597 0.002633403898972407 
133.00055907465597 0.002633403898972407 
134.00055907465597 0.002633403898972407 
135.00055907465597 0.002633403898972407 
136.00055907465597 0.002633403898972407 
137.00055907465597 0.002633403898972407 
138.00055907465597 0.002633403898972407 
139.00055907465597 0.002633403898972407 
140.00055907465597 0.002633403898972407 
141.00055907465597 0.002633403898972407 
142.00055907465597 0.002633403898972407 
143.00055907465597 0.002633403898972407 
144.00055907465597 0.002633403898972407 
145.00055907465597 0.002633403898972407 
146.00055907465597 0.002633403898972407 
147.00055907465597 0.002633403898972407 
148.00055907465597 0.002633403898972407 
149.00055907465597 0.002633403898972407 
150.00055907465597 0.002633403898972407 
151.00055907465597 0.002633403898972407 
152.00055907465597 0.002633403898972407 
153.00055907465597 0.002633403898972407 
154.00055907465597 0.002633403898972407 
155.00055907465597 0.002633403898972407 
#####################################################################
# End of data export. Simulation finished at: 2017-05-23T15:07+0000 #
#####################################################################
