#####################################################################
# Alchemist log file - simulation started at: 2017-05-23T10:30+0000 #
#####################################################################
# random = 5.0, targets = 10.0, density = 1.2632455339402642, gridShift = 1.0, perturbation = 0.5, connfactor = 1.0
#
# The columns have the following meaning: 
# time se[Mean] 
0.0 NaN 
1.0052461206074068 NaN 
2.005246120607407 1.0207886904761905 
3.005246120607407 1.027809193121693 
4.005246120607406 1.042206101190476 
5.005246120607406 1.0316455853174604 
6.005246120607406 0.9965190972222222 
7.005246120607406 0.9810040509259259 
8.005246120607406 0.9723011739417989 
9.005246120607406 0.9501818783068783 
10.005246120607406 0.9556059854497355 
11.005246120607406 0.9334408068783069 
12.005246120607406 0.9166567460317461 
13.005246120607406 0.8705291005291006 
14.005246120607406 0.8223875661375663 
15.005246120607406 0.7780291005291006 
16.005246120607406 0.7035367063492064 
17.005246120607406 0.6503670634920636 
18.005246120607406 0.5916021825396826 
19.005246120607406 0.5514186507936508 
20.005246120607406 0.4857936507936509 
21.005246120607406 0.4738541666666667 
22.005246120607406 0.42360615079365077 
23.005246120607406 0.40542328042328046 
24.005246120607406 0.39325892857142847 
25.005246120607406 0.3780588624338625 
26.005246120607406 0.3569279100529101 
27.005246120607406 0.33808531746031756 
28.005246120607406 0.3369064153439153 
29.005246120607406 0.30099041005291005 
30.005246120607406 0.29730820105820116 
31.005246120607406 0.26837962962962975 
32.00524612060741 0.2527099867724868 
33.00524612060741 0.24569609788359795 
34.00524612060741 0.2469051752645503 
35.00524612060741 0.23384961970899476 
36.00524612060741 0.2442514054232805 
37.00524612060741 0.24974289021164023 
38.00524612060741 0.2629980985449736 
39.00524612060741 0.3153294477513228 
40.00524612060741 0.3064442791005291 
41.00524612060741 0.4142075892857142 
42.00524612060741 0.3974962797619047 
43.00524612060741 0.4156113591269842 
44.00524612060741 0.39486441798941796 
45.00524612060741 0.3880861441798942 
46.00524612060741 0.408729332010582 
47.00524612060741 0.3054939649470899 
48.00524612060741 0.3604344411375662 
49.00524612060741 0.3414942956349206 
50.00524612060741 0.26968998015873025 
51.00524612060741 0.2579613095238096 
52.00524612060741 0.23772858796296284 
53.00524612060741 0.11101562499999994 
54.00524612060741 0.14117642195767208 
55.00524612060741 0.07240823412698412 
56.00524612060741 0.05449115410052912 
57.00524612060741 0.0524024470899471 
58.00524612060741 0.05182126322751323 
59.00524612060741 0.049375 
60.00524612060741 0.049184854497354505 
61.00524612060741 0.04654720568783069 
62.00524612060741 0.044546957671957675 
63.00524612060741 0.04504836309523809 
64.00524612060741 0.04412657076719577 
65.00524612060741 0.04261450066137566 
66.00524612060741 0.04355365410052912 
67.00524612060741 0.042398726851851865 
68.00524612060741 0.04097222222222225 
69.00524612060741 0.04168030753968257 
70.00524612060741 0.040327794312169346 
71.00524612060741 0.040000000000000036 
72.00524612060741 0.040000000000000036 
73.00524612060741 0.040000000000000036 
74.00524612060741 0.040000000000000036 
75.00524612060741 0.040000000000000036 
76.00524612060741 0.040000000000000036 
77.00524612060741 0.040000000000000036 
78.00524612060741 0.040000000000000036 
79.00524612060741 0.040000000000000036 
80.00524612060741 0.040000000000000036 
81.00524612060741 0.040000000000000036 
82.00524612060741 0.040000000000000036 
83.00524612060741 0.040000000000000036 
84.00524612060741 0.040000000000000036 
85.00524612060741 0.040000000000000036 
86.00524612060741 0.040000000000000036 
87.00524612060741 0.040000000000000036 
88.00524612060741 0.040000000000000036 
89.00524612060741 0.040000000000000036 
90.00524612060741 0.040000000000000036 
91.00524612060741 0.040000000000000036 
#####################################################################
# End of data export. Simulation finished at: 2017-05-23T10:30+0000 #
#####################################################################
