#####################################################################
# Alchemist log file - simulation started at: 2017-05-24T09:49+0000 #
#####################################################################
# random = 6.0, targets = 100.0, density = 0.11269076455391362, gridShift = 1.0, perturbation = 0.5, connfactor = 2.0
#
# The columns have the following meaning: 
# time se[Mean] 
0.0 NaN 
1.0115592716150654 NaN 
2.0115592716150656 1.221525 
3.0115592716150656 1.3757853333333334 
4.011559271615066 1.765150888888889 
5.011559271615066 1.7606468888888889 
6.011559271615066 2.9268575555555563 
7.011559271615066 2.8742976666666675 
8.011559271615067 3.334950222222223 
9.011559271615067 2.557697000000001 
10.011559271615067 1.9606837777777784 
11.011559271615067 1.0191928888888895 
12.011559271615067 0.5748915555555559 
13.011559271615067 0.24496611111111116 
14.011559271615067 0.15152644444444435 
15.011559271615067 0.061127333333333124 
16.011559271615067 0.07350888888888861 
17.011559271615067 0.056889666666666464 
18.011559271615067 0.029230222222222126 
19.011559271615067 0.002187555555555532 
20.011559271615067 0.001401333333333325 
21.011559271615067 3.000000000000068E-4 
22.011559271615067 3.2311742677852645E-31 
23.011559271615067 3.2311742677852645E-31 
24.011559271615067 3.2311742677852645E-31 
25.011559271615067 3.2311742677852645E-31 
26.011559271615067 3.2311742677852645E-31 
27.011559271615067 3.2311742677852645E-31 
28.011559271615067 3.2311742677852645E-31 
29.011559271615067 3.2311742677852645E-31 
30.011559271615067 3.2311742677852645E-31 
31.011559271615067 3.2311742677852645E-31 
#####################################################################
# End of data export. Simulation finished at: 2017-05-24T09:49+0000 #
#####################################################################
