#####################################################################
# Alchemist log file - simulation started at: 2017-05-24T09:37+0000 #
#####################################################################
# random = 14.0, targets = 31.622776601683793, density = 0.05649405772326896, gridShift = 1.0, perturbation = 0.0, connfactor = 1.5
#
# The columns have the following meaning: 
# time se[Mean] 
0.0 NaN 
1.011133799227012 NaN 
2.0111337992270117 1.0236471868384474 
3.0111337992270117 1.0815023929666043 
4.011133799227012 1.3551622931214322 
5.011133799227012 2.162237088726712 
6.011133799227012 2.824693659208148 
7.011133799227012 2.409841787163735 
8.01113379922701 2.004013519336233 
9.01113379922701 1.3924869234678208 
10.01113379922701 0.7804975715486654 
11.01113379922701 0.09084143991731762 
12.01113379922701 0.017602234500957686 
13.01113379922701 0.001712491433771346 
14.01113379922701 6.688348104265852E-4 
15.01113379922701 3.8785069560483976E-4 
16.01113379922701 3.8785069560483976E-4 
17.01113379922701 3.8785069560483976E-4 
18.01113379922701 3.8785069560483976E-4 
19.01113379922701 3.8785069560483976E-4 
20.01113379922701 3.8785069560483976E-4 
21.01113379922701 3.8785069560483976E-4 
#####################################################################
# End of data export. Simulation finished at: 2017-05-24T09:37+0000 #
#####################################################################
