#####################################################################
# Alchemist log file - simulation started at: 2017-05-20T18:13+0000 #
#####################################################################
# random = 1.0, targets = 31.622776601683793, density = 0.04, gridShift = 1.0, perturbation = 0.0, connfactor = 0.1
#
# The columns have the following meaning: 
# time se[Mean] 
0.0 NaN 
1.0048855897957667 NaN 
2.0048855897957667 1.0 
3.0048855897957667 1.0 
4.004885589795767 1.0 
5.004885589795767 1.0 
6.004885589795767 1.0 
#####################################################################
# End of data export. Simulation finished at: 2017-05-20T18:13+0000 #
#####################################################################
