#####################################################################
# Alchemist log file - simulation started at: 2017-05-24T19:45+0000 #
#####################################################################
# random = 15.0, targets = 100.0, density = 10.026386447354522, gridShift = 1.0, perturbation = 0.0, connfactor = 0.75
#
# The columns have the following meaning: 
# time se[Mean] 
0.0 NaN 
1.0001976518064393 NaN 
2.000197651806439 1.000498940092166 
3.000197651806439 1.0010633000512033 
4.000197651806439 1.0007003814644138 
5.000197651806439 1.0003759805427548 
6.000197651806439 0.9973307629288274 
7.000197651806439 0.994663374295955 
8.000197651806438 0.9936419713261648 
9.000197651806438 0.9907181618023554 
10.000197651806438 0.9903949283154122 
11.000197651806438 0.9880523169482847 
12.000197651806438 0.9857539272913467 
13.000197651806438 0.9834429160266257 
14.000197651806438 0.9803349974398361 
15.000197651806438 0.9778898822324629 
16.000197651806438 0.9746577854582693 
17.000197651806438 0.9719800486431132 
18.000197651806438 0.9695342754736304 
19.000197651806438 0.9674124526369688 
20.000197651806438 0.9652058934971838 
21.000197651806438 0.9627117690732206 
22.000197651806438 0.9606318202764977 
23.000197651806438 0.9592324910394265 
24.000197651806438 0.956837841781874 
25.000197651806438 0.9543777086533538 
26.000197651806438 0.9528792242703533 
27.000197651806438 0.94993636968766 
28.000197651806438 0.9481793958013313 
29.000197651806438 0.9452739861751153 
30.000197651806438 0.9439046979006657 
31.000197651806438 0.9408863210445468 
32.00019765180644 0.9395057373271889 
33.00019765180644 0.9360343753200205 
34.00019765180644 0.9317370788530466 
35.00019765180644 0.929095547875064 
36.00019765180644 0.9244556886840758 
37.00019765180644 0.9216260650281618 
38.00019765180644 0.9152294751664107 
39.00019765180644 0.9132443650793651 
40.00019765180644 0.9072110983102919 
41.00019765180644 0.9006193189964159 
42.00019765180644 0.8959947235023041 
43.00019765180644 0.8901844060419867 
44.00019765180644 0.8846714772145418 
45.00019765180644 0.8788941372247824 
46.00019765180644 0.875390975422427 
47.00019765180644 0.868731710189452 
48.00019765180644 0.8637246492575525 
49.00019765180644 0.8563525012800819 
50.00019765180644 0.8477896569380441 
51.00019765180644 0.8408899897593447 
52.00019765180644 0.8338208960573478 
53.00019765180644 0.8232014388120842 
54.00019765180644 0.8150017409114185 
55.00019765180644 0.8064552867383514 
56.00019765180644 0.7978122478238606 
57.00019765180644 0.78953311827957 
58.00019765180644 0.7813131054787507 
59.00019765180644 0.7730786405529956 
60.00019765180644 0.7627961443932413 
61.00019765180644 0.75719579109063 
62.00019765180644 0.747151233998976 
63.00019765180644 0.740756574500768 
64.00019765180645 0.7329166538658476 
65.00019765180645 0.7252383691756273 
66.00019765180645 0.7177696953405018 
67.00019765180645 0.7083485483870968 
68.00019765180645 0.6984905990783411 
69.00019765180645 0.6885474603174605 
70.00019765180645 0.6782129493087559 
71.00019765180645 0.669467158218126 
72.00019765180645 0.6577118202764977 
73.00019765180645 0.6483355094726062 
74.00019765180645 0.6346971633384537 
75.00019765180645 0.629012465437788 
76.00019765180645 0.6166282258064517 
77.00019765180645 0.6067416026625705 
78.00019765180645 0.5970351971326167 
79.00019765180645 0.5843024910394264 
80.00019765180645 0.576050926779314 
81.00019765180645 0.5647860215053763 
82.00019765180645 0.557032826420891 
83.00019765180645 0.542624434203789 
84.00019765180645 0.5377810061443933 
85.00019765180645 0.52474808499744 
86.00019765180645 0.5186131490015361 
87.00019765180645 0.510601182795699 
88.00019765180645 0.5011485125448029 
89.00019765180645 0.4930492677931387 
90.00019765180645 0.48476945724526366 
91.00019765180645 0.4771787403993856 
92.00019765180645 0.45990406810035855 
93.00019765180645 0.4546403123399897 
94.00019765180645 0.44340562467997957 
95.00019765180645 0.4347565258576549 
96.00019765180645 0.4211225422427036 
97.00019765180645 0.41692408858166924 
98.00019765180645 0.40456690988223243 
99.00019765180645 0.3991856067588326 
100.00019765180645 0.38675656169994876 
101.00019765180645 0.3829049564772146 
102.00019765180645 0.38061799027137744 
103.00019765180645 0.3767416845878137 
104.00019765180645 0.3723113082437277 
105.00019765180645 0.36626592421915 
106.00019765180645 0.3612605529953917 
107.00019765180645 0.35339345366103436 
108.00019765180645 0.34825705581157196 
109.00019765180645 0.34068181515617 
110.00019765180645 0.33479010752688165 
111.00019765180645 0.32887362519201235 
112.00019765180645 0.32815156426011266 
113.00019765180645 0.3217819943676395 
114.00019765180645 0.3180197388632873 
115.00019765180645 0.31326882744495643 
116.00019765180645 0.3109380721966207 
117.00019765180645 0.30705639528929857 
118.00019765180645 0.30247090373783925 
119.00019765180645 0.2986366871479775 
120.00019765180645 0.2950277777777778 
121.00019765180645 0.2915208781362007 
122.00019765180645 0.2890530926779314 
123.00019765180645 0.28688993855606765 
124.00019765180645 0.2860591986687149 
125.00019765180645 0.28312692524321553 
126.00019765180645 0.28058942652329755 
127.00019765180645 0.27794061187916025 
128.00019765180645 0.27627858934971844 
129.00019765180645 0.27331871223758325 
130.00019765180645 0.27095092677931387 
131.00019765180645 0.2690055273937532 
132.00019765180645 0.26692926523297494 
133.00019765180645 0.26528001024065545 
134.00019765180645 0.2641832258064516 
135.00019765180645 0.2624118894009217 
136.00019765180645 0.26165356118791605 
137.00019765180645 0.26055502816180237 
138.00019765180645 0.2590559242191501 
139.00019765180645 0.25788641065028167 
140.00019765180645 0.2558465873015873 
141.00019765180645 0.2544219764464926 
142.00019765180645 0.253176661546339 
143.00019765180645 0.25141953917050697 
144.00019765180645 0.25034370967741937 
145.00019765180645 0.2491706067588326 
146.00019765180645 0.2480596594982079 
147.00019765180645 0.2471120327700973 
148.00019765180645 0.24616767537122378 
149.00019765180645 0.24548536354326678 
150.00019765180645 0.24476821812596009 
151.00019765180645 0.24422367383512547 
152.00019765180645 0.2437520686123912 
153.00019765180645 0.24335571172555046 
154.00019765180645 0.24298112903225808 
155.00019765180645 0.24266712237583207 
156.00019765180645 0.24252779313876088 
157.00019765180645 0.24244185611879163 
158.00019765180645 0.24234059139784947 
159.00019765180645 0.24227173835125448 
160.00019765180645 0.24222665130568358 
161.00019765180645 0.24211562467997952 
162.00019765180645 0.24202729902713774 
163.00019765180645 0.24188602662570405 
164.00019765180645 0.24171895033282131 
165.00019765180645 0.24157292370711728 
166.00019765180645 0.24140116999487968 
167.00019765180645 0.24122470814132105 
168.00019765180645 0.2410679774705581 
169.00019765180645 0.24090385560675884 
170.00019765180645 0.24076078341013826 
171.00019765180645 0.240620993343574 
172.00019765180645 0.2405102073732719 
173.00019765180645 0.2404267537122376 
174.00019765180645 0.24034041730670763 
175.00019765180645 0.24028893753200206 
176.00019765180645 0.2402344572452637 
177.00019765180645 0.24019059395801332 
178.00019765180645 0.2401649180747568 
179.00019765180645 0.2401362314388121 
180.00019765180645 0.24012112647209422 
181.00019765180645 0.2401120737327189 
182.00019765180645 0.24010603686635945 
183.00019765180645 0.24010301587301588 
184.00019765180645 0.24010150793650795 
185.00019765180645 0.2401 
186.00019765180645 0.2401 
187.00019765180645 0.2401 
188.00019765180645 0.2401 
189.00019765180645 0.2401 
190.00019765180645 0.2401 
191.00019765180645 0.2401 
192.00019765180645 0.2401 
193.00019765180645 0.2401 
194.00019765180645 0.2401 
195.00019765180645 0.2401 
196.00019765180645 0.2401 
197.00019765180645 0.2401 
198.00019765180645 0.2401 
199.00019765180645 0.2401 
200.00019765180645 0.2401 
201.00019765180645 0.2401 
202.00019765180645 0.2401 
203.00019765180645 0.2401 
204.00019765180645 0.2401 
205.00019765180645 0.2401 
206.00019765180645 0.2401 
207.00019765180645 0.2401 
208.00019765180645 0.2401 
209.00019765180645 0.2401 
210.00019765180645 0.2401 
211.00019765180645 0.2401 
212.00019765180645 0.2401 
213.00019765180645 0.2401 
214.00019765180645 0.2401 
215.00019765180645 0.2401 
216.00019765180645 0.2401 
217.00019765180645 0.2401 
218.00019765180645 0.2401 
219.00019765180645 0.2401 
220.00019765180645 0.2401 
221.00019765180645 0.2401 
222.00019765180645 0.2401 
223.00019765180645 0.2401 
224.00019765180645 0.2401 
225.00019765180645 0.2401 
226.00019765180645 0.2401 
227.00019765180645 0.2401 
228.00019765180645 0.2401 
229.00019765180645 0.2401 
230.00019765180645 0.2401 
231.00019765180645 0.2401 
232.00019765180645 0.2401 
233.00019765180645 0.2401 
234.00019765180645 0.2401 
235.00019765180645 0.2401 
236.00019765180645 0.2401 
237.00019765180645 0.2401 
238.00019765180645 0.2401 
239.00019765180645 0.2401 
240.00019765180645 0.2401 
241.00019765180645 0.2401 
242.00019765180645 0.2401 
243.00019765180645 0.2401 
244.00019765180645 0.2401 
245.00019765180645 0.2401 
246.00019765180645 0.2401 
247.00019765180645 0.2401 
248.00019765180645 0.2401 
249.00019765180645 0.2401 
250.00019765180645 0.2401 
251.00019765180645 0.2401 
252.00019765180645 0.2401 
253.00019765180645 0.2401 
254.00019765180645 0.2401 
255.00019765180645 0.2401 
#####################################################################
# End of data export. Simulation finished at: 2017-05-24T19:47+0000 #
#####################################################################
