#####################################################################
# Alchemist log file - simulation started at: 2017-05-22T07:54+0000 #
#####################################################################
# random = 3.0, targets = 100.0, density = 2.519842099789746, gridShift = 1.0, perturbation = 0.5, connfactor = 1.5
#
# The columns have the following meaning: 
# time se[Mean] 
0.0 NaN 
1.0016359619213666 NaN 
2.001635961921367 1.0316231907894737 
3.001635961921367 1.0484773917214911 
4.001635961921367 1.0736757012975147 
5.001635961921367 1.123367943622076 
6.001635961921367 1.1357642109831871 
7.001635961921367 1.240740956231725 
8.001635961921366 1.255824010873538 
9.001635961921366 1.2938446523209064 
10.001635961921366 1.333892735745614 
11.001635961921366 1.3109330363669591 
12.001635961921366 1.338613507401316 
13.001635961921366 1.363426811494883 
14.001635961921366 1.3366381944444445 
15.001635961921366 1.370142927631579 
16.001635961921366 1.3670740748355263 
17.001635961921366 1.3339972130847952 
18.001635961921366 1.380630909630848 
19.001635961921366 1.380368816246345 
20.001635961921366 1.352369017269737 
21.001635961921366 1.3643723432931285 
22.001635961921366 1.3997844138340643 
23.001635961921366 1.3510622555738303 
24.001635961921366 1.3767709155701755 
25.001635961921366 1.3867411092836257 
26.001635961921366 1.3865416917945907 
27.001635961921366 1.4134638317799706 
28.001635961921366 1.428741164108187 
29.001635961921366 1.3928945106907895 
30.001635961921366 1.4251340529057017 
31.001635961921366 1.4132842196637427 
32.001635961921366 1.4698892155519006 
33.001635961921366 1.6806583538925435 
34.001635961921366 1.7411232981542395 
35.001635961921366 2.0429863738121337 
36.001635961921366 2.4077381281980994 
37.001635961921366 2.4745869471856716 
38.001635961921366 2.6588178271198823 
39.001635961921366 2.9727112276133036 
40.001635961921366 2.899010441794591 
41.001635961921366 2.8961944330226603 
42.001635961921366 2.9845473821271926 
43.001635961921366 3.0621206186038004 
44.001635961921366 3.1823370202850874 
45.001635961921366 3.448997619700292 
46.001635961921366 3.3065501210709063 
47.001635961921366 3.5464696112024847 
48.001635961921366 3.646936981451023 
49.001635961921366 3.5427910658808472 
50.001635961921366 3.707785247624269 
51.001635961921366 3.9334370842470756 
52.001635961921366 3.6010745614035087 
53.001635961921366 3.5567427151864033 
54.001635961921366 3.26434035316155 
55.001635961921366 3.087192991593567 
56.001635961921366 3.022252958241959 
57.001635961921366 2.902916515899123 
58.001635961921366 2.7081669613486845 
59.001635961921366 2.667129315149854 
60.001635961921366 2.4862408899853805 
61.001635961921366 2.3934480857090645 
62.001635961921366 2.3895583927266086 
63.001635961921366 2.3582770513523394 
64.00163596192137 2.3022224209612574 
65.00163596192137 2.373048805281433 
66.00163596192137 2.3314272272478074 
67.00163596192137 2.3824281204312867 
68.00163596192137 2.4956849323830412 
69.00163596192137 2.490985058022661 
70.00163596192137 2.6499086896929827 
71.00163596192137 2.7825568485014625 
72.00163596192137 2.827198924067983 
73.00163596192137 2.90369736385234 
74.00163596192137 3.0066731656615504 
75.00163596192137 2.9529746185124277 
76.00163596192137 2.8841201982821643 
77.00163596192137 2.850357026681287 
78.00163596192137 2.886182211714182 
79.00163596192137 2.8807387221308485 
80.00163596192137 2.9809642543859654 
81.00163596192137 2.960617749451755 
82.00163596192137 2.95767744197734 
83.00163596192137 3.0536062362938607 
84.00163596192137 2.93800871253655 
85.00163596192137 2.996481910179095 
86.00163596192137 3.0569962445175443 
87.00163596192137 2.99338396381579 
88.00163596192137 2.8568106382492697 
89.00163596192137 2.7996113555372815 
90.00163596192137 2.6446312088815795 
91.00163596192137 2.6172339798062865 
92.00163596192137 2.555021566611842 
93.00163596192137 2.488844238852339 
94.00163596192137 2.4309806012426898 
95.00163596192137 2.4125764711257314 
96.00163596192137 2.3399023985745613 
97.00163596192137 2.340396584886696 
98.00163596192137 2.340516561586257 
99.00163596192137 2.340324842379386 
100.00163596192137 2.3409 
101.00163596192137 2.3409 
102.00163596192137 2.3409 
103.00163596192137 2.3409 
104.00163596192137 2.3409 
105.00163596192137 2.3409 
106.00163596192137 2.3409 
107.00163596192137 2.3409 
108.00163596192137 2.3409 
109.00163596192137 2.3409 
110.00163596192137 2.3409 
111.00163596192137 2.3409 
112.00163596192137 2.3409 
113.00163596192137 2.3409 
114.00163596192137 2.3409 
115.00163596192137 2.3409 
116.00163596192137 2.3409 
117.00163596192137 2.3409 
118.00163596192137 2.3409 
119.00163596192137 2.3409 
120.00163596192137 2.3409 
121.00163596192137 2.3409 
122.00163596192137 2.3409 
123.00163596192137 2.3409 
124.00163596192137 2.3409 
125.00163596192137 2.3409 
126.00163596192137 2.3409 
127.00163596192137 2.3409 
128.00163596192135 2.3409 
129.00163596192135 2.3409 
130.00163596192135 2.3409 
131.00163596192135 2.3409 
132.00163596192135 2.3409 
#####################################################################
# End of data export. Simulation finished at: 2017-05-22T08:04+0000 #
#####################################################################
