#####################################################################
# Alchemist log file - simulation started at: 2017-05-23T19:46+0000 #
#####################################################################
# random = 12.0, targets = 100.0, density = 0.1591589639397027, gridShift = 1.0, perturbation = 0.5, connfactor = 0.75
#
# The columns have the following meaning: 
# time se[Mean] 
0.0 NaN 
1.0005590746559656 NaN 
2.000559074655966 1.0317766666666666 
3.000559074655966 1.0353149074074073 
4.000559074655966 1.0432439814814813 
5.000559074655966 1.0553214814814815 
6.000559074655966 1.0687476851851851 
7.000559074655966 1.1568547222222223 
8.000559074655966 1.1115922222222223 
9.000559074655966 1.1741789814814814 
10.000559074655966 1.0829760185185187 
11.000559074655966 1.0360430555555555 
12.000559074655966 0.9692035185185186 
13.000559074655966 0.8773241666666667 
14.000559074655966 0.7892326851851853 
15.000559074655966 0.7396010185185186 
16.000559074655968 0.6672026851851852 
17.000559074655968 0.654412962962963 
18.000559074655968 0.6024492592592593 
19.000559074655968 0.5805075925925927 
20.000559074655968 0.5626871296296296 
21.000559074655968 0.5837228703703704 
22.000559074655968 0.5642523148148149 
23.000559074655968 0.5818312962962964 
24.000559074655968 0.5841737962962964 
25.000559074655968 0.5924310185185185 
26.000559074655968 0.5816600925925927 
27.000559074655968 0.5727382407407408 
28.000559074655968 0.5630033333333333 
29.000559074655968 0.5691737037037037 
30.000559074655968 0.5625 
31.000559074655968 0.5625 
32.00055907465597 0.5625 
33.00055907465597 0.5625 
34.00055907465597 0.5625 
35.00055907465597 0.5625 
36.00055907465597 0.5625 
37.00055907465597 0.5625 
38.00055907465597 0.5625 
39.00055907465597 0.5625 
40.00055907465597 0.5625 
#####################################################################
# End of data export. Simulation finished at: 2017-05-23T19:46+0000 #
#####################################################################
