#####################################################################
# Alchemist log file - simulation started at: 2017-05-23T13:12+0000 #
#####################################################################
# random = 11.0, targets = 100.0, density = 20.0, gridShift = 0.0, perturbation = 0.5, connfactor = 2.0
#
# The columns have the following meaning: 
# time se[Mean] 
0.0 NaN 
1.0000311017741008 NaN 
2.000031101774101 1.0088074669187146 
3.000031101774101 1.0138857533868935 
4.000031101774101 1.0212675199537913 
5.000031101774101 1.0287592365049358 
6.000031101774101 1.036166263652594 
7.000031101774101 1.0529993147448016 
8.000031101774102 1.0592999694785759 
9.000031101774102 1.0707227965500945 
10.000031101774102 1.076860344137261 
11.000031101774102 1.0805501982251629 
12.000031101774102 1.0893817097904852 
13.000031101774102 1.0935590011946021 
14.000031101774102 1.1026951037728419 
15.000031101774102 1.1150882525336065 
16.000031101774102 1.1301208674648184 
17.000031101774102 1.1520429187014283 
18.000031101774102 1.1724719665642722 
19.000031101774102 1.1984449472274732 
20.000031101774102 1.22376417047364 
21.000031101774102 1.2507604576900864 
22.000031101774102 1.2836861928297627 
23.000031101774102 1.3117440440558705 
24.000031101774102 1.3488915012602392 
25.000031101774102 1.370126659971644 
26.000031101774102 1.3943811846907161 
27.000031101774102 1.4395670588505567 
28.000031101774102 1.4613015519980046 
29.000031101774102 1.4922031233590634 
30.000031101774102 1.5313064580707836 
31.000031101774102 1.5430486905324514 
32.0000311017741 1.5653953321912417 
33.0000311017741 1.5928221654458103 
34.0000311017741 1.6110902882797722 
35.0000311017741 1.6460891547206467 
36.0000311017741 1.6596985668058182 
37.0000311017741 1.7327459406505985 
38.0000311017741 1.7704748017748353 
39.0000311017741 1.8444607980203727 
40.0000311017741 1.904765185557126 
41.0000311017741 2.0169286665091324 
42.0000311017741 2.069288328016703 
43.0000311017741 2.1568452695074516 
44.0000311017741 2.27524324590422 
45.0000311017741 2.2971102135186956 
46.0000311017741 2.357965612857068 
47.0000311017741 2.416005101016062 
48.0000311017741 2.45303153880488 
49.0000311017741 2.420184908960826 
50.0000311017741 2.493201686554812 
51.0000311017741 2.5712319559310086 
52.0000311017741 2.626909727473222 
53.0000311017741 2.687174230728832 
54.0000311017741 2.677714953528674 
55.0000311017741 2.792680332059964 
56.0000311017741 2.6852797774233426 
57.0000311017741 2.678090640096626 
58.0000311017741 2.7507360973272506 
59.0000311017741 2.6439911445205806 
60.0000311017741 2.6710967092653797 
61.0000311017741 2.661333052076765 
62.0000311017741 2.637060312631275 
63.0000311017741 2.6720860625393863 
64.0000311017741 2.5914428284499076 
65.0000311017741 2.5745965957125625 
66.0000311017741 2.594082003518178 
67.0000311017741 2.6312574370536628 
68.0000311017741 2.5725683679899194 
69.0000311017741 2.6011525329500143 
70.0000311017741 2.638188020505143 
71.0000311017741 2.6671077074800524 
72.0000311017741 2.6735276002284136 
73.0000311017741 2.7145341354232273 
74.0000311017741 2.7803966163883724 
75.0000311017741 2.7341115023104487 
76.0000311017741 2.8137972172994052 
77.0000311017741 2.840701913988672 
78.0000311017741 2.8411329637943648 
79.0000311017741 2.878803108590631 
80.0000311017741 2.92398809172181 
81.0000311017741 2.9375510626706567 
82.0000311017741 2.9745362893168545 
83.0000311017741 3.0262838042821834 
84.0000311017741 3.021258319549465 
85.0000311017741 3.0679261867254835 
86.0000311017741 3.1006276599585214 
87.0000311017741 3.1424812421235075 
88.0000311017741 3.1754799050882196 
89.0000311017741 3.249678555909998 
90.0000311017741 3.242693090015232 
91.0000311017741 3.3167882456416753 
92.0000311017741 3.4194919613789234 
93.0000311017741 3.4342582171550085 
94.0000311017741 3.4661790045421106 
95.0000311017741 3.8268977023603177 
96.0000311017741 5.151621856621516 
97.0000311017741 4.184193175343936 
98.0000311017741 7.055255594281629 
99.0000311017741 6.816901537557776 
100.0000311017741 7.211624878898864 
101.0000311017741 10.94845895295107 
102.0000311017741 10.717872534656586 
103.0000311017741 12.509523212691601 
104.0000311017741 17.985806278552168 
105.0000311017741 15.36930718730317 
106.0000311017741 22.615099013140807 
107.0000311017741 21.78263130054094 
108.0000311017741 23.95306672048932 
109.0000311017741 38.087574439456084 
110.0000311017741 36.039228574288416 
111.0000311017741 40.00819994453631 
112.0000311017741 48.81704045106073 
113.0000311017741 43.61626932038969 
114.0000311017741 42.401231140713584 
115.0000311017741 42.08609768463816 
116.0000311017741 41.98939319372232 
117.0000311017741 49.403456381274886 
118.0000311017741 44.91893937952899 
119.0000311017741 48.59376364340479 
120.0000311017741 60.81016706081974 
121.0000311017741 44.627421646253524 
122.0000311017741 56.85694298138519 
123.0000311017741 57.0208336109799 
124.0000311017741 52.55266472839218 
125.0000311017741 52.51101322069945 
126.0000311017741 54.20613495293795 
127.0000311017741 51.87636375892679 
128.00003110177408 52.616828024246495 
129.00003110177408 55.93764249107332 
130.00003110177408 51.97195333110163 
131.00003110177408 56.32069559769482 
132.00003110177408 58.73127359174801 
133.00003110177408 56.59990838256146 
134.00003110177408 62.97361897513649 
135.00003110177408 60.88384280974326 
136.00003110177408 64.06757517328299 
137.00003110177408 61.62045755356018 
138.00003110177408 67.92246662892516 
139.00003110177408 68.12063210919452 
140.00003110177408 65.25169747197273 
141.00003110177408 73.14376493876024 
142.00003110177408 71.65638149220227 
143.00003110177408 68.48313328804346 
144.00003110177408 82.22444822220918 
145.00003110177408 70.52322485723838 
146.00003110177408 72.2881365965002 
147.00003110177408 79.81877579486977 
148.00003110177408 63.4832864294529 
149.00003110177408 86.27299719432612 
150.00003110177408 75.94113633460684 
151.00003110177408 71.25571987699537 
152.00003110177408 75.03338993941675 
153.00003110177408 68.35954526688181 
154.00003110177408 58.75685005382269 
155.00003110177408 61.71084585302448 
156.00003110177408 50.551112808496136 
157.00003110177408 53.66942065283008 
158.00003110177408 48.23090335177757 
159.00003110177408 56.34197923066313 
160.00003110177408 55.92584031420665 
161.00003110177408 50.92388540682086 
162.00003110177408 42.460235862673166 
163.00003110177408 34.48736819142517 
164.00003110177408 30.38632635639841 
165.00003110177408 30.040615877047752 
166.00003110177408 27.04625939764491 
167.00003110177408 28.058010346106336 
168.00003110177408 26.203332384871896 
169.00003110177408 27.742841557708463 
170.00003110177408 24.835771047311454 
171.00003110177408 24.478393424109935 
172.00003110177408 21.379725786336888 
173.00003110177408 18.852724079434466 
174.00003110177408 20.160146889112053 
175.00003110177408 18.818731438051348 
176.00003110177408 19.383526804045882 
177.00003110177408 20.292095527462713 
178.00003110177408 22.908491943984984 
179.00003110177408 21.28756450489654 
180.00003110177408 29.898846595712527 
181.00003110177408 28.702438023786954 
182.00003110177408 29.90323232481365 
183.00003110177408 41.51571863447807 
184.00003110177408 40.50057985947012 
185.00003110177408 42.75564596920293 
186.00003110177408 48.11586400441097 
187.00003110177408 48.59915690867187 
188.00003110177408 42.974367951848336 
189.00003110177408 45.289180080340365 
190.00003110177408 46.76327640529822 
191.00003110177408 54.54088151747275 
192.00003110177408 52.33615353982878 
193.00003110177408 56.73610051984881 
194.00003110177408 71.05133233794106 
195.00003110177408 53.97172355991394 
196.00003110177408 72.47256524200517 
197.00003110177408 69.68549737942404 
198.00003110177408 65.01580011716293 
199.00003110177408 73.5824760534813 
200.00003110177408 74.49620355065915 
201.00003110177408 74.14983843927216 
202.00003110177408 78.28798829290048 
203.00003110177408 84.13615325135216 
204.00003110177408 71.89583281610997 
205.00003110177408 78.84490289494059 
206.00003110177408 83.10562378275293 
207.00003110177408 82.40962194523212 
208.00003110177408 85.01018909203667 
209.00003110177408 86.10764965540308 
210.00003110177408 91.26941725116832 
211.00003110177408 81.71994489865565 
212.00003110177408 96.04266222465084 
213.00003110177408 91.16007852145023 
214.00003110177408 90.63791197752563 
215.00003110177408 92.28023614491435 
216.00003110177408 93.21180954795454 
217.00003110177408 92.50937823100445 
218.00003110177408 103.75311603457769 
219.00003110177408 94.30325194057174 
220.00003110177408 94.50432323369556 
221.00003110177408 104.14471982907993 
222.00003110177408 91.64479731575557 
223.00003110177408 110.70710618928534 
224.00003110177408 107.02598539927264 
225.00003110177408 100.97589833609001 
226.00003110177408 103.4353174146057 
227.00003110177408 108.77604125118145 
228.00003110177408 100.12690551026554 
229.00003110177408 106.44139985165923 
230.00003110177408 106.97070929032746 
231.00003110177408 107.91494372669877 
232.00003110177408 109.99309370241278 
233.00003110177408 118.38770616401472 
234.00003110177408 123.53826634077635 
235.00003110177408 108.4118696026305 
236.00003110177408 102.55983715966947 
237.00003110177408 98.63382824249102 
238.00003110177408 93.89374357441976 
239.00003110177408 103.0994605843703 
240.00003110177408 94.63658960794723 
241.00003110177408 100.70030494447052 
242.00003110177408 89.97192719130689 
243.00003110177408 97.06773553908047 
244.00003110177408 86.98112296031556 
245.00003110177408 84.28548850097125 
246.00003110177408 74.4971215185885 
247.00003110177408 73.5120494338767 
248.00003110177408 70.26361029425276 
249.00003110177408 73.30030610526927 
250.00003110177408 75.80881880973013 
251.00003110177408 66.91257846434573 
252.00003110177408 65.78586673886774 
253.00003110177408 62.26723404943818 
254.00003110177408 58.268327980269284 
255.00003110177408 62.64752320744057 
256.0000311017741 56.48389309920439 
257.0000311017741 57.83696481011074 
258.0000311017741 56.454165482894815 
259.0000311017741 60.00231969583595 
260.0000311017741 56.61477610238132 
261.0000311017741 57.343774205786616 
262.0000311017741 56.253718061462976 
263.0000311017741 55.23517866815008 
264.0000311017741 55.20005985021531 
265.0000311017741 62.750965277777695 
266.0000311017741 55.21234859404533 
267.0000311017741 57.48413867294158 
268.0000311017741 61.489317962678406 
269.0000311017741 52.046336458333414 
270.0000311017741 67.22041296044688 
271.0000311017741 60.87680273806691 
272.0000311017741 55.398188221027674 
273.0000311017741 58.82750147159236 
274.0000311017741 55.93211855669747 
275.0000311017741 49.77558876253627 
276.0000311017741 53.817128315020064 
277.0000311017741 46.92942008408173 
278.0000311017741 49.65008562276813 
279.0000311017741 46.28823176591099 
280.0000311017741 51.849445259333244 
281.0000311017741 51.76943437073357 
282.0000311017741 47.49038907825357 
283.0000311017741 41.83968670513055 
284.0000311017741 36.93251140910542 
285.0000311017741 34.873785695297805 
286.0000311017741 36.167074431579444 
287.0000311017741 31.345669005986284 
288.0000311017741 33.38800772979709 
289.0000311017741 31.30050457558796 
290.0000311017741 31.260057611321077 
291.0000311017741 29.173095384373102 
292.0000311017741 29.130441462205887 
293.0000311017741 27.004021900270487 
294.0000311017741 24.93242849060068 
295.0000311017741 25.612145415222592 
296.0000311017741 24.916278188668326 
297.0000311017741 24.902644708307097 
298.0000311017741 24.20739839155377 
299.0000311017741 24.206998507403906 
300.0000311017741 24.206667622020056 
301.0000311017741 24.20652411980151 
302.0000311017741 24.20652410404852 
303.0000311017741 24.206477544764756 
304.0000311017741 24.20643877927431 
305.0000311017741 24.20641163128807 
306.0000311017741 24.206396125091892 
307.0000311017741 24.2064 
308.0000311017741 24.2064 
309.0000311017741 24.2064 
310.0000311017741 24.2064 
311.0000311017741 24.2064 
312.0000311017741 24.2064 
313.0000311017741 24.2064 
314.0000311017741 24.2064 
315.0000311017741 24.2064 
316.0000311017741 24.2064 
317.0000311017741 24.2064 
318.0000311017741 24.2064 
319.0000311017741 24.2064 
320.0000311017741 24.2064 
321.0000311017741 24.2064 
322.0000311017741 24.2064 
323.0000311017741 24.2064 
324.0000311017741 24.2064 
325.0000311017741 24.2064 
326.0000311017741 24.2064 
327.0000311017741 24.2064 
328.0000311017741 24.2064 
329.0000311017741 24.2064 
330.0000311017741 24.2064 
331.0000311017741 24.2064 
332.0000311017741 24.2064 
333.0000311017741 24.2064 
334.0000311017741 24.2064 
335.0000311017741 24.2064 
336.0000311017741 24.2064 
337.0000311017741 24.2064 
338.0000311017741 24.2064 
339.0000311017741 24.2064 
340.0000311017741 24.2064 
341.0000311017741 24.2064 
342.0000311017741 24.2064 
343.0000311017741 24.2064 
344.0000311017741 24.2064 
345.0000311017741 24.2064 
346.0000311017741 24.2064 
347.0000311017741 24.2064 
348.0000311017741 24.2064 
349.0000311017741 24.2064 
350.0000311017741 24.2064 
351.0000311017741 24.2064 
352.0000311017741 24.2064 
353.0000311017741 24.2064 
354.0000311017741 24.2064 
355.0000311017741 24.2064 
356.0000311017741 24.2064 
357.0000311017741 24.2064 
358.0000311017741 24.2064 
359.0000311017741 24.2064 
360.0000311017741 24.2064 
361.0000311017741 24.2064 
362.0000311017741 24.2064 
363.0000311017741 24.2064 
364.0000311017741 24.2064 
365.0000311017741 24.2064 
366.0000311017741 24.2064 
367.0000311017741 24.2064 
368.0000311017741 24.2064 
369.0000311017741 24.2064 
370.0000311017741 24.2064 
371.0000311017741 24.2064 
372.0000311017741 24.2064 
373.0000311017741 24.2064 
374.0000311017741 24.2064 
375.0000311017741 24.2064 
376.0000311017741 24.2064 
377.0000311017741 24.2064 
378.0000311017741 24.2064 
379.0000311017741 24.2064 
380.0000311017741 24.2064 
381.0000311017741 24.2064 
382.0000311017741 24.2064 
383.0000311017741 24.2064 
384.0000311017741 24.2064 
385.0000311017741 24.2064 
386.0000311017741 24.2064 
387.0000311017741 24.2064 
388.0000311017741 24.2064 
389.0000311017741 24.2064 
390.0000311017741 24.2064 
391.0000311017741 24.2064 
392.0000311017741 24.2064 
393.0000311017741 24.2064 
394.0000311017741 24.2064 
395.0000311017741 24.2064 
396.0000311017741 24.2064 
397.0000311017741 24.2064 
398.0000311017741 24.2064 
399.0000311017741 24.2064 
400.0000311017741 24.2064 
401.0000311017741 24.2064 
402.0000311017741 24.2064 
403.0000311017741 24.2064 
404.0000311017741 24.2064 
405.0000311017741 24.2064 
406.0000311017741 24.2064 
407.0000311017741 24.2064 
408.0000311017741 24.2064 
409.0000311017741 24.2064 
410.0000311017741 24.2064 
411.0000311017741 24.2064 
412.0000311017741 24.2064 
413.0000311017741 24.2064 
414.0000311017741 24.2064 
#####################################################################
# End of data export. Simulation finished at: 2017-05-23T13:26+0000 #
#####################################################################
