#####################################################################
# Alchemist log file - simulation started at: 2017-05-25T16:14+0000 #
#####################################################################
# random = 8.0, targets = 31.622776601683793, density = 2.519842099789746, gridShift = 0.0, perturbation = 0.5, connfactor = 0.25
#
# The columns have the following meaning: 
# time se[Mean] 
0.0 NaN 
1.001230439556543 NaN 
2.001230439556543 1.0 
3.001230439556543 0.9997846174629641 
4.001230439556543 0.9982907805341629 
5.001230439556543 0.9972138678489835 
6.001230439556543 0.9929477395996155 
7.001230439556543 0.9877923995412043 
8.001230439556544 0.987118570269197 
9.001230439556544 0.9802886128210733 
10.001230439556544 0.9811155408930922 
11.001230439556544 0.976244787523966 
12.001230439556544 0.9737501624774595 
13.001230439556544 0.9674962988231306 
14.001230439556544 0.9607978292642803 
15.001230439556544 0.956344000138776 
16.001230439556544 0.9479008593729003 
17.001230439556544 0.9455247310502808 
18.001230439556544 0.9384854618152825 
19.001230439556544 0.9336813636032149 
20.001230439556544 0.9270270886256211 
21.001230439556544 0.9109886195062797 
22.001230439556544 0.8975529530818532 
23.001230439556544 0.8822764562075995 
24.001230439556544 0.8489757003286039 
25.001230439556544 0.8327780616590897 
26.001230439556544 0.8044819729389678 
27.001230439556544 0.7766304901233674 
28.001230439556544 0.7359904612542281 
29.001230439556544 0.7107037803971634 
30.001230439556544 0.7008940422664419 
31.001230439556544 0.6910001632985252 
32.001230439556544 0.6683130095708374 
33.001230439556544 0.6569670623549017 
34.001230439556544 0.6600530751663473 
35.001230439556544 0.6530442827768722 
36.001230439556544 0.6503047711075866 
37.001230439556544 0.631250466088829 
38.001230439556544 0.6526849015660908 
39.001230439556544 0.6550486421989548 
40.001230439556544 0.6607313869551535 
41.001230439556544 0.6600349740126279 
42.001230439556544 0.6591813370394893 
43.001230439556544 0.6566590303320831 
44.001230439556544 0.6703858345768703 
45.001230439556544 0.6578969349922791 
46.001230439556544 0.6746190840761442 
47.001230439556544 0.6666237496774183 
48.001230439556544 0.6559646828886347 
49.001230439556544 0.6689867846206393 
50.001230439556544 0.6286276975910977 
51.001230439556544 0.6362745311058984 
52.001230439556544 0.6198955204977941 
53.001230439556544 0.5863240307579148 
54.001230439556544 0.5770355994637171 
55.001230439556544 0.5464178449707052 
56.001230439556544 0.55744952720989 
57.001230439556544 0.5134197800499132 
58.001230439556544 0.49053622171507505 
59.001230439556544 0.48477369554376337 
60.001230439556544 0.4561978599373531 
61.001230439556544 0.46718354916634125 
62.001230439556544 0.466465354226554 
63.001230439556544 0.42482030402754245 
64.00123043955654 0.4557502757637329 
65.00123043955654 0.4219964595538338 
66.00123043955654 0.4400524263512637 
67.00123043955654 0.4436660540560746 
68.00123043955654 0.4454267338066392 
69.00123043955654 0.44495796799618875 
70.00123043955654 0.45087600687003454 
71.00123043955654 0.4566235843584482 
72.00123043955654 0.45628715610233456 
73.00123043955654 0.46633266873161716 
74.00123043955654 0.46507849734049717 
75.00123043955654 0.46677120388597737 
76.00123043955654 0.4675444679663241 
77.00123043955654 0.4675444679663241 
78.00123043955654 0.4675444679663241 
79.00123043955654 0.4675444679663241 
80.00123043955654 0.4675444679663241 
81.00123043955654 0.4675444679663241 
82.00123043955654 0.4675444679663241 
83.00123043955654 0.4675444679663241 
84.00123043955654 0.4675444679663241 
85.00123043955654 0.4675444679663241 
86.00123043955654 0.4675444679663241 
87.00123043955654 0.4675444679663241 
88.00123043955654 0.4675444679663241 
89.00123043955654 0.4675444679663241 
90.00123043955654 0.4675444679663241 
91.00123043955654 0.4675444679663241 
92.00123043955654 0.4675444679663241 
93.00123043955654 0.4675444679663241 
94.00123043955654 0.4675444679663241 
95.00123043955654 0.4675444679663241 
96.00123043955654 0.4675444679663241 
97.00123043955654 0.4675444679663241 
98.00123043955654 0.4675444679663241 
99.00123043955654 0.4675444679663241 
100.00123043955654 0.4675444679663241 
101.00123043955654 0.4675444679663241 
102.00123043955654 0.4675444679663241 
103.00123043955654 0.4675444679663241 
104.00123043955654 0.4675444679663241 
105.00123043955654 0.4675444679663241 
106.00123043955654 0.4675444679663241 
107.00123043955654 0.4675444679663241 
108.00123043955654 0.4675444679663241 
109.00123043955654 0.4675444679663241 
110.00123043955654 0.4675444679663241 
111.00123043955654 0.4675444679663241 
112.00123043955654 0.4675444679663241 
#####################################################################
# End of data export. Simulation finished at: 2017-05-25T16:15+0000 #
#####################################################################
