#####################################################################
# Alchemist log file - simulation started at: 2017-05-22T15:14+0000 #
#####################################################################
# random = 4.0, targets = 3.1622776601683795, density = 3.5589026259761294, gridShift = 1.0, perturbation = 0.5, connfactor = 1.0
#
# The columns have the following meaning: 
# time se[Mean] 
0.0 NaN 
1.0022337669741583 NaN 
2.0022337669741583 NaN 
3.0022337669741583 1.0210407223444011 
4.002233766974158 1.013322970552916 
5.002233766974158 0.9978748761682186 
6.002233766974158 0.9805653693954562 
7.002233766974158 0.9806381188101427 
8.002233766974157 0.9783751869434616 
9.002233766974157 0.9781226616909362 
10.002233766974157 0.9745593311564447 
11.002233766974157 0.9702531156692145 
12.002233766974157 0.9721837774667834 
13.002233766974157 0.9691646698445994 
14.002233766974157 0.967434070089534 
15.002233766974157 0.9581053403763278 
16.002233766974157 0.9494166645904626 
17.002233766974157 0.9446907388145969 
18.002233766974157 0.9339608794112917 
19.002233766974157 0.92942592027292 
20.002233766974157 0.9180434115320825 
21.002233766974157 0.909271490924448 
22.002233766974157 0.8901558441947155 
23.002233766974157 0.8805591938146471 
24.002233766974157 0.865676313156422 
25.002233766974157 0.8543336722154142 
26.002233766974157 0.8449951424876981 
27.002233766974157 0.8342638784738571 
28.002233766974157 0.8201168827580062 
29.002233766974157 0.8106209634002256 
30.002233766974157 0.7962088516301216 
31.002233766974157 0.7773135485390941 
32.00223376697416 0.7726072089668565 
33.00223376697416 0.7625880529024699 
34.00223376697416 0.7548654057121938 
35.00223376697416 0.7400105020531068 
36.00223376697416 0.7356511233548187 
37.00223376697416 0.7193566175994123 
38.00223376697416 0.7065456975619107 
39.00223376697416 0.6938473993473888 
40.00223376697416 0.6803796345745996 
41.00223376697416 0.665684920549723 
42.00223376697416 0.661133175211868 
43.00223376697416 0.6486811068490075 
44.00223376697416 0.6404086413465963 
45.00223376697416 0.6312827736800395 
46.00223376697416 0.6202633212285251 
47.00223376697416 0.6134899256512827 
48.00223376697416 0.6015359216084996 
49.00223376697416 0.5967666510699399 
50.00223376697416 0.5771774308394771 
51.00223376697416 0.5627779467388099 
52.00223376697416 0.5376185124072003 
53.00223376697416 0.5181335139872805 
54.00223376697416 0.5004721970264135 
55.00223376697416 0.47766654722538104 
56.00223376697416 0.6693599061007046 
57.00223376697416 0.8501575606286578 
58.00223376697416 1.0338267147293865 
59.00223376697416 1.2274982755627255 
60.00223376697416 1.7974730995865091 
61.00223376697416 1.581033776568912 
62.00223376697416 2.5583382204860747 
63.00223376697416 2.929194451323934 
64.00223376697416 2.517227073526032 
65.00223376697416 3.6903632159855206 
66.00223376697416 1.4859208224032077 
67.00223376697416 3.6710391394600883 
68.00223376697416 3.0582868766472773 
69.00223376697416 2.6627021586507387 
70.00223376697416 3.653791311122415 
71.00223376697416 2.653638604901816 
72.00223376697416 3.261359414771414 
73.00223376697416 3.0547496857912417 
74.00223376697416 3.8336336582765838 
75.00223376697416 3.8169341468627667 
76.00223376697416 4.967126025490625 
77.00223376697416 3.450740349087331 
78.00223376697416 4.062302053485026 
79.00223376697416 3.2948916497852823 
80.00223376697416 3.151076091510844 
81.00223376697416 3.4422294182631497 
82.00223376697416 2.614472470003306 
83.00223376697416 3.602909794190667 
84.00223376697416 3.4886663043264536 
85.00223376697416 4.609995510050192 
86.00223376697416 3.461193639439737 
87.00223376697416 1.7942389681885038 
88.00223376697416 2.8348728301387407 
89.00223376697416 1.4987362102232586 
90.00223376697416 0.8128837584693107 
91.00223376697416 1.0095751453597261 
92.00223376697416 0.5949551102394907 
93.00223376697416 0.9219125241557437 
94.00223376697416 0.6887414343750927 
95.00223376697416 0.8612729280184256 
96.00223376697416 0.818056077525541 
97.00223376697416 1.036260383301334 
98.00223376697416 0.713847751580282 
99.00223376697416 0.8014949773699289 
100.00223376697416 0.6223355593279415 
101.00223376697416 0.5791621227247065 
102.00223376697416 0.6145268580948228 
103.00223376697416 0.4535408858730021 
104.00223376697416 0.6108334103199085 
105.00223376697416 0.5692919424525577 
106.00223376697416 0.8120926425720185 
107.00223376697416 0.5286094767576484 
108.00223376697416 0.28584725365287317 
109.00223376697416 0.407202133600249 
110.00223376697416 0.16443991049547374 
111.00223376697416 0.043085030548097966 
112.00223376697416 0.04308503054809799 
113.00223376697416 0.0026334038989724207 
114.00223376697416 0.04308503054809794 
115.00223376697416 0.0026334038989724207 
116.00223376697416 0.0026334038989724207 
117.00223376697416 0.0026334038989724207 
118.00223376697416 0.0026334038989724207 
119.00223376697416 0.0026334038989724207 
120.00223376697416 0.0026334038989724207 
121.00223376697416 0.0026334038989724207 
122.00223376697416 0.0026334038989724207 
123.00223376697416 0.0026334038989724207 
124.00223376697416 0.0026334038989724207 
125.00223376697416 0.0026334038989724207 
126.00223376697416 0.0026334038989724207 
127.00223376697416 0.0026334038989724207 
128.00223376697414 0.0026334038989724207 
129.00223376697414 0.0026334038989724207 
130.00223376697414 0.0026334038989724207 
131.00223376697414 0.0026334038989724207 
132.00223376697414 0.0026334038989724207 
133.00223376697414 0.0026334038989724207 
134.00223376697414 0.0026334038989724207 
135.00223376697414 0.0026334038989724207 
136.00223376697414 0.0026334038989724207 
137.00223376697414 0.0026334038989724207 
138.00223376697414 0.0026334038989724207 
139.00223376697414 0.0026334038989724207 
140.00223376697414 0.0026334038989724207 
141.00223376697414 0.0026334038989724207 
142.00223376697414 0.0026334038989724207 
143.00223376697414 0.0026334038989724207 
144.00223376697414 0.0026334038989724207 
145.00223376697414 0.0026334038989724207 
146.00223376697414 0.0026334038989724207 
147.00223376697414 0.0026334038989724207 
148.00223376697414 0.0026334038989724207 
149.00223376697414 0.0026334038989724207 
150.00223376697414 0.0026334038989724207 
151.00223376697414 0.0026334038989724207 
#####################################################################
# End of data export. Simulation finished at: 2017-05-22T15:16+0000 #
#####################################################################
