#####################################################################
# Alchemist log file - simulation started at: 2017-05-25T15:14+0000 #
#####################################################################
# random = 18.0, targets = 10.0, density = 0.2247883923996312, gridShift = 0.0, perturbation = 0.0, connfactor = 1.0
#
# The columns have the following meaning: 
# time se[Mean] 
0.0 NaN 
1.0067713218599703 NaN 
2.0067713218599703 1.0550694444444444 
3.0067713218599703 1.132602237654321 
4.00677132185997 1.2435860339506173 
5.00677132185997 1.5235725308641976 
6.00677132185997 1.6180189043209876 
7.00677132185997 1.6583314043209878 
8.00677132185997 1.573202160493827 
9.00677132185997 1.4526716820987653 
10.00677132185997 1.3587519290123458 
11.00677132185997 1.2450096450617283 
12.00677132185997 1.1421026234567901 
13.00677132185997 1.0542959104938272 
14.00677132185997 0.8446296296296297 
15.00677132185997 0.8582677469135803 
16.006771321859972 0.8417920524691359 
17.006771321859972 0.8009201388888889 
18.006771321859972 0.8295370370370371 
19.006771321859972 0.6382831790123458 
20.006771321859972 0.697962962962963 
21.006771321859972 0.6379880401234568 
22.006771321859972 0.6279320987654321 
23.006771321859972 0.4739371141975309 
24.006771321859972 0.5199286265432099 
25.006771321859972 0.5077681327160494 
26.006771321859972 0.5038618827160494 
27.006771321859972 0.48114583333333333 
28.006771321859972 0.49 
29.006771321859972 0.49 
30.006771321859972 0.49 
31.006771321859972 0.49 
32.00677132185997 0.49 
33.00677132185997 0.49 
34.00677132185997 0.49 
35.00677132185997 0.49 
36.00677132185997 0.49 
#####################################################################
# End of data export. Simulation finished at: 2017-05-25T15:14+0000 #
#####################################################################
