#####################################################################
# Alchemist log file - simulation started at: 2017-05-24T14:55+0000 #
#####################################################################
# random = 7.0, targets = 1.0, density = 0.04, gridShift = 1.0, perturbation = 0.0, connfactor = 0.5
#
# The columns have the following meaning: 
# time se[Mean] 
0.0 NaN 
1.0724373403975138 NaN 
2.0724373403975136 1.0 
3.0724373403975136 1.0 
4.072437340397514 0.9375 
5.072437340397514 0.7916666666666666 
6.072437340397514 0.7083333333333333 
7.072437340397514 0.45833333333333337 
8.072437340397514 0.29166666666666663 
9.072437340397514 0.14583333333333334 
10.072437340397514 0.08333333333333334 
11.072437340397514 0.0625 
12.072437340397514 0.08333333333333334 
13.072437340397514 0.04166666666666667 
14.072437340397514 0.041666666666666664 
15.072437340397514 0.0 
16.072437340397514 0.0 
#####################################################################
# End of data export. Simulation finished at: 2017-05-24T14:55+0000 #
#####################################################################
