#####################################################################
# Alchemist log file - simulation started at: 2017-05-23T15:05+0000 #
#####################################################################
# random = 12.0, targets = 3.1622776601683795, density = 1.7841466528270753, gridShift = 0.0, perturbation = 0.5, connfactor = 1.5
#
# The columns have the following meaning: 
# time se[Mean] 
0.0 NaN 
1.0005590746559656 NaN 
2.000559074655966 1.066662713958549 
3.000559074655966 1.1085769101826422 
4.000559074655966 1.1702844638564476 
5.000559074655966 1.2011772283999418 
6.000559074655966 1.1228978892754617 
7.000559074655966 1.037431583273164 
8.000559074655966 1.0165353986368226 
9.000559074655966 1.0141275099831526 
10.000559074655966 1.000834000679521 
11.000559074655966 1.0334743290264472 
12.000559074655966 1.0184815328504897 
13.000559074655966 1.1317467360418234 
14.000559074655966 1.079062412864252 
15.000559074655966 1.0873088451982365 
16.000559074655968 1.0845028041156672 
17.000559074655968 1.0560796823054088 
18.000559074655968 1.1433721863090083 
19.000559074655968 1.1019511327762186 
20.000559074655968 1.0893512358746722 
21.000559074655968 1.003348044689257 
22.000559074655968 1.0234563688077034 
23.000559074655968 0.9250118410013506 
24.000559074655968 0.9470381365135838 
25.000559074655968 0.9128393308875206 
26.000559074655968 0.9372043304954895 
27.000559074655968 0.9758922513043311 
28.000559074655968 1.0152432582715716 
29.000559074655968 1.023340224888035 
30.000559074655968 1.0797826672939166 
31.000559074655968 1.105892452274154 
32.00055907465597 1.150923273664179 
33.00055907465597 1.2067546049589482 
34.00055907465597 1.272511042979538 
35.00055907465597 1.2463146607077908 
36.00055907465597 1.3161781480849606 
37.00055907465597 1.3037354938946504 
38.00055907465597 1.3472104388982764 
39.00055907465597 1.3678626231164512 
40.00055907465597 1.391565811327887 
41.00055907465597 1.3958633995090515 
42.00055907465597 1.4120526293257647 
43.00055907465597 1.4371021553342322 
44.00055907465597 1.4876324869164923 
45.00055907465597 1.4748504955302646 
46.00055907465597 1.457701705720433 
47.00055907465597 1.4732325613564623 
48.00055907465597 1.4765995201954871 
49.00055907465597 1.4357503034823804 
50.00055907465597 1.4076660119372726 
51.00055907465597 1.3539178492796637 
52.00055907465597 1.3261360268703584 
53.00055907465597 1.2856191809980595 
54.00055907465597 1.2449327467355127 
55.00055907465597 1.2438668646625104 
56.00055907465597 1.1323500787207208 
57.00055907465597 1.1616208730203863 
58.00055907465597 1.1036268940059735 
59.00055907465597 1.1147726530458109 
60.00055907465597 1.1282216832985548 
61.00055907465597 1.04667415932865 
62.00055907465597 1.020864850007154 
63.00055907465597 0.9908301358395215 
64.00055907465597 0.984831072647543 
65.00055907465597 0.9709599002000681 
66.00055907465597 0.9631243124893409 
67.00055907465597 0.9519550962989425 
68.00055907465597 0.9616505395095638 
69.00055907465597 0.9611006093083455 
70.00055907465597 0.9647873130327264 
71.00055907465597 0.971560573494215 
72.00055907465597 0.9579295600563067 
73.00055907465597 0.9670680125340858 
74.00055907465597 0.9809913118827678 
75.00055907465597 0.9865109361862301 
76.00055907465597 0.9935190254492857 
77.00055907465597 0.998511535040407 
78.00055907465597 1.0000000000000004 
79.00055907465597 1.0000000000000004 
80.00055907465597 1.0000000000000004 
81.00055907465597 1.0000000000000004 
82.00055907465597 1.0000000000000004 
83.00055907465597 1.0000000000000004 
84.00055907465597 1.0000000000000004 
85.00055907465597 1.0000000000000004 
86.00055907465597 1.0000000000000004 
87.00055907465597 1.0000000000000004 
88.00055907465597 1.0000000000000004 
89.00055907465597 1.0000000000000004 
90.00055907465597 1.0000000000000004 
91.00055907465597 1.0000000000000004 
92.00055907465597 1.0000000000000004 
93.00055907465597 1.0000000000000004 
94.00055907465597 1.0000000000000004 
95.00055907465597 1.0000000000000004 
96.00055907465597 1.0000000000000004 
97.00055907465597 1.0000000000000004 
98.00055907465597 1.0000000000000004 
99.00055907465597 1.0000000000000004 
100.00055907465597 1.0000000000000004 
101.00055907465597 1.0000000000000004 
102.00055907465597 1.0000000000000004 
103.00055907465597 1.0000000000000004 
104.00055907465597 1.0000000000000004 
105.00055907465597 1.0000000000000004 
#####################################################################
# End of data export. Simulation finished at: 2017-05-23T15:05+0000 #
#####################################################################
