#####################################################################
# Alchemist log file - simulation started at: 2017-05-24T11:31+0000 #
#####################################################################
# random = 14.0, targets = 100.0, density = 0.894427190999916, gridShift = 0.0, perturbation = 0.5, connfactor = 2.0
#
# The columns have the following meaning: 
# time se[Mean] 
0.0 NaN 
1.00680225313191 NaN 
2.00680225313191 1.12274173553719 
3.00680225313191 1.1829777720385675 
4.0068022531319105 1.282831875573921 
5.0068022531319105 1.4810760215794305 
6.0068022531319105 1.596405888429752 
7.0068022531319105 1.7709777548209367 
8.00680225313191 1.7232879533976124 
9.00680225313191 2.0227754304407717 
10.00680225313191 2.547414370982553 
11.00680225313191 3.0221541724058767 
12.00680225313191 3.7447620351239665 
13.00680225313191 4.653888016528925 
14.00680225313191 5.461078615702479 
15.00680225313191 6.566667320936638 
16.00680225313191 8.042374839302111 
17.00680225313191 8.923595070018367 
18.00680225313191 12.103981577134986 
19.00680225313191 16.357080905647386 
20.00680225313191 18.51769180440771 
21.00680225313191 24.125343256427914 
22.00680225313191 29.00007234848485 
23.00680225313191 28.07693223140496 
24.00680225313191 31.70206647153352 
25.00680225313191 32.373762092516074 
26.00680225313191 27.997021080119378 
27.00680225313191 28.18063405647383 
28.00680225313191 29.33518337350781 
29.00680225313191 28.56252732438017 
30.00680225313191 28.29194376147843 
31.00680225313191 29.902706508264473 
32.00680225313191 27.863962603305794 
33.00680225313191 26.295669237832882 
34.00680225313191 25.25417205578513 
35.00680225313191 22.33608632920111 
36.00680225313191 21.07264847337007 
37.00680225313191 20.177834595959602 
38.00680225313191 19.226007082185497 
39.00680225313191 18.8064892275023 
40.00680225313191 18.7255041264922 
41.00680225313191 18.68357550505051 
42.00680225313191 18.664497939623512 
43.00680225313191 18.662162075298443 
44.00680225313191 18.662400000000005 
45.00680225313191 18.662400000000005 
46.00680225313191 18.662400000000005 
47.00680225313191 18.662400000000005 
48.00680225313191 18.662400000000005 
49.00680225313191 18.662400000000005 
50.00680225313191 18.662400000000005 
51.00680225313191 18.662400000000005 
52.00680225313191 18.662400000000005 
53.00680225313191 18.662400000000005 
54.00680225313191 18.662400000000005 
55.00680225313191 18.662400000000005 
56.00680225313191 18.662400000000005 
57.00680225313191 18.662400000000005 
58.00680225313191 18.662400000000005 
59.00680225313191 18.662400000000005 
60.00680225313191 18.662400000000005 
61.00680225313191 18.662400000000005 
62.00680225313191 18.662400000000005 
63.00680225313191 18.662400000000005 
64.00680225313191 18.662400000000005 
65.00680225313191 18.662400000000005 
66.00680225313191 18.662400000000005 
#####################################################################
# End of data export. Simulation finished at: 2017-05-24T11:31+0000 #
#####################################################################
