#####################################################################
# Alchemist log file - simulation started at: 2017-05-23T05:19+0000 #
#####################################################################
# random = 5.0, targets = 1.0, density = 0.07978946395100113, gridShift = 1.0, perturbation = 0.0, connfactor = 0.75
#
# The columns have the following meaning: 
# time se[Mean] 
0.0 NaN 
1.123893470128217 NaN 
2.123893470128217 1.0 
3.123893470128217 0.9555555555555556 
4.123893470128217 0.9111111111111111 
5.123893470128217 0.7777777777777778 
6.123893470128217 0.6444444444444444 
7.123893470128217 0.7777777777777778 
8.123893470128216 0.8666666666666666 
9.123893470128216 0.9722222222222222 
10.123893470128216 0.9722222222222222 
11.123893470128216 0.9222222222222223 
12.123893470128216 1.3444444444444443 
13.123893470128216 1.3722222222222222 
14.123893470128216 1.061111111111111 
15.123893470128216 2.7166666666666663 
16.123893470128216 1.4277777777777778 
17.123893470128216 3.4555555555555553 
18.123893470128216 1.8722222222222218 
19.123893470128216 0.6333333333333333 
20.123893470128216 0.611111111111111 
21.123893470128216 0.03888888888888888 
22.123893470128216 0.005555555555555555 
23.123893470128216 0.005555555555555554 
24.123893470128216 0.0 
25.123893470128216 0.0 
26.123893470128216 0.0 
27.123893470128216 0.0 
#####################################################################
# End of data export. Simulation finished at: 2017-05-23T05:19+0000 #
#####################################################################
