#####################################################################
# Alchemist log file - simulation started at: 2017-05-24T14:38+0000 #
#####################################################################
# random = 15.0, targets = 3.1622776601683795, density = 0.07978946395100113, gridShift = 1.0, perturbation = 0.0, connfactor = 1.0
#
# The columns have the following meaning: 
# time se[Mean] 
0.0 NaN 
1.033500917323147 NaN 
2.0335009173231473 1.0 
3.0335009173231473 1.0410672210461283 
4.033500917323147 1.1342981442278348 
5.033500917323147 1.4150873948624048 
6.033500917323147 1.2873243434231783 
7.033500917323147 1.4283037843393407 
8.033500917323147 1.2734939746209333 
9.033500917323147 1.058260279541919 
10.033500917323147 0.8030265844629045 
11.033500917323147 0.5815064106466279 
12.033500917323147 0.42981077288730984 
13.033500917323147 0.39481086920420005 
14.033500917323147 0.17285208368876526 
15.033500917323147 0.10564458780509417 
16.033500917323146 0.117252734385117 
17.033500917323146 0.13177023262097604 
18.033500917323146 0.1350889359326484 
19.033500917323146 0.1350889359326484 
20.033500917323146 0.1350889359326484 
21.033500917323146 0.1350889359326484 
22.033500917323146 0.1350889359326484 
#####################################################################
# End of data export. Simulation finished at: 2017-05-24T14:38+0000 #
#####################################################################
