#####################################################################
# Alchemist log file - simulation started at: 2017-05-20T12:54+0000 #
#####################################################################
# random = 1.0, targets = 3.1622776601683795, density = 0.05649405772326896, gridShift = 0.0, perturbation = 0.5, connfactor = 1.0
#
# The columns have the following meaning: 
# time se[Mean] 
0.0 NaN 
1.016676366669265 NaN 
2.016676366669265 NaN 
3.016676366669265 1.2110195530796173 
4.016676366669265 0.9764803265242697 
5.016676366669265 0.8737392441967571 
6.016676366669265 0.5222593992569384 
7.016676366669265 0.23410201145109744 
8.016676366669266 0.1420517883002817 
9.016676366669266 0.04715075765949615 
10.016676366669266 0.010363610027129542 
11.016676366669266 0.018093816155286664 
12.016676366669266 0.007786874651077169 
13.016676366669266 0.0026334038989724207 
14.016676366669266 0.0026334038989724207 
15.016676366669266 0.0026334038989724207 
16.016676366669266 0.0026334038989724207 
#####################################################################
# End of data export. Simulation finished at: 2017-05-20T12:54+0000 #
#####################################################################
