#####################################################################
# Alchemist log file - simulation started at: 2017-05-24T15:57+0000 #
#####################################################################
# random = 15.0, targets = 10.0, density = 0.6332893950589894, gridShift = 0.0, perturbation = 0.0, connfactor = 2.0
#
# The columns have the following meaning: 
# time se[Mean] 
0.0 NaN 
1.0090872484315245 NaN 
2.0090872484315243 1.5363271604938271 
3.0090872484315243 1.8461231138545955 
4.009087248431524 2.130949931412894 
5.009087248431524 2.622906378600823 
6.009087248431524 3.0750042866941016 
7.009087248431524 3.944417866941015 
8.009087248431523 3.4230555555555555 
9.009087248431523 3.151141975308642 
10.009087248431523 2.7374142661179692 
11.009087248431523 2.8632107338820303 
12.009087248431523 2.9048036694101507 
13.009087248431523 2.8062148491083674 
14.009087248431523 2.5770001714677635 
15.009087248431523 2.2169461591220845 
16.009087248431523 1.7619530178326475 
17.009087248431523 1.4338417352537722 
18.009087248431523 0.9124854252400547 
19.009087248431523 0.6615637860082303 
20.009087248431523 0.5276491769547323 
21.009087248431523 0.3365166323731137 
22.009087248431523 0.31943158436213975 
23.009087248431523 0.29665723593964316 
24.009087248431523 0.2759473593964333 
25.009087248431523 0.2745078875171466 
26.009087248431523 0.2690569272976679 
27.009087248431523 0.38948045267489706 
28.009087248431523 0.3805289780521262 
29.009087248431523 0.6128480795610427 
30.009087248431523 0.6009310699588479 
31.009087248431523 0.49885973936899874 
32.00908724843153 0.5062860082304531 
33.00908724843153 0.5383822016460909 
34.00908724843153 0.38527177640603577 
35.00908724843153 0.23734825102880663 
36.00908724843153 0.0899999999999999 
37.00908724843153 0.0899999999999999 
38.00908724843153 0.0899999999999999 
39.00908724843153 0.0899999999999999 
40.00908724843153 0.0899999999999999 
41.00908724843153 0.0899999999999999 
42.00908724843153 0.0899999999999999 
43.00908724843153 0.0899999999999999 
44.00908724843153 0.0899999999999999 
45.00908724843153 0.0899999999999999 
46.00908724843153 0.0899999999999999 
47.00908724843153 0.0899999999999999 
48.00908724843153 0.0899999999999999 
49.00908724843153 0.0899999999999999 
50.00908724843153 0.0899999999999999 
51.00908724843153 0.0899999999999999 
52.00908724843153 0.0899999999999999 
#####################################################################
# End of data export. Simulation finished at: 2017-05-24T15:57+0000 #
#####################################################################
