#####################################################################
# Alchemist log file - simulation started at: 2017-05-25T02:41+0000 #
#####################################################################
# random = 16.0, targets = 31.622776601683793, density = 20.0, gridShift = 1.0, perturbation = 0.0, connfactor = 1.0
#
# The columns have the following meaning: 
# time se[Mean] 
0.0 NaN 
1.000419502192421 NaN 
2.000419502192421 1.001486251593244 
3.000419502192421 1.002895121270289 
4.000419502192421 1.0034173663254229 
5.000419502192421 1.003030555972936 
6.000419502192421 0.9999252992725755 
7.000419502192421 0.9979711265713886 
8.000419502192422 0.9962817316721582 
9.000419502192422 0.9939336620989361 
10.000419502192422 0.99139936646003 
11.000419502192422 0.9893344525825575 
12.000419502192422 0.9863594889933237 
13.000419502192422 0.9858934697452261 
14.000419502192422 0.9836692242807913 
15.000419502192422 0.9831513915913886 
16.000419502192422 0.9819635976867944 
17.000419502192422 0.9810878967062157 
18.000419502192422 0.9800590590086434 
19.000419502192422 0.978439852018458 
20.000419502192422 0.9780510703708071 
21.000419502192422 0.976292246764361 
22.000419502192422 0.9738053523838797 
23.000419502192422 0.9728875479201509 
24.000419502192422 0.9697318983606276 
25.000419502192422 0.9671360112939343 
26.000419502192422 0.9651681874512562 
27.000419502192422 0.9599557661970214 
28.000419502192422 0.9600142946332065 
29.000419502192422 0.9545548082352237 
30.000419502192422 0.9532233369925731 
31.000419502192422 0.9507735959257797 
32.00041950219242 0.9475615243041172 
33.00041950219242 0.9459871807215617 
34.00041950219242 0.9427765127981433 
35.00041950219242 0.9387195494908246 
36.00041950219242 0.9379964907380589 
37.00041950219242 0.93512701380087 
38.00041950219242 0.9331874859332449 
39.00041950219242 0.9309261745156279 
40.00041950219242 0.9267132032874741 
41.00041950219242 0.9246630236231308 
42.00041950219242 0.9213728302156182 
43.00041950219242 0.9181285238838472 
44.00041950219242 0.9147320177547568 
45.00041950219242 0.9098410210059181 
46.00041950219242 0.9074689925772385 
47.00041950219242 0.9003680622101825 
48.00041950219242 0.8980914019397274 
49.00041950219242 0.8916126297823621 
50.00041950219242 0.8877339071537907 
51.00041950219242 0.8812272126286188 
52.00041950219242 0.87458568158583 
53.00041950219242 0.8690467842263164 
54.00041950219242 0.8616609086243165 
55.00041950219242 0.8572628835353159 
56.00041950219242 0.8511158065863156 
57.00041950219242 0.843275656733373 
58.00041950219242 0.8370361240619618 
59.00041950219242 0.8298847235705453 
60.00041950219242 0.821695225373893 
61.00041950219242 0.813335602687516 
62.00041950219242 0.806782917756456 
63.00041950219242 0.7947149127013636 
64.00041950219241 0.7899775101477015 
65.00041950219241 0.7763626806602766 
66.00041950219241 0.7726535332789126 
67.00041950219241 0.7601039933510861 
68.00041950219241 0.7535191361583994 
69.00041950219241 0.7399860102856799 
70.00041950219241 0.7303171249897669 
71.00041950219241 0.7206229265118853 
72.00041950219241 0.7067674140634026 
73.00041950219241 0.6997947582712718 
74.00041950219241 0.6838689326048892 
75.00041950219241 0.6749669303801731 
76.00041950219241 0.6647916538398514 
77.00041950219241 0.6520603427721252 
78.00041950219241 0.6446757908045844 
79.00041950219241 0.6347131757887635 
80.00041950219241 0.6260632715240536 
81.00041950219241 0.6203072588113626 
82.00041950219241 0.6133824047928952 
83.00041950219241 0.6045617844745668 
84.00041950219241 0.5990481222041758 
85.00041950219241 0.587406421585238 
86.00041950219241 0.5845085383232859 
87.00041950219241 0.5770716220262656 
88.00041950219241 0.5681029669095424 
89.00041950219241 0.5618167369431648 
90.00041950219241 0.5579785997905791 
91.00041950219241 0.5503685927616695 
92.00041950219241 0.5451888586009187 
93.00041950219241 0.5407468025716814 
94.00041950219241 0.537282701145373 
95.00041950219241 0.5288005686380945 
96.00041950219241 0.5247934657909001 
97.00041950219241 0.5192129643262797 
98.00041950219241 0.510344949291748 
99.00041950219241 0.5043971483045424 
100.00041950219241 0.4987390917848558 
101.00041950219241 0.492295435095894 
102.00041950219241 0.4850196163179919 
103.00041950219241 0.4788796047201501 
104.00041950219241 0.4729714763678688 
105.00041950219241 0.4636779346382021 
106.00041950219241 0.46122256862730576 
107.00041950219241 0.45341656404033204 
108.00041950219241 0.44621864455307353 
109.00041950219241 0.4413348216765905 
110.00041950219241 0.4339788024801961 
111.00041950219241 0.42976613656919754 
112.00041950219241 0.42040098998034264 
113.00041950219241 0.41541057107655743 
114.00041950219241 0.40815987531349573 
115.00041950219241 0.40157857345549636 
116.00041950219241 0.39659065178260366 
117.00041950219241 0.3901505290847869 
118.00041950219241 0.38390945344799976 
119.00041950219241 0.3792695596467161 
120.00041950219241 0.37376970049022684 
121.00041950219241 0.36911916315825405 
122.00041950219241 0.3645691010614284 
123.00041950219241 0.3593465135872984 
124.00041950219241 0.35513345096051563 
125.00041950219241 0.34871104297269334 
126.00041950219241 0.3445342055475749 
127.00041950219241 0.339764479389273 
128.00041950219241 0.3344108386167166 
129.00041950219241 0.32923160446147454 
130.00041950219241 0.3240791443880572 
131.00041950219241 0.31797144676918854 
132.00041950219241 0.3121067907661215 
133.00041950219241 0.30569613597873363 
134.00041950219241 0.3002630448411866 
135.00041950219241 0.2938819324943545 
136.00041950219241 0.2877509936241824 
137.00041950219241 0.28144744831975327 
138.00041950219241 0.2744032792672432 
139.00041950219241 0.26954438024220706 
140.00041950219241 0.26288030459945627 
141.00041950219241 0.25688589101586606 
142.00041950219241 0.25141082211784554 
143.00041950219241 0.24522297346954788 
144.00041950219241 0.23996471289837082 
145.00041950219241 0.2341890740633209 
146.00041950219241 0.22812564580911418 
147.00041950219241 0.22347734489877705 
148.00041950219241 0.2174784095698209 
149.00041950219241 0.21295539212640682 
150.00041950219241 0.20741435998355554 
151.00041950219241 0.20228703554941244 
152.00041950219241 0.19830322005126239 
153.00041950219241 0.19301818067685259 
154.00041950219241 0.18886107387449577 
155.00041950219241 0.1840812779589441 
156.00041950219241 0.17905432066797058 
157.00041950219241 0.17513855403413123 
158.00041950219241 0.1705694173941036 
159.00041950219241 0.16802269182650884 
160.00041950219241 0.16319049884727221 
161.00041950219241 0.16343511697683724 
162.00041950219241 0.16352134532028 
163.00041950219241 0.15979534061990278 
164.00041950219241 0.1684669559258722 
165.00041950219241 0.16089843624680172 
166.00041950219241 0.16639043397983203 
167.00041950219241 0.16887858444764983 
168.00041950219241 0.161099307862088 
169.00041950219241 0.167186356672124 
170.00041950219241 0.16673069452898878 
171.00041950219241 0.16130055740953392 
172.00041950219241 0.1631691096087987 
173.00041950219241 0.15133248477189487 
174.00041950219241 0.15098295429304892 
175.00041950219241 0.15137457763237636 
176.00041950219241 0.1438726466164386 
177.00041950219241 0.14247514315558193 
178.00041950219241 0.13217190627484662 
179.00041950219241 0.13751151236697945 
180.00041950219241 0.1332384857704226 
181.00041950219241 0.12138493830198764 
182.00041950219241 0.12382005985530062 
183.00041950219241 0.11193344435862312 
184.00041950219241 0.1159097472844291 
185.00041950219241 0.1028818309892031 
186.00041950219241 0.0998850208564076 
187.00041950219241 0.09177229821843529 
188.00041950219241 0.08620015399839746 
189.00041950219241 0.07974792171747418 
190.00041950219241 0.07603243608004195 
191.00041950219241 0.07567159932169235 
192.00041950219241 0.07045150616823122 
193.00041950219241 0.06894490719144851 
194.00041950219241 0.06577063036765864 
195.00041950219241 0.0627747060505313 
196.00041950219241 0.06202050351419965 
197.00041950219241 0.05771544333417144 
198.00041950219241 0.05478915806467372 
199.00041950219241 0.05408180656648043 
200.00041950219241 0.05200480270177561 
201.00041950219241 0.04667260565169139 
202.00041950219241 0.04582301588672073 
203.00041950219241 0.04479641202007518 
204.00041950219241 0.043001270390948074 
205.00041950219241 0.04243991361315937 
206.00041950219241 0.03824966945694561 
207.00041950219241 0.03983199600318335 
208.00041950219241 0.03638285607013432 
209.00041950219241 0.03563498066867047 
210.00041950219241 0.03477487252210725 
211.00041950219241 0.029154187946412616 
212.00041950219241 0.02765263932034598 
213.00041950219241 0.02422954492661741 
214.00041950219241 0.020768363240541453 
215.00041950219241 0.01981418949806571 
216.00041950219241 0.017510134210221254 
217.00041950219241 0.016868194169823297 
218.00041950219241 0.01530939153775112 
219.00041950219241 0.01454400117096549 
220.00041950219241 0.014133529704362963 
221.00041950219241 0.013504745879359355 
222.00041950219241 0.01305839626065331 
223.00041950219241 0.012810402814332416 
224.00041950219241 0.012214599872641103 
225.00041950219241 0.01217050856843353 
226.00041950219241 0.01177500164004503 
227.00041950219241 0.011367863752027163 
228.00041950219241 0.010945767558133444 
229.00041950219241 0.010872778604272975 
230.00041950219241 0.010653370074393664 
231.00041950219241 0.010195546355399212 
232.00041950219241 0.010052520723868676 
233.00041950219241 0.009844498941470114 
234.00041950219241 0.009720960825357707 
235.00041950219241 0.009516632461061044 
236.00041950219241 0.00906837940036505 
237.00041950219241 0.009009930121406344 
238.00041950219241 0.008578463077402936 
239.00041950219241 0.008405553266139518 
240.00041950219241 0.008270789912080703 
241.00041950219241 0.008032822042323317 
242.00041950219241 0.008039321688591786 
243.00041950219241 0.007797138685978489 
244.00041950219241 0.007692534319609754 
245.00041950219241 0.007583872840349855 
246.00041950219241 0.00750255652940425 
247.00041950219241 0.0074350753178318825 
248.00041950219241 0.007361651651718668 
249.00041950219241 0.007314992647708769 
250.00041950219241 0.007253074106911415 
251.00041950219241 0.00720363890659371 
252.00041950219241 0.007157655782030616 
253.00041950219241 0.007110402813964949 
254.00041950219241 0.007068665410368258 
255.00041950219241 0.007034294103805277 
256.0004195021924 0.006997774579153921 
257.0004195021924 0.006977658044227377 
258.0004195021924 0.006956275886772744 
259.0004195021924 0.006937608137334791 
260.0004195021924 0.006928149370467678 
261.0004195021924 0.006913894598831257 
262.0004195021924 0.006902354235211512 
263.0004195021924 0.006897624851777959 
264.0004195021924 0.006888415869207113 
265.0004195021924 0.006884885486965885 
266.0004195021924 0.006880722293460616 
267.0004195021924 0.006878957102340002 
268.0004195021924 0.006878957102340002 
269.0004195021924 0.006878957102340002 
270.0004195021924 0.006878957102340002 
271.0004195021924 0.006878957102340002 
272.0004195021924 0.006878957102340002 
273.0004195021924 0.006878957102340002 
274.0004195021924 0.006878957102340002 
275.0004195021924 0.006878957102340002 
276.0004195021924 0.006878957102340002 
277.0004195021924 0.006878957102340002 
278.0004195021924 0.006878957102340002 
279.0004195021924 0.006878957102340002 
280.0004195021924 0.006878957102340002 
281.0004195021924 0.006878957102340002 
282.0004195021924 0.006878957102340002 
283.0004195021924 0.006878957102340002 
284.0004195021924 0.006878957102340002 
285.0004195021924 0.006878957102340002 
286.0004195021924 0.006878957102340002 
287.0004195021924 0.006878957102340002 
288.0004195021924 0.006878957102340002 
289.0004195021924 0.006878957102340002 
290.0004195021924 0.006878957102340002 
291.0004195021924 0.006878957102340002 
292.0004195021924 0.006878957102340002 
293.0004195021924 0.006878957102340002 
294.0004195021924 0.006878957102340002 
295.0004195021924 0.006878957102340002 
296.0004195021924 0.006878957102340002 
297.0004195021924 0.006878957102340002 
298.0004195021924 0.006878957102340002 
299.0004195021924 0.006878957102340002 
300.0004195021924 0.006878957102340002 
301.0004195021924 0.006878957102340002 
302.0004195021924 0.006878957102340002 
303.0004195021924 0.006878957102340002 
304.0004195021924 0.006878957102340002 
305.0004195021924 0.006878957102340002 
306.0004195021924 0.006878957102340002 
307.0004195021924 0.006878957102340002 
308.0004195021924 0.006878957102340002 
309.0004195021924 0.006878957102340002 
310.0004195021924 0.006878957102340002 
311.0004195021924 0.006878957102340002 
312.0004195021924 0.006878957102340002 
313.0004195021924 0.006878957102340002 
314.0004195021924 0.006878957102340002 
315.0004195021924 0.006878957102340002 
316.0004195021924 0.006878957102340002 
317.0004195021924 0.006878957102340002 
318.0004195021924 0.006878957102340002 
319.0004195021924 0.006878957102340002 
320.0004195021924 0.006878957102340002 
321.0004195021924 0.006878957102340002 
322.0004195021924 0.006878957102340002 
323.0004195021924 0.006878957102340002 
324.0004195021924 0.006878957102340002 
325.0004195021924 0.006878957102340002 
326.0004195021924 0.006878957102340002 
327.0004195021924 0.006878957102340002 
328.0004195021924 0.006878957102340002 
329.0004195021924 0.006878957102340002 
330.0004195021924 0.006878957102340002 
331.0004195021924 0.006878957102340002 
332.0004195021924 0.006878957102340002 
333.0004195021924 0.006878957102340002 
334.0004195021924 0.006878957102340002 
335.0004195021924 0.006878957102340002 
336.0004195021924 0.006878957102340002 
337.0004195021924 0.006878957102340002 
338.0004195021924 0.006878957102340002 
339.0004195021924 0.006878957102340002 
340.0004195021924 0.006878957102340002 
341.0004195021924 0.006878957102340002 
342.0004195021924 0.006878957102340002 
343.0004195021924 0.006878957102340002 
344.0004195021924 0.006878957102340002 
345.0004195021924 0.006878957102340002 
346.0004195021924 0.006878957102340002 
347.0004195021924 0.006878957102340002 
348.0004195021924 0.006878957102340002 
349.0004195021924 0.006878957102340002 
350.0004195021924 0.006878957102340002 
351.0004195021924 0.006878957102340002 
352.0004195021924 0.006878957102340002 
353.0004195021924 0.006878957102340002 
354.0004195021924 0.006878957102340002 
355.0004195021924 0.006878957102340002 
356.0004195021924 0.006878957102340002 
357.0004195021924 0.006878957102340002 
358.0004195021924 0.006878957102340002 
359.0004195021924 0.006878957102340002 
360.0004195021924 0.006878957102340002 
361.0004195021924 0.006878957102340002 
362.0004195021924 0.006878957102340002 
363.0004195021924 0.006878957102340002 
364.0004195021924 0.006878957102340002 
365.0004195021924 0.006878957102340002 
366.0004195021924 0.006878957102340002 
367.0004195021924 0.006878957102340002 
368.0004195021924 0.006878957102340002 
#####################################################################
# End of data export. Simulation finished at: 2017-05-25T02:50+0000 #
#####################################################################
