#####################################################################
# Alchemist log file - simulation started at: 2017-05-19T17:42+0000 #
#####################################################################
# random = 0.0, targets = 1.0, density = 2.519842099789746, gridShift = 1.0, perturbation = 0.5, connfactor = 0.5
#
# The columns have the following meaning: 
# time se[Mean] 
0.0 NaN 
1.0011337332612453 NaN 
2.0011337332612453 NaN 
3.0011337332612453 1.0 
4.001133733261245 1.0 
5.001133733261245 1.0 
6.001133733261245 1.0 
7.001133733261245 1.0 
8.001133733261245 1.0 
9.001133733261245 1.0 
10.001133733261245 1.0 
11.001133733261245 1.0 
12.001133733261245 1.0 
13.001133733261245 1.0 
14.001133733261245 1.0 
15.001133733261245 1.0 
16.001133733261245 1.0 
17.001133733261245 1.0 
18.001133733261245 1.0 
19.001133733261245 1.0 
20.001133733261245 1.0 
21.001133733261245 1.0 
22.001133733261245 1.0 
23.001133733261245 1.0 
24.001133733261245 1.0 
25.001133733261245 1.0 
26.001133733261245 1.0 
27.001133733261245 1.0 
28.001133733261245 1.0 
29.001133733261245 1.0 
30.001133733261245 1.0 
31.001133733261245 1.0 
32.00113373326124 1.0 
33.00113373326124 1.0 
34.00113373326124 1.3947368421052642 
35.00113373326124 1.391447368421052 
36.00113373326124 2.575657894736841 
37.00113373326124 4.1447368421052655 
38.00113373326124 4.13157894736842 
39.00113373326124 4.9177631578947345 
40.00113373326124 5.697368421052627 
41.00113373326124 3.703947368421059 
42.00113373326124 7.246710526315792 
43.00113373326124 5.2171052631578965 
44.00113373326124 5.9901315789473735 
45.00113373326124 7.9177631578947345 
46.00113373326124 7.878289473684205 
47.00113373326124 7.43092105263158 
48.00113373326124 7.7927631578947345 
49.00113373326124 6.1677631578947345 
50.00113373326124 6.516447368421061 
51.00113373326124 5.269736842105265 
52.00113373326124 5.618421052631579 
53.00113373326124 5.161184210526312 
54.00113373326124 5.11842105263158 
55.00113373326124 5.858552631578945 
56.00113373326124 4.628289473684211 
57.00113373326124 5.38486842105263 
58.00113373326124 2.9703947368421058 
59.00113373326124 2.161184210526311 
60.00113373326124 2.516447368421057 
61.00113373326124 1.6875 
62.00113373326124 0.8618421052631586 
63.00113373326124 1.1743421052631564 
64.00113373326124 0.368421052631578 
65.00113373326124 1.342105263157897 
66.00113373326124 2.644736842105266 
67.00113373326124 2.638157894736842 
68.00113373326124 3.28947368421053 
69.00113373326124 3.9473684210526288 
70.00113373326124 2.3026315789473673 
71.00113373326124 5.263157894736842 
72.00113373326124 3.6184210526315788 
73.00113373326124 4.276315789473685 
74.00113373326124 5.921052631578944 
75.00113373326124 5.921052631578938 
76.00113373326124 5.592105263157896 
77.00113373326124 5.921052631578943 
78.00113373326124 4.6052631578947345 
79.00113373326124 4.934210526315793 
80.00113373326124 3.9473684210526327 
81.00113373326124 4.2763157894736885 
82.00113373326124 3.9473684210526327 
83.00113373326124 3.9473684210526323 
84.00113373326124 4.605263157894735 
85.00113373326124 3.6184210526315805 
86.00113373326124 4.27631578947369 
87.00113373326124 2.302631578947368 
88.00113373326124 1.6447368421052653 
89.00113373326124 1.9736842105263124 
90.00113373326124 1.3157894736842084 
91.00113373326124 0.6578947368421028 
92.00113373326124 0.6578947368421048 
93.00113373326124 0.0 
94.00113373326124 0.0 
95.00113373326124 0.0 
96.00113373326124 0.0 
97.00113373326124 0.0 
98.00113373326124 0.0 
99.00113373326124 0.0 
100.00113373326124 0.0 
101.00113373326124 0.0 
102.00113373326124 0.0 
103.00113373326124 0.0 
104.00113373326124 0.0 
105.00113373326124 0.0 
106.00113373326124 0.0 
107.00113373326124 0.0 
108.00113373326124 0.0 
109.00113373326124 0.0 
110.00113373326124 0.0 
111.00113373326124 0.0 
112.00113373326124 0.0 
113.00113373326124 0.0 
114.00113373326124 0.0 
115.00113373326124 0.0 
116.00113373326124 0.0 
117.00113373326124 0.0 
118.00113373326124 0.0 
119.00113373326124 0.0 
120.00113373326124 0.0 
121.00113373326124 0.0 
122.00113373326124 0.0 
123.00113373326124 0.0 
124.00113373326124 0.0 
#####################################################################
# End of data export. Simulation finished at: 2017-05-19T17:44+0000 #
#####################################################################
