#####################################################################
# Alchemist log file - simulation started at: 2017-05-22T14:58+0000 #
#####################################################################
# random = 4.0, targets = 3.1622776601683795, density = 0.894427190999916, gridShift = 1.0, perturbation = 0.5, connfactor = 0.5
#
# The columns have the following meaning: 
# time se[Mean] 
0.0 NaN 
1.0048193674555734 NaN 
2.0048193674555734 1.0 
3.0048193674555734 1.0 
4.004819367455573 0.995562870566386 
5.004819367455573 0.9911257411327721 
6.004819367455573 0.9689400939647023 
7.004819367455573 0.9661696311977549 
8.004819367455573 0.9633991684308076 
9.004819367455573 0.953421113463299 
10.004819367455573 0.9135088935932647 
11.004819367455573 0.9279240779943875 
12.004819367455573 0.8558481559887748 
13.004819367455573 0.8702633403898974 
14.004819367455573 0.8630557481893358 
15.004819367455573 0.8630557481893358 
16.004819367455575 0.8774709325904585 
17.004819367455575 0.887448987557967 
18.004819367455575 0.9074050974929844 
19.004819367455575 0.8940937091921423 
20.004819367455575 0.8746785247910198 
21.004819367455575 0.8696785247910197 
22.004819367455575 0.8530338031568446 
23.004819367455575 0.8319958421540383 
24.004819367455575 0.7950296453108827 
25.004819367455575 0.8098178952643597 
26.004819367455575 0.8257757764155915 
27.004819367455575 0.8823184731657009 
28.004819367455575 0.8382763543169326 
29.004819367455575 1.043649419869287 
30.004819367455575 1.1378967442888694 
31.004819367455575 1.4100023116053646 
32.004819367455575 1.8349441767862809 
33.004819367455575 1.9074370544092316 
34.004819367455575 2.105470857566076 
35.004819367455575 1.8615088185688822 
36.004819367455575 1.9637822458669179 
37.004819367455575 1.9731315951705661 
38.004819367455575 1.8390159409459328 
39.004819367455575 1.0527947194048033 
40.004819367455575 1.8138403806860006 
41.004819367455575 1.1184234250686644 
42.004819367455575 0.8354554570092939 
43.004819367455575 0.41906637548662384 
44.004819367455575 0.14163933296114925 
45.004819367455575 0.003196274465358442 
46.004819367455575 0.002633403898972407 
47.004819367455575 0.002633403898972407 
48.004819367455575 0.002633403898972407 
49.004819367455575 0.002633403898972407 
50.004819367455575 0.002633403898972407 
51.004819367455575 0.002633403898972407 
52.004819367455575 0.002633403898972407 
53.004819367455575 0.002633403898972407 
54.004819367455575 0.002633403898972407 
55.004819367455575 0.002633403898972407 
56.004819367455575 0.002633403898972407 
57.004819367455575 0.002633403898972407 
58.004819367455575 0.002633403898972407 
59.004819367455575 0.002633403898972407 
60.004819367455575 0.002633403898972407 
61.004819367455575 0.002633403898972407 
62.004819367455575 0.002633403898972407 
63.004819367455575 0.002633403898972407 
#####################################################################
# End of data export. Simulation finished at: 2017-05-22T14:59+0000 #
#####################################################################
