#####################################################################
# Alchemist log file - simulation started at: 2017-05-24T19:42+0000 #
#####################################################################
# random = 7.0, targets = 3.1622776601683795, density = 20.0, gridShift = 1.0, perturbation = 0.5, connfactor = 2.0
#
# The columns have the following meaning: 
# time se[Mean] 
0.0 NaN 
1.0008200817491508 NaN 
2.0008200817491506 1.018709132984236 
3.0008200817491506 1.0306978610999944 
4.000820081749151 1.0388324110282623 
5.000820081749151 1.0380088203795914 
6.000820081749151 1.0279501657048988 
7.000820081749151 1.0287400345593187 
8.00082008174915 1.0252876973276133 
9.00082008174915 1.0411231822800613 
10.00082008174915 1.0510550899260473 
11.00082008174915 1.065951161835621 
12.00082008174915 1.089143335600781 
13.00082008174915 1.1289450655070101 
14.00082008174915 1.1756856137683531 
15.00082008174915 1.2130987570655913 
16.00082008174915 1.2176487841627857 
17.00082008174915 1.2742421160463013 
18.00082008174915 1.2542456688537982 
19.00082008174915 1.293340891986029 
20.00082008174915 1.3717021773802491 
21.00082008174915 1.3001984212634636 
22.00082008174915 1.3261146609544008 
23.00082008174915 1.2961976834513689 
24.00082008174915 1.248827478204578 
25.00082008174915 1.2881963622401609 
26.00082008174915 1.2729028715336588 
27.00082008174915 1.2608256159368083 
28.00082008174915 1.272185954947379 
29.00082008174915 1.2655378287811487 
30.00082008174915 1.2419775529847215 
31.00082008174915 1.2383699723828852 
32.000820081749154 1.2395509405059735 
33.000820081749154 1.2393609573418702 
34.000820081749154 1.2480328242317544 
35.000820081749154 1.2400115285051503 
36.000820081749154 1.2351909244336272 
37.000820081749154 1.2282634482391837 
38.000820081749154 1.2247634228979378 
39.000820081749154 1.2155032902196836 
40.000820081749154 1.2120247742848964 
41.000820081749154 1.2071053656314512 
42.000820081749154 1.2019979152600566 
43.000820081749154 1.1979136504646786 
44.000820081749154 1.1941800857083844 
45.000820081749154 1.2213870599827277 
46.000820081749154 1.1913848591189096 
47.000820081749154 1.3557085492308987 
48.000820081749154 1.3616858508223109 
49.000820081749154 1.4401703605697105 
50.000820081749154 1.612460664290347 
51.000820081749154 1.504233375097198 
52.000820081749154 1.6753504314883683 
53.000820081749154 1.9051242900480307 
54.000820081749154 1.7486245217512313 
55.000820081749154 1.9418524857806043 
56.000820081749154 2.212979831590976 
57.000820081749154 1.9990001912698474 
58.000820081749154 2.266267810467008 
59.000820081749154 2.2600430408222296 
60.000820081749154 2.2173108892377926 
61.000820081749154 2.44498329047453 
62.000820081749154 2.594329472259726 
63.000820081749154 2.440378252560368 
64.00082008174915 2.719662715451261 
65.00082008174915 2.65412698421331 
66.00082008174915 2.789439555475913 
67.00082008174915 2.8473201960821766 
68.00082008174915 2.942962973157384 
69.00082008174915 2.866562314524831 
70.00082008174915 2.683457814787815 
71.00082008174915 2.4257874936657644 
72.00082008174915 2.553382929099723 
73.00082008174915 2.5358559866466215 
74.00082008174915 2.5167374079272133 
75.00082008174915 2.5626839276148115 
76.00082008174915 2.6517861915749648 
77.00082008174915 2.389560400454372 
78.00082008174915 2.661655290427939 
79.00082008174915 2.568645801525275 
80.00082008174915 2.5810840461473674 
81.00082008174915 2.537211719906133 
82.00082008174915 2.413678868077242 
83.00082008174915 2.649425926299567 
84.00082008174915 2.549916429276405 
85.00082008174915 2.451543206646851 
86.00082008174915 2.691692882228271 
87.00082008174915 2.542215647029152 
88.00082008174915 2.532649896984903 
89.00082008174915 2.676964847110192 
90.00082008174915 2.5901591867280103 
91.00082008174915 2.579642632591589 
92.00082008174915 2.559052577662449 
93.00082008174915 2.6967803641953116 
94.00082008174915 2.598335501495228 
95.00082008174915 2.4786591617081855 
96.00082008174915 2.4894100925735536 
97.00082008174915 2.6040763533067985 
98.00082008174915 2.5416682892776956 
99.00082008174915 2.5174945867489456 
100.00082008174915 2.541288362454949 
101.00082008174915 2.5432613219974836 
102.00082008174915 2.5300920023838818 
103.00082008174915 2.5341794602896637 
104.00082008174915 2.5572420698672995 
105.00082008174915 2.554150147893177 
106.00082008174915 2.549135547122892 
107.00082008174915 2.5192335358903444 
108.00082008174915 2.522123234211242 
109.00082008174915 2.5248822023316877 
110.00082008174915 2.5420762016615663 
111.00082008174915 2.541750763952571 
112.00082008174915 2.520790024652733 
113.00082008174915 2.5197930636850563 
114.00082008174915 2.5422449458464382 
115.00082008174915 2.5322959329083257 
116.00082008174915 2.523205794250682 
117.00082008174915 2.525488082748869 
118.00082008174915 2.532010608699939 
119.00082008174915 2.5334483019083955 
120.00082008174915 2.5368144002817603 
121.00082008174915 2.5301628151491804 
122.00082008174915 2.5713922249498706 
123.00082008174915 2.587945358518741 
124.00082008174915 2.606461446785049 
125.00082008174915 2.6098771046051374 
126.00082008174915 2.614406279645757 
127.00082008174915 2.624463941438693 
128.00082008174917 2.6277125023221792 
129.00082008174917 2.6205395404214356 
130.00082008174917 2.6290791522766406 
131.00082008174917 2.634496622059237 
132.00082008174917 2.6303812666976722 
133.00082008174917 2.624142805062441 
134.00082008174917 2.6278212973616952 
135.00082008174917 2.6253429190483804 
136.00082008174917 2.6267414836502896 
137.00082008174917 2.631338662333245 
138.00082008174917 2.6339305426596495 
139.00082008174917 2.629932180276486 
140.00082008174917 2.6369301506421783 
141.00082008174917 2.6354399853606334 
142.00082008174917 2.6400409098937776 
143.00082008174917 2.6439003596799564 
144.00082008174917 2.645154600301299 
145.00082008174917 2.643970996378867 
146.00082008174917 2.6474478476945147 
147.00082008174917 2.6417307609989296 
148.00082008174917 2.6420757538686392 
149.00082008174917 2.643156665745559 
150.00082008174917 2.644369274431849 
151.00082008174917 2.645044966552424 
152.00082008174917 2.642260598819157 
153.00082008174917 2.6427835004215594 
154.00082008174917 2.643668602967392 
155.00082008174917 2.647209013150718 
156.00082008174917 2.6414558466028124 
157.00082008174917 2.648536666969466 
158.00082008174917 2.650306872061129 
159.00082008174917 2.6511919746069608 
160.00082008174917 2.6489792182423817 
161.00082008174917 2.652519628425708 
162.00082008174917 2.6511919746069608 
163.00082008174917 2.656945141154867 
164.00082008174917 2.652962179698624 
165.00082008174917 2.654289833517372 
166.00082008174917 2.6573876924277826 
167.00082008174917 2.656060038609035 
168.00082008174917 2.6578302437006984 
169.00082008174917 2.656502589881951 
170.00082008174917 2.659157897519446 
171.00082008174917 2.6609281026111096 
172.00082008174917 2.6600430000652775 
173.00082008174917 2.662255756429857 
174.00082008174917 2.6609281026111096 
175.00082008174917 2.661370653884025 
176.00082008174917 2.6635834102486045 
177.00082008174917 2.6631408589756886 
178.00082008174917 2.6640259615215203 
179.00082008174917 2.664468512794436 
180.00082008174917 2.6635834102486045 
181.00082008174917 2.6635834102486045 
182.00082008174917 2.6640259615215203 
183.00082008174917 2.6640259615215203 
184.00082008174917 2.664468512794436 
185.00082008174917 2.664911064067352 
186.00082008174917 2.664911064067352 
187.00082008174917 2.664911064067352 
188.00082008174917 2.664911064067352 
189.00082008174917 2.664911064067352 
190.00082008174917 2.664911064067352 
191.00082008174917 2.664911064067352 
192.00082008174917 2.664911064067352 
193.00082008174917 2.664911064067352 
194.00082008174917 2.664911064067352 
195.00082008174917 2.664911064067352 
196.00082008174917 2.664911064067352 
197.00082008174917 2.664911064067352 
198.00082008174917 2.664911064067352 
199.00082008174917 2.664911064067352 
200.00082008174917 2.664911064067352 
201.00082008174917 2.664911064067352 
202.00082008174917 2.664911064067352 
203.00082008174917 2.664911064067352 
204.00082008174917 2.664911064067352 
205.00082008174917 2.664911064067352 
206.00082008174917 2.664911064067352 
207.00082008174917 2.664911064067352 
208.00082008174917 2.664911064067352 
209.00082008174917 2.664911064067352 
210.00082008174917 2.664911064067352 
211.00082008174917 2.664911064067352 
212.00082008174917 2.664911064067352 
213.00082008174917 2.664911064067352 
214.00082008174917 2.664911064067352 
215.00082008174917 2.664911064067352 
216.00082008174917 2.664911064067352 
217.00082008174917 2.664911064067352 
218.00082008174917 2.664911064067352 
219.00082008174917 2.664911064067352 
220.00082008174917 2.664911064067352 
221.00082008174917 2.664911064067352 
222.00082008174917 2.664911064067352 
223.00082008174917 2.664911064067352 
224.00082008174917 2.664911064067352 
225.00082008174917 2.664911064067352 
226.00082008174917 2.664911064067352 
227.00082008174917 2.664911064067352 
228.00082008174917 2.664911064067352 
229.00082008174917 2.664911064067352 
230.00082008174917 2.664911064067352 
231.00082008174917 2.664911064067352 
232.00082008174917 2.664911064067352 
233.00082008174917 2.664911064067352 
234.00082008174917 2.664911064067352 
235.00082008174917 2.664911064067352 
236.00082008174917 2.664911064067352 
237.00082008174917 2.664911064067352 
238.00082008174917 2.664911064067352 
239.00082008174917 2.664911064067352 
240.00082008174917 2.664911064067352 
241.00082008174917 2.664911064067352 
242.00082008174917 2.664911064067352 
243.00082008174917 2.664911064067352 
244.00082008174917 2.664911064067352 
245.00082008174917 2.664911064067352 
246.00082008174917 2.664911064067352 
247.00082008174917 2.664911064067352 
248.00082008174917 2.664911064067352 
249.00082008174917 2.664911064067352 
250.00082008174917 2.664911064067352 
251.00082008174917 2.664911064067352 
252.00082008174917 2.664911064067352 
253.00082008174917 2.664911064067352 
254.00082008174917 2.664911064067352 
255.00082008174917 2.664911064067352 
256.00082008174917 2.664911064067352 
257.00082008174917 2.664911064067352 
258.00082008174917 2.664911064067352 
259.00082008174917 2.664911064067352 
260.00082008174917 2.664911064067352 
261.00082008174917 2.664911064067352 
262.00082008174917 2.664911064067352 
263.00082008174917 2.664911064067352 
264.00082008174917 2.664911064067352 
265.00082008174917 2.664911064067352 
266.00082008174917 2.664911064067352 
267.00082008174917 2.664911064067352 
268.00082008174917 2.664911064067352 
269.00082008174917 2.664911064067352 
270.00082008174917 2.664911064067352 
271.00082008174917 2.664911064067352 
272.00082008174917 2.664911064067352 
273.00082008174917 2.664911064067352 
274.00082008174917 2.664911064067352 
275.00082008174917 2.664911064067352 
276.00082008174917 2.664911064067352 
277.00082008174917 2.664911064067352 
278.00082008174917 2.664911064067352 
279.00082008174917 2.664911064067352 
280.00082008174917 2.664911064067352 
281.00082008174917 2.664911064067352 
282.00082008174917 2.664911064067352 
283.00082008174917 2.664911064067352 
284.00082008174917 2.664911064067352 
#####################################################################
# End of data export. Simulation finished at: 2017-05-24T20:06+0000 #
#####################################################################
