#####################################################################
# Alchemist log file - simulation started at: 2017-05-22T23:00+0000 #
#####################################################################
# random = 10.0, targets = 3.1622776601683795, density = 0.1591589639397027, gridShift = 0.0, perturbation = 0.0, connfactor = 0.25
#
# The columns have the following meaning: 
# time se[Mean] 
0.0 NaN 
1.0042217987811537 NaN 
2.0042217987811535 1.0 
3.0042217987811535 1.0 
4.0042217987811535 1.0 
5.0042217987811535 1.0 
6.0042217987811535 1.0 
7.0042217987811535 1.0 
8.004221798781153 1.0 
#####################################################################
# End of data export. Simulation finished at: 2017-05-22T23:00+0000 #
#####################################################################
