#####################################################################
# Alchemist log file - simulation started at: 2017-05-23T16:30+0000 #
#####################################################################
# random = 12.0, targets = 10.0, density = 0.1591589639397027, gridShift = 1.0, perturbation = 0.0, connfactor = 0.25
#
# The columns have the following meaning: 
# time se[Mean] 
0.0 NaN 
1.0242474491697862 NaN 
2.024247449169786 1.0 
3.024247449169786 0.99675 
4.024247449169787 0.9789166666666667 
5.024247449169787 0.92725 
6.024247449169787 0.8281666666666666 
7.024247449169787 0.7196666666666666 
8.024247449169787 0.6207499999999999 
9.024247449169787 0.5487500000000001 
10.024247449169787 0.5068333333333334 
11.024247449169787 0.45766666666666667 
12.024247449169787 0.46166666666666667 
13.024247449169787 0.40875 
14.024247449169787 0.371 
15.024247449169787 0.3268333333333333 
16.024247449169785 0.31625 
17.024247449169785 0.31708333333333333 
18.024247449169785 0.33749999999999997 
19.024247449169785 0.36 
20.024247449169785 0.34875 
21.024247449169785 0.36 
22.024247449169785 0.36 
23.024247449169785 0.36 
24.024247449169785 0.36 
25.024247449169785 0.36 
26.024247449169785 0.36 
27.024247449169785 0.36 
#####################################################################
# End of data export. Simulation finished at: 2017-05-23T16:30+0000 #
#####################################################################
