#####################################################################
# Alchemist log file - simulation started at: 2017-05-24T21:16+0000 #
#####################################################################
# random = 16.0, targets = 1.0, density = 1.2632455339402642, gridShift = 1.0, perturbation = 0.0, connfactor = 2.0
#
# The columns have the following meaning: 
# time se[Mean] 
0.0 NaN 
1.0066017814354276 NaN 
2.0066017814354273 1.4330357142857135 
3.0066017814354273 1.846726190476191 
4.006601781435427 2.375826719576718 
5.006601781435427 2.328042328042327 
6.006601781435427 3.3301917989418 
7.006601781435427 2.017361111111109 
8.006601781435428 2.3568121693121697 
9.006601781435428 1.4629629629629632 
10.006601781435428 1.7814153439153457 
11.006601781435428 1.1259920634920635 
12.006601781435428 1.2921626984126982 
13.006601781435428 1.088128306878307 
14.006601781435428 1.0071097883597886 
15.006601781435428 1.0403439153439156 
16.006601781435428 0.9809854497354498 
17.006601781435428 1.1383928571428568 
18.006601781435428 0.9604828042328041 
19.006601781435428 2.098379629629629 
20.006601781435428 1.8796296296296295 
21.006601781435428 3.8386243386243395 
22.006601781435428 3.9662698412698374 
23.006601781435428 4.373181216931218 
24.006601781435428 5.103009259259257 
25.006601781435428 3.8591269841269833 
26.006601781435428 4.459656084656083 
27.006601781435428 5.584821428571428 
28.006601781435428 3.9541997354497367 
29.006601781435428 5.136408730158726 
30.006601781435428 5.482473544973546 
31.006601781435428 5.680886243386247 
32.00660178143543 4.841435185185179 
33.00660178143543 3.4057539682539715 
34.00660178143543 2.403935185185188 
35.00660178143543 1.373677248677248 
36.00660178143543 1.1615410052910038 
37.00660178143543 0.5419973544973546 
38.00660178143543 0.566798941798942 
39.00660178143543 0.3149801587301589 
40.00660178143543 0.3515211640211641 
41.00660178143543 0.3085317460317461 
42.00660178143543 0.3045634920634919 
43.00660178143543 0.24255952380952384 
44.00660178143543 0.23875661375661356 
45.00660178143543 0.22073412698412678 
46.00660178143543 0.2225529100529098 
47.00660178143543 0.16071428571428548 
48.00660178143543 0.12731481481481463 
49.00660178143543 0.12169312169312144 
50.00660178143543 0.1385582010582007 
51.00660178143543 0.052248677248677135 
52.00660178143543 0.06812169312169289 
53.00660178143543 0.054398148148148015 
54.00660178143543 0.054067460317460174 
55.00660178143543 0.03191137566137559 
56.00660178143543 1.6534391534391599E-4 
57.00660178143543 1.9721522630525295E-31 
58.00660178143543 1.9721522630525295E-31 
59.00660178143543 1.9721522630525295E-31 
60.00660178143543 1.9721522630525295E-31 
61.00660178143543 1.9721522630525295E-31 
62.00660178143543 1.9721522630525295E-31 
63.00660178143543 1.9721522630525295E-31 
64.00660178143542 1.9721522630525295E-31 
65.00660178143542 1.9721522630525295E-31 
66.00660178143542 1.9721522630525295E-31 
67.00660178143542 1.9721522630525295E-31 
68.00660178143542 1.9721522630525295E-31 
69.00660178143542 1.9721522630525295E-31 
70.00660178143542 1.9721522630525295E-31 
71.00660178143542 1.9721522630525295E-31 
72.00660178143542 1.9721522630525295E-31 
73.00660178143542 1.9721522630525295E-31 
74.00660178143542 1.9721522630525295E-31 
75.00660178143542 1.9721522630525295E-31 
76.00660178143542 1.9721522630525295E-31 
77.00660178143542 1.9721522630525295E-31 
#####################################################################
# End of data export. Simulation finished at: 2017-05-24T21:16+0000 #
#####################################################################
