#####################################################################
# Alchemist log file - simulation started at: 2017-05-25T11:18+0000 #
#####################################################################
# random = 17.0, targets = 100.0, density = 10.026386447354522, gridShift = 1.0, perturbation = 0.5, connfactor = 0.75
#
# The columns have the following meaning: 
# time se[Mean] 
0.0 NaN 
1.0003034458253823 NaN 
2.0003034458253826 NaN 
3.0003034458253826 1.0015024398361496 
4.0003034458253826 1.0013823758320533 
5.0003034458253826 1.000433646313364 
6.0003034458253826 0.9973955190732207 
7.0003034458253826 0.9947760375064004 
8.000303445825383 0.9930965316180236 
9.000303445825383 0.9905706893241167 
10.000303445825383 0.9893036290322581 
11.000303445825383 0.9876614996159754 
12.000303445825383 0.9856067697132617 
13.000303445825383 0.9846835829493087 
14.000303445825383 0.9831738645673324 
15.000303445825383 0.9821959274193548 
16.00030344582538 0.9806237813620071 
17.00030344582538 0.9790010957501281 
18.00030344582538 0.9778399340757808 
19.00030344582538 0.9763623886328725 
20.00030344582538 0.9747534613415259 
21.00030344582538 0.9740892908346134 
22.00030344582538 0.9712848233486943 
23.00030344582538 0.9710117895545314 
24.00030344582538 0.9694240143369175 
25.00030344582538 0.9673710931899642 
26.00030344582538 0.9665754429083461 
27.00030344582538 0.9633184587813619 
28.00030344582538 0.9617278264208909 
29.00030344582538 0.9576055350742447 
30.00030344582538 0.9531275652841782 
31.00030344582538 0.9510173758320533 
32.00030344582538 0.9433713978494623 
33.00030344582538 0.9414167613927292 
34.00030344582538 0.9339261725550435 
35.00030344582538 0.9309264362519201 
36.00030344582538 0.922126694828469 
37.00030344582538 0.9170294905273938 
38.00030344582538 0.9064872555043524 
39.00030344582538 0.9003195135688683 
40.00030344582538 0.8904584869431643 
41.00030344582538 0.8793431925243215 
42.00030344582538 0.873685069124424 
43.00030344582538 0.8620024091141834 
44.00030344582538 0.8539712903225808 
45.00030344582538 0.8464134152585764 
46.00030344582538 0.8372780363543265 
47.00030344582538 0.8352930651561702 
48.00030344582538 0.8230243599590372 
49.00030344582538 0.817213305811572 
50.00030344582538 0.8117198879928316 
51.00030344582538 0.8007277508960572 
52.00030344582538 0.8015316397849461 
53.00030344582538 0.7967908640552994 
54.00030344582538 0.7839229749103941 
55.00030344582538 0.7832422964669741 
56.00030344582538 0.7758356726830518 
57.00030344582538 0.7720342140296979 
58.00030344582538 0.768653100358423 
59.00030344582538 0.7610405273937535 
60.00030344582538 0.7682705971582183 
61.00030344582538 0.7629764112903226 
62.00030344582538 0.7619408435739888 
63.00030344582538 0.7648643375576039 
64.00030344582538 0.7599708230926779 
65.00030344582538 0.7599056330005122 
66.00030344582538 0.7653488223246289 
67.00030344582538 0.7692528673835126 
68.00030344582538 0.7675515623399897 
69.00030344582538 0.7715986251920124 
70.00030344582538 0.7719790610599079 
71.00030344582538 0.7703971985407065 
72.00030344582538 0.7726220922939069 
73.00030344582538 0.7730819937275986 
74.00030344582538 0.7736753718637992 
75.00030344582538 0.7710846223758321 
76.00030344582538 0.7665327067332312 
77.00030344582538 0.7715170506912444 
78.00030344582538 0.7715564464925756 
79.00030344582538 0.7683550633640555 
80.00030344582538 0.7734273015873017 
81.00030344582538 0.766041680747568 
82.00030344582538 0.764946237199181 
83.00030344582538 0.7660688146441373 
84.00030344582538 0.768320873015873 
85.00030344582538 0.7636596166154634 
86.00030344582538 0.7648175723246289 
87.00030344582538 0.7655020430107529 
88.00030344582538 0.7573422516641066 
89.00030344582538 0.7608784786226319 
90.00030344582538 0.7523437147977471 
91.00030344582538 0.7492453481822837 
92.00030344582538 0.747421493215566 
93.00030344582538 0.7438068778801843 
94.00030344582538 0.7410433826164876 
95.00030344582538 0.7700029710701486 
96.00030344582538 0.8325992185099846 
97.00030344582538 0.7954979697900667 
98.00030344582538 0.9620380683563737 
99.00030344582538 0.9189190002560168 
100.00030344582538 0.8792687403993856 
101.00030344582538 1.0764234203789043 
102.00030344582538 1.0332085119047623 
103.00030344582538 1.099747909626218 
104.00030344582538 1.0645319514848948 
105.00030344582538 1.1934055926779332 
106.00030344582538 1.2759745878136186 
107.00030344582538 1.4497708422939082 
108.00030344582538 1.6980963645673324 
109.00030344582538 1.566917283666158 
110.00030344582538 1.6901201836917579 
111.00030344582538 1.9732219310035841 
112.00030344582538 2.131719425883259 
113.00030344582538 1.8540180094726084 
114.00030344582538 2.0575520730926846 
115.00030344582538 2.2853344316436317 
116.00030344582538 2.376347507680489 
117.00030344582538 2.7541805145929383 
118.00030344582538 2.432848639272911 
119.00030344582538 2.415143188044037 
120.00030344582538 2.5353744662058317 
121.00030344582538 2.9903403616231454 
122.00030344582538 2.774658035074241 
123.00030344582538 2.905969930235536 
124.00030344582538 2.7080320046082944 
125.00030344582538 3.2367078078597 
126.00030344582538 2.8546536091909878 
127.00030344582538 2.478217396953405 
128.00030344582538 3.158133294290831 
129.00030344582538 2.092339016897083 
130.00030344582538 2.9686209767025105 
131.00030344582538 2.84747527201741 
132.00030344582538 2.823683254608293 
133.00030344582538 2.45871142153098 
134.00030344582538 2.711633093958014 
135.00030344582538 2.3595636687147983 
136.00030344582538 2.295820179851508 
137.00030344582538 2.8180412660010186 
138.00030344582538 1.8228577976190459 
139.00030344582538 2.4588210183051755 
140.00030344582538 2.3385952246543735 
141.00030344582538 2.1611359959037366 
142.00030344582538 2.4202633947772645 
143.00030344582538 2.0349402361751197 
144.00030344582538 2.293267277265742 
145.00030344582538 2.2409552528161787 
146.00030344582538 2.022300152969788 
147.00030344582538 1.6238283986175124 
148.00030344582538 1.6362065437788 
149.00030344582538 1.893553278289816 
150.00030344582538 1.3028489560931868 
151.00030344582538 1.6509588088837672 
152.00030344582538 1.2583314964157695 
153.00030344582538 1.4481015975422393 
154.00030344582538 1.2863137967229923 
155.00030344582538 0.8876349513568865 
156.00030344582538 0.846525532514078 
157.00030344582538 0.5372865745007683 
158.00030344582538 0.66168666922683 
159.00030344582538 0.6026327265744998 
160.00030344582538 0.4851562058371735 
161.00030344582538 0.4624751894521251 
162.00030344582538 0.36824134408602155 
163.00030344582538 0.34777648489503343 
164.00030344582538 0.36146960573476733 
165.00030344582538 0.36104198924731185 
166.00030344582538 0.3759449897593447 
167.00030344582538 0.36838498207885323 
168.00030344582538 0.34663969534050193 
169.00030344582538 0.36948304915514596 
170.00030344582538 0.33204046850998464 
171.00030344582538 0.36487738607270903 
172.00030344582538 0.3666933640552996 
173.00030344582538 0.3574477291346647 
174.00030344582538 0.3339097926267283 
175.00030344582538 0.3566591884280598 
176.00030344582538 0.3317805376344087 
177.00030344582538 0.3236686328725037 
178.00030344582538 0.35684640040962684 
179.00030344582538 0.30766401177675373 
180.00030344582538 0.3397266461853563 
181.00030344582538 0.3231521070148491 
182.00030344582538 0.33552561955965166 
183.00030344582538 0.33438116999488005 
184.00030344582538 0.3243114260112653 
185.00030344582538 0.32958305171530955 
186.00030344582538 0.3322042524321555 
187.00030344582538 0.33598753968253897 
188.00030344582538 0.31309068612391144 
189.00030344582538 0.3251941193036349 
190.00030344582538 0.33944848182283704 
191.00030344582538 0.30363273681515573 
192.00030344582538 0.3301816564260107 
193.00030344582538 0.3073276190476192 
194.00030344582538 0.3239622324628779 
195.00030344582538 0.3160023297491039 
196.00030344582538 0.29270323860727077 
197.00030344582538 0.29271870199692807 
198.00030344582538 0.2758409959037379 
199.00030344582538 0.28406073476702487 
200.00030344582538 0.2820357603686634 
201.00030344582538 0.2766700230414745 
202.00030344582538 0.27453429595494117 
203.00030344582538 0.2691283691756272 
204.00030344582538 0.2698600358422939 
205.00030344582538 0.2702371326164874 
206.00030344582538 0.2704 
207.00030344582538 0.2704 
208.00030344582538 0.2704 
209.00030344582538 0.2704 
210.00030344582538 0.2704 
211.00030344582538 0.2704 
212.00030344582538 0.2704 
213.00030344582538 0.2704 
214.00030344582538 0.2704 
215.00030344582538 0.2704 
216.00030344582538 0.2704 
217.00030344582538 0.2704 
218.00030344582538 0.2704 
219.00030344582538 0.2704 
220.00030344582538 0.2704 
221.00030344582538 0.2704 
222.00030344582538 0.2704 
223.00030344582538 0.2704 
224.00030344582538 0.2704 
225.00030344582538 0.2704 
226.00030344582538 0.2704 
227.00030344582538 0.2704 
228.00030344582538 0.2704 
229.00030344582538 0.2704 
230.00030344582538 0.2704 
231.00030344582538 0.2704 
232.00030344582538 0.2704 
233.00030344582538 0.2704 
234.00030344582538 0.2704 
235.00030344582538 0.2704 
236.00030344582538 0.2704 
237.00030344582538 0.2704 
238.00030344582538 0.2704 
239.00030344582538 0.2704 
240.00030344582538 0.2704 
241.00030344582538 0.2704 
242.00030344582538 0.2704 
243.00030344582538 0.2704 
244.00030344582538 0.2704 
245.00030344582538 0.2704 
246.00030344582538 0.2704 
247.00030344582538 0.2704 
248.00030344582538 0.2704 
249.00030344582538 0.2704 
250.00030344582538 0.2704 
251.00030344582538 0.2704 
252.00030344582538 0.2704 
253.00030344582538 0.2704 
254.00030344582538 0.2704 
255.00030344582538 0.2704 
256.00030344582535 0.2704 
257.00030344582535 0.2704 
258.00030344582535 0.2704 
259.00030344582535 0.2704 
260.00030344582535 0.2704 
261.00030344582535 0.2704 
262.00030344582535 0.2704 
263.00030344582535 0.2704 
264.00030344582535 0.2704 
265.00030344582535 0.2704 
266.00030344582535 0.2704 
267.00030344582535 0.2704 
268.00030344582535 0.2704 
269.00030344582535 0.2704 
270.00030344582535 0.2704 
271.00030344582535 0.2704 
272.00030344582535 0.2704 
273.00030344582535 0.2704 
274.00030344582535 0.2704 
275.00030344582535 0.2704 
276.00030344582535 0.2704 
#####################################################################
# End of data export. Simulation finished at: 2017-05-25T11:20+0000 #
#####################################################################
