#####################################################################
# Alchemist log file - simulation started at: 2017-05-21T22:23+0000 #
#####################################################################
# random = 3.0, targets = 3.1622776601683795, density = 3.5589026259761294, gridShift = 0.0, perturbation = 0.5, connfactor = 0.1
#
# The columns have the following meaning: 
# time se[Mean] 
0.0 NaN 
1.0016359619213666 NaN 
2.001635961921367 1.0 
3.001635961921367 1.0 
4.001635961921367 1.0 
5.001635961921367 1.0 
6.001635961921367 1.0 
7.001635961921367 1.0 
8.001635961921366 1.0 
9.001635961921366 1.0 
10.001635961921366 1.0 
11.001635961921366 1.0 
12.001635961921366 1.0 
13.001635961921366 1.0 
14.001635961921366 1.0 
15.001635961921366 1.0 
16.001635961921366 1.0 
17.001635961921366 1.0 
18.001635961921366 1.0 
19.001635961921366 1.0 
20.001635961921366 1.0 
21.001635961921366 1.0 
22.001635961921366 1.0 
23.001635961921366 1.0 
24.001635961921366 1.0 
25.001635961921366 1.0 
26.001635961921366 1.0 
27.001635961921366 1.0 
28.001635961921366 1.0 
29.001635961921366 1.0 
30.001635961921366 1.0 
31.001635961921366 1.0 
32.001635961921366 1.0 
33.001635961921366 1.0 
34.001635961921366 1.0 
35.001635961921366 1.0 
36.001635961921366 1.0 
37.001635961921366 1.0 
38.001635961921366 1.0 
39.001635961921366 1.0 
40.001635961921366 1.0 
41.001635961921366 1.0 
42.001635961921366 1.0 
43.001635961921366 1.0 
44.001635961921366 1.0 
#####################################################################
# End of data export. Simulation finished at: 2017-05-21T22:24+0000 #
#####################################################################
