#####################################################################
# Alchemist log file - simulation started at: 2017-05-24T22:59+0000 #
#####################################################################
# random = 16.0, targets = 3.1622776601683795, density = 14.160781367816199, gridShift = 0.0, perturbation = 0.0, connfactor = 2.0
#
# The columns have the following meaning: 
# time se[Mean] 
0.0 NaN 
1.000419502192421 NaN 
2.000419502192421 1.0285084621721248 
3.000419502192421 1.054486899125456 
4.000419502192421 1.0710866314681438 
5.000419502192421 1.083041742962218 
6.000419502192421 1.079478475809341 
7.000419502192421 1.0861665422063085 
8.000419502192422 1.0940448109644858 
9.000419502192422 1.0938636741063297 
10.000419502192422 1.0884122654584747 
11.000419502192422 1.0812990859285605 
12.000419502192422 1.0815332812060272 
13.000419502192422 1.0879833747748444 
14.000419502192422 1.0841406374620186 
15.000419502192422 1.0922284017381214 
16.000419502192422 1.0825502352982321 
17.000419502192422 1.0820070620246907 
18.000419502192422 1.0786153930995372 
19.000419502192422 1.0639300410011574 
20.000419502192422 1.055117653036189 
21.000419502192422 1.0360451623858418 
22.000419502192422 1.0318828503910291 
23.000419502192422 1.0200996294847446 
24.000419502192422 1.02290694009524 
25.000419502192422 1.0138487483051106 
26.000419502192422 1.01399667856569 
27.000419502192422 0.9897917344340935 
28.000419502192422 0.9888863573680272 
29.000419502192422 0.9624684881043039 
30.000419502192422 0.9653492348173482 
31.000419502192422 0.9622878109833548 
32.00041950219242 0.9513218995724649 
33.00041950219242 0.9577950403265552 
34.00041950219242 0.9561451390232082 
35.00041950219242 0.9603359770549251 
36.00041950219242 0.9567153018768575 
37.00041950219242 0.9550186392274043 
38.00041950219242 0.9468050312738784 
39.00041950219242 0.9390337213059864 
40.00041950219242 0.9185359211415203 
41.00041950219242 0.9225664961305612 
42.00041950219242 0.9035062398757587 
43.00041950219242 0.8908233697877054 
44.00041950219242 0.8743633544941244 
45.00041950219242 0.8577909227557269 
46.00041950219242 0.8580685305700576 
47.00041950219242 0.8521392351310497 
48.00041950219242 0.8296418923547608 
49.00041950219242 0.8351925553786131 
50.00041950219242 0.826444864109919 
51.00041950219242 0.8133962259161809 
52.00041950219242 0.810373406542467 
53.00041950219242 0.7989226154955869 
54.00041950219242 0.7884282153467096 
55.00041950219242 0.7784226270966956 
56.00041950219242 0.766309167431718 
57.00041950219242 0.7528944067807144 
58.00041950219242 0.7344263648341695 
59.00041950219242 0.716823023376462 
60.00041950219242 0.7024614183901565 
61.00041950219242 0.6883087267346277 
62.00041950219242 0.6600876881694039 
63.00041950219242 0.6490803996769714 
64.00041950219241 0.6316847511833974 
65.00041950219241 0.6149165587176902 
66.00041950219241 0.5987781519616278 
67.00041950219241 0.5862163484701667 
68.00041950219241 0.5712404862531542 
69.00041950219241 0.555885240456901 
70.00041950219241 0.538634717940284 
71.00041950219241 0.5243232633038418 
72.00041950219241 0.5104414875100403 
73.00041950219241 0.4956884119954801 
74.00041950219241 0.4806991000822541 
75.00041950219241 0.46136731478281745 
76.00041950219241 0.4455707603991281 
77.00041950219241 0.42901730753503703 
78.00041950219241 0.4137977152096112 
79.00041950219241 0.3948295527755357 
80.00041950219241 0.37828261182197614 
81.00041950219241 0.35837227928080334 
82.00041950219241 0.34125945768867705 
83.00041950219241 0.3258357550430845 
84.00041950219241 0.31408856434871335 
85.00041950219241 0.29741399709454946 
86.00041950219241 0.28895279955979725 
87.00041950219241 0.2757366643781531 
88.00041950219241 0.2741382964357655 
89.00041950219241 0.27277152199290416 
90.00041950219241 0.30133519888981264 
91.00041950219241 0.30811829943920643 
92.00041950219241 0.3373724606881587 
93.00041950219241 0.3403891769621845 
94.00041950219241 0.3226194389662513 
95.00041950219241 0.31665261518666 
96.00041950219241 0.3635228040938075 
97.00041950219241 0.3858793183061589 
98.00041950219241 0.37856185381327756 
99.00041950219241 0.434068967585584 
100.00041950219241 0.4719768683362651 
101.00041950219241 0.4941702708950187 
102.00041950219241 0.5056003359062476 
103.00041950219241 0.5647137556860026 
104.00041950219241 0.5622378384098394 
105.00041950219241 0.5510916494900817 
106.00041950219241 0.5509136295395174 
107.00041950219241 0.5691487079736827 
108.00041950219241 0.6069296968595119 
109.00041950219241 0.5994498753432972 
110.00041950219241 0.6583874096142659 
111.00041950219241 0.7492098227325225 
112.00041950219241 0.8072278442682398 
113.00041950219241 0.8517380807926661 
114.00041950219241 0.9064641332516897 
115.00041950219241 0.9499345621388539 
116.00041950219241 0.9813177438472864 
117.00041950219241 1.0565133953895003 
118.00041950219241 1.126770177008484 
119.00041950219241 1.1970543528856499 
120.00041950219241 1.2975126105579518 
121.00041950219241 1.3326455552120935 
122.00041950219241 1.3677998618816922 
123.00041950219241 1.4065759005183438 
124.00041950219241 1.415188573962728 
125.00041950219241 1.3412150474213365 
126.00041950219241 1.3110516347688972 
127.00041950219241 1.2543336849870974 
128.00041950219241 1.1853818107281895 
129.00041950219241 1.13008879711154 
130.00041950219241 1.1537932458067897 
131.00041950219241 1.1451721854413495 
132.00041950219241 1.1803620321897705 
133.00041950219241 1.1286545371533123 
134.00041950219241 1.0747954949342784 
135.00041950219241 1.0029885580540876 
136.00041950219241 0.9139316906430742 
137.00041950219241 0.8119648737612649 
138.00041950219241 0.6862929111460114 
139.00041950219241 0.5857494439792853 
140.00041950219241 0.4701342432241777 
141.00041950219241 0.36456902758813636 
142.00041950219241 0.21878596838781678 
143.00041950219241 0.1232784277538321 
144.00041950219241 0.05792468741862269 
145.00041950219241 0.027768772275393313 
146.00041950219241 0.007660318929259678 
147.00041950219241 0.0026316738019565022 
148.00041950219241 0.0026316738019565022 
149.00041950219241 0.002633403898972392 
150.00041950219241 0.0026316738019565022 
151.00041950219241 0.0026316738019565022 
152.00041950219241 0.002633403898972392 
153.00041950219241 0.0026316738019565022 
154.00041950219241 0.0026316738019565022 
155.00041950219241 0.002633403898972392 
156.00041950219241 0.0026316738019565022 
157.00041950219241 0.002633403898972392 
158.00041950219241 0.0026316738019565022 
159.00041950219241 0.002633403898972392 
160.00041950219241 0.002633403898972392 
161.00041950219241 0.002633403898972392 
162.00041950219241 0.002633403898972392 
163.00041950219241 0.002633403898972392 
164.00041950219241 0.002633403898972392 
165.00041950219241 0.002633403898972392 
166.00041950219241 0.002633403898972392 
167.00041950219241 0.002633403898972392 
168.00041950219241 0.002633403898972392 
169.00041950219241 0.002633403898972392 
170.00041950219241 0.002633403898972392 
171.00041950219241 0.002633403898972392 
172.00041950219241 0.002633403898972392 
173.00041950219241 0.002633403898972392 
174.00041950219241 0.002633403898972392 
175.00041950219241 0.002633403898972392 
176.00041950219241 0.002633403898972392 
177.00041950219241 0.002633403898972392 
178.00041950219241 0.002633403898972392 
179.00041950219241 0.002633403898972392 
180.00041950219241 0.002633403898972392 
181.00041950219241 0.002633403898972392 
182.00041950219241 0.002633403898972392 
183.00041950219241 0.002633403898972392 
184.00041950219241 0.002633403898972392 
185.00041950219241 0.002633403898972392 
186.00041950219241 0.002633403898972392 
187.00041950219241 0.002633403898972392 
188.00041950219241 0.002633403898972392 
189.00041950219241 0.002633403898972392 
190.00041950219241 0.002633403898972392 
191.00041950219241 0.002633403898972392 
192.00041950219241 0.002633403898972392 
193.00041950219241 0.002633403898972392 
194.00041950219241 0.002633403898972392 
195.00041950219241 0.002633403898972392 
196.00041950219241 0.002633403898972392 
197.00041950219241 0.002633403898972392 
198.00041950219241 0.002633403898972392 
199.00041950219241 0.002633403898972392 
200.00041950219241 0.002633403898972392 
201.00041950219241 0.002633403898972392 
202.00041950219241 0.002633403898972392 
203.00041950219241 0.002633403898972392 
204.00041950219241 0.002633403898972392 
205.00041950219241 0.002633403898972392 
206.00041950219241 0.002633403898972392 
207.00041950219241 0.002633403898972392 
208.00041950219241 0.002633403898972392 
209.00041950219241 0.002633403898972392 
210.00041950219241 0.002633403898972392 
211.00041950219241 0.002633403898972392 
212.00041950219241 0.002633403898972392 
213.00041950219241 0.002633403898972392 
214.00041950219241 0.002633403898972392 
215.00041950219241 0.002633403898972392 
216.00041950219241 0.002633403898972392 
217.00041950219241 0.002633403898972392 
218.00041950219241 0.002633403898972392 
219.00041950219241 0.002633403898972392 
220.00041950219241 0.002633403898972392 
221.00041950219241 0.002633403898972392 
222.00041950219241 0.002633403898972392 
223.00041950219241 0.002633403898972392 
224.00041950219241 0.002633403898972392 
225.00041950219241 0.002633403898972392 
226.00041950219241 0.002633403898972392 
227.00041950219241 0.002633403898972392 
228.00041950219241 0.002633403898972392 
229.00041950219241 0.002633403898972392 
230.00041950219241 0.002633403898972392 
231.00041950219241 0.002633403898972392 
232.00041950219241 0.002633403898972392 
233.00041950219241 0.002633403898972392 
234.00041950219241 0.002633403898972392 
235.00041950219241 0.002633403898972392 
236.00041950219241 0.002633403898972392 
237.00041950219241 0.002633403898972392 
238.00041950219241 0.002633403898972392 
239.00041950219241 0.002633403898972392 
240.00041950219241 0.002633403898972392 
241.00041950219241 0.002633403898972392 
242.00041950219241 0.002633403898972392 
243.00041950219241 0.002633403898972392 
244.00041950219241 0.002633403898972392 
245.00041950219241 0.002633403898972392 
246.00041950219241 0.002633403898972392 
#####################################################################
# End of data export. Simulation finished at: 2017-05-24T23:02+0000 #
#####################################################################
