#####################################################################
# Alchemist log file - simulation started at: 2017-05-22T18:10+0000 #
#####################################################################
# random = 4.0, targets = 10.0, density = 7.099073319511142, gridShift = 0.0, perturbation = 0.5, connfactor = 0.5
#
# The columns have the following meaning: 
# time se[Mean] 
0.0 NaN 
1.0004793365590676 NaN 
2.0004793365590676 1.0 
3.0004793365590676 0.9995408163265306 
4.000479336559067 0.99828125 
5.000479336559067 0.9950095663265306 
6.000479336559067 0.9914012896825396 
7.000479336559067 0.9854666241496599 
8.000479336559067 0.98546875 
9.000479336559067 0.9784421060090702 
10.000479336559067 0.9806019699546485 
11.000479336559067 0.9777118764172336 
12.000479336559067 0.9813523951247165 
13.000479336559067 0.9836316609977325 
14.000479336559067 0.9867825255102042 
15.000479336559067 0.9896931689342404 
16.000479336559067 0.9915911989795919 
17.000479336559067 0.9927643140589568 
18.000479336559067 0.9929680413832199 
19.000479336559067 0.9934899376417234 
20.000479336559067 0.9900194869614513 
21.000479336559067 0.9914505385487529 
22.000479336559067 0.9860452097505669 
23.000479336559067 0.9837397250566893 
24.000479336559067 0.9813180272108846 
25.000479336559067 0.9797611961451247 
26.000479336559067 0.9735101332199545 
27.000479336559067 0.9741121031746034 
28.000479336559067 0.9708549461451245 
29.000479336559067 0.9673345379818598 
30.000479336559067 0.965857780612245 
31.000479336559067 0.9590816326530611 
32.00047933655907 0.9612213010204083 
33.00047933655907 0.9579241071428569 
34.00047933655907 0.9590561224489793 
35.00047933655907 0.9597512755102043 
36.00047933655907 0.9611447704081634 
37.00047933655907 0.9618750000000003 
38.00047933655907 0.9678125000000002 
39.00047933655907 0.9651945153061222 
40.00047933655907 0.9817442602040816 
41.00047933655907 0.9752295918367345 
42.00047933655907 0.9813647959183672 
43.00047933655907 0.9807015306122449 
44.00047933655907 0.9799202806122448 
45.00047933655907 1.0056377551020408 
46.00047933655907 0.9992889030612245 
47.00047933655907 0.9966135204081633 
48.00047933655907 1.0000988520408163 
49.00047933655907 0.9882621173469387 
50.00047933655907 1.0135905612244898 
51.00047933655907 0.9789987244897961 
52.00047933655907 1.0065082908163265 
53.00047933655907 0.9698979591836736 
54.00047933655907 0.9904496173469388 
55.00047933655907 0.9850573979591836 
56.00047933655907 0.9415880102040813 
57.00047933655907 0.9714221938775509 
58.00047933655907 0.950105229591837 
59.00047933655907 0.9408290816326529 
60.00047933655907 0.9346077806122453 
61.00047933655907 0.9061766581632656 
62.00047933655907 0.9128954081632651 
63.00047933655907 0.8858832908163263 
64.00047933655907 0.8616964285714283 
65.00047933655907 0.8853348214285709 
66.00047933655907 0.8435714285714287 
67.00047933655907 0.7880420918367346 
68.00047933655907 0.8156058673469384 
69.00047933655907 0.7853188775510201 
70.00047933655907 0.7694802295918372 
71.00047933655907 0.734776785714286 
72.00047933655907 0.7184279336734695 
73.00047933655907 0.7108386479591836 
74.00047933655907 0.6985650510204081 
75.00047933655907 0.6647448979591837 
76.00047933655907 0.6752232142857142 
77.00047933655907 0.6483386479591836 
78.00047933655907 0.6231823979591836 
79.00047933655907 0.6207812500000002 
80.00047933655907 0.5934406887755105 
81.00047933655907 0.5909438775510205 
82.00047933655907 0.5550892857142858 
83.00047933655907 0.5500510204081634 
84.00047933655907 0.5355070153061225 
85.00047933655907 0.5949131944444446 
86.00047933655907 0.5921230158730159 
87.00047933655907 0.7806986961451245 
88.00047933655907 0.7926541241496584 
89.00047933655907 0.9068714569160987 
90.00047933655907 1.1406150793650807 
91.00047933655907 1.1228401360544225 
92.00047933655907 1.7110406037415011 
93.00047933655907 1.7108652210884325 
94.00047933655907 1.8012127976190524 
95.00047933655907 2.3673019416099805 
96.00047933655907 2.3821552579365144 
97.00047933655907 2.866184807256232 
98.00047933655907 2.695946003401362 
99.00047933655907 3.136049461451251 
100.00047933655907 3.2245199121315244 
101.00047933655907 3.2888548752834526 
102.00047933655907 3.9196524234693912 
103.00047933655907 2.988931051587308 
104.00047933655907 4.050773455215417 
105.00047933655907 3.9223706774376406 
106.00047933655907 3.577340561224491 
107.00047933655907 4.1199688208616765 
108.00047933655907 3.864167375283446 
109.00047933655907 4.271373299319727 
110.00047933655907 4.265284863945578 
111.00047933655907 4.060899589002267 
112.00047933655907 5.022136479591841 
113.00047933655907 4.631992276077097 
114.00047933655907 3.925192743764173 
115.00047933655907 5.083236961451255 
116.00047933655907 4.522497874149662 
117.00047933655907 4.107153840702949 
118.00047933655907 4.230179634353743 
119.00047933655907 4.354030612244898 
120.00047933655907 4.361595450680271 
121.00047933655907 4.2003645833333305 
122.00047933655907 4.466034580498867 
123.00047933655907 4.294495110544216 
124.00047933655907 4.57839994331065 
125.00047933655907 4.248337230725625 
126.00047933655907 3.845132865646256 
127.00047933655907 3.4361082766439917 
128.00047933655907 3.2310452097505626 
129.00047933655907 2.1964831349206335 
130.00047933655907 1.7890214002267582 
131.00047933655907 1.5810969387755096 
132.00047933655907 1.1786313066893424 
133.00047933655907 1.0079602465986397 
134.00047933655907 0.8433000283446705 
135.00047933655907 0.9171534863945582 
136.00047933655907 0.8603146258503402 
137.00047933655907 0.9196885629251702 
138.00047933655907 0.8785898526077094 
139.00047933655907 0.9307840844671198 
140.00047933655907 0.9036972080498865 
141.00047933655907 0.9286128826530604 
142.00047933655907 0.9346311649659861 
143.00047933655907 0.9359995039682535 
144.00047933655907 0.9160019841269827 
145.00047933655907 0.9508180980725636 
146.00047933655907 0.7399787414965997 
147.00047933655907 0.5762769274376417 
148.00047933655907 0.6223370181405901 
149.00047933655907 0.5479793792517004 
150.00047933655907 0.51641156462585 
151.00047933655907 0.479118480725624 
152.00047933655907 0.5084212018140585 
153.00047933655907 0.5138732993197277 
154.00047933655907 0.5201544784580496 
155.00047933655907 0.5122080498866212 
156.00047933655907 0.5219005102040805 
157.00047933655907 0.5059566326530596 
158.00047933655907 0.4272080498866214 
159.00047933655907 0.2861777210884345 
160.00047933655907 0.19576247165532912 
161.00047933655907 0.14866071428571476 
162.00047933655907 0.058877551020408425 
163.00047933655907 0.01448979591836736 
164.00047933655907 0.009987244897959184 
165.00047933655907 0.01 
166.00047933655907 0.01 
167.00047933655907 0.01 
168.00047933655907 0.01 
169.00047933655907 0.01 
170.00047933655907 0.01 
171.00047933655907 0.01 
172.00047933655907 0.01 
173.00047933655907 0.01 
174.00047933655907 0.01 
175.00047933655907 0.01 
176.00047933655907 0.01 
177.00047933655907 0.01 
178.00047933655907 0.01 
179.00047933655907 0.01 
180.00047933655907 0.01 
181.00047933655907 0.01 
182.00047933655907 0.01 
183.00047933655907 0.01 
184.00047933655907 0.01 
185.00047933655907 0.01 
186.00047933655907 0.01 
187.00047933655907 0.01 
188.00047933655907 0.01 
189.00047933655907 0.01 
190.00047933655907 0.01 
191.00047933655907 0.01 
192.00047933655907 0.01 
193.00047933655907 0.01 
194.00047933655907 0.01 
195.00047933655907 0.01 
196.00047933655907 0.01 
197.00047933655907 0.01 
198.00047933655907 0.01 
199.00047933655907 0.01 
200.00047933655907 0.01 
201.00047933655907 0.01 
202.00047933655907 0.01 
203.00047933655907 0.01 
204.00047933655907 0.01 
205.00047933655907 0.01 
206.00047933655907 0.01 
207.00047933655907 0.01 
208.00047933655907 0.01 
209.00047933655907 0.01 
210.00047933655907 0.01 
211.00047933655907 0.01 
212.00047933655907 0.01 
213.00047933655907 0.01 
214.00047933655907 0.01 
215.00047933655907 0.01 
216.00047933655907 0.01 
217.00047933655907 0.01 
218.00047933655907 0.01 
219.00047933655907 0.01 
220.00047933655907 0.01 
221.00047933655907 0.01 
222.00047933655907 0.01 
223.00047933655907 0.01 
224.00047933655907 0.01 
225.00047933655907 0.01 
226.00047933655907 0.01 
#####################################################################
# End of data export. Simulation finished at: 2017-05-22T18:13+0000 #
#####################################################################
