#####################################################################
# Alchemist log file - simulation started at: 2017-05-19T19:58+0000 #
#####################################################################
# random = 0.0, targets = 3.1622776601683795, density = 0.6332893950589894, gridShift = 0.0, perturbation = 0.0, connfactor = 0.75
#
# The columns have the following meaning: 
# time se[Mean] 
0.0 NaN 
1.0011337332612453 NaN 
2.0011337332612453 0.9964045954812736 
3.0011337332612453 1.0 
4.001133733261245 0.9898310703944381 
5.001133733261245 0.907010429305565 
6.001133733261245 0.8445745842092235 
7.001133733261245 0.7692407509045159 
8.001133733261245 0.6173205022026255 
9.001133733261245 0.6362834525486304 
10.001133733261245 0.5911297281121111 
11.001133733261245 0.5053205987823862 
12.001133733261245 0.5089295377264912 
13.001133733261245 0.44367080802842596 
14.001133733261245 0.429410577965485 
15.001133733261245 0.3324502274108009 
16.001133733261245 0.29063705274861523 
17.001133733261245 0.33743809186417156 
18.001133733261245 0.21335503447642543 
19.001133733261245 0.2674264019159336 
20.001133733261245 0.27877954054588033 
21.001133733261245 0.13334029768650743 
22.001133733261245 0.17227465012856533 
23.001133733261245 0.11571191453091564 
24.001133733261245 0.07079444235746782 
25.001133733261245 0.04704533718417026 
26.001133733261245 0.018545612403773493 
27.001133733261245 0.012499110055766751 
28.001133733261245 0.005907523213794261 
29.001133733261245 0.002644240952054583 
30.001133733261245 0.0026406286010271863 
31.001133733261245 0.002633403898972392 
32.00113373326124 0.002633403898972392 
33.00113373326124 0.002633403898972392 
34.00113373326124 0.002633403898972392 
35.00113373326124 0.002633403898972392 
36.00113373326124 0.002633403898972392 
37.00113373326124 0.002633403898972392 
38.00113373326124 0.002633403898972392 
39.00113373326124 0.002633403898972392 
40.00113373326124 0.002633403898972392 
41.00113373326124 0.002633403898972392 
42.00113373326124 0.002633403898972392 
43.00113373326124 0.002633403898972392 
44.00113373326124 0.002633403898972392 
45.00113373326124 0.002633403898972392 
46.00113373326124 0.002633403898972392 
47.00113373326124 0.002633403898972392 
#####################################################################
# End of data export. Simulation finished at: 2017-05-19T19:59+0000 #
#####################################################################
