#####################################################################
# Alchemist log file - simulation started at: 2017-05-21T03:09+0000 #
#####################################################################
# random = 2.0, targets = 1.0, density = 0.3174802103936399, gridShift = 0.0, perturbation = 0.5, connfactor = 1.0
#
# The columns have the following meaning: 
# time se[Mean] 
0.0 NaN 
1.003288451303821 NaN 
2.003288451303821 1.2295918367346939 
3.003288451303821 1.4081632653061227 
4.0032884513038205 1.5357142857142858 
5.0032884513038205 1.4274376417233559 
6.0032884513038205 1.1275510204081631 
7.0032884513038205 0.9683956916099773 
8.00328845130382 0.967828798185941 
9.00328845130382 0.848639455782313 
10.00328845130382 0.8197278911564626 
11.00328845130382 0.7328514739229025 
12.00328845130382 0.5779478458049887 
13.00328845130382 0.5379818594104309 
14.00328845130382 0.41907596371882094 
15.00328845130382 0.33886054421768713 
16.00328845130382 0.3544501133786849 
17.00328845130382 0.19345238095238101 
18.00328845130382 0.9098639455782318 
19.00328845130382 0.4505385487528347 
20.00328845130382 1.9611678004535162 
21.00328845130382 1.5110544217687085 
22.00328845130382 2.095379818594106 
23.00328845130382 2.0780895691609995 
24.00328845130382 1.1962868480725632 
25.00328845130382 1.0184240362811803 
26.00328845130382 0.378826530612245 
27.00328845130382 1.4172335600907052E-4 
28.00328845130382 0.1451247165532882 
29.00328845130382 1.232595164407831E-32 
30.00328845130382 1.232595164407831E-32 
31.00328845130382 1.232595164407831E-32 
32.00328845130382 1.232595164407831E-32 
33.00328845130382 1.232595164407831E-32 
34.00328845130382 1.232595164407831E-32 
35.00328845130382 1.232595164407831E-32 
36.00328845130382 1.232595164407831E-32 
37.00328845130382 1.232595164407831E-32 
38.00328845130382 1.232595164407831E-32 
39.00328845130382 1.232595164407831E-32 
#####################################################################
# End of data export. Simulation finished at: 2017-05-21T03:09+0000 #
#####################################################################
