#####################################################################
# Alchemist log file - simulation started at: 2017-05-25T21:46+0000 #
#####################################################################
# random = 19.0, targets = 3.1622776601683795, density = 0.05649405772326896, gridShift = 1.0, perturbation = 0.0, connfactor = 1.5
#
# The columns have the following meaning: 
# time se[Mean] 
0.0 NaN 
1.029399693434633 NaN 
2.029399693434633 1.3355260306407855 
3.029399693434633 1.509813178273152 
4.029399693434633 1.7526309959767172 
5.029399693434633 1.697532387805841 
6.029399693434633 1.7336617864440285 
7.029399693434633 1.3507673537605236 
8.029399693434634 1.1477521993190938 
9.029399693434634 0.6692621711542464 
10.029399693434634 0.46674053915164804 
11.029399693434634 0.31922631847677047 
12.029399693434634 0.2516278307020071 
13.029399693434634 0.16275734973630718 
14.029399693434634 0.1214197381608993 
15.029399693434634 0.07282703497297713 
16.029399693434634 0.06909890776780095 
17.029399693434634 0.05495411389595806 
18.029399693434634 0.03996881615528667 
19.029399693434634 0.019190345403181916 
20.029399693434634 0.01091187465107717 
21.029399693434634 0.0026334038989724207 
22.029399693434634 0.0026334038989724207 
23.029399693434634 0.0026334038989724207 
24.029399693434634 0.0026334038989724207 
#####################################################################
# End of data export. Simulation finished at: 2017-05-25T21:46+0000 #
#####################################################################
