#####################################################################
# Alchemist log file - simulation started at: 2017-05-23T13:31+0000 #
#####################################################################
# random = 5.0, targets = 31.622776601683793, density = 1.2632455339402642, gridShift = 0.0, perturbation = 0.5, connfactor = 0.1
#
# The columns have the following meaning: 
# time se[Mean] 
0.0 NaN 
1.0052461206074068 NaN 
2.005246120607407 1.0 
3.005246120607407 1.0 
4.005246120607406 0.9996316831171398 
5.005246120607406 0.9988950493514195 
6.005246120607406 0.9970534649371187 
7.005246120607406 0.995580197405678 
8.005246120607406 0.9918970285770764 
9.005246120607406 0.9915287116942162 
10.005246120607406 0.9918970285770764 
11.005246120607406 0.9908039122480226 
12.005246120607406 0.9886295139094414 
13.005246120607406 0.9864196126122804 
14.005246120607406 0.9813341821693979 
15.005246120607406 0.980585714084151 
16.005246120607406 0.9794570947965172 
17.005246120607406 0.9696190478350325 
18.005246120607406 0.971781611854087 
19.005246120607406 0.9659122103673776 
20.005246120607406 0.9614924077730556 
21.005246120607406 0.9629183380263897 
22.005246120607406 0.9545772272353988 
23.005246120607406 0.9507387592754164 
24.005246120607406 0.9387721982759223 
25.005246120607406 0.9243769063176491 
26.005246120607406 0.9099149673748202 
27.005246120607406 0.8901089064363067 
28.005246120607406 0.8634837924938842 
29.005246120607406 0.8635473230241215 
30.005246120607406 0.824739934874905 
31.005246120607406 0.8159491199419023 
32.00524612060741 0.8143811778542487 
33.00524612060741 0.7754332308482474 
34.00524612060741 0.7829650384795745 
35.00524612060741 0.7679869589094271 
36.00524612060741 0.7679884118869619 
37.00524612060741 0.756390167770328 
38.00524612060741 0.7615671563151052 
39.00524612060741 0.7653819556360345 
40.00524612060741 0.7409771243327649 
41.00524612060741 0.7791691278665966 
42.00524612060741 0.7696551769641838 
43.00524612060741 0.7770302324865954 
44.00524612060741 0.7967090218653855 
45.00524612060741 0.7914062147384195 
46.00524612060741 0.8034406652007551 
47.00524612060741 0.7972828811128025 
48.00524612060741 0.8069832751725718 
49.00524612060741 0.8081843533549001 
50.00524612060741 0.8101812369005817 
51.00524612060741 0.8179557533318292 
52.00524612060741 0.8166481662737614 
53.00524612060741 0.8192633403898971 
54.00524612060741 0.8192633403898971 
55.00524612060741 0.8192633403898971 
56.00524612060741 0.8192633403898971 
57.00524612060741 0.8192633403898971 
58.00524612060741 0.8192633403898971 
59.00524612060741 0.8192633403898971 
60.00524612060741 0.8192633403898971 
61.00524612060741 0.8192633403898971 
62.00524612060741 0.8192633403898971 
63.00524612060741 0.8192633403898971 
64.00524612060741 0.8192633403898971 
65.00524612060741 0.8192633403898971 
66.00524612060741 0.8192633403898971 
67.00524612060741 0.8192633403898971 
68.00524612060741 0.8192633403898971 
69.00524612060741 0.8192633403898971 
70.00524612060741 0.8192633403898971 
71.00524612060741 0.8192633403898971 
72.00524612060741 0.8192633403898971 
73.00524612060741 0.8192633403898971 
74.00524612060741 0.8192633403898971 
75.00524612060741 0.8192633403898971 
76.00524612060741 0.8192633403898971 
#####################################################################
# End of data export. Simulation finished at: 2017-05-23T13:32+0000 #
#####################################################################
