#####################################################################
# Alchemist log file - simulation started at: 2017-05-25T10:57+0000 #
#####################################################################
# random = 8.0, targets = 3.1622776601683795, density = 7.099073319511142, gridShift = 1.0, perturbation = 0.5, connfactor = 0.1
#
# The columns have the following meaning: 
# time se[Mean] 
0.0 NaN 
1.0009686244946094 NaN 
2.000968624494609 1.0 
3.000968624494609 1.0 
4.000968624494609 1.0 
5.000968624494609 1.0 
6.000968624494609 1.0 
7.000968624494609 1.0 
8.00096862449461 1.0 
9.00096862449461 1.0 
10.00096862449461 1.0 
11.00096862449461 1.0 
12.00096862449461 1.0 
13.00096862449461 1.0 
14.00096862449461 1.0 
15.00096862449461 1.0 
16.00096862449461 1.0 
17.00096862449461 1.0 
18.00096862449461 1.0 
19.00096862449461 1.0 
20.00096862449461 1.0 
21.00096862449461 1.0 
22.00096862449461 1.0 
23.00096862449461 1.0 
24.00096862449461 1.0 
25.00096862449461 1.0 
26.00096862449461 1.0 
27.00096862449461 1.0 
28.00096862449461 1.0 
29.00096862449461 1.0 
30.00096862449461 1.0 
31.00096862449461 1.0 
32.00096862449461 1.0 
33.00096862449461 1.0 
34.00096862449461 1.0 
35.00096862449461 1.0 
36.00096862449461 1.0 
37.00096862449461 1.0 
38.00096862449461 1.0 
39.00096862449461 1.0 
40.00096862449461 1.0 
41.00096862449461 1.0 
42.00096862449461 1.0 
43.00096862449461 1.0 
44.00096862449461 1.0 
45.00096862449461 1.0 
46.00096862449461 1.0 
47.00096862449461 1.0 
48.00096862449461 1.0006061683022618 
49.00096862449461 1.0018185049067856 
50.00096862449461 1.0012123366045238 
51.00096862449461 1.0078801879294044 
52.00096862449461 1.005455514720357 
53.00096862449461 1.0066678513248808 
54.00096862449461 1.0066678513248808 
55.00096862449461 1.0066678513248806 
56.00096862449461 1.0066678513248806 
57.00096862449461 1.0066678513248806 
58.00096862449461 1.0066678513248806 
59.00096862449461 1.010911029440714 
60.00096862449461 1.0060616830226188 
61.00096862449461 1.0060616830226188 
62.00096862449461 1.010304861138452 
63.00096862449461 1.0060616830226188 
64.00096862449462 1.010304861138452 
65.00096862449462 1.0115171977429758 
66.00096862449462 1.010304861138452 
67.00096862449462 1.0096986928361902 
68.00096862449462 1.010304861138452 
69.00096862449462 1.0127295343474996 
70.00096862449462 1.0127295343474996 
71.00096862449462 1.010911029440714 
72.00096862449462 1.015760375858809 
73.00096862449462 1.0121233660452376 
74.00096862449462 1.0163665441610708 
75.00096862449462 1.010911029440714 
76.00096862449462 1.0133357026497614 
77.00096862449462 1.0151542075565472 
78.00096862449462 1.015760375858809 
79.00096862449462 1.0115171977429758 
80.00096862449462 1.0133357026497614 
81.00096862449462 1.0096986928361902 
82.00096862449462 1.0127295343474996 
83.00096862449462 1.0096986928361902 
84.00096862449462 1.0096986928361902 
85.00096862449462 1.010304861138452 
86.00096862449462 1.0060616830226188 
87.00096862449462 1.0078801879294044 
88.00096862449462 1.004849346418095 
89.00096862449462 1.004849346418095 
90.00096862449462 1.0024246732090476 
91.00096862449462 1.001145998085841 
92.00096862449462 0.9980859558031422 
93.00096862449462 0.9983592468537766 
94.00096862449462 0.9847200455395744 
95.00096862449462 0.9755893764159363 
96.00096862449462 0.9809515433468521 
97.00096862449462 0.9680410588957422 
98.00096862449462 0.9631096778229543 
99.00096862449462 0.9543883529461611 
100.00096862449462 0.9462731963716299 
101.00096862449462 0.9387642080993592 
102.00096862449462 0.9223044939646442 
103.00096862449462 0.9172628843081917 
104.00096862449462 0.9228679568601376 
105.00096862449462 0.896780449224974 
106.00096862449462 0.8911427997427928 
107.00096862449462 0.8868614770372505 
108.00096862449462 0.8595087989142589 
109.00096862449462 0.8568457809012406 
110.00096862449462 0.9809664104562426 
111.00096862449462 1.2427096330260228 
112.00096862449462 1.0797193054208534 
113.00096862449462 2.5811276370541774 
114.00096862449462 2.0240065514174646 
115.00096862449462 2.2780608424537885 
116.00096862449462 2.260708164330804 
117.00096862449462 2.2509725115631114 
118.00096862449462 2.2284882521530753 
119.00096862449462 2.227024066109184 
120.00096862449462 2.192461515377116 
121.00096862449462 3.13904294904604 
122.00096862449462 2.0356925571026907 
123.00096862449462 2.011224538818262 
124.00096862449462 2.945181099063876 
125.00096862449462 1.9666407242906867 
126.00096862449462 2.9118827119772033 
127.00096862449462 3.1771257065061365 
128.00096862449462 2.8758728559954654 
129.00096862449462 2.7304578551812537 
130.00096862449462 2.863592172958536 
131.00096862449462 3.389337859523755 
132.00096862449462 3.3865342274974646 
133.00096862449462 2.9571852927071287 
134.00096862449462 4.0614151440033766 
135.00096862449462 3.223812630125868 
136.00096862449462 4.177256369858667 
137.00096862449462 3.072617174315568 
138.00096862449462 3.4856525766439383 
139.00096862449462 4.022783790757172 
140.00096862449462 4.303318052881281 
141.00096862449462 3.1911361074774787 
142.00096862449462 4.2929784233119666 
143.00096862449462 4.155485131175726 
144.00096862449462 4.564564151074248 
145.00096862449462 4.018214487707396 
146.00096862449462 3.885233103920551 
147.00096862449462 4.166458945160495 
148.00096862449462 2.652070414398499 
149.00096862449462 2.6550438612094585 
150.00096862449462 2.2445624329686535 
151.00096862449462 2.108098158016884 
152.00096862449462 1.8334084979068974 
153.00096862449462 1.4220881242193553 
154.00096862449462 1.5583555751157088 
155.00096862449462 1.8373142379540615 
156.00096862449462 1.1487333492747314 
157.00096862449462 1.425384319805383 
158.00096862449462 1.1517067960856735 
159.00096862449462 1.0149028915645892 
160.00096862449462 1.0152425211339045 
161.00096862449462 0.7412321201625657 
162.00096862449462 0.6032361359900213 
163.00096862449462 0.8798871065206789 
164.00096862449462 0.6051906940930182 
165.00096862449462 0.4675444679663241 
166.00096862449462 0.4675444679663241 
167.00096862449462 0.4675444679663241 
168.00096862449462 0.4675444679663241 
169.00096862449462 0.4675444679663241 
170.00096862449462 0.4675444679663241 
171.00096862449462 0.4675444679663241 
172.00096862449462 0.4675444679663241 
173.00096862449462 0.4675444679663241 
174.00096862449462 0.4675444679663241 
175.00096862449462 0.4675444679663241 
176.00096862449462 0.4675444679663241 
177.00096862449462 0.4675444679663241 
178.00096862449462 0.4675444679663241 
179.00096862449462 0.4675444679663241 
180.00096862449462 0.4675444679663241 
181.00096862449462 0.4675444679663241 
182.00096862449462 0.4675444679663241 
183.00096862449462 0.4675444679663241 
184.00096862449462 0.4675444679663241 
185.00096862449462 0.4675444679663241 
186.00096862449462 0.4675444679663241 
187.00096862449462 0.4675444679663241 
188.00096862449462 0.4675444679663241 
189.00096862449462 0.4675444679663241 
190.00096862449462 0.4675444679663241 
191.00096862449462 0.4675444679663241 
192.00096862449462 0.4675444679663241 
193.00096862449462 0.4675444679663241 
194.00096862449462 0.4675444679663241 
195.00096862449462 0.4675444679663241 
196.00096862449462 0.4675444679663241 
197.00096862449462 0.4675444679663241 
198.00096862449462 0.4675444679663241 
199.00096862449462 0.4675444679663241 
200.00096862449462 0.4675444679663241 
201.00096862449462 0.4675444679663241 
202.00096862449462 0.4675444679663241 
203.00096862449462 0.4675444679663241 
204.00096862449462 0.4675444679663241 
205.00096862449462 0.4675444679663241 
206.00096862449462 0.4675444679663241 
207.00096862449462 0.4675444679663241 
208.00096862449462 0.4675444679663241 
209.00096862449462 0.4675444679663241 
210.00096862449462 0.4675444679663241 
211.00096862449462 0.4675444679663241 
212.00096862449462 0.4675444679663241 
213.00096862449462 0.4675444679663241 
214.00096862449462 0.4675444679663241 
215.00096862449462 0.4675444679663241 
216.00096862449462 0.4675444679663241 
217.00096862449462 0.4675444679663241 
218.00096862449462 0.4675444679663241 
219.00096862449462 0.4675444679663241 
220.00096862449462 0.4675444679663241 
221.00096862449462 0.4675444679663241 
222.00096862449462 0.4675444679663241 
223.00096862449462 0.4675444679663241 
#####################################################################
# End of data export. Simulation finished at: 2017-05-25T11:01+0000 #
#####################################################################
