#####################################################################
# Alchemist log file - simulation started at: 2017-05-23T05:19+0000 #
#####################################################################
# random = 5.0, targets = 1.0, density = 0.07978946395100113, gridShift = 0.0, perturbation = 0.0, connfactor = 0.5
#
# The columns have the following meaning: 
# time se[Mean] 
0.0 NaN 
1.123893470128217 NaN 
2.123893470128217 1.0 
3.123893470128217 1.0 
4.123893470128217 1.0 
5.123893470128217 0.953125 
6.123893470128217 0.90625 
7.123893470128217 0.71875 
8.123893470128216 0.609375 
9.123893470128216 0.40625 
10.123893470128216 0.15625 
11.123893470128216 0.109375 
12.123893470128216 0.0625 
13.123893470128216 0.0 
14.123893470128216 0.0 
15.123893470128216 0.0 
16.123893470128216 0.0 
17.123893470128216 0.0 
18.123893470128216 0.0 
#####################################################################
# End of data export. Simulation finished at: 2017-05-23T05:19+0000 #
#####################################################################
