0.000000000000000000e+00 nan
1.000014910585534489e+00 1.320199887104506420e+00
2.000029821171068978e+00 1.029150398030414859e+00
3.000044731756603245e+00 1.031499051573654846e+00
4.000059642342137955e+00 1.038439905255487572e+00
5.000074552927672222e+00 1.045893256741610156e+00
6.000089463513206489e+00 1.045365490744505799e+00
7.000104374098742532e+00 1.053978723000898121e+00
8.000119284684275911e+00 1.057131021194285481e+00
9.000134195269813731e+00 1.066684306111239433e+00
1.000014910585534444e+01 1.070668558381367541e+00
1.100016401644088404e+01 1.075115568249045417e+00
1.200017892702641298e+01 1.077492393050993646e+00
1.300019383761195435e+01 1.088281406429815190e+00
1.400020874819748506e+01 1.085333110913846433e+00
1.500022365878302111e+01 1.092603620290700572e+00
1.600023856936855182e+01 1.098219967887194448e+00
1.700025347995409319e+01 1.101972173037429226e+00
1.800026839053962746e+01 1.111381051304686673e+00
1.900028330112515107e+01 1.113888959535059398e+00
2.000029821171068889e+01 1.128248968215327830e+00
2.100031312229623026e+01 1.134494054422164888e+00
2.200032803288176808e+01 1.147093441473413966e+00
2.300034294346728814e+01 1.167711910071813852e+00
2.400035785405282596e+01 1.170028729536027434e+00
2.500037276463836733e+01 1.209989473033855623e+00
2.600038767522390870e+01 1.239024609765743579e+00
2.700040258580942165e+01 1.224243171080677373e+00
2.800041749639497013e+01 1.276499227694100069e+00
2.900043240698050795e+01 1.283941503887098268e+00
3.000044731756604222e+01 1.313898364068318836e+00
3.100046222815159425e+01 1.325178020712738380e+00
3.200047713873710364e+01 1.369528623798027089e+00
3.300049204932265923e+01 1.373360510886812103e+00
3.400050695990818639e+01 1.390855409496862816e+00
3.500052187049369223e+01 1.396606918001293662e+00
3.600053678107925492e+01 1.414865246702004864e+00
3.700055169166478208e+01 1.434303670113285412e+00
3.800056660225030214e+01 1.415411386925496950e+00
3.900058151283587193e+01 1.439224606875804557e+00
4.000059642342137778e+01 1.417401732830191996e+00
4.100061133400694757e+01 1.416451380153122663e+00
4.200062624459246052e+01 1.428755762517708527e+00
4.300064115517798768e+01 1.465901257830968030e+00
4.400065606576353616e+01 1.444367886241544108e+00
4.500067097634906332e+01 1.422333654262474045e+00
4.600068588693457627e+01 1.473822616451879730e+00
4.700070079752014607e+01 1.472786362806904670e+00
4.800071570810565191e+01 1.457383332901179607e+00
4.900073061869122171e+01 1.486784238741833519e+00
5.000074552927673466e+01 1.467263184291546452e+00
5.100076043986225471e+01 1.469663194437982323e+00
5.200077535044781740e+01 1.477766297422005159e+00
5.300079026103335167e+01 1.497463806853023494e+00
5.400080517161884330e+01 1.528024713671094936e+00
5.500082008220442020e+01 1.546213547931142962e+00
5.600083499278994026e+01 1.583950095802673985e+00
5.700084990337548163e+01 1.620107468895943592e+00
5.800086481396101590e+01 1.646629175237725118e+00
5.900087972454655016e+01 1.709774383521115659e+00
6.000089463513208443e+01 1.737714763586438949e+00
6.100090954571761159e+01 1.790392562556518019e+00
6.200092445630318849e+01 1.868823258221733896e+00
6.300093936688867302e+01 1.921376254615152268e+00
6.400095427747420729e+01 1.970943463195546030e+00
6.500096918805978419e+01 2.041372798083195939e+00
6.600098409864531845e+01 2.120978319948758628e+00
6.700099900923079588e+01 2.189078063042100286e+00
6.800101391981637278e+01 2.358189405982115350e+00
6.900102883040192125e+01 2.523739612339556793e+00
7.000104374098738447e+01 2.510821272273632943e+00
7.100105865157296137e+01 2.831891161148792246e+00
7.200107356215850984e+01 2.921488930949505125e+00
7.300108847274401569e+01 3.011743411874341358e+00
7.400110338332956417e+01 3.289042722275781205e+00
7.500111829391511264e+01 3.681466645628094447e+00
7.600113320450060428e+01 3.422077112342279293e+00
7.700114811508616697e+01 3.766103215898465528e+00
7.800116302567174387e+01 3.876565883578475979e+00
7.900117793625719287e+01 4.057109262250064852e+00
8.000119284684275556e+01 3.898700426597184965e+00
8.100120775742833246e+01 4.161384492335280960e+00
8.200122266801389515e+01 4.071369037870060659e+00
8.300123757859934415e+01 4.127190160409993425e+00
8.400125248918492105e+01 4.523889763016246235e+00
8.500126739977048373e+01 4.630950084274972234e+00
8.600128231035597537e+01 4.760675955074135324e+00
8.700129722094152385e+01 5.121285627524323480e+00
8.800131213152707232e+01 5.849970078186951028e+00
8.900132704211256396e+01 6.992089231076151101e+00
9.000134195269812665e+01 6.886053821805031561e+00
9.100135686328370355e+01 7.765681927864222622e+00
9.200137177386915255e+01 7.868738646408851345e+00
9.300138668445471524e+01 8.807370591111988389e+00
9.400140159504029214e+01 9.011696422406982876e+00
9.500141650562585482e+01 8.710222561453305090e+00
9.600143141621130383e+01 1.090617071871236909e+01
9.700144632679688073e+01 9.793852794064001444e+00
9.800146123738244341e+01 9.800383011662365362e+00
9.900147614796789242e+01 1.034783649730857924e+01
1.000014910585534693e+02 1.006590696634445870e+01
1.010015059691390320e+02 1.078169626749683907e+01
1.020015208797245094e+02 1.061590841920089190e+01
1.030015357903100863e+02 1.159896931807727150e+01
1.040015507008956348e+02 1.045283802457419853e+01
1.050015656114810980e+02 1.131223932152469835e+01
1.060015805220667033e+02 1.109748328087662728e+01
1.070015954326522518e+02 1.147708675186858152e+01
1.080016103432376866e+02 1.129851006015026194e+01
1.090016252538232919e+02 1.252286923545445418e+01
1.100016401644088404e+02 1.074647773270122997e+01
1.110016550749942894e+02 1.177811624735460327e+01
1.120016699855798805e+02 1.129570154850692809e+01
1.130016848961654290e+02 1.078855680434343078e+01
1.140016998067509633e+02 1.111027791512958274e+01
1.150017147173365117e+02 1.122315035567213748e+01
1.160017296279220318e+02 1.105243390137657578e+01
1.170017445385075519e+02 1.087114109591186661e+01
1.180017594490931003e+02 1.050210741619848243e+01
1.190017743596786346e+02 1.034504195814730210e+01
1.200017892702641689e+02 8.865837181526950772e+00
1.210018041808497031e+02 9.596165182340499200e+00
1.220018190914352232e+02 8.995274187162504376e+00
1.230018340020207575e+02 9.278761178399131282e+00
1.240018489126063770e+02 7.625697286212499648e+00
1.250018638231918118e+02 8.879880097988170462e+00
1.260018787337773460e+02 8.901895687153977832e+00
1.270018936443629656e+02 8.504880642528426904e+00
1.280019085549484146e+02 9.207741917127718168e+00
1.290019234655339346e+02 8.307678676761002023e+00
1.300019383761195684e+02 8.948323984656713748e+00
1.310019532867050032e+02 9.130129681380973139e+00
1.320019681972906369e+02 9.178911269448827071e+00
1.330019831078761570e+02 9.234241652697978253e+00
1.340019980184615918e+02 7.932282807635481880e+00
1.350020129290472539e+02 7.983418882544523143e+00
1.360020278396327456e+02 8.387373654484703067e+00
1.370020427502181803e+02 7.539654201784879106e+00
1.380020576608038425e+02 7.406945291263661524e+00
1.390020725713893341e+02 6.810343734081654610e+00
1.400020874819747689e+02 6.988675496150033695e+00
1.410021023925604311e+02 5.665418517601389148e+00
1.420021173031459227e+02 5.957128268340684762e+00
1.430021322137314428e+02 5.168126260915220094e+00
1.440021471243170197e+02 5.201232143447307443e+00
1.450021620349025397e+02 4.968940466160391978e+00
1.460021769454880314e+02 5.040485399837326241e+00
1.470021918560736367e+02 4.690377871803879550e+00
1.480022067666591283e+02 4.302865927382377720e+00
1.490022216772446200e+02 4.607268495228260541e+00
1.500022365878302253e+02 4.318543719868311648e+00
1.510022514984157453e+02 4.430540635097378832e+00
1.520022664090012086e+02 4.608798930038458863e+00
1.530022813195868991e+02 4.298697748577564148e+00
1.540022962301723339e+02 4.697778744725626510e+00
1.550023111407577971e+02 4.236004102634115753e+00
1.560023260513434877e+02 4.795007071681657074e+00
1.570023409619289225e+02 4.562143848325993289e+00
1.580023558725143857e+02 4.642540251111851646e+00
1.590023707831000763e+02 4.783776043104643882e+00
1.600023856936855111e+02 4.865814767575299626e+00
1.610024006042712017e+02 4.416158835108738856e+00
1.620024155148566649e+02 4.818443407392226874e+00
1.630024304254420997e+02 4.503699440046970537e+00
1.640024453360277903e+02 4.454648751507399140e+00
1.650024602466132535e+02 4.155649564934315698e+00
1.660024751571986883e+02 3.967726262515688607e+00
1.670024900677843789e+02 3.934931803548541218e+00
1.680025049783698421e+02 3.730001240520813610e+00
1.690025198889552769e+02 3.509452915565579367e+00
1.700025347995409675e+02 3.448002800922276290e+00
1.710025497101264307e+02 3.103228119036485655e+00
1.720025646207119507e+02 3.324432949188413033e+00
1.730025795312975561e+02 3.116374497919309317e+00
1.740025944418830477e+02 2.983093504875843571e+00
1.750026093524685393e+02 3.025467982471559125e+00
1.760026242630541446e+02 2.849907186616445820e+00
1.770026391736396363e+02 2.921462425533022156e+00
1.780026540842251279e+02 2.859641996622070526e+00
1.790026689948107332e+02 2.820726425295583706e+00
1.800026839053962533e+02 2.811086290074022109e+00
1.810026988159817165e+02 2.811109958770038109e+00
1.820027137265674071e+02 2.801375148764412071e+00
1.830027286371528419e+02 2.801398817460428070e+00
1.840027435477383051e+02 2.801398817460428070e+00
1.850027584583239957e+02 2.801398817460428070e+00
1.860027733689094305e+02 2.801398817460428070e+00
1.870027882794948937e+02 2.801398817460428070e+00
1.880028031900805843e+02 2.801398817460428070e+00
1.890028181006660191e+02 2.801398817460428070e+00
1.900028330112517096e+02 2.801398817460428070e+00
1.910028479218371729e+02 2.801398817460428070e+00
1.920028628324226077e+02 2.801398817460428070e+00
1.930028777430082982e+02 2.801398817460428070e+00
1.940028926535937615e+02 2.801398817460428070e+00
1.950029075641791962e+02 2.801398817460428070e+00
1.960029224747648868e+02 2.801398817460428070e+00
1.970029373853503500e+02 2.801398817460428070e+00
1.980029522959357848e+02 2.801398817460428070e+00
1.990029672065214754e+02 2.801398817460428070e+00
2.000029821171069386e+02 2.801398817460428070e+00
2.010029970276924587e+02 2.801398817460428070e+00
2.020030119382780640e+02 2.801398817460428070e+00
2.030030268488635556e+02 2.801398817460428070e+00
2.040030417594490189e+02 2.801398817460428070e+00
2.050030566700346526e+02 2.801398817460428070e+00
2.060030715806201727e+02 2.801398817460428070e+00
2.070030864912056359e+02 2.801398817460428070e+00
2.080031014017912696e+02 2.801398817460428070e+00
2.090031163123767612e+02 2.801398817460428070e+00
2.100031312229621960e+02 2.801398817460428070e+00
2.110031461335478582e+02 2.801398817460428070e+00
2.120031610441334067e+02 2.801398817460428070e+00
2.130031759547188130e+02 2.801398817460428070e+00
2.140031908653045036e+02 2.801398817460428070e+00
2.150032057758899384e+02 2.801398817460428070e+00
2.160032206864753732e+02 2.801398817460428070e+00
2.170032355970610354e+02 2.801398817460428070e+00
2.180032505076465839e+02 2.801398817460428070e+00
2.190032654182322176e+02 2.801398817460428070e+00
2.200032803288176808e+02 2.801398817460428070e+00
2.210032952394031156e+02 2.801398817460428070e+00
2.220033101499885788e+02 2.801398817460428070e+00
2.230033250605742126e+02 2.801398817460428070e+00
2.240033399711597610e+02 2.801398817460428070e+00
2.250033548817454232e+02 2.801398817460428070e+00
2.260033697923308580e+02 2.801398817460428070e+00
2.270033847029162928e+02 2.801398817460428070e+00
2.280033996135019265e+02 2.801398817460428070e+00
2.290034145240873613e+02 2.801398817460428070e+00
2.300034294346730235e+02 2.801398817460428070e+00
2.310034443452586004e+02 2.801398817460428070e+00
2.320034592558440636e+02 2.801398817460428070e+00
2.330034741664295268e+02 2.801398817460428070e+00
2.340034890770151037e+02 2.801398817460428070e+00
2.350035039876006238e+02 2.801398817460428070e+00
2.360035188981862007e+02 2.801398817460428070e+00
2.370035338087717776e+02 2.801398817460428070e+00
2.380035487193572692e+02 2.801398817460428070e+00
2.390035636299427040e+02 2.801398817460428070e+00
2.400035785405283377e+02 2.801398817460428070e+00
2.410035934511139430e+02 2.801398817460428070e+00
2.420036083616994063e+02 2.801398817460428070e+00
2.430036232722850116e+02 2.801398817460428070e+00
2.440036381828704464e+02 2.801398817460428070e+00
