#####################################################################
# Alchemist log file - simulation started at: 2017-05-22T07:19+0000 #
#####################################################################
# random = 3.0, targets = 100.0, density = 0.2247883923996312, gridShift = 1.0, perturbation = 0.5, connfactor = 1.5
#
# The columns have the following meaning: 
# time se[Mean] 
0.0 NaN 
1.0016359619213666 NaN 
2.001635961921367 1.0139035714285713 
3.001635961921367 1.045614351851852 
4.001635961921367 1.2167571097883598 
5.001635961921367 1.4955532738095239 
6.001635961921367 2.0019295634920633 
7.001635961921367 2.3469235615079365 
8.001635961921366 2.7487928736772487 
9.001635961921366 3.0225953538359787 
10.001635961921366 2.736894758597884 
11.001635961921366 3.154443055555556 
12.001635961921366 2.774258978174603 
13.001635961921366 2.518759837962963 
14.001635961921366 2.4114676256613756 
15.001635961921366 2.0984258763227515 
16.001635961921366 2.6176443948412706 
17.001635961921366 2.805136706349207 
18.001635961921366 2.4846692625661384 
19.001635961921366 3.3790557043650806 
20.001635961921366 2.5051940476190486 
21.001635961921366 3.0973114583333348 
22.001635961921366 3.5421341269841284 
23.001635961921366 2.740383416005292 
24.001635961921366 3.8236357473544986 
25.001635961921366 2.792345023148149 
26.001635961921366 2.3316168650793654 
27.001635961921366 2.4954142857142863 
28.001635961921366 2.0449 
29.001635961921366 2.0449 
30.001635961921366 2.0449 
31.001635961921366 2.0449 
32.001635961921366 2.0449 
33.001635961921366 2.0449 
34.001635961921366 2.0449 
35.001635961921366 2.0449 
36.001635961921366 2.0449 
37.001635961921366 2.0449 
38.001635961921366 2.0449 
#####################################################################
# End of data export. Simulation finished at: 2017-05-22T07:19+0000 #
#####################################################################
