#####################################################################
# Alchemist log file - simulation started at: 2017-05-25T07:52+0000 #
#####################################################################
# random = 17.0, targets = 10.0, density = 10.026386447354522, gridShift = 1.0, perturbation = 0.0, connfactor = 1.5
#
# The columns have the following meaning: 
# time se[Mean] 
0.0 NaN 
1.0003034458253823 NaN 
2.0003034458253826 1.0230760368663596 
3.0003034458253826 1.0389672299027137 
4.0003034458253826 1.046320020481311 
5.0003034458253826 1.0457882744495646 
6.0003034458253826 1.0246308243727598 
7.0003034458253826 1.0329034818228369 
8.000303445825383 1.0349815668202766 
9.000303445825383 1.040779569892473 
10.000303445825383 1.0459352278545826 
11.000303445825383 1.047136200716846 
12.000303445825383 1.0424406041986687 
13.000303445825383 1.0359349718381976 
14.000303445825383 1.0220089605734768 
15.000303445825383 1.0207583205325141 
16.00030344582538 1.0074459805427547 
17.00030344582538 0.9950647721454172 
18.00030344582538 0.9826065028161802 
19.00030344582538 0.9759836149513569 
20.00030344582538 0.9729308755760369 
21.00030344582538 0.9796136712749615 
22.00030344582538 0.9770486431131592 
23.00030344582538 0.983289298515105 
24.00030344582538 0.9882009728622632 
25.00030344582538 0.9942002048131081 
26.00030344582538 1.0012275985663082 
27.00030344582538 1.0061080389144905 
28.00030344582538 1.0045773169482846 
29.00030344582538 1.0099772145417307 
30.00030344582538 1.009052483358935 
31.00030344582538 1.0069459805427547 
32.00030344582538 1.0053581669226832 
33.00030344582538 1.00505376344086 
34.00030344582538 1.0046863799283154 
35.00030344582538 0.9939746543778802 
36.00030344582538 0.9925366103430618 
37.00030344582538 0.9808123399897595 
38.00030344582538 0.9674211469534052 
39.00030344582538 0.957883512544803 
40.00030344582538 0.9412857142857143 
41.00030344582538 0.9290908858166923 
42.00030344582538 0.9190335381464414 
43.00030344582538 0.9096710189452125 
44.00030344582538 0.9041216077828982 
45.00030344582538 0.8978653353814645 
46.00030344582538 0.8940665642601127 
47.00030344582538 0.8879774705581158 
48.00030344582538 0.8779050179211471 
49.00030344582538 0.8729237071172555 
50.00030344582538 0.8629101382488481 
51.00030344582538 0.854346390168971 
52.00030344582538 0.8494884792626731 
53.00030344582538 0.8401938044034819 
54.00030344582538 0.8288942652329752 
55.00030344582538 0.8181236559139787 
56.00030344582538 0.8124249871991807 
57.00030344582538 0.8032749615975424 
58.00030344582538 0.7948338453661036 
59.00030344582538 0.7898663594470046 
60.00030344582538 0.779678443420379 
61.00030344582538 0.7752040450588839 
62.00030344582538 0.7692613927291347 
63.00030344582538 0.7577793138760883 
64.00030344582538 0.75168100358423 
65.00030344582538 0.7420156169994878 
66.00030344582538 0.730403225806452 
67.00030344582538 0.7197319508448541 
68.00030344582538 0.7115814132104453 
69.00030344582538 0.7015614439324113 
70.00030344582538 0.6976175115207371 
71.00030344582538 0.6803456221198158 
72.00030344582538 0.6796367127496158 
73.00030344582538 0.6708374295954942 
74.00030344582538 0.6486582181259606 
75.00030344582538 0.6319500768049152 
76.00030344582538 0.6283666154633898 
77.00030344582538 0.6051315924219147 
78.00030344582538 0.5947199180747571 
79.00030344582538 0.5772826420890937 
80.00030344582538 0.5582818740399391 
81.00030344582538 0.5362959549411161 
82.00030344582538 0.5218573988735276 
83.00030344582538 0.498477214541731 
84.00030344582538 0.486326420890937 
85.00030344582538 0.467832821300564 
86.00030344582538 0.4524234511008708 
87.00030344582538 0.4383105478750647 
88.00030344582538 0.42010957501280083 
89.00030344582538 0.4079956477214541 
90.00030344582538 0.3990417306707628 
91.00030344582538 0.37879441884280585 
92.00030344582538 0.3675668202764976 
93.00030344582538 0.36059062980030754 
94.00030344582538 0.3473635432667689 
95.00030344582538 0.33066845878136153 
96.00030344582538 0.32688248847926304 
97.00030344582538 0.3067491039426523 
98.00030344582538 0.2989636456733231 
99.00030344582538 0.2834188428059395 
100.00030344582538 0.27469073220686135 
101.00030344582538 0.2606459293394778 
102.00030344582538 0.2808648233486944 
103.00030344582538 0.2473381976446493 
104.00030344582538 0.27955273937532027 
105.00030344582538 0.28131208397337437 
106.00030344582538 0.24321761392729152 
107.00030344582538 0.25983256528417825 
108.00030344582538 0.2529265232974911 
109.00030344582538 0.346838197644649 
110.00030344582538 0.29259395801331295 
111.00030344582538 0.40372119815668106 
112.00030344582538 0.491987711213517 
113.00030344582538 0.37542370711725453 
114.00030344582538 0.4550734767025083 
115.00030344582538 0.5179848950332814 
116.00030344582538 0.4703192524321547 
117.00030344582538 0.4676034306195588 
118.00030344582538 0.4859651817716327 
119.00030344582538 0.455036098310293 
120.00030344582538 0.3800780849974398 
121.00030344582538 0.4256443932411662 
122.00030344582538 0.32807322068612327 
123.00030344582538 0.294779825908858 
124.00030344582538 0.29305632360470957 
125.00030344582538 0.2343087557603684 
126.00030344582538 0.238669226830517 
127.00030344582538 0.15950640040962633 
128.00030344582538 0.2236041986687149 
129.00030344582538 0.21565053763440803 
130.00030344582538 0.12654147465437815 
131.00030344582538 0.15891884280593954 
132.00030344582538 0.1741492575524833 
133.00030344582538 0.15207296466973858 
134.00030344582538 0.11574449564772182 
135.00030344582538 0.1912475678443413 
136.00030344582538 0.11737762416794705 
137.00030344582538 0.13494367639528873 
138.00030344582538 0.13002739375320016 
139.00030344582538 0.08244649257552496 
140.00030344582538 0.12812416794674844 
141.00030344582538 0.0989833589349709 
142.00030344582538 0.09045186891961064 
143.00030344582538 0.10467562724014276 
144.00030344582538 0.0953517665130566 
145.00030344582538 0.041028673835125457 
146.00030344582538 0.05744239631336378 
147.00030344582538 0.038534050179211896 
148.00030344582538 0.014186123911930384 
149.00030344582538 0.021369175627240403 
150.00030344582538 0.012000000000000085 
151.00030344582538 0.011915258576548982 
152.00030344582538 0.011241935483871023 
153.00030344582538 0.011129032258064577 
154.00030344582538 0.010705069124424036 
155.00030344582538 0.010511008704557156 
156.00030344582538 0.010380952380952456 
157.00030344582538 0.010205069124424038 
158.00030344582538 0.010143113159242266 
159.00030344582538 0.010043266769073292 
160.00030344582538 0.010012032770097358 
161.00030344582538 0.010020481310803964 
162.00030344582538 0.009991551459293466 
163.00030344582538 0.009992063492063564 
164.00030344582538 0.010000000000000071 
165.00030344582538 0.010000000000000071 
166.00030344582538 0.010000000000000071 
167.00030344582538 0.010000000000000071 
168.00030344582538 0.010000000000000071 
169.00030344582538 0.010000000000000071 
170.00030344582538 0.010000000000000071 
171.00030344582538 0.010000000000000071 
172.00030344582538 0.010000000000000071 
173.00030344582538 0.010000000000000071 
174.00030344582538 0.010000000000000071 
175.00030344582538 0.010000000000000071 
176.00030344582538 0.010000000000000071 
177.00030344582538 0.010000000000000071 
178.00030344582538 0.010000000000000071 
179.00030344582538 0.010000000000000071 
180.00030344582538 0.010000000000000071 
181.00030344582538 0.010000000000000071 
182.00030344582538 0.010000000000000071 
183.00030344582538 0.010000000000000071 
184.00030344582538 0.010000000000000071 
185.00030344582538 0.010000000000000071 
186.00030344582538 0.010000000000000071 
187.00030344582538 0.010000000000000071 
188.00030344582538 0.010000000000000071 
189.00030344582538 0.010000000000000071 
190.00030344582538 0.010000000000000071 
191.00030344582538 0.010000000000000071 
192.00030344582538 0.010000000000000071 
193.00030344582538 0.010000000000000071 
194.00030344582538 0.010000000000000071 
195.00030344582538 0.010000000000000071 
196.00030344582538 0.010000000000000071 
197.00030344582538 0.010000000000000071 
198.00030344582538 0.010000000000000071 
199.00030344582538 0.010000000000000071 
200.00030344582538 0.010000000000000071 
201.00030344582538 0.010000000000000071 
202.00030344582538 0.010000000000000071 
203.00030344582538 0.010000000000000071 
204.00030344582538 0.010000000000000071 
205.00030344582538 0.010000000000000071 
206.00030344582538 0.010000000000000071 
207.00030344582538 0.010000000000000071 
208.00030344582538 0.010000000000000071 
209.00030344582538 0.010000000000000071 
210.00030344582538 0.010000000000000071 
211.00030344582538 0.010000000000000071 
212.00030344582538 0.010000000000000071 
213.00030344582538 0.010000000000000071 
214.00030344582538 0.010000000000000071 
215.00030344582538 0.010000000000000071 
216.00030344582538 0.010000000000000071 
217.00030344582538 0.010000000000000071 
218.00030344582538 0.010000000000000071 
219.00030344582538 0.010000000000000071 
220.00030344582538 0.010000000000000071 
221.00030344582538 0.010000000000000071 
222.00030344582538 0.010000000000000071 
223.00030344582538 0.010000000000000071 
224.00030344582538 0.010000000000000071 
225.00030344582538 0.010000000000000071 
226.00030344582538 0.010000000000000071 
227.00030344582538 0.010000000000000071 
228.00030344582538 0.010000000000000071 
229.00030344582538 0.010000000000000071 
230.00030344582538 0.010000000000000071 
231.00030344582538 0.010000000000000071 
232.00030344582538 0.010000000000000071 
233.00030344582538 0.010000000000000071 
#####################################################################
# End of data export. Simulation finished at: 2017-05-25T07:54+0000 #
#####################################################################
