#####################################################################
# Alchemist log file - simulation started at: 2017-05-23T05:47+0000 #
#####################################################################
# random = 5.0, targets = 1.0, density = 5.0264212595847235, gridShift = 1.0, perturbation = 0.5, connfactor = 2.0
#
# The columns have the following meaning: 
# time se[Mean] 
0.0 NaN 
1.0031365367908396 NaN 
2.00313653679084 1.0 
3.00313653679084 0.9989316239316239 
4.00313653679084 0.9962606837606838 
5.00313653679084 0.9993201243201243 
6.00313653679084 0.99752331002331 
7.00313653679084 0.9889884421134422 
8.00313653679084 1.0392992424242427 
9.00313653679084 1.0401976495726495 
10.00313653679084 1.204059829059829 
11.00313653679084 1.2034163752913758 
12.00313653679084 1.307376651126651 
13.00313653679084 1.5937742812742826 
14.00313653679084 1.280048076923076 
15.00313653679084 1.3233537296037292 
16.00313653679084 1.2325174825174827 
17.00313653679084 1.2442817599067597 
18.00313653679084 1.1902073620823626 
19.00313653679084 1.252719502719503 
20.00313653679084 1.2850257381507388 
21.00313653679084 1.1680749805749813 
22.00313653679084 1.2646658896658893 
23.00313653679084 1.3254176379176374 
24.00313653679084 1.3160450660450667 
25.00313653679084 1.2841880341880343 
26.00313653679084 1.2748154623154628 
27.00313653679084 1.2752039627039629 
28.00313653679084 1.1619560994560993 
29.00313653679084 1.1263111888111887 
30.00313653679084 1.1229118104118105 
31.00313653679084 1.0935314685314685 
32.00313653679084 1.1053807303807308 
33.00313653679084 1.106643356643357 
34.00313653679084 1.0874125874125877 
35.00313653679084 1.0835275835275837 
36.00313653679084 1.0836247086247084 
37.00313653679084 1.0790112665112666 
38.00313653679084 1.079108391608392 
39.00313653679084 1.0789141414141417 
40.00313653679084 1.0738636363636367 
41.00313653679084 1.0719696969696972 
42.00313653679084 1.0694444444444449 
43.00313653679084 1.0675505050505047 
44.00313653679084 1.0669191919191925 
45.00313653679084 1.0631313131313131 
46.00313653679084 1.0606060606060606 
47.00313653679084 1.056478243978244 
48.00313653679084 1.0523504273504274 
49.00313653679084 1.0462801087801084 
50.00313653679084 1.042443667443668 
51.00313653679084 1.0357420357420362 
52.00313653679084 1.028651903651903 
53.00313653679084 1.0203477078477081 
54.00313653679084 1.0104409479409477 
55.00313653679084 1.0014083139083145 
56.00313653679084 0.9918900543900548 
57.00313653679084 0.9780982905982901 
58.00313653679084 0.9723193473193472 
59.00313653679084 0.9584790209790205 
60.00313653679084 0.9491550116550123 
61.00313653679084 0.9527000777000778 
62.00313653679084 0.9432910839160837 
63.00313653679084 0.9568400349650356 
64.00313653679083 0.9623518842268841 
65.00313653679083 0.9671474358974366 
66.00313653679083 1.0005706099456106 
67.00313653679083 0.9882235819735822 
68.00313653679083 0.9994172494172501 
69.00313653679083 1.0382308663558675 
70.00313653679083 1.0252525252525264 
71.00313653679083 1.0527753496503507 
72.00313653679083 1.0424072455322466 
73.00313653679083 1.0707799145299153 
74.00313653679083 1.070889180264181 
75.00313653679083 1.025762432012433 
76.00313653679083 1.1010343822843844 
77.00313653679083 1.0958381895881915 
78.00313653679083 1.0220473970473978 
79.00313653679083 1.1395930458430465 
80.00313653679083 1.112531565656568 
81.00313653679083 1.0836854118104127 
82.00313653679083 1.1755657536907547 
83.00313653679083 1.1730405011655034 
84.00313653679083 1.176221348096351 
85.00313653679083 1.1733318764568772 
86.00313653679083 1.244512432012435 
87.00313653679083 1.2296280108780124 
88.00313653679083 1.2644230769230786 
89.00313653679083 1.333381895881898 
90.00313653679083 1.3405205905205924 
91.00313653679083 1.3414918414918435 
92.00313653679083 1.4270347707847737 
93.00313653679083 1.389678030303033 
94.00313653679083 1.4625825563325592 
95.00313653679083 1.5250218531468562 
96.00313653679083 1.4277632090132109 
97.00313653679083 1.471226689976692 
98.00313653679083 1.4393332362082378 
99.00313653679083 1.3341103341103373 
100.00313653679083 1.3502452408702459 
101.00313653679083 1.2937912781662786 
102.00313653679083 1.267385392385395 
103.00313653679083 1.241198038073041 
104.00313653679083 1.201971639471642 
105.00313653679083 1.1996406371406376 
106.00313653679083 1.1611790986790995 
107.00313653679083 1.1740967365967376 
108.00313653679083 1.138597513597516 
109.00313653679083 1.1150446775446796 
110.00313653679083 1.098144910644911 
111.00313653679083 1.0607760295260311 
112.00313653679083 1.0397848679098691 
113.00313653679083 1.0139495920745931 
114.00313653679083 1.0003885003885014 
115.00313653679083 0.9987859362859371 
116.00313653679083 0.9916472416472425 
117.00313653679083 0.9940268065268074 
118.00313653679083 0.9941239316239325 
119.00313653679083 0.9957264957264966 
120.00313653679083 0.9957264957264966 
121.00313653679083 0.9957264957264966 
122.00313653679083 0.9978632478632488 
123.00313653679083 0.9957264957264966 
124.00313653679083 0.9978632478632488 
125.00313653679083 0.9978632478632488 
126.00313653679083 0.9989316239316248 
127.00313653679083 0.9994658119658129 
128.00313653679083 0.9994658119658129 
129.00313653679083 1.0000000000000009 
130.00313653679083 1.0000000000000009 
131.00313653679083 1.0000000000000009 
132.00313653679083 1.0000000000000009 
133.00313653679083 1.0000000000000009 
134.00313653679083 1.0000000000000009 
135.00313653679083 1.0000000000000009 
136.00313653679083 1.0000000000000009 
137.00313653679083 1.0000000000000009 
138.00313653679083 1.0000000000000009 
139.00313653679083 1.0000000000000009 
140.00313653679083 1.0000000000000009 
141.00313653679083 1.0000000000000009 
142.00313653679083 1.0000000000000009 
143.00313653679083 1.0000000000000009 
144.00313653679083 1.0000000000000009 
145.00313653679083 1.0000000000000009 
146.00313653679083 1.0000000000000009 
147.00313653679083 1.0000000000000009 
148.00313653679083 1.0000000000000009 
149.00313653679083 1.0000000000000009 
150.00313653679083 1.0000000000000009 
151.00313653679083 1.0000000000000009 
152.00313653679083 1.0000000000000009 
153.00313653679083 1.0000000000000009 
154.00313653679083 1.0000000000000009 
155.00313653679083 1.0000000000000009 
156.00313653679083 1.0000000000000009 
157.00313653679083 1.0000000000000009 
158.00313653679083 1.0000000000000009 
159.00313653679083 1.0000000000000009 
160.00313653679083 1.0000000000000009 
161.00313653679083 1.0000000000000009 
162.00313653679083 1.0000000000000009 
163.00313653679083 1.0000000000000009 
164.00313653679083 1.0000000000000009 
165.00313653679083 1.0000000000000009 
166.00313653679083 1.0000000000000009 
167.00313653679083 1.0000000000000009 
168.00313653679083 1.0000000000000009 
169.00313653679083 1.0000000000000009 
170.00313653679083 1.0000000000000009 
171.00313653679083 1.0000000000000009 
172.00313653679083 1.0000000000000009 
173.00313653679083 1.0000000000000009 
#####################################################################
# End of data export. Simulation finished at: 2017-05-23T05:51+0000 #
#####################################################################
