#####################################################################
# Alchemist log file - simulation started at: 2017-05-24T17:27+0000 #
#####################################################################
# random = 7.0, targets = 3.1622776601683795, density = 0.6332893950589894, gridShift = 1.0, perturbation = 0.5, connfactor = 1.5
#
# The columns have the following meaning: 
# time se[Mean] 
0.0 NaN 
1.0047104299125222 NaN 
2.0047104299125222 1.0998829598267124 
3.0047104299125222 1.1833331835070597 
4.004710429912523 1.1877094187283463 
5.004710429912523 1.2014196246638995 
6.004710429912523 0.9549774134185545 
7.004710429912523 0.921465439939392 
8.004710429912523 0.9158969227276446 
9.004710429912523 0.9827357273082911 
10.004710429912523 1.0212671646754947 
11.004710429912523 1.2094053882458418 
12.004710429912523 1.1049025307335205 
13.004710429912523 1.0881611312080934 
14.004710429912523 1.162839420557826 
15.004710429912523 1.148187054520477 
16.00471042991252 1.1220369728257769 
17.00471042991252 0.9956888085009599 
18.00471042991252 1.0021280682829274 
19.00471042991252 0.8537363860929774 
20.00471042991252 0.8552081356304384 
21.00471042991252 0.7244935108358619 
22.00471042991252 0.6920114133772008 
23.00471042991252 0.6472323822413107 
24.00471042991252 0.5896561094396017 
25.00471042991252 0.5154749411737942 
26.00471042991252 0.48454264143853915 
27.00471042991252 0.4090716577045315 
28.00471042991252 0.40055645451319777 
29.00471042991252 0.3847280406612582 
30.00471042991252 0.37310361709785866 
31.00471042991252 0.4008975862439997 
32.00471042991252 0.5450495158702389 
33.00471042991252 0.5589480938956416 
34.00471042991252 0.6472195918151467 
35.00471042991252 0.7198348566041984 
36.00471042991252 0.7465014162520983 
37.00471042991252 0.7034117453830872 
38.00471042991252 0.7317710448363111 
39.00471042991252 0.6804975277552406 
40.00471042991252 0.6331486190307235 
41.00471042991252 0.6577197499774626 
42.00471042991252 0.5546594033630334 
43.00471042991252 0.49766140112084556 
44.00471042991252 0.49433457001936154 
45.00471042991252 0.4982461953159696 
46.00471042991252 0.47010131968749946 
47.00471042991252 0.46760619636138645 
48.00471042991252 0.46760619636138645 
49.00471042991252 0.4683761757416957 
50.00471042991252 0.4675444679663247 
51.00471042991252 0.4675444679663247 
52.00471042991252 0.4675444679663247 
53.00471042991252 0.4675444679663247 
54.00471042991252 0.4675444679663247 
55.00471042991252 0.4675444679663247 
56.00471042991252 0.4675444679663247 
57.00471042991252 0.4675444679663247 
58.00471042991252 0.4675444679663247 
59.00471042991252 0.4675444679663247 
60.00471042991252 0.4675444679663247 
61.00471042991252 0.4675444679663247 
62.00471042991252 0.4675444679663247 
63.00471042991252 0.4675444679663247 
64.00471042991252 0.4675444679663247 
#####################################################################
# End of data export. Simulation finished at: 2017-05-24T17:28+0000 #
#####################################################################
