#####################################################################
# Alchemist log file - simulation started at: 2017-05-24T17:18+0000 #
#####################################################################
# random = 7.0, targets = 3.1622776601683795, density = 0.07978946395100113, gridShift = 0.0, perturbation = 0.0, connfactor = 1.0
#
# The columns have the following meaning: 
# time se[Mean] 
0.0 NaN 
1.0724373403975138 NaN 
2.0724373403975136 1.0 
3.0724373403975136 1.0275767353760523 
4.072437340397514 1.1306651603219 
5.072437340397514 0.851674721796539 
6.072437340397514 0.5929352735604934 
7.072437340397514 0.288652354998026 
8.072437340397514 0.1751406162560555 
9.072437340397514 0.382966410514968 
10.072437340397514 0.3506862638498086 
11.072437340397514 0.28037400464203405 
12.072437340397514 0.13757459486165802 
13.072437340397514 0.002633403898972407 
14.072437340397514 0.002633403898972407 
15.072437340397514 0.002633403898972407 
16.072437340397514 0.002633403898972407 
17.072437340397514 0.002633403898972407 
#####################################################################
# End of data export. Simulation finished at: 2017-05-24T17:18+0000 #
#####################################################################
