0.000000000000000000e+00 nan
1.000102971193237211e+00 4.759795382241029105e-02
2.000205942386474423e+00 1.112157402695674202e+00
3.000308913579713632e+00 1.222097619690421855e+00
4.000411884772948845e+00 1.397708961154122465e+00
5.000514855966188499e+00 1.683194703182276930e+00
6.000617827159427264e+00 1.848079964837938904e+00
7.000720798352660701e+00 2.213366311081198301e+00
8.000823769545897690e+00 2.232742094334007721e+00
9.000926740739144449e+00 2.212169334844721558e+00
1.000102971193237700e+01 2.141115022468662588e+00
1.100113268312561132e+01 2.013013391958784926e+00
1.200123565431885453e+01 1.973205556078276635e+00
1.300133862551208530e+01 1.937350717963789881e+00
1.400144159670532140e+01 1.741720032439012522e+00
1.500154456789857171e+01 1.653962945216782998e+00
1.600164753909179538e+01 1.602248150223168688e+00
1.700175051028503859e+01 1.684329440172045667e+00
1.800185348147828890e+01 1.551421331696969608e+00
1.900195645267150724e+01 1.326803282553057350e+00
2.000205942386475400e+01 1.248802896966959119e+00
2.100216239505799365e+01 1.022969618917849211e+00
2.200226536625122264e+01 8.298537400732670655e-01
2.300236833744446585e+01 7.453826349060957979e-01
2.400247130863770906e+01 6.060737276214515079e-01
2.500257427983093450e+01 5.530002354460493708e-01
2.600267725102417060e+01 4.802675379405934586e-01
2.700278022221742802e+01 4.838212525453124968e-01
2.800288319341064280e+01 4.188177062338613310e-01
2.900298616460388246e+01 4.141823051917965515e-01
3.000308913579714343e+01 3.889960747403878316e-01
3.100319210699035821e+01 3.581986513986885057e-01
3.200329507818359076e+01 3.563631960586393643e-01
3.300339804937686239e+01 3.364962666310176709e-01
3.400350102057007717e+01 2.804885607930078795e-01
3.500360399176330617e+01 2.492857994326606874e-01
3.600370696295657780e+01 2.344163973375197607e-01
3.700380993414979258e+01 1.962846286839115828e-01
3.800391290534301447e+01 1.687311434974066993e-01
3.900401587653629321e+01 1.492687120284656999e-01
4.000411884772950799e+01 1.340837412070920720e-01
4.100422181892272988e+01 1.287202593376073068e-01
4.200432479011598730e+01 1.227722842413933174e-01
4.300442776130921629e+01 1.196925587629635718e-01
4.400453073250244529e+01 1.169227060270440349e-01
4.500463370369570271e+01 1.153561156399984244e-01
4.600473667488893170e+01 1.135474591668757804e-01
4.700483964608215359e+01 1.117231199587042645e-01
4.800494261727541812e+01 1.122756847525637203e-01
4.900504558846864711e+01 1.100744564804285730e-01
5.000514855966186900e+01 1.097286637608580195e-01
5.100525153085513352e+01 1.087155054334055515e-01
5.200535450204834120e+01 1.075612725090829974e-01
5.300545747324159152e+01 1.071749416683238088e-01
5.400556044443485604e+01 1.057062574605651672e-01
5.500566341562807082e+01 1.052768714313019466e-01
5.600576638682128561e+01 1.051263154063957206e-01
5.700586935801455013e+01 1.048303261270803755e-01
5.800597232920776491e+01 1.047404444967203613e-01
5.900607530040102233e+01 1.046374833184935960e-01
6.000617827159428685e+01 1.045285473470631415e-01
6.100628124278750164e+01 1.045285473470631415e-01
6.200638421398071642e+01 1.044922353565863049e-01
6.300648718517397384e+01 1.044922353565863049e-01
6.400659015636718152e+01 1.044922353565863049e-01
6.500669312756046736e+01 1.044922353565863049e-01
6.600679609875372478e+01 1.044922353565863049e-01
6.700689906994692535e+01 1.044922353565863049e-01
6.800700204114015435e+01 1.044922353565863049e-01
6.900710501233335492e+01 1.044922353565863049e-01
7.000720798352661234e+01 1.044922353565863049e-01
7.100731095471989818e+01 1.044922353565863049e-01
7.200741392591315559e+01 1.044922353565863049e-01
7.300751689710635617e+01 1.044922353565863049e-01
7.400761986829958516e+01 1.044922353565863049e-01
7.500772283949278574e+01 1.044922353565863049e-01
7.600782581068602894e+01 1.044922353565863049e-01
