#####################################################################
# Alchemist log file - simulation started at: 2017-05-24T09:36+0000 #
#####################################################################
# random = 6.0, targets = 100.0, density = 0.04, gridShift = 0.0, perturbation = 0.0, connfactor = 0.25
#
# The columns have the following meaning: 
# time se[Mean] 
0.0 NaN 
1.0115592716150654 NaN 
2.0115592716150656 1.02028125 
3.0115592716150656 1.037843923611111 
4.011559271615066 1.0337244791666667 
5.011559271615066 0.9972243055555555 
6.011559271615066 0.9592338975694444 
7.011559271615066 0.9179669270833333 
8.011559271615067 0.8726505642361111 
9.011559271615067 0.8683413628472222 
10.011559271615067 0.8485407552083333 
11.011559271615067 0.8367484374999999 
12.011559271615067 0.8338656249999999 
13.011559271615067 0.8281 
14.011559271615067 0.8281 
15.011559271615067 0.8281 
16.011559271615067 0.8281 
17.011559271615067 0.8281 
#####################################################################
# End of data export. Simulation finished at: 2017-05-24T09:36+0000 #
#####################################################################
