#####################################################################
# Alchemist log file - simulation started at: 2017-05-24T06:43+0000 #
#####################################################################
# random = 14.0, targets = 3.1622776601683795, density = 0.05649405772326896, gridShift = 1.0, perturbation = 0.5, connfactor = 2.0
#
# The columns have the following meaning: 
# time se[Mean] 
0.0 NaN 
1.1155531677852877 NaN 
2.1155531677852877 NaN 
3.1155531677852877 NaN 
4.115553167785288 NaN 
5.115553167785288 NaN 
6.115553167785288 NaN 
7.115553167785288 NaN 
8.115553167785288 NaN 
9.115553167785288 NaN 
10.115553167785288 NaN 
11.115553167785288 NaN 
12.115553167785288 NaN 
13.115553167785288 NaN 
14.115553167785288 NaN 
15.115553167785288 NaN 
16.115553167785286 NaN 
17.115553167785286 NaN 
18.115553167785286 NaN 
19.115553167785286 NaN 
20.115553167785286 NaN 
21.115553167785286 NaN 
22.115553167785286 NaN 
23.115553167785286 NaN 
24.115553167785286 NaN 
#####################################################################
# End of data export. Simulation finished at: 2017-05-24T06:43+0000 #
#####################################################################
