#####################################################################
# Alchemist log file - simulation started at: 2017-05-23T22:14+0000 #
#####################################################################
# random = 6.0, targets = 1.0, density = 0.6332893950589894, gridShift = 1.0, perturbation = 0.0, connfactor = 1.5
#
# The columns have the following meaning: 
# time se[Mean] 
0.0 NaN 
1.0115592716150654 NaN 
2.0115592716150656 1.0 
3.0115592716150656 1.0 
4.011559271615066 0.9916666666666667 
5.011559271615066 0.9484567901234567 
6.011559271615066 0.9111111111111111 
7.011559271615066 0.9364197530864198 
8.011559271615067 1.263888888888889 
9.011559271615067 1.5209876543209877 
10.011559271615067 1.6092592592592598 
11.011559271615067 1.7564814814814818 
12.011559271615067 1.9277777777777783 
13.011559271615067 2.0950617283950623 
14.011559271615067 1.945061728395062 
15.011559271615067 1.726851851851852 
16.011559271615067 1.443518518518519 
17.011559271615067 1.0895061728395066 
18.011559271615067 1.1246913580246918 
19.011559271615067 0.8888888888888892 
20.011559271615067 0.6765432098765435 
21.011559271615067 0.5518518518518521 
22.011559271615067 0.46172839506172864 
23.011559271615067 0.3731481481481484 
24.011559271615067 0.32654320987654334 
25.011559271615067 0.21790123456790128 
26.011559271615067 0.18209876543209877 
27.011559271615067 0.09166666666666667 
28.011559271615067 0.04104938271604936 
29.011559271615067 0.015740740740740725 
30.011559271615067 0.004320987654320976 
31.011559271615067 0.003395061728395054 
32.01155927161507 4.930380657631324E-32 
33.01155927161507 4.930380657631324E-32 
34.01155927161507 4.930380657631324E-32 
35.01155927161507 4.930380657631324E-32 
36.01155927161507 4.930380657631324E-32 
37.01155927161507 4.930380657631324E-32 
38.01155927161507 4.930380657631324E-32 
39.01155927161507 4.930380657631324E-32 
40.01155927161507 4.930380657631324E-32 
41.01155927161507 4.930380657631324E-32 
42.01155927161507 4.930380657631324E-32 
43.01155927161507 4.930380657631324E-32 
44.01155927161507 4.930380657631324E-32 
45.01155927161507 4.930380657631324E-32 
#####################################################################
# End of data export. Simulation finished at: 2017-05-23T22:14+0000 #
#####################################################################
