#####################################################################
# Alchemist log file - simulation started at: 2017-05-23T19:21+0000 #
#####################################################################
# random = 5.0, targets = 100.0, density = 10.026386447354522, gridShift = 0.0, perturbation = 0.5, connfactor = 2.0
#
# The columns have the following meaning: 
# time se[Mean] 
0.0 NaN 
1.0001017936699181 NaN 
2.000101793669918 1.015280831037649 
3.000101793669918 1.0234697256657483 
4.000101793669918 1.0351967630853993 
5.000101793669918 1.052681531221304 
6.000101793669918 1.058506106519743 
7.000101793669918 1.0946970353790428 
8.000101793669918 1.1026041360575451 
9.000101793669918 1.1272289555912662 
10.000101793669918 1.148588589812264 
11.000101793669918 1.1634341820987655 
12.000101793669918 1.174993789536782 
13.000101793669918 1.191055866110601 
14.000101793669918 1.2035203046882972 
15.000101793669918 1.2308718816957454 
16.00010179366992 1.2499210023211917 
17.00010179366992 1.272101752372207 
18.00010179366992 1.3177312359708193 
19.00010179366992 1.3186516822263035 
20.00010179366992 1.3573262677277826 
21.00010179366992 1.3818307915008672 
22.00010179366992 1.387604828588919 
23.00010179366992 1.4113283453219063 
24.00010179366992 1.4012165199979594 
25.00010179366992 1.4347596877869613 
26.00010179366992 1.488122115727987 
27.00010179366992 1.4792343121875324 
28.00010179366992 1.5169814495969796 
29.00010179366992 1.5994500312468112 
30.00010179366992 1.6002902656616669 
31.00010179366992 1.626601362105908 
32.00010179366992 1.627532178476686 
33.00010179366992 1.6790920747882867 
34.00010179366992 1.726187457274768 
35.00010179366992 1.739501421411082 
36.00010179366992 1.770557350652996 
37.00010179366992 1.8491903243291474 
38.00010179366992 1.8965140661667181 
39.00010179366992 1.9022934706917651 
40.00010179366992 1.9738708837108463 
41.00010179366992 1.9350880802979293 
42.00010179366992 2.0231425294612797 
43.00010179366992 2.0013596425109674 
44.00010179366992 2.026719693781248 
45.00010179366992 2.1928113572594636 
46.00010179366992 2.343897100423427 
47.00010179366992 2.375607661845729 
48.00010179366992 2.60845053884808 
49.00010179366992 2.878651429063369 
50.00010179366992 3.038617871263137 
51.00010179366992 3.073732339812261 
52.00010179366992 3.0970002512498738 
53.00010179366992 3.335299524920927 
54.00010179366992 3.5188263059891893 
55.00010179366992 3.4490839499795904 
56.00010179366992 3.590456248724629 
57.00010179366992 3.773828514309773 
58.00010179366992 3.5693859638047094 
59.00010179366992 3.8861821720997853 
60.00010179366992 4.693441636695238 
61.00010179366992 4.528092802392611 
62.00010179366992 4.919526998520549 
63.00010179366992 5.871708131823278 
64.00010179366993 6.294735812672166 
65.00010179366993 6.972927669370468 
66.00010179366993 6.334203544281197 
67.00010179366993 6.975287473217006 
68.00010179366993 7.441270015814727 
69.00010179366993 6.889028440975419 
70.00010179366993 7.135990472273246 
71.00010179366993 7.920206311218244 
72.00010179366993 7.221701160595853 
73.00010179366993 6.594975843663895 
74.00010179366993 8.381421344123053 
75.00010179366993 7.39317151247322 
76.00010179366993 7.570537019819405 
77.00010179366993 7.381041766146317 
78.00010179366993 7.097930507728801 
79.00010179366993 8.895799930491807 
80.00010179366993 8.555076751096825 
81.00010179366993 8.03752048770534 
82.00010179366993 8.773621462095702 
83.00010179366993 8.008907004387318 
84.00010179366993 9.394272064075095 
85.00010179366993 9.871878556397292 
86.00010179366993 9.980730892255897 
87.00010179366993 8.75030145074482 
88.00010179366993 10.12091284817875 
89.00010179366993 9.837931598816448 
90.00010179366993 10.265403492628316 
91.00010179366993 9.15598352974187 
92.00010179366993 9.946881416437089 
93.00010179366993 9.272343992322217 
94.00010179366993 9.623186506478934 
95.00010179366993 10.232403418018569 
96.00010179366993 8.747275070145907 
97.00010179366993 9.295115242067137 
98.00010179366993 9.014972334455669 
99.00010179366993 8.761446918681768 
100.00010179366993 9.501052094174065 
101.00010179366993 9.100848072900726 
102.00010179366993 9.0386382614019 
103.00010179366993 9.073910526987042 
104.00010179366993 8.39652538325171 
105.00010179366993 8.666439395214779 
106.00010179366993 8.440879664702582 
107.00010179366993 8.57726492896134 
108.00010179366993 8.399347789128662 
109.00010179366993 8.693322238164477 
110.00010179366993 8.862129274436281 
111.00010179366993 10.049429047418627 
112.00010179366993 10.014697368890921 
113.00010179366993 10.591107357667589 
114.00010179366993 12.236213551550874 
115.00010179366993 12.88446054930618 
116.00010179366993 13.378325573921037 
117.00010179366993 13.340119858942952 
118.00010179366993 18.928079293567002 
119.00010179366993 19.81107173566475 
120.00010179366993 20.89576196689115 
121.00010179366993 28.548905489873494 
122.00010179366993 31.735497623966836 
123.00010179366993 32.911956066345226 
124.00010179366993 28.019395221150994 
125.00010179366993 35.586951129348975 
126.00010179366993 37.30578984988772 
127.00010179366993 33.665234289868344 
128.00010179366993 34.425891150137616 
129.00010179366993 38.270809598510276 
130.00010179366993 38.72365466534028 
131.00010179366993 32.52436021834502 
132.00010179366993 43.23904355741758 
133.00010179366993 38.78791932710952 
134.00010179366993 38.55042351226913 
135.00010179366993 38.46701500038263 
136.00010179366993 37.44523789855627 
137.00010179366993 51.966481132027376 
138.00010179366993 45.05785893339961 
139.00010179366993 43.41204074201617 
140.00010179366993 48.7774034970922 
141.00010179366993 44.22790256542699 
142.00010179366993 50.836231202810914 
143.00010179366993 53.830336299229636 
144.00010179366993 54.96564142243136 
145.00010179366993 47.86060896273338 
146.00010179366993 56.636780795326985 
147.00010179366993 51.104550376237064 
148.00010179366993 58.14473033108864 
149.00010179366993 55.6655315943525 
150.00010179366993 53.586929981634505 
151.00010179366993 56.84579322454342 
152.00010179366993 61.134918598229774 
153.00010179366993 57.104907452683406 
154.00010179366993 50.507075557341054 
155.00010179366993 51.99450125178566 
156.00010179366993 53.37956490472905 
157.00010179366993 47.67103480065818 
158.00010179366993 48.499534281578356 
159.00010179366993 53.09432121339657 
160.00010179366993 43.331117556881956 
161.00010179366993 53.08739737271703 
162.00010179366993 44.29203664358221 
163.00010179366993 45.23925619452088 
164.00010179366993 48.84891813654214 
165.00010179366993 41.27666896808994 
166.00010179366993 42.39836658185383 
167.00010179366993 46.96961152305867 
168.00010179366993 42.83321742615546 
169.00010179366993 39.575819759463215 
170.00010179366993 45.50974716993154 
171.00010179366993 41.687441969569264 
172.00010179366993 36.96522209595954 
173.00010179366993 47.308351369120366 
174.00010179366993 41.310908107591004 
175.00010179366993 44.564934464595375 
176.00010179366993 41.874136401897665 
177.00010179366993 39.16270616263641 
178.00010179366993 53.98206651936017 
179.00010179366993 48.13037813743486 
180.00010179366993 45.5301341285327 
181.00010179366993 53.04572854619416 
182.00010179366993 52.33192963218033 
183.00010179366993 61.523936945209556 
184.00010179366993 68.17348663210377 
185.00010179366993 76.67411818054268 
186.00010179366993 78.40247109925004 
187.00010179366993 90.68718219186812 
188.00010179366993 84.36670924459231 
189.00010179366993 92.44575289638807 
190.00010179366993 97.93434566562074 
191.00010179366993 95.27980933897042 
192.00010179366993 94.33206341062127 
193.00010179366993 104.081338666335 
194.00010179366993 102.89357486863581 
195.00010179366993 86.19324265572382 
196.00010179366993 97.08559414664316 
197.00010179366993 101.84673080552993 
198.00010179366993 89.908762621161 
199.00010179366993 90.01985137804813 
200.00010179366993 83.7485945860117 
201.00010179366993 86.37796667368127 
202.00010179366993 100.90631083945509 
203.00010179366993 78.05563662253854 
204.00010179366993 78.04803606200903 
205.00010179366993 78.427589775278 
206.00010179366993 77.36354398785838 
207.00010179366993 82.38894447250291 
208.00010179366993 86.09902823117555 
209.00010179366993 77.81658925109687 
210.00010179366993 77.01421915493327 
211.00010179366993 81.00998792980315 
212.00010179366993 83.64159223102249 
213.00010179366993 85.96136648683803 
214.00010179366993 82.22858761861045 
215.00010179366993 84.45299148301186 
216.00010179366993 91.32461719339862 
217.00010179366993 92.87281383213457 
218.00010179366993 82.77587381389628 
219.00010179366993 79.70987065350525 
220.00010179366993 84.36834851099368 
221.00010179366993 79.05230717847631 
222.00010179366993 73.63914205693271 
223.00010179366993 73.64407140916724 
224.00010179366993 63.271232656743635 
225.00010179366993 61.50701939024136 
226.00010179366993 53.302324931767444 
227.00010179366993 38.58519803081333 
228.00010179366993 37.816450452760094 
229.00010179366993 35.60701786679914 
230.00010179366993 28.746875105218976 
231.00010179366993 26.172137607769624 
232.00010179366993 27.07521772586994 
233.00010179366993 23.962063632537546 
234.00010179366993 21.252516681333532 
235.00010179366993 21.252248211279458 
236.00010179366993 21.252184695439237 
237.00010179366993 21.252099999999995 
238.00010179366993 21.252099999999995 
239.00010179366993 21.252099999999995 
240.00010179366993 21.252099999999995 
241.00010179366993 21.252099999999995 
242.00010179366993 21.252099999999995 
243.00010179366993 21.252099999999995 
244.00010179366993 21.252099999999995 
245.00010179366993 21.252099999999995 
246.00010179366993 21.252099999999995 
247.00010179366993 21.252099999999995 
248.00010179366993 21.252099999999995 
249.00010179366993 21.252099999999995 
250.00010179366993 21.252099999999995 
251.00010179366993 21.252099999999995 
252.00010179366993 21.252099999999995 
253.00010179366993 21.252099999999995 
254.00010179366993 21.252099999999995 
255.00010179366993 21.252099999999995 
256.00010179366996 21.252099999999995 
257.00010179366996 21.252099999999995 
258.00010179366996 21.252099999999995 
259.00010179366996 21.252099999999995 
260.00010179366996 21.252099999999995 
261.00010179366996 21.252099999999995 
262.00010179366996 21.252099999999995 
263.00010179366996 21.252099999999995 
264.00010179366996 21.252099999999995 
265.00010179366996 21.252099999999995 
266.00010179366996 21.252099999999995 
267.00010179366996 21.252099999999995 
268.00010179366996 21.252099999999995 
269.00010179366996 21.252099999999995 
270.00010179366996 21.252099999999995 
271.00010179366996 21.252099999999995 
272.00010179366996 21.252099999999995 
273.00010179366996 21.252099999999995 
274.00010179366996 21.252099999999995 
275.00010179366996 21.252099999999995 
276.00010179366996 21.252099999999995 
277.00010179366996 21.252099999999995 
278.00010179366996 21.252099999999995 
279.00010179366996 21.252099999999995 
280.00010179366996 21.252099999999995 
281.00010179366996 21.252099999999995 
282.00010179366996 21.252099999999995 
283.00010179366996 21.252099999999995 
284.00010179366996 21.252099999999995 
285.00010179366996 21.252099999999995 
286.00010179366996 21.252099999999995 
287.00010179366996 21.252099999999995 
288.00010179366996 21.252099999999995 
289.00010179366996 21.252099999999995 
290.00010179366996 21.252099999999995 
291.00010179366996 21.252099999999995 
292.00010179366996 21.252099999999995 
293.00010179366996 21.252099999999995 
294.00010179366996 21.252099999999995 
295.00010179366996 21.252099999999995 
296.00010179366996 21.252099999999995 
297.00010179366996 21.252099999999995 
298.00010179366996 21.252099999999995 
299.00010179366996 21.252099999999995 
300.00010179366996 21.252099999999995 
301.00010179366996 21.252099999999995 
302.00010179366996 21.252099999999995 
303.00010179366996 21.252099999999995 
304.00010179366996 21.252099999999995 
305.00010179366996 21.252099999999995 
306.00010179366996 21.252099999999995 
307.00010179366996 21.252099999999995 
308.00010179366996 21.252099999999995 
309.00010179366996 21.252099999999995 
310.00010179366996 21.252099999999995 
311.00010179366996 21.252099999999995 
312.00010179366996 21.252099999999995 
#####################################################################
# End of data export. Simulation finished at: 2017-05-23T19:33+0000 #
#####################################################################
