#####################################################################
# Alchemist log file - simulation started at: 2017-05-25T21:23+0000 #
#####################################################################
# random = 8.0, targets = 100.0, density = 7.099073319511142, gridShift = 1.0, perturbation = 0.0, connfactor = 0.75
#
# The columns have the following meaning: 
# time se[Mean] 
0.0 NaN 
1.0009686244946094 NaN 
2.000968624494609 1.0019301923076922 
3.000968624494609 1.0034714565527065 
4.000968624494609 1.0042382941595442 
5.000968624494609 1.0039321153846155 
6.000968624494609 1.0008093732193732 
7.000968624494609 0.9979778276353276 
8.00096862449461 0.9960028846153847 
9.00096862449461 0.9943703632478632 
10.00096862449461 0.9928008938746439 
11.00096862449461 0.9913583547008548 
12.00096862449461 0.9887537713675214 
13.00096862449461 0.9881550961538461 
14.00096862449461 0.9888307763532763 
15.00096862449461 0.9857936574074074 
16.00096862449461 0.9853170477207978 
17.00096862449461 0.9828723611111111 
18.00096862449461 0.9815095405982907 
19.00096862449461 0.9801820263532764 
20.00096862449461 0.9769147471509971 
21.00096862449461 0.9744771688034188 
22.00096862449461 0.9712287286324787 
23.00096862449461 0.9656465527065528 
24.00096862449461 0.9638852813390313 
25.00096862449461 0.9587698433048433 
26.00096862449461 0.952559212962963 
27.00096862449461 0.9468831196581197 
28.00096862449461 0.9443295512820513 
29.00096862449461 0.9396877564102564 
30.00096862449461 0.9354067592592592 
31.00096862449461 0.9301716274928775 
32.00096862449461 0.9253261111111111 
33.00096862449461 0.9197478133903134 
34.00096862449461 0.9118255377492878 
35.00096862449461 0.9051559045584046 
36.00096862449461 0.9008148397435897 
37.00096862449461 0.8909194301994302 
38.00096862449461 0.8844628846153847 
39.00096862449461 0.8788034544159544 
40.00096862449461 0.8700289245014245 
41.00096862449461 0.864032824074074 
42.00096862449461 0.8556238603988604 
43.00096862449461 0.8492694444444445 
44.00096862449461 0.8420144836182337 
45.00096862449461 0.833473693019943 
46.00096862449461 0.829238457977208 
47.00096862449461 0.8207641951566952 
48.00096862449461 0.8154415990028492 
49.00096862449461 0.8110559544159545 
50.00096862449461 0.8066632336182337 
51.00096862449461 0.8010018304843306 
52.00096862449461 0.7973126566951567 
53.00096862449461 0.7900004166666666 
54.00096862449461 0.7817304950142451 
55.00096862449461 0.7784006481481482 
56.00096862449461 0.7706014423076925 
57.00096862449461 0.7607530413105414 
58.00096862449461 0.7536590562678064 
59.00096862449461 0.7498438497150999 
60.00096862449461 0.7449247044159545 
61.00096862449461 0.7359376032763534 
62.00096862449461 0.733769415954416 
63.00096862449461 0.7364984401709403 
64.00096862449462 0.734527727920228 
65.00096862449462 0.7283054024216526 
66.00096862449462 0.7256429807692308 
67.00096862449462 0.7283500284900286 
68.00096862449462 0.7254279237891739 
69.00096862449462 0.725406737891738 
70.00096862449462 0.7246726175213676 
71.00096862449462 0.7245257727920229 
72.00096862449462 0.7233800000000001 
73.00096862449462 0.7246157692307693 
74.00096862449462 0.7193098433048434 
75.00096862449462 0.7180584330484332 
76.00096862449462 0.7131415883190885 
77.00096862449462 0.7102844836182337 
78.00096862449462 0.7078213960113962 
79.00096862449462 0.7029115562678064 
80.00096862449462 0.6974928988603989 
81.00096862449462 0.6923323824786326 
82.00096862449462 0.6877080341880343 
83.00096862449462 0.6818922471509973 
84.00096862449462 0.6786565990028491 
85.00096862449462 0.671597004985755 
86.00096862449462 0.66631702991453 
87.00096862449462 0.6598564601139602 
88.00096862449462 0.651065252849003 
89.00096862449462 0.6426238425925926 
90.00096862449462 0.6324373433048436 
91.00096862449462 0.6235868767806269 
92.00096862449462 0.6142777350427351 
93.00096862449462 0.6041967592592593 
94.00096862449462 0.5961240242165242 
95.00096862449462 0.5884651745014247 
96.00096862449462 0.5775072150997153 
97.00096862449462 0.5686069195156697 
98.00096862449462 0.5571422435897437 
99.00096862449462 0.5548419123931625 
100.00096862449462 0.5440702777777778 
101.00096862449462 0.5328379309116811 
102.00096862449462 0.526048457977208 
103.00096862449462 0.5160634259259261 
104.00096862449462 0.5058256944444445 
105.00096862449462 0.49922582977207985 
106.00096862449462 0.4871409294871797 
107.00096862449462 0.48113293447293454 
108.00096862449462 0.4654931623931625 
109.00096862449462 0.4620936360398861 
110.00096862449462 0.4523609259259259 
111.00096862449462 0.4389139316239317 
112.00096862449462 0.43094699786324797 
113.00096862449462 0.42504787749287765 
114.00096862449462 0.41605904914529923 
115.00096862449462 0.4061041025641027 
116.00096862449462 0.3997979309116811 
117.00096862449462 0.3972065633903135 
118.00096862449462 0.3872379843304844 
119.00096862449462 0.384032410968661 
120.00096862449462 0.3818622222222224 
121.00096862449462 0.37218680199430215 
122.00096862449462 0.37233304487179497 
123.00096862449462 0.36511076923076935 
124.00096862449462 0.3615839494301995 
125.00096862449462 0.3609499002849004 
126.00096862449462 0.35535643874643885 
127.00096862449462 0.3581381801994303 
128.00096862449462 0.35653877849002863 
129.00096862449462 0.355441737891738 
130.00096862449462 0.35483825498575505 
131.00096862449462 0.3489808262108263 
132.00096862449462 0.3500354202279203 
133.00096862449462 0.34811017094017105 
134.00096862449462 0.3474496794871796 
135.00096862449462 0.34727462962962974 
136.00096862449462 0.3455286894586896 
137.00096862449462 0.3448212286324787 
138.00096862449462 0.3441412072649574 
139.00096862449462 0.3431194337606839 
140.00096862449462 0.3422343910256411 
141.00096862449462 0.3409930911680913 
142.00096862449462 0.3403550356125357 
143.00096862449462 0.34014628917378925 
144.00096862449462 0.3385019123931625 
145.00096862449462 0.33830378205128214 
146.00096862449462 0.33772903846153857 
147.00096862449462 0.3379912571225072 
148.00096862449462 0.33802566951566965 
149.00096862449462 0.3381327920227921 
150.00096862449462 0.338266826923077 
151.00096862449462 0.3379194836182337 
152.00096862449462 0.3377418447293448 
153.00096862449462 0.337455633903134 
154.00096862449462 0.33711075854700867 
155.00096862449462 0.337009237891738 
156.00096862449462 0.33671865384615396 
157.00096862449462 0.3365741559829061 
158.00096862449462 0.3364153027065528 
159.00096862449462 0.336299383903134 
160.00096862449462 0.33636013176638185 
161.00096862449462 0.3362894480056981 
162.00096862449462 0.33638232193732204 
163.00096862449462 0.3364250356125357 
164.00096862449462 0.3364323397435898 
165.00096862449462 0.33642978632478643 
166.00096862449462 0.33642978632478643 
167.00096862449462 0.33641985754985765 
168.00096862449462 0.3364173753561254 
169.00096862449462 0.33641241096866104 
170.00096862449462 0.3364049643874645 
171.00096862449462 0.3364049643874645 
172.00096862449462 0.3364000000000001 
173.00096862449462 0.3364000000000001 
174.00096862449462 0.3364000000000001 
175.00096862449462 0.3364000000000001 
176.00096862449462 0.3364000000000001 
177.00096862449462 0.3364000000000001 
178.00096862449462 0.3364000000000001 
179.00096862449462 0.3364000000000001 
180.00096862449462 0.3364000000000001 
181.00096862449462 0.3364000000000001 
182.00096862449462 0.3364000000000001 
183.00096862449462 0.3364000000000001 
184.00096862449462 0.3364000000000001 
185.00096862449462 0.3364000000000001 
186.00096862449462 0.3364000000000001 
187.00096862449462 0.3364000000000001 
188.00096862449462 0.3364000000000001 
189.00096862449462 0.3364000000000001 
190.00096862449462 0.3364000000000001 
191.00096862449462 0.3364000000000001 
192.00096862449462 0.3364000000000001 
193.00096862449462 0.3364000000000001 
194.00096862449462 0.3364000000000001 
195.00096862449462 0.3364000000000001 
196.00096862449462 0.3364000000000001 
197.00096862449462 0.3364000000000001 
198.00096862449462 0.3364000000000001 
199.00096862449462 0.3364000000000001 
200.00096862449462 0.3364000000000001 
201.00096862449462 0.3364000000000001 
202.00096862449462 0.3364000000000001 
203.00096862449462 0.3364000000000001 
204.00096862449462 0.3364000000000001 
205.00096862449462 0.3364000000000001 
206.00096862449462 0.3364000000000001 
207.00096862449462 0.3364000000000001 
208.00096862449462 0.3364000000000001 
209.00096862449462 0.3364000000000001 
210.00096862449462 0.3364000000000001 
211.00096862449462 0.3364000000000001 
212.00096862449462 0.3364000000000001 
213.00096862449462 0.3364000000000001 
214.00096862449462 0.3364000000000001 
215.00096862449462 0.3364000000000001 
216.00096862449462 0.3364000000000001 
217.00096862449462 0.3364000000000001 
218.00096862449462 0.3364000000000001 
219.00096862449462 0.3364000000000001 
220.00096862449462 0.3364000000000001 
221.00096862449462 0.3364000000000001 
222.00096862449462 0.3364000000000001 
223.00096862449462 0.3364000000000001 
224.00096862449462 0.3364000000000001 
225.00096862449462 0.3364000000000001 
226.00096862449462 0.3364000000000001 
227.00096862449462 0.3364000000000001 
228.00096862449462 0.3364000000000001 
229.00096862449462 0.3364000000000001 
230.00096862449462 0.3364000000000001 
#####################################################################
# End of data export. Simulation finished at: 2017-05-25T21:34+0000 #
#####################################################################
