#####################################################################
# Alchemist log file - simulation started at: 2017-05-21T03:00+0000 #
#####################################################################
# random = 2.0, targets = 1.0, density = 0.04, gridShift = 1.0, perturbation = 0.5, connfactor = 0.25
#
# The columns have the following meaning: 
# time se[Mean] 
0.0 NaN 
1.003288451303821 NaN 
2.003288451303821 1.0 
3.003288451303821 1.0 
#####################################################################
# End of data export. Simulation finished at: 2017-05-21T03:00+0000 #
#####################################################################
