#####################################################################
# Alchemist log file - simulation started at: 2017-05-25T12:41+0000 #
#####################################################################
# random = 18.0, targets = 1.0, density = 0.04, gridShift = 0.0, perturbation = 0.5, connfactor = 0.1
#
# The columns have the following meaning: 
# time se[Mean] 
0.0 NaN 
1.1735073816495318 NaN 
2.173507381649532 NaN 
3.173507381649532 1.0 
4.173507381649532 1.0 
#####################################################################
# End of data export. Simulation finished at: 2017-05-25T12:41+0000 #
#####################################################################
