#####################################################################
# Alchemist log file - simulation started at: 2017-05-23T20:18+0000 #
#####################################################################
# random = 12.0, targets = 100.0, density = 10.026386447354522, gridShift = 0.0, perturbation = 0.5, connfactor = 0.25
#
# The columns have the following meaning: 
# time se[Mean] 
0.0 NaN 
1.0005590746559656 NaN 
2.000559074655966 1.0 
3.000559074655966 0.9998720844811754 
4.000559074655966 0.9994704315886134 
5.000559074655966 0.9989414141414141 
6.000559074655966 0.9978112029384757 
7.000559074655966 0.9963921028466483 
8.000559074655966 0.9953945821854913 
9.000559074655966 0.9941449035812672 
10.000559074655966 0.9918799816345272 
11.000559074655966 0.9908625573921029 
12.000559074655966 0.9894829660238751 
13.000559074655966 0.9881004591368227 
14.000559074655966 0.9865653351698805 
15.000559074655966 0.9846285812672175 
16.000559074655968 0.9840693985307623 
17.000559074655968 0.9816560376492194 
18.000559074655968 0.9803393480257117 
19.000559074655968 0.9789030073461892 
20.000559074655968 0.9754890725436179 
21.000559074655968 0.9750624426078971 
22.000559074655968 0.9721196280991736 
23.000559074655968 0.9712966483011938 
24.000559074655968 0.9684138659320477 
25.000559074655968 0.9672335629017447 
26.000559074655968 0.9661537190082644 
27.000559074655968 0.9640304407713499 
28.000559074655968 0.9642111111111112 
29.000559074655968 0.9622892102846647 
30.000559074655968 0.9614133149678604 
31.000559074655968 0.9609353535353536 
32.00055907465597 0.9593882920110192 
33.00055907465597 0.9585660468319559 
34.00055907465597 0.9564347107438016 
35.00055907465597 0.9555170339761249 
36.00055907465597 0.9531984389348027 
37.00055907465597 0.9496773186409552 
38.00055907465597 0.9443135215794307 
39.00055907465597 0.9386898071625344 
40.00055907465597 0.9293083333333336 
41.00055907465597 0.9213973370064276 
42.00055907465597 0.9117019972451795 
43.00055907465597 0.8997612488521577 
44.00055907465597 0.8928738292011017 
45.00055907465597 0.8802479109274562 
46.00055907465597 0.8745407713498622 
47.00055907465597 0.8635190312213035 
48.00055907465597 0.854522405876951 
49.00055907465597 0.8408150826446278 
50.00055907465597 0.8327831037649215 
51.00055907465597 0.8254948806244263 
52.00055907465597 0.8208223370064274 
53.00055907465597 0.8167036501377407 
54.00055907465597 0.812817906336088 
55.00055907465597 0.812847566574839 
56.00055907465597 0.8092444674012853 
57.00055907465597 0.8082605601469239 
58.00055907465597 0.8071991735537192 
59.00055907465597 0.8026374426078968 
60.00055907465597 0.7948385445362718 
61.00055907465597 0.7908790863177225 
62.00055907465597 0.7868964876033058 
63.00055907465597 0.7774146923783288 
64.00055907465597 0.7743067952249769 
65.00055907465597 0.7645684343434344 
66.00055907465597 0.7587724517906335 
67.00055907465597 0.7502804407713498 
68.00055907465597 0.7460618457300275 
69.00055907465597 0.7364464416896235 
70.00055907465597 0.7298965564738292 
71.00055907465597 0.7270864095500459 
72.00055907465597 0.715216230486685 
73.00055907465597 0.7138293158861341 
74.00055907465597 0.7140467860422406 
75.00055907465597 0.7109133608815427 
76.00055907465597 0.7035447428833795 
77.00055907465597 0.7003628787878786 
78.00055907465597 0.6869466253443527 
79.00055907465597 0.677556359044995 
80.00055907465597 0.6667621671258035 
81.00055907465597 0.6637457529843895 
82.00055907465597 0.6541734159779614 
83.00055907465597 0.6358909090909092 
84.00055907465597 0.6579425160697888 
85.00055907465597 0.6340980486685031 
86.00055907465597 0.6581071395775943 
87.00055907465597 0.6560805555555554 
88.00055907465597 0.6423204086317723 
89.00055907465597 0.6907065197428834 
90.00055907465597 0.6563022268135904 
91.00055907465597 0.6824603535353535 
92.00055907465597 0.6515738292011021 
93.00055907465597 0.6725603764921947 
94.00055907465597 0.6812245638200184 
95.00055907465597 0.6895040633608818 
96.00055907465597 0.6822947887970616 
97.00055907465597 0.7035565197428836 
98.00055907465597 0.6821442378328743 
99.00055907465597 0.6474546602387512 
100.00055907465597 0.6923310606060609 
101.00055907465597 0.6496243572084482 
102.00055907465597 0.716678168044077 
103.00055907465597 0.684083310376492 
104.00055907465597 0.8034418962350777 
105.00055907465597 0.7958563820018356 
106.00055907465597 0.7957710514233239 
107.00055907465597 0.995948599632691 
108.00055907465597 0.880136065197429 
109.00055907465597 1.0267413911845724 
110.00055907465597 0.9340546831955927 
111.00055907465597 1.053206382001836 
112.00055907465597 1.0966658631772268 
113.00055907465597 1.1708481175390268 
114.00055907465597 1.1627991965105589 
115.00055907465597 1.1982625803489433 
116.00055907465597 1.2080288567493112 
117.00055907465597 1.0625016299357208 
118.00055907465597 1.1422711891643713 
119.00055907465597 1.0638012626262623 
120.00055907465597 0.967692194674013 
121.00055907465597 0.919566184573003 
122.00055907465597 0.9740723370064273 
123.00055907465597 0.8728786730945822 
124.00055907465597 0.9429202938475669 
125.00055907465597 0.950304269972451 
126.00055907465597 0.8518365472910927 
127.00055907465597 1.0208192378328738 
128.00055907465597 0.9072126951331497 
129.00055907465597 0.9981597107438007 
130.00055907465597 0.9921522038567498 
131.00055907465597 1.0584854683195593 
132.00055907465597 0.9836121441689636 
133.00055907465597 0.9135275482093673 
134.00055907465597 1.079527915518827 
135.00055907465597 0.8649627180899945 
136.00055907465597 0.8475608815427026 
137.00055907465597 0.8282794306703376 
138.00055907465597 0.6778674012855858 
139.00055907465597 0.584944168962352 
140.00055907465597 0.6608815426997263 
141.00055907465597 0.5412390266299362 
142.00055907465597 0.5272041322314045 
143.00055907465597 0.5092261707988986 
144.00055907465597 0.5427217630853978 
145.00055907465597 0.5118705234159779 
146.00055907465597 0.4964364554637276 
147.00055907465597 0.4959872359963257 
148.00055907465597 0.45026997245179085 
149.00055907465597 0.4659105601469239 
150.00055907465597 0.435599540863177 
151.00055907465597 0.42099559228650135 
152.00055907465597 0.4210447199265381 
153.00055907465597 0.42175371900826447 
154.00055907465597 0.4220805325987144 
155.00055907465597 0.422208448117539 
156.00055907465597 0.4222191919191919 
157.00055907465597 0.4223489439853076 
158.00055907465597 0.42221827364554637 
159.00055907465597 0.42234784205693293 
160.00055907465597 0.42235895316804406 
161.00055907465597 0.4223706152433425 
162.00055907465597 0.42245298438934803 
163.00055907465597 0.422429476584022 
164.00055907465597 0.422476492194674 
165.00055907465597 0.4225 
166.00055907465597 0.4225 
167.00055907465597 0.4225 
168.00055907465597 0.4225 
169.00055907465597 0.4225 
170.00055907465597 0.4225 
171.00055907465597 0.4225 
172.00055907465597 0.4225 
173.00055907465597 0.4225 
174.00055907465597 0.4225 
175.00055907465597 0.4225 
176.00055907465597 0.4225 
177.00055907465597 0.4225 
178.00055907465597 0.4225 
179.00055907465597 0.4225 
180.00055907465597 0.4225 
181.00055907465597 0.4225 
182.00055907465597 0.4225 
183.00055907465597 0.4225 
184.00055907465597 0.4225 
185.00055907465597 0.4225 
186.00055907465597 0.4225 
187.00055907465597 0.4225 
188.00055907465597 0.4225 
189.00055907465597 0.4225 
190.00055907465597 0.4225 
191.00055907465597 0.4225 
192.00055907465597 0.4225 
193.00055907465597 0.4225 
194.00055907465597 0.4225 
195.00055907465597 0.4225 
196.00055907465597 0.4225 
197.00055907465597 0.4225 
198.00055907465597 0.4225 
199.00055907465597 0.4225 
200.00055907465597 0.4225 
201.00055907465597 0.4225 
202.00055907465597 0.4225 
203.00055907465597 0.4225 
204.00055907465597 0.4225 
205.00055907465597 0.4225 
206.00055907465597 0.4225 
207.00055907465597 0.4225 
208.00055907465597 0.4225 
209.00055907465597 0.4225 
210.00055907465597 0.4225 
211.00055907465597 0.4225 
212.00055907465597 0.4225 
213.00055907465597 0.4225 
214.00055907465597 0.4225 
215.00055907465597 0.4225 
216.00055907465597 0.4225 
217.00055907465597 0.4225 
218.00055907465597 0.4225 
219.00055907465597 0.4225 
220.00055907465597 0.4225 
221.00055907465597 0.4225 
222.00055907465597 0.4225 
223.00055907465597 0.4225 
224.00055907465597 0.4225 
225.00055907465597 0.4225 
226.00055907465597 0.4225 
227.00055907465597 0.4225 
228.00055907465597 0.4225 
229.00055907465597 0.4225 
230.00055907465597 0.4225 
231.00055907465597 0.4225 
232.00055907465597 0.4225 
233.00055907465597 0.4225 
234.00055907465597 0.4225 
235.00055907465597 0.4225 
236.00055907465597 0.4225 
237.00055907465597 0.4225 
238.00055907465597 0.4225 
239.00055907465597 0.4225 
240.00055907465597 0.4225 
241.00055907465597 0.4225 
#####################################################################
# End of data export. Simulation finished at: 2017-05-23T20:20+0000 #
#####################################################################
