#####################################################################
# Alchemist log file - simulation started at: 2017-05-20T21:54+0000 #
#####################################################################
# random = 1.0, targets = 100.0, density = 0.04, gridShift = 0.0, perturbation = 0.0, connfactor = 0.75
#
# The columns have the following meaning: 
# time se[Mean] 
0.0 NaN 
1.0048855897957667 NaN 
2.0048855897957667 1.16069375 
3.0048855897957667 1.1860203559027778 
4.004885589795767 1.1327170572916667 
5.004885589795767 1.0770531250000002 
6.004885589795767 0.9116085069444446 
7.004885589795767 0.5877135850694446 
8.004885589795766 0.421410763888889 
9.004885589795766 0.23102673611111113 
10.004885589795766 0.07368676215277777 
11.004885589795766 0.025863888888888895 
12.004885589795766 0.026304340277777782 
13.004885589795766 0.023516015625 
14.004885589795766 0.022377777777777778 
15.004885589795766 0.0225 
16.004885589795766 0.0225 
17.004885589795766 0.0225 
18.004885589795766 0.0225 
19.004885589795766 0.0225 
20.004885589795766 0.0225 
#####################################################################
# End of data export. Simulation finished at: 2017-05-20T21:54+0000 #
#####################################################################
