#####################################################################
# Alchemist log file - simulation started at: 2017-05-24T06:51+0000 #
#####################################################################
# random = 14.0, targets = 3.1622776601683795, density = 5.0264212595847235, gridShift = 0.0, perturbation = 0.5, connfactor = 0.75
#
# The columns have the following meaning: 
# time se[Mean] 
0.0 NaN 
1.0015837731381736 NaN 
2.0015837731381736 NaN 
3.0015837731381736 0.9988446245400455 
4.001583773138174 0.9950322919116863 
5.001583773138174 0.9954526140771662 
6.001583773138174 0.993041351989404 
7.001583773138174 0.9996715632587078 
8.001583773138174 0.9981542439905068 
9.001583773138174 0.99266417860827 
10.001583773138174 0.9907717179063882 
11.001583773138174 0.9817139990027082 
12.001583773138174 0.9789824179304559 
13.001583773138174 0.977779641804428 
14.001583773138174 0.9705814505291492 
15.001583773138174 0.9671973698362509 
16.001583773138172 0.9601738056458096 
17.001583773138172 0.9491043953980746 
18.001583773138172 0.9399466733134043 
19.001583773138172 0.93012572791036 
20.001583773138172 0.9172268071997454 
21.001583773138172 0.9073741986903782 
22.001583773138172 0.881047980172488 
23.001583773138172 0.8703305520155654 
24.001583773138172 0.8519329401790489 
25.001583773138172 0.8346550428078687 
26.001583773138172 0.8332518743132078 
27.001583773138172 0.8243771642776085 
28.001583773138172 0.814917466709126 
29.001583773138172 0.8029213785881791 
30.001583773138172 0.8144345143046846 
31.001583773138172 0.8051267264584241 
32.00158377313817 0.7973140485046124 
33.00158377313817 0.8169077006247148 
34.00158377313817 0.7953239925428364 
35.00158377313817 0.7999044995259721 
36.00158377313817 0.8088582073273572 
37.00158377313817 0.8096076622078145 
38.00158377313817 0.8134665015087316 
39.00158377313817 0.8199586306483212 
40.00158377313817 0.8107722933785084 
41.00158377313817 0.8100843207500656 
42.00158377313817 0.8055218932411655 
43.00158377313817 0.8013112598362568 
44.00158377313817 0.8032196460847099 
45.00158377313817 0.8040267833487166 
46.00158377313817 0.7987149009593597 
47.00158377313817 0.8041440480500469 
48.00158377313817 0.8040267833487166 
49.00158377313817 0.8051857147167134 
50.00158377313817 0.8106148618074003 
51.00158377313817 0.8151196069327508 
52.00158377313817 0.8156556698389713 
53.00158377313817 0.8184288757349811 
54.00158377313817 0.8230920023985558 
55.00158377313817 0.8193380481274303 
56.00158377313817 0.8240011747910041 
57.00158377313817 0.8220747023796406 
58.00158377313817 0.8171679092385415 
59.00158377313817 0.8172059814985919 
60.00158377313817 0.8108356789090903 
61.00158377313817 0.8071807118452289 
62.00158377313817 0.8019997964251643 
63.00158377313817 0.7947964659633155 
64.00158377313818 0.7852097926251637 
65.00158377313818 0.781733005209845 
66.00158377313818 0.7628733770331452 
67.00158377313818 0.7536049907320302 
68.00158377313818 0.7440426840416307 
69.00158377313818 0.7285441025395085 
70.00158377313818 0.7153374898207022 
71.00158377313818 0.7049330181830893 
72.00158377313818 0.6953570058803921 
73.00158377313818 0.6787604113018227 
74.00158377313818 0.6637049946523434 
75.00158377313818 0.6464642128854244 
76.00158377313818 0.6277355550223529 
77.00158377313818 0.6145091508818992 
78.00158377313818 0.5993151441158435 
79.00158377313818 0.5926920847946624 
80.00158377313818 0.5749136994392507 
81.00158377313818 0.5632513292923961 
82.00158377313818 0.5514260023812121 
83.00158377313818 0.5406073144534876 
84.00158377313818 0.5273214858830456 
85.00158377313818 0.5229751724609654 
86.00158377313818 0.5137661738021375 
87.00158377313818 0.5011793782795914 
88.00158377313818 0.49734627169922324 
89.00158377313818 0.4922308631741595 
90.00158377313818 0.4775820363231708 
91.00158377313818 0.47715112000896526 
92.00158377313818 0.46056513964514006 
93.00158377313818 0.45358265303967366 
94.00158377313818 0.4480058155452459 
95.00158377313818 0.4388623070597369 
96.00158377313818 0.42383428825750724 
97.00158377313818 0.41668732761579474 
98.00158377313818 0.4084804495680406 
99.00158377313818 0.3903807359430852 
100.00158377313818 0.3777254023260408 
101.00158377313818 0.3642109923405131 
102.00158377313818 2.723191467318099 
103.00158377313818 0.33587624234694874 
104.00158377313818 16.931470368081612 
105.00158377313818 9.800502326313048 
106.00158377313818 16.90413087084343 
107.00158377313818 21.63382308494759 
108.00158377313818 26.361139357892554 
109.00158377313818 16.853490557099015 
110.00158377313818 35.82176059734671 
111.00158377313818 33.43260553759897 
112.00158377313818 31.04198905966817 
113.00158377313818 45.265962827811244 
114.00158377313818 52.37018851811599 
115.00158377313818 40.489569123784214 
116.00158377313818 64.20657775238703 
117.00158377313818 42.835414192740664 
118.00158377313818 49.94153916566235 
119.00158377313818 59.42406506549424 
120.00158377313818 57.0424468695399 
121.00158377313818 47.54202005602031 
122.00158377313818 54.65434723223615 
123.00158377313818 66.51525212127527 
124.00158377313818 57.0186222787979 
125.00158377313818 49.893286887072 
126.00158377313818 52.26092621287194 
127.00158377313818 54.63103376710346 
128.00158377313818 45.133198354572286 
129.00158377313818 42.75489132735445 
130.00158377313818 45.12372155759571 
131.00158377313818 47.49320986528009 
132.00158377313818 42.74280789981645 
133.00158377313818 30.87223983701157 
134.00158377313818 33.24142337528437 
135.00158377313818 28.49249805423235 
136.00158377313818 21.370037131517634 
137.00158377313818 11.87461855889673 
138.00158377313818 9.499777460038889 
139.00158377313818 2.379194464426917 
140.00158377313818 4.751362492582957 
141.00158377313818 0.004490223672254822 
142.00158377313818 0.003921801686026782 
143.00158377313818 0.003721917304257732 
144.00158377313818 0.003486051927828562 
145.00158377313818 0.003150437363840928 
146.00158377313818 0.002943131198954222 
147.00158377313818 0.002780177778961495 
148.00158377313818 0.002740010909184445 
149.00158377313818 0.002667098952748002 
150.00158377313818 0.002620460266969497 
151.00158377313818 0.0026301679909716794 
152.00158377313818 0.002626932082970952 
153.00158377313818 0.002633403898972407 
154.00158377313818 0.002633403898972407 
155.00158377313818 0.002633403898972407 
156.00158377313818 0.002633403898972407 
157.00158377313818 0.002633403898972407 
158.00158377313818 0.002633403898972407 
159.00158377313818 0.002633403898972407 
160.00158377313818 0.002633403898972407 
161.00158377313818 0.002633403898972407 
162.00158377313818 0.002633403898972407 
163.00158377313818 0.002633403898972407 
164.00158377313818 0.002633403898972407 
165.00158377313818 0.002633403898972407 
166.00158377313818 0.002633403898972407 
167.00158377313818 0.002633403898972407 
168.00158377313818 0.002633403898972407 
169.00158377313818 0.002633403898972407 
170.00158377313818 0.002633403898972407 
171.00158377313818 0.002633403898972407 
172.00158377313818 0.002633403898972407 
173.00158377313818 0.002633403898972407 
174.00158377313818 0.002633403898972407 
175.00158377313818 0.002633403898972407 
176.00158377313818 0.002633403898972407 
177.00158377313818 0.002633403898972407 
178.00158377313818 0.002633403898972407 
179.00158377313818 0.002633403898972407 
180.00158377313818 0.002633403898972407 
181.00158377313818 0.002633403898972407 
182.00158377313818 0.002633403898972407 
183.00158377313818 0.002633403898972407 
184.00158377313818 0.002633403898972407 
185.00158377313818 0.002633403898972407 
186.00158377313818 0.002633403898972407 
187.00158377313818 0.002633403898972407 
188.00158377313818 0.002633403898972407 
189.00158377313818 0.002633403898972407 
190.00158377313818 0.002633403898972407 
191.00158377313818 0.002633403898972407 
192.00158377313818 0.002633403898972407 
193.00158377313818 0.002633403898972407 
194.00158377313818 0.002633403898972407 
195.00158377313818 0.002633403898972407 
196.00158377313818 0.002633403898972407 
197.00158377313818 0.002633403898972407 
198.00158377313818 0.002633403898972407 
199.00158377313818 0.002633403898972407 
200.00158377313818 0.002633403898972407 
201.00158377313818 0.002633403898972407 
202.00158377313818 0.002633403898972407 
203.00158377313818 0.002633403898972407 
#####################################################################
# End of data export. Simulation finished at: 2017-05-24T06:51+0000 #
#####################################################################
