#####################################################################
# Alchemist log file - simulation started at: 2017-05-24T19:53+0000 #
#####################################################################
# random = 7.0, targets = 10.0, density = 0.6332893950589894, gridShift = 0.0, perturbation = 0.5, connfactor = 0.5
#
# The columns have the following meaning: 
# time se[Mean] 
0.0 NaN 
1.0047104299125222 NaN 
2.0047104299125222 1.0 
3.0047104299125222 0.9987962962962963 
4.004710429912523 0.9933950617283951 
5.004710429912523 0.989783950617284 
6.004710429912523 0.9699691358024691 
7.004710429912523 0.9573765432098765 
8.004710429912523 0.9687345679012346 
9.004710429912523 0.9435185185185185 
10.004710429912523 0.9613305898491084 
11.004710429912523 0.9403026406035665 
12.004710429912523 0.9249639917695474 
13.004710429912523 0.909266975308642 
14.004710429912523 0.8929578189300412 
15.004710429912523 0.8758033264746227 
16.00471042991252 0.8685416666666667 
17.00471042991252 0.8565269204389575 
18.00471042991252 0.8257964677640603 
19.00471042991252 0.8140860768175584 
20.00471042991252 0.7696493484224967 
21.00471042991252 0.7193698559670781 
22.00471042991252 0.6747050754458161 
23.00471042991252 0.6360896776406035 
24.00471042991252 0.6058804869684499 
25.00471042991252 0.5597762345679013 
26.00471042991252 0.5215612139917696 
27.00471042991252 0.5023388203017832 
28.00471042991252 0.47760030864197534 
29.00471042991252 0.48744255829903976 
30.00471042991252 0.5700454389574758 
31.00471042991252 0.5141392318244169 
32.00471042991252 0.6193381344307268 
33.00471042991252 0.6606687242798349 
34.00471042991252 0.5138683127572015 
35.00471042991252 0.5539197530864195 
36.00471042991252 0.4759362139917694 
37.00471042991252 0.5457613168724277 
38.00471042991252 0.49583333333333307 
39.00471042991252 0.3805384087791494 
40.00471042991252 0.4352709190672152 
41.00471042991252 0.31062414266117966 
42.00471042991252 0.3511522633744856 
43.00471042991252 0.3530452674897119 
44.00471042991252 0.34762345679012346 
45.00471042991252 0.3555178326474623 
46.00471042991252 0.3542832647462277 
47.00471042991252 0.3580555555555555 
48.00471042991252 0.36 
49.00471042991252 0.36 
50.00471042991252 0.36 
51.00471042991252 0.36 
52.00471042991252 0.36 
53.00471042991252 0.36 
54.00471042991252 0.36 
55.00471042991252 0.36 
56.00471042991252 0.36 
57.00471042991252 0.36 
58.00471042991252 0.36 
59.00471042991252 0.36 
60.00471042991252 0.36 
61.00471042991252 0.36 
62.00471042991252 0.36 
63.00471042991252 0.36 
64.00471042991252 0.36 
#####################################################################
# End of data export. Simulation finished at: 2017-05-24T19:53+0000 #
#####################################################################
