#####################################################################
# Alchemist log file - simulation started at: 2017-05-24T17:31+0000 #
#####################################################################
# random = 7.0, targets = 3.1622776601683795, density = 1.7841466528270753, gridShift = 1.0, perturbation = 0.0, connfactor = 0.25
#
# The columns have the following meaning: 
# time se[Mean] 
0.0 NaN 
1.001616958347866 NaN 
2.0016169583478662 1.0 
3.0016169583478662 0.9976229663748497 
4.001616958347866 0.9857377982490979 
5.001616958347866 0.9762296637484967 
6.001616958347866 0.9833607646239477 
7.001616958347866 0.9881148318742483 
8.001616958347867 0.9952459327496993 
9.001616958347867 0.9904918654993986 
10.001616958347867 0.9904918654993986 
11.001616958347867 0.9738526301233462 
12.001616958347867 0.9833607646239477 
13.001616958347867 0.9690985628730455 
14.001616958347867 0.9833607646239477 
15.001616958347867 0.9786066973736469 
16.001616958347867 0.9904918654993986 
17.001616958347867 0.9833607646239477 
18.001616958347867 0.9976229663748497 
19.001616958347867 0.9952459327496993 
20.001616958347867 0.9976229663748497 
21.001616958347867 1.0 
22.001616958347867 1.0 
23.001616958347867 1.0 
24.001616958347867 1.0 
25.001616958347867 0.9961387898925564 
26.001616958347867 0.9922775797851129 
27.001616958347867 0.9783169158376319 
28.001616958347867 0.9759398822124816 
29.001616958347867 0.9702929578193239 
30.001616958347867 0.9346492097094748 
31.001616958347867 0.9483083358535348 
32.00161695834787 0.9150298651014299 
33.00161695834787 0.8903784279744754 
34.00161695834787 0.8749218312772952 
35.00161695834787 0.8315439066851531 
36.00161695834787 0.8244128058097021 
37.00161695834787 0.7932098308793266 
38.00161695834787 0.7795389484678606 
39.00161695834787 0.753391578591207 
40.00161695834787 0.740312015519177 
41.00161695834787 0.6898147463189899 
42.00161695834787 0.6687347377634641 
43.00161695834787 0.6256818635095553 
44.00161695834787 0.6105620734180145 
45.00161695834787 0.5826289892556464 
46.00161695834787 0.5408057787502343 
47.00161695834787 0.5034115851568894 
48.00161695834787 0.49147939196151336 
49.00161695834787 0.43750474432914666 
50.00161695834787 0.4111381305209148 
51.00161695834787 0.39302647492997533 
52.00161695834787 0.3565839198165182 
53.00161695834787 0.33439181018655706 
54.00161695834787 0.3123131380815189 
55.00161695834787 0.3119099190205809 
56.00161695834787 0.28651433107791086 
57.00161695834787 0.2701531209704673 
58.00161695834787 0.2626305573014843 
59.00161695834787 0.24914365001937824 
60.00161695834787 0.2446793643050925 
61.00161695834787 0.23188958276907756 
62.00161695834787 0.21192167528798705 
63.00161695834787 0.19670783505719727 
64.00161695834787 0.18663189375197214 
65.00161695834787 0.16753333087892652 
66.00161695834787 0.173239036609115 
67.00161695834787 0.16043749880569388 
68.00161695834787 0.14997772582520477 
69.00161695834787 0.13805728889723468 
70.00161695834787 0.1365731124149415 
71.00161695834787 0.13508893593264829 
72.00161695834787 0.13508893593264829 
73.00161695834787 0.13508893593264829 
74.00161695834787 0.13508893593264829 
75.00161695834787 0.13508893593264829 
76.00161695834787 0.13508893593264829 
77.00161695834787 0.13508893593264829 
78.00161695834787 0.13508893593264829 
79.00161695834787 0.13508893593264829 
80.00161695834787 0.13508893593264829 
81.00161695834787 0.13508893593264829 
82.00161695834787 0.13508893593264829 
83.00161695834787 0.13508893593264829 
84.00161695834787 0.13508893593264829 
85.00161695834787 0.13508893593264829 
86.00161695834787 0.13508893593264829 
87.00161695834787 0.13508893593264829 
88.00161695834787 0.13508893593264829 
89.00161695834787 0.13508893593264829 
90.00161695834787 0.13508893593264829 
91.00161695834787 0.13508893593264829 
92.00161695834787 0.13508893593264829 
93.00161695834787 0.13508893593264829 
94.00161695834787 0.13508893593264829 
95.00161695834787 0.13508893593264829 
96.00161695834787 0.13508893593264829 
97.00161695834787 0.13508893593264829 
#####################################################################
# End of data export. Simulation finished at: 2017-05-24T17:32+0000 #
#####################################################################
