#####################################################################
# Alchemist log file - simulation started at: 2017-05-25T05:03+0000 #
#####################################################################
# random = 17.0, targets = 1.0, density = 0.11269076455391362, gridShift = 0.0, perturbation = 0.5, connfactor = 1.0
#
# The columns have the following meaning: 
# time se[Mean] 
0.0 NaN 
1.0045647570182237 NaN 
2.0045647570182235 1.2 
3.0045647570182235 1.35 
4.0045647570182235 1.2725 
5.0045647570182235 1.21 
6.0045647570182235 1.035 
7.0045647570182235 0.885 
8.004564757018223 0.8899999999999999 
9.004564757018223 0.7925 
10.004564757018223 0.69 
11.004564757018223 0.67 
12.004564757018223 0.4 
13.004564757018223 0.3 
14.004564757018223 0.3 
15.004564757018223 0.26 
16.004564757018223 0.08000000000000002 
17.004564757018223 0.0 
18.004564757018223 0.0 
19.004564757018223 0.0 
20.004564757018223 0.0 
21.004564757018223 0.0 
#####################################################################
# End of data export. Simulation finished at: 2017-05-25T05:03+0000 #
#####################################################################
