#####################################################################
# Alchemist log file - simulation started at: 2017-05-24T12:02+0000 #
#####################################################################
# random = 6.0, targets = 100.0, density = 10.026386447354522, gridShift = 0.0, perturbation = 0.5, connfactor = 0.25
#
# The columns have the following meaning: 
# time se[Mean] 
0.0 NaN 
1.0010083797655576 NaN 
2.0010083797655573 NaN 
3.0010083797655573 0.9998263774104683 
4.001008379765557 0.9991053259871442 
5.001008379765557 0.9981842286501378 
6.001008379765557 0.9965710743801652 
7.001008379765557 0.9954771349862259 
8.001008379765558 0.9946028466483012 
9.001008379765558 0.9930152203856749 
10.001008379765558 0.9916647842056934 
11.001008379765558 0.9894900367309458 
12.001008379765558 0.9867445592286501 
13.001008379765558 0.983512764003673 
14.001008379765558 0.9810501836547291 
15.001008379765558 0.978229315886134 
16.00100837976556 0.9763058310376492 
17.00100837976556 0.9749189623507806 
18.00100837976556 0.9738135904499541 
19.00100837976556 0.9732041781450873 
20.00100837976556 0.9731294077134987 
21.00100837976556 0.972741391184573 
22.00100837976556 0.9727828053259872 
23.00100837976556 0.9725950642791552 
24.00100837976556 0.9735238980716253 
25.00100837976556 0.9736645775941231 
26.00100837976556 0.972866551882461 
27.00100837976556 0.9724834022038568 
28.00100837976556 0.9727551193755739 
29.00100837976556 0.9693169191919193 
30.00100837976556 0.9691286042240588 
31.00100837976556 0.9660033746556475 
32.00100837976556 0.9658795913682278 
33.00100837976556 0.964234297520661 
34.00100837976556 0.9631982782369145 
35.00100837976556 0.9604519283746555 
36.00100837976556 0.960658126721763 
37.00100837976556 0.9599203397612487 
38.00100837976556 0.9573543847566575 
39.00100837976556 0.9594924471992655 
40.00100837976556 0.958840381083563 
41.00100837976556 0.9606751606978879 
42.00100837976556 0.9600317722681357 
43.00100837976556 0.9597622589531681 
44.00100837976556 0.9567539026629935 
45.00100837976556 0.9570460055096417 
46.00100837976556 0.954321854912764 
47.00100837976556 0.9539507116620755 
48.00100837976556 0.9529137970615242 
49.00100837976556 0.9526316574839303 
50.00100837976556 0.9481009182736454 
51.00100837976556 0.948441253443526 
52.00100837976556 0.9463410927456383 
53.00100837976556 0.9435895316804406 
54.00100837976556 0.9425169880624428 
55.00100837976556 0.9417712121212121 
56.00100837976556 0.9393336317722683 
57.00100837976556 0.9389584481175393 
58.00100837976556 0.9367529843893478 
59.00100837976556 0.9317359733700639 
60.00100837976556 0.9284510789715337 
61.00100837976556 0.9252376492194675 
62.00100837976556 0.9226741046831959 
63.00100837976556 0.9175259641873273 
64.00100837976555 0.9177637741046829 
65.00100837976555 0.9163506887052337 
66.00100837976555 0.9084110881542701 
67.00100837976555 0.9096946969696968 
68.00100837976555 0.9038101698806239 
69.00100837976555 0.9028488521579435 
70.00100837976555 0.8974164370982554 
71.00100837976555 0.8937687327823688 
72.00100837976555 0.8933438705234161 
73.00100837976555 0.8909181588613406 
74.00100837976555 0.8870983930211201 
75.00100837976555 0.8837080578512395 
76.00100837976555 0.8795261478420567 
77.00100837976555 0.8775350550964186 
78.00100837976555 0.872725459136823 
79.00100837976555 0.8653345041322312 
80.00100837976555 0.8631868227731866 
81.00100837976555 0.8565075068870521 
82.00100837976555 0.8533257575757573 
83.00100837976555 0.8457543847566574 
84.00100837976555 0.8369125114784203 
85.00100837976555 0.8317290404040407 
86.00100837976555 0.8217306932966026 
87.00100837976555 0.8124403351698802 
88.00100837976555 0.8082508264462813 
89.00100837976555 0.8003503902662992 
90.00100837976555 0.7872938705234163 
91.00100837976555 0.7825733471074375 
92.00100837976555 0.7765834481175389 
93.00100837976555 0.7696960743801647 
94.00100837976555 0.7568389577594122 
95.00100837976555 0.7513165977961436 
96.00100837976555 0.7385295454545454 
97.00100837976555 0.7376731634527082 
98.00100837976555 0.7244578053259875 
99.00100837976555 0.7156011019283748 
100.00100837976555 0.7036558769513314 
101.00100837976555 0.6941120523415979 
102.00100837976555 0.6861041322314053 
103.00100837976555 0.6752435950413224 
104.00100837976555 0.6708264692378333 
105.00100837976555 0.655696992653811 
106.00100837976555 0.6448288567493111 
107.00100837976555 0.6402718778696055 
108.00100837976555 0.6256876262626264 
109.00100837976555 0.6235908172635448 
110.00100837976555 0.617266345270891 
111.00100837976555 0.6055504361799813 
112.00100837976555 0.6079291092745638 
113.00100837976555 0.594609159779614 
114.00100837976555 0.5849341827364554 
115.00100837976555 0.5767978650137738 
116.00100837976555 0.5668174931129475 
117.00100837976555 0.5642709595959599 
118.00100837976555 0.5569299357208448 
119.00100837976555 0.5467493801652893 
120.00100837976555 0.5394827134986225 
121.00100837976555 0.5370053948576675 
122.00100837976555 0.5336917814508724 
123.00100837976555 0.5256453168044077 
124.00100837976555 0.5169515381083563 
125.00100837976555 0.5166772268135904 
126.00100837976555 0.5119337006427915 
127.00100837976555 0.5077164370982552 
128.00100837976555 0.5051626492194674 
129.00100837976555 0.5014073921028466 
130.00100837976555 0.5013208907254362 
131.00100837976555 0.5016109044995409 
132.00100837976555 0.5004032598714417 
133.00100837976555 0.5027040633608816 
134.00100837976555 0.4968941919191919 
135.00100837976555 0.5143065426997244 
136.00100837976555 0.4976094811753903 
137.00100837976555 0.5441494719926537 
138.00100837976555 0.5782947199265379 
139.00100837976555 0.5608772497704315 
140.00100837976555 0.6514771579430669 
141.00100837976555 0.6465436639118447 
142.00100837976555 0.6415442837465558 
143.00100837976555 0.6086484618916441 
144.00100837976555 0.7440853305785134 
145.00100837976555 0.6823296372819095 
146.00100837976555 0.7112682277318649 
147.00100837976555 0.7742520202020212 
148.00100837976555 0.7591517447199274 
149.00100837976555 0.7729038337924682 
150.00100837976555 0.7885656795224975 
151.00100837976555 0.7111054178145083 
152.00100837976555 0.746053168044078 
153.00100837976555 0.800052341597796 
154.00100837976555 0.8430562213039464 
155.00100837976555 0.8591116620752985 
156.00100837976555 0.793678053259871 
157.00100837976555 0.9305463039485766 
158.00100837976555 0.8185655417814505 
159.00100837976555 0.8351793388429748 
160.00100837976555 0.8490910697887976 
161.00100837976555 0.8753284435261705 
162.00100837976555 0.9935550045913676 
163.00100837976555 0.8272363636363638 
164.00100837976555 0.931990197428834 
165.00100837976555 1.008889600550965 
166.00100837976555 0.8249147382920119 
167.00100837976555 0.990720270890725 
168.00100837976555 0.9277608585858587 
169.00100837976555 0.9151018365472912 
170.00100837976555 0.912697842056933 
171.00100837976555 0.7860710743801652 
172.00100837976555 0.8965043388429736 
173.00100837976555 0.8519943296602396 
174.00100837976555 0.8853325298438918 
175.00100837976555 0.9092679292929268 
176.00100837976555 0.8113648071625367 
177.00100837976555 0.839720913682274 
178.00100837976555 0.8553385215794348 
179.00100837976555 0.8705772727272731 
180.00100837976555 0.8398661386593235 
181.00100837976555 0.799528328741962 
182.00100837976555 0.9004244031221271 
183.00100837976555 0.7645058769513289 
184.00100837976555 0.7223752984389327 
185.00100837976555 0.639545844811756 
186.00100837976555 0.6589924701561072 
187.00100837976555 0.5505589990817265 
188.00100837976555 0.5195940771349857 
189.00100837976555 0.5053910697887964 
190.00100837976555 0.4703906795224976 
191.00100837976555 0.47316827364554637 
192.00100837976555 0.4562286042240588 
193.00100837976555 0.4562467630853995 
194.00100837976555 0.45795420110192825 
195.00100837976555 0.45483140495867774 
196.00100837976555 0.455165243342516 
197.00100837976555 0.4548606519742884 
198.00100837976555 0.4554071395775941 
199.00100837976555 0.45490663452708907 
200.00100837976555 0.45221161616161615 
201.00100837976555 0.4560281221303948 
202.00100837976555 0.45315528007346184 
203.00100837976555 0.452886432506887 
204.00100837976555 0.4506490358126722 
205.00100837976555 0.45231967401285594 
206.00100837976555 0.45016331496786044 
207.00100837976555 0.4496566574839302 
208.00100837976555 0.44964074839302115 
209.00100837976555 0.44900066574839304 
210.00100837976555 0.44920773645546375 
211.00100837976555 0.4488633608815427 
212.00100837976555 0.44888778696051423 
213.00100837976555 0.44888778696051423 
214.00100837976555 0.4489 
215.00100837976555 0.4489 
216.00100837976555 0.4489 
217.00100837976555 0.4489 
218.00100837976555 0.4489 
219.00100837976555 0.4489 
220.00100837976555 0.4489 
221.00100837976555 0.4489 
222.00100837976555 0.4489 
223.00100837976555 0.4489 
224.00100837976555 0.4489 
225.00100837976555 0.4489 
226.00100837976555 0.4489 
227.00100837976555 0.4489 
228.00100837976555 0.4489 
229.00100837976555 0.4489 
230.00100837976555 0.4489 
231.00100837976555 0.4489 
232.00100837976555 0.4489 
233.00100837976555 0.4489 
234.00100837976555 0.4489 
235.00100837976555 0.4489 
236.00100837976555 0.4489 
237.00100837976555 0.4489 
238.00100837976555 0.4489 
239.00100837976555 0.4489 
240.00100837976555 0.4489 
241.00100837976555 0.4489 
242.00100837976555 0.4489 
243.00100837976555 0.4489 
244.00100837976555 0.4489 
245.00100837976555 0.4489 
246.00100837976555 0.4489 
247.00100837976555 0.4489 
248.00100837976555 0.4489 
249.00100837976555 0.4489 
250.00100837976555 0.4489 
251.00100837976555 0.4489 
252.00100837976555 0.4489 
253.00100837976555 0.4489 
254.00100837976555 0.4489 
255.00100837976555 0.4489 
256.00100837976555 0.4489 
257.00100837976555 0.4489 
258.00100837976555 0.4489 
259.00100837976555 0.4489 
260.00100837976555 0.4489 
261.00100837976555 0.4489 
262.00100837976555 0.4489 
263.00100837976555 0.4489 
264.00100837976555 0.4489 
265.00100837976555 0.4489 
266.00100837976555 0.4489 
267.00100837976555 0.4489 
268.00100837976555 0.4489 
269.00100837976555 0.4489 
270.00100837976555 0.4489 
271.00100837976555 0.4489 
272.00100837976555 0.4489 
273.00100837976555 0.4489 
274.00100837976555 0.4489 
275.00100837976555 0.4489 
276.00100837976555 0.4489 
277.00100837976555 0.4489 
278.00100837976555 0.4489 
279.00100837976555 0.4489 
280.00100837976555 0.4489 
281.00100837976555 0.4489 
282.00100837976555 0.4489 
283.00100837976555 0.4489 
284.00100837976555 0.4489 
285.00100837976555 0.4489 
286.00100837976555 0.4489 
287.00100837976555 0.4489 
288.00100837976555 0.4489 
289.00100837976555 0.4489 
#####################################################################
# End of data export. Simulation finished at: 2017-05-24T12:11+0000 #
#####################################################################
