#####################################################################
# Alchemist log file - simulation started at: 2017-05-21T11:23+0000 #
#####################################################################
# random = 2.0, targets = 31.622776601683793, density = 1.7841466528270753, gridShift = 0.0, perturbation = 0.0, connfactor = 0.75
#
# The columns have the following meaning: 
# time se[Mean] 
0.0 NaN 
1.003288451303821 NaN 
2.003288451303821 1.008112214516871 
3.003288451303821 1.0167805672870522 
4.0032884513038205 1.02219396709365 
5.0032884513038205 1.027555640152148 
6.0032884513038205 1.0285887405384062 
7.0032884513038205 1.0304075758683702 
8.00328845130382 1.02987238659845 
9.00328845130382 1.0233349983597873 
10.00328845130382 1.009347091916231 
11.00328845130382 0.9973113071648939 
12.00328845130382 0.9691899642174633 
13.00328845130382 0.9610444731547688 
14.00328845130382 0.9291699213176222 
15.00328845130382 0.9218356104730924 
16.00328845130382 0.8940707202179825 
17.00328845130382 0.8843817938410055 
18.00328845130382 0.8734536000352991 
19.00328845130382 0.8524315367054642 
20.00328845130382 0.8662137616335629 
21.00328845130382 0.8355741176318987 
22.00328845130382 0.8619449873065211 
23.00328845130382 0.8277430990119979 
24.00328845130382 0.8555164122618469 
25.00328845130382 0.8326473333708158 
26.00328845130382 0.8498293845117842 
27.00328845130382 0.8425029189704626 
28.00328845130382 0.8490445689061579 
29.00328845130382 0.8542205184843437 
30.00328845130382 0.8435973296195225 
31.00328845130382 0.8598885223599954 
32.00328845130382 0.8438005082037932 
33.00328845130382 0.8641779246435697 
34.00328845130382 0.8448898505366111 
35.00328845130382 0.854446011455354 
36.00328845130382 0.8478200890847057 
37.00328845130382 0.8465041352257692 
38.00328845130382 0.8387122318539854 
39.00328845130382 0.830595370447056 
40.00328845130382 0.8195607577444134 
41.00328845130382 0.8135259505696113 
42.00328845130382 0.7995467396602888 
43.00328845130382 0.7880837121977158 
44.00328845130382 0.770078692623442 
45.00328845130382 0.760856042713882 
46.00328845130382 0.7477370145519715 
47.00328845130382 0.7372908700375072 
48.00328845130382 0.7383789247527095 
49.00328845130382 0.8070431433922283 
50.00328845130382 0.7390032539346789 
51.00328845130382 0.7387961639786046 
52.00328845130382 0.6473193533142936 
53.00328845130382 0.6565259337757489 
54.00328845130382 0.5827041487891931 
55.00328845130382 0.5860331346460584 
56.00328845130382 0.5723802885250431 
57.00328845130382 0.5046875467844073 
58.00328845130382 0.5262856546665035 
59.00328845130382 0.4769743961061517 
60.00328845130382 0.4543096774685019 
61.00328845130382 0.4605452491534841 
62.00328845130382 0.36942819242499386 
63.00328845130382 0.4230354526377659 
64.00328845130382 0.35582182219118924 
65.00328845130382 0.39081128671236925 
66.00328845130382 0.3315452919474929 
67.00328845130382 0.32614589170966063 
68.00328845130382 0.31839154311568846 
69.00328845130382 0.2941556971721625 
70.00328845130382 0.29810267347438063 
71.00328845130382 0.2996935853684627 
72.00328845130382 0.3062558753188799 
73.00328845130382 0.3077402447285584 
74.00328845130382 0.31022878116764013 
75.00328845130382 0.3134744887077923 
76.00328845130382 0.31238092334887274 
77.00328845130382 0.312028061641386 
78.00328845130382 0.3115881777195177 
79.00328845130382 0.31128802876749023 
80.00328845130382 0.3109994847537344 
81.00328845130382 0.31071094073997857 
82.00328845130382 0.31071964279672054 
83.00328845130382 0.31056225515285374 
84.00328845130382 0.31056225515285374 
85.00328845130382 0.31056225515285374 
86.00328845130382 0.31056225515285374 
87.00328845130382 0.31056225515285374 
88.00328845130382 0.31056225515285374 
89.00328845130382 0.31056225515285374 
90.00328845130382 0.31056225515285374 
91.00328845130382 0.31056225515285374 
92.00328845130382 0.31056225515285374 
93.00328845130382 0.31056225515285374 
94.00328845130382 0.31056225515285374 
95.00328845130382 0.31056225515285374 
96.00328845130382 0.31056225515285374 
97.00328845130382 0.31056225515285374 
98.00328845130382 0.31056225515285374 
99.00328845130382 0.31056225515285374 
100.00328845130382 0.31056225515285374 
101.00328845130382 0.31056225515285374 
102.00328845130382 0.31056225515285374 
103.00328845130382 0.31056225515285374 
104.00328845130382 0.31056225515285374 
105.00328845130382 0.31056225515285374 
106.00328845130382 0.31056225515285374 
107.00328845130382 0.31056225515285374 
108.00328845130382 0.31056225515285374 
109.00328845130382 0.31056225515285374 
110.00328845130382 0.31056225515285374 
111.00328845130382 0.31056225515285374 
112.00328845130382 0.31056225515285374 
#####################################################################
# End of data export. Simulation finished at: 2017-05-21T11:23+0000 #
#####################################################################
