0.000000000000000000e+00 nan
1.000004778415863660e+00 1.642510582553802223e-01
2.000009556831727320e+00 9.433150005086118339e-01
3.000014335247589869e+00 9.594191260871032245e-01
4.000019113663454640e+00 9.589322356988057017e-01
5.000023892079313192e+00 9.579217786949473235e-01
6.000028670495179739e+00 9.565321658543062266e-01
7.000033448911040956e+00 9.547475029874132879e-01
8.000038227326909279e+00 9.534799414254614414e-01
9.000043005742771385e+00 9.518388239331453393e-01
1.000004778415862638e+01 9.502798499341685856e-01
1.100005256257449382e+01 9.493253915410186927e-01
1.200005734099035948e+01 9.472387610579926509e-01
1.300006211940621448e+01 9.457441794796589418e-01
1.400006689782208191e+01 9.446251839046742038e-01
1.500007167623794935e+01 9.415945642412810734e-01
1.600007645465381856e+01 9.399541304218917981e-01
1.700008123306967533e+01 9.376520066769377104e-01
1.800008601148554277e+01 9.344620560687193489e-01
1.900009078990139244e+01 9.311357796576090751e-01
2.000009556831725277e+01 9.270204560435910679e-01
2.100010034673312376e+01 9.230003492401287479e-01
2.200010512514898764e+01 9.183016996539605792e-01
2.300010990356485863e+01 9.140419070337896246e-01
2.400011468198071896e+01 9.087727733196184765e-01
2.500011946039658994e+01 9.035762669269165048e-01
2.600012423881242896e+01 9.008308181485014110e-01
2.700012901722829994e+01 8.961460157797334070e-01
2.800013379564416383e+01 8.915621363402579380e-01
2.900013857406001705e+01 8.886672692065239465e-01
3.000014335247589869e+01 8.859457203360040500e-01
3.100014813089174837e+01 8.845694601177690464e-01
3.200015290930763712e+01 8.819506950965704251e-01
3.300015768772346547e+01 8.807008317162856592e-01
3.400016246613935067e+01 8.804201094842215580e-01
3.500016724455520745e+01 8.781788111121067164e-01
3.600017202297108554e+01 8.761392220489301330e-01
3.700017680138693521e+01 8.743075684889928256e-01
3.800018157980278488e+01 8.723838616215815467e-01
3.900018635821867719e+01 8.732717348560803394e-01
4.000019113663450554e+01 8.693054345921683579e-01
4.100019591505039784e+01 8.721410236734992161e-01
4.200020069346624751e+01 8.682198135871548317e-01
4.300020547188208297e+01 8.671462668679449370e-01
4.400021025029797528e+01 8.655212498868730675e-01
4.500021502871382495e+01 8.618059509399635942e-01
4.600021980712971725e+01 8.619359299282174369e-01
4.700022458554554561e+01 8.577613628342263263e-01
4.800022936396143791e+01 8.545404342676033993e-01
4.900023414237728758e+01 8.540225070579476885e-01
5.000023892079317989e+01 8.490029531237365257e-01
5.100024369920901535e+01 8.442188649393166378e-01
5.200024847762485791e+01 8.392176323477726907e-01
5.300025325604074311e+01 8.363440242693594984e-01
5.400025803445659989e+01 8.291309838736560245e-01
5.500026281287248509e+01 8.285968229291108544e-01
5.600026759128832765e+01 8.230613072142575204e-01
5.700027236970415601e+01 8.188252976282438533e-01
5.800027714812003410e+01 8.178000922904344883e-01
5.900028192653591930e+01 8.152876787179056395e-01
6.000028670495179739e+01 8.148683802794661757e-01
6.100029148336762574e+01 8.116037842079472098e-01
6.200029626178349673e+01 8.135705129856034556e-01
6.300030104019938904e+01 8.107893440398281637e-01
6.400030581861527423e+01 8.164456551728643818e-01
6.500031059703108838e+01 8.167944281667829376e-01
6.600031537544693094e+01 8.182995391875333979e-01
6.700032015386280193e+01 8.207774055791609014e-01
6.800032493227870134e+01 8.246453252896587260e-01
6.900032971069457233e+01 8.279973278673143922e-01
7.000033448911041489e+01 8.301455006983384788e-01
7.100033926752622904e+01 8.339901616154850039e-01
7.200034404594217108e+01 8.339117593802307660e-01
7.300034882435801364e+01 8.347303840067805680e-01
7.400035360277387042e+01 8.358685974654048723e-01
7.500035838118971299e+01 8.375816726243442423e-01
7.600036315960556976e+01 8.363732635280883843e-01
7.700036793802149759e+01 8.373278167096198654e-01
7.800037271643735437e+01 8.381028180914575909e-01
7.900037749485318272e+01 8.377795203225698595e-01
8.000038227326901108e+01 8.368569679587785082e-01
8.100038705168486786e+01 8.372334392932095914e-01
8.200039183010079569e+01 8.378751671838702286e-01
8.300039660851665246e+01 8.382217329716511456e-01
8.400040138693249503e+01 8.381017158061335737e-01
8.500040616534830917e+01 8.386409184547882756e-01
8.600041094376416595e+01 8.394187165827059482e-01
8.700041572218009378e+01 8.405498515655711600e-01
8.800042050059595056e+01 8.405445757757377123e-01
8.900042527901179312e+01 8.407779236779469034e-01
9.000043005742764990e+01 8.410270989496567706e-01
9.100043483584357773e+01 8.407779236779469034e-01
9.200043961425943451e+01 8.410218231598233229e-01
9.300044439267526286e+01 8.410218231598233229e-01
9.400044917109109122e+01 8.410218231598233229e-01
9.500045394950694799e+01 8.410218231598233229e-01
9.600045872792287582e+01 8.410218231598233229e-01
9.700046350633873260e+01 8.410218231598233229e-01
9.800046828475457517e+01 8.410218231598233229e-01
9.900047306317038931e+01 8.410218231598233229e-01
1.000004778415863598e+02 8.410218231598233229e-01
1.010004826200021739e+02 8.410218231598233229e-01
1.020004873984180307e+02 8.410218231598233229e-01
1.030004921768339017e+02 8.410218231598233229e-01
1.040004969552497158e+02 8.410218231598233229e-01
1.050005017336656721e+02 8.410218231598233229e-01
1.060005065120814862e+02 8.410218231598233229e-01
1.070005112904973430e+02 8.410218231598233229e-01
1.080005160689131998e+02 8.410218231598233229e-01
1.090005208473290139e+02 8.410218231598233229e-01
1.100005256257449702e+02 8.410218231598233229e-01
1.110005304041607843e+02 8.410218231598233229e-01
1.120005351825766553e+02 8.410218231598233229e-01
1.130005399609924979e+02 8.410218231598233229e-01
1.140005447394083120e+02 8.410218231598233229e-01
1.150005495178242683e+02 8.410218231598233229e-01
1.160005542962400682e+02 8.410218231598233229e-01
1.170005590746559534e+02 8.410218231598233229e-01
