#####################################################################
# Alchemist log file - simulation started at: 2017-05-25T12:53+0000 #
#####################################################################
# random = 8.0, targets = 10.0, density = 0.4483936332993466, gridShift = 1.0, perturbation = 0.0, connfactor = 0.5
#
# The columns have the following meaning: 
# time se[Mean] 
0.0 NaN 
1.0447112257851685 NaN 
2.0447112257851687 1.0 
3.0447112257851687 0.9939043209876544 
4.044711225785169 0.9760378086419753 
5.044711225785169 0.9421952160493827 
6.044711225785169 0.9151041666666666 
7.044711225785169 0.8689081790123456 
8.044711225785168 0.8607098765432099 
9.044711225785168 0.8481520061728395 
10.044711225785168 0.847716049382716 
11.044711225785168 0.7956520061728395 
12.044711225785168 0.7898649691358025 
13.044711225785168 0.76929012345679 
14.044711225785168 0.753287037037037 
15.044711225785168 0.7294521604938271 
16.044711225785168 0.6869367283950617 
17.044711225785168 0.6565740740740741 
18.044711225785168 0.582824074074074 
19.044711225785168 0.5587307098765432 
20.044711225785168 0.48871141975308646 
21.044711225785168 0.44896990740740744 
22.044711225785168 0.400054012345679 
23.044711225785168 0.3828549382716049 
24.044711225785168 0.31969135802469134 
25.044711225785168 0.2859297839506173 
26.044711225785168 0.23076388888888894 
27.044711225785168 0.196033950617284 
28.044711225785168 0.1724035493827161 
29.044711225785168 0.176304012345679 
30.044711225785168 0.1575848765432099 
31.044711225785168 0.1436304012345679 
32.044711225785164 0.13890046296296296 
33.044711225785164 0.1427314814814815 
34.044711225785164 0.13904706790123456 
35.044711225785164 0.14316358024691359 
36.044711225785164 0.14389274691358026 
37.044711225785164 0.14531635802469134 
38.044711225785164 0.15419367283950616 
39.044711225785164 0.15947916666666667 
40.044711225785164 0.16 
41.044711225785164 0.16 
42.044711225785164 0.16 
43.044711225785164 0.16 
44.044711225785164 0.16 
45.044711225785164 0.16 
46.044711225785164 0.16 
47.044711225785164 0.16 
48.044711225785164 0.16 
49.044711225785164 0.16 
50.044711225785164 0.16 
51.044711225785164 0.16 
#####################################################################
# End of data export. Simulation finished at: 2017-05-25T12:53+0000 #
#####################################################################
