#####################################################################
# Alchemist log file - simulation started at: 2017-05-21T03:10+0000 #
#####################################################################
# random = 2.0, targets = 1.0, density = 0.6332893950589894, gridShift = 1.0, perturbation = 0.0, connfactor = 0.75
#
# The columns have the following meaning: 
# time se[Mean] 
0.0 NaN 
1.003288451303821 NaN 
2.003288451303821 1.0 
3.003288451303821 1.0 
4.0032884513038205 1.0 
5.0032884513038205 1.0 
6.0032884513038205 1.0 
7.0032884513038205 1.0 
8.00328845130382 1.0 
9.00328845130382 1.0 
10.00328845130382 1.0 
11.00328845130382 1.0 
12.00328845130382 0.9916666666666667 
13.00328845130382 1.0 
14.00328845130382 0.95 
15.00328845130382 0.9583333333333333 
16.00328845130382 0.9416666666666667 
17.00328845130382 0.8833333333333333 
18.00328845130382 0.9305555555555556 
19.00328845130382 0.85 
20.00328845130382 0.7833333333333334 
21.00328845130382 0.8249999999999998 
22.00328845130382 0.7361111111111113 
23.00328845130382 0.6777777777777777 
24.00328845130382 0.6555555555555554 
25.00328845130382 0.6055555555555556 
26.00328845130382 0.46388888888888885 
27.00328845130382 0.5 
28.00328845130382 0.34722222222222215 
29.00328845130382 0.2944444444444445 
30.00328845130382 0.2861111111111109 
31.00328845130382 0.15277777777777785 
32.00328845130382 0.12222222222222222 
33.00328845130382 0.08333333333333329 
34.00328845130382 0.0555555555555556 
35.00328845130382 0.01944444444444443 
36.00328845130382 0.025000000000000036 
37.00328845130382 0.0 
38.00328845130382 0.0027777777777777814 
39.00328845130382 0.0 
40.00328845130382 0.0 
41.00328845130382 0.0 
42.00328845130382 0.0 
43.00328845130382 0.0 
44.00328845130382 0.0 
45.00328845130382 0.0 
46.00328845130382 0.0 
47.00328845130382 0.0 
48.00328845130382 0.0 
49.00328845130382 0.0 
50.00328845130382 0.0 
51.00328845130382 0.0 
#####################################################################
# End of data export. Simulation finished at: 2017-05-21T03:10+0000 #
#####################################################################
