#####################################################################
# Alchemist log file - simulation started at: 2017-05-25T12:53+0000 #
#####################################################################
# random = 8.0, targets = 10.0, density = 0.4483936332993466, gridShift = 1.0, perturbation = 0.0, connfactor = 0.25
#
# The columns have the following meaning: 
# time se[Mean] 
0.0 NaN 
1.0447112257851685 NaN 
2.0447112257851687 1.0 
3.0447112257851687 0.9960069444444445 
4.044711225785169 0.9814583333333333 
5.044711225785169 0.9575694444444445 
6.044711225785169 0.9388888888888889 
7.044711225785169 0.9007291666666667 
8.044711225785168 0.8857291666666667 
9.044711225785168 0.859375 
10.044711225785168 0.8494097222222222 
11.044711225785168 0.8014583333333334 
12.044711225785168 0.7856944444444445 
13.044711225785168 0.744375 
14.044711225785168 0.7205902777777777 
15.044711225785168 0.6849652777777778 
16.044711225785168 0.6433333333333333 
17.044711225785168 0.5996180555555556 
18.044711225785168 0.5422569444444444 
19.044711225785168 0.5172916666666667 
20.044711225785168 0.4665277777777778 
21.044711225785168 0.4549652777777778 
22.044711225785168 0.4201736111111111 
23.044711225785168 0.42388888888888887 
24.044711225785168 0.38555555555555554 
25.044711225785168 0.38381944444444444 
26.044711225785168 0.36569444444444443 
27.044711225785168 0.34760416666666666 
28.044711225785168 0.35305555555555557 
29.044711225785168 0.359375 
30.044711225785168 0.3536458333333333 
31.044711225785168 0.35322916666666665 
32.044711225785164 0.34777777777777774 
33.044711225785164 0.35694444444444445 
34.044711225785164 0.34930555555555554 
35.044711225785164 0.35541666666666666 
36.044711225785164 0.35388888888888886 
37.044711225785164 0.35388888888888886 
38.044711225785164 0.3584722222222222 
39.044711225785164 0.36 
40.044711225785164 0.36 
41.044711225785164 0.36 
42.044711225785164 0.36 
43.044711225785164 0.36 
44.044711225785164 0.36 
45.044711225785164 0.36 
46.044711225785164 0.36 
47.044711225785164 0.36 
48.044711225785164 0.36 
49.044711225785164 0.36 
50.044711225785164 0.36 
#####################################################################
# End of data export. Simulation finished at: 2017-05-25T12:53+0000 #
#####################################################################
