#####################################################################
# Alchemist log file - simulation started at: 2017-05-25T19:36+0000 #
#####################################################################
# random = 8.0, targets = 100.0, density = 0.05649405772326896, gridShift = 1.0, perturbation = 0.5, connfactor = 0.75
#
# The columns have the following meaning: 
# time se[Mean] 
0.0 NaN 
1.0447112257851685 NaN 
2.0447112257851687 0.98410625 
3.0447112257851687 0.9698392361111111 
4.044711225785169 0.9037449652777778 
5.044711225785169 0.8816133680555556 
6.044711225785169 0.7941074652777778 
7.044711225785169 0.7895152777777779 
8.044711225785168 0.6918458333333334 
9.044711225785168 0.6000758680555557 
10.044711225785168 0.5470736111111112 
11.044711225785168 0.43062482638888905 
12.044711225785168 0.37965850694444464 
13.044711225785168 0.29744548611111127 
14.044711225785168 0.2669050347222224 
15.044711225785168 0.2653381944444446 
16.044711225785168 0.2431972222222224 
17.044711225785168 0.25789027777777795 
18.044711225785168 0.2414520833333335 
19.044711225785168 0.2802256944444447 
20.044711225785168 0.28392083333333357 
21.044711225785168 0.3013576388888891 
22.044711225785168 0.30158611111111133 
23.044711225785168 0.3020430555555558 
24.044711225785168 0.302271527777778 
25.044711225785168 0.3025000000000002 
26.044711225785168 0.3025000000000002 
27.044711225785168 0.3025000000000002 
28.044711225785168 0.3025000000000002 
29.044711225785168 0.3025000000000002 
30.044711225785168 0.3025000000000002 
31.044711225785168 0.3025000000000002 
#####################################################################
# End of data export. Simulation finished at: 2017-05-25T19:36+0000 #
#####################################################################
