#####################################################################
# Alchemist log file - simulation started at: 2017-05-21T03:12+0000 #
#####################################################################
# random = 2.0, targets = 1.0, density = 0.894427190999916, gridShift = 1.0, perturbation = 0.5, connfactor = 1.5
#
# The columns have the following meaning: 
# time se[Mean] 
0.0 NaN 
1.003288451303821 NaN 
2.003288451303821 1.09375 
3.003288451303821 1.1814814814814816 
4.0032884513038205 1.3587962962962965 
5.0032884513038205 1.5043981481481479 
6.0032884513038205 1.5736111111111113 
7.0032884513038205 1.5636574074074074 
8.00328845130382 1.4138888888888892 
9.00328845130382 1.3159722222222223 
10.00328845130382 1.1046296296296296 
11.00328845130382 1.0715277777777779 
12.00328845130382 0.975 
13.00328845130382 1.039351851851852 
14.00328845130382 1.134490740740741 
15.00328845130382 1.1513888888888892 
16.00328845130382 1.1712962962962967 
17.00328845130382 1.1708333333333336 
18.00328845130382 1.0960648148148149 
19.00328845130382 1.1592592592592594 
20.00328845130382 1.254166666666667 
21.00328845130382 1.237962962962963 
22.00328845130382 1.3261574074074074 
23.00328845130382 1.4048611111111113 
24.00328845130382 1.4659722222222225 
25.00328845130382 1.5243055555555556 
26.00328845130382 1.5828703703703704 
27.00328845130382 1.5770833333333332 
28.00328845130382 1.5937500000000004 
29.00328845130382 1.60462962962963 
30.00328845130382 1.6414351851851854 
31.00328845130382 1.530092592592593 
32.00328845130382 1.662731481481482 
33.00328845130382 1.7907407407407414 
34.00328845130382 1.737500000000001 
35.00328845130382 1.6722222222222234 
36.00328845130382 1.666898148148149 
37.00328845130382 1.6143518518518531 
38.00328845130382 1.7233796296296306 
39.00328845130382 1.7995370370370378 
40.00328845130382 1.8898148148148162 
41.00328845130382 1.69513888888889 
42.00328845130382 1.7509259259259273 
43.00328845130382 1.7969907407407422 
44.00328845130382 1.475925925925927 
45.00328845130382 1.4925925925925934 
46.00328845130382 1.528935185185186 
47.00328845130382 1.3527777777777785 
48.00328845130382 1.3724537037037043 
49.00328845130382 1.2750000000000004 
50.00328845130382 1.1569444444444452 
51.00328845130382 1.0983796296296302 
52.00328845130382 1.0983796296296302 
53.00328845130382 1.0590277777777786 
54.00328845130382 1.0590277777777786 
55.00328845130382 1.0196759259259267 
56.00328845130382 1.0196759259259267 
57.00328845130382 1.0000000000000009 
58.00328845130382 1.0000000000000009 
59.00328845130382 1.0000000000000009 
60.00328845130382 1.0000000000000009 
61.00328845130382 1.0000000000000009 
62.00328845130382 1.0000000000000009 
63.00328845130382 1.0000000000000009 
64.00328845130382 1.0000000000000009 
65.00328845130382 1.0000000000000009 
66.00328845130382 1.0000000000000009 
67.00328845130382 1.0000000000000009 
68.00328845130382 1.0000000000000009 
69.00328845130382 1.0000000000000009 
70.00328845130382 1.0000000000000009 
71.00328845130382 1.0000000000000009 
72.00328845130382 1.0000000000000009 
73.00328845130382 1.0000000000000009 
74.00328845130382 1.0000000000000009 
#####################################################################
# End of data export. Simulation finished at: 2017-05-21T03:12+0000 #
#####################################################################
