#####################################################################
# Alchemist log file - simulation started at: 2017-05-24T14:39+0000 #
#####################################################################
# random = 15.0, targets = 3.1622776601683795, density = 0.2247883923996312, gridShift = 1.0, perturbation = 0.5, connfactor = 0.1
#
# The columns have the following meaning: 
# time se[Mean] 
0.0 NaN 
1.0090872484315245 NaN 
2.0090872484315243 1.0 
3.0090872484315243 1.0 
4.009087248431524 1.0 
5.009087248431524 1.0 
6.009087248431524 1.0 
7.009087248431524 1.0 
8.009087248431523 1.0 
#####################################################################
# End of data export. Simulation finished at: 2017-05-24T14:39+0000 #
#####################################################################
