#####################################################################
# Alchemist log file - simulation started at: 2017-05-23T19:47+0000 #
#####################################################################
# random = 12.0, targets = 100.0, density = 0.4483936332993466, gridShift = 1.0, perturbation = 0.5, connfactor = 2.0
#
# The columns have the following meaning: 
# time se[Mean] 
0.0 NaN 
1.0005590746559656 NaN 
2.000559074655966 1.3017949459876543 
3.000559074655966 1.4538765817901234 
4.000559074655966 1.662829899691358 
5.000559074655966 1.8009163966049384 
6.000559074655966 2.0171131558641977 
7.000559074655966 2.072850925925926 
8.000559074655966 1.8578793595679013 
9.000559074655966 1.88384737654321 
10.000559074655966 1.6837376543209879 
11.000559074655966 1.8986413194444447 
12.000559074655966 2.5805313657407414 
13.000559074655966 2.9478972993827166 
14.000559074655966 3.478208024691358 
15.000559074655966 4.309955825617284 
16.000559074655968 3.00281087962963 
17.000559074655968 4.256562885802469 
18.000559074655968 2.961129899691359 
19.000559074655968 2.5842182870370376 
20.000559074655968 2.38820200617284 
21.000559074655968 2.670273533950618 
22.000559074655968 2.4756421296296303 
23.000559074655968 2.858679436728396 
24.000559074655968 5.059156481481482 
25.000559074655968 4.989259722222223 
26.000559074655968 4.037904166666668 
27.000559074655968 6.28333063271605 
28.000559074655968 4.475037808641976 
29.000559074655968 4.114324344135803 
30.000559074655968 5.545645061728396 
31.000559074655968 3.864719174382717 
32.00055907465597 5.6983529706790135 
33.00055907465597 4.155246527777779 
34.00055907465597 2.9111865354938287 
35.00055907465597 3.437555246913581 
36.00055907465597 2.6930152006172854 
37.00055907465597 2.7905541666666682 
38.00055907465597 4.281937731481482 
39.00055907465597 4.351121412037037 
40.00055907465597 5.763838348765432 
41.00055907465597 12.65748410493827 
42.00055907465597 12.657195447530862 
43.00055907465597 9.931655169753085 
44.00055907465597 16.763741820987647 
45.00055907465597 11.305032793209874 
46.00055907465597 9.928408217592592 
47.00055907465597 13.992378626543207 
48.00055907465597 8.536011959876543 
49.00055907465597 13.987587770061724 
50.00055907465597 9.855532561728394 
51.00055907465597 4.379301041666667 
52.00055907465597 5.715752854938271 
53.00055907465597 2.9914595293209896 
54.00055907465597 2.988515470679014 
55.00055907465597 2.973136496913582 
56.00055907465597 2.9888247299382735 
57.00055907465597 2.989323958333335 
58.00055907465597 2.9895701388888907 
59.00055907465597 2.992900000000002 
60.00055907465597 2.992900000000002 
61.00055907465597 2.992900000000002 
62.00055907465597 2.992900000000002 
63.00055907465597 2.992900000000002 
64.00055907465597 2.992900000000002 
65.00055907465597 2.992900000000002 
66.00055907465597 2.992900000000002 
67.00055907465597 2.992900000000002 
68.00055907465597 2.992900000000002 
69.00055907465597 2.992900000000002 
70.00055907465597 2.992900000000002 
71.00055907465597 2.992900000000002 
72.00055907465597 2.992900000000002 
73.00055907465597 2.992900000000002 
74.00055907465597 2.992900000000002 
75.00055907465597 2.992900000000002 
#####################################################################
# End of data export. Simulation finished at: 2017-05-23T19:48+0000 #
#####################################################################
