0.000000000000000000e+00 nan
1.000100330906231738e+00 2.843485768307509876e-01
2.000200661812463476e+00 9.666038279502248143e-01
3.000300992718693660e+00 9.663945668696993785e-01
4.000401323624926953e+00 9.647210238919533554e-01
5.000501654531159801e+00 9.595691985111461930e-01
6.000601985437387320e+00 9.526153375458509265e-01
7.000702316343620168e+00 9.440625392536720062e-01
8.000802647249853905e+00 9.363319343002358686e-01
9.000902978156089418e+00 9.304491610859222384e-01
1.000100330906231960e+01 9.206635020389648538e-01
1.100110363996854090e+01 9.123217061766496494e-01
1.200120397087477464e+01 9.001773848589376126e-01
1.300130430178101015e+01 8.863489582910811793e-01
1.400140463268724034e+01 8.687841729189539342e-01
1.500150496359346874e+01 8.522982587884655459e-01
1.600160529449970781e+01 8.288542141540723440e-01
1.700170562540593266e+01 8.111084593095569950e-01
1.800180595631217884e+01 7.850817566793094615e-01
1.900190628721839303e+01 7.686489049765881099e-01
2.000200661812463920e+01 7.472060368303019562e-01
2.100210694903086051e+01 7.295038510804604526e-01
2.200220727993708181e+01 7.111056049652356714e-01
2.300230761084332798e+01 6.948374528321248356e-01
2.400240794174954928e+01 6.811191635349760354e-01
2.500250827265579190e+01 6.658764257646359042e-01
2.600260860356202031e+01 6.534356483786903924e-01
2.700270893446826292e+01 6.418890909683935275e-01
2.800280926537448067e+01 6.328868800839928532e-01
2.900290959628069842e+01 6.221863222755755762e-01
3.000300992718693749e+01 6.186231155770344214e-01
3.100311025809318011e+01 6.106829353453968601e-01
3.200321058899941562e+01 6.020565008506798543e-01
3.300331091990563692e+01 5.961307001423865604e-01
3.400341125081186533e+01 5.873907776062264885e-01
3.500351158171811505e+01 5.799452321354752193e-01
3.600361191262435767e+01 5.756957818172695474e-01
3.700371224353056476e+01 5.729250586076923835e-01
3.800381257443678606e+01 5.714980265552312977e-01
3.900391290534301447e+01 5.705793386284598867e-01
4.000401323624927841e+01 5.719114360749993908e-01
4.100411356715550681e+01 5.694763131675416590e-01
4.200421389806172101e+01 5.684968634308970037e-01
4.300431422896793521e+01 5.719775752623601495e-01
4.400441455987416361e+01 5.661115040433806200e-01
4.500451489078042755e+01 5.663632145437760279e-01
4.600461522168665596e+01 5.640945019764068702e-01
4.700471555259287726e+01 5.633156826589252875e-01
4.800481588349909856e+01 5.627118781012286908e-01
4.900491621440531276e+01 5.602275522240529604e-01
5.000501654531158380e+01 5.581922993099432961e-01
5.100511687621780510e+01 5.554707146964930065e-01
5.200521720712404061e+01 5.524884913750164328e-01
5.300531753803025481e+01 5.522859675680168445e-01
5.400541786893652585e+01 5.507413862161478768e-01
5.500551819984274715e+01 5.493037442465402709e-01
5.600561853074896135e+01 5.491775539679901730e-01
5.700571886165517554e+01 5.481043932820731657e-01
5.800581919256139685e+01 5.480524719942411194e-01
5.900591952346765368e+01 5.481043932820731657e-01
6.000601985437387498e+01 5.481043932820731657e-01
6.100612018528013891e+01 5.481043932820731657e-01
6.200622051618636021e+01 5.481043932820731657e-01
6.300632084709261704e+01 5.481043932820731657e-01
6.400642117799883124e+01 5.481043932820731657e-01
6.500652150890505254e+01 5.481043932820731657e-01
6.600662183981127384e+01 5.481043932820731657e-01
6.700672217071748094e+01 5.481043932820731657e-01
6.800682250162373066e+01 5.481043932820731657e-01
6.900692283252995196e+01 5.481043932820731657e-01
7.000702316343623011e+01 5.481043932820731657e-01
7.100712349434245141e+01 5.481043932820731657e-01
7.200722382524871534e+01 5.481043932820731657e-01
7.300732415615492243e+01 5.481043932820731657e-01
7.400742448706112953e+01 5.481043932820731657e-01
7.500752481796736504e+01 5.481043932820731657e-01
7.600762514887357213e+01 5.481043932820731657e-01
7.700772547977977922e+01 5.481043932820731657e-01
7.800782581068602894e+01 5.481043932820731657e-01
