#####################################################################
# Alchemist log file - simulation started at: 2017-05-21T22:31+0000 #
#####################################################################
# random = 3.0, targets = 3.1622776601683795, density = 5.0264212595847235, gridShift = 1.0, perturbation = 0.0, connfactor = 1.0
#
# The columns have the following meaning: 
# time se[Mean] 
0.0 NaN 
1.0016359619213666 NaN 
2.001635961921367 1.010331545902569 
3.001635961921367 1.0226122370220387 
4.001635961921367 1.0299702237026465 
5.001635961921367 1.0316141921724318 
6.001635961921367 1.0113794738730824 
7.001635961921367 1.0135474063281242 
8.001635961921366 1.0142502844342336 
9.001635961921366 1.0137186540961403 
10.001635961921366 1.0180310050407713 
11.001635961921366 1.0231346697573622 
12.001635961921366 1.0196938903584858 
13.001635961921366 1.0203267381074557 
14.001635961921366 1.0038318475866417 
15.001635961921366 0.9846010985622132 
16.001635961921366 0.9579908950485991 
17.001635961921366 0.92783409760771 
18.001635961921366 0.9001657454423752 
19.001635961921366 0.8787675788698469 
20.001635961921366 0.8586872443829068 
21.001635961921366 0.8405933772695078 
22.001635961921366 0.827052624318953 
23.001635961921366 0.8067253948786184 
24.001635961921366 0.7916454716436877 
25.001635961921366 0.785745899405337 
26.001635961921366 0.7700254620685986 
27.001635961921366 0.7676505010420044 
28.001635961921366 0.7661793149578915 
29.001635961921366 0.7603748216597899 
30.001635961921366 0.7520282118808295 
31.001635961921366 0.7507180461480785 
32.001635961921366 0.7521181787966128 
33.001635961921366 0.751748588520595 
34.001635961921366 0.7545677672978709 
35.001635961921366 0.758779917174616 
36.001635961921366 0.7539190652008378 
37.001635961921366 0.7508902967881916 
38.001635961921366 0.756057338484353 
39.001635961921366 0.7409191334556999 
40.001635961921366 0.7467384445525331 
41.001635961921366 0.7276763923354728 
42.001635961921366 0.7390144450027164 
43.001635961921366 0.7304475100002343 
44.001635961921366 0.7156538399290427 
45.001635961921366 0.7203485494238231 
46.001635961921366 0.7022444515260458 
47.001635961921366 0.6894684257789616 
48.001635961921366 0.6766561076891212 
49.001635961921366 0.660304862024842 
50.001635961921366 0.6384916152307715 
51.001635961921366 0.6202832374222507 
52.001635961921366 0.6020216965799206 
53.001635961921366 0.5756215942408974 
54.001635961921366 0.5556215276309213 
55.001635961921366 0.5331248277501656 
56.001635961921366 0.5116750394969316 
57.001635961921366 0.49433056014588167 
58.001635961921366 0.479409611105436 
59.001635961921366 0.4562442860398978 
60.001635961921366 0.4374179018552024 
61.001635961921366 0.42295139124664516 
62.001635961921366 0.4087302780187834 
63.001635961921366 0.3965099081144645 
64.00163596192137 0.37977988804229174 
65.00163596192137 0.3660065396624086 
66.00163596192137 0.3476274289928146 
67.00163596192137 0.33708528384733055 
68.00163596192137 0.3253730606251631 
69.00163596192137 0.3470452707746451 
70.00163596192137 0.30972933733264485 
71.00163596192137 0.4985140608133882 
72.00163596192137 0.45421072036800086 
73.00163596192137 0.5129873022571528 
74.00163596192137 0.42477060248896237 
75.00163596192137 0.388206604402236 
76.00163596192137 0.3774395436511547 
77.00163596192137 0.5066241882803986 
78.00163596192137 0.43611699469898574 
79.00163596192137 0.45276834213087297 
80.00163596192137 0.3445494992863203 
81.00163596192137 0.3618045434671456 
82.00163596192137 0.29524166537834406 
83.00163596192137 0.3110500773575646 
84.00163596192137 0.3105077114313204 
85.00163596192137 0.3210652566369466 
86.00163596192137 0.36286997153825207 
87.00163596192137 0.3717953035729571 
88.00163596192137 0.42827203313988466 
89.00163596192137 0.3340974658687276 
90.00163596192137 0.33124200148414396 
91.00163596192137 0.4350718669006546 
92.00163596192137 0.39093924584544815 
93.00163596192137 0.34796345673080925 
94.00163596192137 0.416300163528809 
95.00163596192137 0.3337678463739774 
96.00163596192137 0.36166015505321625 
97.00163596192137 0.3532496466522967 
98.00163596192137 0.29922200415057804 
99.00163596192137 0.19854720345021037 
100.00163596192137 0.26611409796206104 
101.00163596192137 0.24504308074899794 
102.00163596192137 0.29424413766915886 
103.00163596192137 0.1797642731573355 
104.00163596192137 0.1758925692920233 
105.00163596192137 0.1544243555237382 
106.00163596192137 0.15075048262720878 
107.00163596192137 0.10864420206283142 
108.00163596192137 0.17992896184403856 
109.00163596192137 0.11803061917154829 
110.00163596192137 0.15138034870167413 
111.00163596192137 0.14596589714517677 
112.00163596192137 0.103928620491778 
113.00163596192137 0.07952619224098345 
114.00163596192137 0.09536015423936264 
115.00163596192137 0.09192910082109275 
116.00163596192137 0.08801598922083598 
117.00163596192137 0.04627109746635668 
118.00163596192137 0.042911094115941024 
119.00163596192137 0.020954683695041963 
120.00163596192137 0.0188700816168316 
121.00163596192137 0.016551356227083352 
122.00163596192137 0.014158511534167289 
123.00163596192137 0.012267648110988186 
124.00163596192137 0.01110726233767615 
125.00163596192137 0.009876338035728923 
126.00163596192137 0.008951098652392773 
127.00163596192137 0.0078310975355875 
128.00163596192135 0.006556207802601006 
129.00163596192135 0.005477614420740405 
130.00163596192135 0.00470777519280443 
131.00163596192135 0.004361194078467575 
132.00163596192135 0.0040529514637618344 
133.00163596192135 0.0037462434667128483 
134.00163596192135 0.003515189390488261 
135.00163596192135 0.0033234968923326487 
136.00163596192135 0.0032468198930703887 
137.00163596192135 0.003093465894545897 
138.00163596192135 0.0030551273949147697 
139.00163596192135 0.0029017733963902777 
140.00163596192135 0.0027484193978657805 
141.00163596192135 0.002671742398603531 
142.00163596192135 0.002633403898972407 
143.00163596192135 0.002633403898972407 
144.00163596192135 0.002633403898972407 
145.00163596192135 0.002633403898972407 
146.00163596192135 0.002633403898972407 
147.00163596192135 0.002633403898972407 
148.00163596192135 0.002633403898972407 
149.00163596192135 0.002633403898972407 
150.00163596192135 0.002633403898972407 
151.00163596192135 0.002633403898972407 
152.00163596192135 0.002633403898972407 
153.00163596192135 0.002633403898972407 
154.00163596192135 0.002633403898972407 
155.00163596192135 0.002633403898972407 
156.00163596192135 0.002633403898972407 
157.00163596192135 0.002633403898972407 
158.00163596192135 0.002633403898972407 
159.00163596192135 0.002633403898972407 
160.00163596192135 0.002633403898972407 
161.00163596192135 0.002633403898972407 
162.00163596192135 0.002633403898972407 
163.00163596192135 0.002633403898972407 
164.00163596192135 0.002633403898972407 
165.00163596192135 0.002633403898972407 
166.00163596192135 0.002633403898972407 
167.00163596192135 0.002633403898972407 
168.00163596192135 0.002633403898972407 
169.00163596192135 0.002633403898972407 
170.00163596192135 0.002633403898972407 
171.00163596192135 0.002633403898972407 
172.00163596192135 0.002633403898972407 
173.00163596192135 0.002633403898972407 
174.00163596192135 0.002633403898972407 
175.00163596192135 0.002633403898972407 
176.00163596192135 0.002633403898972407 
177.00163596192135 0.002633403898972407 
178.00163596192135 0.002633403898972407 
179.00163596192135 0.002633403898972407 
180.00163596192135 0.002633403898972407 
181.00163596192135 0.002633403898972407 
182.00163596192135 0.002633403898972407 
183.00163596192135 0.002633403898972407 
184.00163596192135 0.002633403898972407 
185.00163596192135 0.002633403898972407 
186.00163596192135 0.002633403898972407 
187.00163596192135 0.002633403898972407 
188.00163596192135 0.002633403898972407 
189.00163596192135 0.002633403898972407 
#####################################################################
# End of data export. Simulation finished at: 2017-05-21T22:34+0000 #
#####################################################################
