#####################################################################
# Alchemist log file - simulation started at: 2017-05-22T20:23+0000 #
#####################################################################
# random = 4.0, targets = 31.622776601683793, density = 0.1591589639397027, gridShift = 1.0, perturbation = 0.0, connfactor = 1.0
#
# The columns have the following meaning: 
# time se[Mean] 
0.0 NaN 
1.0048193674555734 NaN 
2.0048193674555734 1.1643808461281946 
3.0048193674555734 1.2245560847911692 
4.004819367455573 1.2870509161251427 
5.004819367455573 1.3419644206253152 
6.004819367455573 1.208922480689231 
7.004819367455573 1.3377253469432724 
8.004819367455573 1.1586664394264434 
9.004819367455573 1.2277406039369376 
10.004819367455573 0.982946193017624 
11.004819367455573 0.9779173969173433 
12.004819367455573 0.8208087986958752 
13.004819367455573 0.7738400909232336 
14.004819367455573 0.6077321414379606 
15.004819367455573 0.49141684483622694 
16.004819367455575 0.4014959240067083 
17.004819367455575 0.3366019948743132 
18.004819367455575 0.27778316651977775 
19.004819367455575 0.269236715575801 
20.004819367455575 0.2079446466765404 
21.004819367455575 0.21623813308942885 
22.004819367455575 0.19708231960752054 
23.004819367455575 0.21228807725945137 
24.004819367455575 0.20880796638355903 
25.004819367455575 0.21158057103434103 
26.004819367455575 0.2125443116966755 
27.004819367455575 0.2138255955427511 
28.004819367455575 0.2138255955427511 
29.004819367455575 0.2138255955427511 
30.004819367455575 0.2138255955427511 
31.004819367455575 0.2138255955427511 
32.004819367455575 0.2138255955427511 
33.004819367455575 0.2138255955427511 
34.004819367455575 0.2138255955427511 
#####################################################################
# End of data export. Simulation finished at: 2017-05-22T20:23+0000 #
#####################################################################
