0.000000000000000000e+00 nan
0.000000000000000000e+00 4.075887991527249454e-03
0.000000000000000000e+00 3.832872376699752448e-01
4.440892098500626162e-16 3.287255001358277973e-01
0.000000000000000000e+00 3.274567652849972310e-01
0.000000000000000000e+00 3.261045175876126634e-01
8.881784197001252323e-16 3.258312373340894741e-01
8.881784197001252323e-16 3.238023730419226087e-01
0.000000000000000000e+00 3.228448756484207371e-01
3.552713678800500929e-15 3.219116030937685391e-01
0.000000000000000000e+00 3.220479859454051241e-01
5.329070518200751394e-15 3.227336283630973801e-01
1.776356839400250465e-15 3.219898185009700264e-01
3.552713678800500929e-15 3.245898198266776169e-01
1.776356839400250465e-15 3.245858104017434465e-01
5.329070518200751394e-15 3.244124154428516538e-01
0.000000000000000000e+00 3.248968156086033399e-01
3.552713678800500929e-15 3.257543253624594626e-01
7.105427357601001859e-15 3.239348675907295916e-01
7.105427357601001859e-15 3.266714831759573445e-01
0.000000000000000000e+00 3.269442268500878379e-01
3.552713678800500929e-15 3.253895163634510368e-01
1.065814103640150279e-14 3.281964237178614519e-01
7.105427357601001859e-15 3.261652838056126047e-01
3.552713678800500929e-15 3.268277070271848883e-01
7.105427357601001859e-15 3.289342979377223863e-01
7.105427357601001859e-15 3.283870159709938452e-01
3.552713678800500929e-15 3.301886082418976076e-01
3.552713678800500929e-15 3.310199390124620167e-01
0.000000000000000000e+00 3.312430166074819549e-01
1.065814103640150279e-14 3.332237484903010638e-01
3.552713678800500929e-15 3.330704154675939166e-01
0.000000000000000000e+00 3.363104281019194675e-01
1.421085471520200372e-14 3.389027947556563225e-01
7.105427357601001859e-15 3.443159163762045116e-01
1.421085471520200372e-14 3.425909127718362313e-01
1.421085471520200372e-14 3.815247953527384217e-01
7.105427357601001859e-15 4.199583139612059202e-01
1.421085471520200372e-14 5.080680903256166170e-01
0.000000000000000000e+00 7.721417411746798187e-01
0.000000000000000000e+00 9.325572732551226096e-01
1.421085471520200372e-14 1.288562974464788624e+00
7.105427357601001859e-15 1.603346147887997120e+00
2.131628207280300558e-14 1.857436735207335099e+00
2.131628207280300558e-14 2.340015558463659939e+00
7.105427357601001859e-15 2.709992397192559910e+00
1.421085471520200372e-14 3.215139733452041071e+00
0.000000000000000000e+00 3.702817023730418100e+00
7.105427357601001859e-15 4.224643919403424874e+00
7.105427357601001859e-15 4.733267566007986815e+00
1.421085471520200372e-14 5.310858446192294302e+00
2.842170943040400743e-14 5.814849432185946299e+00
1.421085471520200372e-14 6.475228846718564135e+00
2.131628207280300558e-14 6.918216293769325453e+00
7.105427357601001859e-15 7.441637013202153206e+00
0.000000000000000000e+00 7.801609216640811084e+00
7.105427357601001859e-15 8.178315521650331377e+00
2.131628207280300558e-14 8.358116718980793891e+00
0.000000000000000000e+00 8.550581388804303629e+00
3.552713678800500929e-14 8.745071417685865711e+00
2.131628207280300558e-14 8.700732033939614141e+00
0.000000000000000000e+00 8.675678803453569898e+00
7.105427357601001859e-15 8.771019113447469095e+00
2.842170943040400743e-14 8.768877912632270011e+00
0.000000000000000000e+00 8.579153817110288571e+00
1.421085471520200372e-14 8.411289762318347130e+00
2.842170943040400743e-14 8.184970210067048058e+00
4.263256414560601115e-14 7.876950487544826629e+00
1.421085471520200372e-14 7.665752115861449667e+00
1.421085471520200372e-14 7.402505315940588027e+00
2.842170943040400743e-14 7.237820672848684467e+00
0.000000000000000000e+00 7.012092032937854214e+00
2.842170943040400743e-14 6.724493948405737775e+00
1.421085471520200372e-14 6.521739403497973875e+00
1.421085471520200372e-14 6.354019479530665038e+00
4.263256414560601115e-14 6.029656739163112178e+00
2.842170943040400743e-14 5.925944392075577660e+00
2.842170943040400743e-14 5.724082899599044261e+00
0.000000000000000000e+00 5.502684634032569022e+00
5.684341886080801487e-14 5.311483013389453056e+00
0.000000000000000000e+00 5.274421159875687160e+00
2.842170943040400743e-14 5.029092925821203153e+00
2.842170943040400743e-14 4.868763934789272163e+00
4.263256414560601115e-14 4.814730869459081575e+00
1.421085471520200372e-14 4.660186696873771517e+00
1.421085471520200372e-14 4.600295272632673793e+00
4.263256414560601115e-14 4.513896587525086268e+00
0.000000000000000000e+00 4.391082192502179460e+00
4.263256414560601115e-14 4.323832040277958200e+00
1.421085471520200372e-14 4.306222984604362480e+00
1.421085471520200372e-14 4.198079480919965079e+00
4.263256414560601115e-14 4.167120604458458111e+00
2.842170943040400743e-14 4.255180259590898295e+00
2.842170943040400743e-14 4.143366239916686844e+00
0.000000000000000000e+00 4.224916221070373012e+00
5.684341886080801487e-14 4.234737782213350066e+00
1.421085471520200372e-14 4.241870852320405838e+00
2.842170943040400743e-14 4.294932926106251436e+00
1.421085471520200372e-14 4.233450421078520876e+00
2.842170943040400743e-14 4.432835227467002426e+00
2.842170943040400743e-14 4.198013028780443356e+00
0.000000000000000000e+00 4.192131171375610421e+00
5.684341886080801487e-14 4.144568510692930197e+00
2.842170943040400743e-14 4.214983302589470071e+00
2.842170943040400743e-14 4.406802122787185638e+00
2.842170943040400743e-14 4.571090087943478153e+00
4.263256414560601115e-14 5.676001158265924218e+00
1.421085471520200372e-14 5.313702134524785237e+00
1.421085471520200372e-14 7.557056973036259784e+00
5.684341886080801487e-14 6.328046813930856551e+00
0.000000000000000000e+00 8.235132947107947743e+00
5.684341886080801487e-14 7.779420870140620892e+00
1.421085471520200372e-14 8.665461605144624713e+00
1.421085471520200372e-14 8.992345076243402957e+00
4.263256414560601115e-14 9.327442872451344513e+00
2.842170943040400743e-14 1.018575147692939709e+01
0.000000000000000000e+00 1.066258458334168857e+01
4.263256414560601115e-14 9.102707863748468853e+00
7.105427357601001859e-14 1.184922330411895786e+01
0.000000000000000000e+00 1.179985675278802049e+01
4.263256414560601115e-14 1.222366974722380917e+01
1.421085471520200372e-14 1.280764648066318934e+01
0.000000000000000000e+00 1.311106245533851578e+01
2.842170943040400743e-14 1.508570946984021433e+01
1.421085471520200372e-14 1.612296153609897686e+01
0.000000000000000000e+00 1.403473547574997049e+01
5.684341886080801487e-14 1.740313192351896276e+01
0.000000000000000000e+00 1.537610328439888718e+01
0.000000000000000000e+00 1.675499917465685584e+01
2.842170943040400743e-14 1.632635581649237011e+01
2.842170943040400743e-14 1.723946871690076676e+01
5.684341886080801487e-14 1.522034949952685778e+01
5.684341886080801487e-14 1.545039149892281927e+01
0.000000000000000000e+00 1.718743212160407907e+01
8.526512829121202230e-14 1.613934081111041863e+01
5.684341886080801487e-14 1.611736730015295649e+01
2.842170943040400743e-14 1.766478489207359814e+01
2.842170943040400743e-14 1.722645688140499232e+01
2.842170943040400743e-14 1.725661308301926056e+01
2.842170943040400743e-14 2.060282596926674259e+01
5.684341886080801487e-14 1.607040547770131056e+01
8.526512829121202230e-14 1.841014354694831212e+01
0.000000000000000000e+00 1.740098932602687043e+01
5.684341886080801487e-14 1.576475210250379533e+01
5.684341886080801487e-14 1.776421006843143147e+01
2.842170943040400743e-14 1.639615745314566908e+01
2.842170943040400743e-14 1.491646007302091093e+01
0.000000000000000000e+00 1.746147729794803283e+01
2.842170943040400743e-14 1.415780861076033048e+01
5.684341886080801487e-14 1.478297773809271298e+01
8.526512829121202230e-14 1.540772826357611258e+01
0.000000000000000000e+00 1.446847577523347184e+01
5.684341886080801487e-14 1.365054867149841300e+01
5.684341886080801487e-14 1.774509238339466322e+01
5.684341886080801487e-14 1.296125223857021247e+01
5.684341886080801487e-14 1.532945392618361247e+01
0.000000000000000000e+00 1.427489070486361733e+01
8.526512829121202230e-14 1.070555274790674716e+01
1.136868377216160297e-13 1.525551541007179601e+01
2.842170943040400743e-14 1.326523555200547655e+01
0.000000000000000000e+00 1.114411486824349851e+01
2.842170943040400743e-14 1.228354812662805706e+01
5.684341886080801487e-14 1.200123002757219659e+01
8.526512829121202230e-14 9.498029495832692959e+00
5.684341886080801487e-14 1.134413582891350103e+01
0.000000000000000000e+00 1.003427673805104625e+01
8.526512829121202230e-14 1.052508959431143865e+01
8.526512829121202230e-14 9.436365843367706674e+00
2.842170943040400743e-14 8.898449420933008724e+00
2.842170943040400743e-14 9.598425908794281369e+00
2.842170943040400743e-14 8.141931403886443874e+00
2.842170943040400743e-14 8.590195694660952341e+00
8.526512829121202230e-14 8.277169828766055559e+00
8.526512829121202230e-14 8.866186358366771714e+00
0.000000000000000000e+00 8.143420941373086919e+00
5.684341886080801487e-14 9.071595482056757476e+00
8.526512829121202230e-14 9.638975977390172645e+00
5.684341886080801487e-14 8.971113269900099496e+00
2.842170943040400743e-14 9.138965508682467487e+00
0.000000000000000000e+00 9.940756290001983686e+00
2.842170943040400743e-14 8.795931535703914506e+00
1.136868377216160297e-13 9.722313532632819388e+00
8.526512829121202230e-14 1.759163180429108664e+01
0.000000000000000000e+00 1.765373225636174226e+01
5.684341886080801487e-14 1.979020975625970280e+01
5.684341886080801487e-14 1.748145777290480396e+01
5.684341886080801487e-14 2.952586007276564573e+01
5.684341886080801487e-14 2.701410871850873008e+01
0.000000000000000000e+00 4.197866542790363553e+01
8.526512829121202230e-14 4.194864534204700135e+01
1.136868377216160297e-13 5.983322639915311925e+01
5.684341886080801487e-14 2.962847266721947292e+01
2.842170943040400743e-14 4.707235583662996703e+01
2.842170943040400743e-14 5.476454003000005599e+01
5.684341886080801487e-14 6.238641808542733713e+01
8.526512829121202230e-14 6.499044522283433878e+01
2.842170943040400743e-14 5.988823702541967720e+01
2.842170943040400743e-14 6.507768729566997479e+01
5.684341886080801487e-14 8.046195559134486075e+01
8.526512829121202230e-14 7.020240227220278939e+01
5.684341886080801487e-14 7.807759264558680457e+01
2.842170943040400743e-14 7.541828906710975389e+01
0.000000000000000000e+00 8.321460201135853652e+01
5.684341886080801487e-14 9.096595129716054373e+01
1.136868377216160297e-13 7.809148041448327149e+01
2.842170943040400743e-14 1.013479014697065708e+02
5.684341886080801487e-14 7.565482277375056697e+01
0.000000000000000000e+00 1.297723275055265333e+02
5.684341886080801487e-14 8.578391791118315268e+01
8.526512829121202230e-14 9.885899569426094047e+01
5.684341886080801487e-14 8.832972267600381144e+01
0.000000000000000000e+00 8.842622308689776389e+01
8.526512829121202230e-14 7.812577918014396516e+01
1.136868377216160297e-13 1.064795763662354915e+02
2.842170943040400743e-14 8.839719576595399531e+01
5.684341886080801487e-14 1.013372911177484070e+02
2.842170943040400743e-14 9.351878069051900866e+01
0.000000000000000000e+00 9.616062035579541600e+01
1.136868377216160297e-13 1.038697157017473103e+02
5.684341886080801487e-14 1.167853576366839263e+02
0.000000000000000000e+00 1.012779811361428557e+02
8.526512829121202230e-14 1.194734833547245643e+02
1.136868377216160297e-13 1.297771481886455263e+02
2.842170943040400743e-14 9.364330665100389695e+01
2.842170943040400743e-14 1.299014570184622244e+02
2.842170943040400743e-14 1.246744722685812121e+02
2.842170943040400743e-14 1.041070721891411495e+02
1.136868377216160297e-13 1.170073304684068631e+02
8.526512829121202230e-14 8.346811025656039362e+01
0.000000000000000000e+00 1.015269514307095307e+02
5.684341886080801487e-14 9.130056495758353208e+01
1.136868377216160297e-13 8.101324321999609879e+01
0.000000000000000000e+00 8.618498206835978692e+01
5.684341886080801487e-14 8.352265561758984802e+01
8.526512829121202230e-14 8.375555104978852228e+01
2.842170943040400743e-14 8.882681555730688672e+01
1.421085471520200372e-13 9.677886297746117350e+01
8.526512829121202230e-14 7.631450619291967996e+01
0.000000000000000000e+00 9.415020917057189820e+01
5.684341886080801487e-14 7.870925454529680110e+01
8.526512829121202230e-14 9.149083411660835452e+01
2.842170943040400743e-14 8.374433642199485917e+01
2.842170943040400743e-14 8.397315138692700032e+01
8.526512829121202230e-14 8.642764997771304536e+01
0.000000000000000000e+00 7.615736266633001605e+01
1.421085471520200372e-13 9.423399793304660932e+01
5.684341886080801487e-14 6.350909105281552769e+01
0.000000000000000000e+00 6.382304274437451852e+01
2.842170943040400743e-14 4.307228595327939047e+01
8.526512829121202230e-14 5.115355968312519508e+01
0.000000000000000000e+00 3.430958127372829836e+01
2.842170943040400743e-14 2.704795051164927955e+01
1.136868377216160297e-13 1.891785303486862801e+01
0.000000000000000000e+00 2.513725166356988439e+01
0.000000000000000000e+00 2.005852829511751168e+01
5.684341886080801487e-14 2.074656559117852694e+01
0.000000000000000000e+00 1.933039912701854846e+01
0.000000000000000000e+00 1.498492318845823945e+01
5.684341886080801487e-14 1.375550081546595393e+01
1.705302565824240446e-13 1.529440033504999796e+01
5.684341886080801487e-14 1.529486047620977374e+01
1.136868377216160297e-13 1.367902400228801518e+01
1.136868377216160297e-13 1.820629429816690958e+01
5.684341886080801487e-14 1.360662900369984740e+01
1.136868377216160297e-13 1.121791810241763088e+01
0.000000000000000000e+00 1.326616627773628032e+01
0.000000000000000000e+00 9.074662802316126431e+00
5.684341886080801487e-14 1.217212997582913125e+01
1.705302565824240446e-13 9.553289423563663618e+00
5.684341886080801487e-14 1.239899526994583745e+01
1.136868377216160297e-13 1.529977609673065864e+01
1.136868377216160297e-13 1.745198524257885708e+01
5.684341886080801487e-14 2.454097254074724432e+01
1.136868377216160297e-13 2.240395824718612516e+01
5.684341886080801487e-14 3.544381605942186297e+01
0.000000000000000000e+00 2.781913135270642812e+01
5.684341886080801487e-14 3.743932309025105809e+01
1.705302565824240446e-13 3.539662425289843384e+01
5.684341886080801487e-14 3.929770943895666591e+01
1.136868377216160297e-13 4.129825088899540475e+01
1.136868377216160297e-13 4.128237487317999665e+01
5.684341886080801487e-14 4.726112027422256290e+01
1.705302565824240446e-13 4.927071777446003153e+01
5.684341886080801487e-14 4.136155692851865950e+01
0.000000000000000000e+00 5.521372429069212018e+01
5.684341886080801487e-14 5.526242713936733963e+01
1.136868377216160297e-13 5.723898329993132705e+01
5.684341886080801487e-14 5.925737624402365356e+01
1.136868377216160297e-13 6.125809899132002556e+01
1.136868377216160297e-13 7.123092154670938214e+01
5.684341886080801487e-14 7.518986455205576647e+01
1.705302565824240446e-13 6.525598711751014491e+01
5.684341886080801487e-14 8.115473743151626707e+01
0.000000000000000000e+00 7.121503729228061275e+01
0.000000000000000000e+00 7.717763852375667000e+01
1.136868377216160297e-13 7.518454182104710526e+01
5.684341886080801487e-14 7.917369296808794843e+01
1.705302565824240446e-13 6.922814522374737578e+01
1.136868377216160297e-13 6.922879858118415086e+01
1.136868377216160297e-13 7.918159583784111533e+01
1.705302565824240446e-13 7.320234410062141706e+01
5.684341886080801487e-14 7.321680142810409109e+01
0.000000000000000000e+00 8.115854359354824510e+01
0.000000000000000000e+00 7.916558759770603615e+01
1.136868377216160297e-13 7.918345602049939203e+01
5.684341886080801487e-14 9.507475177124943855e+01
1.136868377216160297e-13 7.320296116670131426e+01
1.136868377216160297e-13 8.513915949685092244e+01
1.136868377216160297e-13 7.916716663919349628e+01
1.705302565824240446e-13 7.122048397009791643e+01
1.136868377216160297e-13 8.115268655019976052e+01
0.000000000000000000e+00 7.320224418565705093e+01
0.000000000000000000e+00 6.723663506173927829e+01
1.136868377216160297e-13 8.116181477170579228e+01
1.705302565824240446e-13 6.723638276564483363e+01
1.136868377216160297e-13 7.122855893507059477e+01
2.273736754432320595e-13 7.519812805872632566e+01
1.136868377216160297e-13 7.123344475604675097e+01
5.684341886080801487e-14 6.527004197916740225e+01
1.136868377216160297e-13 8.914154796313157192e+01
0.000000000000000000e+00 6.528482992644963190e+01
0.000000000000000000e+00 8.119952384721116800e+01
5.684341886080801487e-14 8.118993246461411672e+01
1.705302565824240446e-13 6.528894628645979026e+01
1.136868377216160297e-13 8.318445201267354605e+01
1.705302565824240446e-13 8.120292687645536489e+01
1.705302565824240446e-13 6.926107616511859533e+01
5.684341886080801487e-14 8.121109882578757322e+01
1.136868377216160297e-13 8.120513430524846399e+01
5.684341886080801487e-14 5.933326106217698026e+01
0.000000000000000000e+00 7.325420815726072021e+01
5.684341886080801487e-14 6.928084594850112410e+01
1.705302565824240446e-13 5.734739051690980460e+01
5.684341886080801487e-14 5.536516882940910023e+01
1.705302565824240446e-13 3.748236605014895417e+01
1.705302565824240446e-13 4.940537977366785327e+01
5.684341886080801487e-14 2.755532681133331607e+01
1.705302565824240446e-13 2.755759553648428906e+01
5.684341886080801487e-14 2.160614181987273952e+01
0.000000000000000000e+00 1.174832959377131480e+01
5.684341886080801487e-14 9.795300058693142020e+00
1.136868377216160297e-13 7.863109682578022230e+00
5.684341886080801487e-14 7.868389149874182920e+00
1.705302565824240446e-13 4.158623684528206077e+00
1.705302565824240446e-13 2.623096484370308623e+00
1.136868377216160297e-13 2.619806721233686186e+00
1.705302565824240446e-13 2.623995578741894708e+00
5.684341886080801487e-14 2.623959057352113877e+00
0.000000000000000000e+00 2.624148623405600844e+00
0.000000000000000000e+00 2.624237450686466744e+00
1.136868377216160297e-13 2.624333673345680573e+00
5.684341886080801487e-14 2.624330041339098418e+00
1.705302565824240446e-13 2.624330041339098418e+00
2.273736754432320595e-13 2.624330041339098418e+00
1.136868377216160297e-13 2.624330041339098418e+00
1.705302565824240446e-13 2.624330041339098418e+00
5.684341886080801487e-14 2.624330041339098418e+00
0.000000000000000000e+00 2.624330041339098418e+00
0.000000000000000000e+00 2.624330041339098418e+00
1.136868377216160297e-13 2.624330041339098418e+00
5.684341886080801487e-14 2.624330041339098418e+00
1.136868377216160297e-13 2.624330041339098418e+00
2.273736754432320595e-13 2.624330041339098418e+00
1.136868377216160297e-13 2.624330041339098418e+00
1.705302565824240446e-13 2.624330041339098418e+00
1.136868377216160297e-13 2.624330041339098418e+00
0.000000000000000000e+00 2.624330041339098418e+00
0.000000000000000000e+00 2.624330041339098418e+00
1.136868377216160297e-13 2.624330041339098418e+00
1.705302565824240446e-13 2.624330041339098418e+00
1.136868377216160297e-13 2.624330041339098418e+00
2.273736754432320595e-13 2.624330041339098418e+00
1.136868377216160297e-13 2.624330041339098418e+00
1.136868377216160297e-13 2.624330041339098418e+00
1.136868377216160297e-13 2.624330041339098418e+00
0.000000000000000000e+00 2.624330041339098418e+00
0.000000000000000000e+00 2.624330041339098418e+00
5.684341886080801487e-14 2.624330041339098418e+00
1.705302565824240446e-13 2.624330041339098418e+00
1.136868377216160297e-13 2.624330041339098418e+00
2.273736754432320595e-13 2.624330041339098418e+00
1.705302565824240446e-13 2.624330041339098418e+00
1.136868377216160297e-13 2.624330041339098418e+00
1.136868377216160297e-13 2.624330041339098418e+00
5.684341886080801487e-14 2.624330041339098418e+00
0.000000000000000000e+00 2.624330041339098418e+00
5.684341886080801487e-14 2.624330041339098418e+00
1.705302565824240446e-13 2.624330041339098418e+00
1.136868377216160297e-13 2.624330041339098418e+00
1.705302565824240446e-13 2.624330041339098418e+00
1.705302565824240446e-13 2.624330041339098418e+00
1.136868377216160297e-13 2.624330041339098418e+00
5.684341886080801487e-14 2.624330041339098418e+00
5.684341886080801487e-14 2.624330041339098418e+00
5.684341886080801487e-14 2.624330041339098418e+00
5.684341886080801487e-14 2.624330041339098418e+00
1.136868377216160297e-13 2.624330041339098418e+00
1.136868377216160297e-13 2.624330041339098418e+00
1.705302565824240446e-13 2.624330041339098418e+00
1.705302565824240446e-13 2.624330041339098418e+00
1.136868377216160297e-13 2.624330041339098418e+00
5.684341886080801487e-14 2.624330041339098418e+00
5.684341886080801487e-14 2.624330041339098418e+00
5.684341886080801487e-14 2.624330041339098418e+00
0.000000000000000000e+00 2.624330041339098418e+00
1.136868377216160297e-13 2.624330041339098418e+00
1.136868377216160297e-13 2.624330041339098418e+00
1.705302565824240446e-13 2.624330041339098418e+00
2.273736754432320595e-13 2.624330041339098418e+00
1.136868377216160297e-13 2.624330041339098418e+00
5.684341886080801487e-14 2.624330041339098418e+00
5.684341886080801487e-14 2.624330041339098418e+00
1.136868377216160297e-13 2.624330041339098418e+00
0.000000000000000000e+00 2.624330041339098418e+00
0.000000000000000000e+00 2.624330041339098418e+00
1.136868377216160297e-13 2.624330041339098418e+00
1.136868377216160297e-13 2.624330041339098418e+00
2.273736754432320595e-13 2.624330041339098418e+00
1.705302565824240446e-13 2.624330041339098418e+00
5.684341886080801487e-14 2.624330041339098418e+00
1.136868377216160297e-13 2.624330041339098418e+00
1.136868377216160297e-13 2.624330041339098418e+00
0.000000000000000000e+00 2.624330041339098418e+00
0.000000000000000000e+00 2.624330041339098418e+00
1.705302565824240446e-13 2.624330041339098418e+00
1.136868377216160297e-13 2.624330041339098418e+00
2.273736754432320595e-13 2.624330041339098418e+00
1.705302565824240446e-13 2.624330041339098418e+00
5.684341886080801487e-14 2.624330041339098418e+00
1.136868377216160297e-13 2.624330041339098418e+00
1.136868377216160297e-13 2.624330041339098418e+00
0.000000000000000000e+00 2.624330041339098418e+00
5.684341886080801487e-14 2.624330041339098418e+00
1.705302565824240446e-13 2.624330041339098418e+00
0.000000000000000000e+00 2.624330041339098418e+00
2.273736754432320595e-13 2.624330041339098418e+00
2.273736754432320595e-13 2.624330041339098418e+00
5.684341886080801487e-14 2.624330041339098418e+00
1.136868377216160297e-13 2.624330041339098418e+00
1.136868377216160297e-13 2.624330041339098418e+00
0.000000000000000000e+00 2.624330041339098418e+00
5.684341886080801487e-14 2.624330041339098418e+00
1.705302565824240446e-13 2.624330041339098418e+00
0.000000000000000000e+00 2.624330041339098418e+00
2.273736754432320595e-13 2.624330041339098418e+00
2.273736754432320595e-13 2.624330041339098418e+00
5.684341886080801487e-14 2.624330041339098418e+00
1.136868377216160297e-13 2.624330041339098418e+00
5.684341886080801487e-14 2.624330041339098418e+00
0.000000000000000000e+00 2.624330041339098418e+00
5.684341886080801487e-14 2.624330041339098418e+00
