#####################################################################
# Alchemist log file - simulation started at: 2017-05-24T19:08+0000 #
#####################################################################
# random = 15.0, targets = 100.0, density = 0.2247883923996312, gridShift = 0.0, perturbation = 0.5, connfactor = 0.1
#
# The columns have the following meaning: 
# time se[Mean] 
0.0 NaN 
1.0090872484315245 NaN 
2.0090872484315243 1.0 
3.0090872484315243 0.9994472222222223 
4.009087248431524 0.9977888888888888 
5.009087248431524 0.9955777777777778 
6.009087248431524 0.9944722222222222 
7.009087248431524 0.9922666666666666 
8.009087248431523 0.9906194444444444 
9.009087248431523 0.9884138888888889 
10.009087248431523 0.9862027777777778 
11.009087248431523 0.9826173611111111 
12.009087248431523 0.9831631944444444 
13.009087248431523 0.9777534722222222 
14.009087248431523 0.9699472222222222 
15.009087248431523 0.9637701388888888 
16.009087248431523 0.9540270833333333 
17.009087248431523 0.94381875 
18.009087248431523 0.9380402777777778 
19.009087248431523 0.9259534722222222 
20.009087248431523 0.9093694444444445 
21.009087248431523 0.87975625 
22.009087248431523 0.8556611111111111 
23.009087248431523 0.8381215277777777 
24.009087248431523 0.8165131944444445 
25.009087248431523 0.8172541666666666 
26.009087248431523 0.7738520833333333 
27.009087248431523 0.7798868055555556 
28.009087248431523 0.8036958333333334 
29.009087248431523 0.8284861111111111 
30.009087248431523 0.8268756944444444 
31.009087248431523 0.8321229166666667 
32.00908724843153 0.8399472222222223 
33.00908724843153 0.8414722222222223 
34.00908724843153 0.8464 
35.00908724843153 0.8458916666666667 
36.00908724843153 0.8458916666666667 
37.00908724843153 0.8464 
38.00908724843153 0.8464 
39.00908724843153 0.8464 
40.00908724843153 0.8464 
41.00908724843153 0.8464 
42.00908724843153 0.8464 
43.00908724843153 0.8464 
44.00908724843153 0.8464 
45.00908724843153 0.8464 
46.00908724843153 0.8464 
47.00908724843153 0.8464 
48.00908724843153 0.8464 
49.00908724843153 0.8464 
#####################################################################
# End of data export. Simulation finished at: 2017-05-24T19:08+0000 #
#####################################################################
