#####################################################################
# Alchemist log file - simulation started at: 2017-05-25T13:02+0000 #
#####################################################################
# random = 18.0, targets = 1.0, density = 10.026386447354522, gridShift = 0.0, perturbation = 0.5, connfactor = 0.75
#
# The columns have the following meaning: 
# time se[Mean] 
0.0 NaN 
1.0000499264234746 NaN 
2.0000499264234746 1.0 
3.0000499264234746 0.9994898479746964 
4.000049926423475 0.9997194163860831 
5.000049926423475 0.9961228446076931 
6.000049926423475 0.9937251300887664 
7.000049926423475 0.9892868074686255 
8.000049926423475 0.9846189164370984 
9.000049926423475 0.9826038159371495 
10.000049926423475 0.9771451892664015 
11.000049926423475 0.982552800734619 
12.000049926423475 0.9809458218549124 
13.000049926423475 0.9861238649117438 
14.000049926423475 0.9885725946332008 
15.000049926423475 0.9926538108356291 
16.000049926423475 0.9942862973166002 
17.000049926423475 0.9991837567595143 
18.000049926423475 1.0 
19.000049926423475 1.0 
20.000049926423475 1.0 
21.000049926423475 0.9997194163860831 
22.000049926423475 0.999438832772166 
23.000049926423475 0.9983164983164984 
24.000049926423475 0.9952300785634118 
25.000049926423475 0.994949494949495 
26.000049926423475 0.989618406285073 
27.000049926423475 0.9845679012345677 
28.000049926423475 0.9814814814814813 
29.000049926423475 0.9764309764309768 
30.000049926423475 0.9708193041526372 
31.000049926423475 0.9691358024691356 
32.00004992642347 0.9618406285072949 
33.00004992642347 0.956228956228957 
34.00004992642347 0.9548260381593717 
35.00004992642347 0.9472502805836135 
36.00004992642347 0.9441638608305283 
37.00004992642347 0.9438832772166101 
38.00004992642347 0.9388327721661053 
39.00004992642347 0.9349046015712683 
40.00004992642347 0.9377104377104378 
41.00004992642347 0.9342669115396387 
42.00004992642347 0.9391133557800221 
43.00004992642347 0.9554382205897357 
44.00004992642347 0.9684215896337107 
45.00004992642347 0.9601826344250587 
46.00004992642347 0.9825017855320884 
47.00004992642347 0.9947454341393734 
48.00004992642347 0.9813284358738904 
49.00004992642347 1.0166309560248956 
50.00004992642347 1.0293337414549535 
51.00004992642347 1.0359912253851646 
52.00004992642347 1.032292623201714 
53.00004992642347 1.0300989694929086 
54.00004992642347 1.0365268850117333 
55.00004992642347 1.0434649525558617 
56.00004992642347 1.0480563207835933 
57.00004992642347 1.052928272625242 
58.00004992642347 1.0501479440873378 
59.00004992642347 1.0388225691255994 
60.00004992642347 1.0570605040302008 
61.00004992642347 1.0332364044485252 
62.00004992642347 1.0514998469543926 
63.00004992642347 1.034129170492806 
64.00004992642347 1.0227527803285388 
65.00004992642347 0.9880879502091618 
66.00004992642347 1.0011988572594632 
67.00004992642347 0.9901540659116415 
68.00004992642347 0.9868635853484343 
69.00004992642347 0.9611519232731351 
70.00004992642347 0.9351851851851841 
71.00004992642347 0.9178145087236014 
72.00004992642347 0.911743699622486 
73.00004992642347 0.851341699826549 
74.00004992642347 0.8468013468013489 
75.00004992642347 0.7863993470054053 
76.00004992642347 0.7965513723089458 
77.00004992642347 0.7628303234363814 
78.00004992642347 0.7378583817977743 
79.00004992642347 0.7140852974186283 
80.00004992642347 0.6819457198245059 
81.00004992642347 0.6572543617998179 
82.00004992642347 1.4042954800530507 
83.00004992642347 2.166054484236297 
84.00004992642347 6.05185695337214 
85.00004992642347 4.471278440975446 
86.00004992642347 4.446255484134233 
87.00004992642347 10.665952453831332 
88.00004992642347 5.955846342209991 
89.00004992642347 9.058744005713748 
90.00004992642347 12.929650035710795 
91.00004992642347 13.689546985001577 
92.00004992642347 12.10373941434538 
93.00004992642347 12.081777369656082 
94.00004992642347 13.617564534231226 
95.00004992642347 13.595832057953329 
96.00004992642347 14.355014794408682 
97.00004992642347 14.32955820834602 
98.00004992642347 17.432685440261153 
99.00004992642347 11.165671870217336 
100.00004992642347 18.957402305887047 
101.00004992642347 13.477247219671442 
102.00004992642347 18.148913376186126 
103.00004992642347 16.57325783083366 
104.00004992642347 18.900749923477164 
105.00004992642347 11.857540046933984 
106.00004992642347 18.878456279971445 
107.00004992642347 18.86759004183247 
108.00004992642347 18.863330272421226 
109.00004992642347 29.010738700132674 
110.00004992642347 18.850015304560827 
111.00004992642347 23.53152739516378 
112.00004992642347 27.430950923375054 
113.00004992642347 26.639679624528156 
114.00004992642347 21.157713498622595 
115.00004992642347 21.150367309458133 
116.00004992642347 28.174471992653867 
117.00004992642347 28.167125803489483 
118.00004992642347 21.912253851647925 
119.00004992642347 31.278951127436017 
120.00004992642347 26.587338026731835 
121.00004992642347 27.361162126313754 
122.00004992642347 21.10996326905421 
123.00004992642347 22.666794204672915 
124.00004992642347 23.44429139883685 
125.00004992642347 17.972426283032327 
126.00004992642347 20.3141006019794 
127.00004992642347 22.65577492092635 
128.00004992642346 19.53017549229677 
129.00004992642346 15.623405774920894 
130.00004992642346 10.155213753698616 
131.00004992642346 10.155213753698721 
132.00004992642346 5.468192021222252 
133.00004992642346 3.9058514437302687 
134.00004992642346 0.7811702887460527 
135.00004992642346 1.562340577492104 
136.00004992642346 4.930380657631324E-32 
137.00004992642346 4.930380657631324E-32 
138.00004992642346 4.930380657631324E-32 
139.00004992642346 4.930380657631324E-32 
140.00004992642346 4.930380657631324E-32 
141.00004992642346 4.930380657631324E-32 
142.00004992642346 4.930380657631324E-32 
143.00004992642346 4.930380657631324E-32 
144.00004992642346 4.930380657631324E-32 
145.00004992642346 4.930380657631324E-32 
146.00004992642346 4.930380657631324E-32 
147.00004992642346 4.930380657631324E-32 
148.00004992642346 4.930380657631324E-32 
149.00004992642346 4.930380657631324E-32 
150.00004992642346 4.930380657631324E-32 
151.00004992642346 4.930380657631324E-32 
152.00004992642346 4.930380657631324E-32 
153.00004992642346 4.930380657631324E-32 
154.00004992642346 4.930380657631324E-32 
155.00004992642346 4.930380657631324E-32 
156.00004992642346 4.930380657631324E-32 
157.00004992642346 4.930380657631324E-32 
158.00004992642346 4.930380657631324E-32 
159.00004992642346 4.930380657631324E-32 
160.00004992642346 4.930380657631324E-32 
161.00004992642346 4.930380657631324E-32 
162.00004992642346 4.930380657631324E-32 
163.00004992642346 4.930380657631324E-32 
164.00004992642346 4.930380657631324E-32 
165.00004992642346 4.930380657631324E-32 
166.00004992642346 4.930380657631324E-32 
167.00004992642346 4.930380657631324E-32 
168.00004992642346 4.930380657631324E-32 
169.00004992642346 4.930380657631324E-32 
170.00004992642346 4.930380657631324E-32 
171.00004992642346 4.930380657631324E-32 
172.00004992642346 4.930380657631324E-32 
173.00004992642346 4.930380657631324E-32 
174.00004992642346 4.930380657631324E-32 
175.00004992642346 4.930380657631324E-32 
176.00004992642346 4.930380657631324E-32 
177.00004992642346 4.930380657631324E-32 
178.00004992642346 4.930380657631324E-32 
179.00004992642346 4.930380657631324E-32 
180.00004992642346 4.930380657631324E-32 
181.00004992642346 4.930380657631324E-32 
182.00004992642346 4.930380657631324E-32 
183.00004992642346 4.930380657631324E-32 
184.00004992642346 4.930380657631324E-32 
185.00004992642346 4.930380657631324E-32 
186.00004992642346 4.930380657631324E-32 
187.00004992642346 4.930380657631324E-32 
188.00004992642346 4.930380657631324E-32 
189.00004992642346 4.930380657631324E-32 
190.00004992642346 4.930380657631324E-32 
191.00004992642346 4.930380657631324E-32 
192.00004992642346 4.930380657631324E-32 
193.00004992642346 4.930380657631324E-32 
194.00004992642346 4.930380657631324E-32 
195.00004992642346 4.930380657631324E-32 
196.00004992642346 4.930380657631324E-32 
197.00004992642346 4.930380657631324E-32 
198.00004992642346 4.930380657631324E-32 
199.00004992642346 4.930380657631324E-32 
200.00004992642346 4.930380657631324E-32 
201.00004992642346 4.930380657631324E-32 
202.00004992642346 4.930380657631324E-32 
203.00004992642346 4.930380657631324E-32 
204.00004992642346 4.930380657631324E-32 
205.00004992642346 4.930380657631324E-32 
206.00004992642346 4.930380657631324E-32 
207.00004992642346 4.930380657631324E-32 
208.00004992642346 4.930380657631324E-32 
209.00004992642346 4.930380657631324E-32 
#####################################################################
# End of data export. Simulation finished at: 2017-05-25T13:04+0000 #
#####################################################################
