#####################################################################
# Alchemist log file - simulation started at: 2017-05-20T12:55+0000 #
#####################################################################
# random = 1.0, targets = 3.1622776601683795, density = 0.2247883923996312, gridShift = 1.0, perturbation = 0.5, connfactor = 1.5
#
# The columns have the following meaning: 
# time se[Mean] 
0.0 NaN 
1.0048855897957667 NaN 
2.0048855897957667 1.048746823716691 
3.0048855897957667 1.032170677985597 
4.004885589795767 1.0895153853001716 
5.004885589795767 1.0600041433140401 
6.004885589795767 1.0538429455129603 
7.004885589795767 1.1364382697381226 
8.004885589795766 1.1885128717926363 
9.004885589795766 1.5021160810601015 
10.004885589795766 1.3236701444047099 
11.004885589795766 1.0134781760032865 
12.004885589795766 1.4229181102122044 
13.004885589795766 1.2481549313643863 
14.004885589795766 1.1842382216327576 
15.004885589795766 1.3633873340114133 
16.004885589795766 1.3701890533081105 
17.004885589795766 1.3047268420510687 
18.004885589795766 1.2049845173690092 
19.004885589795766 1.250438396132785 
20.004885589795766 1.3705092911233263 
21.004885589795766 1.2553952302546116 
22.004885589795766 1.1643621642717668 
23.004885589795766 1.1564535230431845 
24.004885589795766 1.1121970871468665 
25.004885589795766 1.0705931205730324 
26.004885589795766 1.0558896808595486 
27.004885589795766 0.9518797644249636 
28.004885589795766 0.9366124366626579 
29.004885589795766 0.9366124366626579 
30.004885589795766 1.0000000000000002 
31.004885589795766 1.0000000000000002 
32.00488558979576 1.0000000000000002 
33.00488558979576 1.0000000000000002 
34.00488558979576 1.0000000000000002 
35.00488558979576 1.0000000000000002 
36.00488558979576 1.0000000000000002 
37.00488558979576 1.0000000000000002 
38.00488558979576 1.0000000000000002 
39.00488558979576 1.0000000000000002 
40.00488558979576 1.0000000000000002 
41.00488558979576 1.0000000000000002 
#####################################################################
# End of data export. Simulation finished at: 2017-05-20T12:55+0000 #
#####################################################################
