#####################################################################
# Alchemist log file - simulation started at: 2017-05-23T00:12+0000 #
#####################################################################
# random = 4.0, targets = 100.0, density = 0.07978946395100113, gridShift = 1.0, perturbation = 0.0, connfactor = 1.5
#
# The columns have the following meaning: 
# time se[Mean] 
0.0 NaN 
1.0048193674555734 NaN 
2.0048193674555734 1.2862625 
3.0048193674555734 1.3928777777777777 
4.004819367455573 1.6757691666666668 
5.004819367455573 1.7283195833333334 
6.004819367455573 1.7122048611111111 
7.004819367455573 1.599286527777778 
8.004819367455573 1.4268338888888887 
9.004819367455573 1.4764845833333335 
10.004819367455573 1.3822859722222223 
11.004819367455573 1.1592334722222224 
12.004819367455573 0.7788955555555558 
13.004819367455573 0.4826598611111114 
14.004819367455573 0.3866486111111114 
15.004819367455573 0.2798645833333336 
16.004819367455575 0.16782194444444465 
17.004819367455575 0.06527777777777788 
18.004819367455575 0.0451781944444445 
19.004819367455575 0.009089444444444471 
20.004819367455575 0.0032790277777777917 
21.004819367455575 0.001831111111111118 
22.004819367455575 0.001155555555555567 
23.004819367455575 3.63888888888896E-4 
24.004819367455575 3.63888888888896E-4 
25.004819367455575 1.0000000000000568E-4 
26.004819367455575 1.0000000000000568E-4 
27.004819367455575 1.0000000000000568E-4 
28.004819367455575 1.0000000000000568E-4 
29.004819367455575 1.0000000000000568E-4 
30.004819367455575 1.0000000000000568E-4 
31.004819367455575 1.0000000000000568E-4 
#####################################################################
# End of data export. Simulation finished at: 2017-05-23T00:12+0000 #
#####################################################################
