#####################################################################
# Alchemist log file - simulation started at: 2017-05-25T12:53+0000 #
#####################################################################
# random = 18.0, targets = 1.0, density = 5.0264212595847235, gridShift = 1.0, perturbation = 0.5, connfactor = 0.5
#
# The columns have the following meaning: 
# time se[Mean] 
0.0 NaN 
1.001562157851807 NaN 
2.001562157851807 1.0 
3.001562157851807 1.0 
4.001562157851807 0.9986888111888111 
5.001562157851807 0.9960664335664335 
6.001562157851807 0.9934440559440559 
7.001562157851807 0.9842657342657344 
8.001562157851808 0.9842657342657344 
9.001562157851808 0.9803321678321678 
10.001562157851808 0.9803321678321678 
11.001562157851808 0.985576923076923 
12.001562157851808 0.9829545454545455 
13.001562157851808 0.9881993006993006 
14.001562157851808 0.9921328671328671 
15.001562157851808 0.9934440559440559 
16.001562157851808 0.9986888111888111 
17.001562157851808 0.9986888111888111 
18.001562157851808 1.0 
19.001562157851808 1.0 
20.001562157851808 0.9982517482517482 
21.001562157851808 0.9951923076923077 
22.001562157851808 0.9886363636363636 
23.001562157851808 0.9720279720279722 
24.001562157851808 0.9606643356643358 
25.001562157851808 0.9567307692307689 
26.001562157851808 0.9475524475524474 
27.001562157851808 0.9602272727272726 
28.001562157851808 1.018793706293706 
29.001562157851808 0.9698426573426573 
30.001562157851808 0.9973776223776225 
31.001562157851808 1.0380244755244756 
32.00156215785181 1.0240384615384615 
33.00156215785181 1.0284090909090913 
34.00156215785181 1.0332167832167831 
35.00156215785181 0.9401223776223775 
36.00156215785181 1.0397727272727273 
37.00156215785181 0.9833916083916081 
38.00156215785181 0.9510489510489512 
39.00156215785181 0.9567307692307694 
40.00156215785181 0.8850524475524479 
41.00156215785181 0.814685314685315 
42.00156215785181 0.755681818181819 
43.00156215785181 0.7827797202797205 
44.00156215785181 0.719405594405593 
45.00156215785181 0.6713286713286734 
46.00156215785181 0.5489510489510475 
47.00156215785181 0.5083041958041941 
48.00156215785181 0.4847027972027951 
49.00156215785181 0.4125874125874119 
50.00156215785181 0.4462412587412612 
51.00156215785181 0.33260489510489627 
52.00156215785181 0.3535839160839148 
53.00156215785181 0.2875874125874119 
54.00156215785181 0.2556818181818197 
55.00156215785181 0.26311188811188657 
56.00156215785181 0.2548076923076914 
57.00156215785181 0.19536713286713242 
58.00156215785181 0.3317307692307698 
59.00156215785181 0.4860139860139856 
60.00156215785181 0.8159965034965029 
61.00156215785181 1.8382867132867073 
62.00156215785181 1.6494755244755281 
63.00156215785181 2.1569055944056066 
64.00156215785181 3.0157342657342623 
65.00156215785181 3.1774475524475396 
66.00156215785181 3.5183566433566242 
67.00156215785181 4.029283216783213 
68.00156215785181 3.152097902097892 
69.00156215785181 4.547202797202816 
70.00156215785181 4.1962412587412645 
71.00156215785181 4.02097902097903 
72.00156215785181 4.545454545454555 
73.00156215785181 4.895104895104897 
74.00156215785181 4.545454545454552 
75.00156215785181 3.846153846153848 
76.00156215785181 4.545454545454551 
77.00156215785181 4.720279720279714 
78.00156215785181 4.195804195804188 
79.00156215785181 3.6713286713286735 
80.00156215785181 3.3216783216783337 
81.00156215785181 3.846153846153865 
82.00156215785181 2.0979020979021095 
83.00156215785181 4.195804195804218 
84.00156215785181 2.4475524475524626 
85.00156215785181 2.6223776223776403 
86.00156215785181 3.321678321678338 
87.00156215785181 1.7482517482517583 
88.00156215785181 1.3986013986014079 
89.00156215785181 1.9230769230769353 
90.00156215785181 0.5244755244755278 
91.00156215785181 0.6993006993007042 
92.00156215785181 0.524475524475528 
93.00156215785181 0.1748251748251761 
94.00156215785181 0.0 
95.00156215785181 0.0 
96.00156215785181 0.0 
97.00156215785181 0.0 
98.00156215785181 0.0 
99.00156215785181 0.0 
100.00156215785181 0.0 
101.00156215785181 0.0 
102.00156215785181 0.0 
103.00156215785181 0.0 
104.00156215785181 0.0 
105.00156215785181 0.0 
106.00156215785181 0.0 
107.00156215785181 0.0 
108.00156215785181 0.0 
109.00156215785181 0.0 
110.00156215785181 0.0 
111.00156215785181 0.0 
112.00156215785181 0.0 
113.00156215785181 0.0 
114.00156215785181 0.0 
115.00156215785181 0.0 
116.00156215785181 0.0 
117.00156215785181 0.0 
118.00156215785181 0.0 
119.00156215785181 0.0 
120.00156215785181 0.0 
121.00156215785181 0.0 
122.00156215785181 0.0 
123.00156215785181 0.0 
124.00156215785181 0.0 
125.00156215785181 0.0 
126.00156215785181 0.0 
127.00156215785181 0.0 
128.00156215785182 0.0 
129.00156215785182 0.0 
130.00156215785182 0.0 
131.00156215785182 0.0 
132.00156215785182 0.0 
133.00156215785182 0.0 
134.00156215785182 0.0 
135.00156215785182 0.0 
136.00156215785182 0.0 
137.00156215785182 0.0 
138.00156215785182 0.0 
139.00156215785182 0.0 
140.00156215785182 0.0 
#####################################################################
# End of data export. Simulation finished at: 2017-05-25T12:54+0000 #
#####################################################################
