#####################################################################
# Alchemist log file - simulation started at: 2017-05-25T07:27+0000 #
#####################################################################
# random = 17.0, targets = 10.0, density = 0.04, gridShift = 1.0, perturbation = 0.5, connfactor = 0.5
#
# The columns have the following meaning: 
# time se[Mean] 
0.0 NaN 
1.0045647570182237 NaN 
2.0045647570182235 0.991875 
3.0045647570182235 1.0 
4.0045647570182235 1.0 
5.0045647570182235 1.0085416666666667 
6.0045647570182235 0.9574537037037038 
7.0045647570182235 0.885625 
8.004564757018223 0.7627083333333334 
9.004564757018223 0.8406481481481483 
10.004564757018223 0.5576851851851853 
11.004564757018223 0.6353935185185187 
12.004564757018223 0.42462962962962975 
13.004564757018223 0.45472222222222236 
14.004564757018223 0.3216666666666668 
15.004564757018223 0.3174074074074076 
16.004564757018223 0.3481481481481483 
17.004564757018223 0.34120370370370384 
18.004564757018223 0.36000000000000015 
19.004564757018223 0.36000000000000015 
20.004564757018223 0.36000000000000015 
#####################################################################
# End of data export. Simulation finished at: 2017-05-25T07:27+0000 #
#####################################################################
