#####################################################################
# Alchemist log file - simulation started at: 2017-05-22T15:21+0000 #
#####################################################################
# random = 4.0, targets = 3.1622776601683795, density = 5.0264212595847235, gridShift = 1.0, perturbation = 0.5, connfactor = 0.5
#
# The columns have the following meaning: 
# time se[Mean] 
0.0 NaN 
1.0022337669741583 NaN 
2.0022337669741583 0.9990691336852559 
3.0022337669741583 1.0 
4.002233766974158 0.9990691336852559 
5.002233766974158 0.995345668426279 
6.002233766974158 0.9925530694820466 
7.002233766974158 0.9888296042230696 
8.002233766974157 0.9841752726493488 
9.002233766974157 0.9860370052788371 
10.002233766974157 0.97114314424293 
11.002233766974157 0.9525258179480462 
12.002233766974157 0.9506640853185583 
13.002233766974157 0.9376319569121396 
14.002233766974157 0.9329776253384182 
15.002233766974157 0.9339084916531629 
16.002233766974157 0.9236689621909763 
17.002233766974157 0.9283232937646976 
18.002233766974157 0.9376319569121396 
19.002233766974157 0.9292541600794416 
20.002233766974157 0.9497332190038137 
21.002233766974157 0.9534566842627906 
22.002233766974157 0.9581110158365116 
23.002233766974157 0.9655579463544649 
24.002233766974157 0.9714927945925803 
25.002233766974157 0.9676558484523671 
26.002233766974157 0.9709345978923378 
27.002233766974157 0.9685284801215174 
28.002233766974157 0.9686833956794862 
29.002233766974157 0.9870400693456405 
30.002233766974157 0.9891288243566239 
31.002233766974157 0.9831387905018873 
32.00223376697416 1.0220574530648996 
33.00223376697416 1.0067357367978704 
34.00223376697416 0.9851954700896336 
35.00223376697416 1.0453033154252787 
36.00223376697416 1.0136660871493786 
37.00223376697416 1.024534456239869 
38.00223376697416 1.035442765802116 
39.00223376697416 1.017351409236683 
40.00223376697416 1.0431965087165451 
41.00223376697416 1.0194616893075423 
42.00223376697416 0.9935384152557197 
43.00223376697416 1.0243614283651288 
44.00223376697416 0.9126035063985826 
45.00223376697416 0.8993981682603577 
46.00223376697416 0.8679189348809102 
47.00223376697416 0.8024544688622921 
48.00223376697416 0.7704936888400773 
49.00223376697416 0.733326478601844 
50.00223376697416 0.7119349687746093 
51.00223376697416 0.6234948947539238 
52.00223376697416 0.5888427702433104 
53.00223376697416 0.5163194400136599 
54.00223376697416 0.4560891182574138 
55.00223376697416 0.44045311856903147 
56.00223376697416 0.383581305958226 
57.00223376697416 0.33181314459311756 
58.00223376697416 0.30257297792965243 
59.00223376697416 0.260668627383256 
60.00223376697416 0.23739547530967536 
61.00223376697416 0.22126872127258476 
62.00223376697416 0.2448149645668732 
63.00223376697416 0.3003420187382769 
64.00223376697416 0.36182691010313695 
65.00223376697416 0.3951143362479823 
66.00223376697416 0.5611969096744762 
67.00223376697416 0.4920366924432371 
68.00223376697416 0.7176502869266744 
69.00223376697416 0.8262091888492078 
70.00223376697416 0.8506939513401861 
71.00223376697416 1.0468479490415863 
72.00223376697416 1.139890308976879 
73.00223376697416 1.1533748667032666 
74.00223376697416 1.3552306225128543 
75.00223376697416 1.2617803775823153 
76.00223376697416 1.4337670361716013 
77.00223376697416 1.4720844822241306 
78.00223376697416 1.2711396528029226 
79.00223376697416 1.3923717947667702 
80.00223376697416 1.3157063214434528 
81.00223376697416 1.3566000762791475 
82.00223376697416 1.3619046513030042 
83.00223376697416 1.5339342387739954 
84.00223376697416 1.4135317692880751 
85.00223376697416 1.2675296381156704 
86.00223376697416 1.1953451957057328 
87.00223376697416 0.9699999976614977 
88.00223376697416 1.0985947065848636 
89.00223376697416 0.9456011232434487 
90.00223376697416 0.8045171162309984 
91.00223376697416 0.820246778112297 
92.00223376697416 0.5179217323948547 
93.00223376697416 0.6077113808744857 
94.00223376697416 0.5332128068246018 
95.00223376697416 0.6240514063531825 
96.00223376697416 0.5117430314968704 
97.00223376697416 0.37858905646914176 
98.00223376697416 0.26602457221804743 
99.00223376697416 0.19166402282873513 
100.00223376697416 0.2298480177641492 
101.00223376697416 0.19249061596818243 
102.00223376697416 0.11813006657887087 
103.00223376697416 0.11848432078149103 
104.00223376697416 0.08065458004869729 
105.00223376697416 0.044359940860592764 
106.00223376697416 0.04353334772114477 
107.00223376697416 0.043415262986937715 
108.00223376697416 0.04388760192376525 
109.00223376697416 0.004877013848902753 
110.00223376697416 0.005821691722557638 
111.00223376697416 0.005467437519937054 
112.00223376697416 0.0061759459251782105 
113.00223376697416 0.005467437519937052 
114.00223376697416 0.00487701384890275 
115.00223376697416 0.0042865901778684525 
116.00223376697416 0.003814251241041011 
117.00223376697416 0.004050420709454732 
118.00223376697416 0.0038142512410410077 
119.00223376697416 0.003341912304213569 
120.00223376697416 0.0033419123042135665 
121.00223376697416 0.0031057428357998467 
122.00223376697416 0.0028695733673861266 
123.00223376697416 0.0028695733673861257 
124.00223376697416 0.002869573367386126 
125.00223376697416 0.002869573367386126 
126.00223376697416 0.002633403898972407 
127.00223376697416 0.002633403898972407 
128.00223376697414 0.002633403898972407 
129.00223376697414 0.002633403898972407 
130.00223376697414 0.002633403898972407 
131.00223376697414 0.002633403898972407 
132.00223376697414 0.002633403898972407 
133.00223376697414 0.002633403898972407 
134.00223376697414 0.002633403898972407 
135.00223376697414 0.002633403898972407 
136.00223376697414 0.002633403898972407 
137.00223376697414 0.002633403898972407 
138.00223376697414 0.002633403898972407 
139.00223376697414 0.002633403898972407 
140.00223376697414 0.002633403898972407 
141.00223376697414 0.002633403898972407 
142.00223376697414 0.002633403898972407 
143.00223376697414 0.002633403898972407 
144.00223376697414 0.002633403898972407 
145.00223376697414 0.002633403898972407 
146.00223376697414 0.002633403898972407 
147.00223376697414 0.002633403898972407 
148.00223376697414 0.002633403898972407 
149.00223376697414 0.002633403898972407 
150.00223376697414 0.002633403898972407 
151.00223376697414 0.002633403898972407 
152.00223376697414 0.002633403898972407 
153.00223376697414 0.002633403898972407 
154.00223376697414 0.002633403898972407 
155.00223376697414 0.002633403898972407 
156.00223376697414 0.002633403898972407 
157.00223376697414 0.002633403898972407 
158.00223376697414 0.002633403898972407 
159.00223376697414 0.002633403898972407 
160.00223376697414 0.002633403898972407 
161.00223376697414 0.002633403898972407 
162.00223376697414 0.002633403898972407 
163.00223376697414 0.002633403898972407 
164.00223376697414 0.002633403898972407 
165.00223376697414 0.002633403898972407 
166.00223376697414 0.002633403898972407 
167.00223376697414 0.002633403898972407 
168.00223376697414 0.002633403898972407 
169.00223376697414 0.002633403898972407 
170.00223376697414 0.002633403898972407 
171.00223376697414 0.002633403898972407 
172.00223376697414 0.002633403898972407 
173.00223376697414 0.002633403898972407 
#####################################################################
# End of data export. Simulation finished at: 2017-05-22T15:23+0000 #
#####################################################################
