#####################################################################
# Alchemist log file - simulation started at: 2017-05-23T15:21+0000 #
#####################################################################
# random = 12.0, targets = 3.1622776601683795, density = 10.026386447354522, gridShift = 0.0, perturbation = 0.5, connfactor = 0.5
#
# The columns have the following meaning: 
# time se[Mean] 
0.0 NaN 
1.0005590746559656 NaN 
2.000559074655966 1.0 
3.000559074655966 1.0 
4.000559074655966 0.9995110601175081 
5.000559074655966 0.9970663607050486 
6.000559074655966 0.9965774208225567 
7.000559074655966 0.9931548416451135 
8.000559074655966 0.9897322624676702 
9.000559074655966 0.9897322624676702 
10.000559074655966 0.9843539237602593 
11.000559074655966 0.9819092243477998 
12.000559074655966 0.9767523987404964 
13.000559074655966 0.9723221367383503 
14.000559074655966 0.9638990018083924 
15.000559074655966 0.9597877173967897 
16.000559074655968 0.9442101192629961 
17.000559074655968 0.9410767146163778 
18.000559074655968 0.9228836540230922 
19.000559074655968 0.9110693604057235 
20.000559074655968 0.8968997765550536 
21.000559074655968 0.8784255967422225 
22.000559074655968 0.8718309537920794 
23.000559074655968 0.8606304494219579 
24.000559074655968 0.8549033300642854 
25.000559074655968 0.8462933214647368 
26.000559074655968 0.8487686246919988 
27.000559074655968 0.8543040340092826 
28.000559074655968 0.8540317708561012 
29.000559074655968 0.8693653073862644 
30.000559074655968 0.8822847642389158 
31.000559074655968 0.8840351212913354 
32.00055907465597 0.9001387169235338 
33.00055907465597 0.9054252441865371 
34.00055907465597 0.8960411249490905 
35.00055907465597 0.9074695962204307 
36.00055907465597 0.8981370437112898 
37.00055907465597 0.8969561796541561 
38.00055907465597 0.9014823046365696 
39.00055907465597 0.8998914363794223 
40.00055907465597 0.8954998494235059 
41.00055907465597 0.8948046744680865 
42.00055907465597 0.8945574098441212 
43.00055907465597 0.8909205562026187 
44.00055907465597 0.8959436604586559 
45.00055907465597 0.8897428951658198 
46.00055907465597 0.887377131435837 
47.00055907465597 0.8913820793704959 
48.00055907465597 0.8832899970379263 
49.00055907465597 0.8771367628576824 
50.00055907465597 0.8839625916495271 
51.00055907465597 0.8751552199635613 
52.00055907465597 0.8796064130389155 
53.00055907465597 0.9231712748041891 
54.00055907465597 1.0836146595147913 
55.00055907465597 1.1270578908557938 
56.00055907465597 1.1819851639718566 
57.00055907465597 1.434199573818578 
58.00055907465597 1.1703174674676806 
59.00055907465597 1.3228806261243728 
60.00055907465597 1.262639456791137 
61.00055907465597 1.3112129296202029 
62.00055907465597 1.454980006762838 
63.00055907465597 1.4476507448962588 
64.00055907465597 1.596130820690895 
65.00055907465597 1.2784257877839913 
66.00055907465597 1.6817317002691312 
67.00055907465597 1.713857617266386 
68.00055907465597 1.8529592109494641 
69.00055907465597 1.6831043380472421 
70.00055907465597 2.0671836919099555 
71.00055907465597 1.87110887156675 
72.00055907465597 2.0545099459315352 
73.00055907465597 2.0474956419599386 
74.00055907465597 2.1349902567633054 
75.00055907465597 2.210222683537997 
76.00055907465597 2.4114978727458207 
77.00055907465597 2.438538645262063 
78.00055907465597 2.137997290135734 
79.00055907465597 2.615039791523308 
80.00055907465597 2.4052553089871576 
81.00055907465597 2.4331048156516646 
82.00055907465597 2.700450610331774 
83.00055907465597 2.5197005022926695 
84.00055907465597 2.446439192675863 
85.00055907465597 2.478078587976019 
86.00055907465597 2.5138228298068186 
87.00055907465597 2.5979447988105884 
88.00055907465597 2.2280648955388593 
89.00055907465597 2.8220963078845744 
90.00055907465597 1.9844573549519398 
91.00055907465597 1.9177383367220326 
92.00055907465597 1.8904366549051101 
93.00055907465597 1.8268470216262525 
94.00055907465597 1.6580368891646498 
95.00055907465597 2.3740658235322907 
96.00055907465597 1.858776471813064 
97.00055907465597 1.5890561050970415 
98.00055907465597 1.8770695265232062 
99.00055907465597 1.7533104209575465 
100.00055907465597 1.7300128704000535 
101.00055907465597 1.620607003414169 
102.00055907465597 2.030548668001226 
103.00055907465597 1.592458744998126 
104.00055907465597 1.720727127849148 
105.00055907465597 1.5671724288306157 
106.00055907465597 1.84322894738149 
107.00055907465597 1.639421282932512 
108.00055907465597 1.8712572724043055 
109.00055907465597 1.8183574558646372 
110.00055907465597 1.2807354939103812 
111.00055907465597 1.4635638404192501 
112.00055907465597 1.3581145895003566 
113.00055907465597 1.3986716967388355 
114.00055907465597 1.1493200776561567 
115.00055907465597 0.6172649455092233 
116.00055907465597 0.5129393866335555 
117.00055907465597 0.45320650266599627 
118.00055907465597 0.30124025371920526 
119.00055907465597 0.24566456784552557 
120.00055907465597 0.18953791778451654 
121.00055907465597 0.1810592123508342 
122.00055907465597 0.12389507640540658 
123.00055907465597 0.11596733515905037 
124.00055907465597 0.10736699930109563 
125.00055907465597 0.09675613416453217 
126.00055907465597 0.08882839291817875 
127.00055907465597 0.07961990493885669 
128.00055907465597 0.1549095196475904 
129.00055907465597 0.39138197435416006 
130.00055907465597 0.46563410317847015 
131.00055907465597 0.5398290440687553 
132.00055907465597 0.9410261301894808 
133.00055907465597 0.5259341574767994 
134.00055907465597 0.7666209982112863 
135.00055907465597 0.679511468679458 
136.00055907465597 0.7556597509143026 
137.00055907465597 0.9975057079574727 
138.00055907465597 0.9953163603205691 
139.00055907465597 1.2383786216064614 
140.00055907465597 0.7461725778209716 
141.00055907465597 1.3172100277315266 
142.00055907465597 1.1523710204493034 
143.00055907465597 1.3148990496703485 
144.00055907465597 0.9868022306214266 
145.00055907465597 1.231445687422891 
146.00055907465597 1.3123448107606042 
147.00055907465597 1.3938520862196642 
148.00055907465597 1.4751161008301834 
149.00055907465597 1.5562584850164285 
150.00055907465597 1.4742646878602603 
151.00055907465597 1.8011452026664379 
152.00055907465597 1.637644130051215 
153.00055907465597 1.6376441300512128 
154.00055907465597 1.882895738974062 
155.00055907465597 1.7193946663588244 
156.00055907465597 1.637644130051217 
157.00055907465597 2.618650565742574 
158.00055907465597 2.046396811589284 
159.00055907465597 1.8828957389740566 
160.00055907465597 1.9646462752816642 
161.00055907465597 2.046396811589275 
162.00055907465597 2.128147347896897 
163.00055907465597 2.0463968115892763 
164.00055907465597 2.863902174665399 
165.00055907465597 2.1281473478968946 
166.00055907465597 2.4551494931273483 
167.00055907465597 2.2098978842044925 
168.00055907465597 2.7004011020501806 
169.00055907465597 2.373398956819729 
170.00055907465597 2.945652710973025 
171.00055907465597 2.9456527109730275 
172.00055907465597 2.128147347896881 
173.00055907465597 2.536900029434976 
174.00055907465597 2.5369000294349706 
175.00055907465597 2.7004011020501553 
176.00055907465597 2.291648420512116 
177.00055907465597 1.4741430574359664 
178.00055907465597 1.4741430574359746 
179.00055907465597 1.1471409122055438 
180.00055907465597 0.820138766975094 
181.00055907465597 0.9018893032826989 
182.00055907465597 0.6566376943598794 
183.00055907465597 0.7383882306674768 
184.00055907465597 0.41138608543702954 
185.00055907465597 0.5748871580522595 
186.00055907465597 0.16613447651419994 
187.00055907465597 0.3296355491294274 
188.00055907465597 0.4113860854370247 
189.00055907465597 0.16613447651420005 
190.00055907465597 0.08438394020658603 
191.00055907465597 0.002633403898972407 
192.00055907465597 0.002633403898972407 
193.00055907465597 0.002633403898972407 
194.00055907465597 0.002633403898972407 
195.00055907465597 0.002633403898972407 
196.00055907465597 0.002633403898972407 
197.00055907465597 0.002633403898972407 
198.00055907465597 0.002633403898972407 
199.00055907465597 0.002633403898972407 
200.00055907465597 0.002633403898972407 
201.00055907465597 0.002633403898972407 
202.00055907465597 0.002633403898972407 
203.00055907465597 0.002633403898972407 
204.00055907465597 0.002633403898972407 
205.00055907465597 0.002633403898972407 
206.00055907465597 0.002633403898972407 
207.00055907465597 0.002633403898972407 
208.00055907465597 0.002633403898972407 
209.00055907465597 0.002633403898972407 
210.00055907465597 0.002633403898972407 
211.00055907465597 0.002633403898972407 
212.00055907465597 0.002633403898972407 
213.00055907465597 0.002633403898972407 
214.00055907465597 0.002633403898972407 
215.00055907465597 0.002633403898972407 
216.00055907465597 0.002633403898972407 
217.00055907465597 0.002633403898972407 
218.00055907465597 0.002633403898972407 
219.00055907465597 0.002633403898972407 
220.00055907465597 0.002633403898972407 
221.00055907465597 0.002633403898972407 
222.00055907465597 0.002633403898972407 
223.00055907465597 0.002633403898972407 
224.00055907465597 0.002633403898972407 
225.00055907465597 0.002633403898972407 
226.00055907465597 0.002633403898972407 
227.00055907465597 0.002633403898972407 
228.00055907465597 0.002633403898972407 
229.00055907465597 0.002633403898972407 
230.00055907465597 0.002633403898972407 
231.00055907465597 0.002633403898972407 
232.00055907465597 0.002633403898972407 
233.00055907465597 0.002633403898972407 
234.00055907465597 0.002633403898972407 
235.00055907465597 0.002633403898972407 
236.00055907465597 0.002633403898972407 
237.00055907465597 0.002633403898972407 
238.00055907465597 0.002633403898972407 
239.00055907465597 0.002633403898972407 
240.00055907465597 0.002633403898972407 
241.00055907465597 0.002633403898972407 
242.00055907465597 0.002633403898972407 
243.00055907465597 0.002633403898972407 
244.00055907465597 0.002633403898972407 
245.00055907465597 0.002633403898972407 
246.00055907465597 0.002633403898972407 
247.00055907465597 0.002633403898972407 
248.00055907465597 0.002633403898972407 
249.00055907465597 0.002633403898972407 
250.00055907465597 0.002633403898972407 
251.00055907465597 0.002633403898972407 
252.00055907465597 0.002633403898972407 
253.00055907465597 0.002633403898972407 
254.00055907465597 0.002633403898972407 
255.00055907465597 0.002633403898972407 
256.00055907465594 0.002633403898972407 
257.00055907465594 0.002633403898972407 
258.00055907465594 0.002633403898972407 
259.00055907465594 0.002633403898972407 
260.00055907465594 0.002633403898972407 
261.00055907465594 0.002633403898972407 
262.00055907465594 0.002633403898972407 
263.00055907465594 0.002633403898972407 
264.00055907465594 0.002633403898972407 
#####################################################################
# End of data export. Simulation finished at: 2017-05-23T15:23+0000 #
#####################################################################
