0.000000000000000000e+00 nan
1.000005489805104952e+00 1.875500652371829169e+00
2.000010979610209905e+00 1.084701173068716828e+00
3.000016469415314635e+00 1.100312942138561123e+00
4.000021959220419809e+00 1.124021606246901950e+00
5.000027449025524540e+00 1.139068299970707132e+00
6.000032938830629270e+00 1.135316173364759207e+00
7.000038428635735777e+00 1.146939971054846241e+00
8.000043918440839619e+00 1.160839905378910464e+00
9.000049408245947902e+00 1.157063198870249554e+00
1.000005489805104908e+01 1.180026677226805099e+00
1.100006038785615914e+01 1.180079730267509452e+00
1.200006587766125854e+01 1.203899663724022018e+00
1.300007136746637038e+01 1.231284757975591448e+00
1.400007685727147155e+01 1.229042568886790310e+00
1.500008234707657806e+01 1.265911594092613779e+00
1.600008783688167924e+01 1.278452701929850388e+00
1.700009332668679107e+01 1.299283875783569631e+00
1.800009881649189580e+01 1.292134949496537955e+00
1.900010430629698988e+01 1.324971617851793626e+00
2.000010979610209816e+01 1.322546084415283207e+00
2.100011528590720999e+01 1.316448177654031770e+00
2.200012077571231828e+01 1.343666804110619006e+00
2.300012626551740880e+01 1.327208977149820779e+00
2.400013175532251708e+01 1.320218759829529631e+00
2.500013724512762892e+01 1.350579305266712105e+00
2.600014273493274075e+01 1.316091840822312786e+00
2.700014822473782417e+01 1.301301584627633456e+00
2.800015371454294311e+01 1.285717619836370007e+00
2.900015920434805139e+01 1.290489100946773160e+00
3.000016469415315612e+01 1.303314905003971846e+00
3.100017018395827861e+01 1.297708595343476379e+00
3.200017567376335847e+01 1.288175769362541967e+00
3.300018116356845610e+01 1.317490432569254910e+00
3.400018665337358215e+01 1.281882364327119772e+00
3.500019214317865845e+01 1.307615579233257552e+00
3.600019763298379161e+01 1.430201080019174897e+00
3.700020312278888923e+01 1.455296376306518757e+00
3.800020861259397975e+01 1.656025983080864128e+00
3.900021410239912001e+01 1.692162744083237191e+00
4.000021959220419632e+01 1.814622284859800816e+00
4.100022508200933657e+01 2.009960041826730048e+00
4.200023057181441999e+01 1.846648694894603038e+00
4.300023606161951761e+01 2.143403373130496448e+00
4.400024155142463655e+01 2.095537122239067518e+00
4.500024704122973418e+01 2.130965134128079086e+00
4.600025253103481759e+01 2.461857668529977783e+00
4.700025802083995785e+01 2.417482239608292005e+00
4.800026351064503416e+01 2.355352973849135445e+00
4.900026900045017442e+01 2.529673564125558549e+00
5.000027449025525783e+01 2.411707381190374200e+00
5.100027998006035546e+01 2.576944380523607858e+00
5.200028546986548150e+01 2.441044757777091068e+00
5.300029095967057202e+01 2.679925418249998970e+00
5.400029644947564833e+01 2.634107619842575243e+00
5.500030193928078148e+01 2.784651361885453813e+00
5.600030742908588621e+01 2.720067331757109130e+00
5.700031291889101936e+01 2.717050548248637121e+00
5.800031840869610278e+01 2.914502361659217833e+00
5.900032389850118619e+01 2.703454054403765738e+00
6.000032938830631224e+01 2.777996606850948513e+00
6.100033487811143118e+01 2.584558765450361673e+00
6.200034036791655723e+01 2.509282010358942383e+00
6.300034585772163354e+01 2.498225279117063380e+00
6.400035134752671695e+01 2.469934696189776790e+00
6.500035683733182168e+01 2.498314935958808825e+00
6.600036232713691220e+01 2.530478107244246377e+00
6.700036781694205956e+01 2.567369328170772125e+00
6.800037330674716429e+01 2.525630747831940415e+00
6.900037879655225481e+01 2.713974660267967298e+00
7.000038428635731691e+01 2.826069409808188215e+00
7.100038977616243585e+01 2.894468646192354555e+00
7.200039526596758321e+01 2.864598449049959861e+00
7.300040075577270215e+01 3.211492365786423164e+00
7.400040624557777846e+01 3.331380450138274441e+00
7.500041173538285477e+01 3.153238636206283196e+00
7.600041722518795950e+01 3.386069565621766309e+00
7.700042271499313529e+01 3.530644815845510376e+00
7.800042820479824002e+01 3.281440314760566856e+00
7.900043369460330211e+01 3.869103269630523201e+00
8.000043918440839263e+01 3.759311138432007038e+00
8.100044467421349736e+01 3.585071812571906325e+00
8.200045016401867315e+01 4.105293895109259239e+00
8.300045565382377788e+01 3.674193378184654968e+00
8.400046114362883998e+01 4.510829791972915892e+00
8.500046663343393050e+01 4.204620104882303977e+00
8.600047212323903523e+01 4.190584194565285969e+00
8.700047761304409732e+01 4.387527723430573623e+00
8.800048310284927311e+01 4.592596737414639030e+00
8.900048859265437784e+01 4.380904950245421148e+00
9.000049408245946836e+01 5.184856387848442161e+00
9.100049957226453046e+01 5.122965090717547021e+00
9.200050506206963519e+01 5.661634747019972380e+00
9.300051055187481097e+01 5.933095740124805673e+00
9.400051604167991570e+01 6.348396599718156175e+00
9.500052153148499201e+01 6.215772699705096827e+00
9.600052702129006832e+01 6.569927338046346321e+00
9.700053251109517305e+01 6.562412605456314552e+00
9.800053800090034883e+01 7.276043678884263954e+00
9.900054349070542514e+01 7.654808384359840012e+00
1.000005489805105157e+02 6.921774653085416951e+00
1.010005544703156062e+02 6.965347266667417436e+00
1.020005599601207109e+02 7.385201617519157935e+00
1.030005654499258867e+02 6.592584024609394966e+00
1.040005709397309630e+02 7.114371033810032330e+00
1.050005764295360535e+02 6.952096454306453843e+00
1.060005819193411440e+02 6.800976100710026451e+00
1.070005874091462061e+02 6.853405229373232821e+00
1.080005928989512967e+02 6.885198013657726435e+00
1.090005983887564582e+02 6.808083545493107458e+00
1.100006038785615630e+02 6.976351307056522622e+00
1.110006093683666819e+02 6.799094538692346035e+00
1.120006148581717724e+02 7.615397435510973700e+00
1.130006203479768772e+02 8.034690578880567813e+00
1.140006258377820387e+02 8.108488080758453620e+00
1.150006313275871292e+02 7.814421299982099001e+00
1.160006368173922056e+02 7.361894957902902270e+00
1.170006423071972819e+02 7.970006536936278252e+00
1.180006477970023724e+02 7.757383073514863447e+00
1.190006532868075340e+02 8.878464349108398324e+00
1.200006587766126245e+02 7.980349846718499229e+00
1.210006642664176866e+02 8.998380564801134796e+00
1.220006697562228624e+02 9.787548923869273665e+00
1.230006752460279529e+02 8.596694298586774252e+00
1.240006807358331145e+02 1.024017799985390376e+01
1.250006862256381766e+02 1.026377375784001522e+01
1.260006917154432671e+02 9.495426361010222749e+00
1.270006972052483576e+02 1.108346587290132845e+01
1.280007026950534339e+02 1.073867419759037745e+01
1.290007081848584960e+02 1.156572183043071611e+01
1.300007136746636434e+02 1.093219392316358807e+01
1.310007191644687339e+02 1.301233903247145562e+01
1.320007246542738244e+02 1.138590377360855044e+01
1.330007301440790286e+02 1.066414998471802278e+01
1.340007356338841191e+02 1.155883069576484878e+01
1.350007411236892665e+02 1.270766803318356075e+01
1.360007466134943286e+02 1.202095719055671807e+01
1.370007521032994191e+02 1.193256888421588435e+01
1.380007575931045096e+02 1.412461708432590157e+01
1.390007630829095717e+02 1.204502143785159163e+01
1.400007685727146338e+02 1.369037277599714209e+01
1.410007740625198096e+02 1.468393343219622693e+01
1.420007795523248717e+02 1.423661035577738865e+01
1.430007850421301043e+02 1.335738188089158029e+01
1.440007905319351664e+02 1.456670199338236316e+01
1.450007960217403422e+02 1.431448783027192562e+01
1.460008015115454043e+02 1.335145408896005037e+01
1.470008070013504664e+02 1.540545839076917289e+01
1.480008124911555569e+02 1.245072556335112424e+01
1.490008179809606474e+02 1.249652676788562289e+01
1.500008234707657095e+02 1.165968672861760425e+01
1.510008289605708569e+02 1.043477874670577066e+01
1.520008344503759190e+02 1.149881612204876014e+01
1.530008399401811516e+02 1.166626024056468225e+01
1.540008454299862706e+02 1.067118315577822507e+01
1.550008509197913327e+02 1.024703653514767510e+01
1.560008564095964800e+02 8.666980514967541183e+00
1.570008618994015421e+02 8.461370872280175703e+00
1.580008673892066042e+02 7.803728108104746042e+00
1.590008728790117232e+02 7.737241470598580584e+00
1.600008783688167853e+02 8.117314121812983174e+00
1.610008838586218474e+02 7.582853236873810410e+00
1.620008893484269947e+02 6.294074718080410413e+00
1.630008948382320568e+02 7.144990120036410097e+00
1.640009003280373463e+02 6.341592965363063605e+00
1.650009058178424084e+02 5.340233885725616858e+00
1.660009113076475558e+02 4.392671632792541025e+00
1.670009167974526179e+02 4.091529521935763469e+00
1.680009222872576800e+02 4.031869370509626904e+00
1.690009277770627705e+02 3.438188684474166479e+00
1.700009332668678610e+02 3.714811358783133510e+00
1.710009387566729231e+02 3.432213595511706572e+00
1.720009442464780705e+02 3.605185311460169295e+00
1.730009497362831326e+02 3.222460287385066735e+00
1.740009552260881946e+02 3.219991724289369195e+00
1.750009607158934841e+02 3.257157649172023994e+00
1.760009662056985462e+02 3.276072804432916374e+00
1.770009716955036936e+02 3.288554076424285544e+00
1.780009771853087557e+02 3.268760928123308318e+00
1.790009826751138178e+02 3.317665681635156183e+00
1.800009881649189367e+02 3.303861676427469529e+00
1.810009936547239988e+02 3.386742697225735732e+00
1.820009991445290609e+02 3.298750363465479563e+00
1.830010046343342083e+02 3.377406804935234597e+00
1.840010101241392704e+02 3.236239155735924022e+00
1.850010156139443325e+02 3.318253423634371480e+00
1.860010211037496219e+02 3.302478900704419740e+00
1.870010265935547125e+02 3.245423133872700650e+00
1.880010320833598314e+02 3.205899295405509442e+00
1.890010375731648935e+02 3.248284769628437374e+00
1.900010430629699840e+02 3.205112397963657767e+00
1.910010485527750745e+02 3.266511087509716305e+00
1.920010540425801366e+02 3.184670403615053491e+00
1.930010595323852556e+02 3.165515832554898434e+00
1.940010650221903461e+02 3.128722429447456488e+00
1.950010705119956356e+02 3.080692514296123896e+00
1.960010760018006977e+02 2.996689554788213972e+00
1.970010814916057882e+02 3.027714347742115120e+00
1.980010869814108503e+02 2.891986555735269970e+00
1.990010924712159692e+02 2.876840657647186106e+00
2.000010979610210313e+02 2.876211678688544993e+00
2.010011034508261503e+02 2.831914238809653650e+00
2.020011089406312124e+02 2.813931776565413045e+00
2.030011144304362745e+02 2.777984081675365147e+00
2.040011199202414218e+02 2.789899367033850996e+00
2.050011254100464555e+02 2.780429704585190454e+00
2.060011308998517734e+02 2.778581833660842548e+00
2.070011363896568355e+02 2.762899423545461364e+00
2.080011418794619260e+02 2.764797779460212990e+00
2.090011473692669881e+02 2.760612676260050691e+00
2.100011528590721070e+02 2.764564032232853741e+00
2.110011583488772260e+02 2.764009410512128895e+00
2.120011638386822881e+02 2.763231479993492723e+00
2.130011693284874070e+02 2.765156653638914719e+00
2.140011748182924123e+02 2.764650320074192091e+00
2.150011803080975596e+02 2.765026536744709773e+00
2.160011857979025933e+02 2.765191505328650656e+00
2.170011912877079396e+02 2.766029589956854107e+00
2.180011967775129165e+02 2.765319190279462269e+00
2.190012022673181207e+02 2.765865148850616961e+00
2.200012077571231259e+02 2.765566621519264245e+00
2.210012132469282449e+02 2.764837690875150855e+00
2.220012187367333638e+02 2.766219974987305541e+00
2.230012242265384259e+02 2.765837710118373760e+00
2.240012297163435449e+02 2.763690896268355512e+00
2.250012352061486069e+02 2.763461245414425171e+00
2.260012406959537543e+02 2.761312971901549673e+00
2.270012461857587596e+02 2.762618219174775014e+00
2.280012516755640775e+02 2.762273013062451099e+00
2.290012571653690543e+02 2.760240294807969619e+00
2.300012626551742585e+02 2.762427086740309345e+00
2.310012681449792353e+02 2.760049162373503506e+00
2.320012736347844111e+02 2.761545542081194959e+00
2.330012791245895869e+02 2.759819511519573165e+00
2.340012846143945637e+02 2.760663997422080573e+00
2.350012901041997111e+02 2.759896548358502510e+00
2.360012955940047448e+02 2.759283172972783138e+00
2.370013010838098921e+02 2.760741034261009919e+00
2.380013065736150679e+02 2.758592760748134420e+00
2.390013120634202153e+02 2.760127658875290102e+00
2.400013175532252490e+02 2.759514283489570730e+00
2.410013230430303963e+02 2.758823871264922012e+00
2.420013285328353732e+02 2.758823871264922012e+00
2.430013340226405489e+02 2.758823871264922012e+00
2.440013395124457247e+02 2.758823871264922012e+00
2.450013450022507016e+02 2.758823871264922012e+00
2.460013504920559058e+02 2.758823871264922012e+00
2.470013559818608826e+02 2.758823871264922012e+00
2.480013614716662289e+02 2.758823871264922012e+00
2.490013669614711773e+02 2.758823871264922012e+00
2.500013724512763531e+02 2.758823871264922012e+00
2.510013779410813868e+02 2.758823871264922012e+00
2.520013834308865341e+02 2.758823871264922012e+00
2.530013889206915110e+02 2.758823871264922012e+00
2.540013944104967152e+02 2.758823871264922012e+00
2.550013999003018625e+02 2.758823871264922012e+00
2.560014053901068678e+02 2.758823871264922012e+00
2.570014108799121004e+02 2.758823871264922012e+00
2.580014163697169920e+02 2.758823871264922012e+00
2.590014218595223952e+02 2.758823871264922012e+00
2.600014273493272867e+02 2.758823871264922012e+00
2.610014328391325193e+02 2.758823871264922012e+00
2.620014383289374678e+02 2.758823871264922012e+00
2.630014438187426435e+02 2.758823871264922012e+00
2.640014493085476488e+02 2.758823871264922012e+00
2.650014547983528814e+02 2.758823871264922012e+00
2.660014602881580572e+02 2.758823871264922012e+00
2.670014657779630056e+02 2.758823871264922012e+00
2.680014712677682382e+02 2.758823871264922012e+00
2.690014767575731298e+02 2.758823871264922012e+00
2.700014822473785330e+02 2.758823871264922012e+00
2.710014877371834245e+02 2.758823871264922012e+00
2.720014932269886572e+02 2.758823871264922012e+00
2.730014987167936056e+02 2.758823871264922012e+00
2.740015042065988382e+02 2.758823871264922012e+00
2.750015096964037866e+02 2.758823871264922012e+00
2.760015151862090192e+02 2.758823871264922012e+00
2.770015206760141950e+02 2.758823871264922012e+00
2.780015261658191434e+02 2.758823871264922012e+00
2.790015316556243761e+02 2.758823871264922012e+00
2.800015371454292676e+02 2.758823871264922012e+00
2.810015426352346708e+02 2.758823871264922012e+00
2.820015481250396192e+02 2.758823871264922012e+00
2.830015536148447950e+02 2.758823871264922012e+00
2.840015591046497434e+02 2.758823871264922012e+00
2.850015645944549760e+02 2.758823871264922012e+00
2.860015700842602087e+02 2.758823871264922012e+00
2.870015755740651571e+02 2.758823871264922012e+00
2.880015810638703329e+02 2.758823871264922012e+00
2.890015865536752813e+02 2.758823871264922012e+00
2.900015920434806844e+02 2.758823871264922012e+00
2.910015975332855760e+02 2.758823871264922012e+00
2.920016030230908086e+02 2.758823871264922012e+00
2.930016085128957002e+02 2.758823871264922012e+00
2.940016140027009328e+02 2.758823871264922012e+00
2.950016194925061654e+02 2.758823871264922012e+00
2.960016249823111139e+02 2.758823871264922012e+00
2.970016304721164033e+02 2.758823871264922012e+00
2.980016359619212949e+02 2.758823871264922012e+00
