#####################################################################
# Alchemist log file - simulation started at: 2017-05-24T00:52+0000 #
#####################################################################
# random = 13.0, targets = 10.0, density = 14.160781367816199, gridShift = 0.0, perturbation = 0.5, connfactor = 0.1
#
# The columns have the following meaning: 
# time se[Mean] 
0.0 NaN 
1.0002602723432414 NaN 
2.000260272343241 1.0 
3.000260272343241 1.0 
4.000260272343241 1.0 
5.000260272343241 1.0 
6.000260272343241 1.0 
7.000260272343241 1.0 
8.00026027234324 1.0 
9.00026027234324 1.0 
10.00026027234324 1.0 
11.00026027234324 1.0 
12.00026027234324 1.0 
13.00026027234324 1.0 
14.00026027234324 1.0 
15.00026027234324 1.0 
16.00026027234324 1.0 
17.00026027234324 1.0 
18.00026027234324 1.0 
19.00026027234324 1.0 
20.00026027234324 1.0 
21.00026027234324 1.0 
22.00026027234324 1.0 
23.00026027234324 1.0 
24.00026027234324 1.0 
25.00026027234324 1.0 
26.00026027234324 1.0 
27.00026027234324 0.9998750821827745 
28.00026027234324 0.9996252465483235 
29.00026027234324 0.9990006574621959 
30.00026027234324 0.9987902695595003 
31.00026027234324 0.997508218277449 
32.00026027234324 0.9947337278106508 
33.00026027234324 0.9937606837606838 
34.00026027234324 0.9922550953320186 
35.00026027234324 0.9889546351084815 
36.00026027234324 0.9875410913872454 
37.00026027234324 0.986646942800789 
38.00026027234324 0.9853517422748195 
39.00026027234324 0.9828928336620643 
40.00026027234324 0.9800920447074292 
41.00026027234324 0.9792504930966472 
42.00026027234324 0.9752728468113089 
43.00026027234324 0.9742209072978304 
44.00026027234324 0.9736489151873771 
45.00026027234324 0.9694543063773836 
46.00026027234324 0.9682117028270874 
47.00026027234324 0.9671268902038126 
48.00026027234324 0.963747534516765 
49.00026027234324 0.9621959237343857 
50.00026027234324 0.9629914529914527 
51.00026027234324 0.962590401051939 
52.00026027234324 0.9621499013806708 
53.00026027234324 0.9609270216962519 
54.00026027234324 0.9623997370151213 
55.00026027234324 0.9630769230769227 
56.00026027234324 0.9636028928336615 
57.00026027234324 0.9638001314924395 
58.00026027234324 0.9633990795529253 
59.00026027234324 0.9646482577251805 
60.00026027234324 0.9645233399079548 
61.00026027234324 0.9648980933596324 
62.00026027234324 0.9656476002629852 
63.00026027234324 0.9655226824457592 
64.00026027234324 0.9677712031558187 
65.00026027234324 0.9677712031558189 
66.00026027234324 0.9680210387902691 
67.00026027234324 0.9706443129520055 
68.00026027234324 0.968770545693623 
69.00026027234324 0.9707692307692308 
70.00026027234324 0.9722682445759366 
71.00026027234324 0.970644312952005 
72.00026027234324 0.9728928336620645 
73.00026027234324 0.9730177514792899 
74.00026027234324 0.9732675871137412 
75.00026027234324 0.9753911900065745 
76.00026027234324 0.975266272189349 
77.00026027234324 0.9745167652859963 
78.00026027234324 0.9780144641683104 
79.00026027234324 0.977514792899408 
80.00026027234324 0.9803879026955946 
81.00026027234324 0.9802629848783696 
82.00026027234324 0.9825115055884284 
83.00026027234324 0.9828862590401056 
84.00026027234324 0.9841354372123605 
85.00026027234324 0.984510190664037 
86.00026027234324 0.9862590401051937 
87.00026027234324 0.9867587113740959 
88.00026027234324 0.9888823142669299 
89.00026027234324 0.9900065746219595 
90.00026027234324 0.9906311637080866 
91.00026027234324 0.9922550953320187 
92.00026027234324 0.9928796844181462 
93.00026027234324 0.9941288625904011 
94.00026027234324 0.9950032873109795 
95.00026027234324 0.9953780407626562 
96.00026027234324 0.9957527942143326 
97.00026027234324 0.9963773833004602 
98.00026027234324 0.9968770545693622 
99.00026027234324 0.9971268902038132 
100.00026027234324 0.9973767258382644 
101.00026027234324 0.9978763971071662 
102.00026027234324 0.9980013149243919 
103.00026027234324 0.9982511505588428 
104.00026027234324 0.9983760683760684 
105.00026027234324 0.998750821827745 
106.00026027234324 0.9990006574621959 
107.00026027234324 0.9993754109138725 
108.00026027234324 0.9992504930966469 
109.00026027234324 0.9992504930966469 
110.00026027234324 0.9987508218277449 
111.00026027234324 0.9982511505588428 
112.00026027234324 0.9970019723865877 
113.00026027234324 0.9951282051282052 
114.00026027234324 0.993379355687048 
115.00026027234324 0.9908809993425379 
116.00026027234324 0.988257725180802 
117.00026027234324 0.9853846153846154 
118.00026027234324 0.9810124917817225 
119.00026027234324 0.978645627876397 
120.00026027234324 0.9738921761998685 
121.00026027234324 0.9729257067718606 
122.00026027234324 0.9691781722550955 
123.00026027234324 0.966337935568705 
124.00026027234324 0.9673898750821828 
125.00026027234324 0.9592439184746879 
126.00026027234324 0.9566600920447073 
127.00026027234324 0.9516699539776465 
128.00026027234324 0.9463116370808679 
129.00026027234324 0.9480144641683108 
130.00026027234324 0.9343326758711374 
131.00026027234324 0.9327547666009202 
132.00026027234324 0.9290466798159108 
133.00026027234324 0.9171268902038131 
134.00026027234324 0.927396449704142 
135.00026027234324 0.9121959237343849 
136.00026027234324 0.9060815253122944 
137.00026027234324 0.9130571992110453 
138.00026027234324 0.8987442472057862 
139.00026027234324 0.8995529257067723 
140.00026027234324 0.8962064431295199 
141.00026027234324 0.8830243261012491 
142.00026027234324 0.8819395134779753 
143.00026027234324 0.8852596975673898 
144.00026027234324 0.8656476002629853 
145.00026027234324 0.8684615384615383 
146.00026027234324 0.8543786982248524 
147.00026027234324 0.8597041420118343 
148.00026027234324 0.8472452333990798 
149.00026027234324 0.8501643655489812 
150.00026027234324 0.8492899408284021 
151.00026027234324 0.8499342537804079 
152.00026027234324 0.8448980933596316 
153.00026027234324 0.844523339907955 
154.00026027234324 0.8404930966469425 
155.00026027234324 0.8423339907955294 
156.00026027234324 0.8387310979618668 
157.00026027234324 0.8340631163708091 
158.00026027234324 0.8355752794214336 
159.00026027234324 0.8271268902038135 
160.00026027234324 0.8347797501643656 
161.00026027234324 0.8233925049309666 
162.00026027234324 0.8314003944773175 
163.00026027234324 0.8251742274819197 
164.00026027234324 0.8255752794214335 
165.00026027234324 0.8317619986850755 
166.00026027234324 0.8259763313609467 
167.00026027234324 0.8285141354372125 
168.00026027234324 0.8319855358316898 
169.00026027234324 0.8273570019723866 
170.00026027234324 0.8406640368178829 
171.00026027234324 0.8331426692965155 
172.00026027234324 0.8337212360289286 
173.00026027234324 0.8429783037475351 
174.00026027234324 0.8366140696909928 
175.00026027234324 0.8418211702827089 
176.00026027234324 0.8441354372123607 
177.00026027234324 0.8383497698882316 
178.00026027234324 0.841821170282709 
179.00026027234324 0.8481854043392504 
180.00026027234324 0.8371926364234056 
181.00026027234324 0.8429783037475345 
182.00026027234324 0.834878369493754 
183.00026027234324 0.8418211702827088 
184.00026027234324 0.8337212360289286 
185.00026027234324 0.8377712031558185 
186.00026027234324 0.8377712031558189 
187.00026027234324 0.8395069033530574 
188.00026027234324 0.8360355029585798 
189.00026027234324 0.8360355029585796 
190.00026027234324 0.8331426692965158 
191.00026027234324 0.8342998027613413 
192.00026027234324 0.8319855358316897 
193.00026027234324 0.8261998685075607 
194.00026027234324 0.8273570019723872 
195.00026027234324 0.8186785009861935 
196.00026027234324 0.8209927679158451 
197.00026027234324 0.8140499671268903 
198.00026027234324 0.8175213675213675 
199.00026027234324 0.8123142669296516 
200.00026027234324 0.8117357001972387 
201.00026027234324 0.8111571334648259 
202.00026027234324 0.8111571334648259 
203.00026027234324 0.81 
204.00026027234324 0.81 
205.00026027234324 0.81 
206.00026027234324 0.81 
207.00026027234324 0.81 
208.00026027234324 0.81 
209.00026027234324 0.81 
210.00026027234324 0.81 
211.00026027234324 0.81 
212.00026027234324 0.81 
213.00026027234324 0.81 
214.00026027234324 0.81 
215.00026027234324 0.81 
216.00026027234324 0.81 
217.00026027234324 0.81 
218.00026027234324 0.81 
219.00026027234324 0.81 
220.00026027234324 0.81 
221.00026027234324 0.81 
222.00026027234324 0.81 
223.00026027234324 0.81 
224.00026027234324 0.81 
225.00026027234324 0.81 
226.00026027234324 0.81 
227.00026027234324 0.81 
228.00026027234324 0.81 
229.00026027234324 0.81 
230.00026027234324 0.81 
231.00026027234324 0.81 
232.00026027234324 0.81 
233.00026027234324 0.81 
234.00026027234324 0.81 
235.00026027234324 0.81 
236.00026027234324 0.81 
237.00026027234324 0.81 
238.00026027234324 0.81 
239.00026027234324 0.81 
240.00026027234324 0.81 
241.00026027234324 0.81 
242.00026027234324 0.81 
243.00026027234324 0.81 
244.00026027234324 0.81 
245.00026027234324 0.81 
246.00026027234324 0.81 
247.00026027234324 0.81 
248.00026027234324 0.81 
249.00026027234324 0.81 
250.00026027234324 0.81 
251.00026027234324 0.81 
252.00026027234324 0.81 
253.00026027234324 0.81 
254.00026027234324 0.81 
255.00026027234324 0.81 
256.0002602723432 0.81 
257.0002602723432 0.81 
258.0002602723432 0.81 
259.0002602723432 0.81 
260.0002602723432 0.81 
261.0002602723432 0.81 
262.0002602723432 0.81 
263.0002602723432 0.81 
264.0002602723432 0.81 
265.0002602723432 0.81 
266.0002602723432 0.81 
267.0002602723432 0.81 
268.0002602723432 0.81 
269.0002602723432 0.81 
270.0002602723432 0.81 
271.0002602723432 0.81 
272.0002602723432 0.81 
273.0002602723432 0.81 
274.0002602723432 0.81 
275.0002602723432 0.81 
276.0002602723432 0.81 
277.0002602723432 0.81 
278.0002602723432 0.81 
279.0002602723432 0.81 
280.0002602723432 0.81 
281.0002602723432 0.81 
282.0002602723432 0.81 
283.0002602723432 0.81 
284.0002602723432 0.81 
285.0002602723432 0.81 
286.0002602723432 0.81 
287.0002602723432 0.81 
288.0002602723432 0.81 
289.0002602723432 0.81 
290.0002602723432 0.81 
291.0002602723432 0.81 
#####################################################################
# End of data export. Simulation finished at: 2017-05-24T00:55+0000 #
#####################################################################
