#####################################################################
# Alchemist log file - simulation started at: 2017-05-21T08:17+0000 #
#####################################################################
# random = 2.0, targets = 10.0, density = 0.6332893950589894, gridShift = 1.0, perturbation = 0.5, connfactor = 0.1
#
# The columns have the following meaning: 
# time se[Mean] 
0.0 NaN 
1.003288451303821 NaN 
2.003288451303821 1.0 
3.003288451303821 1.0 
4.0032884513038205 1.0 
5.0032884513038205 1.0 
6.0032884513038205 1.0 
7.0032884513038205 0.9978888888888889 
8.00328845130382 1.0 
9.00328845130382 0.9894444444444445 
10.00328845130382 0.9831111111111112 
11.00328845130382 0.9788888888888889 
12.00328845130382 0.9598888888888889 
13.00328845130382 0.962 
14.00328845130382 0.9535555555555556 
15.00328845130382 0.9556666666666667 
16.00328845130382 0.9577777777777778 
17.00328845130382 0.9641111111111111 
18.00328845130382 0.9683333333333334 
19.00328845130382 0.9746666666666667 
20.00328845130382 0.9767777777777777 
21.00328845130382 0.9742222222222222 
22.00328845130382 0.9894444444444445 
23.00328845130382 0.9236666666666666 
24.00328845130382 0.9281111111111111 
25.00328845130382 0.8863333333333333 
26.00328845130382 0.8404444444444445 
27.00328845130382 0.8595555555555556 
28.00328845130382 0.8412222222222222 
29.00328845130382 0.7591111111111111 
30.00328845130382 0.8086666666666666 
31.00328845130382 0.7607777777777778 
32.00328845130382 0.7461111111111112 
33.00328845130382 0.7453333333333333 
34.00328845130382 0.7396666666666666 
35.00328845130382 0.7967777777777778 
36.00328845130382 0.7986666666666667 
37.00328845130382 0.81 
38.00328845130382 0.81 
39.00328845130382 0.81 
40.00328845130382 0.81 
41.00328845130382 0.81 
42.00328845130382 0.81 
43.00328845130382 0.81 
44.00328845130382 0.81 
45.00328845130382 0.81 
46.00328845130382 0.81 
47.00328845130382 0.81 
48.00328845130382 0.81 
49.00328845130382 0.81 
50.00328845130382 0.81 
51.00328845130382 0.81 
52.00328845130382 0.81 
53.00328845130382 0.81 
#####################################################################
# End of data export. Simulation finished at: 2017-05-21T08:17+0000 #
#####################################################################
