#####################################################################
# Alchemist log file - simulation started at: 2017-05-24T17:52+0000 #
#####################################################################
# random = 7.0, targets = 3.1622776601683795, density = 7.099073319511142, gridShift = 0.0, perturbation = 0.5, connfactor = 0.5
#
# The columns have the following meaning: 
# time se[Mean] 
0.0 NaN 
1.000984151344496 NaN 
2.000984151344496 1.0 
3.000984151344496 1.0 
4.000984151344496 1.0 
5.000984151344496 1.0 
6.000984151344496 1.0 
7.000984151344496 1.0 
8.000984151344497 0.9993208475356713 
9.000984151344497 0.9952459327496993 
10.000984151344497 0.9891335605707412 
11.000984151344497 0.9850586457847692 
12.000984151344497 0.9803907321925888 
13.000984151344497 0.9699550610539315 
14.000984151344497 0.9579887776703766 
15.000984151344497 0.9534036588027721 
16.000984151344497 0.9436504990619878 
17.000984151344497 0.9336355194132987 
18.000984151344497 0.902490736512934 
19.000984151344497 0.9020566092887882 
20.000984151344497 0.873625077312193 
21.000984151344497 0.8554535502244704 
22.000984151344497 0.8569740856687346 
23.000984151344497 0.8371097158205076 
24.000984151344497 0.8213236196917971 
25.000984151344497 0.8220788490136122 
26.000984151344497 0.7972086688078126 
27.000984151344497 0.8052656268545471 
28.000984151344497 0.7876938164401214 
29.000984151344497 0.7866700493433116 
30.000984151344497 0.7766517107610781 
31.000984151344497 0.7735076915467062 
32.0009841513445 0.7735904862712817 
33.0009841513445 0.7610244862144291 
34.0009841513445 0.7481205893921838 
35.0009841513445 0.7439595209480926 
36.0009841513445 0.7288492183501655 
37.0009841513445 0.7229057945539028 
38.0009841513445 0.7113602026603163 
39.0009841513445 0.7000697128075444 
40.0009841513445 0.6870830212607248 
41.0009841513445 0.6860626130974595 
42.0009841513445 0.6769818879539152 
43.0009841513445 0.6721450259790385 
44.0009841513445 0.6666256526062885 
45.0009841513445 0.6600925889373643 
46.0009841513445 0.6553385216870624 
47.0009841513445 0.6543181135237967 
48.0009841513445 0.6454197724971273 
49.0009841513445 0.6531164998576973 
50.0009841513445 0.6331223102152691 
51.0009841513445 0.6394014504574181 
52.0009841513445 0.6439608764707045 
53.0009841513445 0.6298340337670529 
54.0009841513445 0.6484442256265067 
55.0009841513445 0.6404667033708034 
56.0009841513445 0.626836629014605 
57.0009841513445 0.6437506191800088 
58.0009841513445 0.6190616444770439 
59.0009841513445 0.6324702061278714 
60.0009841513445 0.6147193705301165 
61.0009841513445 0.6167904172585482 
62.0009841513445 0.6128218097319644 
63.0009841513445 0.5852506357225334 
64.0009841513445 0.5911818023986564 
65.0009841513445 0.581673667898055 
66.0009841513445 0.5684978743672712 
67.0009841513445 0.5581752283550915 
68.0009841513445 0.7475739677672838 
69.0009841513445 1.8544832319932012 
70.0009841513445 1.1590772490474033 
71.0009841513445 2.4798894860435268 
72.0009841513445 3.8073211172752774 
73.0009841513445 3.321801472797996 
74.0009841513445 5.125885639587723 
75.0009841513445 5.426232611448281 
76.0009841513445 4.577861634471419 
77.0009841513445 6.336487253992684 
78.0009841513445 5.367549242168464 
79.0009841513445 6.640913678186784 
80.0009841513445 6.6675685709728345 
81.0009841513445 7.241988006195346 
82.0009841513445 7.782770920299055 
83.0009841513445 6.559371893239831 
84.0009841513445 7.613294831219416 
85.0009841513445 7.819575150075614 
86.0009841513445 7.358969351940211 
87.0009841513445 7.717983075321436 
88.0009841513445 6.705152898128597 
89.0009841513445 8.436039573871751 
90.0009841513445 7.900610620600167 
91.0009841513445 6.669259764139571 
92.0009841513445 8.399979671819517 
93.0009841513445 6.795733451422748 
94.0009841513445 7.73298406554357 
95.0009841513445 6.239036978624196 
96.0009841513445 6.996403705700504 
97.0009841513445 6.756810325051288 
98.0009841513445 5.815236411970791 
99.0009841513445 5.663121699106287 
100.0009841513445 5.458543298105758 
101.0009841513445 3.2670541831607762 
102.0009841513445 2.921339355237436 
103.0009841513445 2.04134344477191 
104.0009841513445 2.329354827467578 
105.0009841513445 1.0985163554081028 
106.0009841513445 0.4523472466593651 
107.0009841513445 0.5843670018751043 
108.0009841513445 0.1837963369896749 
109.0009841513445 0.08454702876390469 
110.0009841513445 0.07618794360672894 
111.0009841513445 0.04943799897596583 
112.0009841513445 0.047393823715890925 
113.0009841513445 0.02967539883954263 
114.0009841513445 0.026435149166416736 
115.0009841513445 0.01636978551455816 
116.0009841513445 0.008454904382162867 
117.0009841513445 0.008706647489434583 
118.0009841513445 0.005900525040455025 
119.0009841513445 0.005218013642581755 
120.0009841513445 0.004787245351980196 
121.0009841513445 0.005562628275062994 
122.0009841513445 0.004787245351980192 
123.0009841513445 0.005304167300702066 
124.0009841513445 0.004614938035739569 
125.0009841513445 0.005045706326341125 
126.0009841513445 0.004873399010100505 
127.0009841513445 0.004528784377619256 
128.00098415134448 0.004528784377619254 
129.00098415134448 0.004442630719498949 
130.00098415134448 0.003581094138295834 
131.00098415134448 0.0035810941382958357 
132.00098415134448 0.0032364795058145925 
133.00098415134448 0.0034087868220552143 
134.00098415134448 0.0028918648733333384 
135.00098415134448 0.00271955755709272 
136.00098415134448 0.0028057112152130295 
137.00098415134448 0.002633403898972407 
138.00098415134448 0.002633403898972407 
139.00098415134448 0.002633403898972407 
140.00098415134448 0.002633403898972407 
141.00098415134448 0.002633403898972407 
142.00098415134448 0.002633403898972407 
143.00098415134448 0.002633403898972407 
144.00098415134448 0.002633403898972407 
145.00098415134448 0.002633403898972407 
146.00098415134448 0.002633403898972407 
147.00098415134448 0.002633403898972407 
148.00098415134448 0.002633403898972407 
149.00098415134448 0.002633403898972407 
150.00098415134448 0.002633403898972407 
151.00098415134448 0.002633403898972407 
152.00098415134448 0.002633403898972407 
153.00098415134448 0.002633403898972407 
154.00098415134448 0.002633403898972407 
155.00098415134448 0.002633403898972407 
156.00098415134448 0.002633403898972407 
157.00098415134448 0.002633403898972407 
158.00098415134448 0.002633403898972407 
159.00098415134448 0.002633403898972407 
160.00098415134448 0.002633403898972407 
161.00098415134448 0.002633403898972407 
162.00098415134448 0.002633403898972407 
163.00098415134448 0.002633403898972407 
164.00098415134448 0.002633403898972407 
165.00098415134448 0.002633403898972407 
166.00098415134448 0.002633403898972407 
167.00098415134448 0.002633403898972407 
168.00098415134448 0.002633403898972407 
169.00098415134448 0.002633403898972407 
170.00098415134448 0.002633403898972407 
171.00098415134448 0.002633403898972407 
172.00098415134448 0.002633403898972407 
173.00098415134448 0.002633403898972407 
174.00098415134448 0.002633403898972407 
175.00098415134448 0.002633403898972407 
176.00098415134448 0.002633403898972407 
177.00098415134448 0.002633403898972407 
178.00098415134448 0.002633403898972407 
179.00098415134448 0.002633403898972407 
180.00098415134448 0.002633403898972407 
181.00098415134448 0.002633403898972407 
182.00098415134448 0.002633403898972407 
183.00098415134448 0.002633403898972407 
184.00098415134448 0.002633403898972407 
185.00098415134448 0.002633403898972407 
186.00098415134448 0.002633403898972407 
187.00098415134448 0.002633403898972407 
188.00098415134448 0.002633403898972407 
189.00098415134448 0.002633403898972407 
190.00098415134448 0.002633403898972407 
191.00098415134448 0.002633403898972407 
192.00098415134448 0.002633403898972407 
193.00098415134448 0.002633403898972407 
194.00098415134448 0.002633403898972407 
195.00098415134448 0.002633403898972407 
196.00098415134448 0.002633403898972407 
197.00098415134448 0.002633403898972407 
198.00098415134448 0.002633403898972407 
199.00098415134448 0.002633403898972407 
#####################################################################
# End of data export. Simulation finished at: 2017-05-24T17:55+0000 #
#####################################################################
