#####################################################################
# Alchemist log file - simulation started at: 2017-05-21T11:26+0000 #
#####################################################################
# random = 2.0, targets = 31.622776601683793, density = 2.519842099789746, gridShift = 0.0, perturbation = 0.5, connfactor = 0.1
#
# The columns have the following meaning: 
# time se[Mean] 
0.0 NaN 
1.0021051854459069 NaN 
2.002105185445907 1.0 
3.002105185445907 1.0 
4.002105185445907 1.0 
5.002105185445907 1.0 
6.002105185445907 1.0 
7.002105185445907 1.0 
8.002105185445906 1.0 
9.002105185445906 1.0 
10.002105185445906 1.0 
11.002105185445906 0.9997846174629641 
12.002105185445906 0.9997846174629641 
13.002105185445906 0.9984992426559738 
14.002105185445906 0.9989230873148206 
15.002105185445906 0.9963661785312898 
16.002105185445906 0.9946500386502277 
17.002105185445906 0.9944277356979669 
18.002105185445906 0.9916623647926252 
19.002105185445906 0.9916554443774002 
20.002105185445906 0.9886331684436731 
21.002105185445906 0.9880147024934651 
22.002105185445906 0.9834916692157117 
23.002105185445906 0.9824285973609822 
24.002105185445906 0.9821855331630467 
25.002105185445906 0.9791632572293195 
26.002105185445906 0.9795663406424916 
27.002105185445906 0.9761202200499176 
28.002105185445906 0.9758979170976568 
29.002105185445906 0.9732225115902389 
30.002105185445906 0.9732294320054639 
31.002105185445906 0.9656192900617685 
32.002105185445906 0.967627786712404 
33.002105185445906 0.9615322429431846 
34.002105185445906 0.9601698939036567 
35.002105185445906 0.9540743501344374 
36.002105185445906 0.9583015048876465 
37.002105185445906 0.9498419742961304 
38.002105185445906 0.9489804441479869 
39.002105185445906 0.9436011018071878 
40.002105185445906 0.9365739740725122 
41.002105185445906 0.9339193298107691 
42.002105185445906 0.9345602563367789 
43.002105185445906 0.9277485111391391 
44.002105185445906 0.925093866877396 
45.002105185445906 0.9284594914824617 
46.002105185445906 0.9127574506192341 
47.002105185445906 0.930748203402348 
48.002105185445906 0.9164154319938733 
49.002105185445906 0.9192171043054668 
50.002105185445906 0.9160209683260533 
51.002105185445906 0.9187119139940481 
52.002105185445906 0.9029337485633464 
53.002105185445906 0.9225446050794373 
54.002105185445906 0.9119104878718876 
55.002105185445906 0.9114944132933291 
56.002105185445906 0.9109814529016219 
57.002105185445906 0.9063044711587934 
58.002105185445906 0.9035598614991264 
59.002105185445906 0.9036376853967276 
60.002105185445906 0.9058009801775018 
61.002105185445906 0.9032233101482963 
62.002105185445906 0.8954877510654888 
63.002105185445906 0.8868813155188389 
64.00210518544591 0.8804449720734716 
65.00210518544591 0.8612992485160961 
66.00210518544591 0.8554699560909612 
67.00210518544591 0.8432068812136012 
68.00210518544591 0.8262845444650312 
69.00210518544591 0.8123129766921815 
70.00210518544591 0.8179085392371283 
71.00210518544591 0.797832807949707 
72.00210518544591 0.7891070260141063 
73.00210518544591 0.7909959300863584 
74.00210518544591 0.7712983957358331 
75.00210518544591 0.7689384110494212 
76.00210518544591 0.7675928211196832 
77.00210518544591 0.7384824382067309 
78.00210518544591 0.7519613264526341 
79.00210518544591 0.7419564746516858 
80.00210518544591 0.7086858503299674 
81.00210518544591 0.7408807689177676 
82.00210518544591 0.7277680712011059 
83.00210518544591 0.7138219933801627 
84.00210518544591 0.734499677697435 
85.00210518544591 0.732016467580904 
86.00210518544591 0.7246867870958922 
87.00210518544591 0.7402075551193427 
88.00210518544591 0.7569272423088785 
89.00210518544591 0.7564913792444254 
90.00210518544591 0.7686092484967785 
91.00210518544591 0.783273227076269 
92.00210518544591 0.7683351039776891 
93.00210518544591 0.8010506539386718 
94.00210518544591 0.7815215123593022 
95.00210518544591 0.7857442956924774 
96.00210518544591 0.7920291165732435 
97.00210518544591 0.7899341762796548 
98.00210518544591 0.7899341762796547 
99.00210518544591 0.7941240568668322 
100.00210518544591 0.8108835792155421 
101.00210518544591 0.8108835792155421 
102.00210518544591 0.8171684000963084 
103.00210518544591 0.8150734598027196 
104.00210518544591 0.8192633403898971 
105.00210518544591 0.8192633403898971 
106.00210518544591 0.8192633403898971 
107.00210518544591 0.8192633403898971 
108.00210518544591 0.8192633403898971 
109.00210518544591 0.8192633403898971 
110.00210518544591 0.8192633403898971 
111.00210518544591 0.8192633403898971 
112.00210518544591 0.8192633403898971 
113.00210518544591 0.8192633403898971 
114.00210518544591 0.8192633403898971 
115.00210518544591 0.8192633403898971 
116.00210518544591 0.8192633403898971 
117.00210518544591 0.8192633403898971 
118.00210518544591 0.8192633403898971 
119.00210518544591 0.8192633403898971 
120.00210518544591 0.8192633403898971 
121.00210518544591 0.8192633403898971 
122.00210518544591 0.8192633403898971 
123.00210518544591 0.8192633403898971 
124.00210518544591 0.8192633403898971 
125.00210518544591 0.8192633403898971 
126.00210518544591 0.8192633403898971 
127.00210518544591 0.8192633403898971 
128.0021051854459 0.8192633403898971 
129.0021051854459 0.8192633403898971 
130.0021051854459 0.8192633403898971 
131.0021051854459 0.8192633403898971 
132.0021051854459 0.8192633403898971 
133.0021051854459 0.8192633403898971 
134.0021051854459 0.8192633403898971 
135.0021051854459 0.8192633403898971 
136.0021051854459 0.8192633403898971 
137.0021051854459 0.8192633403898971 
138.0021051854459 0.8192633403898971 
139.0021051854459 0.8192633403898971 
#####################################################################
# End of data export. Simulation finished at: 2017-05-21T11:31+0000 #
#####################################################################
