#####################################################################
# Alchemist log file - simulation started at: 2017-05-20T01:50+0000 #
#####################################################################
# random = 0.0, targets = 31.622776601683793, density = 1.7841466528270753, gridShift = 1.0, perturbation = 0.5, connfactor = 0.25
#
# The columns have the following meaning: 
# time se[Mean] 
0.0 NaN 
1.0011337332612453 NaN 
2.0011337332612453 1.0 
3.0011337332612453 0.9997221180660564 
4.001133733261245 0.9977858730998798 
5.001133733261245 0.9970922843364493 
6.001133733261245 0.9918482418772351 
7.001133733261245 0.9868664563519645 
8.001133733261245 0.9800996436132032 
9.001133733261245 0.9777432275318255 
10.001133733261245 0.9778163202845116 
11.001133733261245 0.9736681805610717 
12.001133733261245 0.9693688230849459 
13.001133733261245 0.9638340737962448 
14.001133733261245 0.9585972957272016 
15.001133733261245 0.9508930623955232 
16.001133733261245 0.9398877677029199 
17.001133733261245 0.9267118927476814 
18.001133733261245 0.9050249640767607 
19.001133733261245 0.8889665743980824 
20.001133733261245 0.8661156427824737 
21.001133733261245 0.830124788718589 
22.001133733261245 0.8232112225128558 
23.001133733261245 0.7923315388528732 
24.001133733261245 0.775851274174195 
25.001133733261245 0.7661528395691368 
26.001133733261245 0.7510815455878326 
27.001133733261245 0.7428651347292933 
28.001133733261245 0.7267895749799815 
29.001133733261245 0.7399518188568289 
30.001133733261245 0.7323767200705135 
31.001133733261245 0.7395439443791129 
32.00113373326124 0.7375788006664175 
33.00113373326124 0.734046732371549 
34.00113373326124 0.7447829148874717 
35.00113373326124 0.7386697108584194 
36.00113373326124 0.7401070123407124 
37.00113373326124 0.7383293289244757 
38.00113373326124 0.7353886990796674 
39.00113373326124 0.7454250452545639 
40.00113373326124 0.7300900683793067 
41.00113373326124 0.7412696411409531 
42.00113373326124 0.7321918613608047 
43.00113373326124 0.7328869951948687 
44.00113373326124 0.7250182306604439 
45.00113373326124 0.7278750161857145 
46.00113373326124 0.7143606219954968 
47.00113373326124 0.7176604283225981 
48.00113373326124 0.7185369733932315 
49.00113373326124 0.7212754553470736 
50.00113373326124 0.725704078591207 
51.00113373326124 0.7176361250844383 
52.00113373326124 0.7135270677127693 
53.00113373326124 0.7028895880370777 
54.00113373326124 0.6880807098038824 
55.00113373326124 0.6776669726719634 
56.00113373326124 0.6596892974680144 
57.00113373326124 0.6480909795511762 
58.00113373326124 0.6328875799938665 
59.00113373326124 0.6282819889423162 
60.00113373326124 0.6547919202047177 
61.00113373326124 0.6103048608434054 
62.00113373326124 0.6951486620072835 
63.00113373326124 0.6895698533025397 
64.00113373326124 0.6934210884248768 
65.00113373326124 0.7801882544763469 
66.00113373326124 0.7126476600225251 
67.00113373326124 0.809547753312349 
68.00113373326124 0.7806224705427509 
69.00113373326124 0.7975099603208817 
70.00113373326124 0.830945122537319 
71.00113373326124 0.7546926905188568 
72.00113373326124 0.8605221768995999 
73.00113373326124 0.7768293222985776 
74.00113373326124 0.7611815123154895 
75.00113373326124 0.8316398815504288 
76.00113373326124 0.7451455840325678 
77.00113373326124 0.7832361712191777 
78.00113373326124 0.8141094774368177 
79.00113373326124 0.7881729754024134 
80.00113373326124 0.7252454746115605 
81.00113373326124 0.7641310222836437 
82.00113373326124 0.6574007461446283 
83.00113373326124 0.6103618522081254 
84.00113373326124 0.5342147124598633 
85.00113373326124 0.4699824370221775 
86.00113373326124 0.4553354816700192 
87.00113373326124 0.4236886023574641 
88.00113373326124 0.4248441652852404 
89.00113373326124 0.4251170149718701 
90.00113373326124 0.42529891476295656 
91.00113373326124 0.42529891476295656 
92.00113373326124 0.42529891476295656 
93.00113373326124 0.42529891476295656 
94.00113373326124 0.42529891476295656 
95.00113373326124 0.42529891476295656 
96.00113373326124 0.42529891476295656 
97.00113373326124 0.42529891476295656 
98.00113373326124 0.42529891476295656 
99.00113373326124 0.42529891476295656 
100.00113373326124 0.42529891476295656 
101.00113373326124 0.42529891476295656 
102.00113373326124 0.42529891476295656 
103.00113373326124 0.42529891476295656 
104.00113373326124 0.42529891476295656 
105.00113373326124 0.42529891476295656 
106.00113373326124 0.42529891476295656 
107.00113373326124 0.42529891476295656 
108.00113373326124 0.42529891476295656 
109.00113373326124 0.42529891476295656 
110.00113373326124 0.42529891476295656 
111.00113373326124 0.42529891476295656 
112.00113373326124 0.42529891476295656 
113.00113373326124 0.42529891476295656 
114.00113373326124 0.42529891476295656 
115.00113373326124 0.42529891476295656 
116.00113373326124 0.42529891476295656 
117.00113373326124 0.42529891476295656 
#####################################################################
# End of data export. Simulation finished at: 2017-05-20T01:51+0000 #
#####################################################################
