#####################################################################
# Alchemist log file - simulation started at: 2017-05-22T15:31+0000 #
#####################################################################
# random = 4.0, targets = 3.1622776601683795, density = 7.099073319511142, gridShift = 1.0, perturbation = 0.5, connfactor = 0.25
#
# The columns have the following meaning: 
# time se[Mean] 
0.0 NaN 
1.0004793365590676 NaN 
2.0004793365590676 1.0 
3.0004793365590676 1.0 
4.000479336559067 1.0 
5.000479336559067 1.0 
6.000479336559067 1.0 
7.000479336559067 0.999317364702521 
8.000479336559067 0.9965868235126046 
9.000479336559067 0.9965868235126046 
10.000479336559067 0.9905297013070447 
11.000479336559067 0.9863472940504184 
12.000479336559067 0.9791846876651557 
13.000479336559067 0.9659649590743327 
14.000479336559067 0.9653689192486052 
15.000479336559067 0.9512168974215828 
16.000479336559067 0.9395356303692212 
17.000479336559067 0.9331422547531892 
18.000479336559067 0.92930622938357 
19.000479336559067 0.9216341786443308 
20.000479336559067 0.9229128537675374 
21.000479336559067 0.9268354746089082 
22.000479336559067 0.9307580954502798 
23.000479336559067 0.9429488068566165 
24.000479336559067 0.949515373416152 
25.000479336559067 0.9542072250267538 
26.000479336559067 0.9606006006427864 
27.000479336559067 0.9651192613098848 
28.000479336559067 0.9749258134133123 
29.000479336559067 0.977483163659725 
30.000479336559067 0.9860110406399463 
31.000479336559067 0.9906162967787964 
32.00047933655907 0.992577607199482 
33.00047933655907 0.992577607199482 
34.00047933655907 0.9965868235126047 
35.00047933655907 0.9979520941075628 
36.00047933655907 0.999317364702521 
37.00047933655907 0.999317364702521 
38.00047933655907 1.0 
39.00047933655907 1.0 
40.00047933655907 1.0 
41.00047933655907 1.0 
42.00047933655907 1.0 
43.00047933655907 1.0 
44.00047933655907 1.0 
45.00047933655907 1.0 
46.00047933655907 1.0 
47.00047933655907 1.0 
48.00047933655907 1.0 
49.00047933655907 1.0 
50.00047933655907 1.0 
51.00047933655907 0.999317364702521 
52.00047933655907 0.9972694588100837 
53.00047933655907 0.9938562823226884 
54.00047933655907 0.9877125646453766 
55.00047933655907 0.9788383057781486 
56.00047933655907 0.9733772233983163 
57.00047933655907 0.9638203292336092 
58.00047933655907 0.954263435068902 
59.00047933655907 0.9447065409041954 
60.00047933655907 0.9324191055495717 
61.00047933655907 0.9189395905434938 
62.00047933655907 0.9038417708448921 
63.00047933655907 0.8890869568744526 
64.00047933655907 0.8714385392471281 
65.00047933655907 0.8485022301834734 
66.00047933655907 0.8264847097206406 
67.00047933655907 0.8047539849438204 
68.00047933655907 0.7818975190342278 
69.00047933655907 0.7561406971500617 
70.00047933655907 0.7334776791370418 
71.00047933655907 0.7870922404969132 
72.00047933655907 0.9260014456108034 
73.00047933655907 1.0688737854722037 
74.00047933655907 1.3869946875220054 
75.00047933655907 1.7082791081204896 
76.00047933655907 1.2567462142415027 
77.00047933655907 1.7449245109916651 
78.00047933655907 1.7194443563169806 
79.00047933655907 1.6899347283761001 
80.00047933655907 2.0094040202266408 
81.00047933655907 2.0672313742727404 
82.00047933655907 2.121701761873596 
83.00047933655907 1.9243186983210008 
84.00047933655907 1.986284569558745 
85.00047933655907 2.3952017116485393 
86.00047933655907 2.6317930959782028 
87.00047933655907 2.1892210564381966 
88.00047933655907 2.596846018769405 
89.00047933655907 2.9997026624947942 
90.00047933655907 2.295107357016681 
91.00047933655907 3.129177522004801 
92.00047933655907 3.4464459739724784 
93.00047933655907 3.2487334093271 
94.00047933655907 2.7840729499885177 
95.00047933655907 2.6673230640089454 
96.00047933655907 2.603430828597175 
97.00047933655907 3.1553315459744513 
98.00047933655907 2.7235883234046727 
99.00047933655907 3.231389852838226 
100.00047933655907 3.45372911523374 
101.00047933655907 3.3610142701798296 
102.00047933655907 3.610279985657259 
103.00047933655907 3.364121578686357 
104.00047933655907 3.6963708694512727 
105.00047933655907 3.235083072693946 
106.00047933655907 4.068993551373947 
107.00047933655907 3.330954683978836 
108.00047933655907 3.724319587399987 
109.00047933655907 3.693726923733102 
110.00047933655907 3.062488584700241 
111.00047933655907 3.4274852974492918 
112.00047933655907 3.2457196264258132 
113.00047933655907 3.100387844924495 
114.00047933655907 2.2180889186193355 
115.00047933655907 1.7360779726583873 
116.00047933655907 1.8803706084986807 
117.00047933655907 1.8753289988422253 
118.00047933655907 1.4806651633448003 
119.00047933655907 1.9527919055488827 
120.00047933655907 1.8758485716727384 
121.00047933655907 1.717253171515619 
122.00047933655907 1.874653115862437 
123.00047933655907 1.7964209783865501 
124.00047933655907 2.0327492001421126 
125.00047933655907 1.2444302893786774 
126.00047933655907 1.794009809812881 
127.00047933655907 1.4809879121198908 
128.00047933655907 1.4793662312685283 
129.00047933655907 1.085108363859099 
130.00047933655907 1.0838094317828226 
131.00047933655907 0.7685529326185105 
132.00047933655907 0.45184119122865135 
133.00047933655907 0.6089712206836775 
134.00047933655907 0.45198737290139074 
135.00047933655907 0.37238321251286044 
136.00047933655907 0.21445356685899636 
137.00047933655907 0.1350990644091828 
138.00047933655907 0.13500571661974142 
139.00047933655907 0.13508893593264829 
140.00047933655907 0.13508893593264829 
141.00047933655907 0.13508893593264829 
142.00047933655907 0.13508893593264829 
143.00047933655907 0.13508893593264829 
144.00047933655907 0.13508893593264829 
145.00047933655907 0.13508893593264829 
146.00047933655907 0.13508893593264829 
147.00047933655907 0.13508893593264829 
148.00047933655907 0.13508893593264829 
149.00047933655907 0.13508893593264829 
150.00047933655907 0.13508893593264829 
151.00047933655907 0.13508893593264829 
152.00047933655907 0.13508893593264829 
153.00047933655907 0.13508893593264829 
154.00047933655907 0.13508893593264829 
155.00047933655907 0.13508893593264829 
156.00047933655907 0.13508893593264829 
157.00047933655907 0.13508893593264829 
158.00047933655907 0.13508893593264829 
159.00047933655907 0.13508893593264829 
160.00047933655907 0.13508893593264829 
161.00047933655907 0.13508893593264829 
162.00047933655907 0.13508893593264829 
163.00047933655907 0.13508893593264829 
164.00047933655907 0.13508893593264829 
165.00047933655907 0.13508893593264829 
166.00047933655907 0.13508893593264829 
167.00047933655907 0.13508893593264829 
168.00047933655907 0.13508893593264829 
169.00047933655907 0.13508893593264829 
170.00047933655907 0.13508893593264829 
171.00047933655907 0.13508893593264829 
172.00047933655907 0.13508893593264829 
173.00047933655907 0.13508893593264829 
174.00047933655907 0.13508893593264829 
175.00047933655907 0.13508893593264829 
176.00047933655907 0.13508893593264829 
177.00047933655907 0.13508893593264829 
178.00047933655907 0.13508893593264829 
179.00047933655907 0.13508893593264829 
180.00047933655907 0.13508893593264829 
181.00047933655907 0.13508893593264829 
182.00047933655907 0.13508893593264829 
183.00047933655907 0.13508893593264829 
184.00047933655907 0.13508893593264829 
185.00047933655907 0.13508893593264829 
186.00047933655907 0.13508893593264829 
187.00047933655907 0.13508893593264829 
188.00047933655907 0.13508893593264829 
189.00047933655907 0.13508893593264829 
190.00047933655907 0.13508893593264829 
191.00047933655907 0.13508893593264829 
192.00047933655907 0.13508893593264829 
193.00047933655907 0.13508893593264829 
194.00047933655907 0.13508893593264829 
195.00047933655907 0.13508893593264829 
#####################################################################
# End of data export. Simulation finished at: 2017-05-22T15:34+0000 #
#####################################################################
