#####################################################################
# Alchemist log file - simulation started at: 2017-05-24T08:09+0000 #
#####################################################################
# random = 14.0, targets = 10.0, density = 0.07978946395100113, gridShift = 0.0, perturbation = 0.5, connfactor = 0.75
#
# The columns have the following meaning: 
# time se[Mean] 
0.0 NaN 
1.021284317112984 NaN 
2.021284317112984 1.01921875 
3.021284317112984 1.0164453125 
4.021284317112984 1.02078125 
5.021284317112984 1.0504861111111112 
6.021284317112984 1.002734375 
7.021284317112984 0.9881684027777778 
8.021284317112984 1.0357552083333335 
9.021284317112984 1.0001215277777777 
10.021284317112984 1.0785633680555557 
11.021284317112984 1.032556423611111 
12.021284317112984 0.8779687500000001 
13.021284317112984 0.9713368055555557 
14.021284317112984 0.8862847222222223 
15.021284317112984 0.850295138888889 
16.021284317112986 0.8924652777777778 
17.021284317112986 0.8282812500000001 
18.021284317112986 0.81 
19.021284317112986 0.81 
20.021284317112986 0.81 
21.021284317112986 0.81 
22.021284317112986 0.81 
#####################################################################
# End of data export. Simulation finished at: 2017-05-24T08:09+0000 #
#####################################################################
