#####################################################################
# Alchemist log file - simulation started at: 2017-05-21T03:00+0000 #
#####################################################################
# random = 2.0, targets = 1.0, density = 0.04, gridShift = 1.0, perturbation = 0.0, connfactor = 0.75
#
# The columns have the following meaning: 
# time se[Mean] 
0.0 NaN 
1.003288451303821 NaN 
2.003288451303821 1.0 
3.003288451303821 1.0 
4.0032884513038205 0.9375 
5.0032884513038205 0.8125 
6.0032884513038205 0.75 
7.0032884513038205 0.6875 
8.00328845130382 0.5625 
9.00328845130382 0.5625 
10.00328845130382 0.5 
11.00328845130382 0.29166666666666663 
12.00328845130382 0.22916666666666669 
13.00328845130382 0.0625 
14.00328845130382 0.04166666666666667 
15.00328845130382 0.0 
16.00328845130382 0.0 
#####################################################################
# End of data export. Simulation finished at: 2017-05-21T03:00+0000 #
#####################################################################
