#####################################################################
# Alchemist log file - simulation started at: 2017-05-24T17:17+0000 #
#####################################################################
# random = 7.0, targets = 3.1622776601683795, density = 0.04, gridShift = 0.0, perturbation = 0.0, connfactor = 0.1
#
# The columns have the following meaning: 
# time se[Mean] 
0.0 NaN 
1.0724373403975138 NaN 
2.0724373403975136 1.0 
3.0724373403975136 1.0 
#####################################################################
# End of data export. Simulation finished at: 2017-05-24T17:17+0000 #
#####################################################################
