#####################################################################
# Alchemist log file - simulation started at: 2017-05-24T17:35+0000 #
#####################################################################
# random = 7.0, targets = 3.1622776601683795, density = 3.5589026259761294, gridShift = 0.0, perturbation = 0.0, connfactor = 1.5
#
# The columns have the following meaning: 
# time se[Mean] 
0.0 NaN 
1.001616958347866 NaN 
2.0016169583478662 1.1331117462953042 
3.0016169583478662 1.2123638830084182 
4.001616958347866 1.3582407153095988 
5.001616958347866 1.3244241210833472 
6.001616958347866 1.3921097069128099 
7.001616958347866 1.1297213282497973 
8.001616958347867 1.2713824556840534 
9.001616958347867 1.2542000713757866 
10.001616958347867 1.264460568644441 
11.001616958347867 1.3371345875813225 
12.001616958347867 1.295933569258818 
13.001616958347867 1.3189956697973662 
14.001616958347867 1.3779427262025197 
15.001616958347867 1.481587029111863 
16.001616958347867 1.5584946891397402 
17.001616958347867 1.611097544376522 
18.001616958347867 1.6848933666080486 
19.001616958347867 1.7439616752741125 
20.001616958347867 1.7491762215508047 
21.001616958347867 1.7221970741475179 
22.001616958347867 1.732453096991843 
23.001616958347867 1.7267638681045008 
24.001616958347867 1.7116783547154484 
25.001616958347867 1.6364358983520746 
26.001616958347867 1.5960213696658914 
27.001616958347867 1.5109191845915853 
28.001616958347867 1.4840075626463607 
29.001616958347867 1.4072657619979274 
30.001616958347867 1.4061252585345911 
31.001616958347867 1.3849642826726185 
32.00161695834787 1.5532795847323644 
33.00161695834787 1.896816215041908 
34.00161695834787 2.097501467564369 
35.00161695834787 2.8610715783691734 
36.00161695834787 3.371894972564538 
37.00161695834787 4.140340234941624 
38.00161695834787 4.616339724715747 
39.00161695834787 5.6226878490210686 
40.00161695834787 6.362952826543626 
41.00161695834787 6.402647683629685 
42.00161695834787 7.359157611614953 
43.00161695834787 7.936456447549746 
44.00161695834787 8.116244350762416 
45.00161695834787 8.108480898594365 
46.00161695834787 8.260371658311191 
47.00161695834787 8.302642116262291 
48.00161695834787 8.107049877422902 
49.00161695834787 7.454444113164068 
50.00161695834787 6.645836639281263 
51.00161695834787 5.915145812801748 
52.00161695834787 5.111899967352878 
53.00161695834787 4.193442991326773 
54.00161695834787 3.4702826496352634 
55.00161695834787 2.68426706328884 
56.00161695834787 2.1641994970229197 
57.00161695834787 1.8746839659318884 
58.00161695834787 1.8640665564595862 
59.00161695834787 1.849178133186602 
60.00161695834787 1.8360386126619932 
61.00161695834787 1.8114056804629766 
62.00161695834787 1.78768639869262 
63.00161695834787 1.7745881790841365 
64.00161695834787 1.7629502117953681 
65.00161695834787 1.7496651334542934 
66.00161695834787 1.7414494045081443 
67.00161695834787 1.7387274578027894 
68.00161695834787 1.7358584902788023 
69.00161695834787 1.7330851917411971 
70.00161695834787 1.7304368932035918 
71.00161695834787 1.729932233496071 
72.00161695834787 1.731446212618634 
73.00161695834787 1.731446212618634 
74.00161695834787 1.731446212618634 
75.00161695834787 1.731446212618634 
76.00161695834787 1.732455532033676 
77.00161695834787 1.731950872326155 
78.00161695834787 1.731950872326155 
79.00161695834787 1.731950872326155 
80.00161695834787 1.732455532033676 
81.00161695834787 1.732455532033676 
82.00161695834787 1.732455532033676 
83.00161695834787 1.732455532033676 
84.00161695834787 1.732455532033676 
85.00161695834787 1.732455532033676 
86.00161695834787 1.732455532033676 
87.00161695834787 1.732455532033676 
88.00161695834787 1.732455532033676 
89.00161695834787 1.732455532033676 
90.00161695834787 1.732455532033676 
91.00161695834787 1.732455532033676 
92.00161695834787 1.732455532033676 
93.00161695834787 1.732455532033676 
94.00161695834787 1.732455532033676 
95.00161695834787 1.732455532033676 
96.00161695834787 1.732455532033676 
97.00161695834787 1.732455532033676 
98.00161695834787 1.732455532033676 
99.00161695834787 1.732455532033676 
100.00161695834787 1.732455532033676 
101.00161695834787 1.732455532033676 
102.00161695834787 1.732455532033676 
103.00161695834787 1.732455532033676 
104.00161695834787 1.732455532033676 
105.00161695834787 1.732455532033676 
106.00161695834787 1.732455532033676 
107.00161695834787 1.732455532033676 
108.00161695834787 1.732455532033676 
109.00161695834787 1.732455532033676 
110.00161695834787 1.732455532033676 
111.00161695834787 1.732455532033676 
112.00161695834787 1.732455532033676 
113.00161695834787 1.732455532033676 
114.00161695834787 1.732455532033676 
115.00161695834787 1.732455532033676 
116.00161695834787 1.732455532033676 
117.00161695834787 1.732455532033676 
118.00161695834787 1.732455532033676 
119.00161695834787 1.732455532033676 
120.00161695834787 1.732455532033676 
121.00161695834787 1.732455532033676 
122.00161695834787 1.732455532033676 
#####################################################################
# End of data export. Simulation finished at: 2017-05-24T17:38+0000 #
#####################################################################
