#####################################################################
# Alchemist log file - simulation started at: 2017-05-23T22:12+0000 #
#####################################################################
# random = 6.0, targets = 1.0, density = 0.2247883923996312, gridShift = 1.0, perturbation = 0.5, connfactor = 2.0
#
# The columns have the following meaning: 
# time se[Mean] 
0.0 NaN 
1.0115592716150654 NaN 
2.0115592716150656 2.3928571428571432 
3.0115592716150656 3.0105820105820107 
4.011559271615066 3.832010582010582 
5.011559271615066 3.818783068783069 
6.011559271615066 2.819444444444444 
7.011559271615066 2.4060846560846563 
8.011559271615067 2.4510582010582014 
9.011559271615067 3.0284391534391544 
10.011559271615067 3.3895502645502655 
11.011559271615067 5.212962962962965 
12.011559271615067 5.693121693121695 
13.011559271615067 9.009920634920636 
14.011559271615067 11.260582010582013 
15.011559271615067 9.427910052910056 
16.011559271615067 13.590608465608469 
17.011559271615067 10.627645502645505 
18.011559271615067 10.822089947089951 
19.011559271615067 10.010582010582016 
20.011559271615067 10.537698412698418 
21.011559271615067 7.689153439153444 
22.011559271615067 9.23743386243387 
23.011559271615067 6.795634920634927 
24.011559271615067 6.553571428571434 
25.011559271615067 5.619047619047624 
26.011559271615067 5.44444444444445 
27.011559271615067 4.5641534391534435 
28.011559271615067 4.477513227513231 
29.011559271615067 4.016534391534395 
30.011559271615067 4.0000000000000036 
31.011559271615067 4.0000000000000036 
32.01155927161507 4.0000000000000036 
33.01155927161507 4.0000000000000036 
34.01155927161507 4.0000000000000036 
35.01155927161507 4.0000000000000036 
36.01155927161507 4.0000000000000036 
#####################################################################
# End of data export. Simulation finished at: 2017-05-23T22:12+0000 #
#####################################################################
