#####################################################################
# Alchemist log file - simulation started at: 2017-05-24T17:53+0000 #
#####################################################################
# random = 15.0, targets = 31.622776601683793, density = 10.026386447354522, gridShift = 1.0, perturbation = 0.5, connfactor = 0.1
#
# The columns have the following meaning: 
# time se[Mean] 
0.0 NaN 
1.0001976518064393 NaN 
2.000197651806439 1.0 
3.000197651806439 1.0 
4.000197651806439 1.0 
5.000197651806439 1.0 
6.000197651806439 1.0 
7.000197651806439 0.9998334224335391 
8.000197651806438 0.9990005346012345 
9.000197651806438 0.9995002673006173 
10.000197651806438 0.9987765878613142 
11.000197651806438 0.9985989503870192 
12.000197651806438 0.998759997999563 
13.000197651806438 0.997858681085965 
14.000197651806438 0.9980660379641341 
15.000197651806438 0.9979976088828407 
16.000197651806438 0.9974239171482475 
17.000197651806438 0.9961894451017276 
18.000197651806438 0.9958860093726798 
19.000197651806438 0.9945533888409922 
20.000197651806438 0.9940425962337756 
21.000197651806438 0.9936410120195602 
22.000197651806438 0.9927452250598793 
23.000197651806438 0.9920049557588251 
24.000197651806438 0.9913331155390641 
25.000197651806438 0.990379959405924 
26.000197651806438 0.9898636368447901 
27.000197651806438 0.9885088964974343 
28.000197651806438 0.9886533542482272 
29.000197651806438 0.9882980792996371 
30.000197651806438 0.9878335959580454 
31.000197651806438 0.9881446312752991 
32.00019765180644 0.9878059461884602 
33.00019765180644 0.988002243158795 
34.00019765180644 0.9881632907713391 
35.00019765180644 0.988501975858178 
36.00019765180644 0.9887203926441811 
37.00019765180644 0.9887314525520152 
38.00019765180644 0.9892885544248573 
39.00019765180644 0.9900288237259114 
40.00019765180644 0.9905340863792115 
41.00019765180644 0.9908264622004251 
42.00019765180644 0.99150936232802 
43.00019765180644 0.991910946542235 
44.00019765180644 0.9925993766237472 
45.00019765180644 0.9931730683583404 
46.00019765180644 0.9938041292663928 
47.00019765180644 0.9940909751336895 
48.00019765180644 0.9944925593479049 
49.00019765180644 0.9948941435621201 
50.00019765180644 0.9952957277763353 
51.00019765180644 0.9957546811640099 
52.00019765180644 0.9962136345516847 
53.00019765180644 0.9966152187658999 
54.00019765180644 0.9970741721535744 
55.00019765180644 0.9974183871943303 
56.00019765180644 0.9979347097554643 
57.00019765180644 0.9981641864493016 
58.00019765180644 0.9988526165308135 
59.00019765180644 0.9991394623981101 
60.00019765180644 0.9995410466123253 
61.00019765180644 0.999655784959244 
62.00019765180644 0.9997705233061627 
63.00019765180644 0.999827892479622 
64.00019765180645 0.9998852616530813 
65.00019765180645 0.9998852616530813 
66.00019765180645 1.0 
67.00019765180645 1.0 
68.00019765180645 1.0 
69.00019765180645 1.0 
70.00019765180645 1.0 
71.00019765180645 1.0 
72.00019765180645 1.0 
73.00019765180645 1.0 
74.00019765180645 1.0 
75.00019765180645 1.0 
76.00019765180645 1.0 
77.00019765180645 1.0 
78.00019765180645 0.9995500368858706 
79.00019765180645 0.9999426308265407 
80.00019765180645 0.9968094788893865 
81.00019765180645 0.9983485182465366 
82.00019765180645 0.9928337698974332 
83.00019765180645 0.9897012969092285 
84.00019765180645 0.9873217701315681 
85.00019765180645 0.9818445670908612 
86.00019765180645 0.9747622243497568 
87.00019765180645 0.9753870107800616 
88.00019765180645 0.9644477742833866 
89.00019765180645 0.9639610399763641 
90.00019765180645 0.9538097727317076 
91.00019765180645 0.9495950489731849 
92.00019765180645 0.9405421041530837 
93.00019765180645 0.9442862340294705 
94.00019765180645 0.9305496213578069 
95.00019765180645 0.9309416315160812 
96.00019765180645 0.9291870223184888 
97.00019765180645 0.9214068393771345 
98.00019765180645 0.9158079149711388 
99.00019765180645 0.9198739761354101 
100.00019765180645 0.910349922421427 
101.00019765180645 0.9143613302080367 
102.00019765180645 0.9039622186647005 
103.00019765180645 0.9000363120454411 
104.00019765180645 0.9004734671003181 
105.00019765180645 0.8924078617644474 
106.00019765180645 0.8839399604779713 
107.00019765180645 0.8887135638524278 
108.00019765180645 0.8715621586515921 
109.00019765180645 0.8682863267067366 
110.00019765180645 0.8599303823965003 
111.00019765180645 0.8503343737067138 
112.00019765180645 0.8480559047388945 
113.00019765180645 0.8507572676378855 
114.00019765180645 0.836972535170065 
115.00019765180645 0.8414346178071938 
116.00019765180645 0.8296549922523301 
117.00019765180645 0.8272368837512448 
118.00019765180645 0.8147274978082065 
119.00019765180645 0.8407837298383104 
120.00019765180645 0.8204632771810211 
121.00019765180645 0.8346052886568396 
122.00019765180645 0.8221909155579782 
123.00019765180645 0.8183820760236836 
124.00019765180645 0.8248673740748547 
125.00019765180645 0.8268565700750098 
126.00019765180645 0.8206081187937976 
127.00019765180645 0.8289068514762418 
128.00019765180645 0.8213806921447612 
129.00019765180645 0.8234206253745491 
130.00019765180645 0.8285468534766789 
131.00019765180645 0.8302145348383739 
132.00019765180645 0.8306374943444267 
133.00019765180645 0.8311763237789807 
134.00019765180645 0.823280303696566 
135.00019765180645 0.8322000737942572 
136.00019765180645 0.8226514403767972 
137.00019765180645 0.828444916797477 
138.00019765180645 0.8292647702542129 
139.00019765180645 0.8371752122017677 
140.00019765180645 0.8375501798656583 
141.00019765180645 0.8359938061229265 
142.00019765180645 0.8389886764247136 
143.00019765180645 0.8361893913568715 
144.00019765180645 0.8391076492067641 
145.00019765180645 0.8453031624742923 
146.00019765180645 0.8390087889852065 
147.00019765180645 0.8490808263444923 
148.00019765180645 0.8429973356280852 
149.00019765180645 0.853288954142397 
150.00019765180645 0.8513299301787487 
151.00019765180645 0.8587529292786593 
152.00019765180645 0.8558167860482303 
153.00019765180645 0.860702962968762 
154.00019765180645 0.8609769056102523 
155.00019765180645 0.8632467385748377 
156.00019765180645 0.8633091850695812 
157.00019765180645 0.8653274543121016 
158.00019765180645 0.8668127783442964 
159.00019765180645 0.8683520440177629 
160.00019765180645 0.8704721155939549 
161.00019765180645 0.8704267443810362 
162.00019765180645 0.8714607474012028 
163.00019765180645 0.8711904913956573 
164.00019765180645 0.8719809829145979 
165.00019765180645 0.87165888768951 
166.00019765180645 0.8734046049758798 
167.00019765180645 0.8732472439992807 
168.00019765180645 0.8746153402050757 
169.00019765180645 0.8742950882979602 
170.00019765180645 0.8743432408815578 
171.00019765180645 0.875137419036443 
172.00019765180645 0.8755039802091837 
173.00019765180645 0.8750818931809561 
174.00019765180645 0.876242632508582 
175.00019765180645 0.8755039802091837 
176.00019765180645 0.876348154265639 
177.00019765180645 0.8760315889944682 
178.00019765180645 0.8766647195368096 
179.00019765180645 0.8765591977797527 
180.00019765180645 0.8768757630509234 
181.00019765180645 0.8768757630509234 
182.00019765180645 0.8770868065650372 
183.00019765180645 0.8769812848079803 
184.00019765180645 0.8769812848079803 
185.00019765180645 0.877192328322094 
186.00019765180645 0.877297850079151 
187.00019765180645 0.8775088935932648 
188.00019765180645 0.8774033718362079 
189.00019765180645 0.8775088935932648 
190.00019765180645 0.8775088935932648 
191.00019765180645 0.8775088935932648 
192.00019765180645 0.8775088935932648 
193.00019765180645 0.8775088935932648 
194.00019765180645 0.8775088935932648 
195.00019765180645 0.8775088935932648 
196.00019765180645 0.8775088935932648 
197.00019765180645 0.8775088935932648 
198.00019765180645 0.8775088935932648 
199.00019765180645 0.8775088935932648 
200.00019765180645 0.8775088935932648 
201.00019765180645 0.8775088935932648 
202.00019765180645 0.8775088935932648 
203.00019765180645 0.8775088935932648 
204.00019765180645 0.8775088935932648 
205.00019765180645 0.8775088935932648 
206.00019765180645 0.8775088935932648 
207.00019765180645 0.8775088935932648 
208.00019765180645 0.8775088935932648 
209.00019765180645 0.8775088935932648 
210.00019765180645 0.8775088935932648 
211.00019765180645 0.8775088935932648 
212.00019765180645 0.8775088935932648 
213.00019765180645 0.8775088935932648 
214.00019765180645 0.8775088935932648 
215.00019765180645 0.8775088935932648 
216.00019765180645 0.8775088935932648 
217.00019765180645 0.8775088935932648 
218.00019765180645 0.8775088935932648 
219.00019765180645 0.8775088935932648 
220.00019765180645 0.8775088935932648 
221.00019765180645 0.8775088935932648 
222.00019765180645 0.8775088935932648 
223.00019765180645 0.8775088935932648 
224.00019765180645 0.8775088935932648 
225.00019765180645 0.8775088935932648 
226.00019765180645 0.8775088935932648 
227.00019765180645 0.8775088935932648 
228.00019765180645 0.8775088935932648 
229.00019765180645 0.8775088935932648 
230.00019765180645 0.8775088935932648 
231.00019765180645 0.8775088935932648 
232.00019765180645 0.8775088935932648 
233.00019765180645 0.8775088935932648 
234.00019765180645 0.8775088935932648 
235.00019765180645 0.8775088935932648 
236.00019765180645 0.8775088935932648 
237.00019765180645 0.8775088935932648 
238.00019765180645 0.8775088935932648 
239.00019765180645 0.8775088935932648 
240.00019765180645 0.8775088935932648 
241.00019765180645 0.8775088935932648 
242.00019765180645 0.8775088935932648 
243.00019765180645 0.8775088935932648 
244.00019765180645 0.8775088935932648 
245.00019765180645 0.8775088935932648 
246.00019765180645 0.8775088935932648 
247.00019765180645 0.8775088935932648 
248.00019765180645 0.8775088935932648 
249.00019765180645 0.8775088935932648 
250.00019765180645 0.8775088935932648 
251.00019765180645 0.8775088935932648 
252.00019765180645 0.8775088935932648 
253.00019765180645 0.8775088935932648 
254.00019765180645 0.8775088935932648 
255.00019765180645 0.8775088935932648 
256.00019765180645 0.8775088935932648 
257.00019765180645 0.8775088935932648 
258.00019765180645 0.8775088935932648 
259.00019765180645 0.8775088935932648 
#####################################################################
# End of data export. Simulation finished at: 2017-05-24T17:55+0000 #
#####################################################################
