#####################################################################
# Alchemist log file - simulation started at: 2017-05-23T04:07+0000 #
#####################################################################
# random = 10.0, targets = 100.0, density = 7.099073319511142, gridShift = 0.0, perturbation = 0.5, connfactor = 0.25
#
# The columns have the following meaning: 
# time se[Mean] 
0.0 NaN 
1.0007035023519422 NaN 
2.000703502351942 1.0 
3.000703502351942 0.9997969387755102 
4.000703502351942 0.9989729272959184 
5.000703502351942 0.9973507334183673 
6.000703502351942 0.995840625 
7.000703502351942 0.9928548469387755 
8.000703502351943 0.9923978954081633 
9.000703502351943 0.9898633609693878 
10.000703502351943 0.9884938775510205 
11.000703502351943 0.9862289859693878 
12.000703502351943 0.9832994897959183 
13.000703502351943 0.9823413903061224 
14.000703502351943 0.9806358099489796 
15.000703502351943 0.9792294961734693 
16.000703502351943 0.9778030612244898 
17.000703502351943 0.9766835778061225 
18.000703502351943 0.9748325892857143 
19.000703502351943 0.9734231505102041 
20.000703502351943 0.9708904655612245 
21.000703502351943 0.9687840880102041 
22.000703502351943 0.9673687181122449 
23.000703502351943 0.9660192602040816 
24.000703502351943 0.9646541454081633 
25.000703502351943 0.9642282525510204 
26.000703502351943 0.9625367665816327 
27.000703502351943 0.9616160076530612 
28.000703502351943 0.9601098533163266 
29.000703502351943 0.9578599489795918 
30.000703502351943 0.9567589604591836 
31.000703502351943 0.9566273278061225 
32.00070350235194 0.9545760204081633 
33.00070350235194 0.9536560267857143 
34.00070350235194 0.9523021683673469 
35.00070350235194 0.9500076849489796 
36.00070350235194 0.9490291135204082 
37.00070350235194 0.9461023915816327 
38.00070350235194 0.9471188456632653 
39.00070350235194 0.9451514349489796 
40.00070350235194 0.9432019451530612 
41.00070350235194 0.9404683354591836 
42.00070350235194 0.9363723852040816 
43.00070350235194 0.9348875637755102 
44.00070350235194 0.9317022959183673 
45.00070350235194 0.9310504464285714 
46.00070350235194 0.9284084821428571 
47.00070350235194 0.9263720025510204 
48.00070350235194 0.9263668367346939 
49.00070350235194 0.9227709183673469 
50.00070350235194 0.9220132653061225 
51.00070350235194 0.9189658163265305 
52.00070350235194 0.9184918367346939 
53.00070350235194 0.9163035076530611 
54.00070350235194 0.914745663265306 
55.00070350235194 0.9151296237244897 
56.00070350235194 0.9112977040816326 
57.00070350235194 0.9103367028061224 
58.00070350235194 0.9052112882653061 
59.00070350235194 0.9018579400510204 
60.00070350235194 0.9006476403061223 
61.00070350235194 0.8972830676020409 
62.00070350235194 0.896241581632653 
63.00070350235194 0.8931086096938775 
64.00070350235194 0.8910688137755103 
65.00070350235194 0.8941788903061224 
66.00070350235194 0.9055654974489796 
67.00070350235194 0.9171567602040817 
68.00070350235194 0.906991836734694 
69.00070350235194 0.923200956632653 
70.00070350235194 0.9125596301020408 
71.00070350235194 0.9088422512755102 
72.00070350235194 0.9123001275510204 
73.00070350235194 0.8962035714285715 
74.00070350235194 0.9115616390306123 
75.00070350235194 0.9041708864795918 
76.00070350235194 0.9037117984693878 
77.00070350235194 0.8964148915816326 
78.00070350235194 0.9012528380102041 
79.00070350235194 0.9049662627551021 
80.00070350235194 0.879868463010204 
81.00070350235194 0.8967132971938775 
82.00070350235194 0.8890720982142858 
83.00070350235194 0.9043647321428573 
84.00070350235194 0.9045680803571428 
85.00070350235194 0.8935768494897959 
86.00070350235194 0.8893415816326531 
87.00070350235194 0.8846401466836735 
88.00070350235194 0.9038331313775511 
89.00070350235194 0.8849155612244898 
90.00070350235194 0.8766935267857143 
91.00070350235194 0.8778003507653062 
92.00070350235194 0.8767338329081631 
93.00070350235194 0.8565030612244898 
94.00070350235194 0.8977383290816326 
95.00070350235194 0.8854769770408163 
96.00070350235194 0.8929230548469388 
97.00070350235194 0.8619977997448978 
98.00070350235194 0.900804368622449 
99.00070350235194 0.875957780612245 
100.00070350235194 0.9077845025510198 
101.00070350235194 0.8663595025510203 
102.00070350235194 0.8722508609693879 
103.00070350235194 0.8468820790816328 
104.00070350235194 0.8215421556122448 
105.00070350235194 0.8125596619897959 
106.00070350235194 0.7853115433673469 
107.00070350235194 0.7955198022959183 
108.00070350235194 0.7935301339285713 
109.00070350235194 0.7714510841836735 
110.00070350235194 0.7716284757653059 
111.00070350235194 0.7688622448979591 
112.00070350235194 0.7532734374999999 
113.00070350235194 0.7570535714285712 
114.00070350235194 0.7288177614795919 
115.00070350235194 0.7371307716836736 
116.00070350235194 0.7127894770408163 
117.00070350235194 0.7069776466836734 
118.00070350235194 0.7032555803571428 
119.00070350235194 0.6882190369897958 
120.00070350235194 0.6985600765306125 
121.00070350235194 0.6906801020408162 
122.00070350235194 0.6884683673469387 
123.00070350235194 0.6738612882653063 
124.00070350235194 0.6825081951530612 
125.00070350235194 0.6734577806122449 
126.00070350235194 0.677417219387755 
127.00070350235194 0.6604045918367347 
128.00070350235194 0.6620262755102043 
129.00070350235194 0.6500300063775508 
130.00070350235194 0.638810618622449 
131.00070350235194 0.6302445790816326 
132.00070350235194 0.636678443877551 
133.00070350235194 0.7057829081632655 
134.00070350235194 0.7600704400510206 
135.00070350235194 0.7197907844387755 
136.00070350235194 0.7947520727040822 
137.00070350235194 0.7672686224489792 
138.00070350235194 0.7588483737244892 
139.00070350235194 0.7734951530612253 
140.00070350235194 0.712163360969388 
141.00070350235194 0.7990373086734697 
142.00070350235194 0.7735116390306117 
143.00070350235194 0.7849849170918375 
144.00070350235194 0.7652706951530611 
145.00070350235194 0.7962986926020413 
146.00070350235194 0.8260480548469393 
147.00070350235194 0.7410973533163265 
148.00070350235194 0.8121887117346943 
149.00070350235194 0.8030380739795916 
150.00070350235194 0.8837350127551016 
151.00070350235194 0.9065225446428569 
152.00070350235194 0.875792346938775 
153.00070350235194 0.8886699298469393 
154.00070350235194 0.8906746492346937 
155.00070350235194 0.9881989158163265 
156.00070350235194 0.9250017219387754 
157.00070350235194 0.9201692602040815 
158.00070350235194 0.9343666772959185 
159.00070350235194 0.9332531568877542 
160.00070350235194 0.8479116709183676 
161.00070350235194 1.040313807397959 
162.00070350235194 0.9901250000000007 
163.00070350235194 1.03006275510204 
164.00070350235194 0.9142173150510202 
165.00070350235194 1.0719505102040832 
166.00070350235194 1.0158573979591843 
167.00070350235194 1.127316485969386 
168.00070350235194 0.9837254464285711 
169.00070350235194 1.003844100765305 
170.00070350235194 0.9206090880102044 
171.00070350235194 0.8116036670918365 
172.00070350235194 0.7678929528061225 
173.00070350235194 0.697893590561224 
174.00070350235194 0.725297161989794 
175.00070350235194 0.7438964285714272 
176.00070350235194 0.6441611926020411 
177.00070350235194 0.6516007653061222 
178.00070350235194 0.6692772640306113 
179.00070350235194 0.6183765306122444 
180.00070350235194 0.6462519451530617 
181.00070350235194 0.5301046556122446 
182.00070350235194 0.604299968112245 
183.00070350235194 0.5267340880102045 
184.00070350235194 0.518472480867347 
185.00070350235194 0.5171829400510206 
186.00070350235194 0.5004281568877551 
187.00070350235194 0.49907755102040813 
188.00070350235194 0.4983472895408163 
189.00070350235194 0.49879174107142854 
190.00070350235194 0.4971268176020408 
191.00070350235194 0.49545028698979593 
192.00070350235194 0.49358405612244893 
193.00070350235194 0.49429276147959184 
194.00070350235194 0.4929481823979592 
195.00070350235194 0.4919293048469388 
196.00070350235194 0.48964381377551025 
197.00070350235194 0.48991227678571425 
198.00070350235194 0.49033759566326524 
199.00070350235194 0.49181281887755096 
200.00070350235194 0.4936483418367346 
201.00070350235194 0.4958674107142857 
202.00070350235194 0.49767353316326535 
203.00070350235194 0.4983507653061225 
204.00070350235194 0.4981032206632653 
205.00070350235194 0.4985855548469387 
206.00070350235194 0.499519387755102 
207.00070350235194 0.4997738839285714 
208.00070350235194 0.4999646045918368 
209.00070350235194 0.5000213010204082 
210.00070350235194 0.5012960778061224 
211.00070350235194 0.5016472576530612 
212.00070350235194 0.5024004145408163 
213.00070350235194 0.5028595982142857 
214.00070350235194 0.5035432716836734 
215.00070350235194 0.503734693877551 
216.00070350235194 0.5039632653061225 
217.00070350235194 0.5041 
218.00070350235194 0.5041 
219.00070350235194 0.5041 
220.00070350235194 0.5041 
221.00070350235194 0.5041 
222.00070350235194 0.5041 
223.00070350235194 0.5041 
224.00070350235194 0.5041 
225.00070350235194 0.5041 
226.00070350235194 0.5041 
227.00070350235194 0.5041 
228.00070350235194 0.5041 
229.00070350235194 0.5041 
230.00070350235194 0.5041 
231.00070350235194 0.5041 
232.00070350235194 0.5041 
233.00070350235194 0.5041 
234.00070350235194 0.5041 
235.00070350235194 0.5041 
236.00070350235194 0.5041 
237.00070350235194 0.5041 
238.00070350235194 0.5041 
239.00070350235194 0.5041 
240.00070350235194 0.5041 
241.00070350235194 0.5041 
242.00070350235194 0.5041 
243.00070350235194 0.5041 
244.00070350235194 0.5041 
245.00070350235194 0.5041 
246.00070350235194 0.5041 
247.00070350235194 0.5041 
248.00070350235194 0.5041 
249.00070350235194 0.5041 
250.00070350235194 0.5041 
251.00070350235194 0.5041 
252.00070350235194 0.5041 
253.00070350235194 0.5041 
254.00070350235194 0.5041 
255.00070350235194 0.5041 
256.00070350235194 0.5041 
257.00070350235194 0.5041 
258.00070350235194 0.5041 
259.00070350235194 0.5041 
260.00070350235194 0.5041 
261.00070350235194 0.5041 
262.00070350235194 0.5041 
263.00070350235194 0.5041 
264.00070350235194 0.5041 
265.00070350235194 0.5041 
266.00070350235194 0.5041 
267.00070350235194 0.5041 
268.00070350235194 0.5041 
269.00070350235194 0.5041 
270.00070350235194 0.5041 
271.00070350235194 0.5041 
272.00070350235194 0.5041 
273.00070350235194 0.5041 
274.00070350235194 0.5041 
275.00070350235194 0.5041 
276.00070350235194 0.5041 
277.00070350235194 0.5041 
278.00070350235194 0.5041 
279.00070350235194 0.5041 
#####################################################################
# End of data export. Simulation finished at: 2017-05-23T04:09+0000 #
#####################################################################
