#####################################################################
# Alchemist log file - simulation started at: 2017-05-21T08:27+0000 #
#####################################################################
# random = 2.0, targets = 10.0, density = 2.519842099789746, gridShift = 0.0, perturbation = 0.5, connfactor = 0.5
#
# The columns have the following meaning: 
# time se[Mean] 
0.0 NaN 
1.0021051854459069 NaN 
2.002105185445907 0.9993425605536332 
3.002105185445907 0.9991717128027682 
4.002105185445907 0.9950735294117647 
5.002105185445907 0.9924005190311419 
6.002105185445907 0.9879779411764705 
7.002105185445907 0.9824459342560554 
8.002105185445906 0.9820436851211073 
9.002105185445906 0.975988321799308 
10.002105185445906 0.9722015570934256 
11.002105185445906 0.975836937716263 
12.002105185445906 0.9711115916955018 
13.002105185445906 0.9672102076124568 
14.002105185445906 0.9689078719723183 
15.002105185445906 0.9648745674740484 
16.002105185445906 0.9710618512110727 
17.002105185445906 0.96814446366782 
18.002105185445906 0.9632201557093426 
19.002105185445906 0.953044982698962 
20.002105185445906 0.9321734429065743 
21.002105185445906 0.9209450692041521 
22.002105185445906 0.8896237024221455 
23.002105185445906 0.8581423010380623 
24.002105185445906 0.8194766435986162 
25.002105185445906 0.7697577854671281 
26.002105185445906 0.7293036332179931 
27.002105185445906 0.6870134083044984 
28.002105185445906 0.6392776816608995 
29.002105185445906 0.5863235294117648 
30.002105185445906 0.532417820069204 
31.002105185445906 0.4944074394463669 
32.002105185445906 0.48767301038062294 
33.002105185445906 0.44783088235294105 
34.002105185445906 0.42851211072664347 
35.002105185445906 0.41463884083044983 
36.002105185445906 0.3723853806228373 
37.002105185445906 0.3858217993079584 
38.002105185445906 0.3549956747404845 
39.002105185445906 0.34233347750865045 
40.002105185445906 0.3560121107266437 
41.002105185445906 0.3151989619377162 
42.002105185445906 0.3116003460207612 
43.002105185445906 0.29909169550173004 
44.002105185445906 0.28540657439446365 
45.002105185445906 0.2884515570934256 
46.002105185445906 0.2881574394463668 
47.002105185445906 0.31121972318339103 
48.002105185445906 0.3339878892733563 
49.002105185445906 0.3534429065743945 
50.002105185445906 0.369325259515571 
51.002105185445906 0.4317301038062284 
52.002105185445906 0.4281574394463668 
53.002105185445906 0.48251730103806234 
54.002105185445906 0.5298010380622837 
55.002105185445906 0.5175 
56.002105185445906 0.49756055363321816 
57.002105185445906 0.5480536332179929 
58.002105185445906 0.6127854671280278 
59.002105185445906 0.6047837370242213 
60.002105185445906 0.5633044982698961 
61.002105185445906 0.5693858131487889 
62.002105185445906 0.570190311418685 
63.002105185445906 0.6270328719723184 
64.00210518544591 0.5327854671280274 
65.00210518544591 0.5556660899653977 
66.00210518544591 0.5909948096885813 
67.00210518544591 0.6032093425605538 
68.00210518544591 0.47033737024221456 
69.00210518544591 0.5825778546712803 
70.00210518544591 0.7144290657439447 
71.00210518544591 0.5705709342560553 
72.00210518544591 0.6108564013840833 
73.00210518544591 0.398719723183391 
74.00210518544591 0.44064013840830457 
75.00210518544591 0.48501730103806223 
76.00210518544591 0.2054584775086503 
77.00210518544591 0.17876297577854655 
78.00210518544591 0.155596885813149 
79.00210518544591 0.0630709342560555 
80.00210518544591 0.03929065743944637 
81.00210518544591 0.03959342560553633 
82.00210518544591 0.03993944636678201 
83.00210518544591 0.04 
84.00210518544591 0.04 
85.00210518544591 0.04 
86.00210518544591 0.04 
87.00210518544591 0.04 
88.00210518544591 0.04 
89.00210518544591 0.04 
90.00210518544591 0.04 
91.00210518544591 0.04 
92.00210518544591 0.04 
93.00210518544591 0.04 
94.00210518544591 0.04 
95.00210518544591 0.04 
96.00210518544591 0.04 
97.00210518544591 0.04 
98.00210518544591 0.04 
99.00210518544591 0.04 
100.00210518544591 0.04 
101.00210518544591 0.04 
102.00210518544591 0.04 
103.00210518544591 0.04 
104.00210518544591 0.04 
105.00210518544591 0.04 
106.00210518544591 0.04 
107.00210518544591 0.04 
108.00210518544591 0.04 
109.00210518544591 0.04 
110.00210518544591 0.04 
111.00210518544591 0.04 
112.00210518544591 0.04 
113.00210518544591 0.04 
114.00210518544591 0.04 
115.00210518544591 0.04 
116.00210518544591 0.04 
117.00210518544591 0.04 
118.00210518544591 0.04 
#####################################################################
# End of data export. Simulation finished at: 2017-05-21T08:29+0000 #
#####################################################################
