#####################################################################
# Alchemist log file - simulation started at: 2017-05-22T15:47+0000 #
#####################################################################
# random = 4.0, targets = 3.1622776601683795, density = 10.026386447354522, gridShift = 1.0, perturbation = 0.5, connfactor = 2.0
#
# The columns have the following meaning: 
# time se[Mean] 
0.0 NaN 
1.0004793365590676 NaN 
2.0004793365590676 1.015949538682726 
3.0004793365590676 1.0273010266408313 
4.000479336559067 1.0419678234368517 
5.000479336559067 1.0509829622861646 
6.000479336559067 1.0476236928801923 
7.000479336559067 1.0239472173229738 
8.000479336559067 1.0343206211171545 
9.000479336559067 1.0342910812106891 
10.000479336559067 1.0432669753029171 
11.000479336559067 1.079933823810543 
12.000479336559067 1.0820540754859178 
13.000479336559067 1.1302332032861697 
14.000479336559067 1.1590533931057079 
15.000479336559067 1.1697593241338948 
16.000479336559067 1.1336572982498445 
17.000479336559067 1.1457922367137747 
18.000479336559067 1.114609665466047 
19.000479336559067 1.0807905650103418 
20.000479336559067 1.0132154504869937 
21.000479336559067 0.967307160082533 
22.000479336559067 0.9379045769054389 
23.000479336559067 0.9249434218553506 
24.000479336559067 0.914329192779017 
25.000479336559067 0.9146362461117219 
26.000479336559067 0.9128151290901263 
27.000479336559067 0.9076520561467065 
28.000479336559067 0.911256092653645 
29.000479336559067 0.9214746415761688 
30.000479336559067 0.9155451375445153 
31.000479336559067 0.9273220522598272 
32.00047933655907 0.929531168943681 
33.00047933655907 0.9289938059883236 
34.00047933655907 0.9274205187704586 
35.00047933655907 0.9365918276146509 
36.00047933655907 0.9411877244675755 
37.00047933655907 0.9310303497996443 
38.00047933655907 0.9442628839933109 
39.00047933655907 0.9475652256826198 
40.00047933655907 0.9334110360536311 
41.00047933655907 0.9316124561923498 
42.00047933655907 0.9348520073355802 
43.00047933655907 0.9255683245106389 
44.00047933655907 0.914199052019916 
45.00047933655907 0.9038061458285935 
46.00047933655907 0.9068788835802408 
47.00047933655907 0.8898158120123152 
48.00047933655907 0.8608000184981486 
49.00047933655907 0.8429311695118669 
50.00047933655907 0.8496382576690766 
51.00047933655907 0.8015341663669143 
52.00047933655907 0.8034685750774605 
53.00047933655907 0.7837262272836862 
54.00047933655907 0.7630509029124873 
55.00047933655907 0.7591527243422688 
56.00047933655907 0.7438192554785565 
57.00047933655907 0.7636389954799991 
58.00047933655907 0.7385337839402821 
59.00047933655907 0.7562598492676641 
60.00047933655907 0.784000471870973 
61.00047933655907 0.7902092932548225 
62.00047933655907 0.7914475981987226 
63.00047933655907 0.8763703994190389 
64.00047933655907 1.0791598886522367 
65.00047933655907 1.049148556857575 
66.00047933655907 1.2673868908997692 
67.00047933655907 1.5252506053549346 
68.00047933655907 1.5786636852038158 
69.00047933655907 1.5614963246634195 
70.00047933655907 1.870266899557847 
71.00047933655907 2.0722589376519616 
72.00047933655907 1.9196721715704643 
73.00047933655907 2.3069527169004878 
74.00047933655907 2.5847275424256715 
75.00047933655907 2.4424272325896292 
76.00047933655907 2.490318212911304 
77.00047933655907 2.819989938849696 
78.00047933655907 2.834024521133355 
79.00047933655907 2.6778922846991398 
80.00047933655907 2.851059777013584 
81.00047933655907 3.125882751279915 
82.00047933655907 3.0449888779861958 
83.00047933655907 2.765919951027068 
84.00047933655907 2.6450411388563775 
85.00047933655907 3.0711051610058853 
86.00047933655907 2.3347902074775155 
87.00047933655907 3.0036299280075154 
88.00047933655907 3.0020130346526495 
89.00047933655907 2.52020140868304 
90.00047933655907 2.9371964624778677 
91.00047933655907 2.7212865878331023 
92.00047933655907 2.523448758336925 
93.00047933655907 3.022737154262949 
94.00047933655907 2.516175181272499 
95.00047933655907 2.349365705156492 
96.00047933655907 2.1523196739375527 
97.00047933655907 2.4273890285127155 
98.00047933655907 2.1934120637453853 
99.00047933655907 2.103744951671198 
100.00047933655907 1.7872896781204957 
101.00047933655907 1.8114867336274274 
102.00047933655907 1.9262776012824796 
103.00047933655907 1.7578999055742526 
104.00047933655907 1.4329878075544005 
105.00047933655907 1.476020213334284 
106.00047933655907 1.245454524583385 
107.00047933655907 0.96294993996696 
108.00047933655907 1.1827191198627292 
109.00047933655907 1.0700767238072513 
110.00047933655907 0.9538482216426452 
111.00047933655907 1.0115997343334404 
112.00047933655907 0.8892702370595428 
113.00047933655907 0.8196965668543017 
114.00047933655907 0.9846092459055638 
115.00047933655907 0.7356442607762612 
116.00047933655907 0.7337356439550774 
117.00047933655907 0.6458445633685566 
118.00047933655907 0.7618742083241692 
119.00047933655907 0.6858686391688216 
120.00047933655907 0.7990596633490699 
121.00047933655907 0.9821992318615199 
122.00047933655907 1.0848511251362187 
123.00047933655907 1.460661203569986 
124.00047933655907 1.7287166348456835 
125.00047933655907 1.7751605139945634 
126.00047933655907 1.9074118449751236 
127.00047933655907 2.1977022899479373 
128.00047933655907 2.388966118878795 
129.00047933655907 2.3745615667545903 
130.00047933655907 2.837925714656522 
131.00047933655907 3.0256429848053186 
132.00047933655907 2.881499520616384 
133.00047933655907 3.106608095559885 
134.00047933655907 3.3950170663261408 
135.00047933655907 3.3538550446963784 
136.00047933655907 3.26981867315742 
137.00047933655907 3.5081465033251567 
138.00047933655907 3.8657051111551555 
139.00047933655907 3.6043196137031583 
140.00047933655907 3.0385586951248786 
141.00047933655907 3.1686071749923057 
142.00047933655907 3.219265937725442 
143.00047933655907 2.602373181436154 
144.00047933655907 3.359492959726893 
145.00047933655907 3.081528615171319 
146.00047933655907 2.857652636243669 
147.00047933655907 3.2040950144102682 
148.00047933655907 2.8450424303380006 
149.00047933655907 3.084679436144955 
150.00047933655907 3.2520133160103972 
151.00047933655907 2.481994000033033 
152.00047933655907 2.283883328255713 
153.00047933655907 2.1669858232633183 
154.00047933655907 2.432384752819893 
155.00047933655907 2.0099538209909507 
156.00047933655907 1.7227819433938483 
157.00047933655907 1.5914710996020582 
158.00047933655907 1.668165488045819 
159.00047933655907 1.6169478782113598 
160.00047933655907 1.328783506441299 
161.00047933655907 1.2457341303950293 
162.00047933655907 1.1950758556236722 
163.00047933655907 0.7995241275121814 
164.00047933655907 0.8533683864975066 
165.00047933655907 0.7994290040346874 
166.00047933655907 0.6943186597392865 
167.00047933655907 0.6435048132914876 
168.00047933655907 0.5595444119376508 
169.00047933655907 0.565858020814801 
170.00047933655907 0.4856723566073095 
171.00047933655907 0.5141699289649638 
172.00047933655907 0.45934094899413325 
173.00047933655907 0.461192339546777 
174.00047933655907 0.4624478896676572 
175.00047933655907 0.4630542386572149 
176.00047933655907 0.4632992071288322 
177.00047933655907 0.462969352284274 
178.00047933655907 0.46403329463309556 
179.00047933655907 0.4649589899094175 
180.00047933655907 0.4641610331478013 
181.00047933655907 0.46641665636015023 
182.00047933655907 0.466086801515592 
183.00047933655907 0.46621454003029766 
184.00047933655907 0.46668264194735565 
185.00047933655907 0.4667465112047085 
186.00047933655907 0.4672784823791193 
187.00047933655907 0.4670124967919139 
188.00047933655907 0.4675444679663247 
189.00047933655907 0.4672784823791193 
190.00047933655907 0.4675444679663247 
191.00047933655907 0.4675444679663247 
192.00047933655907 0.4675444679663247 
193.00047933655907 0.4675444679663247 
194.00047933655907 0.4675444679663247 
195.00047933655907 0.4675444679663247 
196.00047933655907 0.4675444679663247 
197.00047933655907 0.4675444679663247 
198.00047933655907 0.4675444679663247 
199.00047933655907 0.4675444679663247 
200.00047933655907 0.4675444679663247 
201.00047933655907 0.4675444679663247 
202.00047933655907 0.4675444679663247 
203.00047933655907 0.4675444679663247 
204.00047933655907 0.4675444679663247 
205.00047933655907 0.4675444679663247 
206.00047933655907 0.4675444679663247 
207.00047933655907 0.4675444679663247 
208.00047933655907 0.4675444679663247 
209.00047933655907 0.4675444679663247 
210.00047933655907 0.4675444679663247 
211.00047933655907 0.4675444679663247 
212.00047933655907 0.4675444679663247 
213.00047933655907 0.4675444679663247 
214.00047933655907 0.4675444679663247 
215.00047933655907 0.4675444679663247 
216.00047933655907 0.4675444679663247 
217.00047933655907 0.4675444679663247 
218.00047933655907 0.4675444679663247 
219.00047933655907 0.4675444679663247 
220.00047933655907 0.4675444679663247 
221.00047933655907 0.4675444679663247 
222.00047933655907 0.4675444679663247 
223.00047933655907 0.4675444679663247 
224.00047933655907 0.4675444679663247 
225.00047933655907 0.4675444679663247 
226.00047933655907 0.4675444679663247 
227.00047933655907 0.4675444679663247 
228.00047933655907 0.4675444679663247 
229.00047933655907 0.4675444679663247 
230.00047933655907 0.4675444679663247 
231.00047933655907 0.4675444679663247 
232.00047933655907 0.4675444679663247 
233.00047933655907 0.4675444679663247 
234.00047933655907 0.4675444679663247 
235.00047933655907 0.4675444679663247 
236.00047933655907 0.4675444679663247 
237.00047933655907 0.4675444679663247 
238.00047933655907 0.4675444679663247 
239.00047933655907 0.4675444679663247 
240.00047933655907 0.4675444679663247 
241.00047933655907 0.4675444679663247 
242.00047933655907 0.4675444679663247 
243.00047933655907 0.4675444679663247 
244.00047933655907 0.4675444679663247 
245.00047933655907 0.4675444679663247 
246.00047933655907 0.4675444679663247 
247.00047933655907 0.4675444679663247 
248.00047933655907 0.4675444679663247 
249.00047933655907 0.4675444679663247 
250.00047933655907 0.4675444679663247 
251.00047933655907 0.4675444679663247 
252.00047933655907 0.4675444679663247 
253.00047933655907 0.4675444679663247 
254.00047933655907 0.4675444679663247 
255.00047933655907 0.4675444679663247 
256.00047933655907 0.4675444679663247 
257.00047933655907 0.4675444679663247 
258.00047933655907 0.4675444679663247 
#####################################################################
# End of data export. Simulation finished at: 2017-05-22T15:55+0000 #
#####################################################################
