#####################################################################
# Alchemist log file - simulation started at: 2017-05-24T11:25+0000 #
#####################################################################
# random = 14.0, targets = 100.0, density = 0.04, gridShift = 0.0, perturbation = 0.5, connfactor = 1.5
#
# The columns have the following meaning: 
# time se[Mean] 
0.0 NaN 
1.0090008223538587 NaN 
2.0090008223538587 0.9572999999999999 
3.0090008223538587 1.0395453559027776 
4.009000822353858 1.0970469184027778 
5.009000822353858 1.2402095920138887 
6.009000822353858 1.150950347222222 
7.009000822353858 1.0856532118055553 
8.009000822353858 1.031664973958333 
9.009000822353858 1.0407331163194442 
10.009000822353858 0.9677121961805554 
11.009000822353858 1.194232986111111 
12.009000822353858 1.0853233506944444 
13.009000822353858 1.0171647135416664 
14.009000822353858 1.7110491319444445 
15.009000822353858 2.4472270833333334 
16.00900082235386 2.6462817708333333 
17.00900082235386 2.111027734375 
18.00900082235386 3.9007674479166665 
19.00900082235386 3.7925984374999997 
20.00900082235386 4.078820269097222 
21.00900082235386 4.330499045138888 
22.00900082235386 3.8450618489583324 
23.00900082235386 2.589502039930555 
24.00900082235386 2.5061136718749992 
25.00900082235386 2.4435320312499993 
26.00900082235386 2.4024999999999994 
27.00900082235386 2.4024999999999994 
28.00900082235386 2.4024999999999994 
29.00900082235386 2.4024999999999994 
30.00900082235386 2.4024999999999994 
31.00900082235386 2.4024999999999994 
#####################################################################
# End of data export. Simulation finished at: 2017-05-24T11:25+0000 #
#####################################################################
