#####################################################################
# Alchemist log file - simulation started at: 2017-05-25T10:51+0000 #
#####################################################################
# random = 17.0, targets = 100.0, density = 3.5589026259761294, gridShift = 1.0, perturbation = 0.0, connfactor = 0.5
#
# The columns have the following meaning: 
# time se[Mean] 
0.0 NaN 
1.0003034458253823 NaN 
2.0003034458253826 1.0004797846889952 
3.0003034458253826 1.0004828548644338 
4.0003034458253826 1.0000222022860181 
5.0003034458253826 0.9980426302498671 
6.0003034458253826 0.9937046185539606 
7.0003034458253826 0.990439619883041 
8.000303445825383 0.9861980063795853 
9.000303445825383 0.9814873803827752 
10.000303445825383 0.9774384635832004 
11.000303445825383 0.972378841041999 
12.000303445825383 0.9678261828814461 
13.000303445825383 0.9631353934077619 
14.000303445825383 0.9543513091440723 
15.000303445825383 0.9491997607655502 
16.00030344582538 0.9422581206804892 
17.00030344582538 0.9357166002126529 
18.00030344582538 0.9311189726209463 
19.00030344582538 0.9194094497607656 
20.00030344582538 0.9156614367357788 
21.00030344582538 0.9049132575757576 
22.00030344582538 0.899190995481127 
23.00030344582538 0.8949243886230728 
24.00030344582538 0.890088456937799 
25.00030344582538 0.8870838383838383 
26.00030344582538 0.8846941520467836 
27.00030344582538 0.8860647328548644 
28.00030344582538 0.8841757974481658 
29.00030344582538 0.8866378787878788 
30.00030344582538 0.8871966905901116 
31.00030344582538 0.8893245813397128 
32.00030344582538 0.8881100478468898 
33.00030344582538 0.8870745348219031 
34.00030344582538 0.8894395600744285 
35.00030344582538 0.8893691055289739 
36.00030344582538 0.887451654704944 
37.00030344582538 0.8872872076023391 
38.00030344582538 0.8850367224880383 
39.00030344582538 0.8836584396597553 
40.00030344582538 0.8823908293460924 
41.00030344582538 0.8747305156831472 
42.00030344582538 0.873190975544923 
43.00030344582538 0.8654658094098883 
44.00030344582538 0.8662500598086125 
45.00030344582538 0.8621927698032961 
46.00030344582538 0.8580223351940457 
47.00030344582538 0.8617394869750132 
48.00030344582538 0.849614413875598 
49.00030344582538 0.8459394005847953 
50.00030344582538 0.8509480994152047 
51.00030344582538 0.8397135566188197 
52.00030344582538 0.8363098285486443 
53.00030344582538 0.838412048112706 
54.00030344582538 0.8285058479532164 
55.00030344582538 0.8247388357256779 
56.00030344582538 0.8219108851674642 
57.00030344582538 0.8057696570972886 
58.00030344582538 0.8034334330143541 
59.00030344582538 0.7874894205209995 
60.00030344582538 0.7867751794258374 
61.00030344582538 0.7712448298777246 
62.00030344582538 0.7718217902711324 
63.00030344582538 0.7639801236044658 
64.00030344582538 0.7484287347155768 
65.00030344582538 0.744072826953748 
66.00030344582538 0.7302290271132378 
67.00030344582538 0.7217229864433812 
68.00030344582538 0.712246677299309 
69.00030344582538 0.7091067251461989 
70.00030344582538 0.7001087719298246 
71.00030344582538 0.6878012759170655 
72.00030344582538 0.6744362573099415 
73.00030344582538 0.663240071770335 
74.00030344582538 0.6530592503987239 
75.00030344582538 0.6405962918660287 
76.00030344582538 0.6337161881977672 
77.00030344582538 0.6223061602870813 
78.00030344582538 0.626258971291866 
79.00030344582538 0.6122707402977141 
80.00030344582538 0.6062642743221691 
81.00030344582538 0.5937958665603403 
82.00030344582538 0.585949215842637 
83.00030344582538 0.5657091241360979 
84.00030344582538 0.5518653575225944 
85.00030344582538 0.5501576355661882 
86.00030344582538 0.5450242291334396 
87.00030344582538 0.5258122807017545 
88.00030344582538 0.5193874667729932 
89.00030344582538 0.513741460659224 
90.00030344582538 0.49393167198298793 
91.00030344582538 0.48714641812865506 
92.00030344582538 0.48118176501860727 
93.00030344582538 0.47457203615098364 
94.00030344582538 0.4771294059011165 
95.00030344582538 0.46835289074960135 
96.00030344582538 0.4634525252525254 
97.00030344582538 0.4547357921318448 
98.00030344582538 0.44721973684210536 
99.00030344582538 0.43598581871345043 
100.00030344582538 0.43778229000531643 
101.00030344582538 0.4346792131844765 
102.00030344582538 0.4342555754917598 
103.00030344582538 0.4315329213184477 
104.00030344582538 0.42646384237107926 
105.00030344582538 0.42408484848484856 
106.00030344582538 0.41991039340776193 
107.00030344582538 0.41588775917065407 
108.00030344582538 0.41368641015417346 
109.00030344582538 0.4115228402445508 
110.00030344582538 0.40947434210526323 
111.00030344582538 0.4105286881977672 
112.00030344582538 0.4073657961190857 
113.00030344582538 0.4075780170122277 
114.00030344582538 0.4051762094630517 
115.00030344582538 0.4036205276448699 
116.00030344582538 0.4013811071238703 
117.00030344582538 0.4012143141945774 
118.00030344582538 0.3994709197235514 
119.00030344582538 0.3999025053163212 
120.00030344582538 0.39875855263157906 
121.00030344582538 0.3988483519404573 
122.00030344582538 0.39788565257841585 
123.00030344582538 0.39771622142477414 
124.00030344582538 0.3976609183944711 
125.00030344582538 0.3971278176501862 
126.00030344582538 0.39691351674641157 
127.00030344582538 0.39707778442317926 
128.00030344582538 0.39700127591706547 
129.00030344582538 0.39692014885699106 
130.00030344582538 0.3969100744284956 
131.00030344582538 0.3969000000000001 
132.00030344582538 0.3969000000000001 
133.00030344582538 0.3969000000000001 
134.00030344582538 0.3969000000000001 
135.00030344582538 0.3969000000000001 
136.00030344582538 0.3969000000000001 
137.00030344582538 0.3969000000000001 
138.00030344582538 0.3969000000000001 
139.00030344582538 0.3969000000000001 
140.00030344582538 0.3969000000000001 
141.00030344582538 0.3969000000000001 
142.00030344582538 0.3969000000000001 
143.00030344582538 0.3969000000000001 
144.00030344582538 0.3969000000000001 
145.00030344582538 0.3969000000000001 
146.00030344582538 0.3969000000000001 
147.00030344582538 0.3969000000000001 
148.00030344582538 0.3969000000000001 
149.00030344582538 0.3969000000000001 
150.00030344582538 0.3969000000000001 
151.00030344582538 0.3969000000000001 
152.00030344582538 0.3969000000000001 
153.00030344582538 0.3969000000000001 
154.00030344582538 0.3969000000000001 
155.00030344582538 0.3969000000000001 
156.00030344582538 0.3969000000000001 
157.00030344582538 0.3969000000000001 
158.00030344582538 0.3969000000000001 
159.00030344582538 0.3969000000000001 
160.00030344582538 0.3969000000000001 
161.00030344582538 0.3969000000000001 
162.00030344582538 0.3969000000000001 
163.00030344582538 0.3969000000000001 
164.00030344582538 0.3969000000000001 
165.00030344582538 0.3969000000000001 
166.00030344582538 0.3969000000000001 
167.00030344582538 0.3969000000000001 
168.00030344582538 0.3969000000000001 
169.00030344582538 0.3969000000000001 
170.00030344582538 0.3969000000000001 
171.00030344582538 0.3969000000000001 
#####################################################################
# End of data export. Simulation finished at: 2017-05-25T10:51+0000 #
#####################################################################
