#####################################################################
# Alchemist log file - simulation started at: 2017-05-24T19:57+0000 #
#####################################################################
# random = 7.0, targets = 10.0, density = 1.2632455339402642, gridShift = 1.0, perturbation = 0.5, connfactor = 0.25
#
# The columns have the following meaning: 
# time se[Mean] 
0.0 NaN 
1.001616958347866 NaN 
2.0016169583478662 1.0 
3.0016169583478662 1.0 
4.001616958347866 0.9967261904761905 
5.001616958347866 0.9864434523809524 
6.001616958347866 0.9865773809523809 
7.001616958347866 0.9618303571428571 
8.001616958347867 0.9728869047619048 
9.001616958347867 0.9596428571428571 
10.001616958347867 0.9608482142857143 
11.001616958347867 0.9607589285714285 
12.001616958347867 0.955625 
13.001616958347867 0.9460863095238096 
14.001616958347867 0.945014880952381 
15.001616958347867 0.9483779761904763 
16.001616958347867 0.9466964285714287 
17.001616958347867 0.9529910714285714 
18.001616958347867 0.950669642857143 
19.001616958347867 0.9573958333333334 
20.001616958347867 0.9653720238095238 
21.001616958347867 0.9733184523809524 
22.001616958347867 0.9710565476190476 
23.001616958347867 0.9745684523809524 
24.001616958347867 0.9785119047619047 
25.001616958347867 0.9718452380952382 
26.001616958347867 0.9652976190476191 
27.001616958347867 0.9651488095238095 
28.001616958347867 0.9528869047619049 
29.001616958347867 0.9390624999999999 
30.001616958347867 0.9233779761904762 
31.001616958347867 0.9029017857142857 
32.00161695834787 0.8787499999999999 
33.00161695834787 0.8573958333333334 
34.00161695834787 0.8261755952380953 
35.00161695834787 0.806220238095238 
36.00161695834787 0.7894642857142857 
37.00161695834787 0.758095238095238 
38.00161695834787 0.7326934523809524 
39.00161695834787 0.7284077380952381 
40.00161695834787 0.7137053571428572 
41.00161695834787 0.6895238095238095 
42.00161695834787 0.6896130952380952 
43.00161695834787 0.6893601190476191 
44.00161695834787 0.6618154761904762 
45.00161695834787 0.6518005952380953 
46.00161695834787 0.6557738095238095 
47.00161695834787 0.6323511904761905 
48.00161695834787 0.6305505952380953 
49.00161695834787 0.6346577380952381 
50.00161695834787 0.6412351190476191 
51.00161695834787 0.6483928571428572 
52.00161695834787 0.6350446428571429 
53.00161695834787 0.6430803571428572 
54.00161695834787 0.6385119047619048 
55.00161695834787 0.6238541666666667 
56.00161695834787 0.6279910714285715 
57.00161695834787 0.6205059523809524 
58.00161695834787 0.6256101190476191 
59.00161695834787 0.6178422619047619 
60.00161695834787 0.6317113095238095 
61.00161695834787 0.6286458333333333 
62.00161695834787 0.6265773809523809 
63.00161695834787 0.6369642857142858 
64.00161695834787 0.6313690476190477 
65.00161695834787 0.6360119047619047 
66.00161695834787 0.6403571428571428 
67.00161695834787 0.6366666666666667 
68.00161695834787 0.64 
69.00161695834787 0.64 
70.00161695834787 0.64 
71.00161695834787 0.64 
72.00161695834787 0.64 
73.00161695834787 0.64 
74.00161695834787 0.64 
75.00161695834787 0.64 
76.00161695834787 0.64 
77.00161695834787 0.64 
78.00161695834787 0.64 
79.00161695834787 0.64 
80.00161695834787 0.64 
81.00161695834787 0.64 
82.00161695834787 0.64 
83.00161695834787 0.64 
84.00161695834787 0.64 
85.00161695834787 0.64 
86.00161695834787 0.64 
87.00161695834787 0.64 
88.00161695834787 0.64 
89.00161695834787 0.64 
#####################################################################
# End of data export. Simulation finished at: 2017-05-24T19:57+0000 #
#####################################################################
