#####################################################################
# Alchemist log file - simulation started at: 2017-05-25T03:06+0000 #
#####################################################################
# random = 16.0, targets = 100.0, density = 1.7841466528270753, gridShift = 0.0, perturbation = 0.0, connfactor = 0.1
#
# The columns have the following meaning: 
# time se[Mean] 
0.0 NaN 
1.0066017814354276 NaN 
2.0066017814354273 1.0 
3.0066017814354273 1.0 
4.006601781435427 1.0 
5.006601781435427 0.9998672222222222 
6.006601781435427 0.9993361111111111 
7.006601781435427 0.9992033333333333 
8.006601781435428 0.9982732222222223 
9.006601781435428 0.9985837777777777 
10.006601781435428 0.99761 
11.006601781435428 0.9977884444444445 
12.006601781435428 0.9973455555555556 
13.006601781435428 0.9972582222222223 
14.006601781435428 0.9965954444444445 
15.006601781435428 0.9956281111111112 
16.006601781435428 0.9934677777777777 
17.006601781435428 0.9928098888888889 
18.006601781435428 0.9904768888888889 
19.006601781435428 0.98995 
20.006601781435428 0.9882401111111111 
21.006601781435428 0.9873153333333333 
22.006601781435428 0.9865743333333333 
23.006601781435428 0.9857834444444444 
24.006601781435428 0.9850402222222222 
25.006601781435428 0.9836774444444445 
26.006601781435428 0.9846951111111111 
27.006601781435428 0.983243 
28.006601781435428 0.9841276666666666 
29.006601781435428 0.9825004444444445 
30.006601781435428 0.9850083333333334 
31.006601781435428 0.9842183333333333 
32.00660178143543 0.9859333333333333 
33.00660178143543 0.985451 
34.00660178143543 0.9866821111111111 
35.00660178143543 0.987477 
36.00660178143543 0.9888812222222222 
37.00660178143543 0.9898073333333334 
38.00660178143543 0.9917433333333333 
39.00660178143543 0.9931036666666667 
40.00660178143543 0.9943363333333334 
41.00660178143543 0.9963975555555555 
42.00660178143543 0.9974535555555556 
43.00660178143543 0.9986376666666666 
44.00660178143543 0.9989462222222222 
45.00660178143543 0.999824 
46.00660178143543 0.9998676666666667 
47.00660178143543 0.9990738888888889 
48.00660178143543 0.9984117777777778 
49.00660178143543 0.9977071111111111 
50.00660178143543 0.9964321111111111 
51.00660178143543 0.9941115555555555 
52.00660178143543 0.9914638888888889 
53.00660178143543 0.9883098888888889 
54.00660178143543 0.9859793333333333 
55.00660178143543 0.9808125555555556 
56.00660178143543 0.9757814444444445 
57.00660178143543 0.971075 
58.00660178143543 0.9660124444444445 
59.00660178143543 0.9603381111111111 
60.00660178143543 0.9581387777777778 
61.00660178143543 0.9506138888888889 
62.00660178143543 0.939537 
63.00660178143543 0.933402 
64.00660178143542 0.9348577777777778 
65.00660178143542 0.9294898888888888 
66.00660178143542 0.9244001111111111 
67.00660178143542 0.9226115555555555 
68.00660178143542 0.9186711111111111 
69.00660178143542 0.9178461111111111 
70.00660178143542 0.9195665555555556 
71.00660178143542 0.9218571111111111 
72.00660178143542 0.9230985555555555 
73.00660178143542 0.9217252222222222 
74.00660178143542 0.9207792222222222 
75.00660178143542 0.9224637777777778 
76.00660178143542 0.9196175555555556 
77.00660178143542 0.9193163333333333 
78.00660178143542 0.9196507777777777 
79.00660178143542 0.921346 
80.00660178143542 0.9193967777777777 
81.00660178143542 0.9196507777777777 
82.00660178143542 0.921473 
83.00660178143542 0.9216 
84.00660178143542 0.9216 
85.00660178143542 0.9216 
86.00660178143542 0.9216 
87.00660178143542 0.9216 
88.00660178143542 0.9216 
89.00660178143542 0.9216 
90.00660178143542 0.9216 
91.00660178143542 0.9216 
92.00660178143542 0.9216 
93.00660178143542 0.9216 
94.00660178143542 0.9216 
95.00660178143542 0.9216 
96.00660178143542 0.9216 
97.00660178143542 0.9216 
98.00660178143542 0.9216 
99.00660178143542 0.9216 
100.00660178143542 0.9216 
101.00660178143542 0.9216 
102.00660178143542 0.9216 
103.00660178143542 0.9216 
104.00660178143542 0.9216 
105.00660178143542 0.9216 
106.00660178143542 0.9216 
107.00660178143542 0.9216 
108.00660178143542 0.9216 
109.00660178143542 0.9216 
110.00660178143542 0.9216 
111.00660178143542 0.9216 
112.00660178143542 0.9216 
113.00660178143542 0.9216 
#####################################################################
# End of data export. Simulation finished at: 2017-05-25T03:06+0000 #
#####################################################################
