#####################################################################
# Alchemist log file - simulation started at: 2017-05-23T17:11+0000 #
#####################################################################
# random = 5.0, targets = 100.0, density = 0.11269076455391362, gridShift = 1.0, perturbation = 0.5, connfactor = 1.5
#
# The columns have the following meaning: 
# time se[Mean] 
0.0 NaN 
1.0052461206074068 NaN 
2.005246120607407 1.185819 
3.005246120607407 1.2640733333333334 
4.005246120607406 1.5284186666666668 
5.005246120607406 1.5499591111111113 
6.005246120607406 1.758164666666667 
7.005246120607406 1.6421071111111119 
8.005246120607406 1.5202620000000007 
9.005246120607406 1.567829222222223 
10.005246120607406 1.6105824444444454 
11.005246120607406 1.4273665555555566 
12.005246120607406 1.5602271111111123 
13.005246120607406 1.417638666666668 
14.005246120607406 1.452481555555557 
15.005246120607406 1.4712568888888904 
16.005246120607406 0.8737157777777788 
17.005246120607406 0.8954575555555567 
18.005246120607406 0.34885844444444514 
19.005246120607406 0.4536960000000007 
20.005246120607406 0.30838077777777845 
21.005246120607406 0.3786197777777785 
22.005246120607406 0.39835211111111185 
23.005246120607406 0.4032827777777785 
24.005246120607406 0.40960000000000074 
25.005246120607406 0.40960000000000074 
26.005246120607406 0.40960000000000074 
27.005246120607406 0.40960000000000074 
28.005246120607406 0.40960000000000074 
29.005246120607406 0.40960000000000074 
30.005246120607406 0.40960000000000074 
31.005246120607406 0.40960000000000074 
32.00524612060741 0.40960000000000074 
33.00524612060741 0.40960000000000074 
34.00524612060741 0.40960000000000074 
35.00524612060741 0.40960000000000074 
#####################################################################
# End of data export. Simulation finished at: 2017-05-23T17:11+0000 #
#####################################################################
