#####################################################################
# Alchemist log file - simulation started at: 2017-05-22T20:28+0000 #
#####################################################################
# random = 4.0, targets = 31.622776601683793, density = 0.3174802103936399, gridShift = 1.0, perturbation = 0.0, connfactor = 1.5
#
# The columns have the following meaning: 
# time se[Mean] 
0.0 NaN 
1.0048193674555734 NaN 
2.0048193674555734 1.0392203326015976 
3.0048193674555734 1.0385477664920337 
4.004819367455573 1.0938664354048169 
5.004819367455573 1.0386481766569529 
6.004819367455573 1.096715913324077 
7.004819367455573 1.0332622478091793 
8.004819367455573 1.1782739665274444 
9.004819367455573 1.2085008039196845 
10.004819367455573 1.2000311089645537 
11.004819367455573 1.1100834463788587 
12.004819367455573 1.21697674107535 
13.004819367455573 1.2632593756842827 
14.004819367455573 1.4107017926229082 
15.004819367455573 1.6818291595549404 
16.004819367455575 1.8131138982161608 
17.004819367455575 1.876218992638514 
18.004819367455575 1.9956579476745835 
19.004819367455575 1.8564377137796815 
20.004819367455575 1.837977810554222 
21.004819367455575 1.6214882599904197 
22.004819367455575 1.2713730553411526 
23.004819367455575 1.163388707045585 
24.004819367455575 1.0155711058738506 
25.004819367455575 0.8512364392402813 
26.004819367455575 0.7508535485009851 
27.004819367455575 0.590266616900795 
28.004819367455575 0.5716312934007668 
29.004819367455575 0.4893458871841633 
30.004819367455575 0.44315843983258124 
31.004819367455575 0.40974105716244896 
32.004819367455575 0.374946287500225 
33.004819367455575 0.3585948368237316 
34.004819367455575 0.3488682135735171 
35.004819367455575 0.3061067389061942 
36.004819367455575 0.2684707523407555 
37.004819367455575 0.2373162273175207 
38.004819367455575 0.20654231401776868 
39.004819367455575 0.18588429957286695 
40.004819367455575 0.17052185335098918 
41.004819367455575 0.15256700704951773 
42.004819367455575 0.15450031328377314 
43.004819367455575 0.14244650468403744 
44.004819367455575 0.14129218931285534 
45.004819367455575 0.13829843629299995 
46.004819367455575 0.13655569836577527 
47.004819367455575 0.1354499941057043 
48.004819367455575 0.1347802223433125 
49.004819367455575 0.1344377785952465 
50.004819367455575 0.13461903849487974 
51.004819367455575 0.13434627397261742 
52.004819367455575 0.13495552986199336 
53.004819367455575 0.13468276533973103 
54.004819367455575 0.1350889359326483 
55.004819367455575 0.1350889359326483 
56.004819367455575 0.1350889359326483 
57.004819367455575 0.1350889359326483 
58.004819367455575 0.1350889359326483 
59.004819367455575 0.1350889359326483 
60.004819367455575 0.1350889359326483 
61.004819367455575 0.1350889359326483 
62.004819367455575 0.1350889359326483 
63.004819367455575 0.1350889359326483 
64.00481936745558 0.1350889359326483 
65.00481936745558 0.1350889359326483 
#####################################################################
# End of data export. Simulation finished at: 2017-05-22T20:28+0000 #
#####################################################################
