#####################################################################
# Alchemist log file - simulation started at: 2017-05-20T14:29+0000 #
#####################################################################
# random = 1.0, targets = 3.1622776601683795, density = 20.0, gridShift = 0.0, perturbation = 0.0, connfactor = 1.0
#
# The columns have the following meaning: 
# time se[Mean] 
0.0 NaN 
1.0000417374280275 NaN 
2.0000417374280275 1.0 
3.0000417374280275 1.0 
4.0000417374280275 1.000023629489603 
5.0000417374280275 1.000004145668234 
6.0000417374280275 1.0012706022505282 
7.0000417374280275 1.0021519401825072 
8.000041737428027 1.0045194469198748 
9.000041737428027 1.004152931238845 
10.000041737428027 1.0074480848953247 
11.000041737428027 1.0063320243192884 
12.000041737428027 1.0081071192201752 
13.000041737428027 1.010397364104184 
14.000041737428027 1.0099746246753627 
15.000041737428027 1.0124275642903529 
16.000041737428027 1.0123800978911803 
17.000041737428027 1.014256171242791 
18.000041737428027 1.0116465654917928 
19.000041737428027 1.0121723216354601 
20.000041737428027 1.0121206754532426 
21.000041737428027 1.0136871644185415 
22.000041737428027 1.010097730414074 
23.000041737428027 1.0128246198184097 
24.000041737428027 1.0086525845729515 
25.000041737428027 1.0097888374276514 
26.000041737428027 1.008104840331643 
27.000041737428027 1.0063818926503016 
28.000041737428027 1.0047178804129897 
29.000041737428027 1.0088691361450624 
30.000041737428027 1.0071340109615694 
31.000041737428027 1.0072601902435019 
32.00004173742803 1.0085935279063492 
33.00004173742803 1.006548870419128 
34.00004173742803 1.004726084641696 
35.00004173742803 1.0067050355178087 
36.00004173742803 1.005238315508611 
37.00004173742803 1.004688239385819 
38.00004173742803 1.0057079511592875 
39.00004173742803 1.0035610374970976 
40.00004173742803 1.004241887524801 
41.00004173742803 1.0017336570966873 
42.00004173742803 1.0040752374881463 
43.00004173742803 1.0013995453112836 
44.00004173742803 1.0014726273815986 
45.00004173742803 1.0004330860868162 
46.00004173742803 1.0003632858900573 
47.00004173742803 0.9998571177329263 
48.00004173742803 1.000506168157131 
49.00004173742803 0.9998086151442868 
50.00004173742803 0.9999514974113605 
51.00004173742803 0.9999514974113605 
52.00004173742803 0.999902994822721 
53.00004173742803 0.9999514974113605 
54.00004173742803 0.9999514974113605 
55.00004173742803 0.9999514974113605 
56.00004173742803 1.0 
57.00004173742803 1.0 
58.00004173742803 1.0 
59.00004173742803 1.0 
60.00004173742803 1.0 
61.00004173742803 1.0 
62.00004173742803 1.0 
63.00004173742803 1.0 
64.00004173742803 1.0 
65.00004173742803 1.0 
66.00004173742803 1.0 
67.00004173742803 0.9999282306791075 
68.00004173742803 0.9994976147537529 
69.00004173742803 0.999354076111968 
70.00004173742803 0.999354076111968 
71.00004173742803 0.9989234601866133 
72.00004173742803 0.9984928442612586 
73.00004173742803 0.9976807713738999 
74.00004173742803 0.9968048056621831 
75.00004173742803 0.995439288581082 
76.00004173742803 0.9926408381861882 
77.00004173742803 0.9884857151665728 
78.00004173742803 0.9846630625403989 
79.00004173742803 0.9790361418190526 
80.00004173742803 0.9723176026337348 
81.00004173742803 0.9643371162020739 
82.00004173742803 0.9547057639054669 
83.00004173742803 0.9454406327621597 
84.00004173742803 0.9339161943644008 
85.00004173742803 0.9213882829869002 
86.00004173742803 0.9078250990261592 
87.00004173742803 0.8930697159332481 
88.00004173742803 0.8788412177434411 
89.00004173742803 0.8707894023211151 
90.00004173742803 0.87901820222005 
91.00004173742803 0.8705860074229372 
92.00004173742803 0.8523904578119642 
93.00004173742803 0.8520753691063535 
94.00004173742803 0.8271416609398178 
95.00004173742803 0.8125526049428082 
96.00004173742803 0.7789588252960059 
97.00004173742803 0.7491942711261657 
98.00004173742803 0.7445486492845659 
99.00004173742803 0.8186560356889199 
100.00004173742803 1.096977198103548 
101.00004173742803 1.4682736430133572 
102.00004173742803 1.6643412614875215 
103.00004173742803 1.83348375885525 
104.00004173742803 2.031343000999913 
105.00004173742803 2.2644240520486285 
106.00004173742803 2.3016489467159245 
107.00004173742803 2.14930384727633 
108.00004173742803 2.466249031619353 
109.00004173742803 2.4375668923412213 
110.00004173742803 2.3187881383470836 
111.00004173742803 2.1447058602998568 
112.00004173742803 2.168357152908538 
113.00004173742803 1.8397351014554826 
114.00004173742803 1.9629059343877169 
115.00004173742803 1.6991740132059334 
116.00004173742803 1.624359104310285 
117.00004173742803 1.3808513888950578 
118.00004173742803 1.33629987463749 
119.00004173742803 1.43775286017719 
120.00004173742803 1.2931766392740234 
121.00004173742803 1.2192472007542752 
122.00004173742803 1.0060873606107479 
123.00004173742803 1.0360885076541861 
124.00004173742803 0.9276710191674785 
125.00004173742803 0.8449562455232358 
126.00004173742803 0.921671880752357 
127.00004173742803 0.9637492539982389 
128.00004173742803 0.84702504695332 
129.00004173742803 0.8732129143669405 
130.00004173742803 0.7189654890308766 
131.00004173742803 0.6351632164298067 
132.00004173742803 0.5630947964722935 
133.00004173742803 0.4457726222909813 
134.00004173742803 0.3741251523158877 
135.00004173742803 0.3309469622563996 
136.00004173742803 0.11231086552484192 
137.00004173742803 0.20952688699687858 
138.00004173742803 0.04545745864771487 
139.00004173742803 0.0026334038989724207 
140.00004173742803 0.002654961009642232 
141.00004173742803 0.0026334038989724207 
142.00004173742803 0.0026334038989724207 
143.00004173742803 0.0026334038989724207 
144.00004173742803 0.0026334038989724207 
145.00004173742803 0.0026334038989724207 
146.00004173742803 0.0026334038989724207 
147.00004173742803 0.0026334038989724207 
148.00004173742803 0.0026334038989724207 
149.00004173742803 0.0026334038989724207 
150.00004173742803 0.0026334038989724207 
151.00004173742803 0.0026334038989724207 
152.00004173742803 0.0026334038989724207 
153.00004173742803 0.0026334038989724207 
154.00004173742803 0.0026334038989724207 
155.00004173742803 0.0026334038989724207 
156.00004173742803 0.0026334038989724207 
157.00004173742803 0.0026334038989724207 
158.00004173742803 0.0026334038989724207 
159.00004173742803 0.0026334038989724207 
160.00004173742803 0.0026334038989724207 
161.00004173742803 0.0026334038989724207 
162.00004173742803 0.0026334038989724207 
163.00004173742803 0.0026334038989724207 
164.00004173742803 0.0026334038989724207 
165.00004173742803 0.0026334038989724207 
166.00004173742803 0.0026334038989724207 
167.00004173742803 0.0026334038989724207 
168.00004173742803 0.0026334038989724207 
169.00004173742803 0.0026334038989724207 
170.00004173742803 0.0026334038989724207 
171.00004173742803 0.0026334038989724207 
172.00004173742803 0.0026334038989724207 
173.00004173742803 0.0026334038989724207 
174.00004173742803 0.0026334038989724207 
175.00004173742803 0.0026334038989724207 
176.00004173742803 0.0026334038989724207 
177.00004173742803 0.0026334038989724207 
178.00004173742803 0.0026334038989724207 
179.00004173742803 0.0026334038989724207 
180.00004173742803 0.0026334038989724207 
181.00004173742803 0.0026334038989724207 
182.00004173742803 0.0026334038989724207 
183.00004173742803 0.0026334038989724207 
184.00004173742803 0.0026334038989724207 
185.00004173742803 0.0026334038989724207 
186.00004173742803 0.0026334038989724207 
187.00004173742803 0.0026334038989724207 
188.00004173742803 0.0026334038989724207 
189.00004173742803 0.0026334038989724207 
190.00004173742803 0.0026334038989724207 
191.00004173742803 0.0026334038989724207 
192.00004173742803 0.0026334038989724207 
193.00004173742803 0.0026334038989724207 
194.00004173742803 0.0026334038989724207 
195.00004173742803 0.0026334038989724207 
196.00004173742803 0.0026334038989724207 
197.00004173742803 0.0026334038989724207 
198.00004173742803 0.0026334038989724207 
199.00004173742803 0.0026334038989724207 
200.00004173742803 0.0026334038989724207 
201.00004173742803 0.0026334038989724207 
202.00004173742803 0.0026334038989724207 
203.00004173742803 0.0026334038989724207 
204.00004173742803 0.0026334038989724207 
205.00004173742803 0.0026334038989724207 
206.00004173742803 0.0026334038989724207 
207.00004173742803 0.0026334038989724207 
208.00004173742803 0.0026334038989724207 
209.00004173742803 0.0026334038989724207 
210.00004173742803 0.0026334038989724207 
211.00004173742803 0.0026334038989724207 
212.00004173742803 0.0026334038989724207 
213.00004173742803 0.0026334038989724207 
214.00004173742803 0.0026334038989724207 
215.00004173742803 0.0026334038989724207 
216.00004173742803 0.0026334038989724207 
217.00004173742803 0.0026334038989724207 
218.00004173742803 0.0026334038989724207 
219.00004173742803 0.0026334038989724207 
220.00004173742803 0.0026334038989724207 
221.00004173742803 0.0026334038989724207 
222.00004173742803 0.0026334038989724207 
223.00004173742803 0.0026334038989724207 
224.00004173742803 0.0026334038989724207 
225.00004173742803 0.0026334038989724207 
226.00004173742803 0.0026334038989724207 
227.00004173742803 0.0026334038989724207 
228.00004173742803 0.0026334038989724207 
229.00004173742803 0.0026334038989724207 
230.00004173742803 0.0026334038989724207 
231.00004173742803 0.0026334038989724207 
232.00004173742803 0.0026334038989724207 
233.00004173742803 0.0026334038989724207 
234.00004173742803 0.0026334038989724207 
235.00004173742803 0.0026334038989724207 
236.00004173742803 0.0026334038989724207 
237.00004173742803 0.0026334038989724207 
238.00004173742803 0.0026334038989724207 
239.00004173742803 0.0026334038989724207 
240.00004173742803 0.0026334038989724207 
241.00004173742803 0.0026334038989724207 
242.00004173742803 0.0026334038989724207 
243.00004173742803 0.0026334038989724207 
244.00004173742803 0.0026334038989724207 
245.00004173742803 0.0026334038989724207 
#####################################################################
# End of data export. Simulation finished at: 2017-05-20T14:50+0000 #
#####################################################################
