#####################################################################
# Alchemist log file - simulation started at: 2017-05-20T10:31+0000 #
#####################################################################
# random = 1.0, targets = 1.0, density = 0.1591589639397027, gridShift = 0.0, perturbation = 0.5, connfactor = 0.75
#
# The columns have the following meaning: 
# time se[Mean] 
0.0 NaN 
1.016676366669265 NaN 
2.016676366669265 NaN 
3.016676366669265 0.9777777777777777 
4.016676366669265 0.9777777777777777 
5.016676366669265 0.9333333333333333 
6.016676366669265 0.8666666666666667 
7.016676366669265 0.9111111111111111 
8.016676366669266 0.8888888888888888 
9.016676366669266 0.9333333333333333 
10.016676366669266 0.9777777777777777 
11.016676366669266 1.0 
12.016676366669266 0.97 
13.016676366669266 1.011111111111111 
14.016676366669266 1.03 
15.016676366669266 1.1466666666666667 
16.016676366669266 0.6788888888888889 
17.016676366669266 1.18 
18.016676366669266 0.8811111111111111 
19.016676366669266 0.8166666666666665 
20.016676366669266 0.5877777777777777 
21.016676366669266 0.2933333333333334 
22.016676366669266 0.4300000000000001 
23.016676366669266 0.2911111111111111 
24.016676366669266 1.1666666666666663 
25.016676366669266 2.1333333333333324 
26.016676366669266 3.074444444444443 
27.016676366669266 0.08333333333333334 
28.016676366669266 6.045555555555554 
29.016676366669266 4.031111111111111 
30.016676366669266 4.02222222222222 
31.016676366669266 2.0044444444444434 
32.016676366669266 0.008888888888888882 
33.016676366669266 2.0044444444444434 
34.016676366669266 0.9999999999999994 
35.016676366669266 1.232595164407831E-32 
36.016676366669266 1.232595164407831E-32 
37.016676366669266 1.232595164407831E-32 
38.016676366669266 1.232595164407831E-32 
39.016676366669266 1.232595164407831E-32 
40.016676366669266 1.232595164407831E-32 
41.016676366669266 1.232595164407831E-32 
42.016676366669266 1.232595164407831E-32 
#####################################################################
# End of data export. Simulation finished at: 2017-05-20T10:31+0000 #
#####################################################################
