#####################################################################
# Alchemist log file - simulation started at: 2017-05-26T00:33+0000 #
#####################################################################
# random = 19.0, targets = 31.622776601683793, density = 0.04, gridShift = 0.0, perturbation = 0.0, connfactor = 2.0
#
# The columns have the following meaning: 
# time se[Mean] 
0.0 NaN 
1.029399693434633 NaN 
2.029399693434633 1.5721081077996257 
3.029399693434633 2.067329493585916 
4.029399693434633 5.159693460142605 
5.029399693434633 5.393227070665668 
6.029399693434633 17.715133656886206 
7.029399693434633 15.725579702059752 
8.029399693434634 15.525558045977933 
9.029399693434634 11.56990633034751 
10.029399693434634 4.507018504334987 
11.029399693434634 0.658412268567676 
12.029399693434634 0.03965507569569817 
13.029399693434634 0.018831943139945215 
14.029399693434634 0.00827246695026645 
15.029399693434634 0.00209100997679179 
16.029399693434634 3.8785069560481325E-4 
17.029399693434634 3.8785069560481325E-4 
18.029399693434634 3.8785069560481325E-4 
19.029399693434634 3.8785069560481325E-4 
20.029399693434634 3.8785069560481325E-4 
#####################################################################
# End of data export. Simulation finished at: 2017-05-26T00:33+0000 #
#####################################################################
