#####################################################################
# Alchemist log file - simulation started at: 2017-05-25T06:10+0000 #
#####################################################################
# random = 17.0, targets = 3.1622776601683795, density = 0.07978946395100113, gridShift = 1.0, perturbation = 0.0, connfactor = 0.75
#
# The columns have the following meaning: 
# time se[Mean] 
0.0 NaN 
1.0045647570182237 NaN 
2.0045647570182235 1.01109648108945 
3.0045647570182235 1.0 
4.0045647570182235 1.0366227766016838 
5.0045647570182235 1.0332894432683506 
6.0045647570182235 0.9500877801299658 
7.0045647570182235 0.9367690768182935 
8.004564757018223 0.8890644491488204 
9.004564757018223 0.846900747013242 
10.004564757018223 0.8823977824821537 
11.004564757018223 0.8513305614360254 
12.004564757018223 0.8302487103682362 
13.004564757018223 0.8014037115443302 
14.004564757018223 0.7581581583409626 
15.004564757018223 0.7404096406065067 
16.004564757018223 0.6848249213245196 
17.004564757018223 0.5839186305166618 
18.004564757018223 0.5326321517793997 
19.004564757018223 0.5323397439799611 
20.004564757018223 0.5819302960072347 
21.004564757018223 0.5672373338283345 
22.004564757018223 0.5597373338283345 
23.004564757018223 0.5399127977713758 
24.004564757018223 0.49166724456800814 
25.004564757018223 0.4796058562671663 
26.004564757018223 0.4675444679663244 
27.004564757018223 0.4675444679663244 
28.004564757018223 0.4675444679663244 
29.004564757018223 0.4675444679663244 
#####################################################################
# End of data export. Simulation finished at: 2017-05-25T06:10+0000 #
#####################################################################
