#####################################################################
# Alchemist log file - simulation started at: 2017-05-23T19:19+0000 #
#####################################################################
# random = 5.0, targets = 100.0, density = 10.026386447354522, gridShift = 0.0, perturbation = 0.5, connfactor = 0.75
#
# The columns have the following meaning: 
# time se[Mean] 
0.0 NaN 
1.0001017936699181 NaN 
2.000101793669918 1.0002578971533518 
3.000101793669918 1.0002432710947862 
4.000101793669918 0.998883912355882 
5.000101793669918 0.9975023696561576 
6.000101793669918 0.9940582772166106 
7.000101793669918 0.990866975308642 
8.000101793669918 0.9899969741607999 
9.000101793669918 0.9869478548107335 
10.000101793669918 0.98440221724824 
11.000101793669918 0.9826391599071523 
12.000101793669918 0.9788712778032854 
13.000101793669918 0.9775502646413632 
14.000101793669918 0.9756966240689726 
15.000101793669918 0.9723813871033568 
16.00010179366992 0.9696715156616672 
17.00010179366992 0.9672344626823793 
18.00010179366992 0.9633393811855933 
19.00010179366992 0.9620172673706765 
20.00010179366992 0.9584762377563514 
21.00010179366992 0.9547808635598408 
22.00010179366992 0.9534628991939599 
23.00010179366992 0.9519803821038669 
24.00010179366992 0.9512771987552291 
25.00010179366992 0.9488560166054485 
26.00010179366992 0.9449659460769309 
27.00010179366992 0.9449482335986125 
28.00010179366992 0.9431198213192533 
29.00010179366992 0.9369291634782166 
30.00010179366992 0.9370943978930721 
31.00010179366992 0.9358094046525864 
32.00010179366992 0.9339276419498009 
33.00010179366992 0.9315417833639424 
34.00010179366992 0.9291905366799306 
35.00010179366992 0.9271071574329152 
36.00010179366992 0.9259903511121315 
37.00010179366992 0.9213423215743293 
38.00010179366992 0.9191061753902663 
39.00010179366992 0.9180947212019183 
40.00010179366992 0.9150400456586063 
41.00010179366992 0.917065381083563 
42.00010179366992 0.9124798056320783 
43.00010179366992 0.914338267141108 
44.00010179366992 0.9131796895724927 
45.00010179366992 0.9096709200591778 
46.00010179366992 0.9067916041730437 
47.00010179366992 0.9072200853229262 
48.00010179366992 0.9020587229619428 
49.00010179366992 0.8956801378685847 
50.00010179366992 0.8906255528772573 
51.00010179366992 0.889428566600347 
52.00010179366992 0.8882152344148555 
53.00010179366992 0.8816430970054075 
54.00010179366992 0.8741260585654524 
55.00010179366992 0.8760161979644933 
56.00010179366992 0.8712814126109582 
57.00010179366992 0.8654685178808285 
58.00010179366992 0.8678297176308544 
59.00010179366992 0.8626591419242932 
60.00010179366992 0.851660947224773 
61.00010179366992 0.8536685701714108 
62.00010179366992 0.8478653511121315 
63.00010179366992 0.8404052654065909 
64.00010179366993 0.8369297233700641 
65.00010179366993 0.8232179350321397 
66.00010179366993 0.8245183763136419 
67.00010179366993 0.8217597974696466 
68.00010179366993 0.8142357316855426 
69.00010179366993 0.8121284652076315 
70.00010179366993 0.8097656897255388 
71.00010179366993 0.7980980416539123 
72.00010179366993 0.8017113330272427 
73.00010179366993 0.8022218077237014 
74.00010179366993 0.7848060013008881 
75.00010179366993 0.7899441389909198 
76.00010179366993 0.7856683297622697 
77.00010179366993 0.7797950579022545 
78.00010179366993 0.7795090207631877 
79.00010179366993 0.7709534052647687 
80.00010179366993 0.7599668726405466 
81.00010179366993 0.7609876817416588 
82.00010179366993 0.7569945394602591 
83.00010179366993 0.7536536546015706 
84.00010179366993 0.7402587911947759 
85.00010179366993 0.7320978694776042 
86.00010179366993 0.7263593128252218 
87.00010179366993 0.7274879431945726 
88.00010179366993 0.7198018129527597 
89.00010179366993 0.7062367883379244 
90.00010179366993 0.701403258596062 
91.00010179366993 0.7026309445464749 
92.00010179366993 0.6898240173196613 
93.00010179366993 0.6920198104785227 
94.00010179366993 0.6857640119630651 
95.00010179366993 0.6698770176512601 
96.00010179366993 0.6706608738904191 
97.00010179366993 0.6685024385266808 
98.00010179366993 0.6612852476788084 
99.00010179366993 0.6577800192582389 
100.00010179366993 0.6400005541526377 
101.00010179366993 0.639611428680747 
102.00010179366993 0.6385275902969085 
103.00010179366993 0.6271726182277317 
104.00010179366993 0.6293942958626669 
105.00010179366993 0.6183592216355474 
106.00010179366993 0.617033325043363 
107.00010179366993 0.6126691963830221 
108.00010179366993 0.6117467414039384 
109.00010179366993 0.6033063265228038 
110.00010179366993 0.6018839072543619 
111.00010179366993 0.5962434215896338 
112.00010179366993 0.592905459264361 
113.00010179366993 0.5879589034282215 
114.00010179366993 0.586713828308336 
115.00010179366993 0.5807878048158351 
116.00010179366993 0.5773770418834813 
117.00010179366993 0.5819180683093563 
118.00010179366993 0.5984386644219978 
119.00010179366993 0.593140341546781 
120.00010179366993 0.601518102744618 
121.00010179366993 0.6375659288593004 
122.00010179366993 0.6431405781297826 
123.00010179366993 0.6548022280889704 
124.00010179366993 0.6194113030558107 
125.00010179366993 0.6524709768135905 
126.00010179366993 0.6659509169982658 
127.00010179366993 0.6332418433068054 
128.00010179366993 0.6344173311396796 
129.00010179366993 0.6532125899142944 
130.00010179366993 0.6286567065860627 
131.00010179366993 0.5893550817518621 
132.00010179366993 0.6492352540557086 
133.00010179366993 0.6043130190796858 
134.00010179366993 0.6018740064789307 
135.00010179366993 0.5820756083562901 
136.00010179366993 0.5615618839914296 
137.00010179366993 0.6432320165034181 
138.00010179366993 0.6049725621110092 
139.00010179366993 0.5745031329711255 
140.00010179366993 0.6068398887868588 
141.00010179366993 0.5636894659983677 
142.00010179366993 0.6016236155749415 
143.00010179366993 0.6147924625038262 
144.00010179366993 0.6084619866595247 
145.00010179366993 0.5527846405978982 
146.00010179366993 0.6045066887307421 
147.00010179366993 0.5698998322875221 
148.00010179366993 0.604355498801143 
149.00010179366993 0.5799173917202327 
150.00010179366993 0.5648765508621573 
151.00010179366993 0.5785677768850119 
152.00010179366993 0.5965804401336595 
153.00010179366993 0.5771704481685546 
154.00010179366993 0.5253177156667682 
155.00010179366993 0.5422897561473325 
156.00010179366993 0.5449588294561769 
157.00010179366993 0.5023372015610653 
158.00010179366993 0.5135010713192542 
159.00010179366993 0.5646677475512705 
160.00010179366993 0.5026361697785943 
161.00010179366993 0.5674251045811658 
162.00010179366993 0.5702988885062753 
163.00010179366993 0.5843610836904405 
164.00010179366993 0.6161124948984806 
165.00010179366993 0.5383241824813805 
166.00010179366993 0.5781154327364558 
167.00010179366993 0.6266324699010322 
168.00010179366993 0.5680613253749625 
169.00010179366993 0.5617991321038676 
170.00010179366993 0.6191487877512505 
171.00010179366993 0.5746323729721462 
172.00010179366993 0.5070736149372519 
173.00010179366993 0.6553315031629435 
174.00010179366993 0.5708038573870017 
175.00010179366993 0.5946916003469042 
176.00010179366993 0.5635935663452711 
177.00010179366993 0.5360865115804517 
178.00010179366993 0.7282985320375488 
179.00010179366993 0.6571008245332112 
180.00010179366993 0.6061867500765238 
181.00010179366993 0.6994742774971953 
182.00010179366993 0.6644812971890632 
183.00010179366993 0.7680124171002967 
184.00010179366993 0.8359487609682693 
185.00010179366993 0.9145256663860832 
186.00010179366993 0.8565063029282736 
187.00010179366993 1.0043758500408122 
188.00010179366993 0.9132582083460866 
189.00010179366993 1.034510359912255 
190.00010179366993 1.0459603312162027 
191.00010179366993 0.9982621805172944 
192.00010179366993 1.030300918273646 
193.00010179366993 1.1326257894602607 
194.00010179366993 1.0875894392153878 
195.00010179366993 0.9110737903020112 
196.00010179366993 1.064854577339047 
197.00010179366993 1.052800767141109 
198.00010179366993 0.955054699137844 
199.00010179366993 0.9403597445413745 
200.00010179366993 0.9037988783032341 
201.00010179366993 0.9105209149576563 
202.00010179366993 1.0017268333588403 
203.00010179366993 0.7494606028721552 
204.00010179366993 0.7699415818538918 
205.00010179366993 0.7406592509692896 
206.00010179366993 0.7532426455208642 
207.00010179366993 0.7546152548209358 
208.00010179366993 0.7783086413376186 
209.00010179366993 0.6917606436843182 
210.00010179366993 0.7186805708601155 
211.00010179366993 0.7076408995255586 
212.00010179366993 0.7570747685185176 
213.00010179366993 0.7459191708754197 
214.00010179366993 0.7238318462401774 
215.00010179366993 0.7520037362258937 
216.00010179366993 0.8052410302520143 
217.00010179366993 0.7976079060810128 
218.00010179366993 0.7039241301907977 
219.00010179366993 0.717681295275993 
220.00010179366993 0.7424539613304812 
221.00010179366993 0.6811111729670432 
222.00010179366993 0.6591599728344012 
223.00010179366993 0.6588626868431745 
224.00010179366993 0.5510867991786529 
225.00010179366993 0.5900719142179364 
226.00010179366993 0.46464838026732136 
227.00010179366993 0.39257445541271396 
228.00010179366993 0.3961046449341883 
229.00010179366993 0.3673845430313212 
230.00010179366993 0.3135296844709717 
231.00010179366993 0.3098650099479642 
232.00010179366993 0.31345785060197895 
233.00010179366993 0.2811850340526479 
234.00010179366993 0.2703810223446588 
235.00010179366993 0.2704000000000001 
236.00010179366993 0.2704000000000001 
237.00010179366993 0.2704000000000001 
238.00010179366993 0.2704000000000001 
239.00010179366993 0.2704000000000001 
240.00010179366993 0.2704000000000001 
241.00010179366993 0.2704000000000001 
242.00010179366993 0.2704000000000001 
243.00010179366993 0.2704000000000001 
244.00010179366993 0.2704000000000001 
245.00010179366993 0.2704000000000001 
246.00010179366993 0.2704000000000001 
247.00010179366993 0.2704000000000001 
248.00010179366993 0.2704000000000001 
249.00010179366993 0.2704000000000001 
250.00010179366993 0.2704000000000001 
251.00010179366993 0.2704000000000001 
252.00010179366993 0.2704000000000001 
253.00010179366993 0.2704000000000001 
254.00010179366993 0.2704000000000001 
255.00010179366993 0.2704000000000001 
256.00010179366996 0.2704000000000001 
257.00010179366996 0.2704000000000001 
258.00010179366996 0.2704000000000001 
259.00010179366996 0.2704000000000001 
260.00010179366996 0.2704000000000001 
261.00010179366996 0.2704000000000001 
262.00010179366996 0.2704000000000001 
263.00010179366996 0.2704000000000001 
264.00010179366996 0.2704000000000001 
265.00010179366996 0.2704000000000001 
266.00010179366996 0.2704000000000001 
267.00010179366996 0.2704000000000001 
268.00010179366996 0.2704000000000001 
269.00010179366996 0.2704000000000001 
270.00010179366996 0.2704000000000001 
271.00010179366996 0.2704000000000001 
272.00010179366996 0.2704000000000001 
273.00010179366996 0.2704000000000001 
274.00010179366996 0.2704000000000001 
275.00010179366996 0.2704000000000001 
276.00010179366996 0.2704000000000001 
277.00010179366996 0.2704000000000001 
278.00010179366996 0.2704000000000001 
279.00010179366996 0.2704000000000001 
280.00010179366996 0.2704000000000001 
281.00010179366996 0.2704000000000001 
282.00010179366996 0.2704000000000001 
283.00010179366996 0.2704000000000001 
284.00010179366996 0.2704000000000001 
285.00010179366996 0.2704000000000001 
286.00010179366996 0.2704000000000001 
287.00010179366996 0.2704000000000001 
288.00010179366996 0.2704000000000001 
289.00010179366996 0.2704000000000001 
290.00010179366996 0.2704000000000001 
291.00010179366996 0.2704000000000001 
292.00010179366996 0.2704000000000001 
293.00010179366996 0.2704000000000001 
294.00010179366996 0.2704000000000001 
295.00010179366996 0.2704000000000001 
296.00010179366996 0.2704000000000001 
297.00010179366996 0.2704000000000001 
298.00010179366996 0.2704000000000001 
299.00010179366996 0.2704000000000001 
300.00010179366996 0.2704000000000001 
301.00010179366996 0.2704000000000001 
302.00010179366996 0.2704000000000001 
303.00010179366996 0.2704000000000001 
304.00010179366996 0.2704000000000001 
305.00010179366996 0.2704000000000001 
306.00010179366996 0.2704000000000001 
307.00010179366996 0.2704000000000001 
308.00010179366996 0.2704000000000001 
309.00010179366996 0.2704000000000001 
310.00010179366996 0.2704000000000001 
#####################################################################
# End of data export. Simulation finished at: 2017-05-23T19:27+0000 #
#####################################################################
