#####################################################################
# Alchemist log file - simulation started at: 2017-05-24T04:34+0000 #
#####################################################################
# random = 6.0, targets = 10.0, density = 14.160781367816199, gridShift = 0.0, perturbation = 0.5, connfactor = 1.0
#
# The columns have the following meaning: 
# time se[Mean] 
0.0 NaN 
1.0010083797655576 NaN 
2.0010083797655573 1.0005489809335963 
3.0010083797655573 1.0016103258090439 
4.001008379765557 1.0015952133099568 
5.001008379765557 1.002647837679889 
6.001008379765557 0.9963756939878735 
7.001008379765557 0.9917330977427132 
8.001008379765558 0.9914258711374095 
9.001008379765558 0.9848862681715246 
10.001008379765558 0.9837983052085616 
11.001008379765558 0.9810372379282637 
12.001008379765558 0.9786537091825555 
13.001008379765558 0.9775518664621229 
14.001008379765558 0.975384980641391 
15.001008379765558 0.9736493261012492 
16.00100837976556 0.9734283457520637 
17.00100837976556 0.9719724322448681 
18.00100837976556 0.9702328055372925 
19.00100837976556 0.9685435386076413 
20.00100837976556 0.9674431112572139 
21.00100837976556 0.9641688125502226 
22.00100837976556 0.9646043355979255 
23.00100837976556 0.9606470980349185 
24.00100837976556 0.9588722697056031 
25.00100837976556 0.9581257305135509 
26.00100837976556 0.9569666794506536 
27.00100837976556 0.9534968770545689 
28.00100837976556 0.9532563098107973 
29.00100837976556 0.950759460150486 
30.00100837976556 0.9494001570604138 
31.00100837976556 0.9481581927094751 
32.00100837976556 0.948497790196508 
33.00100837976556 0.9472371520929211 
34.00100837976556 0.9465564960917529 
35.00100837976556 0.9461708762510045 
36.00100837976556 0.9460977792388047 
37.00100837976556 0.9439624424720581 
38.00100837976556 0.9447172912557531 
39.00100837976556 0.9460639016728759 
40.00100837976556 0.942563919935715 
41.00100837976556 0.9434677021696252 
42.00100837976556 0.9400125557016584 
43.00100837976556 0.9405467437358462 
44.00100837976556 0.937373164584703 
45.00100837976556 0.9370668054642415 
46.00100837976556 0.9334067499452116 
47.00100837976556 0.9311314285192491 
48.00100837976556 0.926584027321207 
49.00100837976556 0.926844135802469 
50.00100837976556 0.9215121630506249 
51.00100837976556 0.9184699850244723 
52.00100837976556 0.9166882168164218 
53.00100837976556 0.9108971619548544 
54.00100837976556 0.9102334447366495 
55.00100837976556 0.9051187997662349 
56.00100837976556 0.9063295346628679 
57.00100837976556 0.9005196690773617 
58.00100837976556 0.8981350445613271 
59.00100837976556 0.8940234860106654 
60.00100837976556 0.8892319106581923 
61.00100837976556 0.8865433468478349 
62.00100837976556 0.8826129556578279 
63.00100837976556 0.880338547373804 
64.00100837976555 0.8757925615457676 
65.00100837976555 0.8726220414201179 
66.00100837976555 0.8709627712031552 
67.00100837976555 0.8648631200233753 
68.00100837976555 0.862566476733143 
69.00100837976555 0.855335305719922 
70.00100837976555 0.853777622543648 
71.00100837976555 0.8469974066768938 
72.00100837976555 0.844919095624223 
73.00100837976555 0.8368868708452052 
74.00100837976555 0.8331213930893424 
75.00100837976555 0.8285165096062531 
76.00100837976555 0.8257850737818688 
77.00100837976555 0.8184414493388859 
78.00100837976555 0.8152801519468188 
79.00100837976555 0.8085990576375194 
80.00100837976555 0.8045337953831537 
81.00100837976555 0.8019079644239909 
82.00100837976555 0.7958455694353134 
83.00100837976555 0.7919747607568125 
84.00100837976555 0.787152640806486 
85.00100837976555 0.779041748849441 
86.00100837976555 0.7744270947476087 
87.00100837976555 0.76818376068376 
88.00100837976555 0.7628930162904533 
89.00100837976555 0.7589800204543788 
90.00100837976555 0.7472888815837533 
91.00100837976555 0.7488541894952148 
92.00100837976555 0.73998283293155 
93.00100837976555 0.7323758126963247 
94.00100837976555 0.730207100591716 
95.00100837976555 0.727932464022208 
96.00100837976555 0.7207573599240269 
97.00100837976555 0.7159945941997216 
98.00100837976555 0.7172726276572431 
99.00100837976555 0.7124961648038574 
100.00100837976555 0.7046123255898894 
101.00100837976555 0.7026083442910372 
102.00100837976555 0.7377270070859816 
103.00100837976555 0.7394123931623932 
104.00100837976555 0.8349663963766525 
105.00100837976555 0.8705519029878013 
106.00100837976555 0.9419962195923718 
107.00100837976555 0.9410050040178245 
108.00100837976555 1.0765104737380355 
109.00100837976555 1.1032252629848809 
110.00100837976555 1.1743054642413655 
111.00100837976555 1.100240978157649 
112.00100837976555 1.2643875557016555 
113.00100837976555 1.2415200617283986 
114.00100837976555 1.2475738275257466 
115.00100837976555 1.6049782215647526 
116.00100837976555 1.1723803784060232 
117.00100837976555 1.60973975454744 
118.00100837976555 1.4393988330046055 
119.00100837976555 1.40662425122361 
120.00100837976555 1.5662558897655061 
121.00100837976555 1.7135336766746982 
122.00100837976555 1.6973761779531056 
123.00100837976555 1.5915441230184815 
124.00100837976555 1.7998950799912372 
125.00100837976555 1.9106909745050764 
126.00100837976555 1.6173132168164182 
127.00100837976555 1.7518928975819992 
128.00100837976555 1.7060377858134246 
129.00100837976555 1.7764089780115395 
130.00100837976555 1.6944167305866062 
131.00100837976555 1.883728130250566 
132.00100837976555 1.7732754401344173 
133.00100837976555 1.7700019632551693 
134.00100837976555 1.7541399116078595 
135.00100837976555 1.8942924519687316 
136.00100837976555 1.7365607422017675 
137.00100837976555 1.9658608645627862 
138.00100837976555 1.6936074128862595 
139.00100837976555 1.7147427222587481 
140.00100837976555 1.8257418821681637 
141.00100837976555 1.642979262546568 
142.00100837976555 1.4458466195485462 
143.00100837976555 1.3213037384031 
144.00100837976555 1.5684330484330415 
145.00100837976555 1.3006098418438155 
146.00100837976555 1.5203131620278996 
147.00100837976555 1.1981260501132256 
148.00100837976555 1.5307731572795762 
149.00100837976555 1.4409738202206257 
150.00100837976555 1.3131076959602552 
151.00100837976555 1.650983956096136 
152.00100837976555 1.3349020655270625 
153.00100837976555 1.3873706077872738 
154.00100837976555 1.370473783694942 
155.00100837976555 1.0873550387172202 
156.00100837976555 1.4916426053765794 
157.00100837976555 0.8530390276864651 
158.00100837976555 0.7890541675798144 
159.00100837976555 0.5823976824457612 
160.00100837976555 0.5996478011542118 
161.00100837976555 0.6637338830447784 
162.00100837976555 0.45694462707282996 
163.00100837976555 0.38289749068595164 
164.00100837976555 0.41321517276645686 
165.00100837976555 0.3442991179048862 
166.00100837976555 0.36460894696471624 
167.00100837976555 0.399516445686317 
168.00100837976555 0.5101792954196795 
169.00100837976555 0.5718966414639524 
170.00100837976555 0.6916194115713383 
171.00100837976555 0.6872113558331518 
172.00100837976555 0.9344439878734844 
173.00100837976555 0.9898604719117564 
174.00100837976555 1.1100104098181016 
175.00100837976555 0.98866023814742 
176.00100837976555 1.288345204178538 
177.00100837976555 1.2286893217181565 
178.00100837976555 1.2893865512455156 
179.00100837976555 1.896232193732186 
180.00100837976555 1.161892988896206 
181.00100837976555 1.9561945722843144 
182.00100837976555 1.646888012272625 
183.00100837976555 1.5898652202498393 
184.00100837976555 1.89648609284827 
185.00100837976555 2.2037879410475636 
186.00100837976555 2.138384743224479 
187.00100837976555 1.9601441851121328 
188.00100837976555 2.3913206315289646 
189.00100837976555 2.5734548268682804 
190.00100837976555 2.0787107805537266 
191.00100837976555 2.3294775001826236 
192.00100837976555 2.2674915534370577 
193.00100837976555 2.3882064979180453 
194.00100837976555 2.2850924556213066 
195.00100837976555 2.631481709766962 
196.00100837976555 2.4651283877565926 
197.00100837976555 2.4600265724304156 
198.00100837976555 2.454160776901161 
199.00100837976555 2.7043455055153784 
200.00100837976555 2.471520563956467 
201.00100837976555 2.8966975765212934 
202.00100837976555 2.3976434545985845 
203.00100837976555 2.470707958945141 
204.00100837976555 2.7224294597852343 
205.00100837976555 2.3990612444298307 
206.00100837976555 2.0330955055153734 
207.00100837976555 1.850664493388853 
208.00100837976555 2.2791045730148265 
209.00100837976555 1.8477187888085258 
210.00100837976555 2.221556770034336 
211.00100837976555 1.6682406037694513 
212.00100837976555 2.278403280005858 
213.00100837976555 2.089898869530276 
214.00100837976555 1.9155104006866812 
215.00100837976555 2.518052770472641 
216.00100837976555 1.9768304386734 
217.00100837976555 2.087289246840519 
218.00100837976555 2.01871534626342 
219.00100837976555 1.6021186262692606 
220.00100837976555 2.3246647855942917 
221.00100837976555 1.207431925268476 
222.00100837976555 1.075697183870271 
223.00100837976555 0.7202258200014634 
224.00100837976555 0.7724797739060543 
225.00100837976555 0.901467464752729 
226.00100837976555 0.5191035685586953 
227.00100837976555 0.4127496530060676 
228.00100837976555 0.4734225929578511 
229.00100837976555 0.3430435477390573 
230.00100837976555 0.30013304478048136 
231.00100837976555 0.34924697750017997 
232.00100837976555 0.2263914000292212 
233.00100837976555 0.22641920520125575 
234.00100837976555 0.212160722112644 
235.00100837976555 0.2326565581854032 
236.00100837976555 0.20475683030170136 
237.00100837976555 0.1926362407772666 
238.00100837976555 0.18070741105997573 
239.00100837976555 0.17988357440280495 
240.00100837976555 0.1845237051647301 
241.00100837976555 0.17419771349258548 
242.00100837976555 0.16761537548396557 
243.00100837976555 0.16875091314193869 
244.00100837976555 0.16553158557966277 
245.00100837976555 0.16265847578347578 
246.00100837976555 0.16421223244941194 
247.00100837976555 0.16091825553364023 
248.00100837976555 0.15996639637665286 
249.00100837976555 0.16000000000000006 
250.00100837976555 0.16000000000000006 
251.00100837976555 0.16000000000000006 
252.00100837976555 0.16000000000000006 
253.00100837976555 0.16000000000000006 
254.00100837976555 0.16000000000000006 
255.00100837976555 0.16000000000000006 
256.00100837976555 0.16000000000000006 
257.00100837976555 0.16000000000000006 
258.00100837976555 0.16000000000000006 
259.00100837976555 0.16000000000000006 
260.00100837976555 0.16000000000000006 
261.00100837976555 0.16000000000000006 
262.00100837976555 0.16000000000000006 
263.00100837976555 0.16000000000000006 
264.00100837976555 0.16000000000000006 
265.00100837976555 0.16000000000000006 
266.00100837976555 0.16000000000000006 
267.00100837976555 0.16000000000000006 
268.00100837976555 0.16000000000000006 
269.00100837976555 0.16000000000000006 
270.00100837976555 0.16000000000000006 
271.00100837976555 0.16000000000000006 
272.00100837976555 0.16000000000000006 
273.00100837976555 0.16000000000000006 
274.00100837976555 0.16000000000000006 
275.00100837976555 0.16000000000000006 
276.00100837976555 0.16000000000000006 
277.00100837976555 0.16000000000000006 
278.00100837976555 0.16000000000000006 
279.00100837976555 0.16000000000000006 
280.00100837976555 0.16000000000000006 
281.00100837976555 0.16000000000000006 
282.00100837976555 0.16000000000000006 
283.00100837976555 0.16000000000000006 
284.00100837976555 0.16000000000000006 
285.00100837976555 0.16000000000000006 
286.00100837976555 0.16000000000000006 
287.00100837976555 0.16000000000000006 
288.00100837976555 0.16000000000000006 
289.00100837976555 0.16000000000000006 
290.00100837976555 0.16000000000000006 
291.00100837976555 0.16000000000000006 
292.00100837976555 0.16000000000000006 
293.00100837976555 0.16000000000000006 
294.00100837976555 0.16000000000000006 
295.00100837976555 0.16000000000000006 
296.00100837976555 0.16000000000000006 
297.00100837976555 0.16000000000000006 
298.00100837976555 0.16000000000000006 
299.00100837976555 0.16000000000000006 
300.00100837976555 0.16000000000000006 
301.00100837976555 0.16000000000000006 
302.00100837976555 0.16000000000000006 
303.00100837976555 0.16000000000000006 
304.00100837976555 0.16000000000000006 
305.00100837976555 0.16000000000000006 
306.00100837976555 0.16000000000000006 
307.00100837976555 0.16000000000000006 
308.00100837976555 0.16000000000000006 
309.00100837976555 0.16000000000000006 
310.00100837976555 0.16000000000000006 
311.00100837976555 0.16000000000000006 
312.00100837976555 0.16000000000000006 
313.00100837976555 0.16000000000000006 
314.00100837976555 0.16000000000000006 
315.00100837976555 0.16000000000000006 
316.00100837976555 0.16000000000000006 
317.00100837976555 0.16000000000000006 
318.00100837976555 0.16000000000000006 
319.00100837976555 0.16000000000000006 
320.00100837976555 0.16000000000000006 
321.00100837976555 0.16000000000000006 
322.00100837976555 0.16000000000000006 
323.00100837976555 0.16000000000000006 
324.00100837976555 0.16000000000000006 
325.00100837976555 0.16000000000000006 
326.00100837976555 0.16000000000000006 
327.00100837976555 0.16000000000000006 
328.00100837976555 0.16000000000000006 
329.00100837976555 0.16000000000000006 
330.00100837976555 0.16000000000000006 
331.00100837976555 0.16000000000000006 
332.00100837976555 0.16000000000000006 
333.00100837976555 0.16000000000000006 
334.00100837976555 0.16000000000000006 
335.00100837976555 0.16000000000000006 
336.00100837976555 0.16000000000000006 
337.00100837976555 0.16000000000000006 
#####################################################################
# End of data export. Simulation finished at: 2017-05-24T04:44+0000 #
#####################################################################
