#####################################################################
# Alchemist log file - simulation started at: 2017-05-25T21:46+0000 #
#####################################################################
# random = 19.0, targets = 3.1622776601683795, density = 0.11269076455391362, gridShift = 1.0, perturbation = 0.0, connfactor = 0.1
#
# The columns have the following meaning: 
# time se[Mean] 
0.0 NaN 
1.029399693434633 NaN 
2.029399693434633 1.0 
3.029399693434633 1.0 
4.029399693434633 1.0 
5.029399693434633 1.0 
6.029399693434633 1.0 
7.029399693434633 1.0 
#####################################################################
# End of data export. Simulation finished at: 2017-05-25T21:46+0000 #
#####################################################################
