#####################################################################
# Alchemist log file - simulation started at: 2017-05-21T22:20+0000 #
#####################################################################
# random = 3.0, targets = 3.1622776601683795, density = 2.519842099789746, gridShift = 1.0, perturbation = 0.5, connfactor = 1.5
#
# The columns have the following meaning: 
# time se[Mean] 
0.0 NaN 
1.0016359619213666 NaN 
2.001635961921367 1.0322800976396533 
3.001635961921367 1.0753115716496697 
4.001635961921367 1.1238755138543153 
5.001635961921367 1.1668848693414677 
6.001635961921367 1.1215026767010758 
7.001635961921367 1.1474654562707127 
8.001635961921366 1.105740153056767 
9.001635961921366 1.1139397874049424 
10.001635961921366 1.0838084225024265 
11.001635961921366 1.060565714981526 
12.001635961921366 1.096768175015093 
13.001635961921366 1.0537116886413 
14.001635961921366 1.0976376743227862 
15.001635961921366 1.084686584322945 
16.001635961921366 1.0922110115819013 
17.001635961921366 1.1015725428985885 
18.001635961921366 1.1259809973937005 
19.001635961921366 1.1242333489387637 
20.001635961921366 1.1259790787274873 
21.001635961921366 1.1333957818664866 
22.001635961921366 1.1463901590839067 
23.001635961921366 1.1461554734887662 
24.001635961921366 1.1294782446529745 
25.001635961921366 1.1308276963299853 
26.001635961921366 1.1265812054114144 
27.001635961921366 1.1204273985241822 
28.001635961921366 1.1137416895372296 
29.001635961921366 1.0810489702715504 
30.001635961921366 1.0848578335369554 
31.001635961921366 1.0691991776702663 
32.001635961921366 1.0075052532701054 
33.001635961921366 1.0051410659564166 
34.001635961921366 0.9532261006694566 
35.001635961921366 0.9412580091058157 
36.001635961921366 0.9061991775235971 
37.001635961921366 0.8650981321897168 
38.001635961921366 0.8188147220510673 
39.001635961921366 0.8215435643354673 
40.001635961921366 0.7495070668684569 
41.001635961921366 0.7673953752950021 
42.001635961921366 0.7767781576826902 
43.001635961921366 0.6787220613787773 
44.001635961921366 0.7207572203485803 
45.001635961921366 0.6478674657019898 
46.001635961921366 0.6365295147498022 
47.001635961921366 0.6660704423915181 
48.001635961921366 0.5747904731787763 
49.001635961921366 0.5767633659770905 
50.001635961921366 0.533853040413882 
51.001635961921366 0.5114933262305382 
52.001635961921366 0.5572892930975069 
53.001635961921366 1.1166115773014413 
54.001635961921366 1.0471536831835953 
55.001635961921366 1.5458352533344968 
56.001635961921366 2.0588529713783426 
57.001635961921366 1.4953256155003052 
58.001635961921366 2.322083262831104 
59.001635961921366 1.6653521515245988 
60.001635961921366 2.1412680093166294 
61.001635961921366 2.836223491324684 
62.001635961921366 2.218515867027276 
63.001635961921366 3.0530316583741124 
64.00163596192137 2.738225075403262 
65.00163596192137 1.777727362181129 
66.00163596192137 2.7403855039001637 
67.00163596192137 2.162745040657656 
68.00163596192137 1.7591246755922638 
69.00163596192137 1.9937181063860128 
70.00163596192137 2.112504618073787 
71.00163596192137 1.8581888904189916 
72.00163596192137 2.0419598640787635 
73.00163596192137 1.7066026570547799 
74.00163596192137 1.007688402351234 
75.00163596192137 1.0233345583726736 
76.00163596192137 0.3407560029149622 
77.00163596192137 0.2515006607852637 
78.00163596192137 0.2285859001115344 
79.00163596192137 0.1310557914927667 
80.00163596192137 0.1375039400535789 
81.00163596192137 0.057303211682083785 
82.00163596192137 0.02287814259806824 
83.00163596192137 0.022503020507794128 
84.00163596192137 0.005932502597433581 
85.00163596192137 0.0026334038989724354 
86.00163596192137 0.0026334038989724354 
87.00163596192137 0.0026334038989724354 
88.00163596192137 0.0026334038989724354 
89.00163596192137 0.0026334038989724354 
90.00163596192137 0.0026334038989724354 
91.00163596192137 0.0026334038989724354 
92.00163596192137 0.0026334038989724354 
93.00163596192137 0.0026334038989724354 
94.00163596192137 0.0026334038989724354 
95.00163596192137 0.0026334038989724354 
96.00163596192137 0.0026334038989724354 
97.00163596192137 0.0026334038989724354 
98.00163596192137 0.0026334038989724354 
99.00163596192137 0.0026334038989724354 
100.00163596192137 0.0026334038989724354 
101.00163596192137 0.0026334038989724354 
102.00163596192137 0.0026334038989724354 
103.00163596192137 0.0026334038989724354 
104.00163596192137 0.0026334038989724354 
105.00163596192137 0.0026334038989724354 
106.00163596192137 0.0026334038989724354 
107.00163596192137 0.0026334038989724354 
108.00163596192137 0.0026334038989724354 
109.00163596192137 0.0026334038989724354 
110.00163596192137 0.0026334038989724354 
111.00163596192137 0.0026334038989724354 
112.00163596192137 0.0026334038989724354 
113.00163596192137 0.0026334038989724354 
114.00163596192137 0.0026334038989724354 
115.00163596192137 0.0026334038989724354 
116.00163596192137 0.0026334038989724354 
#####################################################################
# End of data export. Simulation finished at: 2017-05-21T22:23+0000 #
#####################################################################
