#####################################################################
# Alchemist log file - simulation started at: 2017-05-24T03:33+0000 #
#####################################################################
# random = 13.0, targets = 100.0, density = 0.05649405772326896, gridShift = 1.0, perturbation = 0.0, connfactor = 0.1
#
# The columns have the following meaning: 
# time se[Mean] 
0.0 NaN 
1.0093475742791087 NaN 
2.0093475742791087 1.0 
3.0093475742791087 1.0 
4.009347574279109 0.9959027777777778 
5.009347574279109 0.9803222222222222 
6.009347574279109 0.9794583333333333 
7.009347574279109 0.9593756944444445 
8.009347574279108 0.9454090277777778 
9.009347574279108 0.9482375 
10.009347574279108 0.9425208333333333 
11.009347574279108 0.9396909722222222 
12.009347574279108 0.9409013888888889 
13.009347574279108 0.9388826388888889 
14.009347574279108 0.939286111111111 
15.009347574279108 0.9409 
16.009347574279108 0.9409 
17.009347574279108 0.9409 
18.009347574279108 0.9409 
19.009347574279108 0.9409 
20.009347574279108 0.9409 
21.009347574279108 0.9409 
22.009347574279108 0.9409 
#####################################################################
# End of data export. Simulation finished at: 2017-05-24T03:33+0000 #
#####################################################################
