#####################################################################
# Alchemist log file - simulation started at: 2017-05-24T23:01+0000 #
#####################################################################
# random = 16.0, targets = 3.1622776601683795, density = 14.160781367816199, gridShift = 0.0, perturbation = 0.5, connfactor = 0.75
#
# The columns have the following meaning: 
# time se[Mean] 
0.0 NaN 
1.000419502192421 NaN 
2.000419502192421 1.0 
3.000419502192421 1.0 
4.000419502192421 0.999332734343151 
5.000419502192421 0.9984355492914521 
6.000419502192421 0.9958797162644651 
7.000419502192421 0.9914753017389233 
8.000419502192422 0.9904591196745974 
9.000419502192422 0.9847111386028312 
10.000419502192422 0.9859920343760482 
11.000419502192422 0.985028525983587 
12.000419502192422 0.9823521582206804 
13.000419502192422 0.9780800043627227 
14.000419502192422 0.9713565965931072 
15.000419502192422 0.9672128597277492 
16.000419502192422 0.962948203379025 
17.000419502192422 0.9576423741128589 
18.000419502192422 0.9519837847642316 
19.000419502192422 0.9477825674169137 
20.000419502192422 0.940198115525704 
21.000419502192422 0.9341585048882037 
22.000419502192422 0.9331223298880865 
23.000419502192422 0.9286727379334189 
24.000419502192422 0.9270677242321176 
25.000419502192422 0.9243696334364039 
26.000419502192422 0.9186514487613553 
27.000419502192422 0.9144944469745455 
28.000419502192422 0.9151073088625136 
29.000419502192422 0.9158074476291597 
30.000419502192422 0.9166827172743285 
31.000419502192422 0.9165952480219284 
32.00041950219242 0.9175579869194953 
33.00041950219242 0.9207524421824606 
34.00041950219242 0.924909636342993 
35.00041950219242 0.9308608158594773 
36.00041950219242 0.9357619795997174 
37.00041950219242 0.9401379430781123 
38.00041950219242 0.9457390532112732 
39.00041950219242 0.9487147391563768 
40.00041950219242 0.9532656411395708 
41.00041950219242 0.958079143253688 
42.00041950219242 0.9637677226392491 
43.00041950219242 0.9680123860521819 
44.00041950219242 0.9719506185211305 
45.00041950219242 0.9766764590091236 
46.00041950219242 0.9811398917399178 
47.00041950219242 0.9824961460864231 
48.00041950219242 0.9850487112931018 
49.00041950219242 0.9855594936576502 
50.00041950219242 0.9875572533129956 
51.00041950219242 0.9833275849185296 
52.00041950219242 0.9802792323657704 
53.00041950219242 0.9760493715975815 
54.00041950219242 0.9733647368305481 
55.00041950219242 0.9699370943524248 
56.00041950219242 0.964233327574672 
57.00041950219242 0.9580633787403278 
58.00041950219242 0.9518342193270053 
59.00041950219242 0.948565558466599 
60.00041950219242 0.9402659727902758 
61.00041950219242 0.9294284321782962 
62.00041950219242 0.9189763336513445 
63.00041950219242 0.9095746343815884 
64.00041950219241 0.9014684424225666 
65.00041950219241 0.8919046860885083 
66.00041950219241 0.8825908408186007 
67.00041950219241 0.8710093318934072 
68.00041950219241 0.9036925372956964 
69.00041950219241 1.08154976542122 
70.00041950219241 0.9741971427306559 
71.00041950219241 1.2399467162649462 
72.00041950219241 1.41452702032542 
73.00041950219241 1.6339228069494978 
74.00041950219241 1.5301952577695666 
75.00041950219241 1.7026507317981494 
76.00041950219241 1.7343514002737883 
77.00041950219241 1.9060346460492514 
78.00041950219241 1.8458930119820087 
79.00041950219241 1.547375529215319 
80.00041950219241 1.7674622282662955 
81.00041950219241 1.983198531813153 
82.00041950219241 2.294069635374092 
83.00041950219241 2.1382764616752756 
84.00041950219241 2.0767007163628124 
85.00041950219241 2.342951078959997 
86.00041950219241 1.9552497833220088 
87.00041950219241 2.033742739212193 
88.00041950219241 2.2064975339559694 
89.00041950219241 1.7268656970277994 
90.00041950219241 1.9940801426056234 
91.00041950219241 2.164538436633023 
92.00041950219241 1.9641731557941233 
93.00041950219241 2.000379742464046 
94.00041950219241 2.1260998349718614 
95.00041950219241 1.9252033940851756 
96.00041950219241 2.3795941046159714 
97.00041950219241 2.042971091026615 
98.00041950219241 1.4693330962541993 
99.00041950219241 2.530440639786086 
100.00041950219241 1.9566840327484982 
101.00041950219241 2.036739516876498 
102.00041950219241 1.9296175868751657 
103.00041950219241 1.9204179356072661 
104.00041950219241 1.9112928746842557 
105.00041950219241 2.3182970822322737 
106.00041950219241 1.703713976301148 
107.00041950219241 1.5532323967477162 
108.00041950219241 1.7286993141705707 
109.00041950219241 1.2954789281428174 
110.00041950219241 1.5016460686274642 
111.00041950219241 1.1735979387775979 
112.00041950219241 1.4184452010003834 
113.00041950219241 1.3897690965935128 
114.00041950219241 1.6855204781874953 
115.00041950219241 1.4000985999993383 
116.00041950219241 1.464417662929908 
117.00041950219241 1.4489219467207881 
118.00041950219241 1.4223154990820024 
119.00041950219241 1.6484477723559126 
120.00041950219241 1.1048438790988462 
121.00041950219241 1.258559173352727 
122.00041950219241 1.4594789180563383 
123.00041950219241 1.6571559419563002 
124.00041950219241 1.5196404020789174 
125.00041950219241 1.470565462323075 
126.00041950219241 1.7181256179863253 
127.00041950219241 1.375213829393327 
128.00041950219241 1.4555174805570252 
129.00041950219241 1.6190116529610417 
130.00041950219241 1.1956652978863447 
131.00041950219241 1.446505069580269 
132.00041950219241 1.6140234047158637 
133.00041950219241 1.444317761149107 
134.00041950219241 1.485388013881146 
135.00041950219241 1.6105242498724206 
136.00041950219241 1.4416927217085058 
137.00041950219241 1.861932667893815 
138.00041950219241 1.5670907883358036 
139.00041950219241 1.0617348431150118 
140.00041950219241 2.0305010188056567 
141.00041950219241 1.56717806521448 
142.00041950219241 1.6092983337227684 
143.00041950219241 1.5671780652144764 
144.00041950219241 1.6092983337227678 
145.00041950219241 1.6092983337227684 
146.00041950219241 2.072621287313942 
147.00041950219241 1.6092983337227635 
148.00041950219241 1.3986969911813174 
149.00041950219241 1.8620199447725174 
150.00041950219241 1.3986969911812972 
151.00041950219241 1.4408172596896083 
152.00041950219241 1.356576722673027 
153.00041950219241 1.4408172596896371 
154.00041950219241 1.3144564541647707 
155.00041950219241 1.3986969911813154 
156.00041950219241 1.5671780652144918 
157.00041950219241 1.3565767226730598 
158.00041950219241 1.314456454164739 
159.00041950219241 1.18809564863985 
160.00041950219241 1.0617348431149891 
161.00041950219241 0.6826524265404009 
162.00041950219241 0.5141713525072424 
163.00041950219241 0.5984118895238281 
164.00041950219241 0.5141713525072431 
165.00041950219241 0.5984118895238307 
166.00041950219241 0.38781054698237594 
167.00041950219241 0.21932947294922878 
168.00041950219241 0.21932947294922786 
169.00041950219241 0.13508893593264829 
170.00041950219241 0.13508893593264829 
171.00041950219241 0.13508893593264829 
172.00041950219241 0.13508893593264829 
173.00041950219241 0.13508893593264829 
174.00041950219241 0.13508893593264829 
175.00041950219241 0.13508893593264829 
176.00041950219241 0.13508893593264829 
177.00041950219241 0.13508893593264829 
178.00041950219241 0.13508893593264829 
179.00041950219241 0.13508893593264829 
180.00041950219241 0.13508893593264829 
181.00041950219241 0.13508893593264829 
182.00041950219241 0.13508893593264829 
183.00041950219241 0.13508893593264829 
184.00041950219241 0.13508893593264829 
185.00041950219241 0.13508893593264829 
186.00041950219241 0.13508893593264829 
187.00041950219241 0.13508893593264829 
188.00041950219241 0.13508893593264829 
189.00041950219241 0.13508893593264829 
190.00041950219241 0.13508893593264829 
191.00041950219241 0.13508893593264829 
192.00041950219241 0.13508893593264829 
193.00041950219241 0.13508893593264829 
194.00041950219241 0.13508893593264829 
195.00041950219241 0.13508893593264829 
196.00041950219241 0.13508893593264829 
197.00041950219241 0.13508893593264829 
198.00041950219241 0.13508893593264829 
199.00041950219241 0.13508893593264829 
200.00041950219241 0.13508893593264829 
201.00041950219241 0.13508893593264829 
202.00041950219241 0.13508893593264829 
203.00041950219241 0.13508893593264829 
204.00041950219241 0.13508893593264829 
205.00041950219241 0.13508893593264829 
206.00041950219241 0.13508893593264829 
207.00041950219241 0.13508893593264829 
208.00041950219241 0.13508893593264829 
209.00041950219241 0.13508893593264829 
210.00041950219241 0.13508893593264829 
211.00041950219241 0.13508893593264829 
212.00041950219241 0.13508893593264829 
213.00041950219241 0.13508893593264829 
214.00041950219241 0.13508893593264829 
215.00041950219241 0.13508893593264829 
216.00041950219241 0.13508893593264829 
217.00041950219241 0.13508893593264829 
218.00041950219241 0.13508893593264829 
219.00041950219241 0.13508893593264829 
220.00041950219241 0.13508893593264829 
221.00041950219241 0.13508893593264829 
222.00041950219241 0.13508893593264829 
223.00041950219241 0.13508893593264829 
224.00041950219241 0.13508893593264829 
225.00041950219241 0.13508893593264829 
226.00041950219241 0.13508893593264829 
227.00041950219241 0.13508893593264829 
228.00041950219241 0.13508893593264829 
229.00041950219241 0.13508893593264829 
230.00041950219241 0.13508893593264829 
231.00041950219241 0.13508893593264829 
232.00041950219241 0.13508893593264829 
233.00041950219241 0.13508893593264829 
234.00041950219241 0.13508893593264829 
235.00041950219241 0.13508893593264829 
236.00041950219241 0.13508893593264829 
237.00041950219241 0.13508893593264829 
238.00041950219241 0.13508893593264829 
239.00041950219241 0.13508893593264829 
240.00041950219241 0.13508893593264829 
241.00041950219241 0.13508893593264829 
242.00041950219241 0.13508893593264829 
243.00041950219241 0.13508893593264829 
244.00041950219241 0.13508893593264829 
245.00041950219241 0.13508893593264829 
246.00041950219241 0.13508893593264829 
247.00041950219241 0.13508893593264829 
248.00041950219241 0.13508893593264829 
249.00041950219241 0.13508893593264829 
250.00041950219241 0.13508893593264829 
251.00041950219241 0.13508893593264829 
252.00041950219241 0.13508893593264829 
253.00041950219241 0.13508893593264829 
254.00041950219241 0.13508893593264829 
255.00041950219241 0.13508893593264829 
256.0004195021924 0.13508893593264829 
257.0004195021924 0.13508893593264829 
258.0004195021924 0.13508893593264829 
#####################################################################
# End of data export. Simulation finished at: 2017-05-24T23:04+0000 #
#####################################################################
