#####################################################################
# Alchemist log file - simulation started at: 2017-05-20T18:47+0000 #
#####################################################################
# random = 1.0, targets = 31.622776601683793, density = 2.519842099789746, gridShift = 0.0, perturbation = 0.0, connfactor = 2.0
#
# The columns have the following meaning: 
# time se[Mean] 
0.0 NaN 
1.0048855897957667 NaN 
2.0048855897957667 1.1077021415196404 
3.0048855897957667 1.1559647593611997 
4.004885589795767 1.2477131178544765 
5.004885589795767 1.2774511917295472 
6.004885589795767 1.6055881934624976 
7.004885589795767 1.8165547194458125 
8.004885589795766 2.239788638554899 
9.004885589795766 2.0777125532017973 
10.004885589795766 2.2510931600629163 
11.004885589795766 2.0719276589283284 
12.004885589795766 1.993956676974502 
13.004885589795766 2.067598492253613 
14.004885589795766 1.7048317654015408 
15.004885589795766 1.648951094235623 
16.004885589795766 1.4336272726406027 
17.004885589795766 1.5074068078718725 
18.004885589795766 1.4029137709920954 
19.004885589795766 1.4208185779961515 
20.004885589795766 1.4429888827399848 
21.004885589795766 1.4911449896881475 
22.004885589795766 1.70836927383452 
23.004885589795766 1.6803751879378277 
24.004885589795766 1.6302640290173684 
25.004885589795766 1.978454678230775 
26.004885589795766 2.131472271588938 
27.004885589795766 2.245932864859916 
28.004885589795766 2.46608681228301 
29.004885589795766 2.6175931340673535 
30.004885589795766 2.6642875808780504 
31.004885589795766 2.8047859068523353 
32.00488558979576 2.7917030131226888 
33.00488558979576 2.8799357218390824 
34.00488558979576 2.757479485776545 
35.00488558979576 2.5347135522430113 
36.00488558979576 2.37542470730558 
37.00488558979576 2.0886937317398875 
38.00488558979576 2.2238181157628705 
39.00488558979576 2.1302402860540055 
40.00488558979576 1.8030464012278704 
41.00488558979576 1.5179807025825582 
42.00488558979576 1.3056166476684534 
43.00488558979576 1.0410981384565983 
44.00488558979576 0.9640904276486457 
45.00488558979576 0.9185786276249652 
46.00488558979576 0.8526192533996857 
47.00488558979576 0.843047320530387 
48.00488558979576 0.8459034890613487 
49.00488558979576 0.8136336192700921 
50.00488558979576 0.8082928178486313 
51.00488558979576 0.7920820777413805 
52.00488558979576 0.7800380323573951 
53.00488558979576 0.776758845548914 
54.00488558979576 0.7494388543980802 
55.00488558979576 0.7446883438591707 
56.00488558979576 0.7324446137120935 
57.00488558979576 0.722532963481355 
58.00488558979576 0.7154744035787435 
59.00488558979576 0.696250452066621 
60.00488558979576 0.6906501517433019 
61.00488558979576 0.6863432936335525 
62.00488558979576 0.67593097509793 
63.00488558979576 0.6686535013628409 
64.00488558979576 0.667833038099836 
65.00488558979576 0.6642318246153057 
66.00488558979576 0.6656325492673848 
67.00488558979576 0.66583840725783 
68.00488558979576 0.6635922520346932 
69.00488558979576 0.6625296268105181 
70.00488558979576 0.6608708398808063 
71.00488558979576 0.6601015377239325 
72.00488558979576 0.6593509290176172 
73.00488558979576 0.6584217985970263 
74.00488558979576 0.6573193848320179 
75.00488558979576 0.6568857907212247 
76.00488558979576 0.6564388857050479 
77.00488558979576 0.6564388857050479 
78.00488558979576 0.6565266807797943 
79.00488558979576 0.6565266807797943 
80.00488558979576 0.6565266807797943 
81.00488558979576 0.6565266807797943 
82.00488558979576 0.6565266807797943 
83.00488558979576 0.6565266807797943 
84.00488558979576 0.6565266807797943 
85.00488558979576 0.6565266807797943 
86.00488558979576 0.6565266807797943 
87.00488558979576 0.6565266807797943 
88.00488558979576 0.6565266807797943 
89.00488558979576 0.6565266807797943 
90.00488558979576 0.6565266807797943 
91.00488558979576 0.6565266807797943 
92.00488558979576 0.6565266807797943 
93.00488558979576 0.6565266807797943 
94.00488558979576 0.6565266807797943 
95.00488558979576 0.6565266807797943 
96.00488558979576 0.6565266807797943 
97.00488558979576 0.6565266807797943 
98.00488558979576 0.6565266807797943 
99.00488558979576 0.6565266807797943 
100.00488558979576 0.6565266807797943 
101.00488558979576 0.6565266807797943 
102.00488558979576 0.6565266807797943 
103.00488558979576 0.6565266807797943 
104.00488558979576 0.6565266807797943 
105.00488558979576 0.6565266807797943 
106.00488558979576 0.6565266807797943 
107.00488558979576 0.6565266807797943 
108.00488558979576 0.6565266807797943 
109.00488558979576 0.6565266807797943 
110.00488558979576 0.6565266807797943 
111.00488558979576 0.6565266807797943 
112.00488558979576 0.6565266807797943 
#####################################################################
# End of data export. Simulation finished at: 2017-05-20T18:48+0000 #
#####################################################################
