#####################################################################
# Alchemist log file - simulation started at: 2017-05-24T11:40+0000 #
#####################################################################
# random = 14.0, targets = 100.0, density = 3.5589026259761294, gridShift = 0.0, perturbation = 0.5, connfactor = 1.5
#
# The columns have the following meaning: 
# time se[Mean] 
0.0 NaN 
1.0015837731381736 NaN 
2.0015837731381736 1.0259651875 
3.0015837731381736 1.0402394427083332 
4.001583773138174 1.0577277673611112 
5.001583773138174 1.0799275815972222 
6.001583773138174 1.0898650069444444 
7.001583773138174 1.1242261180555555 
8.001583773138174 1.1327343229166666 
9.001583773138174 1.1544933802083333 
10.001583773138174 1.2029468836805555 
11.001583773138174 1.246234234375 
12.001583773138174 1.33257996875 
13.001583773138174 1.4465847430555556 
14.001583773138174 1.5500247829861111 
15.001583773138174 1.7829356388888886 
16.001583773138172 1.9232979375 
17.001583773138172 2.1219725086805554 
18.001583773138172 2.3091185538194443 
19.001583773138172 2.45287940625 
20.001583773138172 2.667813501736111 
21.001583773138172 2.970300456597221 
22.001583773138172 2.7174668402777784 
23.001583773138172 2.820315633680554 
24.001583773138172 2.8099818020833323 
25.001583773138172 3.037544850694442 
26.001583773138172 2.9247179131944443 
27.001583773138172 3.0355042569444435 
28.001583773138172 2.9940387517361122 
29.001583773138172 3.077673194444446 
30.001583773138172 2.9968680555555545 
31.001583773138172 3.0590946701388897 
32.00158377313817 3.118999376736112 
33.00158377313817 3.2046273020833347 
34.00158377313817 3.2056793871527773 
35.00158377313817 3.308948515625 
36.00158377313817 3.398554586805555 
37.00158377313817 3.5605451319444437 
38.00158377313817 3.6744045364583333 
39.00158377313817 3.8422245190972224 
40.00158377313817 4.002778123263889 
41.00158377313817 4.305275168402778 
42.00158377313817 4.578697300347223 
43.00158377313817 4.887833362847223 
44.00158377313817 5.48415444791667 
45.00158377313817 5.806319595486111 
46.00158377313817 5.977411567708332 
47.00158377313817 6.500309751736111 
48.00158377313817 7.461834706597225 
49.00158377313817 7.124435723958333 
50.00158377313817 8.162262553819444 
51.00158377313817 8.599546406249999 
52.00158377313817 10.551797579861104 
53.00158377313817 10.141632892361104 
54.00158377313817 10.79757197743055 
55.00158377313817 12.065057026041668 
56.00158377313817 14.155259326388881 
57.00158377313817 11.54123976215277 
58.00158377313817 13.726407069444432 
59.00158377313817 13.022745619791662 
60.00158377313817 14.895010467013881 
61.00158377313817 13.733102302083326 
62.00158377313817 16.702375420138882 
63.00158377313817 19.10980625694444 
64.00158377313818 23.278641791666676 
65.00158377313818 22.65897341145834 
66.00158377313818 23.05009056423611 
67.00158377313818 29.47808116666669 
68.00158377313818 37.39762981597221 
69.00158377313818 27.90933704861111 
70.00158377313818 38.18481112847225 
71.00158377313818 34.517166781250005 
72.00158377313818 41.98370733506945 
73.00158377313818 32.81747097916669 
74.00158377313818 39.33471807118059 
75.00158377313818 38.64037014930559 
76.00158377313818 34.96614108854169 
77.00158377313818 28.670139597222235 
78.00158377313818 28.397550340277785 
79.00158377313818 29.526848006944448 
80.00158377313818 24.002066324652812 
81.00158377313818 24.470104335069447 
82.00158377313818 27.164251777777768 
83.00158377313818 23.951720456597233 
84.00158377313818 20.8985416736111 
85.00158377313818 19.25095302256945 
86.00158377313818 16.339014230902777 
87.00158377313818 14.977833076388887 
88.00158377313818 12.991251005208339 
89.00158377313818 11.967158444444443 
90.00158377313818 11.78572298611111 
91.00158377313818 11.507903105902775 
92.00158377313818 11.356181123263887 
93.00158377313818 11.224425597222222 
94.00158377313818 11.19433061284722 
95.00158377313818 11.110650914930554 
96.00158377313818 11.062739062499999 
97.00158377313818 11.054020296874999 
98.00158377313818 11.055763196180555 
99.00158377313818 11.054665131944443 
100.00158377313818 11.0479466875 
101.00158377313818 11.049339743055555 
102.00158377313818 11.05117211111111 
103.00158377313818 11.044834076388888 
104.00158377313818 11.039164055555554 
105.00158377313818 11.034335826388888 
106.00158377313818 11.029610388888889 
107.00158377313818 11.026987027777777 
108.00158377313818 11.023715673611111 
109.00158377313818 11.0224 
110.00158377313818 11.0224 
111.00158377313818 11.0224 
112.00158377313818 11.0224 
113.00158377313818 11.0224 
114.00158377313818 11.0224 
115.00158377313818 11.0224 
116.00158377313818 11.0224 
117.00158377313818 11.0224 
118.00158377313818 11.0224 
119.00158377313818 11.0224 
120.00158377313818 11.0224 
121.00158377313818 11.0224 
122.00158377313818 11.0224 
123.00158377313818 11.0224 
124.00158377313818 11.0224 
125.00158377313818 11.0224 
126.00158377313818 11.0224 
127.00158377313818 11.0224 
128.00158377313818 11.0224 
129.00158377313818 11.0224 
130.00158377313818 11.0224 
131.00158377313818 11.0224 
132.00158377313818 11.0224 
133.00158377313818 11.0224 
134.00158377313818 11.0224 
135.00158377313818 11.0224 
136.00158377313818 11.0224 
137.00158377313818 11.0224 
138.00158377313818 11.0224 
139.00158377313818 11.0224 
140.00158377313818 11.0224 
141.00158377313818 11.0224 
142.00158377313818 11.0224 
143.00158377313818 11.0224 
144.00158377313818 11.0224 
145.00158377313818 11.0224 
146.00158377313818 11.0224 
147.00158377313818 11.0224 
148.00158377313818 11.0224 
149.00158377313818 11.0224 
150.00158377313818 11.0224 
151.00158377313818 11.0224 
152.00158377313818 11.0224 
#####################################################################
# End of data export. Simulation finished at: 2017-05-24T11:40+0000 #
#####################################################################
