#####################################################################
# Alchemist log file - simulation started at: 2017-05-25T10:43+0000 #
#####################################################################
# random = 17.0, targets = 100.0, density = 1.2632455339402642, gridShift = 0.0, perturbation = 0.0, connfactor = 0.75
#
# The columns have the following meaning: 
# time se[Mean] 
0.0 NaN 
1.0003034458253823 NaN 
2.0003034458253826 1.0241236686390531 
3.0003034458253826 1.0363866452991453 
4.0003034458253826 1.0561408242932282 
5.0003034458253826 1.0828715770874424 
6.0003034458253826 1.1003764957264957 
7.0003034458253826 1.1439544091058513 
8.000303445825383 1.1504665639381986 
9.000303445825383 1.103251043721236 
10.000303445825383 1.0792240055884286 
11.000303445825383 1.0890036489151873 
12.000303445825383 1.0995586497370151 
13.000303445825383 1.117940676364234 
14.000303445825383 1.119035322156476 
15.000303445825383 1.1314138190335306 
16.00030344582538 1.1204008095003288 
17.00030344582538 1.105019810157791 
18.00030344582538 1.111597074293228 
19.00030344582538 1.0763368343195265 
20.00030344582538 1.0745501150558843 
21.00030344582538 1.054572029092702 
22.00030344582538 1.0473740014792898 
23.00030344582538 1.0240627465483234 
24.00030344582538 1.0089057075936883 
25.00030344582538 0.9865501890203813 
26.00030344582538 0.9885928829717291 
27.00030344582538 1.0036909557856672 
28.00030344582538 0.995980966469428 
29.00030344582538 1.0682489644970414 
30.00030344582538 1.1047242562458908 
31.00030344582538 1.0759599646614069 
32.00030344582538 1.1558529585798816 
33.00030344582538 1.1625654585798815 
34.00030344582538 1.255980502136752 
35.00030344582538 1.2054733522353713 
36.00030344582538 1.1907303952991453 
37.00030344582538 1.1700308267587112 
38.00030344582538 1.21162116617357 
39.00030344582538 1.1852603961209731 
40.00030344582538 1.1335278846153847 
41.00030344582538 1.0774329018737672 
42.00030344582538 1.0020311226166996 
43.00030344582538 0.9877062130177515 
44.00030344582538 0.9756930555555555 
45.00030344582538 0.974136263149244 
46.00030344582538 0.9669405489809335 
47.00030344582538 0.954649926035503 
48.00030344582538 0.9363808842866534 
49.00030344582538 0.9221640902366863 
50.00030344582538 0.9212338017751479 
51.00030344582538 0.920842122781065 
52.00030344582538 0.9216 
53.00030344582538 0.9216 
54.00030344582538 0.9216 
55.00030344582538 0.9216 
56.00030344582538 0.9216 
57.00030344582538 0.9216 
58.00030344582538 0.9216 
59.00030344582538 0.9216 
60.00030344582538 0.9216 
61.00030344582538 0.9216 
62.00030344582538 0.9216 
63.00030344582538 0.9216 
64.00030344582538 0.9216 
65.00030344582538 0.9216 
66.00030344582538 0.9216 
67.00030344582538 0.9216 
68.00030344582538 0.9216 
69.00030344582538 0.9216 
70.00030344582538 0.9216 
71.00030344582538 0.9216 
72.00030344582538 0.9216 
73.00030344582538 0.9216 
74.00030344582538 0.9216 
75.00030344582538 0.9216 
76.00030344582538 0.9216 
77.00030344582538 0.9216 
#####################################################################
# End of data export. Simulation finished at: 2017-05-25T10:43+0000 #
#####################################################################
