#####################################################################
# Alchemist log file - simulation started at: 2017-05-23T13:15+0000 #
#####################################################################
# random = 5.0, targets = 31.622776601683793, density = 0.07978946395100113, gridShift = 1.0, perturbation = 0.5, connfactor = 0.25
#
# The columns have the following meaning: 
# time se[Mean] 
0.0 NaN 
1.0183713707442061 NaN 
2.018371370744206 1.0063745553203367 
3.018371370744206 1.0061113794042116 
4.018371370744206 0.9974995093670679 
5.018371370744206 0.9781071675193348 
6.018371370744206 0.9534415851268766 
7.018371370744206 0.9123563922701591 
8.018371370744205 0.9317188544784617 
9.018371370744205 0.8923810320705208 
10.018371370744205 0.8851690508634612 
11.018371370744205 0.8757325143360649 
12.018371370744205 0.8453940434369484 
13.018371370744205 0.8802454493840391 
14.018371370744205 0.7562420845805136 
15.018371370744205 0.804971119343769 
16.018371370744205 0.739406501894032 
17.018371370744205 0.8093105448188589 
18.018371370744205 0.6994028925470619 
19.018371370744205 0.7563327692462574 
20.018371370744205 0.7165222339831621 
21.018371370744205 0.7451132047352669 
22.018371370744205 0.7630177871865297 
23.018371370744205 0.7630177871865297 
24.018371370744205 0.7630177871865297 
25.018371370744205 0.7630177871865297 
26.018371370744205 0.7630177871865297 
27.018371370744205 0.7630177871865297 
28.018371370744205 0.7630177871865297 
29.018371370744205 0.7630177871865297 
#####################################################################
# End of data export. Simulation finished at: 2017-05-23T13:15+0000 #
#####################################################################
