#####################################################################
# Alchemist log file - simulation started at: 2017-05-25T10:21+0000 #
#####################################################################
# random = 8.0, targets = 3.1622776601683795, density = 0.4483936332993466, gridShift = 1.0, perturbation = 0.5, connfactor = 0.25
#
# The columns have the following meaning: 
# time se[Mean] 
0.0 NaN 
1.0447112257851685 NaN 
2.0447112257851687 1.0 
3.0447112257851687 1.0 
4.044711225785169 0.9861476861652635 
5.044711225785169 0.99260478427731 
6.044711225785169 0.9307384308263176 
7.044711225785169 0.8660577245433949 
8.044711225785168 0.8078341163725187 
9.044711225785168 0.7385725471988362 
10.044711225785168 0.7809578811512319 
11.044711225785168 0.7412771748683091 
12.044711225785168 0.7707483125966117 
13.044711225785168 0.8160577245433949 
14.044711225785168 0.8077243912100616 
15.044711225785168 0.8668861169915809 
16.044711225785168 0.8299100383781313 
17.044711225785168 0.874281332714271 
18.044711225785168 0.9038621956050308 
19.044711225785168 0.9260478427731007 
20.044711225785168 0.9630239213865502 
21.044711225785168 0.9630239213865504 
22.044711225785168 0.980592130609708 
23.044711225785168 1.1687257771587152 
24.044711225785168 1.1567131234911132 
25.044711225785168 1.113279946765617 
26.044711225785168 1.6703222457441016 
27.044711225785168 1.248782115753456 
28.044711225785168 1.3879270300214117 
29.044711225785168 1.8933125441035243 
30.044711225785168 1.8562633153817696 
31.044711225785168 1.188402505725393 
32.044711225785164 2.4759034688942942 
33.044711225785164 1.3827866338588513 
34.044711225785164 2.2881721479409634 
35.044711225785164 1.848528016712194 
36.044711225785164 1.026439260909262 
37.044711225785164 1.0386713649017785 
38.044711225785164 0.5912662674087946 
39.044711225785164 0.39833230764411276 
40.044711225785164 0.382567183533937 
41.044711225785164 0.15478940575615946 
42.044711225785164 0.15648276570668426 
43.044711225785164 0.13812273908949282 
44.044711225785164 0.13249403342563248 
45.044711225785164 0.13610020365159647 
46.044711225785164 0.1314827657066843 
47.044711225785164 0.1332858508196663 
48.044711225785164 0.1341873933761573 
49.044711225785164 0.1341873933761573 
50.044711225785164 0.13508893593264829 
51.044711225785164 0.13508893593264829 
52.044711225785164 0.13508893593264829 
53.044711225785164 0.13508893593264829 
54.044711225785164 0.13508893593264829 
55.044711225785164 0.13508893593264829 
56.044711225785164 0.13508893593264829 
57.044711225785164 0.13508893593264829 
58.044711225785164 0.13508893593264829 
59.044711225785164 0.13508893593264829 
60.044711225785164 0.13508893593264829 
#####################################################################
# End of data export. Simulation finished at: 2017-05-25T10:21+0000 #
#####################################################################
