0.000000000000000000e+00 nan
1.000321090878196095e+00 2.368242322596529337e-01
2.000642181756392191e+00 9.949336401409787367e-01
3.000963272634590950e+00 1.027434860851010656e+00
4.001284363512784381e+00 1.006883659626848670e+00
5.001605454390982253e+00 1.032229147370433697e+00
6.001926545269181901e+00 9.086310861159059282e-01
7.002247636147376220e+00 9.145105789716641009e-01
8.002568727025568762e+00 8.074691508846609800e-01
9.002889817903765746e+00 7.840301836322123297e-01
1.000321090878196451e+01 6.917281752565572761e-01
1.100353199966016149e+01 6.353853522321731839e-01
1.200385309053836380e+01 5.369496505631567995e-01
1.300417418141654657e+01 5.269503587023005586e-01
1.400449527229475244e+01 4.614948399607723406e-01
1.500481636317294765e+01 4.122989938092606610e-01
1.600513745405113752e+01 4.026166993504867730e-01
1.700545854492933984e+01 3.427200823999139168e-01
1.800577963580753149e+01 3.245711343532731163e-01
1.900610072668573736e+01 2.770255058113706981e-01
2.000642181756392901e+01 2.814002362404578461e-01
2.100674290844212067e+01 2.899386613734705187e-01
2.200706399932032298e+01 2.305803812046050838e-01
2.300738509019851463e+01 2.877944247342875683e-01
2.400770618107672760e+01 2.259065496923411132e-01
2.500802727195491215e+01 2.225249013680875576e-01
2.600834836283309315e+01 2.161001972015481054e-01
2.700866945371129901e+01 1.929953519729735723e-01
2.800899054458950488e+01 1.849168797774830009e-01
2.900931163546768943e+01 1.827808548630339425e-01
3.000963272634589529e+01 1.831402634006096541e-01
3.100995381722407629e+01 1.828032123032236889e-01
3.201027490810227505e+01 1.828032123032236889e-01
3.301059599898049157e+01 1.828032123032236889e-01
3.401091708985867967e+01 1.828032123032236889e-01
3.501123818073687488e+01 1.828032123032236889e-01
3.601155927161506298e+01 1.828032123032236889e-01
