#####################################################################
# Alchemist log file - simulation started at: 2017-05-24T00:13+0000 #
#####################################################################
# random = 6.0, targets = 1.0, density = 20.0, gridShift = 1.0, perturbation = 0.0, connfactor = 2.0
#
# The columns have the following meaning: 
# time se[Mean] 
0.0 NaN 
1.000779844777603 NaN 
2.000779844777603 1.0478168011390587 
3.000779844777603 1.0778094183409819 
4.000779844777603 1.1151452829193678 
5.000779844777603 1.1141696988873049 
6.000779844777603 1.0645731160681324 
7.000779844777603 1.0414227706586514 
8.000779844777604 1.0185888308811895 
9.000779844777604 1.0432684701787693 
10.000779844777604 1.0088989084005693 
11.000779844777604 1.0189975214892164 
12.000779844777604 0.9824263038548752 
13.000779844777604 0.9870405526551708 
14.000779844777604 0.9780757264145964 
15.000779844777604 0.9827558930548966 
16.000779844777604 0.9832041343669253 
17.000779844777604 0.9851421188630493 
18.000779844777604 0.9886621315192745 
19.000779844777604 0.9915625164794601 
20.000779844777604 0.9915625164794601 
21.000779844777604 0.995517586879713 
22.000779844777604 0.9958999103517376 
23.000779844777604 0.9974555713758371 
24.000779844777604 0.9984575225439013 
25.000779844777604 0.9984047882718979 
26.000779844777604 0.9993803723039604 
27.000779844777604 1.0003559563360227 
28.000779844777604 1.0021621051521383 
29.000779844777604 1.008094710752518 
30.000779844777604 1.0052206929283343 
31.000779844777604 1.0157016294890049 
32.000779844777604 1.0135527079048674 
33.000779844777604 1.0215815008173803 
34.000779844777604 1.024837842113589 
35.000779844777604 1.0321810894900605 
36.000779844777604 1.0359120392342969 
37.000779844777604 1.0436112429467899 
38.000779844777604 1.0522860306913444 
39.000779844777604 1.0534857353794216 
40.000779844777604 1.0736697779887152 
41.000779844777604 1.076227390180878 
42.000779844777604 1.07845541317302 
43.000779844777604 1.1005906238464351 
44.000779844777604 1.0959368243421372 
45.000779844777604 1.1076438327268878 
46.000779844777604 1.115105732215367 
47.000779844777604 1.1095554500870104 
48.000779844777604 1.1094104308390016 
49.000779844777604 1.1112165796551172 
50.000779844777604 1.106074988134787 
51.000779844777604 1.114960712967358 
52.000779844777604 1.0956467858461185 
53.000779844777604 1.104018351526655 
54.000779844777604 1.0906238464377966 
55.000779844777604 1.0871565680535762 
56.000779844777604 1.0818040394452324 
57.000779844777604 1.066313347044247 
58.000779844777604 1.11439381954332 
59.000779844777604 1.265200653904976 
60.000779844777604 1.306847545219643 
61.000779844777604 1.520553182513317 
62.000779844777604 1.6193508411116413 
63.000779844777604 1.8962585034013655 
64.00077984477761 1.993302747455569 
65.00077984477761 2.438986447292087 
66.00077984477761 2.708999103517383 
67.00077984477761 3.1151452829193604 
68.00077984477761 3.6153957707113946 
69.00077984477761 3.7685229130412026 
70.00077984477761 4.179929336075527 
71.00077984477761 4.54777725043507 
72.00077984477761 4.538654221378479 
73.00077984477761 5.039392501186527 
74.00077984477761 5.409310235722199 
75.00077984477761 5.489360860623327 
76.00077984477761 6.1925196435163175 
77.00077984477761 6.734601592575025 
78.00077984477761 7.312595580868027 
79.00077984477761 8.276208933185657 
80.00077984477761 8.614116964615317 
81.00077984477761 9.076583346516896 
82.00077984477761 10.182117808363671 
83.00077984477761 10.672230132363019 
84.00077984477761 11.547539946211051 
85.00077984477761 12.180100722459532 
86.00077984477761 13.421702789643021 
87.00077984477761 14.470772029742138 
88.00077984477761 15.850353319622386 
89.00077984477761 16.848995412118324 
90.00077984477761 17.274244581553578 
91.00077984477761 17.357709750566936 
92.00077984477761 17.642197964457054 
93.00077984477761 17.76458102620886 
94.00077984477761 17.228550334862636 
95.00077984477761 16.536505299794346 
96.00077984477761 16.155157411801888 
97.00077984477761 15.434016242155739 
98.00077984477761 15.684108527131775 
99.00077984477761 15.497996097663874 
100.00077984477761 15.477548383694561 
101.00077984477761 15.129871328376305 
102.00077984477761 15.248286136159898 
103.00077984477761 15.925288720139214 
104.00077984477761 15.743658703791613 
105.00077984477761 15.903258978009811 
106.00077984477761 16.45288192796498 
107.00077984477761 16.4829272794389 
108.00077984477761 16.22106206823813 
109.00077984477761 16.88554026261668 
110.00077984477761 17.272372514897434 
111.00077984477761 17.1905421083162 
112.00077984477761 17.222683647102226 
113.00077984477761 16.41803775773877 
114.00077984477761 16.74992089859201 
115.00077984477761 15.667141275114682 
116.00077984477761 14.857696566998836 
117.00077984477761 14.851961714918504 
118.00077984477761 13.176475241259368 
119.00077984477761 12.693521594684395 
120.00077984477761 11.817631703844405 
121.00077984477761 10.728392132046547 
122.00077984477761 9.785503348626296 
123.00077984477761 8.623305911511865 
124.00077984477761 7.7779227970257825 
125.00077984477761 6.7986341823550624 
126.00077984477761 5.771581500817412 
127.00077984477761 4.790816326530627 
128.0007798447776 4.087749828613623 
129.0007798447776 3.3938195433212455 
130.0007798447776 2.740797869535386 
131.0007798447776 2.163014818330452 
132.0007798447776 1.6188234983915948 
133.0007798447776 1.122079839687826 
134.0007798447776 0.6622897220903812 
135.0007798447776 0.55554237198756 
136.0007798447776 0.2782260190898094 
137.0007798447776 0.2875336180984038 
138.0007798447776 0.08432210093339654 
139.0007798447776 0.06051257712387258 
140.0007798447776 0.044797764066866835 
141.0007798447776 0.0241654801455464 
142.0007798447776 0.025760691873648725 
143.0007798447776 0.011997046880767897 
144.0007798447776 0.0095712703686127 
145.0007798447776 0.0072641459684648635 
146.0007798447776 0.005286610768338316 
147.0007798447776 0.004179191056267515 
148.0007798447776 0.003190423456204198 
149.0007798447776 0.0024125929441544546 
150.0007798447776 0.0017534145441121972 
151.0007798447776 0.0012392553920792912 
152.0007798447776 7.910140800506183E-4 
153.0007798447776 4.4824131202868316E-4 
154.0007798447776 2.5048779201603324E-4 
155.0007798447776 1.3183568000843955E-4 
156.0007798447776 6.591784000421977E-5 
157.0007798447776 1.318356800084343E-5 
158.0007798447776 1.1093356479670479E-31 
159.0007798447776 1.1093356479670479E-31 
160.0007798447776 1.1093356479670479E-31 
161.0007798447776 1.1093356479670479E-31 
162.0007798447776 1.1093356479670479E-31 
163.0007798447776 1.1093356479670479E-31 
164.0007798447776 1.1093356479670479E-31 
165.0007798447776 1.1093356479670479E-31 
166.0007798447776 1.1093356479670479E-31 
167.0007798447776 1.1093356479670479E-31 
168.0007798447776 1.1093356479670479E-31 
169.0007798447776 1.1093356479670479E-31 
170.0007798447776 1.1093356479670479E-31 
171.0007798447776 1.1093356479670479E-31 
172.0007798447776 1.1093356479670479E-31 
173.0007798447776 1.1093356479670479E-31 
174.0007798447776 1.1093356479670479E-31 
175.0007798447776 1.1093356479670479E-31 
176.0007798447776 1.1093356479670479E-31 
177.0007798447776 1.1093356479670479E-31 
178.0007798447776 1.1093356479670479E-31 
179.0007798447776 1.1093356479670479E-31 
180.0007798447776 1.1093356479670479E-31 
181.0007798447776 1.1093356479670479E-31 
182.0007798447776 1.1093356479670479E-31 
183.0007798447776 1.1093356479670479E-31 
184.0007798447776 1.1093356479670479E-31 
185.0007798447776 1.1093356479670479E-31 
186.0007798447776 1.1093356479670479E-31 
187.0007798447776 1.1093356479670479E-31 
188.0007798447776 1.1093356479670479E-31 
189.0007798447776 1.1093356479670479E-31 
190.0007798447776 1.1093356479670479E-31 
191.0007798447776 1.1093356479670479E-31 
192.0007798447776 1.1093356479670479E-31 
193.0007798447776 1.1093356479670479E-31 
194.0007798447776 1.1093356479670479E-31 
195.0007798447776 1.1093356479670479E-31 
196.0007798447776 1.1093356479670479E-31 
197.0007798447776 1.1093356479670479E-31 
198.0007798447776 1.1093356479670479E-31 
199.0007798447776 1.1093356479670479E-31 
200.0007798447776 1.1093356479670479E-31 
201.0007798447776 1.1093356479670479E-31 
202.0007798447776 1.1093356479670479E-31 
203.0007798447776 1.1093356479670479E-31 
204.0007798447776 1.1093356479670479E-31 
205.0007798447776 1.1093356479670479E-31 
206.0007798447776 1.1093356479670479E-31 
207.0007798447776 1.1093356479670479E-31 
208.0007798447776 1.1093356479670479E-31 
209.0007798447776 1.1093356479670479E-31 
210.0007798447776 1.1093356479670479E-31 
211.0007798447776 1.1093356479670479E-31 
212.0007798447776 1.1093356479670479E-31 
213.0007798447776 1.1093356479670479E-31 
214.0007798447776 1.1093356479670479E-31 
215.0007798447776 1.1093356479670479E-31 
216.0007798447776 1.1093356479670479E-31 
217.0007798447776 1.1093356479670479E-31 
218.0007798447776 1.1093356479670479E-31 
219.0007798447776 1.1093356479670479E-31 
220.0007798447776 1.1093356479670479E-31 
221.0007798447776 1.1093356479670479E-31 
222.0007798447776 1.1093356479670479E-31 
223.0007798447776 1.1093356479670479E-31 
224.0007798447776 1.1093356479670479E-31 
225.0007798447776 1.1093356479670479E-31 
226.0007798447776 1.1093356479670479E-31 
227.0007798447776 1.1093356479670479E-31 
228.0007798447776 1.1093356479670479E-31 
229.0007798447776 1.1093356479670479E-31 
230.0007798447776 1.1093356479670479E-31 
231.0007798447776 1.1093356479670479E-31 
232.0007798447776 1.1093356479670479E-31 
233.0007798447776 1.1093356479670479E-31 
234.0007798447776 1.1093356479670479E-31 
235.0007798447776 1.1093356479670479E-31 
236.0007798447776 1.1093356479670479E-31 
237.0007798447776 1.1093356479670479E-31 
238.0007798447776 1.1093356479670479E-31 
239.0007798447776 1.1093356479670479E-31 
240.0007798447776 1.1093356479670479E-31 
241.0007798447776 1.1093356479670479E-31 
242.0007798447776 1.1093356479670479E-31 
243.0007798447776 1.1093356479670479E-31 
244.0007798447776 1.1093356479670479E-31 
245.0007798447776 1.1093356479670479E-31 
246.0007798447776 1.1093356479670479E-31 
247.0007798447776 1.1093356479670479E-31 
248.0007798447776 1.1093356479670479E-31 
249.0007798447776 1.1093356479670479E-31 
250.0007798447776 1.1093356479670479E-31 
251.0007798447776 1.1093356479670479E-31 
252.0007798447776 1.1093356479670479E-31 
253.0007798447776 1.1093356479670479E-31 
254.0007798447776 1.1093356479670479E-31 
255.0007798447776 1.1093356479670479E-31 
256.00077984477764 1.1093356479670479E-31 
257.00077984477764 1.1093356479670479E-31 
258.00077984477764 1.1093356479670479E-31 
#####################################################################
# End of data export. Simulation finished at: 2017-05-24T00:37+0000 #
#####################################################################
