#####################################################################
# Alchemist log file - simulation started at: 2017-05-21T04:15+0000 #
#####################################################################
# random = 2.0, targets = 1.0, density = 14.160781367816199, gridShift = 1.0, perturbation = 0.0, connfactor = 1.5
#
# The columns have the following meaning: 
# time se[Mean] 
0.0 NaN 
1.0002668521400264 NaN 
2.0002668521400264 1.0074404761904763 
3.0002668521400264 1.015395355673133 
4.000266852140026 1.0202454438565547 
5.000266852140026 1.0171406525573188 
6.000266852140026 1.0095899470899474 
7.000266852140026 1.0046296296296295 
8.000266852140026 1.003104791299236 
9.000266852140026 1.0005511463844798 
10.000266852140026 0.9983465608465608 
11.000266852140026 0.9962522045855379 
12.000266852140026 0.9930371840094063 
13.000266852140026 0.9919716343327453 
14.000266852140026 0.991200029394474 
15.000266852140026 0.9920267489711935 
16.000266852140026 0.9967666078777191 
17.000266852140026 1.0051256613756616 
18.000266852140026 1.0119782480893589 
19.000266852140026 1.0459656084656093 
20.000266852140026 1.0403071722516173 
21.000266852140026 1.0649801587301588 
22.000266852140026 1.0633450911228688 
23.000266852140026 1.0737985008818334 
24.000266852140026 1.0703079071134645 
25.000266852140026 1.059523809523809 
26.000266852140026 1.0335280717225168 
27.000266852140026 1.0120517342739563 
28.000266852140026 0.9991732804232806 
29.000266852140026 0.999210023515579 
30.000266852140026 0.9607216343327462 
31.000266852140026 0.9520502645502635 
32.00026685214003 0.9460060258671379 
33.00026685214003 0.913231187536744 
34.00026685214003 0.9069481187536736 
35.00026685214003 0.8777924750146964 
36.00026685214003 0.8672655790711361 
37.00026685214003 0.8592739564961765 
38.00026685214003 0.8384589947089927 
39.00026685214003 0.8073559670781865 
40.00026685214003 0.7957084068195178 
41.00026685214003 0.7896641681363861 
42.00026685214003 0.7879739858906488 
43.00026685214003 0.7865410052910056 
44.00026685214003 0.7838036449147535 
45.00026685214003 0.7837485302763055 
46.00026685214003 0.7811213991769559 
47.00026685214003 0.7810846560846543 
48.00026685214003 0.7804232804232787 
49.00026685214003 0.7804232804232787 
50.00026685214003 0.7804232804232787 
51.00026685214003 0.7804232804232787 
52.00026685214003 0.7804232804232787 
53.00026685214003 0.7810846560846543 
54.00026685214003 0.7777777777777813 
55.00026685214003 0.7784391534391518 
56.00026685214003 0.7711640211640187 
57.00026685214003 0.7691798941798914 
58.00026685214003 0.7658730158730174 
59.00026685214003 0.7671957671957645 
60.00026685214003 0.7625661375661388 
61.00026685214003 0.7658730158730171 
62.00026685214003 0.7619047619047637 
63.00026685214003 0.767195767195765 
64.00026685214003 0.763888888888891 
65.00026685214003 0.7678571428571441 
66.00026685214003 0.768518518518518 
67.00026685214003 0.7744708994709002 
68.00026685214003 0.7744708994709002 
69.00026685214003 0.7843915343915361 
70.00026685214003 0.7784391534391547 
71.00026685214003 0.7890211640211636 
72.00026685214003 0.7890211640211636 
73.00026685214003 0.7956349206349205 
74.00026685214003 0.7969576719576725 
75.00026685214003 0.8048941798941809 
76.00026685214003 0.806878306878308 
77.00026685214003 0.8161375661375668 
78.00026685214003 0.8181216931216923 
79.00026685214003 0.8260582010582004 
80.00026685214003 0.8313492063492062 
81.00026685214003 0.8379629629629634 
82.00026685214003 0.8531746031746028 
83.00026685214003 0.8624338624338619 
84.00026685214003 0.8690476190476184 
85.00026685214003 0.8802910052910047 
86.00026685214003 0.8882275132275137 
87.00026685214003 0.8928571428571422 
88.00026685214003 0.9014550264550272 
89.00026685214003 0.9093915343915352 
90.00026685214003 0.91468253968254 
91.00026685214003 0.9206349206349216 
92.00026685214003 0.9279100529100536 
93.00026685214003 0.9338624338624331 
94.00026685214003 0.9404761904761909 
95.00026685214003 0.9451058201058196 
96.00026685214003 0.9503968253968257 
97.00026685214003 0.9570105820105818 
98.00026685214003 0.9596560846560843 
99.00026685214003 0.9636243386243386 
100.00026685214003 0.9690806878306882 
101.00026685214003 0.9715608465608458 
102.00026685214003 0.9752167842445618 
103.00026685214003 0.9751616696061143 
104.00026685214003 0.9775315990593767 
105.00026685214003 0.9726998824221048 
106.00026685214003 0.9750146972369196 
107.00026685214003 1.2110706937095794 
108.00026685214003 0.9709362139917692 
109.00026685214003 2.4234090241034925 
110.00026685214003 1.9318599353321764 
111.00026685214003 2.6648846266902146 
112.00026685214003 3.383818342151651 
113.00026685214003 3.1403586125808096 
114.00026685214003 3.377516901822398 
115.00026685214003 2.880144032921777 
116.00026685214003 1.664829512051745 
117.00026685214003 2.131007495590833 
118.00026685214003 2.357491916519692 
119.00026685214003 1.3718584656084702 
120.00026685214003 2.0854460611405106 
121.00026685214003 1.0969833921222807 
122.00026685214003 2.060920047031164 
123.00026685214003 1.0666703409758969 
124.00026685214003 1.548280423280427 
125.00026685214003 1.5255180776014052 
126.00026685214003 1.516589506172827 
127.00026685214003 1.741291887125214 
128.00026685214004 1.2433862433862461 
129.00026685214004 1.228982951205169 
130.00026685214004 1.2122464726631377 
131.00026685214004 1.9239234273956505 
132.00026685214004 1.4216086125808371 
133.00026685214004 1.1667768959435618 
134.00026685214004 1.3890174897119314 
135.00026685214004 1.6204805996472644 
136.00026685214004 1.5982326572604324 
137.00026685214004 1.3395245443856525 
138.00026685214004 1.8063822751322807 
139.00026685214004 1.5430445326278697 
140.00026685214004 1.2808641975308666 
141.00026685214004 1.9927799823633108 
142.00026685214004 0.9951315402704198 
143.00026685214004 1.9569003527336872 
144.00026685214004 2.4092629335684927 
145.00026685214004 2.155129335684873 
146.00026685214004 1.1662257495590787 
147.00026685214004 2.3553424456202374 
148.00026685214004 1.6046626984127117 
149.00026685214004 1.830798059964712 
150.00026685214004 1.069830246913565 
151.00026685214004 1.5452123750734954 
152.00026685214004 1.2716784244561954 
153.00026685214004 0.5249485596707755 
154.00026685214004 1.231757054673739 
155.00026685214004 0.9606481481481447 
156.00026685214004 0.7027483833039339 
157.00026685214004 1.1667952674896838 
158.00026685214004 1.3889807466196464 
159.00026685214004 0.6461823927101625 
160.00026685214004 1.3582635214579644 
161.00026685214004 1.0991879776601832 
162.00026685214004 0.6058752204585687 
163.00026685214004 1.073688271604947 
164.00026685214004 0.3338293650793733 
165.00026685214004 0.08416005291005454 
166.00026685214004 0.06665196942974641 
167.00026685214004 0.05904614932392777 
168.00026685214004 0.04738021751910703 
169.00026685214004 0.038157701352145725 
170.00026685214004 0.031911375661375155 
171.00026685214004 0.025205761316872466 
172.00026685214004 0.02024544385655484 
173.00026685214004 0.01712228101116965 
174.00026685214004 0.014237948265725641 
175.00026685214004 0.011298500881834499 
176.00026685214004 0.0089836860670194 
177.00026685214004 0.007091416813639223 
178.00026685214004 0.005493092298647704 
179.00026685214004 0.004592886537330934 
180.00026685214004 0.0031415343915343792 
181.00026685214004 0.002149470899470954 
182.00026685214004 0.0014880952380951875 
183.00026685214004 8.267195767196E-4 
184.00026685214004 3.306878306878253E-4 
185.00026685214004 1.653439153439123E-4 
186.00026685214004 1.653439153439123E-4 
187.00026685214004 1.1093356479670479E-31 
188.00026685214004 1.1093356479670479E-31 
189.00026685214004 1.1093356479670479E-31 
190.00026685214004 1.1093356479670479E-31 
191.00026685214004 1.1093356479670479E-31 
192.00026685214004 1.1093356479670479E-31 
193.00026685214004 1.1093356479670479E-31 
194.00026685214004 1.1093356479670479E-31 
195.00026685214004 1.1093356479670479E-31 
196.00026685214004 1.1093356479670479E-31 
197.00026685214004 1.1093356479670479E-31 
198.00026685214004 1.1093356479670479E-31 
199.00026685214004 1.1093356479670479E-31 
200.00026685214004 1.1093356479670479E-31 
201.00026685214004 1.1093356479670479E-31 
202.00026685214004 1.1093356479670479E-31 
203.00026685214004 1.1093356479670479E-31 
204.00026685214004 1.1093356479670479E-31 
205.00026685214004 1.1093356479670479E-31 
206.00026685214004 1.1093356479670479E-31 
207.00026685214004 1.1093356479670479E-31 
208.00026685214004 1.1093356479670479E-31 
209.00026685214004 1.1093356479670479E-31 
210.00026685214004 1.1093356479670479E-31 
211.00026685214004 1.1093356479670479E-31 
212.00026685214004 1.1093356479670479E-31 
213.00026685214004 1.1093356479670479E-31 
214.00026685214004 1.1093356479670479E-31 
215.00026685214004 1.1093356479670479E-31 
216.00026685214004 1.1093356479670479E-31 
217.00026685214004 1.1093356479670479E-31 
218.00026685214004 1.1093356479670479E-31 
219.00026685214004 1.1093356479670479E-31 
220.00026685214004 1.1093356479670479E-31 
221.00026685214004 1.1093356479670479E-31 
222.00026685214004 1.1093356479670479E-31 
223.00026685214004 1.1093356479670479E-31 
224.00026685214004 1.1093356479670479E-31 
225.00026685214004 1.1093356479670479E-31 
226.00026685214004 1.1093356479670479E-31 
227.00026685214004 1.1093356479670479E-31 
228.00026685214004 1.1093356479670479E-31 
229.00026685214004 1.1093356479670479E-31 
230.00026685214004 1.1093356479670479E-31 
231.00026685214004 1.1093356479670479E-31 
232.00026685214004 1.1093356479670479E-31 
233.00026685214004 1.1093356479670479E-31 
234.00026685214004 1.1093356479670479E-31 
235.00026685214004 1.1093356479670479E-31 
236.00026685214004 1.1093356479670479E-31 
237.00026685214004 1.1093356479670479E-31 
238.00026685214004 1.1093356479670479E-31 
239.00026685214004 1.1093356479670479E-31 
240.00026685214004 1.1093356479670479E-31 
241.00026685214004 1.1093356479670479E-31 
242.00026685214004 1.1093356479670479E-31 
243.00026685214004 1.1093356479670479E-31 
244.00026685214004 1.1093356479670479E-31 
245.00026685214004 1.1093356479670479E-31 
246.00026685214004 1.1093356479670479E-31 
247.00026685214004 1.1093356479670479E-31 
248.00026685214004 1.1093356479670479E-31 
249.00026685214004 1.1093356479670479E-31 
250.00026685214004 1.1093356479670479E-31 
251.00026685214004 1.1093356479670479E-31 
252.00026685214004 1.1093356479670479E-31 
253.00026685214004 1.1093356479670479E-31 
254.00026685214004 1.1093356479670479E-31 
255.00026685214004 1.1093356479670479E-31 
256.00026685214004 1.1093356479670479E-31 
257.00026685214004 1.1093356479670479E-31 
258.00026685214004 1.1093356479670479E-31 
259.00026685214004 1.1093356479670479E-31 
260.00026685214004 1.1093356479670479E-31 
261.00026685214004 1.1093356479670479E-31 
262.00026685214004 1.1093356479670479E-31 
263.00026685214004 1.1093356479670479E-31 
264.00026685214004 1.1093356479670479E-31 
265.00026685214004 1.1093356479670479E-31 
266.00026685214004 1.1093356479670479E-31 
267.00026685214004 1.1093356479670479E-31 
268.00026685214004 1.1093356479670479E-31 
269.00026685214004 1.1093356479670479E-31 
#####################################################################
# End of data export. Simulation finished at: 2017-05-21T04:29+0000 #
#####################################################################
