#####################################################################
# Alchemist log file - simulation started at: 2017-05-25T07:32+0000 #
#####################################################################
# random = 17.0, targets = 10.0, density = 1.2632455339402642, gridShift = 1.0, perturbation = 0.0, connfactor = 0.1
#
# The columns have the following meaning: 
# time se[Mean] 
0.0 NaN 
1.002823245690351 NaN 
2.002823245690351 1.0 
3.002823245690351 1.0 
4.002823245690351 0.9988690476190476 
5.002823245690351 0.9966071428571428 
6.002823245690351 0.9954761904761905 
7.002823245690351 0.9773809523809524 
8.002823245690351 0.9831547619047619 
9.002823245690351 0.967202380952381 
10.002823245690351 0.9566071428571429 
11.002823245690351 0.9486904761904763 
12.002823245690351 0.9352380952380952 
13.002823245690351 0.9276785714285715 
14.002823245690351 0.9207738095238095 
15.002823245690351 0.9185119047619048 
16.00282324569035 0.9035714285714286 
17.00282324569035 0.8973809523809524 
18.00282324569035 0.8842857142857143 
19.00282324569035 0.8694047619047619 
20.00282324569035 0.8501190476190477 
21.00282324569035 0.829404761904762 
22.00282324569035 0.8117261904761904 
23.00282324569035 0.7858928571428572 
24.00282324569035 0.7479166666666668 
25.00282324569035 0.7216071428571429 
26.00282324569035 0.6979166666666666 
27.00282324569035 0.6652976190476191 
28.00282324569035 0.6534523809523809 
29.00282324569035 0.6485119047619048 
30.00282324569035 0.6361309523809524 
31.00282324569035 0.6343452380952381 
32.00282324569035 0.6201190476190477 
33.00282324569035 0.6205952380952381 
34.00282324569035 0.6268452380952381 
35.00282324569035 0.6351190476190476 
36.00282324569035 0.6301190476190476 
37.00282324569035 0.635 
38.00282324569035 0.6311904761904762 
39.00282324569035 0.64 
40.00282324569035 0.6383333333333333 
41.00282324569035 0.6383333333333333 
42.00282324569035 0.64 
43.00282324569035 0.6383333333333333 
44.00282324569035 0.64 
45.00282324569035 0.64 
46.00282324569035 0.64 
47.00282324569035 0.64 
48.00282324569035 0.64 
49.00282324569035 0.64 
50.00282324569035 0.64 
51.00282324569035 0.64 
52.00282324569035 0.64 
53.00282324569035 0.64 
54.00282324569035 0.64 
55.00282324569035 0.64 
56.00282324569035 0.64 
57.00282324569035 0.64 
58.00282324569035 0.64 
59.00282324569035 0.64 
60.00282324569035 0.64 
61.00282324569035 0.64 
62.00282324569035 0.64 
63.00282324569035 0.64 
#####################################################################
# End of data export. Simulation finished at: 2017-05-25T07:32+0000 #
#####################################################################
