#####################################################################
# Alchemist log file - simulation started at: 2017-05-25T23:48+0000 #
#####################################################################
# random = 8.0, targets = 100.0, density = 20.0, gridShift = 1.0, perturbation = 0.0, connfactor = 0.1
#
# The columns have the following meaning: 
# time se[Mean] 
0.0 NaN 
1.0009270308328329 NaN 
2.000927030832833 1.0 
3.000927030832833 1.0 
4.000927030832833 0.9999811105837684 
5.000927030832833 0.9999149976269578 
6.000927030832833 0.9998299952539155 
7.000927030832833 0.9996034171808258 
8.000927030832834 0.9994617465590887 
9.000927030832834 0.999178785002373 
10.000927030832834 0.9989523967726626 
11.000927030832834 0.9986878500237304 
12.000927030832834 0.9983670147128619 
13.000927030832834 0.9980645942097769 
14.000927030832834 0.9978467963929758 
15.000927030832834 0.9975448504983389 
16.000927030832834 0.9972235405790223 
17.000927030832834 0.9969874228761272 
18.000927030832834 0.9966007593735169 
19.000927030832834 0.9964683436165164 
20.000927030832834 0.9962131466540105 
21.000927030832834 0.9959675842429996 
22.000927030832834 0.9957411010915994 
23.000927030832834 0.9953542477456099 
24.000927030832834 0.9950806359753204 
25.000927030832834 0.9947319411485525 
26.000927030832834 0.9943467014712862 
27.000927030832834 0.9938215946843854 
28.000927030832834 0.9934165163739914 
29.000927030832834 0.9929005695301376 
30.000927030832834 0.9922061224489795 
31.000927030832834 0.9919227812055055 
32.000927030832834 0.9912264356905554 
33.000927030832834 0.9906153773137162 
34.000927030832834 0.9899196962505932 
35.000927030832834 0.9896457047935453 
36.000927030832834 0.9888663502610346 
37.000927030832834 0.9886102990033223 
38.000927030832834 0.9881113431419078 
39.000927030832834 0.9875673469387755 
40.000927030832834 0.9874132890365448 
41.000927030832834 0.9868878025628857 
42.000927030832834 0.9866605600379686 
43.000927030832834 0.9861053156146179 
44.000927030832834 0.9858053630754627 
45.000927030832834 0.9857523493118178 
46.000927030832834 0.9852462268628381 
47.000927030832834 0.9854176079734219 
48.000927030832834 0.9852085904129093 
49.000927030832834 0.9849245847176079 
50.000927030832834 0.9850789748457522 
51.000927030832834 0.9849068818224964 
52.000927030832834 0.9850448504983389 
53.000927030832834 0.9848276222116754 
54.000927030832834 0.9848904129093498 
55.000927030832834 0.9848327005220693 
56.000927030832834 0.984830612244898 
57.000927030832834 0.9847356905552919 
58.000927030832834 0.9847247271001424 
59.000927030832834 0.9846762695775985 
60.000927030832834 0.9845912672045563 
61.000927030832834 0.9845709539629804 
62.000927030832834 0.9844953013763644 
63.000927030832834 0.9844189843379212 
64.00092703083283 0.9844282392026579 
65.00092703083283 0.9843812055054579 
66.00092703083283 0.9844278595158994 
67.00092703083283 0.9844842429995253 
68.00092703083283 0.984456383483626 
69.00092703083283 0.9846162790697675 
70.00092703083283 0.9845881347887991 
71.00092703083283 0.9847108210726151 
72.00092703083283 0.9847578547698149 
73.00092703083283 0.9848522069292833 
74.00092703083283 0.9848996203132416 
75.00092703083283 0.9850975794969149 
76.00092703083283 0.9853050783103938 
77.00092703083283 0.9853429520645468 
78.00092703083283 0.9855975794969151 
79.00092703083283 0.98570118652112 
80.00092703083283 0.9859279544375891 
81.00092703083283 0.9860506407214048 
82.00092703083283 0.9863434266729947 
83.00092703083283 0.9864851922164215 
84.00092703083283 0.9868152823920265 
85.00092703083283 0.9869570479354531 
86.00092703083283 0.9872309444708116 
87.00092703083283 0.9874196487897483 
88.00092703083283 0.9877124347413383 
89.00092703083283 0.9878918841955386 
90.00092703083283 0.9882035595633601 
91.00092703083283 0.9884018984337922 
92.00092703083283 0.9887135738016135 
93.00092703083283 0.9889591362126247 
94.00092703083283 0.989270811580446 
95.00092703083283 0.9895258186995727 
96.00092703083283 0.9898280493592786 
97.00092703083283 0.990101945894637 
98.00092703083283 0.9904230659705744 
99.00092703083283 0.9906686283815851 
100.00092703083283 0.9909991931656382 
101.00092703083283 0.9913203132415757 
102.00092703083283 0.9915942097769339 
103.00092703083283 0.991877551020408 
104.00092703083283 0.9921797816801138 
105.00092703083283 0.9925103464641669 
106.00092703083283 0.9928031324157569 
107.00092703083283 0.9931336971998103 
108.00092703083283 0.9934642619838632 
109.00092703083283 0.9937664926435691 
110.00092703083283 0.9940781680113906 
111.00092703083283 0.9943803986710962 
112.00092703083283 0.9947204081632653 
113.00092703083283 0.9948909349786427 
114.00092703083283 0.995315424774561 
115.00092703083283 0.9947990982439487 
116.00092703083283 0.9949318462268629 
117.00092703083283 0.9950834836260084 
118.00092703083283 0.9951596582819173 
119.00092703083283 0.9954806834361652 
120.00092703083283 0.9956230185097296 
121.00092703083283 0.9962448030374941 
122.00092703083283 0.9959920265780731 
123.00092703083283 0.9962682486948268 
124.00092703083283 0.9963323208353109 
125.00092703083283 0.9966678215472236 
126.00092703083283 0.9962460844803038 
127.00092703083283 0.995731561461794 
128.00092703083283 0.9961170859041292 
129.00092703083283 0.9940871855719032 
130.00092703083283 0.9941172282866636 
131.00092703083283 0.9936921214997627 
132.00092703083283 0.9931946369245371 
133.00092703083283 0.9929844328429045 
134.00092703083283 0.9922483151400097 
135.00092703083283 0.993193023255814 
136.00092703083283 0.99190968201234 
137.00092703083283 0.9921504034171807 
138.00092703083283 0.9918368770764121 
139.00092703083283 0.9921760797342194 
140.00092703083283 0.9920264356905553 
141.00092703083283 0.9908567157095395 
142.00092703083283 0.9914089226388231 
143.00092703083283 0.9898863312766967 
144.00092703083283 0.9898901756051256 
145.00092703083283 0.9891027052681535 
146.00092703083283 0.9873678690080683 
147.00092703083283 0.9867604651162792 
148.00092703083283 0.9854209776934032 
149.00092703083283 0.9844859990507829 
150.00092703083283 0.9831230185097298 
151.00092703083283 0.9831678215472238 
152.00092703083283 0.9819094447081157 
153.00092703083283 0.9803351684859986 
154.00092703083283 0.9796945420028474 
155.00092703083283 0.9791280018984342 
156.00092703083283 0.9775979117228283 
157.00092703083283 0.976077978168012 
158.00092703083283 0.9752631703844324 
159.00092703083283 0.9744430469862371 
160.00092703083283 0.9716461319411491 
161.00092703083283 0.971035073564309 
162.00092703083283 0.9693242524916947 
163.00092703083283 0.9672394399620312 
164.00092703083283 0.9659071665875654 
165.00092703083283 0.9652581395348837 
166.00092703083283 0.9658054579971526 
167.00092703083283 0.9639234456573328 
168.00092703083283 0.9637735168485996 
169.00092703083283 0.9626363075462737 
170.00092703083283 0.9624521594684381 
171.00092703083283 0.9615736592311342 
172.00092703083283 0.9614753203607017 
173.00092703083283 0.9601480778357848 
174.00092703083283 0.9591235405790225 
175.00092703083283 0.9588696250593262 
176.00092703083283 0.9571520645467491 
177.00092703083283 0.9576738965353578 
178.00092703083283 0.9555590412909354 
179.00092703083283 0.955736022781206 
180.00092703083283 0.9535407688656862 
181.00092703083283 0.9528754627432372 
182.00092703083283 0.952187565258662 
183.00092703083283 0.9510249644043659 
184.00092703083283 0.950173279544376 
185.00092703083283 0.948508542952065 
186.00092703083283 0.9483716658756525 
187.00092703083283 0.9458652586616042 
188.00092703083283 0.9452316563834836 
189.00092703083283 0.9432752728998579 
190.00092703083283 0.9425591362126249 
191.00092703083283 0.9404041765543426 
192.00092703083283 0.9399532036070242 
193.00092703083283 0.9380452776459417 
194.00092703083283 0.9366611295681059 
195.00092703083283 0.9362383958234459 
196.00092703083283 0.9344304224015186 
197.00092703083283 0.9334135263407687 
198.00092703083283 0.9333626957759849 
199.00092703083283 0.9314345989558613 
200.00092703083283 0.9307616041765544 
201.00092703083283 0.9296833887043189 
202.00092703083283 0.9293527764594212 
203.00092703083283 0.9273322733744661 
204.00092703083283 0.9270901281442809 
205.00092703083283 0.9259295206454675 
206.00092703083283 0.9246201233981963 
207.00092703083283 0.9236269102990033 
208.00092703083283 0.9227009966777407 
209.00092703083283 0.9209350735643093 
210.00092703083283 0.9209819174181302 
211.00092703083283 0.9186709065021356 
212.00092703083283 0.918624537256763 
213.00092703083283 0.918413763644993 
214.00092703083283 0.9175909824394873 
215.00092703083283 0.9164983388704316 
216.00092703083283 0.9162574276222115 
217.00092703083283 0.9158347887992404 
218.00092703083283 0.9148094921689605 
219.00092703083283 0.9150158993830092 
220.00092703083283 0.9133937351684863 
221.00092703083283 0.912818035121025 
222.00092703083283 0.9126356430944469 
223.00092703083283 0.9117647840531563 
224.00092703083283 0.9109920265780734 
225.00092703083283 0.9108561936402468 
226.00092703083283 0.9099806834361649 
227.00092703083283 0.9089783103939248 
228.00092703083283 0.9086002847650688 
229.00092703083283 0.9079616041765542 
230.00092703083283 0.9069218319886095 
231.00092703083283 0.9070908400569532 
232.00092703083283 0.9059454674893211 
233.00092703083283 0.9059026578073088 
234.00092703083283 0.9054037019458949 
235.00092703083283 0.9046440436639771 
236.00092703083283 0.9040287612719505 
237.00092703083283 0.903638870431894 
238.00092703083283 0.9029598481252968 
239.00092703083283 0.9022828191741816 
240.00092703083283 0.9016764119601328 
241.00092703083283 0.9011876601803515 
242.00092703083283 0.9004928808732795 
243.00092703083283 0.9000402942572376 
244.00092703083283 0.8995329378262933 
245.00092703083283 0.8989465590887519 
246.00092703083283 0.8984403417180825 
247.00092703083283 0.8979531086853346 
248.00092703083283 0.8972500237304225 
249.00092703083283 0.8968700522069295 
250.00092703083283 0.8961935927859517 
251.00092703083283 0.8955808732795444 
252.00092703083283 0.8952559563360228 
253.00092703083283 0.8947324632178453 
254.00092703083283 0.8942905552918843 
255.00092703083283 0.8937509254864736 
256.0009270308328 0.8933358329378264 
257.0009270308328 0.8928687233032748 
258.0009270308328 0.8924276696725202 
259.0009270308328 0.8920496915045087 
260.0009270308328 0.8916807783578548 
261.0009270308328 0.8912851447555766 
262.0009270308328 0.8908086853345989 
263.0009270308328 0.8904134314190792 
264.0009270308328 0.8902240151874703 
265.0009270308328 0.8897478405315614 
266.0009270308328 0.8894158519221642 
267.0009270308328 0.8890649738965354 
268.0009270308328 0.8886695301376365 
269.0009270308328 0.8883018509729473 
270.0009270308328 0.8880501186521119 
271.0009270308328 0.887691124822022 
272.0009270308328 0.8874218319886096 
273.0009270308328 0.8870991931656385 
274.0009270308328 0.8868563360227814 
275.0009270308328 0.8865249169435218 
276.0009270308328 0.8863002847650687 
277.0009270308328 0.8860309919316564 
278.0009270308328 0.8856813478879924 
279.0009270308328 0.8854926910299004 
280.0009270308328 0.885268438538206 
281.0009270308328 0.8850262458471762 
282.0009270308328 0.8848558139534884 
283.0009270308328 0.8846764119601329 
284.0009270308328 0.8845598006644518 
285.0009270308328 0.884434219269103 
286.0009270308328 0.8843355481727575 
287.0009270308328 0.8842637873754153 
288.0009270308328 0.8841382059800665 
289.0009270308328 0.8840574750830565 
290.0009270308328 0.8839767441860465 
291.0009270308328 0.8839229235880399 
292.0009270308328 0.8838691029900333 
293.0009270308328 0.8838242524916944 
294.0009270308328 0.8837704318936878 
295.0009270308328 0.8837076411960133 
296.0009270308328 0.8836897009966778 
297.0009270308328 0.8836538205980067 
298.0009270308328 0.8836358803986711 
299.0009270308328 0.8836179401993356 
300.0009270308328 0.8836179401993356 
301.0009270308328 0.8836 
302.0009270308328 0.8836 
303.0009270308328 0.8836 
304.0009270308328 0.8836 
305.0009270308328 0.8836 
306.0009270308328 0.8836 
307.0009270308328 0.8836 
308.0009270308328 0.8836 
309.0009270308328 0.8836 
310.0009270308328 0.8836 
311.0009270308328 0.8836 
312.0009270308328 0.8836 
313.0009270308328 0.8836 
314.0009270308328 0.8836 
315.0009270308328 0.8836 
316.0009270308328 0.8836 
317.0009270308328 0.8836 
318.0009270308328 0.8836 
319.0009270308328 0.8836 
320.0009270308328 0.8836 
321.0009270308328 0.8836 
322.0009270308328 0.8836 
323.0009270308328 0.8836 
324.0009270308328 0.8836 
325.0009270308328 0.8836 
326.0009270308328 0.8836 
327.0009270308328 0.8836 
328.0009270308328 0.8836 
329.0009270308328 0.8836 
330.0009270308328 0.8836 
331.0009270308328 0.8836 
332.0009270308328 0.8836 
333.0009270308328 0.8836 
334.0009270308328 0.8836 
335.0009270308328 0.8836 
336.0009270308328 0.8836 
337.0009270308328 0.8836 
338.0009270308328 0.8836 
339.0009270308328 0.8836 
340.0009270308328 0.8836 
341.0009270308328 0.8836 
342.0009270308328 0.8836 
343.0009270308328 0.8836 
344.0009270308328 0.8836 
345.0009270308328 0.8836 
346.0009270308328 0.8836 
347.0009270308328 0.8836 
348.0009270308328 0.8836 
349.0009270308328 0.8836 
350.0009270308328 0.8836 
351.0009270308328 0.8836 
352.0009270308328 0.8836 
353.0009270308328 0.8836 
354.0009270308328 0.8836 
355.0009270308328 0.8836 
356.0009270308328 0.8836 
357.0009270308328 0.8836 
358.0009270308328 0.8836 
359.0009270308328 0.8836 
360.0009270308328 0.8836 
361.0009270308328 0.8836 
362.0009270308328 0.8836 
363.0009270308328 0.8836 
364.0009270308328 0.8836 
365.0009270308328 0.8836 
366.0009270308328 0.8836 
367.0009270308328 0.8836 
368.0009270308328 0.8836 
369.0009270308328 0.8836 
370.0009270308328 0.8836 
371.0009270308328 0.8836 
372.0009270308328 0.8836 
373.0009270308328 0.8836 
374.0009270308328 0.8836 
375.0009270308328 0.8836 
376.0009270308328 0.8836 
377.0009270308328 0.8836 
378.0009270308328 0.8836 
379.0009270308328 0.8836 
380.0009270308328 0.8836 
381.0009270308328 0.8836 
382.0009270308328 0.8836 
383.0009270308328 0.8836 
384.0009270308328 0.8836 
385.0009270308328 0.8836 
386.0009270308328 0.8836 
387.0009270308328 0.8836 
388.0009270308328 0.8836 
389.0009270308328 0.8836 
390.0009270308328 0.8836 
391.0009270308328 0.8836 
392.0009270308328 0.8836 
393.0009270308328 0.8836 
394.0009270308328 0.8836 
395.0009270308328 0.8836 
396.0009270308328 0.8836 
397.0009270308328 0.8836 
398.0009270308328 0.8836 
399.0009270308328 0.8836 
400.0009270308328 0.8836 
401.0009270308328 0.8836 
402.0009270308328 0.8836 
#####################################################################
# End of data export. Simulation finished at: 2017-05-26T00:15+0000 #
#####################################################################
