0.000000000000000000e+00 nan
1.000008416235989905e+00 4.677024931557518194e-04
2.000016832471979811e+00 9.524664545278459515e-01
3.000025248707970604e+00 9.522452153822794640e-01
4.000033664943959621e+00 9.512420289774030646e-01
5.000042081179952191e+00 9.487553065981022549e-01
6.000050497415941209e+00 9.454182715061855147e-01
7.000058913651932002e+00 9.404660483105680147e-01
8.000067329887919243e+00 9.384259119776714453e-01
9.000075746123911813e+00 9.341235466496154993e-01
1.000008416235990438e+01 9.315331143145552106e-01
1.100009257859588985e+01 9.272102402287153433e-01
1.200010099483188242e+01 9.238094633914745168e-01
1.300010941106787499e+01 9.197538315548744459e-01
1.400011782730386400e+01 9.135815462659362396e-01
1.500012624353985125e+01 9.115210818938337400e-01
1.600013465977583849e+01 9.055356613870586546e-01
1.700014307601183461e+01 9.025826371291707506e-01
1.800015149224782363e+01 8.963699140502877638e-01
1.900015990848380909e+01 8.913311283742744173e-01
2.000016832471980877e+01 8.854362033110473318e-01
2.100017674095579423e+01 8.788087736529243132e-01
2.200018515719177969e+01 8.734807833434754532e-01
2.300019357342777937e+01 8.671345174335093331e-01
2.400020198966376483e+01 8.635002705582873750e-01
2.500021040589975030e+01 8.578030479968421496e-01
2.600021882213574997e+01 8.526611638365747536e-01
2.700022723837173189e+01 8.464983429408928783e-01
2.800023565460772801e+01 8.426312655603930279e-01
2.900024407084371347e+01 8.371587764268220155e-01
3.000025248707970249e+01 8.329386210420115511e-01
3.100026090331569861e+01 8.284668746248399218e-01
3.200026931955167697e+01 8.228581204918942182e-01
3.300027773578767665e+01 8.196678283101230811e-01
3.400028615202366922e+01 8.138255065891853990e-01
3.500029456825964758e+01 8.097926262546460974e-01
3.600030298449564725e+01 7.986243679440405696e-01
3.700031140073164693e+01 7.947084865130751297e-01
3.800031981696761818e+01 7.864102159041720386e-01
3.900032823320361786e+01 7.743742210886224164e-01
4.000033664943961753e+01 7.675117715155823639e-01
4.100034506567558878e+01 7.585564248128416898e-01
4.200035348191158846e+01 7.525386524613728589e-01
4.300036189814758814e+01 7.497537799390044944e-01
4.400037031438355939e+01 7.327611392929587186e-01
4.500037873061955906e+01 7.369490016359663276e-01
4.600038714685555874e+01 7.279233221454961544e-01
4.700039556309152289e+01 7.146251442655177089e-01
4.800040397932752967e+01 7.065060084115031280e-01
4.900041239556352934e+01 6.916017606256197325e-01
5.000042081179950060e+01 6.814255002417743956e-01
5.100042922803549317e+01 6.655216310600912122e-01
5.200043764427149995e+01 6.530740635921001846e-01
5.300044606050747120e+01 6.521419377444129806e-01
5.400045447674346377e+01 6.237397535245834401e-01
5.500046289297945634e+01 6.246142177190964206e-01
5.600047130921545602e+01 6.132042262692813939e-01
5.700047972545143438e+01 5.858657766377588505e-01
5.800048814168742695e+01 5.808100509253334431e-01
5.900049655792342662e+01 5.588762546275418686e-01
6.000050497415940498e+01 5.534528056022328668e-01
6.100051339039539045e+01 5.335071173116622267e-01
6.200052180663139723e+01 5.198766410089602497e-01
6.300053022286737558e+01 5.063202438312240927e-01
6.400053863910335394e+01 5.006297911950242652e-01
6.500054705533936783e+01 4.896326754347111732e-01
6.600055547157535329e+01 5.278188129840445386e-01
6.700056388781132455e+01 5.003075252045350307e-01
6.800057230404733843e+01 5.496168243267967046e-01
6.900058072028332390e+01 5.457320607763050946e-01
7.000058913651929515e+01 5.438421378299873599e-01
7.100059755275530904e+01 5.451655454808339574e-01
7.200060596899129450e+01 5.905642398486531386e-01
7.300061438522726576e+01 5.798667936705307335e-01
7.400062280146329385e+01 4.927967105973252160e-01
7.500063121769926511e+01 5.232202036397568534e-01
7.600063963393523636e+01 4.673552575393096209e-01
7.700064805017126446e+01 4.647749819385495473e-01
7.800065646640723571e+01 4.457131112708146992e-01
7.900066488264320697e+01 4.404745723866705931e-01
8.000067329887923506e+01 4.422184053578814278e-01
8.100068171511520632e+01 4.145981037794370661e-01
8.200069013135117757e+01 4.015311107307866223e-01
8.300069854758720567e+01 4.152356487423407017e-01
8.400070696382317692e+01 4.272702247278449272e-01
8.500071538005914817e+01 4.019503114841347369e-01
8.600072379629517627e+01 4.210483349047781099e-01
8.700073221253114752e+01 4.060518763764917605e-01
8.800074062876711878e+01 4.254535750433431907e-01
8.900074904500314688e+01 4.128325717359570546e-01
9.000075746123911813e+01 3.077167787185568493e-01
9.100076587747508938e+01 3.162084273440087245e-01
9.200077429371111748e+01 2.678954144790442471e-01
9.300078270994708873e+01 2.400412339616099233e-01
9.400079112618304578e+01 2.240507513557977726e-01
9.500079954241908808e+01 2.250454793108665474e-01
9.600080795865505934e+01 2.144432237887652082e-01
9.700081637489101638e+01 2.225743724086661490e-01
9.800082479112705869e+01 2.327932380200165852e-01
9.900083320736301573e+01 2.040037578681111186e-01
1.000008416235990012e+02 2.188122520816445926e-01
1.010008500398350293e+02 1.825967520611560535e-01
1.020008584560709863e+02 1.851879604109425148e-01
1.030008668723069718e+02 1.902061632857537099e-01
1.040008752885429999e+02 1.350629508664153711e-01
1.050008837047789569e+02 1.453427108677664281e-01
1.060008921210149424e+02 1.444941428161325425e-01
1.070009005372509705e+02 1.306944460185082424e-01
1.080009089534869275e+02 1.170186657582596157e-01
1.090009173697229414e+02 1.015713941213845090e-01
1.100009257859589127e+02 8.558298693872676277e-02
1.110009342021948981e+02 9.289102534378192166e-02
1.120009426184309120e+02 8.764174156154963535e-02
1.130009510346668833e+02 7.087202929946018193e-02
1.140009594509028688e+02 7.509244481227334012e-02
1.150009678671388826e+02 4.518165718606428904e-02
1.160009762833748539e+02 6.050968450525864850e-02
1.170009846996108394e+02 5.110661366958666602e-02
1.180009931158468532e+02 5.028629656716906982e-02
1.190010015320828245e+02 3.811273747150849267e-02
1.200010099483188100e+02 5.586744619568172893e-02
1.210010183645548238e+02 5.242401852288314235e-02
1.220010267807907809e+02 9.232695131405638245e-02
1.230010351970267806e+02 1.291070514918309098e-01
1.240010436132627945e+02 8.595984946372060842e-02
1.250010520294987515e+02 8.894822689521759973e-02
1.260010604457347512e+02 1.008060609267364405e-01
1.270010688619707651e+02 5.283336562644699863e-02
1.280010772782067079e+02 7.984644608778775077e-02
1.290010856944427360e+02 2.742347669129225132e-02
1.300010941106787357e+02 4.031575940562701077e-02
1.310011025269146785e+02 2.949606565405157518e-02
1.320011109431507066e+02 2.178972201662213171e-02
1.330011193593867063e+02 3.903567839940878803e-02
1.340011277756226491e+02 1.791970696986476541e-02
1.350011361918586772e+02 2.461757312834038716e-02
1.360011446080946769e+02 2.443863776343353431e-02
1.370011530243306197e+02 3.201575121370889981e-02
1.380011614405666478e+02 3.260821298856626110e-02
1.390011698568026475e+02 1.381707055422578927e-02
1.400011782730385903e+02 2.232046566054195907e-02
1.410011866892746184e+02 2.245327110754334610e-02
1.420011951055106181e+02 2.214020059864646103e-02
1.430012035217465609e+02 3.105015101139071629e-02
1.440012119379825890e+02 1.356215643914551565e-02
1.450012203542185887e+02 3.039751237631504663e-02
1.460012287704545315e+02 2.228965948850592654e-02
1.470012371866905596e+02 1.314905633144485865e-02
1.480012456029265877e+02 3.144707582031896348e-02
1.490012540191625021e+02 1.167798619236423696e-02
1.500012624353985302e+02 2.209151602203172915e-02
1.510012708516345583e+02 3.039751237631505010e-02
1.520012792678704727e+02 3.039751237631503969e-02
1.530012876841065008e+02 2.528976447927217940e-03
1.540012961003425289e+02 2.997600568123829148e-02
1.550013045165784433e+02 1.167798619236415890e-02
1.560013129328144714e+02 1.167798619236420921e-02
1.570013213490504995e+02 2.528976447927217940e-03
1.580013297652864139e+02 2.528976447927217940e-03
1.590013381815224420e+02 2.528976447927217940e-03
1.600013465977584701e+02 2.528976447927217940e-03
1.610013550139943845e+02 2.528976447927217940e-03
1.620013634302304126e+02 2.528976447927217940e-03
1.630013718464664407e+02 2.528976447927217940e-03
1.640013802627023551e+02 2.528976447927217940e-03
1.650013886789383832e+02 2.528976447927217940e-03
1.660013970951744113e+02 2.528976447927217940e-03
1.670014055114103257e+02 2.528976447927217940e-03
1.680014139276463538e+02 2.528976447927217940e-03
1.690014223438823819e+02 2.528976447927217940e-03
1.700014307601182963e+02 2.528976447927217940e-03
1.710014391763543244e+02 2.528976447927217940e-03
1.720014475925903525e+02 2.528976447927217940e-03
1.730014560088262670e+02 2.528976447927217940e-03
1.740014644250622950e+02 2.528976447927217940e-03
1.750014728412983231e+02 2.528976447927217940e-03
1.760014812575342376e+02 2.528976447927217940e-03
1.770014896737702657e+02 2.528976447927217940e-03
1.780014980900062938e+02 2.528976447927217940e-03
1.790015065062422082e+02 2.528976447927217940e-03
1.800015149224782363e+02 2.528976447927217940e-03
1.810015233387142644e+02 2.528976447927217940e-03
1.820015317549501788e+02 2.528976447927217940e-03
1.830015401711862069e+02 2.528976447927217940e-03
1.840015485874222350e+02 2.528976447927217940e-03
1.850015570036581494e+02 2.528976447927217940e-03
1.860015654198941775e+02 2.528976447927217940e-03
1.870015738361302056e+02 2.528976447927217940e-03
1.880015822523660916e+02 2.528976447927217940e-03
1.890015906686021481e+02 2.528976447927217940e-03
1.900015990848381762e+02 2.528976447927217940e-03
1.910016075010740622e+02 2.528976447927217940e-03
1.920016159173101187e+02 2.528976447927217940e-03
1.930016243335461468e+02 2.528976447927217940e-03
1.940016327497820328e+02 2.528976447927217940e-03
1.950016411660180609e+02 2.528976447927217940e-03
1.960016495822541174e+02 2.528976447927217940e-03
1.970016579984900318e+02 2.528976447927217940e-03
1.980016664147260315e+02 2.528976447927217940e-03
1.990016748309620880e+02 2.528976447927217940e-03
2.000016832471980024e+02 2.528976447927217940e-03
2.010016916634340021e+02 2.528976447927217940e-03
2.020017000796700586e+02 2.528976447927217940e-03
2.030017084959059730e+02 2.528976447927217940e-03
2.040017169121419727e+02 2.528976447927217940e-03
2.050017253283780292e+02 2.528976447927217940e-03
2.060017337446139436e+02 2.528976447927217940e-03
2.070017421608499433e+02 2.528976447927217940e-03
2.080017505770859998e+02 2.528976447927217940e-03
2.090017589933219142e+02 2.528976447927217940e-03
2.100017674095579139e+02 2.528976447927217940e-03
2.110017758257939704e+02 2.528976447927217940e-03
2.120017842420298848e+02 2.528976447927217940e-03
2.130017926582658845e+02 2.528976447927217940e-03
2.140018010745019410e+02 2.528976447927217940e-03
2.150018094907378554e+02 2.528976447927217940e-03
2.160018179069738551e+02 2.528976447927217940e-03
2.170018263232098548e+02 2.528976447927217940e-03
2.180018347394458829e+02 2.528976447927217940e-03
2.190018431556818541e+02 2.528976447927217940e-03
