#####################################################################
# Alchemist log file - simulation started at: 2017-05-23T00:35+0000 #
#####################################################################
# random = 4.0, targets = 100.0, density = 0.894427190999916, gridShift = 1.0, perturbation = 0.5, connfactor = 1.5
#
# The columns have the following meaning: 
# time se[Mean] 
0.0 NaN 
1.0035718759004084 NaN 
2.003571875900408 1.0951985416666665 
3.003571875900408 1.132556857638889 
4.003571875900408 1.2467164756944444 
5.003571875900408 1.387667175925926 
6.003571875900408 1.4447073379629631 
7.003571875900408 1.5933324016203705 
8.003571875900409 1.5605565972222224 
9.003571875900409 1.6182033101851854 
10.003571875900409 1.5616928587962964 
11.003571875900409 1.5852982870370371 
12.003571875900409 1.5698223842592594 
13.003571875900409 1.5557992824074074 
14.003571875900409 1.6493405324074075 
15.003571875900409 1.8720492592592592 
16.00357187590041 1.929505 
17.00357187590041 2.182882314814815 
18.00357187590041 2.583762013888889 
19.00357187590041 2.233071412037037 
20.00357187590041 2.561032847222222 
21.00357187590041 2.4565940509259256 
22.00357187590041 2.3589741435185188 
23.00357187590041 2.554799050925926 
24.00357187590041 2.6482975462962965 
25.00357187590041 2.682939212962963 
26.00357187590041 2.584133888888889 
27.00357187590041 2.7630355092592596 
28.00357187590041 2.572269305555556 
29.00357187590041 2.773951226851852 
30.00357187590041 2.88952435763889 
31.00357187590041 3.4765076041666667 
32.003571875900406 3.3492182407407407 
33.003571875900406 3.876546672453704 
34.003571875900406 4.0721782233796295 
35.003571875900406 4.638227893518518 
36.003571875900406 4.5828495081018525 
37.003571875900406 4.933265474537038 
38.003571875900406 4.930905630787038 
39.003571875900406 4.9786615567129635 
40.003571875900406 4.84575519675926 
41.003571875900406 5.089997662037038 
42.003571875900406 4.8905031365740745 
43.003571875900406 4.7660602430555565 
44.003571875900406 4.1970958796296305 
45.003571875900406 4.51682160300926 
46.003571875900406 4.165778038194445 
47.003571875900406 3.853659253472223 
48.003571875900406 3.5512110011574083 
49.003571875900406 3.7992058333333345 
50.003571875900406 3.699472175925927 
51.003571875900406 3.6781208564814825 
52.003571875900406 3.7415105555555566 
53.003571875900406 4.3138184722222235 
54.003571875900406 4.844363680555557 
55.003571875900406 5.880915000000001 
56.003571875900406 8.389358634259262 
57.003571875900406 6.419490717592595 
58.003571875900406 7.955695231481484 
59.003571875900406 7.4757780555555575 
60.003571875900406 7.000128009259262 
61.003571875900406 8.511892754629633 
62.003571875900406 8.508200879629634 
63.003571875900406 9.000901134259264 
64.0035718759004 9.976362384259263 
65.0035718759004 8.946681296296298 
66.0035718759004 8.928860856481483 
67.0035718759004 7.927985763888891 
68.0035718759004 6.418505810185185 
69.0035718759004 4.417307986111114 
70.0035718759004 5.417851481481484 
71.0035718759004 4.416783333333337 
72.0035718759004 3.9194175000000016 
73.0035718759004 3.9204000000000017 
74.0035718759004 3.9204000000000017 
75.0035718759004 3.9204000000000017 
76.0035718759004 3.9204000000000017 
77.0035718759004 3.9204000000000017 
78.0035718759004 3.9204000000000017 
79.0035718759004 3.9204000000000017 
80.0035718759004 3.9204000000000017 
81.0035718759004 3.9204000000000017 
82.0035718759004 3.9204000000000017 
83.0035718759004 3.9204000000000017 
84.0035718759004 3.9204000000000017 
85.0035718759004 3.9204000000000017 
86.0035718759004 3.9204000000000017 
87.0035718759004 3.9204000000000017 
88.0035718759004 3.9204000000000017 
89.0035718759004 3.9204000000000017 
90.0035718759004 3.9204000000000017 
91.0035718759004 3.9204000000000017 
92.0035718759004 3.9204000000000017 
#####################################################################
# End of data export. Simulation finished at: 2017-05-23T00:36+0000 #
#####################################################################
