#####################################################################
# Alchemist log file - simulation started at: 2017-05-26T00:37+0000 #
#####################################################################
# random = 19.0, targets = 31.622776601683793, density = 1.2632455339402642, gridShift = 1.0, perturbation = 0.5, connfactor = 2.0
#
# The columns have the following meaning: 
# time se[Mean] 
0.0 NaN 
1.0052006744020683 NaN 
2.0052006744020683 1.0810139720254979 
3.0052006744020683 1.1151805559417387 
4.005200674402069 1.1767700557195817 
5.005200674402069 1.2582617354288228 
6.005200674402069 1.3210840551422571 
7.005200674402069 1.4338348797707046 
8.005200674402069 1.5087759667976308 
9.005200674402069 1.5745200810448596 
10.005200674402069 1.5772501063707578 
11.005200674402069 1.519356487341172 
12.005200674402069 1.5583342223870904 
13.005200674402069 1.4580993585670727 
14.005200674402069 1.5633093187135954 
15.005200674402069 1.4961954802064052 
16.00520067440207 1.6611684618651608 
17.00520067440207 1.6914434298555003 
18.00520067440207 1.7514368802587947 
19.00520067440207 2.002608642023058 
20.00520067440207 1.9229332263169303 
21.00520067440207 2.061702956092136 
22.00520067440207 2.136822699862879 
23.00520067440207 2.1219299257420072 
24.00520067440207 2.262846999178322 
25.00520067440207 2.217476551860104 
26.00520067440207 2.2813183514500297 
27.00520067440207 2.4013627306940974 
28.00520067440207 2.2678249282338965 
29.00520067440207 2.4598246993093476 
30.00520067440207 2.2973745311459792 
31.00520067440207 2.325487323670967 
32.00520067440207 2.3675582411294505 
33.00520067440207 2.261500279246036 
34.00520067440207 2.310384743474284 
35.00520067440207 2.149333002355468 
36.00520067440207 2.1837441302725304 
37.00520067440207 2.071403338177323 
38.00520067440207 1.9944465652734416 
39.00520067440207 1.9385126919767925 
40.00520067440207 1.8800657576574615 
41.00520067440207 1.8124467060554055 
42.00520067440207 1.7680274091423067 
43.00520067440207 1.691397136386544 
44.00520067440207 1.6308243212629514 
45.00520067440207 1.5906577281736736 
46.00520067440207 1.4684868535955236 
47.00520067440207 1.4354002954342533 
48.00520067440207 1.3816877259702693 
49.00520067440207 1.3730111133462841 
50.00520067440207 1.3915548901393755 
51.00520067440207 1.4235003906231676 
52.00520067440207 1.4870286746829287 
53.00520067440207 1.5601029183464474 
54.00520067440207 1.6533830775672216 
55.00520067440207 1.686545155822535 
56.00520067440207 1.9019865426657987 
57.00520067440207 1.8411004949699221 
58.00520067440207 2.2454212922948136 
59.00520067440207 3.559711146439483 
60.00520067440207 4.065867183199641 
61.00520067440207 4.075956908332324 
62.00520067440207 6.377884665141119 
63.00520067440207 5.825591132564945 
64.00520067440206 7.754112862899973 
65.00520067440206 9.576026927883245 
66.00520067440206 8.302151346325086 
67.00520067440206 9.648406950121588 
68.00520067440206 9.470559188268574 
69.00520067440206 10.642597965140094 
70.00520067440206 13.217804134283268 
71.00520067440206 10.153150409673682 
72.00520067440206 12.898288710438111 
73.00520067440206 17.393158575835816 
74.00520067440206 14.07820247317908 
75.00520067440206 14.655106204499592 
76.00520067440206 17.237780217980763 
77.00520067440206 17.12805462110542 
78.00520067440206 15.24775458448713 
79.00520067440206 9.591255975547751 
80.00520067440206 9.849219806071417 
81.00520067440206 7.883910717492278 
82.00520067440206 6.7050691398324975 
83.00520067440206 5.3481057574327355 
84.00520067440206 3.6303849801684804 
85.00520067440206 3.367470973630046 
86.00520067440206 2.5014724833000783 
87.00520067440206 2.4784733093980678 
88.00520067440206 2.4719893688437633 
89.00520067440206 2.4615322702941818 
90.00520067440206 2.4616683395135004 
91.00520067440206 2.4620446446188047 
92.00520067440206 2.4621320244665594 
93.00520067440206 2.4627168194261033 
94.00520067440206 2.462419957660617 
95.00520067440206 2.462419957660617 
96.00520067440206 2.462419957660617 
97.00520067440206 2.462419957660617 
98.00520067440206 2.462419957660617 
99.00520067440206 2.462419957660617 
100.00520067440206 2.462419957660617 
101.00520067440206 2.462419957660617 
102.00520067440206 2.462419957660617 
103.00520067440206 2.462419957660617 
104.00520067440206 2.462419957660617 
105.00520067440206 2.462419957660617 
106.00520067440206 2.462419957660617 
107.00520067440206 2.462419957660617 
108.00520067440206 2.462419957660617 
109.00520067440206 2.462419957660617 
110.00520067440206 2.462419957660617 
111.00520067440206 2.462419957660617 
112.00520067440206 2.462419957660617 
113.00520067440206 2.462419957660617 
114.00520067440206 2.462419957660617 
#####################################################################
# End of data export. Simulation finished at: 2017-05-26T00:38+0000 #
#####################################################################
