#####################################################################
# Alchemist log file - simulation started at: 2017-05-24T19:06+0000 #
#####################################################################
# random = 15.0, targets = 100.0, density = 0.05649405772326896, gridShift = 1.0, perturbation = 0.0, connfactor = 0.75
#
# The columns have the following meaning: 
# time se[Mean] 
0.0 NaN 
1.0090872484315245 NaN 
2.0090872484315243 1.055434375 
3.0090872484315243 1.0735 
4.009087248431524 1.080722048611111 
5.009087248431524 1.0116196180555554 
6.009087248431524 0.9775637152777777 
7.009087248431524 0.8809850694444444 
8.009087248431523 0.8304909722222222 
9.009087248431523 0.7603251736111112 
10.009087248431523 0.6462147569444444 
11.009087248431523 0.5705536458333333 
12.009087248431523 0.5201560763888889 
13.009087248431523 0.46914340277777783 
14.009087248431523 0.38112934027777784 
15.009087248431523 0.3173423611111112 
16.009087248431523 0.2942914930555556 
17.009087248431523 0.20210833333333333 
18.009087248431523 0.18388055555555563 
19.009087248431523 0.17732256944444452 
20.009087248431523 0.1605225694444445 
21.009087248431523 0.16558958333333346 
22.009087248431523 0.1681000000000001 
23.009087248431523 0.1681000000000001 
24.009087248431523 0.1681000000000001 
25.009087248431523 0.1681000000000001 
26.009087248431523 0.1681000000000001 
27.009087248431523 0.1681000000000001 
28.009087248431523 0.1681000000000001 
29.009087248431523 0.1681000000000001 
#####################################################################
# End of data export. Simulation finished at: 2017-05-24T19:06+0000 #
#####################################################################
