#####################################################################
# Alchemist log file - simulation started at: 2017-05-25T08:00+0000 #
#####################################################################
# random = 17.0, targets = 10.0, density = 14.160781367816199, gridShift = 0.0, perturbation = 0.5, connfactor = 0.25
#
# The columns have the following meaning: 
# time se[Mean] 
0.0 NaN 
1.0003034458253823 NaN 
2.0003034458253826 1.0 
3.0003034458253826 1.0 
4.0003034458253826 1.0 
5.0003034458253826 1.0 
6.0003034458253826 1.0 
7.0003034458253826 1.0 
8.000303445825383 1.0 
9.000303445825383 0.9996646942800789 
10.000303445825383 0.9989940828402367 
11.000303445825383 0.9993293885601577 
12.000303445825383 0.9963116370808678 
13.000303445825383 0.9956410256410256 
14.000303445825383 0.9963116370808678 
15.000303445825383 0.9929585798816567 
16.00030344582538 0.9946351084812624 
17.00030344582538 0.9946351084812624 
18.00030344582538 0.9976528599605523 
19.00030344582538 0.9976528599605523 
20.00030344582538 0.9993293885601577 
21.00030344582538 0.9996646942800789 
22.00030344582538 1.0 
23.00030344582538 1.0 
24.00030344582538 1.0 
25.00030344582538 1.0 
26.00030344582538 1.0 
27.00030344582538 1.0 
28.00030344582538 1.0 
29.00030344582538 1.0 
30.00030344582538 1.0 
31.00030344582538 1.0 
32.00030344582538 1.0 
33.00030344582538 1.0 
34.00030344582538 1.0 
35.00030344582538 1.0 
36.00030344582538 1.0 
37.00030344582538 1.0 
38.00030344582538 1.0 
39.00030344582538 1.0 
40.00030344582538 1.0 
41.00030344582538 1.0 
42.00030344582538 1.0 
43.00030344582538 1.0 
44.00030344582538 1.0 
45.00030344582538 1.0 
46.00030344582538 1.0 
47.00030344582538 1.0 
48.00030344582538 1.0 
49.00030344582538 1.0 
50.00030344582538 1.0 
51.00030344582538 1.0 
52.00030344582538 1.0 
53.00030344582538 1.0 
54.00030344582538 1.0 
55.00030344582538 1.0 
56.00030344582538 1.0 
57.00030344582538 1.0 
58.00030344582538 1.0 
59.00030344582538 1.0 
60.00030344582538 1.0 
61.00030344582538 1.0 
62.00030344582538 1.0 
63.00030344582538 1.0 
64.00030344582538 1.0 
65.00030344582538 1.0 
66.00030344582538 1.0 
67.00030344582538 1.0 
68.00030344582538 1.0 
69.00030344582538 1.0008218277449046 
70.00030344582538 1.0032873109796188 
71.00030344582538 1.002465483234714 
72.00030344582538 1.0090401051939515 
73.00030344582538 1.0123274161735698 
74.00030344582538 1.0115055884286654 
75.00030344582538 1.0146679815910584 
76.00030344582538 1.0149901380670612 
77.00030344582538 1.0203681788297174 
78.00030344582538 1.0231032215647597 
79.00030344582538 1.0146548323471398 
80.00030344582538 1.0293425378040761 
81.00030344582538 1.0213412228796843 
82.00030344582538 1.0222550953320182 
83.00030344582538 1.0214727153188694 
84.00030344582538 1.0167784352399736 
85.00030344582538 1.0245890861275477 
86.00030344582538 1.011821170282709 
87.00030344582538 1.0163642340565415 
88.00030344582538 1.0171203155818542 
89.00030344582538 1.0109270216962527 
90.00030344582538 1.0023931623931626 
91.00030344582538 1.0045627876397107 
92.00030344582538 1.0004602235371465 
93.00030344582538 1.0015581854043398 
94.00030344582538 0.9861669953977648 
95.00030344582538 0.9865154503616037 
96.00030344582538 0.9766798159105851 
97.00030344582538 0.9514990138067067 
98.00030344582538 0.9334648257725174 
99.00030344582538 0.9191124260355038 
100.00030344582538 0.9124589086127551 
101.00030344582538 0.8955161078237996 
102.00030344582538 0.8822353714661415 
103.00030344582538 0.867343852728468 
104.00030344582538 0.8590532544378703 
105.00030344582538 0.8412952005259696 
106.00030344582538 0.8305917159763312 
107.00030344582538 0.8194082840236686 
108.00030344582538 0.8125378040762654 
109.00030344582538 0.8039316239316238 
110.00030344582538 0.7979421433267586 
111.00030344582538 0.7956476002629852 
112.00030344582538 0.7896318211702825 
113.00030344582538 0.7860749506903353 
114.00030344582538 0.7869165023011179 
115.00030344582538 0.7742603550295857 
116.00030344582538 0.7812360289283367 
117.00030344582538 0.770585141354372 
118.00030344582538 0.7719986850756081 
119.00030344582538 0.7708152531229455 
120.00030344582538 0.7626955950032872 
121.00030344582538 0.7678566732412889 
122.00030344582538 0.7565154503616041 
123.00030344582538 0.7566798159105853 
124.00030344582538 0.7525049309664695 
125.00030344582538 0.7516173570019723 
126.00030344582538 0.7460486522024985 
127.00030344582538 0.7460749506903355 
128.00030344582538 0.7363247863247867 
129.00030344582538 0.7385207100591714 
130.00030344582538 0.7281459566074953 
131.00030344582538 0.7337804076265617 
132.00030344582538 0.7391847468770545 
133.00030344582538 0.7460420775805392 
134.00030344582538 0.7557462195923732 
135.00030344582538 0.7578172255095332 
136.00030344582538 0.7658448389217619 
137.00030344582538 0.7624589086127544 
138.00030344582538 0.7720841551610782 
139.00030344582538 0.7740039447731758 
140.00030344582538 0.7840565417488495 
141.00030344582538 0.7882774490466798 
142.00030344582538 0.7916239316239316 
143.00030344582538 0.7966074950690336 
144.00030344582538 0.7962984878369495 
145.00030344582538 0.7947271531886916 
146.00030344582538 0.7967455621301777 
147.00030344582538 0.7971597633136095 
148.00030344582538 0.7952728468113085 
149.00030344582538 0.7948520710059173 
150.00030344582538 0.7927481919789613 
151.00030344582538 0.7946416831032216 
152.00030344582538 0.7925378040762657 
153.00030344582538 0.7931689677843525 
154.00030344582538 0.7973767258382642 
155.00030344582538 0.799690992767916 
156.00030344582538 0.8007429322813939 
157.00030344582538 0.8001117685733071 
158.00030344582538 0.801794871794872 
159.00030344582538 0.8026364234056542 
160.00030344582538 0.8045299145299146 
161.00030344582538 0.8049506903353056 
162.00030344582538 0.8076857330703485 
163.00030344582538 0.8089480604865221 
164.00030344582538 0.8091584483892177 
165.00030344582538 0.8093688362919133 
166.00030344582538 0.81 
167.00030344582538 0.8097896120973045 
168.00030344582538 0.81 
169.00030344582538 0.81 
170.00030344582538 0.81 
171.00030344582538 0.81 
172.00030344582538 0.81 
173.00030344582538 0.81 
174.00030344582538 0.81 
175.00030344582538 0.81 
176.00030344582538 0.81 
177.00030344582538 0.81 
178.00030344582538 0.81 
179.00030344582538 0.81 
180.00030344582538 0.81 
181.00030344582538 0.81 
182.00030344582538 0.81 
183.00030344582538 0.81 
184.00030344582538 0.81 
185.00030344582538 0.81 
186.00030344582538 0.81 
187.00030344582538 0.81 
188.00030344582538 0.81 
189.00030344582538 0.81 
190.00030344582538 0.81 
191.00030344582538 0.81 
192.00030344582538 0.81 
193.00030344582538 0.81 
194.00030344582538 0.81 
195.00030344582538 0.81 
196.00030344582538 0.81 
197.00030344582538 0.81 
198.00030344582538 0.81 
199.00030344582538 0.81 
200.00030344582538 0.81 
201.00030344582538 0.81 
202.00030344582538 0.81 
203.00030344582538 0.81 
204.00030344582538 0.81 
205.00030344582538 0.81 
206.00030344582538 0.81 
207.00030344582538 0.81 
208.00030344582538 0.81 
209.00030344582538 0.81 
210.00030344582538 0.81 
211.00030344582538 0.81 
212.00030344582538 0.81 
213.00030344582538 0.81 
214.00030344582538 0.81 
215.00030344582538 0.81 
216.00030344582538 0.81 
217.00030344582538 0.81 
218.00030344582538 0.81 
219.00030344582538 0.81 
220.00030344582538 0.81 
221.00030344582538 0.81 
222.00030344582538 0.81 
223.00030344582538 0.81 
224.00030344582538 0.81 
225.00030344582538 0.81 
226.00030344582538 0.81 
227.00030344582538 0.81 
228.00030344582538 0.81 
229.00030344582538 0.81 
230.00030344582538 0.81 
231.00030344582538 0.81 
232.00030344582538 0.81 
233.00030344582538 0.81 
234.00030344582538 0.81 
235.00030344582538 0.81 
236.00030344582538 0.81 
237.00030344582538 0.81 
238.00030344582538 0.81 
239.00030344582538 0.81 
240.00030344582538 0.81 
241.00030344582538 0.81 
242.00030344582538 0.81 
243.00030344582538 0.81 
244.00030344582538 0.81 
245.00030344582538 0.81 
246.00030344582538 0.81 
247.00030344582538 0.81 
248.00030344582538 0.81 
249.00030344582538 0.81 
250.00030344582538 0.81 
251.00030344582538 0.81 
252.00030344582538 0.81 
253.00030344582538 0.81 
254.00030344582538 0.81 
255.00030344582538 0.81 
256.00030344582535 0.81 
#####################################################################
# End of data export. Simulation finished at: 2017-05-25T08:02+0000 #
#####################################################################
