#####################################################################
# Alchemist log file - simulation started at: 2017-05-25T09:49+0000 #
#####################################################################
# random = 17.0, targets = 31.622776601683793, density = 20.0, gridShift = 0.0, perturbation = 0.0, connfactor = 0.1
#
# The columns have the following meaning: 
# time se[Mean] 
0.0 NaN 
1.0002469869236763 NaN 
2.0002469869236763 1.0 
3.0002469869236763 1.0 
4.000246986923676 1.0 
5.000246986923676 1.0 
6.000246986923676 1.0 
7.000246986923676 0.9999705833869549 
8.000246986923676 0.9999705833869549 
9.000246986923676 0.9998823335478197 
10.000246986923676 0.9996764172565042 
11.000246986923676 0.9997058338695493 
12.000246986923676 0.9992645846738732 
13.000246986923676 0.9991175016086479 
14.000246986923676 0.9990292517695127 
15.000246986923676 0.9994410843521436 
16.000246986923678 0.9987939188651521 
17.000246986923678 0.9996470006434591 
18.000246986923678 0.9994410843521436 
19.000246986923678 0.9998235003217296 
20.000246986923678 0.9998235003217296 
21.000246986923678 0.9998529169347746 
22.000246986923678 0.9999705833869549 
23.000246986923678 0.9999411667739099 
24.000246986923678 0.9999411667739099 
25.000246986923678 1.0 
26.000246986923678 1.0 
27.000246986923678 0.999942111953494 
28.000246986923678 0.9995368956279519 
29.000246986923678 0.9992199291415449 
30.000246986923678 0.9983601150602117 
31.000246986923678 0.9977783990563992 
32.00024698692368 0.9967724470894249 
33.00024698692368 0.9966025636682431 
34.00024698692368 0.9955283266793375 
35.00024698692368 0.9957200652768912 
36.00024698692368 0.9945964468577363 
37.00024698692368 0.9946050695199309 
38.00024698692368 0.9936798059554187 
39.00024698692368 0.993588720577531 
40.00024698692368 0.9934900737629704 
41.00024698692368 0.9929396647313712 
42.00024698692368 0.9944106114295622 
43.00024698692368 0.9937653363017389 
44.00024698692368 0.9942199340575298 
45.00024698692368 0.9939248227474952 
46.00024698692368 0.9929739232882743 
47.00024698692368 0.9936619635892576 
48.00024698692368 0.99245293086972 
49.00024698692368 0.9927242966442146 
50.00024698692368 0.9919357191695025 
51.00024698692368 0.991598903911829 
52.00024698692368 0.9907381446509116 
53.00024698692368 0.9907107344429723 
54.00024698692368 0.9896991113984929 
55.00024698692368 0.9886980013753764 
56.00024698692368 0.9876323870486654 
57.00024698692368 0.9861994796257141 
58.00024698692368 0.9858360832937476 
59.00024698692368 0.9846935612829105 
60.00024698692368 0.9846652058953871 
61.00024698692368 0.983402181893617 
62.00024698692368 0.9822796246999841 
63.00024698692368 0.9817985619158376 
64.00024698692368 0.9806550947254161 
65.00024698692368 0.9803761675142485 
66.00024698692368 0.9794614169710992 
67.00024698692368 0.9785210305332415 
68.00024698692368 0.977667948754934 
69.00024698692368 0.9765444463817167 
70.00024698692368 0.9756685642474534 
71.00024698692368 0.9748088662120578 
72.00024698692368 0.9736644538420524 
73.00024698692368 0.9728635890327467 
74.00024698692368 0.9720636694030252 
75.00024698692368 0.9710093972313231 
76.00024698692368 0.9699200373690714 
77.00024698692368 0.9690347034389669 
78.00024698692368 0.9679775957285125 
79.00024698692368 0.9667449335193723 
80.00024698692368 0.9660313733696176 
81.00024698692368 0.9648281277735219 
82.00024698692368 0.9639152675895405 
83.00024698692368 0.9627395482473219 
84.00024698692368 0.9617099667907444 
85.00024698692368 0.9606196617489087 
86.00024698692368 0.959299694880217 
87.00024698692368 0.9584134157705285 
88.00024698692368 0.9572642775026025 
89.00024698692368 0.9563817791112503 
90.00024698692368 0.9551168647503121 
91.00024698692368 0.9539980882750156 
92.00024698692368 0.9528517855458418 
93.00024698692368 0.9516181781571172 
94.00024698692368 0.9503817352296402 
95.00024698692368 0.949230706602546 
96.00024698692368 0.9478784875820571 
97.00024698692368 0.9467919632585575 
98.00024698692368 0.9457899080558572 
99.00024698692368 0.9445828817414249 
100.00024698692368 0.9436149690496902 
101.00024698692368 0.9428454112125978 
102.00024698692368 0.9420796340938418 
103.00024698692368 0.9416080231055364 
104.00024698692368 0.9410491074576802 
105.00024698692368 0.9407549413272296 
106.00024698692368 0.9403136921315532 
107.00024698692368 0.9400489426141477 
108.00024698692368 0.9395877286012678 
109.00024698692368 0.9385863864862767 
110.00024698692368 0.9383672376807835 
111.00024698692368 0.9375044720147606 
112.00024698692368 0.9366028379398516 
113.00024698692368 0.9363988120077041 
114.00024698692368 0.9363875858986322 
115.00024698692368 0.9355171427499991 
116.00024698692368 0.9357460914891453 
117.00024698692368 0.9355381687927243 
118.00024698692368 0.9349659045847529 
119.00024698692368 0.93554017519783 
120.00024698692368 0.9348454025938203 
121.00024698692368 0.9350893581603753 
122.00024698692368 0.9344762191384122 
123.00024698692368 0.9341639785499257 
124.00024698692368 0.9336305827508408 
125.00024698692368 0.9328741413819888 
126.00024698692368 0.9322781316384768 
127.00024698692368 0.931443837405915 
128.00024698692368 0.9309988074919026 
129.00024698692368 0.929467850296163 
130.00024698692368 0.928480801920871 
131.00024698692368 0.9263374187908776 
132.00024698692368 0.9255005211114375 
133.00024698692368 0.9231872545602631 
134.00024698692368 0.9215744316906024 
135.00024698692368 0.9192097941161582 
136.00024698692368 0.918641061722563 
137.00024698692368 0.915470485303081 
138.00024698692368 0.9135624350774484 
139.00024698692368 0.9113837321650302 
140.00024698692368 0.91146876470343 
141.00024698692368 0.9086233132488001 
142.00024698692368 0.9081913661788564 
143.00024698692368 0.9058346381788978 
144.00024698692368 0.9045008585663419 
145.00024698692368 0.9014201734412032 
146.00024698692368 0.8981505852572625 
147.00024698692368 0.894141022331469 
148.00024698692368 0.8919409284264281 
149.00024698692368 0.8874391758412684 
150.00024698692368 0.885866282606015 
151.00024698692368 0.8821456621048308 
152.00024698692368 0.8826509834058618 
153.00024698692368 0.877551729292091 
154.00024698692368 0.8778401570966946 
155.00024698692368 0.8735850627588183 
156.00024698692368 0.873147362189604 
157.00024698692368 0.8711379456565956 
158.00024698692368 0.8702902860518327 
159.00024698692368 0.8685929940613736 
160.00024698692368 0.865610839704858 
161.00024698692368 0.8652032352122269 
162.00024698692368 0.8659618646418026 
163.00024698692368 0.8623122654674509 
164.00024698692368 0.8643048167993914 
165.00024698692368 0.8609397991016264 
166.00024698692368 0.8594870260953228 
167.00024698692368 0.8570219337689166 
168.00024698692368 0.8558309755074143 
169.00024698692368 0.853283669369275 
170.00024698692368 0.8518713069932142 
171.00024698692368 0.8497627626498102 
172.00024698692368 0.8480745575052946 
173.00024698692368 0.8463138224367617 
174.00024698692368 0.8447479928302614 
175.00024698692368 0.8425743807656617 
176.00024698692368 0.8420764039828527 
177.00024698692368 0.8395897221961199 
178.00024698692368 0.838972901689672 
179.00024698692368 0.836888600689729 
180.00024698692368 0.8364761710653258 
181.00024698692368 0.8352850967578866 
182.00024698692368 0.8335608755553224 
183.00024698692368 0.8333424230254534 
184.00024698692368 0.8316565892359407 
185.00024698692368 0.8305486907319038 
186.00024698692368 0.8297328190951896 
187.00024698692368 0.8284679215463372 
188.00024698692368 0.8280440169089016 
189.00024698692368 0.8252257267582509 
190.00024698692368 0.8247770321718392 
191.00024698692368 0.8239088107081006 
192.00024698692368 0.8221307310813273 
193.00024698692368 0.8221803277913652 
194.00024698692368 0.8210743196464969 
195.00024698692368 0.8207053682829633 
196.00024698692368 0.8199681786436056 
197.00024698692368 0.8189074230728377 
198.00024698692368 0.8190419698995093 
199.00024698692368 0.8185768591223556 
200.00024698692368 0.8185094032340711 
201.00024698692368 0.8188050947737925 
202.00024698692368 0.8185743717214152 
203.00024698692368 0.8188462016796589 
204.00024698692368 0.8187196804734096 
205.00024698692368 0.8189915104316534 
206.00024698692368 0.8192633403898971 
207.00024698692368 0.8189915104316534 
208.00024698692368 0.8189915104316534 
209.00024698692368 0.8192633403898971 
210.00024698692368 0.8189915104316534 
211.00024698692368 0.8189915104316534 
212.00024698692368 0.8192633403898971 
213.00024698692368 0.8192633403898971 
214.00024698692368 0.8192633403898971 
215.00024698692368 0.8192633403898971 
216.00024698692368 0.8192633403898971 
217.00024698692368 0.8192633403898971 
218.00024698692368 0.8192633403898971 
219.00024698692368 0.8192633403898971 
220.00024698692368 0.8192633403898971 
221.00024698692368 0.8192633403898971 
222.00024698692368 0.8192633403898971 
223.00024698692368 0.8192633403898971 
224.00024698692368 0.8192633403898971 
225.00024698692368 0.8192633403898971 
226.00024698692368 0.8192633403898971 
227.00024698692368 0.8192633403898971 
228.00024698692368 0.8192633403898971 
229.00024698692368 0.8192633403898971 
230.00024698692368 0.8192633403898971 
231.00024698692368 0.8192633403898971 
232.00024698692368 0.8192633403898971 
233.00024698692368 0.8192633403898971 
234.00024698692368 0.8192633403898971 
235.00024698692368 0.8192633403898971 
236.00024698692368 0.8192633403898971 
237.00024698692368 0.8192633403898971 
238.00024698692368 0.8192633403898971 
239.00024698692368 0.8192633403898971 
240.00024698692368 0.8192633403898971 
241.00024698692368 0.8192633403898971 
242.00024698692368 0.8192633403898971 
243.00024698692368 0.8192633403898971 
244.00024698692368 0.8192633403898971 
245.00024698692368 0.8192633403898971 
246.00024698692368 0.8192633403898971 
247.00024698692368 0.8192633403898971 
248.00024698692368 0.8192633403898971 
249.00024698692368 0.8192633403898971 
250.00024698692368 0.8192633403898971 
251.00024698692368 0.8192633403898971 
252.00024698692368 0.8192633403898971 
253.00024698692368 0.8192633403898971 
254.00024698692368 0.8192633403898971 
255.00024698692368 0.8192633403898971 
256.0002469869237 0.8192633403898971 
257.0002469869237 0.8192633403898971 
258.0002469869237 0.8192633403898971 
259.0002469869237 0.8192633403898971 
260.0002469869237 0.8192633403898971 
261.0002469869237 0.8192633403898971 
262.0002469869237 0.8192633403898971 
263.0002469869237 0.8192633403898971 
264.0002469869237 0.8192633403898971 
265.0002469869237 0.8192633403898971 
266.0002469869237 0.8192633403898971 
267.0002469869237 0.8192633403898971 
268.0002469869237 0.8192633403898971 
269.0002469869237 0.8192633403898971 
270.0002469869237 0.8192633403898971 
271.0002469869237 0.8192633403898971 
272.0002469869237 0.8192633403898971 
273.0002469869237 0.8192633403898971 
274.0002469869237 0.8192633403898971 
275.0002469869237 0.8192633403898971 
276.0002469869237 0.8192633403898971 
277.0002469869237 0.8192633403898971 
278.0002469869237 0.8192633403898971 
279.0002469869237 0.8192633403898971 
280.0002469869237 0.8192633403898971 
281.0002469869237 0.8192633403898971 
282.0002469869237 0.8192633403898971 
283.0002469869237 0.8192633403898971 
284.0002469869237 0.8192633403898971 
285.0002469869237 0.8192633403898971 
286.0002469869237 0.8192633403898971 
287.0002469869237 0.8192633403898971 
288.0002469869237 0.8192633403898971 
289.0002469869237 0.8192633403898971 
290.0002469869237 0.8192633403898971 
291.0002469869237 0.8192633403898971 
292.0002469869237 0.8192633403898971 
293.0002469869237 0.8192633403898971 
294.0002469869237 0.8192633403898971 
295.0002469869237 0.8192633403898971 
296.0002469869237 0.8192633403898971 
297.0002469869237 0.8192633403898971 
298.0002469869237 0.8192633403898971 
299.0002469869237 0.8192633403898971 
300.0002469869237 0.8192633403898971 
301.0002469869237 0.8192633403898971 
302.0002469869237 0.8192633403898971 
303.0002469869237 0.8192633403898971 
304.0002469869237 0.8192633403898971 
305.0002469869237 0.8192633403898971 
306.0002469869237 0.8192633403898971 
307.0002469869237 0.8192633403898971 
308.0002469869237 0.8192633403898971 
309.0002469869237 0.8192633403898971 
310.0002469869237 0.8192633403898971 
311.0002469869237 0.8192633403898971 
312.0002469869237 0.8192633403898971 
313.0002469869237 0.8192633403898971 
314.0002469869237 0.8192633403898971 
315.0002469869237 0.8192633403898971 
316.0002469869237 0.8192633403898971 
#####################################################################
# End of data export. Simulation finished at: 2017-05-25T09:57+0000 #
#####################################################################
