#####################################################################
# Alchemist log file - simulation started at: 2017-05-25T16:44+0000 #
#####################################################################
# random = 18.0, targets = 31.622776601683793, density = 1.2632455339402642, gridShift = 0.0, perturbation = 0.0, connfactor = 1.0
#
# The columns have the following meaning: 
# time se[Mean] 
0.0 NaN 
1.0067713218599703 NaN 
2.0067713218599703 1.046605557165715 
3.0067713218599703 1.077816543336678 
4.00677132185997 1.0952282313283845 
5.00677132185997 1.1196761836766678 
6.00677132185997 1.1087354159650165 
7.00677132185997 1.1327854831732271 
8.00677132185997 1.1471747945574007 
9.00677132185997 1.167172902604818 
10.00677132185997 1.175981059243083 
11.00677132185997 1.1844031146286904 
12.00677132185997 1.2083813672481996 
13.00677132185997 1.2119859770623347 
14.00677132185997 1.1523570683202633 
15.00677132185997 1.1897113647611892 
16.006771321859972 1.1910177235500299 
17.006771321859972 1.1992916407561287 
18.006771321859972 1.1215360363426796 
19.006771321859972 1.1269166937979165 
20.006771321859972 1.0655419337501677 
21.006771321859972 1.010204524237636 
22.006771321859972 0.9361786853200583 
23.006771321859972 0.8600196637301749 
24.006771321859972 0.8067409205282929 
25.006771321859972 0.7297532104676236 
26.006771321859972 0.6765676998949117 
27.006771321859972 0.6333878517807473 
28.006771321859972 0.5838510613320561 
29.006771321859972 0.5797108137517544 
30.006771321859972 0.5416129182655162 
31.006771321859972 0.535039053753821 
32.00677132185997 0.551359310733273 
33.00677132185997 0.5554531600422066 
34.00677132185997 0.5772704603735099 
35.00677132185997 0.6057575796139053 
36.00677132185997 0.6523964951811275 
37.00677132185997 0.683634483261845 
38.00677132185997 0.6595002030904547 
39.00677132185997 0.7300855640897902 
40.00677132185997 0.675844159319778 
41.00677132185997 0.6471203954371489 
42.00677132185997 0.5889068737815281 
43.00677132185997 0.5413580569345428 
44.00677132185997 0.5149658324862777 
45.00677132185997 0.47810135774562995 
46.00677132185997 0.467544467966324 
47.00677132185997 0.467544467966324 
48.00677132185997 0.467544467966324 
49.00677132185997 0.467544467966324 
50.00677132185997 0.467544467966324 
51.00677132185997 0.467544467966324 
52.00677132185997 0.467544467966324 
53.00677132185997 0.467544467966324 
54.00677132185997 0.467544467966324 
55.00677132185997 0.467544467966324 
56.00677132185997 0.467544467966324 
57.00677132185997 0.467544467966324 
58.00677132185997 0.467544467966324 
59.00677132185997 0.467544467966324 
60.00677132185997 0.467544467966324 
61.00677132185997 0.467544467966324 
62.00677132185997 0.467544467966324 
63.00677132185997 0.467544467966324 
64.00677132185997 0.467544467966324 
65.00677132185997 0.467544467966324 
66.00677132185997 0.467544467966324 
67.00677132185997 0.467544467966324 
68.00677132185997 0.467544467966324 
69.00677132185997 0.467544467966324 
70.00677132185997 0.467544467966324 
71.00677132185997 0.467544467966324 
#####################################################################
# End of data export. Simulation finished at: 2017-05-25T16:44+0000 #
#####################################################################
