#####################################################################
# Alchemist log file - simulation started at: 2017-05-22T00:26+0000 #
#####################################################################
# random = 3.0, targets = 10.0, density = 0.04, gridShift = 0.0, perturbation = 0.5, connfactor = 0.5
#
# The columns have the following meaning: 
# time se[Mean] 
0.0 NaN 
1.0016359619213666 NaN 
2.001635961921367 1.0384375000000001 
3.001635961921367 1.05125 
4.001635961921367 1.0321527777777777 
5.001635961921367 0.9009939236111112 
6.001635961921367 0.8212456597222223 
7.001635961921367 0.7414019097222223 
8.001635961921366 0.5635460069444445 
9.001635961921366 0.34889322916666665 
10.001635961921366 0.2787369791666667 
11.001635961921366 0.22339409722222223 
12.001635961921366 0.21878472222222223 
13.001635961921366 0.25 
14.001635961921366 0.25 
15.001635961921366 0.25 
16.001635961921366 0.25 
#####################################################################
# End of data export. Simulation finished at: 2017-05-22T00:26+0000 #
#####################################################################
