#####################################################################
# Alchemist log file - simulation started at: 2017-05-24T05:35+0000 #
#####################################################################
# random = 14.0, targets = 1.0, density = 0.07978946395100113, gridShift = 0.0, perturbation = 0.5, connfactor = 0.25
#
# The columns have the following meaning: 
# time se[Mean] 
0.0 NaN 
1.1155531677852877 NaN 
2.1155531677852877 1.0 
3.1155531677852877 1.0 
4.115553167785288 1.0 
5.115553167785288 1.0 
6.115553167785288 1.0 
7.115553167785288 0.9375 
8.115553167785288 0.75 
9.115553167785288 0.5625 
10.115553167785288 0.3125 
11.115553167785288 0.1875 
12.115553167785288 0.1875 
13.115553167785288 0.3125 
14.115553167785288 0.25 
15.115553167785288 0.0 
16.115553167785286 0.0 
17.115553167785286 0.0 
18.115553167785286 0.0 
19.115553167785286 0.0 
#####################################################################
# End of data export. Simulation finished at: 2017-05-24T05:35+0000 #
#####################################################################
