#####################################################################
# Alchemist log file - simulation started at: 2017-05-20T15:36+0000 #
#####################################################################
# random = 1.0, targets = 10.0, density = 0.6332893950589894, gridShift = 0.0, perturbation = 0.5, connfactor = 1.0
#
# The columns have the following meaning: 
# time se[Mean] 
0.0 NaN 
1.0048855897957667 NaN 
2.0048855897957667 1.040925925925926 
3.0048855897957667 1.0726654663923183 
4.004885589795767 1.0780392661179699 
5.004885589795767 1.0482681755829903 
6.004885589795767 1.0187062757201646 
7.004885589795767 0.9841272290809328 
8.004885589795766 0.9581953017832647 
9.004885589795766 0.9341975308641975 
10.004885589795766 0.9475471536351165 
11.004885589795766 0.9483710562414266 
12.004885589795766 0.9397745198902606 
13.004885589795766 0.9311179698216735 
14.004885589795766 0.9283410493827161 
15.004885589795766 0.9527460562414266 
16.004885589795766 0.917065329218107 
17.004885589795766 0.9097050754458161 
18.004885589795766 0.8782013031550069 
19.004885589795766 0.8536582647462277 
20.004885589795766 0.8048885459533608 
21.004885589795766 0.8127889231824418 
22.004885589795766 0.7901328875171468 
23.004885589795766 0.7548002400548698 
24.004885589795766 0.7597247942386832 
25.004885589795766 0.7414291838134432 
26.004885589795766 0.7189291838134432 
27.004885589795766 0.7135768175582992 
28.004885589795766 0.7203617969821675 
29.004885589795766 0.723482510288066 
30.004885589795766 0.686743827160494 
31.004885589795766 0.6821347736625516 
32.00488558979576 0.698971193415638 
33.00488558979576 0.6653497942386832 
34.00488558979576 0.6816846707818931 
35.00488558979576 0.6862688614540468 
36.00488558979576 0.7031490054869686 
37.00488558979576 0.7492592592592594 
38.00488558979576 0.7928523662551441 
39.00488558979576 0.8291615226337451 
40.00488558979576 0.8491572359396435 
41.00488558979576 0.8665320644718796 
42.00488558979576 0.8552434842249659 
43.00488558979576 0.8864583333333336 
44.00488558979576 0.9308324759945135 
45.00488558979576 0.8349965706447191 
46.00488558979576 0.8046039094650209 
47.00488558979576 0.8454552469135808 
48.00488558979576 0.7598791152263379 
49.00488558979576 0.7263983196159126 
50.00488558979576 0.7289823388203023 
51.00488558979576 0.6552383401920442 
52.00488558979576 0.6570850480109742 
53.00488558979576 0.6767326817558301 
54.00488558979576 0.6412800068587108 
55.00488558979576 0.6371819272976682 
56.00488558979576 0.6382793209876545 
57.00488558979576 0.629931412894376 
58.00488558979576 0.63562414266118 
59.00488558979576 0.638737997256516 
60.00488558979576 0.638737997256516 
61.00488558979576 0.6400000000000002 
62.00488558979576 0.6400000000000002 
63.00488558979576 0.6400000000000002 
64.00488558979576 0.6400000000000002 
65.00488558979576 0.6400000000000002 
66.00488558979576 0.6400000000000002 
67.00488558979576 0.6400000000000002 
68.00488558979576 0.6400000000000002 
69.00488558979576 0.6400000000000002 
70.00488558979576 0.6400000000000002 
71.00488558979576 0.6400000000000002 
72.00488558979576 0.6400000000000002 
73.00488558979576 0.6400000000000002 
74.00488558979576 0.6400000000000002 
75.00488558979576 0.6400000000000002 
76.00488558979576 0.6400000000000002 
77.00488558979576 0.6400000000000002 
78.00488558979576 0.6400000000000002 
#####################################################################
# End of data export. Simulation finished at: 2017-05-20T15:36+0000 #
#####################################################################
