#####################################################################
# Alchemist log file - simulation started at: 2017-05-24T10:01+0000 #
#####################################################################
# random = 6.0, targets = 100.0, density = 0.4483936332993466, gridShift = 1.0, perturbation = 0.0, connfactor = 0.75
#
# The columns have the following meaning: 
# time se[Mean] 
0.0 NaN 
1.0043581642399184 NaN 
2.0043581642399184 1.0222076388888888 
3.0043581642399184 1.0334059413580248 
4.004358164239918 1.0411135802469136 
5.004358164239918 1.075526813271605 
6.004358164239918 1.0665088348765432 
7.004358164239918 1.075988348765432 
8.004358164239918 1.103964274691358 
9.004358164239918 1.1024230324074074 
10.004358164239918 1.1142911265432098 
11.004358164239918 1.1029167824074075 
12.004358164239918 1.0890198302469136 
13.004358164239918 1.114389699074074 
14.004358164239918 1.0736467206790123 
15.004358164239918 1.1048077546296295 
16.004358164239918 1.0828970293209876 
17.004358164239918 1.0646674382716048 
18.004358164239918 1.044221875 
19.004358164239918 1.0131254243827161 
20.004358164239918 0.9758706018518518 
21.004358164239918 0.9622775462962962 
22.004358164239918 0.9233293981481482 
23.004358164239918 0.9048335648148148 
24.004358164239918 0.8833283950617284 
25.004358164239918 0.8668060956790123 
26.004358164239918 0.8603646604938272 
27.004358164239918 0.8578382716049383 
28.004358164239918 0.8596280478395062 
29.004358164239918 0.85598175154321 
30.004358164239918 0.8421866512345679 
31.004358164239918 0.8444372299382716 
32.00435816423992 0.8189615740740742 
33.00435816423992 0.771914351851852 
34.00435816423992 0.770095138888889 
35.00435816423992 0.7364773148148149 
36.00435816423992 0.7014775848765433 
37.00435816423992 0.7149824845679014 
38.00435816423992 0.656210763888889 
39.00435816423992 0.6678724922839507 
40.00435816423992 0.6678982253086421 
41.00435816423992 0.6577417824074074 
42.00435816423992 0.6744121527777779 
43.00435816423992 0.6585603780864198 
44.00435816423992 0.6760082947530864 
45.00435816423992 0.6718785108024692 
46.00435816423992 0.6727693287037038 
47.00435816423992 0.6727979938271605 
48.00435816423992 0.6720976080246913 
49.00435816423992 0.6724 
50.00435816423992 0.6724 
51.00435816423992 0.6724 
52.00435816423992 0.6724 
53.00435816423992 0.6724 
54.00435816423992 0.6724 
55.00435816423992 0.6724 
56.00435816423992 0.6724 
57.00435816423992 0.6724 
58.00435816423992 0.6724 
59.00435816423992 0.6724 
60.00435816423992 0.6724 
61.00435816423992 0.6724 
62.00435816423992 0.6724 
63.00435816423992 0.6724 
64.00435816423992 0.6724 
65.00435816423992 0.6724 
#####################################################################
# End of data export. Simulation finished at: 2017-05-24T10:01+0000 #
#####################################################################
