#####################################################################
# Alchemist log file - simulation started at: 2017-05-25T12:48+0000 #
#####################################################################
# random = 18.0, targets = 1.0, density = 2.519842099789746, gridShift = 1.0, perturbation = 0.5, connfactor = 1.5
#
# The columns have the following meaning: 
# time se[Mean] 
0.0 NaN 
1.001562157851807 NaN 
2.001562157851807 NaN 
3.001562157851807 0.9967105263157895 
4.001562157851807 0.984375 
5.001562157851807 1.0173611111111112 
6.001562157851807 0.984923245614035 
7.001562157851807 1.0391995614035088 
8.001562157851808 1.0711805555555556 
9.001562157851808 1.0709978070175437 
10.001562157851808 1.0609466374269005 
11.001562157851808 1.0619517543859651 
12.001562157851808 1.0383771929824561 
13.001562157851808 1.0399305555555556 
14.001562157851808 1.0332602339181285 
15.001562157851808 1.0255847953216375 
16.001562157851808 1.0179093567251463 
17.001562157851808 1.0255847953216375 
18.001562157851808 1.030701754385965 
19.001562157851808 1.0153508771929824 
20.001562157851808 1.0153508771929824 
21.001562157851808 1.0153508771929824 
22.001562157851808 1.0025584795321638 
23.001562157851808 1.0025584795321638 
24.001562157851808 1.0025584795321638 
25.001562157851808 0.9985608552631579 
26.001562157851808 1.0029696637426901 
27.001562157851808 1.003061038011696 
28.001562157851808 1.0235745614035088 
29.001562157851808 1.0251507675438596 
30.001562157851808 1.049639071637427 
31.001562157851808 1.0344709429824561 
32.00156215785181 1.6362161915204692 
33.00156215785181 2.2175621345029253 
34.00156215785181 4.638614766081872 
35.00156215785181 5.745773940058473 
36.00156215785181 8.751416301169588 
37.00156215785181 8.719298245614036 
38.00156215785181 11.127261513157878 
39.00156215785181 11.79025036549708 
40.00156215785181 16.60704495614035 
41.00156215785181 9.634434393274848 
42.00156215785181 15.093087536549703 
43.00156215785181 11.513820358187132 
44.00156215785181 10.509731359649127 
45.00156215785181 11.686357821637419 
46.00156215785181 13.079724049707604 
47.00156215785181 9.722724780701752 
48.00156215785181 10.699607090643266 
49.00156215785181 11.07410453216375 
50.00156215785181 11.784859283625714 
51.00156215785181 9.140853435672524 
52.00156215785181 9.994197733918135 
53.00156215785181 4.336257309941521 
54.00156215785181 4.169567799707601 
55.00156215785181 4.455043859649124 
56.00156215785181 3.8515625000000013 
57.00156215785181 4.72953216374269 
58.00156215785181 4.139597039473683 
59.00156215785181 4.49246162280702 
60.00156215785181 4.771747076023393 
61.00156215785181 4.5305875365497075 
62.00156215785181 5.223638523391812 
63.00156215785181 5.752786915204679 
64.00156215785181 6.073305007309946 
65.00156215785181 7.3504888523391845 
66.00156215785181 8.367301717836257 
67.00156215785181 9.79570997807018 
68.00156215785181 9.332556652046788 
69.00156215785181 10.883680555555568 
70.00156215785181 10.638934576023392 
71.00156215785181 12.482364766081872 
72.00156215785181 9.28259777046784 
73.00156215785181 11.413971125731003 
74.00156215785181 9.644942434210531 
75.00156215785181 8.97708790204679 
76.00156215785181 9.50646472953216 
77.00156215785181 9.925941154970765 
78.00156215785181 8.328262061403512 
79.00156215785181 8.62527412280702 
80.00156215785181 8.510622258771926 
81.00156215785181 8.744700292397676 
82.00156215785181 7.355628654970754 
83.00156215785181 7.558662280701736 
84.00156215785181 4.855354532163742 
85.00156215785181 4.549067982456143 
86.00156215785181 4.546783625730993 
87.00156215785181 4.0 
88.00156215785181 4.273391812865497 
89.00156215785181 4.0 
90.00156215785181 4.0 
91.00156215785181 4.0 
92.00156215785181 4.0 
93.00156215785181 4.0 
94.00156215785181 4.0 
95.00156215785181 4.0 
96.00156215785181 4.0 
97.00156215785181 4.0 
98.00156215785181 4.0 
99.00156215785181 4.0 
100.00156215785181 4.0 
101.00156215785181 4.0 
102.00156215785181 4.0 
103.00156215785181 4.0 
104.00156215785181 4.0 
105.00156215785181 4.0 
106.00156215785181 4.0 
107.00156215785181 4.0 
108.00156215785181 4.0 
109.00156215785181 4.0 
110.00156215785181 4.0 
111.00156215785181 4.0 
112.00156215785181 4.0 
113.00156215785181 4.0 
114.00156215785181 4.0 
115.00156215785181 4.0 
116.00156215785181 4.0 
117.00156215785181 4.0 
118.00156215785181 4.0 
#####################################################################
# End of data export. Simulation finished at: 2017-05-25T12:48+0000 #
#####################################################################
