#####################################################################
# Alchemist log file - simulation started at: 2017-05-21T19:05+0000 #
#####################################################################
# random = 2.0, targets = 100.0, density = 20.0, gridShift = 1.0, perturbation = 0.0, connfactor = 1.0
#
# The columns have the following meaning: 
# time se[Mean] 
0.0 NaN 
1.0002668521400264 NaN 
2.0002668521400264 1.0016974133839582 
3.0002668521400264 1.0032043281653746 
4.000266852140026 1.0042093761535622 
5.000266852140026 1.0046502386225808 
6.000266852140026 1.002746821441755 
7.000266852140026 1.0013968781310973 
8.000266852140026 1.0005543136634498 
9.000266852140026 0.9998485854031535 
10.000266852140026 1.0004679164689132 
11.000266852140026 0.9995975834519855 
12.000266852140026 0.9990623569582872 
13.000266852140026 0.9972430456678795 
14.000266852140026 0.9957185229130412 
15.000266852140026 0.9933628803459368 
16.000266852140026 0.9911804224015187 
17.000266852140026 0.9888921887359595 
18.000266852140026 0.9865464496651374 
19.000266852140026 0.9844908624690186 
20.000266852140026 0.981020951326267 
21.000266852140026 0.9797390892791225 
22.000266852140026 0.9769568277698676 
23.000266852140026 0.9761039194747666 
24.000266852140026 0.9734351460739334 
25.000266852140026 0.972895971101619 
26.000266852140026 0.9705200904392765 
27.000266852140026 0.9694714470284238 
28.000266852140026 0.9667115619891369 
29.000266852140026 0.9649801995992197 
30.000266852140026 0.9619085785476982 
31.000266852140026 0.9603821520856405 
32.00026685214003 0.9568028502874019 
33.00026685214003 0.9544832568686389 
34.00026685214003 0.9514843840637031 
35.00026685214003 0.9484176330222012 
36.00026685214003 0.9446425209618732 
37.00026685214003 0.9432516189421506 
38.00026685214003 0.9396255326161473 
39.00026685214003 0.9371278779728947 
40.00026685214003 0.9356030744080579 
41.00026685214003 0.9336375573485208 
42.00026685214003 0.932123444338976 
43.00026685214003 0.9285577690766229 
44.00026685214003 0.9261203185150029 
45.00026685214003 0.9226145981648474 
46.00026685214003 0.9206759333966145 
47.00026685214003 0.914411896851764 
48.00026685214003 0.9114861216579655 
49.00026685214003 0.9061422085113116 
50.00026685214003 0.9000391433317513 
51.00026685214003 0.8961747969730528 
52.00026685214003 0.890437694457628 
53.00026685214003 0.887424176027 
54.00026685214003 0.8803960699783789 
55.00026685214003 0.8755437470336973 
56.00026685214003 0.8689157965511788 
57.00026685214003 0.863178547698149 
58.00026685214003 0.8567009268048307 
59.00026685214003 0.8523099377735592 
60.00026685214003 0.8444223131888413 
61.00026685214003 0.8377208801349996 
62.00026685214003 0.8297466144597373 
63.00026685214003 0.8233377761957494 
64.00026685214003 0.8148999208985916 
65.00026685214003 0.8080876562252809 
66.00026685214003 0.800825707957602 
67.00026685214003 0.7942352489057639 
68.00026685214003 0.7883192216421447 
69.00026685214003 0.7820791515055635 
70.00026685214003 0.7785432895638877 
71.00026685214003 0.7726807717660709 
72.00026685214003 0.7685590188788692 
73.00026685214003 0.7652651742867689 
74.00026685214003 0.7614422454253021 
75.00026685214003 0.7562197463481516 
76.00026685214003 0.7541716434635863 
77.00026685214003 0.7517353820598002 
78.00026685214003 0.7481716526920846 
79.00026685214003 0.7446913753098138 
80.00026685214003 0.7417792002847657 
81.00026685214003 0.7364774231397991 
82.00026685214003 0.7347647036333913 
83.00026685214003 0.7339516426725732 
84.00026685214003 0.7311949269630326 
85.00026685214003 0.7283283670832685 
86.00026685214003 0.7250750962400463 
87.00026685214003 0.7237820571639513 
88.00026685214003 0.7174228537151303 
89.00026685214003 0.7151773466751049 
90.00026685214003 0.7097987778832461 
91.00026685214003 0.7070232241733897 
92.00026685214003 0.7031065944207148 
93.00026685214003 0.6982828376311764 
94.00026685214003 0.6944434477667042 
95.00026685214003 0.6889115369403571 
96.00026685214003 0.6843434148077839 
97.00026685214003 0.678129417813637 
98.00026685214003 0.6741509927226705 
99.00026685214003 0.6687149870801038 
100.00026685214003 0.6633180852185834 
101.00026685214003 0.6571498602541794 
102.00026685214003 0.651933803986711 
103.00026685214003 0.6474009215314033 
104.00026685214003 0.642971274323683 
105.00026685214003 0.6391166152507514 
106.00026685214003 0.63693560881717 
107.00026685214003 0.6332626575436376 
108.00026685214003 0.6308076926119285 
109.00026685214003 0.6279239690449822 
110.00026685214003 0.6252599245899912 
111.00026685214003 0.6231366872330332 
112.00026685214003 0.6204059932500132 
113.00026685214003 0.6183772741654802 
114.00026685214003 0.6151041383219955 
115.00026685214003 0.6126217687074826 
116.00026685214003 0.6098119245372566 
117.00026685214003 0.6073869996835947 
118.00026685214003 0.60407928070453 
119.00026685214003 0.6016780519959922 
120.00026685214003 0.5983423482571322 
121.00026685214003 0.5952605929968884 
122.00026685214003 0.5910105244423354 
123.00026685214003 0.5864113563254761 
124.00026685214003 0.5825322707377526 
125.00026685214003 0.5775042174234033 
126.00026685214003 0.5728453066497919 
127.00026685214003 0.567491459684649 
128.00026685214004 0.563172442387808 
129.00026685214004 0.5578232268101041 
130.00026685214004 0.554326820650741 
131.00026685214004 0.5487856826451513 
132.00026685214004 0.5479698979591837 
133.00026685214004 0.5421888888888888 
134.00026685214004 0.5349642092495915 
135.00026685214004 0.5322219493223646 
136.00026685214004 0.5237039260665507 
137.00026685214004 0.5193406185730106 
138.00026685214004 0.5125649765332492 
139.00026685214004 0.5092132442124138 
140.00026685214004 0.5010212294995517 
141.00026685214004 0.49570210673416665 
142.00026685214004 0.48599871460212 
143.00026685214004 0.48030929441544035 
144.00026685214004 0.4754528371038338 
145.00026685214004 0.46876130754627426 
146.00026685214004 0.46282665849285465 
147.00026685214004 0.4570490336444655 
148.00026685214004 0.44917580419764824 
149.00026685214004 0.4471143595422667 
150.00026685214004 0.43932029082951013 
151.00026685214004 0.43477278647893275 
152.00026685214004 0.4274545298739652 
153.00026685214004 0.4275434306280652 
154.00026685214004 0.43775516136687265 
155.00026685214004 0.4275078112640407 
156.00026685214004 0.4778138994357434 
157.00026685214004 0.4767414148605179 
158.00026685214004 0.4510514251437011 
159.00026685214004 0.47940673284817825 
160.00026685214004 0.4450804355850868 
161.00026685214004 0.45357357881136956 
162.00026685214004 0.4262170793123452 
163.00026685214004 0.4575512972630914 
164.00026685214004 0.4216301402731636 
165.00026685214004 0.42414995649422577 
166.00026685214004 0.37277341533512637 
167.00026685214004 0.3811929982070349 
168.00026685214004 0.38590958577229356 
169.00026685214004 0.3602401940621212 
170.00026685214004 0.3630758793439859 
171.00026685214004 0.3570490705584561 
172.00026685214004 0.3244378552971578 
173.00026685214004 0.3553815509149397 
174.00026685214004 0.34809583662922533 
175.00026685214004 0.3446768417444499 
176.00026685214004 0.3369661722828668 
177.00026685214004 0.3231820940779415 
178.00026685214004 0.2995273506301746 
179.00026685214004 0.25692366318620474 
180.00026685214004 0.3069077664399096 
181.00026685214004 0.2648013473606497 
182.00026685214004 0.25119453541106396 
183.00026685214004 0.24745499920898617 
184.00026685214004 0.26140011337868474 
185.00026685214004 0.23018307098033036 
186.00026685214004 0.20790120497811546 
187.00026685214004 0.23134839951484468 
188.00026685214004 0.20880383114486115 
189.00026685214004 0.2132469031798768 
190.00026685214004 0.21979082159995794 
191.00026685214004 0.197652961029373 
192.00026685214004 0.212191194694932 
193.00026685214004 0.2003319240099142 
194.00026685214004 0.19792107393344952 
195.00026685214004 0.18588672942045034 
196.00026685214004 0.20122184517217775 
197.00026685214004 0.19031510177714492 
198.00026685214004 0.17902349707324824 
199.00026685214004 0.19594115909929896 
200.00026685214004 0.18511020408163265 
201.00026685214004 0.1830361387966043 
202.00026685214004 0.17359375362548127 
203.00026685214004 0.16279016505827157 
204.00026685214004 0.17039690317987669 
205.00026685214004 0.15982133101302542 
206.00026685214004 0.1589267099087698 
207.00026685214004 0.15780480145546594 
208.00026685214004 0.15655964641670625 
209.00026685214004 0.15571057322153667 
210.00026685214004 0.15471209856035437 
211.00026685214004 0.1536729209513263 
212.00026685214004 0.1529082858724886 
213.00026685214004 0.15194226651901077 
214.00026685214004 0.15142131914781423 
215.00026685214004 0.15046266940884886 
216.00026685214004 0.14996143674524087 
217.00026685214004 0.14929323682961573 
218.00026685214004 0.14881153957707124 
219.00026685214004 0.1483036558034067 
220.00026685214004 0.14771968834045252 
221.00026685214004 0.14717377788324637 
222.00026685214004 0.14677900253124512 
223.00026685214004 0.14626984917998215 
224.00026685214004 0.14569365606707815 
225.00026685214004 0.1452594038390551 
226.00026685214004 0.14477308574592637 
227.00026685214004 0.14436405895691617 
228.00026685214004 0.14388694299425203 
229.00026685214004 0.14348993302747468 
230.00026685214004 0.14308502214839441 
231.00026685214004 0.14266946685651016 
232.00026685214004 0.14231124690186162 
233.00026685214004 0.1418646087117018 
234.00026685214004 0.14154998417971848 
235.00026685214004 0.14110876048093665 
236.00026685214004 0.14086375309813856 
237.00026685214004 0.1405140747771978 
238.00026685214004 0.1402043624426516 
239.00026685214004 0.13993641169646165 
240.00026685214004 0.13964303775773887 
241.00026685214004 0.1394418670569004 
242.00026685214004 0.1392321244001478 
243.00026685214004 0.13901097795707443 
244.00026685214004 0.1388146574909034 
245.00026685214004 0.13861196145124724 
246.00026685214004 0.13844157833676118 
247.00026685214004 0.13828427464008872 
248.00026685214004 0.13810757791488698 
249.00026685214004 0.13798373015873028 
250.00026685214004 0.13783020487264686 
251.00026685214004 0.1377203079681486 
252.00026685214004 0.13761609713652911 
253.00026685214004 0.13752488530295848 
254.00026685214004 0.13744728814006232 
255.00026685214004 0.13736688024046836 
256.00026685214004 0.13728945710066984 
257.00026685214004 0.13724123292727955 
258.00026685214004 0.13717064019406222 
259.00026685214004 0.13713228128460697 
260.00026685214004 0.1370816418815589 
261.00026685214004 0.13705583241048366 
262.00026685214004 0.1370249011232401 
263.00026685214004 0.13700692137320056 
264.00026685214004 0.13698069398301968 
265.00026685214004 0.1369651611032011 
266.00026685214004 0.136951530612245 
267.00026685214004 0.13693373279544385 
268.00026685214004 0.13693019696250605 
269.00026685214004 0.1369141907925962 
270.00026685214004 0.1369123991457049 
271.00026685214004 0.13690353583293793 
272.00026685214004 0.13690176791646902 
273.00026685214004 0.1369000000000001 
274.00026685214004 0.1369000000000001 
275.00026685214004 0.1369000000000001 
276.00026685214004 0.1369000000000001 
277.00026685214004 0.1369000000000001 
278.00026685214004 0.1369000000000001 
279.00026685214004 0.1369000000000001 
280.00026685214004 0.1369000000000001 
281.00026685214004 0.1369000000000001 
282.00026685214004 0.1369000000000001 
283.00026685214004 0.1369000000000001 
284.00026685214004 0.1369000000000001 
285.00026685214004 0.1369000000000001 
286.00026685214004 0.1369000000000001 
287.00026685214004 0.1369000000000001 
288.00026685214004 0.1369000000000001 
289.00026685214004 0.1369000000000001 
290.00026685214004 0.1369000000000001 
291.00026685214004 0.1369000000000001 
292.00026685214004 0.1369000000000001 
293.00026685214004 0.1369000000000001 
294.00026685214004 0.1369000000000001 
295.00026685214004 0.1369000000000001 
296.00026685214004 0.1369000000000001 
297.00026685214004 0.1369000000000001 
298.00026685214004 0.1369000000000001 
299.00026685214004 0.1369000000000001 
300.00026685214004 0.1369000000000001 
301.00026685214004 0.1369000000000001 
302.00026685214004 0.1369000000000001 
303.00026685214004 0.1369000000000001 
304.00026685214004 0.1369000000000001 
305.00026685214004 0.1369000000000001 
306.00026685214004 0.1369000000000001 
307.00026685214004 0.1369000000000001 
308.00026685214004 0.1369000000000001 
309.00026685214004 0.1369000000000001 
310.00026685214004 0.1369000000000001 
311.00026685214004 0.1369000000000001 
312.00026685214004 0.1369000000000001 
313.00026685214004 0.1369000000000001 
314.00026685214004 0.1369000000000001 
315.00026685214004 0.1369000000000001 
316.00026685214004 0.1369000000000001 
317.00026685214004 0.1369000000000001 
318.00026685214004 0.1369000000000001 
319.00026685214004 0.1369000000000001 
320.00026685214004 0.1369000000000001 
321.00026685214004 0.1369000000000001 
322.00026685214004 0.1369000000000001 
323.00026685214004 0.1369000000000001 
324.00026685214004 0.1369000000000001 
325.00026685214004 0.1369000000000001 
326.00026685214004 0.1369000000000001 
327.00026685214004 0.1369000000000001 
328.00026685214004 0.1369000000000001 
329.00026685214004 0.1369000000000001 
330.00026685214004 0.1369000000000001 
331.00026685214004 0.1369000000000001 
332.00026685214004 0.1369000000000001 
333.00026685214004 0.1369000000000001 
334.00026685214004 0.1369000000000001 
335.00026685214004 0.1369000000000001 
336.00026685214004 0.1369000000000001 
337.00026685214004 0.1369000000000001 
338.00026685214004 0.1369000000000001 
339.00026685214004 0.1369000000000001 
340.00026685214004 0.1369000000000001 
341.00026685214004 0.1369000000000001 
342.00026685214004 0.1369000000000001 
343.00026685214004 0.1369000000000001 
344.00026685214004 0.1369000000000001 
345.00026685214004 0.1369000000000001 
346.00026685214004 0.1369000000000001 
347.00026685214004 0.1369000000000001 
348.00026685214004 0.1369000000000001 
349.00026685214004 0.1369000000000001 
350.00026685214004 0.1369000000000001 
351.00026685214004 0.1369000000000001 
352.00026685214004 0.1369000000000001 
353.00026685214004 0.1369000000000001 
354.00026685214004 0.1369000000000001 
355.00026685214004 0.1369000000000001 
356.00026685214004 0.1369000000000001 
357.00026685214004 0.1369000000000001 
358.00026685214004 0.1369000000000001 
359.00026685214004 0.1369000000000001 
360.00026685214004 0.1369000000000001 
361.00026685214004 0.1369000000000001 
362.00026685214004 0.1369000000000001 
363.00026685214004 0.1369000000000001 
364.00026685214004 0.1369000000000001 
365.00026685214004 0.1369000000000001 
366.00026685214004 0.1369000000000001 
367.00026685214004 0.1369000000000001 
368.00026685214004 0.1369000000000001 
369.00026685214004 0.1369000000000001 
370.00026685214004 0.1369000000000001 
371.00026685214004 0.1369000000000001 
372.00026685214004 0.1369000000000001 
373.00026685214004 0.1369000000000001 
#####################################################################
# End of data export. Simulation finished at: 2017-05-21T19:40+0000 #
#####################################################################
