0.000000000000000000e+00 nan
4.440892098500626162e-16 1.693676579129559101e-02
8.881784197001252323e-16 1.891207094025141588e-01
1.332267629550187849e-15 1.764750805720258497e-01
1.776356839400250465e-15 1.763889942912218178e-01
1.776356839400250465e-15 1.762412113585532236e-01
2.664535259100375697e-15 1.760545040709701470e-01
8.881784197001252323e-16 1.758151817833343289e-01
3.552713678800500929e-15 1.756428323061507424e-01
0.000000000000000000e+00 1.753768063602197669e-01
3.552713678800500929e-15 1.750828421209921215e-01
3.552713678800500929e-15 1.749119137228479781e-01
5.329070518200751394e-15 1.745767435624187569e-01
3.552713678800500929e-15 1.743254571950943466e-01
1.776356839400250465e-15 1.740720046862517523e-01
1.776356839400250465e-15 1.737943432065912897e-01
7.105427357601001859e-15 1.735281503659061586e-01
1.065814103640150279e-14 1.731789632253343814e-01
0.000000000000000000e+00 1.728650971910759560e-01
3.552713678800500929e-15 1.725320645424151256e-01
7.105427357601001859e-15 1.722272963409642310e-01
7.105427357601001859e-15 1.717814894745087750e-01
7.105427357601001859e-15 1.717045749278321709e-01
0.000000000000000000e+00 1.713325723945472723e-01
1.065814103640150279e-14 1.710754087641015442e-01
1.421085471520200372e-14 1.706374996348463957e-01
7.105427357601001859e-15 1.704857459353897042e-01
3.552713678800500929e-15 1.701632762433898938e-01
3.552713678800500929e-15 1.697599268468104605e-01
1.065814103640150279e-14 1.694906361216380886e-01
3.552713678800500929e-15 1.693370339028990312e-01
0.000000000000000000e+00 1.690332204513701475e-01
1.421085471520200372e-14 1.687536361220514924e-01
7.105427357601001859e-15 1.684991661854687850e-01
2.131628207280300558e-14 1.682723592808939850e-01
1.421085471520200372e-14 1.680165208640183871e-01
0.000000000000000000e+00 1.677259926255690314e-01
0.000000000000000000e+00 1.673214344756140393e-01
7.105427357601001859e-15 1.668827281851190114e-01
2.131628207280300558e-14 1.666762255376726953e-01
1.421085471520200372e-14 1.661729191723129162e-01
2.842170943040400743e-14 1.660239678085746184e-01
1.421085471520200372e-14 1.656867250718595530e-01
7.105427357601001859e-15 1.650270980310380442e-01
1.421085471520200372e-14 1.648089077980435802e-01
0.000000000000000000e+00 1.638929991277016940e-01
0.000000000000000000e+00 1.637250665368897018e-01
7.105427357601001859e-15 1.632735545945077082e-01
2.131628207280300558e-14 1.627658464030891095e-01
1.421085471520200372e-14 1.628571645141593249e-01
2.842170943040400743e-14 1.623328439053008110e-01
2.131628207280300558e-14 1.618632871881355295e-01
1.421085471520200372e-14 1.625131517107389900e-01
1.421085471520200372e-14 1.614046865652614127e-01
7.105427357601001859e-15 1.614269346768166802e-01
0.000000000000000000e+00 1.611826782326150620e-01
7.105427357601001859e-15 1.603425553273883919e-01
2.131628207280300558e-14 1.603890089660731932e-01
2.131628207280300558e-14 1.594963900987332317e-01
2.842170943040400743e-14 1.599579241606328417e-01
7.105427357601001859e-15 1.590508724004893737e-01
7.105427357601001859e-15 1.592962788649918970e-01
0.000000000000000000e+00 1.596207011133851938e-01
1.421085471520200372e-14 1.592380992821329222e-01
2.842170943040400743e-14 1.591182424692458575e-01
2.842170943040400743e-14 1.589504604262943765e-01
1.421085471520200372e-14 1.593303588091861678e-01
1.421085471520200372e-14 1.590584593844285022e-01
4.263256414560601115e-14 1.584783621117328567e-01
4.263256414560601115e-14 1.586892124472410737e-01
2.842170943040400743e-14 1.587526266588558943e-01
1.421085471520200372e-14 1.584520218725614937e-01
0.000000000000000000e+00 1.585509238580034841e-01
0.000000000000000000e+00 1.586738392032953915e-01
0.000000000000000000e+00 1.588664218157637698e-01
1.421085471520200372e-14 1.586408179073207636e-01
1.421085471520200372e-14 1.582856195193289572e-01
2.842170943040400743e-14 1.585109837760502183e-01
4.263256414560601115e-14 1.587060826411609837e-01
1.421085471520200372e-14 1.583171617147536570e-01
2.842170943040400743e-14 1.587910705939702405e-01
4.263256414560601115e-14 1.584506283365793855e-01
5.684341886080801487e-14 1.580297716909530581e-01
4.263256414560601115e-14 1.585872693204059269e-01
2.842170943040400743e-14 1.579795464723690868e-01
2.842170943040400743e-14 1.578981851288685234e-01
1.421085471520200372e-14 1.582427568635221549e-01
4.263256414560601115e-14 1.582054750664048104e-01
2.842170943040400743e-14 1.584532383491091545e-01
1.421085471520200372e-14 1.583073616469341527e-01
0.000000000000000000e+00 1.584565177007898340e-01
0.000000000000000000e+00 1.586244823057587072e-01
0.000000000000000000e+00 1.587459314180142134e-01
0.000000000000000000e+00 1.586480388143219900e-01
1.421085471520200372e-14 1.586804605964708959e-01
2.842170943040400743e-14 1.586475152516440557e-01
4.263256414560601115e-14 1.586487630544224647e-01
2.842170943040400743e-14 1.586536548237334476e-01
2.842170943040400743e-14 1.586624462389500112e-01
4.263256414560601115e-14 1.586593262436857277e-01
5.684341886080801487e-14 1.586587168542545889e-01
5.684341886080801487e-14 1.586632672113655051e-01
4.263256414560601115e-14 1.586650225316264540e-01
2.842170943040400743e-14 1.586650225316264540e-01
2.842170943040400743e-14 1.586650225316264540e-01
1.421085471520200372e-14 1.586650225316264540e-01
2.842170943040400743e-14 1.586650225316264540e-01
1.421085471520200372e-14 1.586650225316264540e-01
1.421085471520200372e-14 1.586650225316264540e-01
2.842170943040400743e-14 1.586650225316264540e-01
0.000000000000000000e+00 1.586650225316264540e-01
2.842170943040400743e-14 1.586650225316264540e-01
1.421085471520200372e-14 1.586650225316264540e-01
0.000000000000000000e+00 1.586650225316264540e-01
4.263256414560601115e-14 1.586650225316264540e-01
1.421085471520200372e-14 1.586650225316264540e-01
4.263256414560601115e-14 1.586650225316264540e-01
0.000000000000000000e+00 1.586650225316264540e-01
5.684341886080801487e-14 1.586650225316264540e-01
7.105427357601001859e-14 1.586650225316264540e-01
1.421085471520200372e-14 1.586650225316264540e-01
4.263256414560601115e-14 1.586650225316264540e-01
1.421085471520200372e-14 1.586650225316264540e-01
4.263256414560601115e-14 1.586650225316264540e-01
0.000000000000000000e+00 1.586650225316264540e-01
2.842170943040400743e-14 1.586650225316264540e-01
2.842170943040400743e-14 1.586650225316264540e-01
0.000000000000000000e+00 1.586650225316264540e-01
5.684341886080801487e-14 1.586650225316264540e-01
0.000000000000000000e+00 1.586650225316264540e-01
5.684341886080801487e-14 1.586650225316264540e-01
0.000000000000000000e+00 1.586650225316264540e-01
