#####################################################################
# Alchemist log file - simulation started at: 2017-05-25T10:30+0000 #
#####################################################################
# random = 8.0, targets = 3.1622776601683795, density = 1.2632455339402642, gridShift = 1.0, perturbation = 0.5, connfactor = 0.1
#
# The columns have the following meaning: 
# time se[Mean] 
0.0 NaN 
1.041605243232502 NaN 
2.0416052432325023 1.0 
3.0416052432325023 1.0 
4.041605243232502 1.0 
5.041605243232502 1.0 
6.041605243232502 1.0 
7.041605243232502 1.0 
8.041605243232503 1.0 
9.041605243232503 1.0 
10.041605243232503 1.0 
11.041605243232503 1.0 
12.041605243232503 1.0 
13.041605243232503 1.0 
14.041605243232503 1.0 
15.041605243232503 1.0 
16.041605243232503 1.0 
17.041605243232503 1.0 
18.041605243232503 1.0 
19.041605243232503 1.0 
20.041605243232503 1.0 
21.041605243232503 1.0 
22.041605243232503 1.0 
#####################################################################
# End of data export. Simulation finished at: 2017-05-25T10:30+0000 #
#####################################################################
