#####################################################################
# Alchemist log file - simulation started at: 2017-05-21T05:25+0000 #
#####################################################################
# random = 2.0, targets = 3.1622776601683795, density = 0.6332893950589894, gridShift = 1.0, perturbation = 0.0, connfactor = 0.75
#
# The columns have the following meaning: 
# time se[Mean] 
0.0 NaN 
1.003288451303821 NaN 
2.003288451303821 1.0 
3.003288451303821 0.9945451648268486 
4.0032884513038205 0.9779662354826409 
5.0032884513038205 0.9702924292031921 
6.0032884513038205 0.9497986234464516 
7.0032884513038205 0.9288142416451419 
8.00328845130382 0.9260104763437205 
9.00328845130382 0.9320793443515643 
10.00328845130382 0.8612477221912068 
11.00328845130382 0.8866343053336937 
12.00328845130382 0.8363939581965564 
13.00328845130382 0.8250164482134037 
14.00328845130382 0.7780282421264967 
15.00328845130382 0.8027910390865169 
16.00328845130382 0.8000295168883624 
17.00328845130382 0.775305733319438 
18.00328845130382 0.7819008968395156 
19.00328845130382 0.8479664281164214 
20.00328845130382 0.7641978733242516 
21.00328845130382 0.7897761010762662 
22.00328845130382 0.6461766043121786 
23.00328845130382 0.6042240534816758 
24.00328845130382 0.5241787304925111 
25.00328845130382 0.43381501218026375 
26.00328845130382 0.3277105745310289 
27.00328845130382 0.266943996092918 
28.00328845130382 0.16592404465021757 
29.00328845130382 0.12557322378290192 
30.00328845130382 0.09101518291487487 
31.00328845130382 0.06692491747243769 
32.00328845130382 0.04502442730423624 
33.00328845130382 0.03715245277965693 
34.00328845130382 0.021434491254142176 
35.00328845130382 0.023400046548343507 
36.00328845130382 0.009442991243803715 
37.00328845130382 0.00649303274453938 
38.00328845130382 0.005576860166387426 
39.00328845130382 0.004105132032679914 
40.00328845130382 0.002633403898972407 
41.00328845130382 0.002633403898972407 
42.00328845130382 0.002633403898972407 
43.00328845130382 0.002633403898972407 
44.00328845130382 0.002633403898972407 
45.00328845130382 0.002633403898972407 
46.00328845130382 0.002633403898972407 
47.00328845130382 0.002633403898972407 
48.00328845130382 0.002633403898972407 
49.00328845130382 0.002633403898972407 
50.00328845130382 0.002633403898972407 
51.00328845130382 0.002633403898972407 
52.00328845130382 0.002633403898972407 
53.00328845130382 0.002633403898972407 
54.00328845130382 0.002633403898972407 
55.00328845130382 0.002633403898972407 
#####################################################################
# End of data export. Simulation finished at: 2017-05-21T05:25+0000 #
#####################################################################
