#####################################################################
# Alchemist log file - simulation started at: 2017-05-24T01:50+0000 #
#####################################################################
# random = 13.0, targets = 31.622776601683793, density = 0.05649405772326896, gridShift = 0.0, perturbation = 0.0, connfactor = 0.1
#
# The columns have the following meaning: 
# time se[Mean] 
0.0 NaN 
1.0170171764237625 1.0 
2.0170171764237628 1.0 
3.0170171764237628 1.0 
4.017017176423763 0.992344305849579 
5.017017176423763 0.9348640997214219 
6.017017176423763 0.9420197938718429 
7.017017176423763 0.9264584055710009 
8.017017176423764 0.9038663231197381 
9.017017176423764 0.8925702818941067 
10.017017176423764 0.8775088935932648 
11.017017176423764 0.8775088935932648 
12.017017176423764 0.8775088935932648 
13.017017176423764 0.8775088935932648 
14.017017176423764 0.8775088935932648 
15.017017176423764 0.8775088935932648 
16.017017176423764 0.8775088935932648 
17.017017176423764 0.8775088935932648 
#####################################################################
# End of data export. Simulation finished at: 2017-05-24T01:50+0000 #
#####################################################################
