#####################################################################
# Alchemist log file - simulation started at: 2017-05-24T11:28+0000 #
#####################################################################
# random = 14.0, targets = 100.0, density = 0.2247883923996312, gridShift = 1.0, perturbation = 0.5, connfactor = 1.5
#
# The columns have the following meaning: 
# time se[Mean] 
0.0 NaN 
1.0090008223538587 NaN 
2.0090008223538587 1.2256791666666667 
3.0090008223538587 1.28185 
4.009000822353858 1.4512181382275133 
5.009000822353858 2.0292666501322754 
6.009000822353858 1.934929728835979 
7.009000822353858 2.4067428902116403 
8.009000822353858 2.0375259589947095 
9.009000822353858 1.563105158730159 
10.009000822353858 1.6530087632275134 
11.009000822353858 1.432176107804233 
12.009000822353858 1.4849179232804235 
13.009000822353858 1.399724338624339 
14.009000822353858 1.4944633101851856 
15.009000822353858 1.5333351025132282 
16.00900082235386 1.639232771164022 
17.00900082235386 1.7058070105820116 
18.00900082235386 1.9630484292328054 
19.00900082235386 2.239658184523811 
20.00900082235386 2.293562235449737 
21.00900082235386 2.7399444113756632 
22.00900082235386 2.527351620370372 
23.00900082235386 2.8012937996031764 
24.00900082235386 3.0902498842592614 
25.00900082235386 3.1914783399470923 
26.00900082235386 3.5706816302910083 
27.00900082235386 2.6968917658730183 
28.00900082235386 2.882078538359791 
29.00900082235386 2.576312962962965 
30.00900082235386 2.76505654761905 
31.00900082235386 2.5493155423280447 
32.009000822353855 1.9083991402116418 
33.009000822353855 1.8966396825396843 
34.009000822353855 1.4754067460317475 
35.009000822353855 1.4733835978835994 
36.009000822353855 1.4697140211640227 
37.009000822353855 1.4693071428571445 
38.009000822353855 1.4664142857142872 
39.009000822353855 1.4652571428571444 
40.009000822353855 1.4641000000000015 
41.009000822353855 1.4641000000000015 
42.009000822353855 1.4641000000000015 
43.009000822353855 1.4641000000000015 
44.009000822353855 1.4641000000000015 
45.009000822353855 1.4641000000000015 
46.009000822353855 1.4641000000000015 
47.009000822353855 1.4641000000000015 
48.009000822353855 1.4641000000000015 
49.009000822353855 1.4641000000000015 
50.009000822353855 1.4641000000000015 
51.009000822353855 1.4641000000000015 
#####################################################################
# End of data export. Simulation finished at: 2017-05-24T11:28+0000 #
#####################################################################
