#####################################################################
# Alchemist log file - simulation started at: 2017-05-24T11:40+0000 #
#####################################################################
# random = 14.0, targets = 100.0, density = 3.5589026259761294, gridShift = 1.0, perturbation = 0.0, connfactor = 0.1
#
# The columns have the following meaning: 
# time se[Mean] 
0.0 NaN 
1.0015837731381736 NaN 
2.0015837731381736 1.0 
3.0015837731381736 0.9999523923444976 
4.001583773138174 0.9999523923444976 
5.001583773138174 0.9997143540669856 
6.001583773138174 0.9993334928229665 
7.001583773138174 0.999381100478469 
8.001583773138174 0.9990483253588517 
9.001583773138174 0.9993334928229665 
10.001583773138174 0.9990031100478469 
11.001583773138174 0.9985275119617225 
12.001583773138174 0.9980038277511962 
13.001583773138174 0.996816028708134 
14.001583773138174 0.99596004784689 
15.001583773138174 0.9952921052631579 
16.001583773138172 0.9943875598086125 
17.001583773138172 0.9933425837320574 
18.001583773138172 0.9925818181818181 
19.001583773138172 0.9919619617224881 
20.001583773138172 0.9908203349282296 
21.001583773138172 0.9897744019138756 
22.001583773138172 0.9892492822966507 
23.001583773138172 0.9880133971291866 
24.001583773138172 0.9877705741626794 
25.001583773138172 0.9863942583732057 
26.001583773138172 0.9853473684210526 
27.001583773138172 0.9849641148325359 
28.001583773138172 0.9837272727272727 
29.001583773138172 0.982538995215311 
30.001583773138172 0.9823442583732057 
31.001583773138172 0.9820095693779904 
32.00158377313817 0.9815796650717703 
33.00158377313817 0.9813406698564593 
34.00158377313817 0.981195933014354 
35.00158377313817 0.9810997607655502 
36.00158377313817 0.9807198564593301 
37.00158377313817 0.980577033492823 
38.00158377313817 0.9803861244019139 
39.00158377313817 0.9803856459330144 
40.00158377313817 0.9802904306220095 
41.00158377313817 0.9802904306220095 
42.00158377313817 0.9801952153110047 
43.00158377313817 0.9801004784688995 
44.00158377313817 0.9800528708133971 
45.00158377313817 0.9798177033492823 
46.00158377313817 0.9798177033492823 
47.00158377313817 0.9794892344497608 
48.00158377313817 0.9791145933014354 
49.00158377313817 0.979067942583732 
50.00158377313817 0.9780882775119617 
51.00158377313817 0.9784143540669856 
52.00158377313817 0.9779464114832536 
53.00158377313817 0.9776232057416268 
54.00158377313817 0.9778074162679425 
55.00158377313817 0.9774337320574162 
56.00158377313817 0.9783643540669856 
57.00158377313817 0.9778540669856459 
58.00158377313817 0.977667942583732 
59.00158377313817 0.9779954545454546 
60.00158377313817 0.9777102870813397 
61.00158377313817 0.9783181818181818 
62.00158377313817 0.9778050239234449 
63.00158377313817 0.9774294258373205 
64.00158377313818 0.9780311004784689 
65.00158377313818 0.9772918660287081 
66.00158377313818 0.9770952153110047 
67.00158377313818 0.9766296650717703 
68.00158377313818 0.9761136363636363 
69.00158377313818 0.9756047846889951 
70.00158377313818 0.9756447368421053 
71.00158377313818 0.974617942583732 
72.00158377313818 0.9726727272727272 
73.00158377313818 0.9734586124401914 
74.00158377313818 0.9701767942583732 
75.00158377313818 0.971138038277512 
76.00158377313818 0.9699815789473684 
77.00158377313818 0.9668401913875598 
78.00158377313818 0.9680200956937799 
79.00158377313818 0.9668650717703349 
80.00158377313818 0.9675885167464116 
81.00158377313818 0.9643523923444975 
82.00158377313818 0.9595519138755981 
83.00158377313818 0.9600193779904306 
84.00158377313818 0.9576358851674641 
85.00158377313818 0.9540177033492823 
86.00158377313818 0.953149043062201 
87.00158377313818 0.9486131578947369 
88.00158377313818 0.9531803827751196 
89.00158377313818 0.944188038277512 
90.00158377313818 0.9430739234449761 
91.00158377313818 0.9406141148325359 
92.00158377313818 0.9381889952153111 
93.00158377313818 0.9371382775119618 
94.00158377313818 0.9347791866028708 
95.00158377313818 0.9312528708133971 
96.00158377313818 0.9315055023923445 
97.00158377313818 0.9262712918660287 
98.00158377313818 0.9266296650717704 
99.00158377313818 0.9244425837320575 
100.00158377313818 0.9227411483253588 
101.00158377313818 0.9205165071770335 
102.00158377313818 0.920405980861244 
103.00158377313818 0.9175712918660287 
104.00158377313818 0.9142208133971291 
105.00158377313818 0.9147232057416268 
106.00158377313818 0.9114232057416267 
107.00158377313818 0.9103021531100479 
108.00158377313818 0.9098516746411484 
109.00158377313818 0.9075588516746411 
110.00158377313818 0.9082631578947369 
111.00158377313818 0.9082011961722488 
112.00158377313818 0.9073043062200956 
113.00158377313818 0.9070186602870813 
114.00158377313818 0.906761004784689 
115.00158377313818 0.9060631578947368 
116.00158377313818 0.9058342105263157 
117.00158377313818 0.9058988038277512 
118.00158377313818 0.9063870813397129 
119.00158377313818 0.9066488038277511 
120.00158377313818 0.906595933014354 
121.00158377313818 0.9063203349282296 
122.00158377313818 0.9066724880382775 
123.00158377313818 0.9061684210526315 
124.00158377313818 0.9058885167464115 
125.00158377313818 0.905522009569378 
126.00158377313818 0.9052911483253588 
127.00158377313818 0.9050612440191387 
128.00158377313818 0.9048322966507176 
129.00158377313818 0.904511961722488 
130.00158377313818 0.9041911483253589 
131.00158377313818 0.9041454545454545 
132.00158377313818 0.9038251196172249 
133.00158377313818 0.903550956937799 
134.00158377313818 0.9033224880382775 
135.00158377313818 0.903094019138756 
136.00158377313818 0.9029112440191387 
137.00158377313818 0.9027741626794258 
138.00158377313818 0.9026827751196171 
139.00158377313818 0.9025456937799042 
140.00158377313818 0.9025 
141.00158377313818 0.9025 
142.00158377313818 0.9025 
143.00158377313818 0.9025 
144.00158377313818 0.9025 
145.00158377313818 0.9025 
146.00158377313818 0.9025 
147.00158377313818 0.9025 
148.00158377313818 0.9025 
149.00158377313818 0.9025 
150.00158377313818 0.9025 
151.00158377313818 0.9025 
152.00158377313818 0.9025 
153.00158377313818 0.9025 
154.00158377313818 0.9025 
155.00158377313818 0.9025 
156.00158377313818 0.9025 
157.00158377313818 0.9025 
158.00158377313818 0.9025 
159.00158377313818 0.9025 
160.00158377313818 0.9025 
161.00158377313818 0.9025 
162.00158377313818 0.9025 
163.00158377313818 0.9025 
164.00158377313818 0.9025 
165.00158377313818 0.9025 
166.00158377313818 0.9025 
167.00158377313818 0.9025 
168.00158377313818 0.9025 
169.00158377313818 0.9025 
170.00158377313818 0.9025 
171.00158377313818 0.9025 
172.00158377313818 0.9025 
173.00158377313818 0.9025 
174.00158377313818 0.9025 
175.00158377313818 0.9025 
176.00158377313818 0.9025 
177.00158377313818 0.9025 
178.00158377313818 0.9025 
179.00158377313818 0.9025 
180.00158377313818 0.9025 
#####################################################################
# End of data export. Simulation finished at: 2017-05-24T11:40+0000 #
#####################################################################
