#####################################################################
# Alchemist log file - simulation started at: 2017-05-25T02:30+0000 #
#####################################################################
# random = 7.0, targets = 100.0, density = 0.05649405772326896, gridShift = 0.0, perturbation = 0.0, connfactor = 2.0
#
# The columns have the following meaning: 
# time se[Mean] 
0.0 NaN 
1.001616958347866 NaN 
2.0016169583478662 3.9639531249999997 
3.0016169583478662 4.343288975694445 
4.001616958347866 5.568447352430555 
5.001616958347866 7.59861171875 
6.001616958347866 8.215841276041665 
7.001616958347866 10.171486979166666 
8.001616958347867 7.508937847222223 
9.001616958347867 5.263585894097223 
10.001616958347867 2.4323503038194447 
11.001616958347867 3.260686284722223 
12.001616958347867 3.97646449652778 
13.001616958347867 2.924050303819446 
14.001616958347867 5.596884722222225 
15.001616958347867 0.08653463541666667 
16.001616958347867 0.007126388888888877 
17.001616958347867 0.01775086805555553 
18.001616958347867 2.0194839173657903E-32 
19.001616958347867 2.0194839173657903E-32 
20.001616958347867 2.0194839173657903E-32 
21.001616958347867 2.0194839173657903E-32 
22.001616958347867 2.0194839173657903E-32 
23.001616958347867 2.0194839173657903E-32 
24.001616958347867 2.0194839173657903E-32 
25.001616958347867 2.0194839173657903E-32 
#####################################################################
# End of data export. Simulation finished at: 2017-05-25T02:30+0000 #
#####################################################################
