#####################################################################
# Alchemist log file - simulation started at: 2017-05-24T17:32+0000 #
#####################################################################
# random = 15.0, targets = 31.622776601683793, density = 3.5589026259761294, gridShift = 0.0, perturbation = 0.0, connfactor = 1.0
#
# The columns have the following meaning: 
# time se[Mean] 
0.0 NaN 
1.0003675412420963 NaN 
2.0003675412420963 1.0194817798440188 
3.0003675412420963 1.0331510487915636 
4.000367541242096 1.0364168690448146 
5.000367541242096 1.0370728718020106 
6.000367541242096 1.018693553493353 
7.000367541242096 1.0142803166175387 
8.000367541242095 1.0098734667777816 
9.000367541242095 1.0108557310968007 
10.000367541242095 1.0092819617155713 
11.000367541242095 1.0053256516822984 
12.000367541242095 1.00374111841218 
13.000367541242095 0.9963539774902489 
14.000367541242095 0.9964204423084939 
15.000367541242095 0.9921311392343666 
16.000367541242095 0.9953845756976917 
17.000367541242095 0.9892329416761013 
18.000367541242095 0.9893753384358508 
19.000367541242095 0.992323078157068 
20.000367541242095 0.9797677406767936 
21.000367541242095 0.9793799930259112 
22.000367541242095 0.9642151556632461 
23.000367541242095 0.9542752444851238 
24.000367541242095 0.9407644996758482 
25.000367541242095 0.9161852321325076 
26.000367541242095 0.9010194697948346 
27.000367541242095 0.8762583212481667 
28.000367541242095 0.8616703552900967 
29.000367541242095 0.8394226965675543 
30.000367541242095 0.8428362233380596 
31.000367541242095 0.8065683765822368 
32.0003675412421 0.8147059450673086 
33.0003675412421 0.8153535266286666 
34.0003675412421 0.7981163822177929 
35.0003675412421 0.8077141963539035 
36.0003675412421 0.813093778613809 
37.0003675412421 0.8033984258292948 
38.0003675412421 0.8111635710231271 
39.0003675412421 0.7953641513638036 
40.0003675412421 0.8004960940694712 
41.0003675412421 0.8060417462333538 
42.0003675412421 0.801615595433368 
43.0003675412421 0.7988261692929288 
44.0003675412421 0.8050239069775498 
45.0003675412421 0.7806423594763773 
46.0003675412421 0.7688214478754751 
47.0003675412421 0.7503605864847996 
48.0003675412421 0.7235637473831159 
49.0003675412421 0.7041029027781867 
50.0003675412421 0.6846009340923228 
51.0003675412421 0.655934451477021 
52.0003675412421 0.6353139328970057 
53.0003675412421 0.6199841382229808 
54.0003675412421 0.6089956327194935 
55.0003675412421 0.6011635631683446 
56.0003675412421 0.5877703208037443 
57.0003675412421 0.5835161533576734 
58.0003675412421 0.5707168387179266 
59.0003675412421 0.5599303573674096 
60.0003675412421 0.55257446055241 
61.0003675412421 0.5378534354066264 
62.0003675412421 0.5271472714416635 
63.0003675412421 0.5336964741536582 
64.0003675412421 0.5186708601895513 
65.0003675412421 0.5426303243929336 
66.0003675412421 0.5184701528298079 
67.0003675412421 0.5240739819756509 
68.0003675412421 0.5356889987056629 
69.0003675412421 0.5113645194477187 
70.0003675412421 0.5097341016265259 
71.0003675412421 0.5111534363052587 
72.0003675412421 0.4765568742690715 
73.0003675412421 0.479230348410039 
74.0003675412421 0.45396057657702577 
75.0003675412421 0.45242890775591116 
76.0003675412421 0.4367760139188672 
77.0003675412421 0.44031939823423905 
78.0003675412421 0.4314638071846496 
79.0003675412421 0.4368118164485673 
80.0003675412421 0.4326735660516356 
81.0003675412421 0.42543783466840385 
82.0003675412421 0.4337111854122833 
83.0003675412421 0.430782220153003 
84.0003675412421 0.42678014616113147 
85.0003675412421 0.42659887996722856 
86.0003675412421 0.42628714248487 
87.0003675412421 0.4259662739844829 
88.0003675412421 0.425576107339868 
89.0003675412421 0.4253335638350706 
90.0003675412421 0.42529891476295667 
91.0003675412421 0.42529891476295667 
92.0003675412421 0.42529891476295667 
93.0003675412421 0.42529891476295667 
94.0003675412421 0.42529891476295667 
95.0003675412421 0.42529891476295667 
96.0003675412421 0.42529891476295667 
97.0003675412421 0.42529891476295667 
98.0003675412421 0.42529891476295667 
99.0003675412421 0.42529891476295667 
100.0003675412421 0.42529891476295667 
101.0003675412421 0.42529891476295667 
102.0003675412421 0.42529891476295667 
103.0003675412421 0.42529891476295667 
104.0003675412421 0.42529891476295667 
105.0003675412421 0.42529891476295667 
106.0003675412421 0.42529891476295667 
107.0003675412421 0.42529891476295667 
108.0003675412421 0.42529891476295667 
109.0003675412421 0.42529891476295667 
110.0003675412421 0.42529891476295667 
111.0003675412421 0.42529891476295667 
112.0003675412421 0.42529891476295667 
113.0003675412421 0.42529891476295667 
114.0003675412421 0.42529891476295667 
115.0003675412421 0.42529891476295667 
116.0003675412421 0.42529891476295667 
117.0003675412421 0.42529891476295667 
118.0003675412421 0.42529891476295667 
119.0003675412421 0.42529891476295667 
120.0003675412421 0.42529891476295667 
121.0003675412421 0.42529891476295667 
122.0003675412421 0.42529891476295667 
123.0003675412421 0.42529891476295667 
124.0003675412421 0.42529891476295667 
125.0003675412421 0.42529891476295667 
126.0003675412421 0.42529891476295667 
127.0003675412421 0.42529891476295667 
128.0003675412421 0.42529891476295667 
129.0003675412421 0.42529891476295667 
130.0003675412421 0.42529891476295667 
131.0003675412421 0.42529891476295667 
132.0003675412421 0.42529891476295667 
#####################################################################
# End of data export. Simulation finished at: 2017-05-24T17:32+0000 #
#####################################################################
