#####################################################################
# Alchemist log file - simulation started at: 2017-05-23T05:47+0000 #
#####################################################################
# random = 5.0, targets = 1.0, density = 5.0264212595847235, gridShift = 1.0, perturbation = 0.5, connfactor = 0.5
#
# The columns have the following meaning: 
# time se[Mean] 
0.0 NaN 
1.0031365367908396 NaN 
2.00313653679084 1.0 
3.00313653679084 1.0 
4.00313653679084 1.0 
5.00313653679084 0.9982517482517482 
6.00313653679084 0.9912587412587412 
7.00313653679084 0.9947552447552448 
8.00313653679084 0.986013986013986 
9.00313653679084 0.979020979020979 
10.00313653679084 0.9877622377622377 
11.00313653679084 0.9934440559440559 
12.00313653679084 0.9763986013986014 
13.00313653679084 0.9615384615384615 
14.00313653679084 0.9628496503496505 
15.00313653679084 0.9401223776223774 
16.00313653679084 0.9484265734265735 
17.00313653679084 0.9921328671328672 
18.00313653679084 0.9436188811188811 
19.00313653679084 1.0026223776223777 
20.00313653679084 1.104020979020979 
21.00313653679084 0.963723776223776 
22.00313653679084 1.0314685314685315 
23.00313653679084 1.0629370629370627 
24.00313653679084 1.043706293706294 
25.00313653679084 1.0052447552447552 
26.00313653679084 0.973776223776224 
27.00313653679084 0.9615384615384619 
28.00313653679084 0.8479020979020983 
29.00313653679084 0.8129370629370626 
30.00313653679084 0.8076923076923082 
31.00313653679084 0.769230769230769 
32.00313653679084 0.7832167832167833 
33.00313653679084 0.7797202797202795 
34.00313653679084 0.7639860139860144 
35.00313653679084 0.7727272727272723 
36.00313653679084 0.7744755244755239 
37.00313653679084 0.7832167832167843 
38.00313653679084 0.7849650349650361 
39.00313653679084 0.7814685314685311 
40.00313653679084 0.7954545454545447 
41.00313653679084 0.8006993006993013 
42.00313653679084 0.8076923076923084 
43.00313653679084 0.8129370629370639 
44.00313653679084 0.8146853146853156 
45.00313653679084 0.8251748251748242 
46.00313653679084 0.8321678321678314 
47.00313653679084 0.8409090909090903 
48.00313653679084 0.8496503496503506 
49.00313653679084 0.8583916083916084 
50.00313653679084 0.8636363636363629 
51.00313653679084 0.8741258741258748 
52.00313653679084 0.8776223776223773 
53.00313653679084 0.8898601398601398 
54.00313653679084 0.9038461538461543 
55.00313653679084 0.9073426573426575 
56.00313653679084 0.9160839160839157 
57.00313653679084 0.9287587412587416 
58.00313653679084 0.9309440559440555 
59.00313653679084 0.9357517482517487 
60.00313653679084 0.9383741258741254 
61.00313653679084 1.3610139860139925 
62.00313653679084 1.3614510489510523 
63.00313653679084 2.3002622377622357 
64.00313653679083 1.9152097902097782 
65.00313653679083 2.518356643356627 
66.00313653679083 3.7443181818181857 
67.00313653679083 2.9589160839160913 
68.00313653679083 3.699300699300705 
69.00313653679083 4.8544580419580585 
70.00313653679083 4.454545454545434 
71.00313653679083 5.614947552447535 
72.00313653679083 4.348776223776233 
73.00313653679083 6.589597902097887 
74.00313653679083 5.945367132867119 
75.00313653679083 4.6241258741258795 
76.00313653679083 8.032779720279725 
77.00313653679083 6.7556818181818254 
78.00313653679083 4.852272727272714 
79.00313653679083 9.521416083916082 
80.00313653679083 7.171765734265716 
81.00313653679083 8.012674825174823 
82.00313653679083 9.652534965034977 
83.00313653679083 8.650349650349648 
84.00313653679083 9.846590909090892 
85.00313653679083 7.663461538461544 
86.00313653679083 11.944930069930077 
87.00313653679083 8.990821678321671 
88.00313653679083 11.42526223776225 
89.00313653679083 11.16389860139859 
90.00313653679083 11.303321678321673 
91.00313653679083 10.562937062937063 
92.00313653679083 13.47027972027973 
93.00313653679083 10.312937062937083 
94.00313653679083 13.826486013986028 
95.00313653679083 13.789772727272709 
96.00313653679083 9.16608391608396 
97.00313653679083 11.572552447552468 
98.00313653679083 9.155157342657386 
99.00313653679083 7.940559440559499 
100.00313653679083 8.64029720279718 
101.00313653679083 5.2884615384615525 
102.00313653679083 6.616695804195773 
103.00313653679083 4.730332167832163 
104.00313653679083 4.763548951048942 
105.00313653679083 4.565996503496486 
106.00313653679083 2.7753496503496473 
107.00313653679083 4.443618881118848 
108.00313653679083 2.374125874125881 
109.00313653679083 2.6171328671328453 
110.00313653679083 1.5244755244755288 
111.00313653679083 0.9589160839160764 
112.00313653679083 0.7600524475524509 
113.00313653679083 0.1708916083916076 
114.00313653679083 0.133741258741258 
115.00313653679083 0.035402097902097925 
116.00313653679083 0.0 
117.00313653679083 0.0 
118.00313653679083 0.0 
119.00313653679083 0.0 
120.00313653679083 0.0 
121.00313653679083 0.0 
122.00313653679083 0.0 
123.00313653679083 0.0 
124.00313653679083 0.0 
125.00313653679083 0.0 
126.00313653679083 0.0 
127.00313653679083 0.0 
128.00313653679083 0.0 
129.00313653679083 0.0 
130.00313653679083 0.0 
131.00313653679083 0.0 
132.00313653679083 0.0 
133.00313653679083 0.0 
134.00313653679083 0.0 
135.00313653679083 0.0 
136.00313653679083 0.0 
137.00313653679083 0.0 
138.00313653679083 0.0 
139.00313653679083 0.0 
140.00313653679083 0.0 
141.00313653679083 0.0 
142.00313653679083 0.0 
143.00313653679083 0.0 
144.00313653679083 0.0 
145.00313653679083 0.0 
146.00313653679083 0.0 
147.00313653679083 0.0 
148.00313653679083 0.0 
149.00313653679083 0.0 
150.00313653679083 0.0 
151.00313653679083 0.0 
152.00313653679083 0.0 
153.00313653679083 0.0 
154.00313653679083 0.0 
155.00313653679083 0.0 
156.00313653679083 0.0 
157.00313653679083 0.0 
158.00313653679083 0.0 
159.00313653679083 0.0 
160.00313653679083 0.0 
161.00313653679083 0.0 
162.00313653679083 0.0 
#####################################################################
# End of data export. Simulation finished at: 2017-05-23T05:49+0000 #
#####################################################################
