#####################################################################
# Alchemist log file - simulation started at: 2017-05-23T05:20+0000 #
#####################################################################
# random = 5.0, targets = 1.0, density = 0.1591589639397027, gridShift = 1.0, perturbation = 0.5, connfactor = 0.75
#
# The columns have the following meaning: 
# time se[Mean] 
0.0 NaN 
1.0628592424154633 NaN 
2.0628592424154633 1.0 
3.0628592424154633 1.0 
4.062859242415463 0.9675925925925926 
5.062859242415463 0.9351851851851852 
6.062859242415463 0.9027777777777778 
7.062859242415463 0.8055555555555555 
8.062859242415463 0.925 
9.062859242415463 0.8398148148148148 
10.062859242415463 0.9185185185185185 
11.062859242415463 0.8398148148148148 
12.062859242415463 0.8546296296296296 
13.062859242415463 0.7879629629629629 
14.062859242415463 0.4462962962962963 
15.062859242415463 0.5185185185185185 
16.062859242415463 0.3499999999999999 
17.062859242415463 0.3009259259259259 
18.062859242415463 0.37592592592592583 
19.062859242415463 0.09907407407407404 
20.062859242415463 0.3212962962962963 
21.062859242415463 0.18333333333333326 
22.062859242415463 0.0907407407407407 
23.062859242415463 4.930380657631324E-32 
24.062859242415463 4.930380657631324E-32 
25.062859242415463 4.930380657631324E-32 
26.062859242415463 4.930380657631324E-32 
27.062859242415463 4.930380657631324E-32 
28.062859242415463 4.930380657631324E-32 
#####################################################################
# End of data export. Simulation finished at: 2017-05-23T05:20+0000 #
#####################################################################
