#####################################################################
# Alchemist log file - simulation started at: 2017-05-24T19:06+0000 #
#####################################################################
# random = 15.0, targets = 100.0, density = 0.05649405772326896, gridShift = 1.0, perturbation = 0.5, connfactor = 0.25
#
# The columns have the following meaning: 
# time se[Mean] 
0.0 NaN 
1.0090872484315245 NaN 
2.0090872484315243 1.0018828124999999 
3.0090872484315243 1.0006359375 
4.009087248431524 1.0031359375 
5.009087248431524 0.9981609375 
6.009087248431524 0.9944609375 
7.009087248431524 0.9813762152777777 
8.009087248431523 0.9689649305555555 
9.009087248431523 0.925400173611111 
10.009087248431523 0.8994425347222221 
11.009087248431523 0.8663387152777777 
12.009087248431523 0.7783842013888889 
13.009087248431523 0.820776736111111 
14.009087248431523 0.8028190972222222 
15.009087248431523 0.7613819444444445 
16.009087248431523 0.7897317708333333 
17.009087248431523 0.7875883680555555 
18.009087248431523 0.7857803819444444 
19.009087248431523 0.7854883680555556 
20.009087248431523 0.7888479166666666 
21.009087248431523 0.7895381944444445 
22.009087248431523 0.7921 
23.009087248431523 0.7921 
24.009087248431523 0.7921 
25.009087248431523 0.7921 
26.009087248431523 0.7921 
27.009087248431523 0.7921 
28.009087248431523 0.7921 
29.009087248431523 0.7921 
#####################################################################
# End of data export. Simulation finished at: 2017-05-24T19:06+0000 #
#####################################################################
