#####################################################################
# Alchemist log file - simulation started at: 2017-05-23T09:54+0000 #
#####################################################################
# random = 11.0, targets = 31.622776601683793, density = 0.894427190999916, gridShift = 0.0, perturbation = 0.0, connfactor = 1.5
#
# The columns have the following meaning: 
# time se[Mean] 
0.0 NaN 
1.0028758930102715 NaN 
2.0028758930102715 1.1698256414927306 
3.0028758930102715 1.2144768398669674 
4.0028758930102715 1.2894117473183087 
5.0028758930102715 1.2818663945653976 
6.0028758930102715 1.3431089399726361 
7.0028758930102715 1.4762145821429218 
8.002875893010271 1.3768920391198602 
9.002875893010271 1.3952083874532832 
10.002875893010271 1.37329295315205 
11.002875893010271 1.256047482017013 
12.002875893010271 1.2374265920691598 
13.002875893010271 1.1756160153938024 
14.002875893010271 1.1434837897368664 
15.002875893010271 1.170937471192863 
16.00287589301027 1.1226510328885544 
17.00287589301027 1.2550848524120106 
18.00287589301027 1.166683440754002 
19.00287589301027 1.3221388623733763 
20.00287589301027 1.2698995887475155 
21.00287589301027 1.3752954282854861 
22.00287589301027 1.4168511573118963 
23.00287589301027 1.4835106230899777 
24.00287589301027 1.662266515829009 
25.00287589301027 1.684381812462094 
26.00287589301027 1.7718437247055971 
27.00287589301027 1.6987632527492385 
28.00287589301027 2.0153069064545104 
29.00287589301027 1.8850194017564394 
30.00287589301027 2.033648649903175 
31.00287589301027 1.8912049425193427 
32.00287589301027 1.5904213185229028 
33.00287589301027 1.8103460130120246 
34.00287589301027 1.604810690537783 
35.00287589301027 1.5438359780873592 
36.00287589301027 1.6499064057386599 
37.00287589301027 1.881663929227844 
38.00287589301027 2.060763730139756 
39.00287589301027 1.7757072832031104 
40.00287589301027 1.2980579427385905 
41.00287589301027 0.6658380126479625 
42.00287589301027 0.6175181607526995 
43.00287589301027 0.5592066748697956 
44.00287589301027 0.5600221262458004 
45.00287589301027 0.54482818148008 
46.00287589301027 0.5458109653197435 
47.00287589301027 0.5420797548926038 
48.00287589301027 0.531548967240693 
49.00287589301027 0.5333651042593998 
50.00287589301027 0.5325980749135223 
51.00287589301027 0.5324445058964331 
52.00287589301027 0.5289906324854411 
53.00287589301027 0.5249178947003968 
54.00287589301027 0.5176785699960182 
55.00287589301027 0.5170841607828429 
56.00287589301027 0.5185461349934225 
57.00287589301027 0.5179154570337802 
58.00287589301027 0.5165618238007145 
59.00287589301027 0.5144544761896316 
60.00287589301027 0.5133572463718277 
61.00287589301027 0.5119780193234245 
62.00287589301027 0.511884020246558 
63.00287589301027 0.5117900211696915 
64.00287589301027 0.5117900211696915 
65.00287589301027 0.5117900211696915 
66.00287589301027 0.5117900211696915 
67.00287589301027 0.5117900211696915 
68.00287589301027 0.5117900211696915 
69.00287589301027 0.5117900211696915 
70.00287589301027 0.5117900211696915 
71.00287589301027 0.5117900211696915 
72.00287589301027 0.5117900211696915 
73.00287589301027 0.5117900211696915 
74.00287589301027 0.5117900211696915 
75.00287589301027 0.5117900211696915 
76.00287589301027 0.5117900211696915 
77.00287589301027 0.5117900211696915 
78.00287589301027 0.5117900211696915 
79.00287589301027 0.5117900211696915 
80.00287589301027 0.5117900211696915 
81.00287589301027 0.5117900211696915 
82.00287589301027 0.5117900211696915 
83.00287589301027 0.5117900211696915 
#####################################################################
# End of data export. Simulation finished at: 2017-05-23T09:54+0000 #
#####################################################################
