#####################################################################
# Alchemist log file - simulation started at: 2017-05-21T11:23+0000 #
#####################################################################
# random = 2.0, targets = 31.622776601683793, density = 1.7841466528270753, gridShift = 0.0, perturbation = 0.5, connfactor = 0.75
#
# The columns have the following meaning: 
# time se[Mean] 
0.0 NaN 
1.003288451303821 NaN 
2.003288451303821 1.0052546343744992 
3.003288451303821 1.0092976276429075 
4.0032884513038205 1.0074649898568755 
5.0032884513038205 1.0035873068774042 
6.0032884513038205 0.9938949673221199 
7.0032884513038205 0.9811109365264203 
8.00328845130382 0.9807298468258115 
9.00328845130382 0.974747433882723 
10.00328845130382 0.976731381140745 
11.00328845130382 0.9653621610097867 
12.00328845130382 0.9667163478027304 
13.00328845130382 0.9540897886459451 
14.00328845130382 0.9485976588495947 
15.00328845130382 0.9269343625988202 
16.00328845130382 0.9231936730445698 
17.00328845130382 0.8934591754918213 
18.00328845130382 0.8726819334993096 
19.00328845130382 0.8677357015651973 
20.00328845130382 0.8502501919871439 
21.00328845130382 0.8444990588707344 
22.00328845130382 0.8345751432316779 
23.00328845130382 0.8325300346628818 
24.00328845130382 0.8317997153483246 
25.00328845130382 0.8330362264097783 
26.00328845130382 0.834896027983561 
27.00328845130382 0.8344456872585013 
28.00328845130382 0.840351350396026 
29.00328845130382 0.8393832080449131 
30.00328845130382 0.8442883897401592 
31.00328845130382 0.8454558063038637 
32.00328845130382 0.8339661175075406 
33.00328845130382 0.8442946254255647 
34.00328845130382 0.8243387308437521 
35.00328845130382 0.847033693767942 
36.00328845130382 0.8383082402519254 
37.00328845130382 0.8326244819303819 
38.00328845130382 0.8324812720538387 
39.00328845130382 0.8322605329600596 
40.00328845130382 0.8325172030513269 
41.00328845130382 0.8290858881089943 
42.00328845130382 0.8247287114722428 
43.00328845130382 0.827246148394284 
44.00328845130382 0.8162690898746572 
45.00328845130382 0.826896700655916 
46.00328845130382 0.8166070034287686 
47.00328845130382 0.819182102906606 
48.00328845130382 0.7932940569872635 
49.00328845130382 0.7978719083556101 
50.00328845130382 0.8011537743046443 
51.00328845130382 0.802932449996501 
52.00328845130382 0.8171465965436395 
53.00328845130382 0.7876878928061911 
54.00328845130382 0.7976494163899531 
55.00328845130382 0.7897248006029005 
56.00328845130382 0.7784979986623618 
57.00328845130382 0.769080713515404 
58.00328845130382 0.7563524444721672 
59.00328845130382 0.7339733139823676 
60.00328845130382 0.7171993281120043 
61.00328845130382 0.6901669659882197 
62.00328845130382 0.6660836399682065 
63.00328845130382 0.650602359591823 
64.00328845130382 0.6161198970168718 
65.00328845130382 0.604856263080356 
66.00328845130382 0.5793191340545703 
67.00328845130382 0.5554495755372427 
68.00328845130382 0.5451243089052136 
69.00328845130382 0.5332254427538449 
70.00328845130382 0.5170662368709928 
71.00328845130382 0.4950820824427343 
72.00328845130382 0.49190551558734674 
73.00328845130382 0.4864034692565864 
74.00328845130382 0.48434973363422024 
75.00328845130382 0.48462373958806804 
76.00328845130382 0.4755107930428815 
77.00328845130382 0.48051112581473343 
78.00328845130382 0.46770491924518137 
79.00328845130382 0.47727102339666105 
80.00328845130382 0.47692543594053916 
81.00328845130382 0.486525016913786 
82.00328845130382 0.49841842635429784 
83.00328845130382 0.4850416025593848 
84.00328845130382 0.4996912347777116 
85.00328845130382 0.5026089290245607 
86.00328845130382 0.5069599303186941 
87.00328845130382 0.5094329175940515 
88.00328845130382 0.5097318970004963 
89.00328845130382 0.5111828648259381 
90.00328845130382 0.5097891727163049 
91.00328845130382 0.5113128483563208 
92.00328845130382 0.510640321642197 
93.00328845130382 0.5110962014531948 
94.00328845130382 0.5112594565885159 
95.00328845130382 0.5114241932053185 
96.00328845130382 0.5116898458662767 
97.00328845130382 0.5117232376340817 
98.00328845130382 0.5117900211696916 
99.00328845130382 0.5117900211696916 
100.00328845130382 0.5117900211696916 
101.00328845130382 0.5117900211696916 
102.00328845130382 0.5117900211696916 
103.00328845130382 0.5117900211696916 
104.00328845130382 0.5117900211696916 
105.00328845130382 0.5117900211696916 
106.00328845130382 0.5117900211696916 
107.00328845130382 0.5117900211696916 
108.00328845130382 0.5117900211696916 
109.00328845130382 0.5117900211696916 
110.00328845130382 0.5117900211696916 
111.00328845130382 0.5117900211696916 
112.00328845130382 0.5117900211696916 
113.00328845130382 0.5117900211696916 
114.00328845130382 0.5117900211696916 
115.00328845130382 0.5117900211696916 
116.00328845130382 0.5117900211696916 
117.00328845130382 0.5117900211696916 
118.00328845130382 0.5117900211696916 
119.00328845130382 0.5117900211696916 
120.00328845130382 0.5117900211696916 
121.00328845130382 0.5117900211696916 
122.00328845130382 0.5117900211696916 
123.00328845130382 0.5117900211696916 
124.00328845130382 0.5117900211696916 
125.00328845130382 0.5117900211696916 
126.00328845130382 0.5117900211696916 
127.00328845130382 0.5117900211696916 
#####################################################################
# End of data export. Simulation finished at: 2017-05-21T11:24+0000 #
#####################################################################
