#####################################################################
# Alchemist log file - simulation started at: 2017-05-23T07:01+0000 #
#####################################################################
# random = 11.0, targets = 3.1622776601683795, density = 3.5589026259761294, gridShift = 0.0, perturbation = 0.0, connfactor = 1.5
#
# The columns have the following meaning: 
# time se[Mean] 
0.0 NaN 
1.0028758930102715 NaN 
2.0028758930102715 1.0 
3.0028758930102715 0.9998699745419374 
4.0028758930102715 1.0242970434277372 
5.0028758930102715 1.0662764615320488 
6.0028758930102715 1.1744491834865791 
7.0028758930102715 1.3484188393717944 
8.002875893010271 1.3537424827237006 
9.002875893010271 1.40621997220994 
10.002875893010271 1.365583838489724 
11.002875893010271 1.2307863258976093 
12.002875893010271 1.2468183783689886 
13.002875893010271 1.125217865659264 
14.002875893010271 1.1624613483039685 
15.002875893010271 1.0733694896626544 
16.00287589301027 1.0557132541101881 
17.00287589301027 0.9710523119591269 
18.00287589301027 0.9610628381228458 
19.00287589301027 0.9252049622438459 
20.00287589301027 0.8831523712193783 
21.00287589301027 0.8659651756313127 
22.00287589301027 0.8224971246888557 
23.00287589301027 0.7863903508773249 
24.00287589301027 0.7446060473799339 
25.00287589301027 0.7032027763585554 
26.00287589301027 0.6546163089258459 
27.00287589301027 0.6118020331474281 
28.00287589301027 0.5446133469295006 
29.00287589301027 0.4982905782866423 
30.00287589301027 0.44328389136305835 
31.00287589301027 0.39518801428163236 
32.00287589301027 0.34273388593897597 
33.00287589301027 0.3139388709946727 
34.00287589301027 0.30329743275105375 
35.00287589301027 0.29009233591720285 
36.00287589301027 0.2777240626349141 
37.00287589301027 0.28398724055346936 
38.00287589301027 0.2896297220606933 
39.00287589301027 0.2676614196805915 
40.00287589301027 0.26100553188265996 
41.00287589301027 0.2530063597006332 
42.00287589301027 0.22193428884794641 
43.00287589301027 0.21099128459381694 
44.00287589301027 0.2038885629333097 
45.00287589301027 0.16553398362502797 
46.00287589301027 0.14502504440806088 
47.00287589301027 0.1065826897856577 
48.00287589301027 0.09503108169991825 
49.00287589301027 0.044316306797429976 
50.00287589301027 0.02964037242263937 
51.00287589301027 0.02173473479498114 
52.00287589301027 0.011881987787879971 
53.00287589301027 0.012734211388942217 
54.00287589301027 0.013171701757253195 
55.00287589301027 0.012791771348709381 
56.00287589301027 0.0115815286606832 
57.00287589301027 0.011316727803362764 
58.00287589301027 0.009332915876708574 
59.00287589301027 0.006962319330740389 
60.00287589301027 0.004694792199814307 
61.00287589301027 0.0037671674644354485 
62.00287589301027 0.0030456815591407872 
63.00287589301027 0.002633403898972407 
64.00287589301027 0.002633403898972407 
65.00287589301027 0.002633403898972407 
66.00287589301027 0.002633403898972407 
67.00287589301027 0.002633403898972407 
68.00287589301027 0.002633403898972407 
69.00287589301027 0.002633403898972407 
70.00287589301027 0.002633403898972407 
71.00287589301027 0.002633403898972407 
72.00287589301027 0.002633403898972407 
73.00287589301027 0.002633403898972407 
74.00287589301027 0.002633403898972407 
75.00287589301027 0.002633403898972407 
76.00287589301027 0.002633403898972407 
77.00287589301027 0.002633403898972407 
78.00287589301027 0.002633403898972407 
79.00287589301027 0.002633403898972407 
80.00287589301027 0.002633403898972407 
81.00287589301027 0.002633403898972407 
82.00287589301027 0.002633403898972407 
83.00287589301027 0.002633403898972407 
84.00287589301027 0.002633403898972407 
85.00287589301027 0.002633403898972407 
86.00287589301027 0.002633403898972407 
87.00287589301027 0.002633403898972407 
88.00287589301027 0.002633403898972407 
89.00287589301027 0.002633403898972407 
90.00287589301027 0.002633403898972407 
91.00287589301027 0.002633403898972407 
92.00287589301027 0.002633403898972407 
93.00287589301027 0.002633403898972407 
94.00287589301027 0.002633403898972407 
95.00287589301027 0.002633403898972407 
96.00287589301027 0.002633403898972407 
97.00287589301027 0.002633403898972407 
98.00287589301027 0.002633403898972407 
99.00287589301027 0.002633403898972407 
100.00287589301027 0.002633403898972407 
101.00287589301027 0.002633403898972407 
102.00287589301027 0.002633403898972407 
103.00287589301027 0.002633403898972407 
104.00287589301027 0.002633403898972407 
105.00287589301027 0.002633403898972407 
106.00287589301027 0.002633403898972407 
#####################################################################
# End of data export. Simulation finished at: 2017-05-23T07:01+0000 #
#####################################################################
