#####################################################################
# Alchemist log file - simulation started at: 2017-05-23T00:30+0000 #
#####################################################################
# random = 10.0, targets = 10.0, density = 0.11269076455391362, gridShift = 1.0, perturbation = 0.5, connfactor = 0.5
#
# The columns have the following meaning: 
# time se[Mean] 
0.0 NaN 
1.0042217987811537 NaN 
2.0042217987811535 1.0 
3.0042217987811535 0.9912111111111112 
4.0042217987811535 0.9698888888888889 
5.0042217987811535 0.9467 
6.0042217987811535 0.9410888888888889 
7.0042217987811535 0.8848 
8.004221798781153 0.8262777777777778 
9.004221798781153 0.7677666666666667 
10.004221798781153 0.7217777777777779 
11.004221798781153 0.6603 
12.004221798781153 0.6359 
13.004221798781153 0.5792 
14.004221798781153 0.494 
15.004221798781153 0.5099 
16.004221798781153 0.4778 
17.004221798781153 0.47959999999999997 
18.004221798781153 0.428 
19.004221798781153 0.4392 
20.004221798781153 0.42419999999999997 
21.004221798781153 0.388 
22.004221798781153 0.3811 
23.004221798781153 0.3535 
24.004221798781153 0.32589999999999997 
25.004221798781153 0.2983 
26.004221798781153 0.2776 
27.004221798781153 0.2638 
28.004221798781153 0.2569 
29.004221798781153 0.2707 
30.004221798781153 0.2569 
31.004221798781153 0.2776 
32.00422179878115 0.2776 
33.00422179878115 0.2776 
34.00422179878115 0.2707 
35.00422179878115 0.2707 
36.00422179878115 0.2569 
37.00422179878115 0.25 
38.00422179878115 0.25 
39.00422179878115 0.25 
40.00422179878115 0.25 
41.00422179878115 0.25 
42.00422179878115 0.25 
#####################################################################
# End of data export. Simulation finished at: 2017-05-23T00:30+0000 #
#####################################################################
