#####################################################################
# Alchemist log file - simulation started at: 2017-05-19T17:32+0000 #
#####################################################################
# random = 0.0, targets = 1.0, density = 0.07978946395100113, gridShift = 1.0, perturbation = 0.0, connfactor = 1.0
#
# The columns have the following meaning: 
# time se[Mean] 
0.0 NaN 
1.0078686373248142 NaN 
2.0078686373248145 1.0 
3.0078686373248145 1.0 
4.0078686373248145 1.088888888888889 
5.0078686373248145 1.2222222222222223 
6.0078686373248145 1.1944444444444444 
7.0078686373248145 1.05 
8.007868637324815 1.2388888888888892 
9.007868637324815 0.3777777777777778 
10.007868637324815 0.45 
11.007868637324815 0.0777777777777778 
12.007868637324815 0.06666666666666665 
13.007868637324815 0.08333333333333331 
14.007868637324815 0.16111111111111115 
15.007868637324815 0.2277777777777778 
16.007868637324815 0.20555555555555566 
17.007868637324815 0.36111111111111127 
18.007868637324815 0.05000000000000001 
19.007868637324815 0.10000000000000002 
20.007868637324815 4.930380657631324E-32 
21.007868637324815 4.930380657631324E-32 
22.007868637324815 4.930380657631324E-32 
23.007868637324815 4.930380657631324E-32 
#####################################################################
# End of data export. Simulation finished at: 2017-05-19T17:32+0000 #
#####################################################################
