#####################################################################
# Alchemist log file - simulation started at: 2017-05-25T08:07+0000 #
#####################################################################
# random = 8.0, targets = 1.0, density = 2.519842099789746, gridShift = 0.0, perturbation = 0.5, connfactor = 1.0
#
# The columns have the following meaning: 
# time se[Mean] 
0.0 NaN 
1.001230439556543 NaN 
2.001230439556543 1.0259515570934257 
3.001230439556543 1.0450788158400615 
4.001230439556543 1.058631295655517 
5.001230439556543 1.1147635524798156 
6.001230439556543 1.0772779700115338 
7.001230439556543 1.0924644367550944 
8.001230439556544 1.0560361399461746 
9.001230439556544 0.9915417147251058 
10.001230439556544 0.9798154555940023 
11.001230439556544 0.9265667051134179 
12.001230439556544 0.9084967320261438 
13.001230439556544 0.8970588235294115 
14.001230439556544 0.8671664744329106 
15.001230439556544 0.8366013071895422 
16.001230439556544 0.8501537870049978 
17.001230439556544 0.8259323337178003 
18.001230439556544 0.799307958477508 
19.001230439556544 0.8122837370242219 
20.001230439556544 0.7958477508650524 
21.001230439556544 0.7759515570934261 
22.001230439556544 0.7811418685121104 
23.001230439556544 0.7958477508650523 
24.001230439556544 0.7621107266435987 
25.001230439556544 0.7889273356401382 
26.001230439556544 0.7828719723183387 
27.001230439556544 0.8088235294117649 
28.001230439556544 0.8365051903114192 
29.001230439556544 0.8529411764705885 
30.001230439556544 0.8615916955017304 
31.001230439556544 0.8823529411764702 
32.001230439556544 0.8931180315263362 
33.001230439556544 0.9110918877354862 
34.001230439556544 0.9385813148788931 
35.001230439556544 0.9425221068819682 
36.001230439556544 0.9726066897347173 
37.001230439556544 1.0035563244905803 
38.001230439556544 1.055267204921184 
39.001230439556544 1.1040945790080743 
40.001230439556544 1.1793540945790084 
41.001230439556544 1.2776816608996544 
42.001230439556544 1.3686082276047677 
43.001230439556544 1.5685313341022689 
44.001230439556544 1.8360246059207992 
45.001230439556544 2.001249519415609 
46.001230439556544 2.3843713956170705 
47.001230439556544 2.660130718954249 
48.001230439556544 2.866589773164167 
49.001230439556544 3.591214917339487 
50.001230439556544 3.973087274125335 
51.001230439556544 4.50567089580931 
52.001230439556544 5.2103037293348695 
53.001230439556544 5.0501730103806235 
54.001230439556544 5.095059592464436 
55.001230439556544 6.21943483275663 
56.001230439556544 5.743944636678195 
57.001230439556544 5.939446366782008 
58.001230439556544 5.658688965782395 
59.001230439556544 5.5768935024990345 
60.001230439556544 4.841887735486348 
61.001230439556544 3.713475586312952 
62.001230439556544 3.439542483660134 
63.001230439556544 3.8126682045367137 
64.00123043955654 4.350057670126872 
65.00123043955654 3.0652633602460573 
66.00123043955654 2.531141868512108 
67.00123043955654 1.4720299884659724 
68.00123043955654 1.3214148404459816 
69.00123043955654 1.1572472126105342 
70.00123043955654 1.1882929642445221 
71.00123043955654 0.9148404459823146 
72.00123043955654 0.9356978085351788 
73.00123043955654 0.9290657439446367 
74.00123043955654 0.9190695886197615 
75.00123043955654 0.9459823144944252 
76.00123043955654 0.9629950019223377 
77.00123043955654 0.9865436370626682 
78.00123043955654 0.9899077277970012 
79.00123043955654 0.9932718185313341 
80.00123043955654 0.9932718185313341 
81.00123043955654 1.0 
82.00123043955654 1.0 
83.00123043955654 1.0 
84.00123043955654 1.0 
85.00123043955654 1.0 
86.00123043955654 1.0 
87.00123043955654 1.0 
88.00123043955654 1.0 
89.00123043955654 1.0 
90.00123043955654 1.0 
91.00123043955654 1.0 
92.00123043955654 1.0 
93.00123043955654 1.0 
94.00123043955654 1.0 
95.00123043955654 1.0 
96.00123043955654 1.0 
97.00123043955654 1.0 
98.00123043955654 1.0 
99.00123043955654 1.0 
100.00123043955654 1.0 
101.00123043955654 1.0 
102.00123043955654 1.0 
103.00123043955654 1.0 
104.00123043955654 1.0 
105.00123043955654 1.0 
106.00123043955654 1.0 
107.00123043955654 1.0 
108.00123043955654 1.0 
109.00123043955654 1.0 
110.00123043955654 1.0 
111.00123043955654 1.0 
112.00123043955654 1.0 
113.00123043955654 1.0 
114.00123043955654 1.0 
115.00123043955654 1.0 
#####################################################################
# End of data export. Simulation finished at: 2017-05-25T08:08+0000 #
#####################################################################
