#####################################################################
# Alchemist log file - simulation started at: 2017-05-25T04:13+0000 #
#####################################################################
# random = 16.0, targets = 100.0, density = 20.0, gridShift = 0.0, perturbation = 0.0, connfactor = 1.0
#
# The columns have the following meaning: 
# time se[Mean] 
0.0 NaN 
1.000419502192421 NaN 
2.000419502192421 1.0032047731568998 
3.000419502192421 1.0062056339923335 
4.000419502192421 1.0088900299963244 
5.000419502192421 1.0107438878386894 
6.000419502192421 1.0085787088453055 
7.000419502192421 1.0090366086431422 
8.000419502192422 1.0072743370615416 
9.000419502192422 1.0066833622138207 
10.000419502192422 1.0059180654011761 
11.000419502192422 1.0047554879489604 
12.000419502192422 1.005552255631695 
13.000419502192422 1.0049604038673599 
14.000419502192422 1.0052159807550936 
15.000419502192422 1.0037837865600714 
16.000419502192422 1.0019847399443393 
17.000419502192422 1.0017629909682841 
18.000419502192422 0.9982010629988448 
19.000419502192422 0.9987281548650493 
20.000419502192422 0.9925662541351608 
21.000419502192422 0.992867865863264 
22.000419502192422 0.9877152977972065 
23.000419502192422 0.986681879463348 
24.000419502192422 0.9827555959226003 
25.000419502192422 0.9804937605019953 
26.000419502192422 0.9783973810649023 
27.000419502192422 0.976890561331653 
28.000419502192422 0.9749641530797101 
29.000419502192422 0.9721702872295737 
30.000419502192422 0.9728469928192607 
31.000419502192422 0.9692595322017433 
32.00041950219242 0.9691944165485192 
33.00041950219242 0.9652710020216341 
34.00041950219242 0.9651099644244907 
35.00041950219242 0.9625127166036547 
36.00041950219242 0.9595068820888468 
37.00041950219242 0.9568261430765596 
38.00041950219242 0.9532303553612687 
39.00041950219242 0.951163271568473 
40.00041950219242 0.9446137011657214 
41.00041950219242 0.9424604183076034 
42.00041950219242 0.9350613700509346 
43.00041950219242 0.9337127389203949 
44.00041950219242 0.9264312372006931 
45.00041950219242 0.9230181008454106 
46.00041950219242 0.9160728447936358 
47.00041950219242 0.9116569411625709 
48.00041950219242 0.9077730630382272 
49.00041950219242 0.9044029067554084 
50.00041950219242 0.9003136926328502 
51.00041950219242 0.8949089969281662 
52.00041950219242 0.8937145144139884 
53.00041950219242 0.8880861744512709 
54.00041950219242 0.8872643401465026 
55.00041950219242 0.8818734010712036 
56.00041950219242 0.8810525234325772 
57.00041950219242 0.8767093825483091 
58.00041950219242 0.8745449298335431 
59.00041950219242 0.8727704460722538 
60.00041950219242 0.8683454841419871 
61.00041950219242 0.8687460837402854 
62.00041950219242 0.8639727414146189 
63.00041950219242 0.8638875321623606 
64.00041950219241 0.859665903631065 
65.00041950219241 0.8596779625472591 
66.00041950219241 0.8553896135265698 
67.00041950219241 0.8560054426591052 
68.00041950219241 0.8525739836037599 
69.00041950219241 0.8512429626785338 
70.00041950219241 0.8500191992884896 
71.00041950219241 0.8480453289093678 
72.00041950219241 0.847765933167927 
73.00041950219241 0.8452740896082757 
74.00041950219241 0.8458666171103758 
75.00041950219241 0.8417655189954841 
76.00041950219241 0.8418483981175171 
77.00041950219241 0.8381859585039906 
78.00041950219241 0.8386183633952948 
79.00041950219241 0.8364424290458938 
80.00041950219241 0.8356570448697754 
81.00041950219241 0.8330962025441082 
82.00041950219241 0.8324146745694182 
83.00041950219241 0.8302162908921444 
84.00041950219241 0.8292425435832809 
85.00041950219241 0.827219097878597 
86.00041950219241 0.826016829447595 
87.00041950219241 0.8249452934651332 
88.00041950219241 0.8233815680135474 
89.00041950219241 0.8215173660339214 
90.00041950219241 0.8203492441845199 
91.00041950219241 0.8190325259924385 
92.00041950219241 0.8176326930398025 
93.00041950219241 0.8173036346749633 
94.00041950219241 0.8157369525834909 
95.00041950219241 0.8149363126181475 
96.00041950219241 0.8140036615863264 
97.00041950219241 0.8132950332125604 
98.00041950219241 0.8125697864156689 
99.00041950219241 0.811164081863054 
100.00041950219241 0.8099705763626338 
101.00041950219241 0.8088680539146187 
102.00041950219241 0.8076241719833018 
103.00041950219241 0.8067780928376391 
104.00041950219241 0.804720179584121 
105.00041950219241 0.8039434109824617 
106.00041950219241 0.8028335811147868 
107.00041950219241 0.8006016245274102 
108.00041950219241 0.7993127248083386 
109.00041950219241 0.7966030249028565 
110.00041950219241 0.7951548735822306 
111.00041950219241 0.793149386289645 
112.00041950219241 0.7925846920289855 
113.00041950219241 0.7896333937198068 
114.00041950219241 0.7868458805923125 
115.00041950219241 0.784469200273052 
116.00041950219241 0.780238535431107 
117.00041950219241 0.7775086145898972 
118.00041950219241 0.7733974798492964 
119.00041950219241 0.7693753337665407 
120.00041950219241 0.7668028286468179 
121.00041950219241 0.7651005529956941 
122.00041950219241 0.7623344642669607 
123.00041950219241 0.7576528440716237 
124.00041950219241 0.7571810960801303 
125.00041950219241 0.7528860720568158 
126.00041950219241 0.7456558469859275 
127.00041950219241 0.7351091876050201 
128.00041950219241 0.7341389279431842 
129.00041950219241 0.7276740873109642 
130.00041950219241 0.7211348774548413 
131.00041950219241 0.7159568633821676 
132.00041950219241 0.7118097839214453 
133.00041950219241 0.7058780429531614 
134.00041950219241 0.699752077425961 
135.00041950219241 0.6956565768746062 
136.00041950219241 0.6898455323855284 
137.00041950219241 0.6873348889413989 
138.00041950219241 0.6802970436883007 
139.00041950219241 0.6766870264256457 
140.00041950219241 0.6679242500918924 
141.00041950219241 0.6632015519980048 
142.00041950219241 0.6561600241545894 
143.00041950219241 0.6513290741178325 
144.00041950219241 0.6450093671235034 
145.00041950219241 0.640525549057446 
146.00041950219241 0.6338594298072883 
147.00041950219241 0.6286147411914514 
148.00041950219241 0.6199422682340895 
149.00041950219241 0.6142245982986768 
150.00041950219241 0.6110933656926066 
151.00041950219241 0.6166084718283975 
152.00041950219241 0.6016261322463768 
153.00041950219241 0.6181268503203109 
154.00041950219241 0.6062104747558287 
155.00041950219241 0.5981036484588323 
156.00041950219241 0.574691637457992 
157.00041950219241 0.5793161665091366 
158.00041950219241 0.5678135528250368 
159.00041950219241 0.5556959669055871 
160.00041950219241 0.5512004788253517 
161.00041950219241 0.5444652971408318 
162.00041950219241 0.5333156561777989 
163.00041950219241 0.5191832046838899 
164.00041950219241 0.5154306832204368 
165.00041950219241 0.5113048197595043 
166.00041950219241 0.5037002346539592 
167.00041950219241 0.4900763961090107 
168.00041950219241 0.49068336648025623 
169.00041950219241 0.47586366243961364 
170.00041950219241 0.47788270354179796 
171.00041950219241 0.4684924503780718 
172.00041950219241 0.4615548611111111 
173.00041950219241 0.4569046418819576 
174.00041950219241 0.45529914310281455 
175.00041950219241 0.44200850234982153 
176.00041950219241 0.442467041784814 
177.00041950219241 0.42879261644087374 
178.00041950219241 0.4287995536651964 
179.00041950219241 0.4207231450850662 
180.00041950219241 0.41915884399285874 
181.00041950219241 0.4094997367937408 
182.00041950219241 0.4094632210276204 
183.00041950219241 0.3972919646607855 
184.00041950219241 0.39593797455891616 
185.00041950219241 0.3910343001732829 
186.00041950219241 0.3863328860139677 
187.00041950219241 0.3807297318052929 
188.00041950219241 0.3721051364603024 
189.00041950219241 0.37484367747059455 
190.00041950219241 0.365406661546944 
191.00041950219241 0.35681081771161527 
192.00041950219241 0.3490933289356227 
193.00041950219241 0.34872186154431845 
194.00041950219241 0.3418288676879857 
195.00041950219241 0.3424902958280824 
196.00041950219241 0.33801674083700906 
197.00041950219241 0.33048125393824823 
198.00041950219241 0.3299609775388574 
199.00041950219241 0.3261701753176854 
200.00041950219241 0.31850389197384993 
201.00041950219241 0.31833897684310025 
202.00041950219241 0.3117322027278933 
203.00041950219241 0.31237966583963456 
204.00041950219241 0.3085142699144088 
205.00041950219241 0.30186276025257297 
206.00041950219241 0.3037522211720227 
207.00041950219241 0.300916331915564 
208.00041950219241 0.2958626509661836 
209.00041950219241 0.2972488405140727 
210.00041950219241 0.2907002963531821 
211.00041950219241 0.2924335702846041 
212.00041950219241 0.28922092424123086 
213.00041950219241 0.284300663594833 
214.00041950219241 0.2854983774417139 
215.00041950219241 0.27986869716183577 
216.00041950219241 0.2828588925645873 
217.00041950219241 0.27809220784761607 
218.00041950219241 0.280513015910523 
219.00041950219241 0.27673043707992023 
220.00041950219241 0.27511247637051045 
221.00041950219241 0.2748234138705104 
222.00041950219241 0.2735599503124344 
223.00041950219241 0.27212367116939723 
224.00041950219241 0.2717048620956732 
225.00041950219241 0.26977548538909896 
226.00041950219241 0.26943521515963037 
227.00041950219241 0.2677396141829448 
228.00041950219241 0.2672793865521949 
229.00041950219241 0.26631047606857805 
230.00041950219241 0.26543190178008824 
231.00041950219241 0.2649912170499895 
232.00041950219241 0.2642072158553875 
233.00041950219241 0.2637281128570678 
234.00041950219241 0.2632164868199958 
235.00041950219241 0.2626709672337744 
236.00041950219241 0.2623849270111321 
237.00041950219241 0.26179283534183995 
238.00041950219241 0.2614644917690611 
239.00041950219241 0.26113028972379754 
240.00041950219241 0.26089659932262127 
241.00041950219241 0.2607751417769376 
242.00041950219241 0.2606452429242806 
243.00041950219241 0.26050947870720437 
244.00041950219241 0.2604771026963873 
245.00041950219241 0.26042628485349717 
246.00041950219241 0.2603443476291745 
247.00041950219241 0.26027537282083596 
248.00041950219241 0.26017083234877125 
249.00041950219241 0.2601520075220542 
250.00041950219241 0.2600683368121193 
251.00041950219241 0.26013099631117415 
252.00041950219241 0.2600838062513127 
253.00041950219241 0.26010482501050197 
254.00041950219241 0.2600820090973535 
255.00041950219241 0.2601008040590212 
256.0004195021924 0.2601 
257.0004195021924 0.2601 
258.0004195021924 0.2601 
259.0004195021924 0.2601 
260.0004195021924 0.2601 
261.0004195021924 0.2601 
262.0004195021924 0.2601 
263.0004195021924 0.2601 
264.0004195021924 0.2601 
265.0004195021924 0.2601 
266.0004195021924 0.2601 
267.0004195021924 0.2601 
268.0004195021924 0.2601 
269.0004195021924 0.2601 
270.0004195021924 0.2601 
271.0004195021924 0.2601 
272.0004195021924 0.2601 
273.0004195021924 0.2601 
274.0004195021924 0.2601 
275.0004195021924 0.2601 
276.0004195021924 0.2601 
277.0004195021924 0.2601 
278.0004195021924 0.2601 
279.0004195021924 0.2601 
280.0004195021924 0.2601 
281.0004195021924 0.2601 
282.0004195021924 0.2601 
283.0004195021924 0.2601 
284.0004195021924 0.2601 
285.0004195021924 0.2601 
286.0004195021924 0.2601 
287.0004195021924 0.2601 
288.0004195021924 0.2601 
289.0004195021924 0.2601 
290.0004195021924 0.2601 
291.0004195021924 0.2601 
292.0004195021924 0.2601 
293.0004195021924 0.2601 
294.0004195021924 0.2601 
295.0004195021924 0.2601 
296.0004195021924 0.2601 
297.0004195021924 0.2601 
298.0004195021924 0.2601 
299.0004195021924 0.2601 
300.0004195021924 0.2601 
301.0004195021924 0.2601 
302.0004195021924 0.2601 
303.0004195021924 0.2601 
304.0004195021924 0.2601 
305.0004195021924 0.2601 
306.0004195021924 0.2601 
307.0004195021924 0.2601 
308.0004195021924 0.2601 
309.0004195021924 0.2601 
310.0004195021924 0.2601 
311.0004195021924 0.2601 
312.0004195021924 0.2601 
313.0004195021924 0.2601 
314.0004195021924 0.2601 
315.0004195021924 0.2601 
316.0004195021924 0.2601 
317.0004195021924 0.2601 
318.0004195021924 0.2601 
319.0004195021924 0.2601 
320.0004195021924 0.2601 
321.0004195021924 0.2601 
322.0004195021924 0.2601 
323.0004195021924 0.2601 
324.0004195021924 0.2601 
325.0004195021924 0.2601 
326.0004195021924 0.2601 
327.0004195021924 0.2601 
328.0004195021924 0.2601 
329.0004195021924 0.2601 
330.0004195021924 0.2601 
331.0004195021924 0.2601 
332.0004195021924 0.2601 
333.0004195021924 0.2601 
334.0004195021924 0.2601 
335.0004195021924 0.2601 
336.0004195021924 0.2601 
337.0004195021924 0.2601 
338.0004195021924 0.2601 
339.0004195021924 0.2601 
340.0004195021924 0.2601 
341.0004195021924 0.2601 
342.0004195021924 0.2601 
343.0004195021924 0.2601 
344.0004195021924 0.2601 
345.0004195021924 0.2601 
346.0004195021924 0.2601 
347.0004195021924 0.2601 
348.0004195021924 0.2601 
349.0004195021924 0.2601 
350.0004195021924 0.2601 
351.0004195021924 0.2601 
352.0004195021924 0.2601 
353.0004195021924 0.2601 
354.0004195021924 0.2601 
355.0004195021924 0.2601 
356.0004195021924 0.2601 
357.0004195021924 0.2601 
358.0004195021924 0.2601 
359.0004195021924 0.2601 
360.0004195021924 0.2601 
361.0004195021924 0.2601 
362.0004195021924 0.2601 
#####################################################################
# End of data export. Simulation finished at: 2017-05-25T04:23+0000 #
#####################################################################
