#####################################################################
# Alchemist log file - simulation started at: 2017-05-21T22:00+0000 #
#####################################################################
# random = 3.0, targets = 3.1622776601683795, density = 0.04, gridShift = 0.0, perturbation = 0.0, connfactor = 0.75
#
# The columns have the following meaning: 
# time se[Mean] 
0.0 NaN 
1.0016359619213666 NaN 
2.001635961921367 1.0 
3.001635961921367 0.9547697938718429 
4.001635961921367 0.9095395877436858 
5.001635961921367 0.9286390658077643 
6.001635961921367 0.8044752987851057 
7.001635961921367 0.7615957305786304 
8.001635961921366 0.5859381019805638 
9.001635961921366 0.42423788029986553 
10.001635961921366 0.21108262793976815 
11.001635961921366 0.05780040970221517 
12.001635961921366 0.082690684539758 
13.001635961921366 0.04759856128063745 
14.001635961921366 0.06392477325065091 
15.001635961921366 0.002130858092715271 
16.001635961921366 0.002633403898972407 
17.001635961921366 0.002633403898972407 
#####################################################################
# End of data export. Simulation finished at: 2017-05-21T22:00+0000 #
#####################################################################
