#####################################################################
# Alchemist log file - simulation started at: 2017-05-21T19:54+0000 #
#####################################################################
# random = 3.0, targets = 1.0, density = 2.519842099789746, gridShift = 0.0, perturbation = 0.0, connfactor = 1.0
#
# The columns have the following meaning: 
# time se[Mean] 
0.0 NaN 
1.0016359619213666 NaN 
2.001635961921367 1.0 
3.001635961921367 1.0 
4.001635961921367 1.0 
5.001635961921367 1.0 
6.001635961921367 1.0 
7.001635961921367 1.0 
8.001635961921366 1.0 
9.001635961921366 1.0 
10.001635961921366 1.0 
11.001635961921366 1.0 
12.001635961921366 1.0 
13.001635961921366 1.0 
14.001635961921366 1.0 
15.001635961921366 1.0 
16.001635961921366 1.0 
17.001635961921366 1.0 
18.001635961921366 1.0 
19.001635961921366 0.9984861591695502 
20.001635961921366 0.9954584775086506 
21.001635961921366 0.9969723183391004 
22.001635961921366 0.9894031141868511 
23.001635961921366 0.9894031141868511 
24.001635961921366 0.9878892733564013 
25.001635961921366 0.9777249134948096 
26.001635961921366 0.9725346020761245 
27.001635961921366 0.9777249134948096 
28.001635961921366 0.9649653979238755 
29.001635961921366 0.9593425605536332 
30.001635961921366 0.9517733564013839 
31.001635961921366 0.9338235294117649 
32.001635961921366 0.9381487889273354 
33.001635961921366 0.9156574394463668 
34.001635961921366 0.8992214532871975 
35.001635961921366 0.8875432525951554 
36.001635961921366 0.8691608996539796 
37.001635961921366 0.8397491349480972 
38.001635961921366 0.8278546712802766 
39.001635961921366 0.7967128027681661 
40.001635961921366 0.769247404844291 
41.001635961921366 0.7452422145328715 
42.001635961921366 0.701773356401385 
43.001635961921366 0.6606833910034607 
44.001635961921366 0.6658737024221448 
45.001635961921366 0.7054498269896198 
46.001635961921366 0.5813148788927336 
47.001635961921366 0.6258650519031137 
48.001635961921366 0.5955882352941182 
49.001635961921366 0.5220588235294117 
50.001635961921366 0.502811418685121 
51.001635961921366 0.4320934256055361 
52.001635961921366 0.30363321799307985 
53.001635961921366 0.33088235294117646 
54.001635961921366 0.24480968858131494 
55.001635961921366 0.17603806228373683 
56.001635961921366 0.2597318339100345 
57.001635961921366 0.07936851211072657 
58.001635961921366 0.2013408304498272 
59.001635961921366 0.13992214532871955 
60.001635961921366 0.03200692041522492 
61.001635961921366 0.14186851211072682 
62.001635961921366 0.09861591695501724 
63.001635961921366 0.12543252595155696 
64.00163596192137 0.18598615916955039 
65.00163596192137 0.03719723183390993 
66.00163596192137 0.1946366782006925 
67.00163596192137 0.14878892733563984 
68.00163596192137 0.11072664359861598 
69.00163596192137 0.11505190311418667 
70.00163596192137 0.06833910034602056 
71.00163596192137 0.050173010380622836 
72.00163596192137 0.05968858131487884 
73.00163596192137 0.05622837370242222 
74.00163596192137 0.03806228373702427 
75.00163596192137 0.06920415224913486 
76.00163596192137 0.024221453287197253 
77.00163596192137 0.06228373702422147 
78.00163596192137 0.04844290657439451 
79.00163596192137 0.01038062283737024 
80.00163596192137 0.041522491349480904 
81.00163596192137 0.03806228373702426 
82.00163596192137 0.034602076124567435 
83.00163596192137 0.04498269896193779 
84.00163596192137 0.0034602076124567224 
85.00163596192137 0.041522491349480974 
86.00163596192137 0.027681660899653994 
87.00163596192137 0.0138408304498269 
88.00163596192137 0.01384083044982689 
89.00163596192137 0.0 
90.00163596192137 0.0 
91.00163596192137 0.0 
92.00163596192137 0.0 
93.00163596192137 0.0 
94.00163596192137 0.0 
95.00163596192137 0.0 
96.00163596192137 0.0 
97.00163596192137 0.0 
98.00163596192137 0.0 
99.00163596192137 0.0 
100.00163596192137 0.0 
101.00163596192137 0.0 
102.00163596192137 0.0 
103.00163596192137 0.0 
104.00163596192137 0.0 
105.00163596192137 0.0 
106.00163596192137 0.0 
107.00163596192137 0.0 
108.00163596192137 0.0 
109.00163596192137 0.0 
110.00163596192137 0.0 
111.00163596192137 0.0 
112.00163596192137 0.0 
113.00163596192137 0.0 
114.00163596192137 0.0 
115.00163596192137 0.0 
116.00163596192137 0.0 
117.00163596192137 0.0 
118.00163596192137 0.0 
119.00163596192137 0.0 
120.00163596192137 0.0 
121.00163596192137 0.0 
122.00163596192137 0.0 
123.00163596192137 0.0 
124.00163596192137 0.0 
#####################################################################
# End of data export. Simulation finished at: 2017-05-21T19:56+0000 #
#####################################################################
