#####################################################################
# Alchemist log file - simulation started at: 2017-05-25T13:06+0000 #
#####################################################################
# random = 8.0, targets = 10.0, density = 1.7841466528270753, gridShift = 1.0, perturbation = 0.5, connfactor = 1.5
#
# The columns have the following meaning: 
# time se[Mean] 
0.0 NaN 
1.003444677401916 NaN 
2.003444677401916 1.035044642857143 
3.003444677401916 1.0571788194444445 
4.003444677401916 1.0827793278769842 
5.003444677401916 1.1131727430555554 
6.003444677401916 1.109660218253968 
7.003444677401916 1.0576702008928571 
8.003444677401916 1.088793712797619 
9.003444677401916 1.0611563740079364 
10.003444677401916 1.0200573536706348 
11.003444677401916 1.0168718998015873 
12.003444677401916 1.021430431547619 
13.003444677401916 1.0876640004960316 
14.003444677401916 1.0923955233134919 
15.003444677401916 1.1222953869047618 
16.003444677401916 1.1686473834325397 
17.003444677401916 1.1538123139880954 
18.003444677401916 1.192779017857143 
19.003444677401916 1.1994506448412698 
20.003444677401916 1.1397668650793653 
21.003444677401916 1.0937413194444445 
22.003444677401916 1.0519605654761903 
23.003444677401916 0.9903050595238098 
24.003444677401916 0.9334089781746033 
25.003444677401916 0.9244233630952382 
26.003444677401916 0.8339149305555557 
27.003444677401916 0.8147507440476192 
28.003444677401916 0.8230964781746032 
29.003444677401916 0.7616381448412699 
30.003444677401916 0.7246974206349207 
31.003444677401916 0.6654799107142859 
32.003444677401916 0.6199578373015876 
33.003444677401916 0.5815004960317463 
34.003444677401916 0.5398958333333337 
35.003444677401916 0.476369047619048 
36.003444677401916 0.4486049107142861 
37.003444677401916 0.4388591269841274 
38.003444677401916 0.4144506448412703 
39.003444677401916 0.4208097718253973 
40.003444677401916 0.4164546130952385 
41.003444677401916 0.39610491071428616 
42.003444677401916 0.414993799603175 
43.003444677401916 0.4096602182539687 
44.003444677401916 0.40224206349206393 
45.003444677401916 0.44457837301587344 
46.003444677401916 0.4189012896825401 
47.003444677401916 0.4192261904761909 
48.003444677401916 0.4212041170634925 
49.003444677401916 0.39358630952380985 
50.003444677401916 0.4040153769841274 
51.003444677401916 0.3962549603174607 
52.003444677401916 0.3636607142857146 
53.003444677401916 0.37630828373015907 
54.003444677401916 0.3679873511904766 
55.003444677401916 0.35639012896825434 
56.003444677401916 0.3600223214285718 
57.003444677401916 0.3569109623015877 
58.003444677401916 0.35892485119047657 
59.003444677401916 0.3514384920634924 
60.003444677401916 0.3515265376984131 
61.003444677401916 0.3488194444444448 
62.003444677401916 0.34043402777777815 
63.003444677401916 0.34183159722222256 
64.00344467740192 0.33763888888888927 
65.00344467740192 0.3236631944444448 
66.00344467740192 0.33065104166666703 
67.00344467740192 0.32785590277777815 
68.00344467740192 0.3292534722222226 
69.00344467740192 0.33763888888888927 
70.00344467740192 0.33484375000000033 
71.00344467740192 0.34043402777777815 
72.00344467740192 0.3516145833333337 
73.00344467740192 0.3488194444444448 
74.00344467740192 0.3544097222222226 
75.00344467740192 0.3586024305555559 
76.00344467740192 0.3586024305555559 
77.00344467740192 0.3600000000000004 
78.00344467740192 0.3600000000000004 
79.00344467740192 0.3600000000000004 
80.00344467740192 0.3600000000000004 
81.00344467740192 0.3600000000000004 
82.00344467740192 0.3600000000000004 
83.00344467740192 0.3600000000000004 
84.00344467740192 0.3600000000000004 
85.00344467740192 0.3600000000000004 
86.00344467740192 0.3600000000000004 
87.00344467740192 0.3600000000000004 
88.00344467740192 0.3600000000000004 
89.00344467740192 0.3600000000000004 
90.00344467740192 0.3600000000000004 
91.00344467740192 0.3600000000000004 
92.00344467740192 0.3600000000000004 
93.00344467740192 0.3600000000000004 
94.00344467740192 0.3600000000000004 
95.00344467740192 0.3600000000000004 
96.00344467740192 0.3600000000000004 
97.00344467740192 0.3600000000000004 
98.00344467740192 0.3600000000000004 
99.00344467740192 0.3600000000000004 
100.00344467740192 0.3600000000000004 
101.00344467740192 0.3600000000000004 
102.00344467740192 0.3600000000000004 
#####################################################################
# End of data export. Simulation finished at: 2017-05-25T13:12+0000 #
#####################################################################
