#####################################################################
# Alchemist log file - simulation started at: 2017-05-25T06:18+0000 #
#####################################################################
# random = 17.0, targets = 3.1622776601683795, density = 5.0264212595847235, gridShift = 0.0, perturbation = 0.5, connfactor = 0.5
#
# The columns have the following meaning: 
# time se[Mean] 
0.0 NaN 
1.0003034458253823 NaN 
2.0003034458253826 NaN 
3.0003034458253826 0.9990755980346637 
4.0003034458253826 0.9981511960693276 
5.0003034458253826 0.996302392138655 
6.0003034458253826 0.9926047842773101 
7.0003034458253826 0.9916803823119738 
8.000303445825383 0.9907559803466375 
9.000303445825383 0.9907559803466376 
10.000303445825383 0.9861339705199563 
11.000303445825383 0.9782331510368205 
12.000303445825383 0.975705132234591 
13.000303445825383 0.9762107359950368 
14.000303445825383 0.9720075243732461 
15.000303445825383 0.9727583152274711 
16.00030344582538 0.9728451207830268 
17.00030344582538 0.9763691175332605 
18.00030344582538 0.982594744196835 
19.00030344582538 0.9864659631692911 
20.00030344582538 0.9905823692355264 
21.00030344582538 0.9943667826524271 
22.00030344582538 0.9990755980346637 
23.00030344582538 0.9990755980346637 
24.00030344582538 1.0 
25.00030344582538 1.0 
26.00030344582538 1.0 
27.00030344582538 1.0 
28.00030344582538 1.0 
29.00030344582538 1.0118238430826318 
30.00030344582538 1.0160042253946056 
31.00030344582538 1.0746178370473187 
32.00030344582538 1.09459534664185 
33.00030344582538 1.1262824624728467 
34.00030344582538 1.1096295114514858 
35.00030344582538 1.1161932466727738 
36.00030344582538 1.1290694442122178 
37.00030344582538 1.183891042711101 
38.00030344582538 1.1493363457906391 
39.00030344582538 1.2265933805321698 
40.00030344582538 1.2165696850044432 
41.00030344582538 1.2112974055244 
42.00030344582538 1.227662598885563 
43.00030344582538 1.192661702568626 
44.00030344582538 1.0839551694519804 
45.00030344582538 1.153865705044642 
46.00030344582538 1.1218619164342845 
47.00030344582538 1.0972989720672228 
48.00030344582538 1.1451136939025308 
49.00030344582538 1.0282368109715727 
50.00030344582538 1.0558729808106229 
51.00030344582538 1.044445166821121 
52.00030344582538 1.022123967424645 
53.00030344582538 0.998561602986384 
54.00030344582538 0.9523734175948709 
55.00030344582538 0.803317500618751 
56.00030344582538 0.7790286584646348 
57.00030344582538 0.718464267950862 
58.00030344582538 0.6792997027233931 
59.00030344582538 0.6402234569790565 
60.00030344582538 0.6852177401730853 
61.00030344582538 0.6611162548744158 
62.00030344582538 0.6777235472761418 
63.00030344582538 0.6450755146237137 
64.00030344582538 0.6523534957441024 
65.00030344582538 0.6502123020734074 
66.00030344582538 0.693671486459022 
67.00030344582538 0.6464446622560033 
68.00030344582538 0.7314258775143959 
69.00030344582538 0.6932862354531246 
70.00030344582538 0.7077934510210484 
71.00030344582538 0.7241494705196448 
72.00030344582538 0.6945091731658876 
73.00030344582538 0.6181461113429484 
74.00030344582538 0.7085519319092877 
75.00030344582538 0.6510927098418305 
76.00030344582538 0.6528806255799822 
77.00030344582538 0.6915320174091062 
78.00030344582538 0.5909517195137468 
79.00030344582538 0.6504379887028126 
80.00030344582538 0.6250359640974175 
81.00030344582538 0.6386325234443406 
82.00030344582538 0.5950104458367896 
83.00030344582538 0.6164926251929903 
84.00030344582538 0.5089602831162563 
85.00030344582538 0.5735026200088071 
86.00030344582538 0.5354879025838518 
87.00030344582538 0.4998945969509164 
88.00030344582538 0.4856783173934911 
89.00030344582538 0.48562508913595237 
90.00030344582538 0.43401384246310065 
91.00030344582538 0.40754274999945533 
92.00030344582538 0.38800850224332073 
93.00030344582538 0.31182822539406213 
94.00030344582538 0.24554532590474065 
95.00030344582538 0.22574608960017156 
96.00030344582538 0.1713905822495084 
97.00030344582538 0.14387782311919287 
98.00030344582538 0.12417453613371916 
99.00030344582538 0.11004506213184764 
100.00030344582538 0.09314544018815787 
101.00030344582538 0.07676816550537968 
102.00030344582538 0.062443765010161086 
103.00030344582538 0.04869654425805632 
104.00030344582538 0.034632560429504654 
105.00030344582538 0.35872650618930085 
106.00030344582538 0.35187498320878907 
107.00030344582538 2.0128203538369607 
108.00030344582538 2.0099435988849224 
109.00030344582538 3.008105603140552 
110.00030344582538 2.3391042399403235 
111.00030344582538 3.0062095965636026 
112.00030344582538 3.3390236706892593 
113.00030344582538 5.007254592075706 
114.00030344582538 3.6725839637873468 
115.00030344582538 6.675270785514205 
116.00030344582538 5.67437517827186 
117.00030344582538 6.34163891643342 
118.00030344582538 7.0089026545949284 
119.00030344582538 6.341638916433429 
120.00030344582538 4.006215832868093 
121.00030344582538 7.34253452367572 
122.00030344582538 5.674375178271894 
123.00030344582538 6.008007047352671 
124.00030344582538 7.676166392756459 
125.00030344582538 4.6734795710296195 
126.00030344582538 7.008902654594947 
127.00030344582538 6.675270785514179 
128.00030344582538 7.676166392756474 
129.00030344582538 6.67527078551418 
130.00030344582538 8.009798261837261 
131.00030344582538 5.007111440110405 
132.00030344582538 7.76671070310928 
133.00030344582538 7.099446964947794 
134.00030344582538 6.884904778550397 
135.00030344582538 6.884904778550397 
136.00030344582538 7.823801447770366 
137.00030344582538 6.308185350741707 
138.00030344582538 6.155642102366517 
139.00030344582538 6.246186412719387 
140.00030344582538 4.697116749998881 
141.00030344582538 2.6667801631838293 
142.00030344582538 3.8153108254399624 
143.00030344582538 1.8755185489777035 
144.00030344582538 2.3902390387641113 
145.00030344582538 1.904063921308235 
146.00030344582538 1.7229753006025916 
147.00030344582538 1.0891651281328332 
148.00030344582538 1.9946082316610512 
149.00030344582538 1.541886679896943 
150.00030344582538 1.632430990249769 
151.00030344582538 2.085152542013876 
152.00030344582538 1.270253748838479 
153.00030344582538 1.9040639213082338 
154.00030344582538 1.8135196109554126 
155.00030344582538 2.08515254201388 
156.00030344582538 1.813519610955409 
157.00030344582538 2.175696852366706 
158.00030344582538 1.3607980591912987 
159.00030344582538 2.085152542013882 
160.00030344582538 1.9040639213082264 
161.00030344582538 1.7229753006026 
162.00030344582538 1.722975300602603 
163.00030344582538 1.9040639213082267 
164.00030344582538 1.5418866798969513 
165.00030344582538 1.4513423695441223 
166.00030344582538 1.4513423695441297 
167.00030344582538 0.9080765074271873 
168.00030344582538 0.45535495566307926 
169.00030344582538 0.5458992660159093 
170.00030344582538 0.09317771425179565 
171.00030344582538 0.18372202460461876 
172.00030344582538 0.002633403898972407 
173.00030344582538 0.002633403898972407 
174.00030344582538 0.002633403898972407 
175.00030344582538 0.002633403898972407 
176.00030344582538 0.002633403898972407 
177.00030344582538 0.002633403898972407 
178.00030344582538 0.002633403898972407 
179.00030344582538 0.002633403898972407 
180.00030344582538 0.002633403898972407 
181.00030344582538 0.002633403898972407 
182.00030344582538 0.002633403898972407 
183.00030344582538 0.002633403898972407 
184.00030344582538 0.002633403898972407 
185.00030344582538 0.002633403898972407 
186.00030344582538 0.002633403898972407 
187.00030344582538 0.002633403898972407 
188.00030344582538 0.002633403898972407 
189.00030344582538 0.002633403898972407 
190.00030344582538 0.002633403898972407 
191.00030344582538 0.002633403898972407 
192.00030344582538 0.002633403898972407 
193.00030344582538 0.002633403898972407 
194.00030344582538 0.002633403898972407 
195.00030344582538 0.002633403898972407 
196.00030344582538 0.002633403898972407 
197.00030344582538 0.002633403898972407 
198.00030344582538 0.002633403898972407 
199.00030344582538 0.002633403898972407 
200.00030344582538 0.002633403898972407 
201.00030344582538 0.002633403898972407 
202.00030344582538 0.002633403898972407 
203.00030344582538 0.002633403898972407 
204.00030344582538 0.002633403898972407 
205.00030344582538 0.002633403898972407 
206.00030344582538 0.002633403898972407 
207.00030344582538 0.002633403898972407 
208.00030344582538 0.002633403898972407 
209.00030344582538 0.002633403898972407 
210.00030344582538 0.002633403898972407 
211.00030344582538 0.002633403898972407 
212.00030344582538 0.002633403898972407 
213.00030344582538 0.002633403898972407 
214.00030344582538 0.002633403898972407 
215.00030344582538 0.002633403898972407 
216.00030344582538 0.002633403898972407 
217.00030344582538 0.002633403898972407 
218.00030344582538 0.002633403898972407 
219.00030344582538 0.002633403898972407 
220.00030344582538 0.002633403898972407 
221.00030344582538 0.002633403898972407 
222.00030344582538 0.002633403898972407 
#####################################################################
# End of data export. Simulation finished at: 2017-05-25T06:19+0000 #
#####################################################################
