#####################################################################
# Alchemist log file - simulation started at: 2017-05-23T05:33+0000 #
#####################################################################
# random = 5.0, targets = 1.0, density = 1.7841466528270753, gridShift = 1.0, perturbation = 0.5, connfactor = 2.0
#
# The columns have the following meaning: 
# time se[Mean] 
0.0 NaN 
1.0052461206074068 NaN 
2.005246120607407 1.0 
3.005246120607407 1.0032242063492063 
4.005246120607406 1.0825892857142856 
5.005246120607406 1.1788194444444449 
6.005246120607406 1.2741815476190474 
7.005246120607406 1.1779513888888886 
8.005246120607406 1.2251984126984135 
9.005246120607406 1.3653273809523816 
10.005246120607406 1.2955109126984135 
11.005246120607406 1.4902033730158724 
12.005246120607406 1.5086805555555551 
13.005246120607406 1.3009672619047623 
14.005246120607406 1.1155753968253972 
15.005246120607406 1.2305307539682546 
16.005246120607406 1.1261160714285712 
17.005246120607406 1.1254960317460319 
18.005246120607406 1.1158234126984132 
19.005246120607406 1.1303323412698412 
20.005246120607406 1.1299603174603179 
21.005246120607406 1.1329365079365081 
22.005246120607406 1.242931547619048 
23.005246120607406 1.3433779761904765 
24.005246120607406 1.652777777777778 
25.005246120607406 2.2152777777777803 
26.005246120607406 2.5682043650793656 
27.005246120607406 3.4471726190476213 
28.005246120607406 4.173611111111114 
29.005246120607406 4.738591269841274 
30.005246120607406 5.317832341269844 
31.005246120607406 4.997891865079367 
32.00524612060741 5.577504960317461 
33.00524612060741 5.733630952380956 
34.00524612060741 5.28385416666667 
35.00524612060741 6.279885912698417 
36.00524612060741 6.141369047619052 
37.00524612060741 5.931919642857147 
38.00524612060741 7.065848214285719 
39.00524612060741 6.177951388888892 
40.00524612060741 5.954861111111116 
41.00524612060741 5.793526785714289 
42.00524612060741 5.543898809523813 
43.00524612060741 4.850694444444447 
44.00524612060741 4.677331349206353 
45.00524612060741 4.551091269841274 
46.00524612060741 4.072172619047623 
47.00524612060741 4.038938492063496 
48.00524612060741 3.868055555555559 
49.00524612060741 3.803571428571432 
50.00524612060741 3.841765873015876 
51.00524612060741 3.904761904761908 
52.00524612060741 3.9120783730158766 
53.00524612060741 3.911334325396829 
54.00524612060741 3.9510168650793687 
55.00524612060741 3.971230158730162 
56.00524612060741 3.9885912698412733 
57.00524612060741 3.9942956349206384 
58.00524612060741 3.997147817460321 
59.00524612060741 4.0000000000000036 
60.00524612060741 4.0000000000000036 
61.00524612060741 4.0000000000000036 
62.00524612060741 4.0000000000000036 
63.00524612060741 4.0000000000000036 
64.00524612060741 4.0000000000000036 
65.00524612060741 4.0000000000000036 
66.00524612060741 4.0000000000000036 
67.00524612060741 4.0000000000000036 
68.00524612060741 4.0000000000000036 
69.00524612060741 4.0000000000000036 
70.00524612060741 4.0000000000000036 
71.00524612060741 4.0000000000000036 
72.00524612060741 4.0000000000000036 
73.00524612060741 4.0000000000000036 
74.00524612060741 4.0000000000000036 
75.00524612060741 4.0000000000000036 
76.00524612060741 4.0000000000000036 
77.00524612060741 4.0000000000000036 
78.00524612060741 4.0000000000000036 
79.00524612060741 4.0000000000000036 
80.00524612060741 4.0000000000000036 
81.00524612060741 4.0000000000000036 
82.00524612060741 4.0000000000000036 
83.00524612060741 4.0000000000000036 
84.00524612060741 4.0000000000000036 
85.00524612060741 4.0000000000000036 
#####################################################################
# End of data export. Simulation finished at: 2017-05-23T05:33+0000 #
#####################################################################
