#####################################################################
# Alchemist log file - simulation started at: 2017-05-25T15:47+0000 #
#####################################################################
# random = 18.0, targets = 10.0, density = 14.160781367816199, gridShift = 0.0, perturbation = 0.5, connfactor = 0.25
#
# The columns have the following meaning: 
# time se[Mean] 
0.0 NaN 
1.0000499264234746 NaN 
2.0000499264234746 1.0 
3.0000499264234746 0.9998750821827745 
4.000049926423475 0.9995134779750164 
5.000049926423475 0.9991255752794215 
6.000049926423475 0.9972057856673241 
7.000049926423475 0.9965548980933596 
8.000049926423475 0.994733727810651 
9.000049926423475 0.9948191978961209 
10.000049926423475 0.9946416831032215 
11.000049926423475 0.9953780407626561 
12.000049926423475 0.9946285338593032 
13.000049926423475 0.9942537804076267 
14.000049926423475 0.9921301775147929 
15.000049926423475 0.9901314924391847 
16.000049926423475 0.9868836291913214 
17.000049926423475 0.9846351084812625 
18.000049926423475 0.980887573964497 
19.000049926423475 0.9767652859960552 
20.000049926423475 0.9742669296515449 
21.000049926423475 0.9708941485864561 
22.000049926423475 0.9682708744247207 
23.000049926423475 0.96689677843524 
24.000049926423475 0.965397764628534 
25.000049926423475 0.965147928994083 
26.000049926423475 0.9632741617357 
27.000049926423475 0.9633990795529258 
28.000049926423475 0.9630243261012491 
29.000049926423475 0.9631492439184747 
30.000049926423475 0.9631492439184747 
31.000049926423475 0.9641485864562788 
32.00004992642347 0.9651479289940827 
33.00004992642347 0.9647731755424063 
34.00004992642347 0.9670216962524654 
35.00004992642347 0.9678961209730442 
36.00004992642347 0.9692702169625245 
37.00004992642347 0.9701446416831031 
38.00004992642347 0.9711439842209072 
39.00004992642347 0.9719197896120975 
40.00004992642347 0.973320184089415 
41.00004992642347 0.9692570677186062 
42.00004992642347 0.9720578566732414 
43.00004992642347 0.9688954635108481 
44.00004992642347 0.9624523339907955 
45.00004992642347 0.9667981591058512 
46.00004992642347 0.9608547008547009 
47.00004992642347 0.9573898750821827 
48.00004992642347 0.9589809335963184 
49.00004992642347 0.9537278106508873 
50.00004992642347 0.9489875082182775 
51.00004992642347 0.9528533859303089 
52.00004992642347 0.9420447074293226 
53.00004992642347 0.9439907955292569 
54.00004992642347 0.9423142669296518 
55.00004992642347 0.936863905325444 
56.00004992642347 0.9400328731097963 
57.00004992642347 0.9352662721893489 
58.00004992642347 0.9356081525312291 
59.00004992642347 0.9317357001972387 
60.00004992642347 0.9363642340565421 
61.00004992642347 0.934161735700197 
62.00004992642347 0.934549638395792 
63.00004992642347 0.9333990795529264 
64.00004992642347 0.9386061801446415 
65.00004992642347 0.9360092044707429 
66.00004992642347 0.932965154503616 
67.00004992642347 0.9364694280078897 
68.00004992642347 0.9354898093359637 
69.00004992642347 0.9374950690335305 
70.00004992642347 0.9367389875082186 
71.00004992642347 0.9361801446416836 
72.00004992642347 0.94034188034188 
73.00004992642347 0.9399868507560817 
74.00004992642347 0.938809993425378 
75.00004992642347 0.9417948717948723 
76.00004992642347 0.9391321499013803 
77.00004992642347 0.9376988823142669 
78.00004992642347 0.9410256410256409 
79.00004992642347 0.9397370151216311 
80.00004992642347 0.9383497698882316 
81.00004992642347 0.9373175542406316 
82.00004992642347 0.9355752794214329 
83.00004992642347 0.9331886916502301 
84.00004992642347 0.9308218277449047 
85.00004992642347 0.9294345825115057 
86.00004992642347 0.9255752794214335 
87.00004992642347 0.9243195266272192 
88.00004992642347 0.9220644312952002 
89.00004992642347 0.9194543063773833 
90.00004992642347 0.9167258382642997 
91.00004992642347 0.9130966469428009 
92.00004992642347 0.9104207758053912 
93.00004992642347 0.9069165023011176 
94.00004992642347 0.9022287968441816 
95.00004992642347 0.8985996055226826 
96.00004992642347 0.8935502958579881 
97.00004992642347 0.889750164365549 
98.00004992642347 0.8852005259697567 
99.00004992642347 0.8794411571334648 
100.00004992642347 0.8742472057856674 
101.00004992642347 0.8688625904010521 
102.00004992642347 0.8631229454306378 
103.00004992642347 0.8575279421433265 
104.00004992642347 0.8501249178172255 
105.00004992642347 0.8432084155161078 
106.00004992642347 0.8343589743589743 
107.00004992642347 0.829802761341223 
108.00004992642347 0.8230637738330046 
109.00004992642347 0.811525312294543 
110.00004992642347 0.8094740302432609 
111.00004992642347 0.8003287310979618 
112.00004992642347 0.7919658119658122 
113.00004992642347 0.7880341880341879 
114.00004992642347 0.7790795529257064 
115.00004992642347 0.7710979618671928 
116.00004992642347 0.7660880999342545 
117.00004992642347 0.7557659434582508 
118.00004992642347 0.7495134779750164 
119.00004992642347 0.7430637738330051 
120.00004992642347 0.7556410256410256 
121.00004992642347 0.772439184746877 
122.00004992642347 0.9145036160420768 
123.00004992642347 0.8411176857330711 
124.00004992642347 0.8971466140696918 
125.00004992642347 1.0022945430637753 
126.00004992642347 0.8920973044049966 
127.00004992642347 1.0173898750821848 
128.00004992642346 1.0517882971729158 
129.00004992642346 1.030815253122944 
130.00004992642346 1.1005917159763294 
131.00004992642346 1.228888888888889 
132.00004992642346 1.0866863905325446 
133.00004992642346 1.3446811308349733 
134.00004992642346 1.173813280736363 
135.00004992642346 1.2724589086127565 
136.00004992642346 1.2521761998685046 
137.00004992642346 1.3002892833662063 
138.00004992642346 1.3251084812623295 
139.00004992642346 1.3504273504273479 
140.00004992642346 1.5002892833662067 
141.00004992642346 1.2851742274819196 
142.00004992642346 1.4315055884286696 
143.00004992642346 1.4092110453648923 
144.00004992642346 1.8534188034188053 
145.00004992642346 1.6658514135437228 
146.00004992642346 1.925759368836288 
147.00004992642346 1.9895200525969778 
148.00004992642346 1.996443129520059 
149.00004992642346 2.2382774490466746 
150.00004992642346 2.1051347797501667 
151.00004992642346 2.2452991452991506 
152.00004992642346 2.332149901380668 
153.00004992642346 2.6952662721893526 
154.00004992642346 2.4250756081525346 
155.00004992642346 3.0619592373438556 
156.00004992642346 2.5087047994740317 
157.00004992642346 2.701525312294551 
158.00004992642346 2.648954635108483 
159.00004992642346 2.769750164365549 
160.00004992642346 2.8640499671268906 
161.00004992642346 2.7611834319526625 
162.00004992642346 3.2763050624589085 
163.00004992642346 2.5610585141354383 
164.00004992642346 2.7434253780407647 
165.00004992642346 2.5778566732412878 
166.00004992642346 2.8343721236028947 
167.00004992642346 2.6425443786982283 
168.00004992642346 2.84863247863248 
169.00004992642346 2.665950032873111 
170.00004992642346 2.9060289283366214 
171.00004992642346 3.166896778435242 
172.00004992642346 2.5824457593688366 
173.00004992642346 3.054345825115055 
174.00004992642346 2.5204142011834336 
175.00004992642346 2.7624128862590305 
176.00004992642346 2.6293293885601625 
177.00004992642346 2.7757199211045394 
178.00004992642346 2.55373438527285 
179.00004992642346 2.356758711374095 
180.00004992642346 2.373760683760685 
181.00004992642346 2.5419526627219 
182.00004992642346 2.4766074950690222 
183.00004992642346 2.2193491124260487 
184.00004992642346 2.763773833004589 
185.00004992642346 1.9726824457593697 
186.00004992642346 2.035141354372124 
187.00004992642346 1.8763445101906575 
188.00004992642346 1.8716107823800192 
189.00004992642346 1.6493622616699557 
190.00004992642346 1.6603550295857978 
191.00004992642346 1.752721893491125 
192.00004992642346 1.571702827087443 
193.00004992642346 2.0006508875739706 
194.00004992642346 1.519598948060483 
195.00004992642346 1.8877514792899464 
196.00004992642346 0.9361472715318919 
197.00004992642346 0.7821499013806749 
198.00004992642346 0.8617619986850639 
199.00004992642346 0.5934385272846828 
200.00004992642346 0.7471071663379433 
201.00004992642346 0.4843984220907318 
202.00004992642346 0.6529520052597011 
203.00004992642346 0.6149375410913928 
204.00004992642346 0.4742735042735088 
205.00004992642346 0.47443786982248637 
206.00004992642346 0.4744312952005222 
207.00004992642346 0.2943129520052611 
208.00004992642346 0.33908612754766826 
209.00004992642346 0.24877054569362259 
210.00004992642346 0.2941288625904022 
211.00004992642346 0.24925049309664696 
212.00004992642346 0.24917817225509536 
213.00004992642346 0.24959894806048652 
214.00004992642346 0.24973044049967127 
215.00004992642346 0.24988165680473373 
216.00004992642346 0.2498948060486522 
217.00004992642346 0.24994082840236687 
218.00004992642346 0.25 
219.00004992642346 0.25 
220.00004992642346 0.25 
221.00004992642346 0.25 
222.00004992642346 0.25 
223.00004992642346 0.25 
224.00004992642346 0.25 
225.00004992642346 0.25 
226.00004992642346 0.25 
227.00004992642346 0.25 
228.00004992642346 0.25 
229.00004992642346 0.25 
230.00004992642346 0.25 
231.00004992642346 0.25 
232.00004992642346 0.25 
233.00004992642346 0.25 
234.00004992642346 0.25 
235.00004992642346 0.25 
236.00004992642346 0.25 
237.00004992642346 0.25 
238.00004992642346 0.25 
239.00004992642346 0.25 
240.00004992642346 0.25 
241.00004992642346 0.25 
242.00004992642346 0.25 
243.00004992642346 0.25 
244.00004992642346 0.25 
245.00004992642346 0.25 
246.00004992642346 0.25 
247.00004992642346 0.25 
248.00004992642346 0.25 
249.00004992642346 0.25 
250.00004992642346 0.25 
251.00004992642346 0.25 
252.00004992642346 0.25 
253.00004992642346 0.25 
254.00004992642346 0.25 
255.00004992642346 0.25 
256.00004992642346 0.25 
257.00004992642346 0.25 
258.00004992642346 0.25 
259.00004992642346 0.25 
260.00004992642346 0.25 
261.00004992642346 0.25 
262.00004992642346 0.25 
263.00004992642346 0.25 
264.00004992642346 0.25 
265.00004992642346 0.25 
266.00004992642346 0.25 
267.00004992642346 0.25 
268.00004992642346 0.25 
269.00004992642346 0.25 
270.00004992642346 0.25 
271.00004992642346 0.25 
272.00004992642346 0.25 
273.00004992642346 0.25 
274.00004992642346 0.25 
275.00004992642346 0.25 
276.00004992642346 0.25 
277.00004992642346 0.25 
278.00004992642346 0.25 
279.00004992642346 0.25 
280.00004992642346 0.25 
281.00004992642346 0.25 
282.00004992642346 0.25 
283.00004992642346 0.25 
284.00004992642346 0.25 
285.00004992642346 0.25 
286.00004992642346 0.25 
287.00004992642346 0.25 
288.00004992642346 0.25 
289.00004992642346 0.25 
290.00004992642346 0.25 
291.00004992642346 0.25 
292.00004992642346 0.25 
293.00004992642346 0.25 
294.00004992642346 0.25 
295.00004992642346 0.25 
296.00004992642346 0.25 
297.00004992642346 0.25 
298.00004992642346 0.25 
299.00004992642346 0.25 
300.00004992642346 0.25 
301.00004992642346 0.25 
302.00004992642346 0.25 
303.00004992642346 0.25 
304.00004992642346 0.25 
305.00004992642346 0.25 
306.00004992642346 0.25 
307.00004992642346 0.25 
#####################################################################
# End of data export. Simulation finished at: 2017-05-25T15:50+0000 #
#####################################################################
