#####################################################################
# Alchemist log file - simulation started at: 2017-05-19T20:21+0000 #
#####################################################################
# random = 0.0, targets = 3.1622776601683795, density = 5.0264212595847235, gridShift = 0.0, perturbation = 0.0, connfactor = 1.0
#
# The columns have the following meaning: 
# time se[Mean] 
0.0 NaN 
1.0011337332612453 NaN 
2.0011337332612453 1.0 
3.0011337332612453 0.9993896331899736 
4.001133733261245 0.9977246560812777 
5.001133733261245 0.9954637797551479 
6.001133733261245 0.9877926637994723 
7.001133733261245 0.9874459495641132 
8.001133733261245 0.9877096021387806 
9.001133733261245 0.9926755982796833 
10.001133733261245 0.9948209878585039 
11.001133733261245 0.9935828047312895 
12.001133733261245 0.9949190250986514 
13.001133733261245 0.9912897573119739 
14.001133733261245 0.9912897573119739 
15.001133733261245 0.9927414644266448 
16.001133733261245 0.9931484602978063 
17.001133733261245 0.9870235361332429 
18.001133733261245 0.9864672957987229 
19.001133733261245 0.9751160874954745 
20.001133733261245 0.9678296953729341 
21.001133733261245 0.9527824031689301 
22.001133733261245 0.9480098789117326 
23.001133733261245 0.9319015045930577 
24.001133733261245 0.9176343244351158 
25.001133733261245 0.9044012538031666 
26.001133733261245 0.8783834266114898 
27.001133733261245 0.8583845498855744 
28.001133733261245 0.834390467020777 
29.001133733261245 0.8083525217187374 
30.001133733261245 0.7850205175297044 
31.001133733261245 0.7466138299780897 
32.00113373326124 0.7295145508913695 
33.00113373326124 0.6846915654088961 
34.00113373326124 0.6638963970969152 
35.00113373326124 0.63800802294695 
36.00113373326124 0.6124014501968339 
37.00113373326124 0.5919542034250965 
38.00113373326124 0.5565006894050649 
39.00113373326124 0.5455072323462729 
40.00113373326124 0.5218149603888216 
41.00113373326124 0.526115117237414 
42.00113373326124 0.5155785540539177 
43.00113373326124 0.5169459195077298 
44.00113373326124 0.5021197811271403 
45.00113373326124 0.4993336315991283 
46.00113373326124 0.4985299182299444 
47.00113373326124 0.5081731785939632 
48.00113373326124 0.529941333431883 
49.00113373326124 0.5106041101231614 
50.00113373326124 0.5426685228995998 
51.00113373326124 0.5193324882590246 
52.00113373326124 0.550367416020504 
53.00113373326124 0.5451561208386204 
54.00113373326124 0.559483879222051 
55.00113373326124 0.556795004953892 
56.00113373326124 0.5717976703535514 
57.00113373326124 0.5875669201407877 
58.00113373326124 0.5777163536118826 
59.00113373326124 0.6008519958838252 
60.00113373326124 0.5932517699701424 
61.00113373326124 0.613377526360088 
62.00113373326124 0.6029735693980114 
63.00113373326124 0.6070851955296376 
64.00113373326124 0.6041427557287925 
65.00113373326124 0.5989898054607777 
66.00113373326124 0.5891907527777797 
67.00113373326124 0.5826380052806625 
68.00113373326124 0.5653920876715104 
69.00113373326124 0.5547820151277489 
70.00113373326124 0.5356882535880501 
71.00113373326124 0.5200054692903087 
72.00113373326124 0.5056756689264158 
73.00113373326124 0.49372127832450896 
74.00113373326124 0.4765432621541077 
75.00113373326124 0.45060850665613184 
76.00113373326124 0.4411358855216647 
77.00113373326124 0.41323542733231894 
78.00113373326124 0.403759774998355 
79.00113373326124 0.3802759170606997 
80.00113373326124 0.3875137121254108 
81.00113373326124 0.3741994338264105 
82.00113373326124 0.35813517832521663 
83.00113373326124 0.34998380532299206 
84.00113373326124 0.3869895694848141 
85.00113373326124 0.3506087993736423 
86.00113373326124 0.4579098947764261 
87.00113373326124 0.4507617268298291 
88.00113373326124 0.43286353437455394 
89.00113373326124 0.423021593589313 
90.00113373326124 0.5720186969166198 
91.00113373326124 0.40046805638566135 
92.00113373326124 0.45964057697609306 
93.00113373326124 0.30665251446319597 
94.00113373326124 0.4288971123978762 
95.00113373326124 0.2276824277994704 
96.00113373326124 0.30520595832834263 
97.00113373326124 0.2131185634235247 
98.00113373326124 0.34597774981013274 
99.00113373326124 0.5025922736847324 
100.00113373326124 0.5568539831797528 
101.00113373326124 0.5360026698221587 
102.00113373326124 0.607280422133728 
103.00113373326124 0.8942425136827731 
104.00113373326124 0.619456564842996 
105.00113373326124 0.795204691318478 
106.00113373326124 0.4128390690868355 
107.00113373326124 0.8081634951610113 
108.00113373326124 0.32374697049121226 
109.00113373326124 0.53428947585373 
110.00113373326124 0.19630501110580742 
111.00113373326124 0.4954782946974496 
112.00113373326124 0.27172965450396075 
113.00113373326124 0.1995025203339088 
114.00113373326124 0.3349639658841602 
115.00113373326124 0.31819481542012407 
116.00113373326124 0.20276083925069582 
117.00113373326124 0.20340685033365768 
118.00113373326124 0.40093372755602064 
119.00113373326124 0.16627330001706292 
120.00113373326124 0.33445587147432637 
121.00113373326124 0.23595374185115722 
122.00113373326124 0.1988201915345629 
123.00113373326124 0.28613605474555204 
124.00113373326124 0.19882019153456293 
125.00113373326124 0.15253250091591264 
126.00113373326124 0.035872331939820284 
127.00113373326124 0.1857714289567609 
128.00113373326124 0.11929357287506527 
129.00113373326124 0.11929357287506527 
130.00113373326124 0.0026334038989724207 
131.00113373326124 0.11929357287506527 
132.00113373326124 0.03587233193982033 
133.00113373326124 0.11929357287506527 
134.00113373326124 0.0026334038989724207 
135.00113373326124 0.03587233193982033 
136.00113373326124 0.0026334038989724207 
137.00113373326124 0.03587233193982033 
138.00113373326124 0.0026334038989724207 
139.00113373326124 0.0026334038989724207 
140.00113373326124 0.0026334038989724207 
141.00113373326124 0.0026334038989724207 
142.00113373326124 0.0026334038989724207 
143.00113373326124 0.0026334038989724207 
144.00113373326124 0.0026334038989724207 
145.00113373326124 0.0026334038989724207 
146.00113373326124 0.0026334038989724207 
147.00113373326124 0.0026334038989724207 
148.00113373326124 0.0026334038989724207 
149.00113373326124 0.0026334038989724207 
150.00113373326124 0.0026334038989724207 
151.00113373326124 0.0026334038989724207 
152.00113373326124 0.0026334038989724207 
153.00113373326124 0.0026334038989724207 
154.00113373326124 0.0026334038989724207 
155.00113373326124 0.0026334038989724207 
156.00113373326124 0.0026334038989724207 
157.00113373326124 0.0026334038989724207 
158.00113373326124 0.0026334038989724207 
159.00113373326124 0.0026334038989724207 
160.00113373326124 0.0026334038989724207 
161.00113373326124 0.0026334038989724207 
162.00113373326124 0.0026334038989724207 
163.00113373326124 0.0026334038989724207 
164.00113373326124 0.0026334038989724207 
165.00113373326124 0.0026334038989724207 
166.00113373326124 0.0026334038989724207 
167.00113373326124 0.0026334038989724207 
168.00113373326124 0.0026334038989724207 
169.00113373326124 0.0026334038989724207 
170.00113373326124 0.0026334038989724207 
171.00113373326124 0.0026334038989724207 
172.00113373326124 0.0026334038989724207 
173.00113373326124 0.0026334038989724207 
174.00113373326124 0.0026334038989724207 
175.00113373326124 0.0026334038989724207 
176.00113373326124 0.0026334038989724207 
177.00113373326124 0.0026334038989724207 
178.00113373326124 0.0026334038989724207 
179.00113373326124 0.0026334038989724207 
180.00113373326124 0.0026334038989724207 
181.00113373326124 0.0026334038989724207 
182.00113373326124 0.0026334038989724207 
183.00113373326124 0.0026334038989724207 
184.00113373326124 0.0026334038989724207 
185.00113373326124 0.0026334038989724207 
186.00113373326124 0.0026334038989724207 
187.00113373326124 0.0026334038989724207 
#####################################################################
# End of data export. Simulation finished at: 2017-05-19T20:23+0000 #
#####################################################################
