#####################################################################
# Alchemist log file - simulation started at: 2017-05-20T15:27+0000 #
#####################################################################
# random = 1.0, targets = 10.0, density = 0.1591589639397027, gridShift = 0.0, perturbation = 0.0, connfactor = 0.75
#
# The columns have the following meaning: 
# time se[Mean] 
0.0 NaN 
1.0048855897957667 NaN 
2.0048855897957667 1.0903 
3.0048855897957667 1.1419 
4.004885589795767 1.2997472222222222 
5.004885589795767 1.174211111111111 
6.004885589795767 1.123138888888889 
7.004885589795767 1.10795 
8.004885589795766 1.1954444444444445 
9.004885589795766 1.0648694444444444 
10.004885589795766 0.9492027777777777 
11.004885589795766 0.8687194444444444 
12.004885589795766 0.7666444444444444 
13.004885589795766 0.7289833333333332 
14.004885589795766 0.6249944444444444 
15.004885589795766 0.5698055555555555 
16.004885589795766 0.43034999999999995 
17.004885589795766 0.3244666666666667 
18.004885589795766 0.2915805555555555 
19.004885589795766 0.21420555555555562 
20.004885589795766 0.23134722222222226 
21.004885589795766 0.2313472222222223 
22.004885589795766 0.2466694444444445 
23.004885589795766 0.25000000000000006 
24.004885589795766 0.25000000000000006 
25.004885589795766 0.25000000000000006 
26.004885589795766 0.25000000000000006 
27.004885589795766 0.25000000000000006 
28.004885589795766 0.25000000000000006 
29.004885589795766 0.25000000000000006 
30.004885589795766 0.25000000000000006 
31.004885589795766 0.25000000000000006 
#####################################################################
# End of data export. Simulation finished at: 2017-05-20T15:27+0000 #
#####################################################################
