#####################################################################
# Alchemist log file - simulation started at: 2017-05-25T13:42+0000 #
#####################################################################
# random = 8.0, targets = 10.0, density = 10.026386447354522, gridShift = 0.0, perturbation = 0.0, connfactor = 0.25
#
# The columns have the following meaning: 
# time se[Mean] 
0.0 NaN 
1.0009270308328329 NaN 
2.000927030832833 1.0 
3.000927030832833 1.0 
4.000927030832833 0.9998255280073461 
5.000927030832833 0.9986042240587695 
6.000927030832833 0.9994765840220385 
7.000927030832833 0.9984297520661157 
8.000927030832834 0.9993021120293848 
9.000927030832834 0.9996510560146924 
10.000927030832834 1.0 
11.000927030832834 0.9998255280073461 
12.000927030832834 1.0 
13.000927030832834 1.0 
14.000927030832834 1.0 
15.000927030832834 1.0 
16.000927030832834 1.0 
17.000927030832834 1.0 
18.000927030832834 1.0 
19.000927030832834 1.0 
20.000927030832834 1.0 
21.000927030832834 1.0 
22.000927030832834 1.0 
23.000927030832834 1.0 
24.000927030832834 1.0 
25.000927030832834 1.0 
26.000927030832834 1.0 
27.000927030832834 1.0 
28.000927030832834 1.0 
29.000927030832834 1.0 
30.000927030832834 1.0 
31.000927030832834 1.0 
32.000927030832834 1.0 
33.000927030832834 1.0 
34.000927030832834 1.0 
35.000927030832834 1.0 
36.000927030832834 1.0 
37.000927030832834 0.9998255280073461 
38.000927030832834 0.9996510560146924 
39.000927030832834 0.9980899908172636 
40.000927030832834 0.9967033976124885 
41.000927030832834 0.9930853994490356 
42.000927030832834 0.990156106519743 
43.000927030832834 0.9893939393939396 
44.000927030832834 0.9882828282828284 
45.000927030832834 0.987401285583104 
46.000927030832834 0.9850872359963267 
47.000927030832834 0.9823691460055095 
48.000927030832834 0.9793204775022959 
49.000927030832834 0.9792561983471072 
50.000927030832834 0.9777594123048666 
51.000927030832834 0.9756382001836543 
52.000927030832834 0.9734067952249771 
53.000927030832834 0.971101928374656 
54.000927030832834 0.9646005509641878 
55.000927030832834 0.9603673094582189 
56.000927030832834 0.9608172635445363 
57.000927030832834 0.9563820018365472 
58.000927030832834 0.9528374655647387 
59.000927030832834 0.9457116620752989 
60.000927030832834 0.9412672176308545 
61.000927030832834 0.9304775022956844 
62.000927030832834 0.928640955004592 
63.000927030832834 0.9250505050505051 
64.00092703083283 0.9197245179063368 
65.00092703083283 0.91900826446281 
66.00092703083283 0.9147842056932962 
67.00092703083283 0.9101193755739213 
68.00092703083283 0.905224977043159 
69.00092703083283 0.9025895316804406 
70.00092703083283 0.8992194674012856 
71.00092703083283 0.8961707988980718 
72.00092703083283 0.894141414141414 
73.00092703083283 0.8913682277318637 
74.00092703083283 0.8913314967860416 
75.00092703083283 0.8867584940312215 
76.00092703083283 0.8834435261707989 
77.00092703083283 0.8804040404040406 
78.00092703083283 0.8827823691460054 
79.00092703083283 0.8752066115702479 
80.00092703083283 0.8746189164370981 
81.00092703083283 0.8715426997245178 
82.00092703083283 0.8642424242424247 
83.00092703083283 0.8578879706152432 
84.00092703083283 0.8450229568411394 
85.00092703083283 0.8381175390266301 
86.00092703083283 0.8266850321395784 
87.00092703083283 0.8189164370982553 
88.00092703083283 0.8150229568411401 
89.00092703083283 0.8088246097337015 
90.00092703083283 0.8019008264462814 
91.00092703083283 0.794885215794306 
92.00092703083283 0.7872359963269054 
93.00092703083283 0.7786960514233251 
94.00092703083283 0.7741138659320471 
95.00092703083283 0.7680624426078978 
96.00092703083283 0.7613774104683187 
97.00092703083283 0.7535904499540867 
98.00092703083283 0.7475757575757569 
99.00092703083283 0.7402295684113868 
100.00092703083283 0.7330853994490348 
101.00092703083283 0.7258126721763083 
102.00092703083283 0.718650137741046 
103.00092703083283 0.7145546372819094 
104.00092703083283 0.7033700642791565 
105.00092703083283 0.6965013774104691 
106.00092703083283 0.6919834710743794 
107.00092703083283 0.6846097337006432 
108.00092703083283 0.6760238751147838 
109.00092703083283 0.6856932966023879 
110.00092703083283 0.6912121212121213 
111.00092703083283 0.7708172635445367 
112.00092703083283 0.8364279155188233 
113.00092703083283 0.824830119375573 
114.00092703083283 0.8137373737373745 
115.00092703083283 0.7299173553719012 
116.00092703083283 0.6805968778696048 
117.00092703083283 0.7039026629935717 
118.00092703083283 0.6710560146923785 
119.00092703083283 0.6248760330578509 
120.00092703083283 0.6279430670339764 
121.00092703083283 0.5966574839302113 
122.00092703083283 0.5482828282828285 
123.00092703083283 0.5346831955922858 
124.00092703083283 0.560514233241506 
125.00092703083283 0.5284664830119375 
126.00092703083283 0.4818457300275478 
127.00092703083283 0.5088980716253444 
128.00092703083283 0.4441138659320478 
129.00092703083283 0.49326905417814504 
130.00092703083283 0.45017447199265387 
131.00092703083283 0.4678787878787877 
132.00092703083283 0.4854361799816347 
133.00092703083283 0.4450137741046833 
134.00092703083283 0.4807805325987145 
135.00092703083283 0.4536914600550965 
136.00092703083283 0.4524242424242426 
137.00092703083283 0.4665013774104682 
138.00092703083283 0.44321395775941225 
139.00092703083283 0.43908172635445375 
140.00092703083283 0.41594123048668513 
141.00092703083283 0.44997245179063344 
142.00092703083283 0.42476584022038544 
143.00092703083283 0.42084481175390265 
144.00092703083283 0.41865932047750226 
145.00092703083283 0.41288337924701557 
146.00092703083283 0.4091827364554637 
147.00092703083283 0.40550045913682276 
148.00092703083283 0.39934802571166217 
149.00092703083283 0.3975665748393021 
150.00092703083283 0.39419651056014715 
151.00092703083283 0.395096418732783 
152.00092703083283 0.39572084481175407 
153.00092703083283 0.3577961432506887 
154.00092703083283 0.3592745638200184 
155.00092703083283 0.35850321395775936 
156.00092703083283 0.3586868686868687 
157.00092703083283 0.3593755739210284 
158.00092703083283 0.358971533516988 
159.00092703083283 0.3594765840220385 
160.00092703083283 0.3585674931129476 
161.00092703083283 0.36068870523415975 
162.00092703083283 0.36 
163.00092703083283 0.3598989898989899 
164.00092703083283 0.3598989898989899 
165.00092703083283 0.3601010101010101 
166.00092703083283 0.3603030303030303 
167.00092703083283 0.3602020202020202 
168.00092703083283 0.3601010101010101 
169.00092703083283 0.3604040404040404 
170.00092703083283 0.3602020202020202 
171.00092703083283 0.36067033976124885 
172.00092703083283 0.36107438016528925 
173.00092703083283 0.3598989898989899 
174.00092703083283 0.36 
175.00092703083283 0.36 
176.00092703083283 0.36 
177.00092703083283 0.36 
178.00092703083283 0.36 
179.00092703083283 0.36 
180.00092703083283 0.36 
181.00092703083283 0.36 
182.00092703083283 0.36 
183.00092703083283 0.36 
184.00092703083283 0.36 
185.00092703083283 0.36 
186.00092703083283 0.36 
187.00092703083283 0.36 
188.00092703083283 0.36 
189.00092703083283 0.36 
190.00092703083283 0.36 
191.00092703083283 0.36 
192.00092703083283 0.36 
193.00092703083283 0.36 
194.00092703083283 0.36 
195.00092703083283 0.36 
196.00092703083283 0.36 
197.00092703083283 0.36 
198.00092703083283 0.36 
199.00092703083283 0.36 
200.00092703083283 0.36 
201.00092703083283 0.36 
202.00092703083283 0.36 
203.00092703083283 0.36 
204.00092703083283 0.36 
205.00092703083283 0.36 
206.00092703083283 0.36 
207.00092703083283 0.36 
208.00092703083283 0.36 
209.00092703083283 0.36 
210.00092703083283 0.36 
211.00092703083283 0.36 
212.00092703083283 0.36 
213.00092703083283 0.36 
214.00092703083283 0.36 
215.00092703083283 0.36 
216.00092703083283 0.36 
217.00092703083283 0.36 
218.00092703083283 0.36 
219.00092703083283 0.36 
220.00092703083283 0.36 
221.00092703083283 0.36 
222.00092703083283 0.36 
223.00092703083283 0.36 
224.00092703083283 0.36 
225.00092703083283 0.36 
226.00092703083283 0.36 
227.00092703083283 0.36 
228.00092703083283 0.36 
229.00092703083283 0.36 
230.00092703083283 0.36 
231.00092703083283 0.36 
232.00092703083283 0.36 
233.00092703083283 0.36 
234.00092703083283 0.36 
235.00092703083283 0.36 
236.00092703083283 0.36 
237.00092703083283 0.36 
238.00092703083283 0.36 
239.00092703083283 0.36 
240.00092703083283 0.36 
241.00092703083283 0.36 
242.00092703083283 0.36 
243.00092703083283 0.36 
244.00092703083283 0.36 
245.00092703083283 0.36 
246.00092703083283 0.36 
247.00092703083283 0.36 
248.00092703083283 0.36 
#####################################################################
# End of data export. Simulation finished at: 2017-05-25T13:48+0000 #
#####################################################################
