#####################################################################
# Alchemist log file - simulation started at: 2017-05-23T10:19+0000 #
#####################################################################
# random = 5.0, targets = 10.0, density = 0.3174802103936399, gridShift = 0.0, perturbation = 0.0, connfactor = 0.25
#
# The columns have the following meaning: 
# time se[Mean] 
0.0 NaN 
1.0183713707442061 NaN 
2.018371370744206 1.0 
3.018371370744206 1.0 
4.018371370744206 0.9961224489795918 
5.018371370744206 0.9806122448979592 
6.018371370744206 0.9728571428571429 
7.018371370744206 0.9495918367346939 
8.018371370744205 0.9340816326530612 
9.018371370744205 0.9034693877551021 
10.018371370744205 0.8651020408163266 
11.018371370744205 0.8330612244897959 
12.018371370744205 0.7948979591836735 
13.018371370744205 0.7589795918367347 
14.018371370744205 0.7226530612244898 
15.018371370744205 0.689795918367347 
16.018371370744205 0.6942857142857143 
17.018371370744205 0.6302040816326531 
18.018371370744205 0.6414285714285715 
19.018371370744205 0.6244897959183674 
20.018371370744205 0.5738775510204082 
21.018371370744205 0.5555102040816327 
22.018371370744205 0.5138775510204081 
23.018371370744205 0.48612244897959184 
24.018371370744205 0.4583673469387755 
25.018371370744205 0.42673469387755103 
26.018371370744205 0.39448979591836736 
27.018371370744205 0.38653061224489793 
28.018371370744205 0.37857142857142856 
29.018371370744205 0.36265306122448976 
30.018371370744205 0.36 
31.018371370744205 0.36 
32.018371370744205 0.36 
33.018371370744205 0.36 
34.018371370744205 0.36 
35.018371370744205 0.36 
36.018371370744205 0.36 
37.018371370744205 0.36 
38.018371370744205 0.36 
39.018371370744205 0.36 
40.018371370744205 0.36 
41.018371370744205 0.36 
42.018371370744205 0.36 
43.018371370744205 0.36 
44.018371370744205 0.36 
45.018371370744205 0.36 
#####################################################################
# End of data export. Simulation finished at: 2017-05-23T10:19+0000 #
#####################################################################
