#####################################################################
# Alchemist log file - simulation started at: 2017-05-25T23:06+0000 #
#####################################################################
# random = 19.0, targets = 10.0, density = 0.04, gridShift = 0.0, perturbation = 0.0, connfactor = 2.0
#
# The columns have the following meaning: 
# time se[Mean] 
0.0 NaN 
1.029399693434633 NaN 
2.029399693434633 2.2078125 
3.029399693434633 3.2259374999999997 
4.029399693434633 3.1415668402777777 
5.029399693434633 2.799535590277778 
6.029399693434633 3.010902777777778 
7.029399693434633 5.625594618055556 
8.029399693434634 5.282734375 
9.029399693434634 10.437261284722222 
10.029399693434634 12.676692708333333 
11.029399693434634 18.22287760416667 
12.029399693434634 9.1073046875 
13.029399693434634 3.035946180555556 
14.029399693434634 0.011736111111111107 
15.029399693434634 0.0039149305555555534 
16.029399693434634 0.001254340277777777 
17.029399693434634 0.0 
18.029399693434634 0.0 
19.029399693434634 0.0 
20.029399693434634 0.0 
#####################################################################
# End of data export. Simulation finished at: 2017-05-25T23:06+0000 #
#####################################################################
