#####################################################################
# Alchemist log file - simulation started at: 2017-05-21T14:45+0000 #
#####################################################################
# random = 2.0, targets = 100.0, density = 0.11269076455391362, gridShift = 0.0, perturbation = 0.0, connfactor = 0.75
#
# The columns have the following meaning: 
# time se[Mean] 
0.0 NaN 
1.003288451303821 NaN 
2.003288451303821 1.113259 
3.003288451303821 1.1625012777777777 
4.0032884513038205 1.2421945 
5.0032884513038205 1.1189612222222223 
6.0032884513038205 1.081439361111111 
7.0032884513038205 0.9753926666666667 
8.00328845130382 1.0377192777777777 
9.00328845130382 1.005543638888889 
10.00328845130382 0.988562 
11.00328845130382 1.0021836944444444 
12.00328845130382 0.9887450555555556 
13.00328845130382 0.86651775 
14.00328845130382 0.9810971111111112 
15.00328845130382 0.7523844166666667 
16.00328845130382 1.2205971666666668 
17.00328845130382 1.0670996111111113 
18.00328845130382 1.355225916666667 
19.00328845130382 0.8951361666666668 
20.00328845130382 0.6772348611111112 
21.00328845130382 0.40422344444444447 
22.00328845130382 0.3854548611111111 
23.00328845130382 0.4097280833333334 
24.00328845130382 0.40208336111111115 
25.00328845130382 0.4096 
26.00328845130382 0.4096 
27.00328845130382 0.4096 
28.00328845130382 0.4096 
29.00328845130382 0.4096 
30.00328845130382 0.4096 
31.00328845130382 0.4096 
32.00328845130382 0.4096 
33.00328845130382 0.4096 
#####################################################################
# End of data export. Simulation finished at: 2017-05-21T14:45+0000 #
#####################################################################
