0.000000000000000000e+00 nan
1.000000752232206969e+00 3.036699154390035127e-01
2.000001504464413937e+00 9.555067175347627950e-01
3.000002256696618463e+00 9.659553607995242652e-01
4.000003008928827875e+00 9.654119274690661223e-01
5.000003761161028848e+00 9.648898769300321421e-01
6.000004513393236927e+00 9.641413771156354118e-01
7.000005265625445894e+00 9.636250449926456740e-01
8.000006017857655749e+00 9.633183336635156024e-01
9.000006770089859387e+00 9.626330019234962121e-01
1.000000752232205770e+01 9.618842774570403042e-01
1.100000827455426311e+01 9.603765353752489187e-01
1.200000902678647385e+01 9.598817721191242880e-01
1.300000977901868282e+01 9.585606410142520906e-01
1.400001053125089179e+01 9.599652019938442749e-01
1.500001128348309898e+01 9.604175695487943143e-01
1.600001203571531150e+01 9.630408248328319321e-01
1.700001278794751158e+01 9.677686206045644779e-01
1.800001354017971877e+01 9.762836030543039501e-01
1.900001429241192596e+01 9.828796983854878322e-01
2.000001504464411539e+01 9.967787193091678377e-01
2.100001579687632614e+01 1.008453877732911730e+00
2.200001654910852622e+01 1.022092456574730024e+00
2.300001730134073696e+01 1.029925499757453622e+00
2.400001805357294771e+01 1.027070920929143538e+00
2.500001880580515845e+01 1.039069977699109248e+00
2.600001955803736564e+01 1.030435729967446257e+00
2.700002031026956573e+01 1.038519523424503710e+00
2.800002106250178358e+01 1.029516605779708938e+00
2.900002181473398366e+01 1.018956790367258058e+00
3.000002256696619796e+01 1.019816470258682051e+00
3.100002331919839449e+01 1.004111809546267997e+00
3.200002407143062300e+01 1.019094592847860747e+00
3.300002482366279111e+01 1.004523719307700791e+00
3.400002557589502317e+01 1.021205968204260683e+00
3.500002632812721259e+01 1.025178921712039726e+00
3.600002708035943755e+01 1.054698973782683957e+00
3.700002783259163408e+01 1.071527888704706166e+00
3.800002858482385193e+01 1.072130085567659652e+00
3.900002933705604846e+01 1.119385344350147582e+00
4.000003008928823078e+01 1.152012021243883577e+00
4.100003084152046284e+01 1.161333615776463768e+00
4.200003159375265227e+01 1.185032871732478954e+00
4.300003234598488433e+01 1.220661617204226612e+00
4.400003309821705244e+01 1.248292175268636672e+00
4.500003385044930582e+01 1.247675900209990418e+00
4.600003460268147393e+01 1.261566039435085607e+00
4.700003535491371309e+01 1.221224297996946762e+00
4.800003610714589541e+01 1.272785106525807786e+00
4.900003685937812747e+01 1.263431025943956065e+00
5.000003761161031690e+01 1.335773713407824692e+00
5.100003836384254896e+01 1.273343117278709080e+00
5.200003911607473128e+01 1.360450167243390629e+00
5.300003986830690650e+01 1.318824875132200480e+00
5.400004062053913145e+01 1.335684145312664217e+00
5.500004137277134930e+01 1.419241350095847398e+00
5.600004212500356715e+01 1.391746229992430139e+00
5.700004287723573526e+01 1.583602528412094257e+00
5.800004362946796732e+01 1.495556289880848100e+00
5.900004438170017806e+01 1.507487544844074323e+00
6.000004513393239591e+01 1.597664186080443471e+00
6.100004588616457823e+01 1.668291090040782132e+00
6.200004663839678898e+01 1.768168300217694444e+00
6.300004739062902104e+01 1.785042018475632375e+00
6.400004814286124599e+01 1.686750484221946067e+00
6.500004889509341410e+01 1.595979027871702094e+00
6.600004964732558221e+01 1.700564514052680165e+00
6.700005039955779296e+01 1.699097406762972051e+00
6.800005115179004633e+01 1.694849234060074483e+00
6.900005190402224287e+01 1.814001806465250111e+00
7.000005265625442519e+01 1.755323784712492063e+00
7.100005340848663593e+01 1.900570068177839467e+00
7.200005416071887510e+01 2.029696438619095211e+00
7.300005491295108584e+01 1.912162291415259396e+00
7.400005566518326816e+01 2.137909737861309445e+00
7.500005641741546469e+01 1.989836280849580641e+00
7.600005716964770386e+01 2.155267034425855766e+00
7.700005792187992881e+01 2.074577034370578499e+00
7.800005867411209692e+01 2.090108572306469181e+00
7.900005942634426503e+01 2.133682741451488507e+00
8.000006017857646157e+01 2.189091817057061906e+00
8.100006093080872915e+01 2.191210649046522185e+00
8.200006168304092569e+01 2.049566046388626717e+00
8.300006243527310801e+01 1.990897153678738540e+00
8.400006318750530454e+01 1.944451345764154793e+00
8.500006393973757213e+01 1.955094768049846721e+00
8.600006469196976866e+01 1.758677252225480991e+00
8.700006544420195098e+01 1.838397181998373320e+00
8.800006619643410488e+01 1.790151595671452434e+00
8.900006694866630141e+01 1.832469372081303227e+00
9.000006770089861163e+01 1.769229792541997970e+00
9.100006845313077974e+01 1.936806290970410016e+00
9.200006920536294786e+01 1.826681050669816564e+00
9.300006995759514439e+01 1.817081332349876455e+00
9.400007070982742619e+01 1.774667003208282523e+00
9.500007146205960851e+01 1.852672452005619919e+00
9.600007221429179083e+01 1.876106357572608907e+00
9.700007296652398736e+01 1.951152737103780010e+00
9.800007371875625495e+01 2.123397421355054160e+00
9.900007447098845148e+01 2.059217303067634841e+00
1.000000752232206338e+02 2.288263597076719336e+00
1.010000759754528161e+02 2.222486751799913396e+00
1.020000767276850979e+02 2.508281034069814286e+00
1.030000774799172945e+02 2.517876229848341918e+00
1.040000782321494626e+02 2.703812304328458538e+00
1.050000789843816307e+02 2.975699072011649182e+00
1.060000797366138130e+02 3.331626969973485952e+00
1.070000804888460948e+02 3.080281120334638079e+00
1.080000812410782629e+02 3.524637501171441034e+00
1.090000819933105021e+02 3.569590010542186942e+00
1.100000827455426986e+02 4.496929631027907881e+00
1.110000834977749520e+02 3.896863640507507665e+00
1.120000842500071343e+02 4.546784640588916737e+00
1.130000850022393166e+02 4.051853301611033409e+00
1.140000857544714705e+02 4.406127168153944673e+00
1.150000865067036528e+02 4.300129321708848984e+00
1.160000872589359346e+02 4.654960161975961519e+00
1.170000880111680885e+02 4.633222420298103827e+00
1.180000887634003561e+02 4.578300923622482976e+00
1.190000895156325385e+02 5.083985328705048268e+00
1.200000902678647918e+02 4.715886183842808776e+00
1.210000910200969741e+02 4.921397746626884562e+00
1.220000917723291565e+02 5.011219439877915960e+00
1.230000925245613388e+02 5.288853097687472804e+00
1.240000932767935780e+02 5.946656564406788803e+00
1.250000940290257745e+02 5.760932368586605179e+00
1.260000947812580421e+02 6.926780915993564491e+00
1.270000955334901960e+02 7.120255818882868404e+00
1.280000962857224920e+02 7.072139672987945325e+00
1.290000970379546459e+02 7.910560061581222158e+00
1.300000977901868282e+02 7.928971879449424165e+00
1.310000985424190105e+02 7.899681560203152486e+00
1.320000992946511644e+02 8.693842740641015254e+00
1.330001000468834036e+02 9.036590234232924956e+00
1.340001007991155859e+02 8.803970998992523889e+00
1.350001015513479103e+02 9.483019368426925055e+00
1.360001023035800927e+02 1.012011060742273649e+01
1.370001030558123318e+02 1.057707794050902095e+01
1.380001038080444857e+02 1.162191324277442384e+01
1.390001045602766681e+02 1.064329083543412757e+01
1.400001053125088504e+02 1.069997241064639937e+01
1.410001060647410043e+02 1.064769399990559151e+01
1.420001068169732719e+02 1.117277351357271975e+01
1.430001075692054542e+02 1.180061904958931862e+01
1.440001083214377502e+02 1.227717714958682826e+01
1.450001090736699325e+02 1.202649872760003014e+01
1.460001098259021717e+02 1.225777881418429160e+01
1.470001105781343256e+02 1.182786229162138625e+01
1.480001113303665363e+02 1.239137322134915919e+01
1.490001120825986902e+02 1.316477365602934135e+01
1.500001128348309294e+02 1.426882528268913397e+01
1.510001135870630833e+02 1.326137494903867520e+01
1.520001143392954077e+02 1.293445310831219786e+01
1.530001150915276185e+02 1.340914803263240174e+01
1.540001158437598576e+02 1.283491853564062168e+01
1.550001165959920115e+02 1.377597502507802396e+01
1.560001173482241938e+02 1.321937420887660330e+01
1.570001181004563762e+02 1.344721064716431869e+01
1.580001188526885301e+02 1.280598966113645965e+01
1.590001196049207692e+02 1.232264337922167563e+01
1.600001203571529231e+02 1.167822642946600631e+01
1.610001211093853044e+02 1.230996333398491238e+01
1.620001218616174583e+02 1.240813033838355572e+01
1.630001226138496975e+02 1.156139004474982279e+01
1.640001233660818514e+02 1.270954368212390584e+01
1.650001241183140337e+02 1.179601225051505864e+01
1.660001248705462160e+02 1.078625615166841101e+01
1.670001256227783699e+02 1.167870875516873141e+01
1.680001263750106091e+02 1.062072661472413593e+01
1.690001271272429904e+02 1.028923091027198744e+01
1.700001278794751443e+02 1.195693790204766671e+01
1.710001286317072982e+02 1.077351840035209563e+01
1.720001293839395373e+02 1.208902349833064882e+01
1.730001301361716912e+02 1.236176800799696451e+01
1.740001308884039020e+02 1.207736520923401535e+01
1.750001316406360559e+02 1.368873203111844994e+01
1.760001323928682098e+02 1.186169221629124415e+01
1.770001331451004489e+02 1.208621850860700420e+01
1.780001338973326028e+02 1.111054021868624453e+01
1.790001346495649841e+02 1.176908339882756849e+01
1.800001354017972233e+02 1.283960812921599270e+01
1.810001361540293772e+02 1.255941615418280044e+01
1.820001369062615595e+02 1.191829621619670121e+01
1.830001376584937418e+02 1.194742783578039536e+01
1.840001384107258957e+02 1.114338475815319107e+01
1.850001391629581349e+02 1.171915924181495861e+01
1.860001399151902888e+02 1.081438768609027079e+01
1.870001406674226700e+02 1.300282654789083558e+01
1.880001414196548524e+02 1.288980111985560661e+01
1.890001421718870631e+02 1.263783925384849027e+01
1.900001429241192170e+02 1.147738874141939114e+01
1.910001436763513993e+02 1.140118760038251899e+01
1.920001444285835817e+02 1.283238992921629773e+01
1.930001451808157356e+02 1.177345566796305931e+01
1.940001459330479747e+02 1.152441911895166982e+01
1.950001466852801286e+02 1.212359066751220027e+01
1.960001474375125099e+02 1.153323031989094893e+01
1.970001481897446638e+02 1.328235021481663836e+01
1.980001489419769030e+02 1.573098405254762433e+01
1.990001496942090569e+02 1.234667939314809182e+01
2.000001504464412676e+02 1.471086084437173014e+01
2.010001511986734215e+02 1.471574288080121740e+01
2.020001519509056322e+02 1.322556042084883110e+01
2.030001527031378146e+02 1.452654565491876504e+01
2.040001534553701958e+02 1.582990756481167871e+01
2.050001542076023782e+02 1.537459085932469094e+01
2.060001549598345889e+02 1.712835474118890744e+01
2.070001557120667428e+02 1.510316856998443491e+01
2.080001564642989251e+02 1.734878421955852090e+01
2.090001572165311075e+02 1.630272076490916433e+01
2.100001579687632614e+02 1.577342280749476622e+01
2.110001587209954721e+02 1.666964693329602198e+01
2.120001594732276260e+02 1.668481094727133751e+01
2.130001602254600357e+02 1.853333437464226208e+01
2.140001609776921896e+02 1.637701965442591501e+01
2.150001617299243719e+02 1.672697681123592162e+01
2.160001624821565258e+02 1.530324273375653732e+01
2.170001632343887366e+02 1.497061484873420234e+01
2.180001639866210041e+02 1.498504071731214182e+01
2.190001647388531580e+02 1.476533337277477465e+01
2.200001654910853972e+02 1.434677936331516968e+01
2.210001662433175511e+02 1.460939629266984063e+01
2.220001669955499040e+02 1.098705942028942673e+01
2.230001677477820579e+02 1.310275329044217330e+01
2.240001685000142686e+02 1.165143796489059547e+01
2.250001692522464225e+02 1.153507428441356097e+01
2.260001700044786332e+02 1.195225444441819995e+01
2.270001707567107871e+02 1.066284459148929997e+01
2.280001715089429410e+02 9.663441880044718602e+00
2.290001722611751518e+02 1.087006793942279259e+01
2.300001730134073057e+02 7.022728796013879560e+00
2.310001737656396585e+02 9.142243834305276096e+00
2.320001745178718693e+02 7.027459682454088252e+00
2.330001752701040232e+02 7.512654049781928300e+00
2.340001760223361771e+02 9.118325946512619851e+00
2.350001767745685584e+02 6.623688656655315476e+00
2.360001775268007123e+02 7.924660309487359555e+00
2.370001782790329230e+02 7.203424023882626592e+00
2.380001790312650769e+02 6.564302395460415163e+00
2.390001797834974298e+02 5.374814674042941220e+00
2.400001805357295837e+02 4.849703965508087578e+00
2.410001812879617944e+02 4.644641566152150070e+00
2.420001820401939483e+02 4.809131803672346273e+00
2.430001827924261306e+02 5.134401026699854320e+00
2.440001835446583129e+02 4.144723339501438453e+00
2.450001842968904668e+02 4.959909279517889402e+00
2.460001850491226776e+02 4.632281209872035177e+00
2.470001858013548315e+02 4.628475603994441911e+00
2.480001865535871559e+02 3.813258212689754956e+00
2.490001873058193382e+02 3.161084299645965157e+00
2.500001880580515490e+02 3.324127777906954684e+00
2.510001888102837029e+02 3.161084299646006013e+00
2.520001895625160842e+02 2.671953864863187089e+00
2.530001903147482381e+02 2.182823430080381044e+00
2.540001910669803920e+02 1.856736473558479039e+00
2.550001918192126311e+02 1.693692995297561232e+00
2.560001925714449840e+02 1.856736473558492362e+00
2.570001933236771379e+02 1.367606038775665889e+00
2.580001940759092918e+02 1.367606038775663002e+00
2.590001948281414457e+02 1.041519082253803852e+00
2.600001955803736564e+02 5.523886474709837069e-01
2.610001963326058672e+02 5.523886474709872596e-01
2.620001970848380211e+02 3.893451692100389772e-01
2.630001978370701750e+02 6.325821268816804455e-02
2.640001985893023289e+02 6.325821268816804455e-02
2.650001993415344828e+02 6.325821268816804455e-02
2.660002000937668072e+02 6.325821268816804455e-02
2.670002008459990179e+02 6.325821268816804455e-02
2.680002015982311718e+02 6.325821268816804455e-02
2.690002023504636099e+02 6.325821268816804455e-02
2.700002031026958207e+02 6.325821268816804455e-02
2.710002038549279746e+02 6.325821268816804455e-02
2.720002046071601853e+02 6.325821268816804455e-02
2.730002053593925098e+02 6.325821268816804455e-02
2.740002061116246637e+02 6.325821268816804455e-02
2.750002068638568176e+02 6.325821268816804455e-02
2.760002076160889715e+02 6.325821268816804455e-02
2.770002083683211254e+02 6.325821268816804455e-02
2.780002091205533361e+02 6.325821268816804455e-02
2.790002098727855468e+02 6.325821268816804455e-02
2.800002106250177007e+02 6.325821268816804455e-02
2.810002113772498546e+02 6.325821268816804455e-02
2.820002121294820085e+02 6.325821268816804455e-02
2.830002128817143330e+02 6.325821268816804455e-02
2.840002136339465437e+02 6.325821268816804455e-02
2.850002143861786976e+02 6.325821268816804455e-02
2.860002151384109084e+02 6.325821268816804455e-02
2.870002158906433465e+02 6.325821268816804455e-02
2.880002166428755004e+02 6.325821268816804455e-02
2.890002173951076543e+02 6.325821268816804455e-02
2.900002181473398650e+02 6.325821268816804455e-02
2.910002188995721895e+02 6.325821268816804455e-02
2.920002196518043434e+02 6.325821268816804455e-02
2.930002204040364973e+02 6.325821268816804455e-02
2.940002211562686512e+02 6.325821268816804455e-02
2.950002219085008619e+02 6.325821268816804455e-02
2.960002226607330726e+02 6.325821268816804455e-02
2.970002234129652265e+02 6.325821268816804455e-02
2.980002241651973804e+02 6.325821268816804455e-02
2.990002249174295343e+02 6.325821268816804455e-02
3.000002256696618588e+02 6.325821268816804455e-02
3.010002264218940127e+02 6.325821268816804455e-02
3.020002271741261666e+02 6.325821268816804455e-02
3.030002279263583205e+02 6.325821268816804455e-02
3.040002286785908154e+02 6.325821268816804455e-02
3.050002294308230830e+02 6.325821268816804455e-02
3.060002301830552369e+02 6.325821268816804455e-02
3.070002309352873908e+02 6.325821268816804455e-02
3.080002316875197153e+02 6.325821268816804455e-02
3.090002324397518692e+02 6.325821268816804455e-02
3.100002331919840231e+02 6.325821268816804455e-02
3.110002339442161770e+02 6.325821268816804455e-02
3.120002346964483877e+02 6.325821268816804455e-02
3.130002354486805984e+02 6.325821268816804455e-02
3.140002362009127523e+02 6.325821268816804455e-02
3.150002369531449062e+02 6.325821268816804455e-02
3.160002377053770601e+02 6.325821268816804455e-02
3.170002384576092140e+02 6.325821268816804455e-02
3.180002392098415385e+02 6.325821268816804455e-02
3.190002399620736924e+02 6.325821268816804455e-02
3.200002407143058463e+02 6.325821268816804455e-02
3.210002414665380002e+02 6.325821268816804455e-02
3.220002422187706088e+02 6.325821268816804455e-02
3.230002429710027627e+02 6.325821268816804455e-02
3.240002437232349166e+02 6.325821268816804455e-02
3.250002444754672410e+02 6.325821268816804455e-02
3.260002452276993949e+02 6.325821268816804455e-02
3.270002459799315488e+02 6.325821268816804455e-02
3.280002467321637027e+02 6.325821268816804455e-02
3.290002474843958566e+02 6.325821268816804455e-02
3.300002482366280674e+02 6.325821268816804455e-02
3.310002489888602781e+02 6.325821268816804455e-02
3.320002497410924320e+02 6.325821268816804455e-02
3.330002504933245859e+02 6.325821268816804455e-02
3.340002512455567398e+02 6.325821268816804455e-02
3.350002519977890643e+02 6.325821268816804455e-02
3.360002527500212182e+02 6.325821268816804455e-02
3.370002535022533721e+02 6.325821268816804455e-02
3.380002542544859807e+02 6.325821268816804455e-02
3.390002550067181346e+02 6.325821268816804455e-02
3.400002557589502885e+02 6.325821268816804455e-02
3.410002565111824424e+02 6.325821268816804455e-02
3.420002572634145963e+02 6.325821268816804455e-02
3.430002580156469207e+02 6.325821268816804455e-02
3.440002587678790746e+02 6.325821268816804455e-02
3.450002595201112285e+02 6.325821268816804455e-02
3.460002602723433824e+02 6.325821268816804455e-02
