#####################################################################
# Alchemist log file - simulation started at: 2017-05-22T23:00+0000 #
#####################################################################
# random = 10.0, targets = 3.1622776601683795, density = 0.11269076455391362, gridShift = 0.0, perturbation = 0.5, connfactor = 1.0
#
# The columns have the following meaning: 
# time se[Mean] 
0.0 NaN 
1.0042217987811537 NaN 
2.0042217987811535 NaN 
3.0042217987811535 0.9982529260043321 
4.0042217987811535 0.9741827789538717 
5.0042217987811535 0.9854181489322108 
6.0042217987811535 0.9175351891054985 
7.0042217987811535 0.864603969470683 
8.004221798781153 0.9668962616898534 
9.004221798781153 0.7955090477002892 
10.004221798781153 0.9910994841472944 
11.004221798781153 1.1037309617084627 
12.004221798781153 1.1833215522624925 
13.004221798781153 1.39144998823906 
14.004221798781153 1.5628065755000269 
15.004221798781153 1.7203970890005442 
16.004221798781153 1.7425841991707802 
17.004221798781153 1.84305197459637 
18.004221798781153 1.9105256020306243 
19.004221798781153 1.9147478242528466 
20.004221798781153 2.074151227583128 
21.004221798781153 1.93127411976508 
22.004221798781153 1.762549087118794 
23.004221798781153 1.7866309381865833 
24.004221798781153 1.7457771613496806 
25.004221798781153 1.7218005693843381 
26.004221798781153 1.732455532033676 
27.004221798781153 1.732455532033676 
28.004221798781153 1.732455532033676 
29.004221798781153 1.732455532033676 
30.004221798781153 1.732455532033676 
#####################################################################
# End of data export. Simulation finished at: 2017-05-22T23:00+0000 #
#####################################################################
