#####################################################################
# Alchemist log file - simulation started at: 2017-05-24T14:40+0000 #
#####################################################################
# random = 15.0, targets = 3.1622776601683795, density = 0.894427190999916, gridShift = 1.0, perturbation = 0.5, connfactor = 1.0
#
# The columns have the following meaning: 
# time se[Mean] 
0.0 NaN 
1.0090872484315245 NaN 
2.0090872484315243 1.014217823584035 
3.0090872484315243 1.028506310780986 
4.009087248431524 1.0534676142216193 
5.009087248431524 1.1009228218198939 
6.009087248431524 1.038593156468579 
7.009087248431524 1.0384283963684995 
8.009087248431523 0.9687321256215432 
9.009087248431523 0.9717435063860168 
10.009087248431523 0.9813393161301667 
11.009087248431523 0.887349079954544 
12.009087248431523 0.9746254187248311 
13.009087248431523 0.9357091547301806 
14.009087248431523 0.9545151722686207 
15.009087248431523 0.9802241985762811 
16.009087248431523 0.9688816220365035 
17.009087248431523 0.9766666987722967 
18.009087248431523 0.9982894753739805 
19.009087248431523 0.991937145486429 
20.009087248431523 1.0070995154080102 
21.009087248431523 1.0015756421799051 
22.009087248431523 1.0142030372587951 
23.009087248431523 1.0425054021922115 
24.009087248431523 1.047182025992856 
25.009087248431523 1.1127219570976894 
26.009087248431523 1.0856123554573607 
27.009087248431523 1.1709678153045422 
28.009087248431523 1.288435788264304 
29.009087248431523 1.0736039650775735 
30.009087248431523 1.3406500660368088 
31.009087248431523 1.4005155646336835 
32.00908724843153 1.3602406222886536 
33.00908724843153 1.5638817276480064 
34.00908724843153 1.1865746528208854 
35.00908724843153 1.4998773709162325 
36.00908724843153 1.541383332084039 
37.00908724843153 1.0776740056732852 
38.00908724843153 1.2620395412761816 
39.00908724843153 1.1054937446446114 
40.00908724843153 1.0947475577777857 
41.00908724843153 1.0741356678520604 
42.00908724843153 1.0013247520107076 
43.00908724843153 0.8712935749241948 
44.00908724843153 0.5728885472186822 
45.00908724843153 0.6283238182441546 
46.00908724843153 0.4617283204313423 
47.00908724843153 0.3615375606975523 
48.00908724843153 0.13017351226059118 
49.00908724843153 0.03739777572395253 
50.00908724843153 0.03048285999611413 
51.00908724843153 0.010206253228363021 
52.00908724843153 0.003175897538698051 
53.00908724843153 0.002849068295951275 
54.00908724843153 0.002682455363941433 
55.00908724843153 0.0026455955836898973 
56.00908724843153 0.002643157246746405 
57.00908724843153 0.0026358422359159276 
58.00908724843153 0.0026334038989724354 
59.00908724843153 0.0026334038989724354 
60.00908724843153 0.0026334038989724354 
61.00908724843153 0.0026334038989724354 
62.00908724843153 0.0026334038989724354 
63.00908724843153 0.0026334038989724354 
64.00908724843153 0.0026334038989724354 
65.00908724843153 0.0026334038989724354 
66.00908724843153 0.0026334038989724354 
67.00908724843153 0.0026334038989724354 
68.00908724843153 0.0026334038989724354 
69.00908724843153 0.0026334038989724354 
70.00908724843153 0.0026334038989724354 
71.00908724843153 0.0026334038989724354 
72.00908724843153 0.0026334038989724354 
73.00908724843153 0.0026334038989724354 
74.00908724843153 0.0026334038989724354 
75.00908724843153 0.0026334038989724354 
#####################################################################
# End of data export. Simulation finished at: 2017-05-24T14:40+0000 #
#####################################################################
