#####################################################################
# Alchemist log file - simulation started at: 2017-05-26T05:21+0000 #
#####################################################################
# random = 9.0, targets = 3.1622776601683795, density = 20.0, gridShift = 1.0, perturbation = 0.5, connfactor = 0.5
#
# The columns have the following meaning: 
# time se[Mean] 
0.0 NaN 
1.0003374459614243 NaN 
2.0003374459614243 1.0 
3.0003374459614243 1.0 
4.000337445961424 0.9995895059021987 
5.000337445961424 0.9998617808419474 
6.000337445961424 0.9975370354131922 
7.000337445961424 0.9967077204648764 
8.000337445961424 0.9953338556370632 
9.000337445961424 0.9936123612259409 
10.000337445961424 0.9951943866432733 
11.000337445961424 0.9918504828869905 
12.000337445961424 0.9894532963552928 
13.000337445961424 0.9886518752057349 
14.000337445961424 0.9873450382687702 
15.000337445961424 0.9834607480093469 
16.000337445961424 0.9821705645778083 
17.000337445961424 0.9799478177556342 
18.000337445961424 0.9705859715261225 
19.000337445961424 0.9680588925890846 
20.000337445961424 0.9616391966399119 
21.000337445961424 0.955425997575375 
22.000337445961424 0.9558323282968187 
23.000337445961424 0.9484867320048435 
24.000337445961424 0.9450283395129105 
25.000337445961424 0.9452702209824254 
26.000337445961424 0.9436074277094361 
27.000337445961424 0.9444454832796098 
28.000337445961424 0.9451744633262246 
29.000337445961424 0.9487964691034941 
30.000337445961424 0.9477577437299205 
31.000337445961424 0.9486220293939693 
32.00033744596142 0.9503393604287368 
33.00033744596142 0.950374331144469 
34.00033744596142 0.9508127190410296 
35.00033744596142 0.9520204709120321 
36.00033744596142 0.953880184481208 
37.00033744596142 0.954843555211219 
38.00033744596142 0.9562174200390329 
39.00033744596142 0.957595448243201 
40.00033744596142 0.9587640660221154 
41.00033744596142 0.9609002179073954 
42.00033744596142 0.961658341588507 
43.00033744596142 0.9622990629933477 
44.00033744596142 0.9622695054897069 
45.00033744596142 0.9615476023600681 
46.00033744596142 0.9612486834572973 
47.00033744596142 0.96009505547893 
48.00033744596142 0.9586708162656952 
49.00033744596142 0.9560304984287444 
50.00033744596142 0.9693720033896541 
51.00033744596142 1.0318950362830477 
52.00033744596142 1.0304025193432265 
53.00033744596142 1.1430038368774145 
54.00033744596142 1.221029920744276 
55.00033744596142 1.3637772179377199 
56.00033744596142 1.5246399901428234 
57.00033744596142 1.6846230730141896 
58.00033744596142 1.9767834081961189 
59.00033744596142 2.270642343333366 
60.00033744596142 2.39584452339105 
61.00033744596142 2.688106443310421 
62.00033744596142 3.0609539970779425 
63.00033744596142 3.372143217485239 
64.00033744596142 3.6764943431903023 
65.00033744596142 4.101836935176389 
66.00033744596142 4.458444545040253 
67.00033744596142 4.7841634552334416 
68.00033744596142 5.372970003169444 
69.00033744596142 5.6762182891507615 
70.00033744596142 6.184756025482553 
71.00033744596142 6.708208543342388 
72.00033744596142 7.1184290209491685 
73.00033744596142 7.790277090403135 
74.00033744596142 8.386802672210907 
75.00033744596142 8.796477350102396 
76.00033744596142 9.47738917462145 
77.00033744596142 10.305173226455448 
78.00033744596142 10.739279404768064 
79.00033744596142 11.468245359335064 
80.00033744596142 12.099099302225936 
81.00033744596142 12.630272939759852 
82.00033744596142 13.193212474854995 
83.00033744596142 13.608719415216878 
84.00033744596142 14.024588138996041 
85.00033744596142 14.23826235779447 
86.00033744596142 14.60468144207776 
87.00033744596142 14.705257668176447 
88.00033744596142 14.871758282227212 
89.00033744596142 15.154322769680453 
90.00033744596142 15.055498845332249 
91.00033744596142 15.055751553225953 
92.00033744596142 15.122484439244557 
93.00033744596142 14.908192815594568 
94.00033744596142 14.875710850213212 
95.00033744596142 14.90970906295679 
96.00033744596142 14.69541743930675 
97.00033744596142 14.564731454100297 
98.00033744596142 14.533260320293769 
99.00033744596142 14.237132013456122 
100.00033744596142 14.05734401833711 
101.00033744596142 13.944036201342993 
102.00033744596142 13.566071211317736 
103.00033744596142 13.451752562748798 
104.00033744596142 13.142036706104381 
105.00033744596142 12.96047975572939 
106.00033744596142 12.698855077422776 
107.00033744596142 12.5528125871536 
108.00033744596142 12.240316943678451 
109.00033744596142 12.10963095847199 
110.00033744596142 11.947221131565284 
111.00033744596142 11.651092824727673 
112.00033744596142 11.438570156333572 
113.00033744596142 11.227058319514281 
114.00033744596142 10.996399359226782 
115.00033744596142 10.734774680920138 
116.00033744596142 10.605099527288406 
117.00033744596142 10.40717524027592 
118.00033744596142 10.178285235244338 
119.00033744596142 9.96677339842512 
120.00033744596142 9.670645091587502 
121.00033744596142 9.376285740005804 
122.00033744596142 9.230243249736624 
123.00033744596142 8.999584289449045 
124.00033744596142 8.770694284417445 
125.00033744596142 8.641019130785804 
126.00033744596142 8.246686804123021 
127.00033744596142 8.017658579933387 
128.0003374459614 7.822099422277485 
129.0003374459614 7.476178009737043 
130.0003374459614 7.327904445892964 
131.0003374459614 7.1964128761605615 
132.0003374459614 6.799529740138418 
133.0003374459614 6.649167485253819 
134.0003374459614 6.4996108148952025 
135.0003374459614 6.2637120167307385 
136.0003374459614 5.964345968119815 
137.0003374459614 5.779456354281867 
138.0003374459614 5.410597199867574 
139.0003374459614 5.240543271635317 
140.0003374459614 5.1197882736117535 
141.0003374459614 4.798803810192972 
142.0003374459614 4.562885444982506 
143.0003374459614 4.39235690830214 
144.0003374459614 4.088284331400392 
145.0003374459614 3.9336218789465542 
146.0003374459614 3.5168222554816615 
147.0003374459614 3.2116451751512427 
148.0003374459614 3.0066575572441354 
149.0003374459614 2.7513168800849948 
150.0003374459614 2.495248886584136 
151.0003374459614 2.3042409953712695 
152.0003374459614 2.212435465429294 
153.0003374459614 1.9236690192048627 
154.0003374459614 1.7005280420297113 
155.0003374459614 1.5280240532088185 
156.0003374459614 1.3540017394516783 
157.0003374459614 1.1166229144764563 
158.0003374459614 0.9121215591798426 
159.0003374459614 0.8359739528748273 
160.0003374459614 0.7945985005333162 
161.0003374459614 0.7535161400133389 
162.0003374459614 0.7411971537029436 
163.0003374459614 0.7309368788319383 
164.0003374459614 0.7197015790684418 
165.0003374459614 0.7103097532378386 
166.0003374459614 0.6947276310268182 
167.0003374459614 0.6833403721404592 
168.0003374459614 0.6686029685474427 
169.0003374459614 0.6551365952090604 
170.0003374459614 0.6413421593334119 
171.0003374459614 0.6278687090780567 
172.0003374459614 0.6125621892165454 
173.0003374459614 0.5953480810719094 
174.0003374459614 0.5793471380103736 
175.0003374459614 0.5625801583841537 
176.0003374459614 0.5465850424038556 
177.0003374459614 0.5319970982622211 
178.0003374459614 0.5145344456002388 
179.0003374459614 0.4985709729259096 
180.0003374459614 0.48751885349379515 
181.0003374459614 0.47298086986843807 
182.0003374459614 0.4573246428495893 
183.0003374459614 0.44479915965455574 
184.0003374459614 0.4296204546243595 
185.0003374459614 0.4148759741143625 
186.0003374459614 0.4016131841200031 
187.0003374459614 0.38876463773065467 
188.0003374459614 0.3772091883134631 
189.0003374459614 0.36593850396509114 
190.0003374459614 0.356576657735576 
191.0003374459614 0.34659449311386253 
192.0003374459614 0.33732881840969237 
193.0003374459614 0.32999571224678753 
194.0003374459614 0.31867548947958485 
195.0003374459614 0.3136646290739596 
196.0003374459614 0.3090305418861373 
197.0003374459614 0.29906211722922843 
198.0003374459614 0.2941545052659204 
199.0003374459614 0.2854467065369113 
200.0003374459614 0.27993709339170986 
201.0003374459614 0.27045701714763865 
202.0003374459614 0.2652205149087778 
203.0003374459614 0.25966552672110255 
204.0003374459614 0.2532079547438822 
205.0003374459614 0.24696145689680093 
206.0003374459614 0.24216959173318656 
207.0003374459614 0.23448012359341766 
208.0003374459614 0.22801838823984139 
209.0003374459614 0.22254542597186475 
210.0003374459614 0.21399291377547874 
211.0003374459614 0.20790005521274893 
212.0003374459614 0.20197329315021956 
213.0003374459614 0.19482004813723536 
214.0003374459614 4.3872751306172475 
215.0003374459614 12.772008323282963 
216.0003374459614 21.157871016092436 
217.0003374459614 33.73932701776303 
218.0003374459614 42.124155132118645 
219.0003374459614 54.7078276396616 
220.0003374459614 67.28774114741947 
221.0003374459614 71.48020122924262 
222.0003374459614 100.84614036346561 
223.0003374459614 88.25461023016614 
224.0003374459614 126.013143559592 
225.0003374459614 134.40136929595795 
226.0003374459614 109.22119410929108 
227.0003374459614 130.19597868296535 
228.0003374459614 121.80141237949024 
229.0003374459614 117.60043478087124 
230.0003374459614 155.36205972002662 
231.0003374459614 134.3799074998012 
232.0003374459614 146.96387058303736 
233.0003374459614 121.78577492469175 
234.0003374459614 163.74348777853436 
235.0003374459614 146.9555687176157 
236.0003374459614 184.7190517230988 
237.0003374459614 180.5192314937371 
238.0003374459614 163.73398898766536 
239.0003374459614 163.73142029142062 
240.0003374459614 138.55316309736435 
241.0003374459614 142.7466065143761 
242.0003374459614 163.7242316782791 
243.0003374459614 146.93777849856934 
244.0003374459614 142.74031425230172 
245.0003374459614 155.32487892285098 
246.0003374459614 155.3226528568472 
247.0003374459614 176.30016685119688 
248.0003374459614 134.33757431210506 
249.0003374459614 172.099795027952 
250.0003374459614 184.6833534277145 
251.0003374459614 172.09357975131232 
252.0003374459614 172.0887883000208 
253.0003374459614 180.47741659291174 
254.0003374459614 159.49629645146499 
255.0003374459614 176.2745568083652 
256.0003374459614 184.66778008726678 
257.0003374459614 193.05492212885787 
258.0003374459614 176.2689090007474 
259.0003374459614 197.24689885338086 
260.0003374459614 197.24319815732525 
261.0003374459614 176.2609235190179 
262.0003374459614 235.00210617416352 
263.0003374459614 176.2557090752684 
264.0003374459614 142.6857315400322 
265.0003374459614 172.05491132134108 
266.0003374459614 113.30963372390309 
267.0003374459614 155.26753348289677 
268.0003374459614 121.69879742864076 
269.0003374459614 155.2641779167505 
270.0003374459614 142.67488090991355 
271.0003374459614 121.69372202355987 
272.0003374459614 121.69193557060248 
273.0003374459614 109.10455574509409 
274.0003374459614 83.92646339770234 
275.0003374459614 92.3186791559826 
276.0003374459614 75.53345245922341 
277.0003374459614 62.94478784704101 
278.0003374459614 41.96488625097477 
279.0003374459614 50.35624896388456 
280.0003374459614 37.76770758105893 
281.0003374459614 46.15970768796285 
282.0003374459614 16.787589083783146 
283.0003374459614 4.199337465368147 
284.0003374459614 29.375137944017098 
285.0003374459614 12.591110672375134 
286.0003374459614 16.786949190115667 
287.0003374459614 8.394983640058408 
288.0003374459614 4.19876043621602 
289.0003374459614 0.0026654610740869406 
290.0003374459614 0.00285780412477414 
291.0003374459614 0.002729575424316007 
292.0003374459614 0.0027616325994305425 
293.0003374459614 0.002697518249201473 
294.0003374459614 0.0026654610740869398 
295.0003374459614 0.002633403898972407 
296.0003374459614 0.002633403898972407 
297.0003374459614 0.002633403898972407 
298.0003374459614 0.002633403898972407 
299.0003374459614 0.002633403898972407 
300.0003374459614 0.002633403898972407 
301.0003374459614 0.002633403898972407 
302.0003374459614 0.002633403898972407 
303.0003374459614 0.002633403898972407 
304.0003374459614 0.002633403898972407 
305.0003374459614 0.002633403898972407 
306.0003374459614 0.002633403898972407 
307.0003374459614 0.002633403898972407 
308.0003374459614 0.002633403898972407 
309.0003374459614 0.002633403898972407 
310.0003374459614 0.002633403898972407 
311.0003374459614 0.002633403898972407 
312.0003374459614 0.002633403898972407 
313.0003374459614 0.002633403898972407 
314.0003374459614 0.002633403898972407 
315.0003374459614 0.002633403898972407 
316.0003374459614 0.002633403898972407 
317.0003374459614 0.002633403898972407 
318.0003374459614 0.002633403898972407 
319.0003374459614 0.002633403898972407 
320.0003374459614 0.002633403898972407 
321.0003374459614 0.002633403898972407 
322.0003374459614 0.002633403898972407 
323.0003374459614 0.002633403898972407 
324.0003374459614 0.002633403898972407 
325.0003374459614 0.002633403898972407 
326.0003374459614 0.002633403898972407 
327.0003374459614 0.002633403898972407 
328.0003374459614 0.002633403898972407 
329.0003374459614 0.002633403898972407 
330.0003374459614 0.002633403898972407 
331.0003374459614 0.002633403898972407 
332.0003374459614 0.002633403898972407 
333.0003374459614 0.002633403898972407 
334.0003374459614 0.002633403898972407 
335.0003374459614 0.002633403898972407 
336.0003374459614 0.002633403898972407 
337.0003374459614 0.002633403898972407 
338.0003374459614 0.002633403898972407 
339.0003374459614 0.002633403898972407 
340.0003374459614 0.002633403898972407 
341.0003374459614 0.002633403898972407 
342.0003374459614 0.002633403898972407 
343.0003374459614 0.002633403898972407 
344.0003374459614 0.002633403898972407 
345.0003374459614 0.002633403898972407 
346.0003374459614 0.002633403898972407 
347.0003374459614 0.002633403898972407 
348.0003374459614 0.002633403898972407 
349.0003374459614 0.002633403898972407 
350.0003374459614 0.002633403898972407 
351.0003374459614 0.002633403898972407 
352.0003374459614 0.002633403898972407 
353.0003374459614 0.002633403898972407 
354.0003374459614 0.002633403898972407 
355.0003374459614 0.002633403898972407 
356.0003374459614 0.002633403898972407 
357.0003374459614 0.002633403898972407 
358.0003374459614 0.002633403898972407 
359.0003374459614 0.002633403898972407 
360.0003374459614 0.002633403898972407 
361.0003374459614 0.002633403898972407 
362.0003374459614 0.002633403898972407 
363.0003374459614 0.002633403898972407 
364.0003374459614 0.002633403898972407 
365.0003374459614 0.002633403898972407 
366.0003374459614 0.002633403898972407 
367.0003374459614 0.002633403898972407 
368.0003374459614 0.002633403898972407 
369.0003374459614 0.002633403898972407 
370.0003374459614 0.002633403898972407 
371.0003374459614 0.002633403898972407 
372.0003374459614 0.002633403898972407 
373.0003374459614 0.002633403898972407 
374.0003374459614 0.002633403898972407 
375.0003374459614 0.002633403898972407 
376.0003374459614 0.002633403898972407 
377.0003374459614 0.002633403898972407 
378.0003374459614 0.002633403898972407 
379.0003374459614 0.002633403898972407 
380.0003374459614 0.002633403898972407 
381.0003374459614 0.002633403898972407 
382.0003374459614 0.002633403898972407 
383.0003374459614 0.002633403898972407 
384.0003374459614 0.002633403898972407 
385.0003374459614 0.002633403898972407 
386.0003374459614 0.002633403898972407 
387.0003374459614 0.002633403898972407 
388.0003374459614 0.002633403898972407 
389.0003374459614 0.002633403898972407 
390.0003374459614 0.002633403898972407 
391.0003374459614 0.002633403898972407 
392.0003374459614 0.002633403898972407 
393.0003374459614 0.002633403898972407 
394.0003374459614 0.002633403898972407 
395.0003374459614 0.002633403898972407 
396.0003374459614 0.002633403898972407 
#####################################################################
# End of data export. Simulation finished at: 2017-05-26T05:46+0000 #
#####################################################################
