#####################################################################
# Alchemist log file - simulation started at: 2017-05-25T12:49+0000 #
#####################################################################
# random = 8.0, targets = 10.0, density = 0.07978946395100113, gridShift = 0.0, perturbation = 0.5, connfactor = 2.0
#
# The columns have the following meaning: 
# time se[Mean] 
0.0 NaN 
1.0490773234798803 NaN 
2.0490773234798803 0.9300694444444444 
3.0490773234798803 0.9532335069444444 
4.04907732347988 1.0288715277777778 
5.04907732347988 1.386349826388889 
6.04907732347988 1.4444314236111113 
7.04907732347988 2.8099696180555562 
8.04907732347988 3.1658420138888896 
9.04907732347988 4.558715277777779 
10.04907732347988 6.903055555555557 
11.04907732347988 6.401250000000002 
12.04907732347988 7.585347222222224 
13.04907732347988 7.184375000000002 
14.04907732347988 8.169531250000004 
15.04907732347988 7.492968750000003 
16.049077323479878 8.775212673611115 
17.049077323479878 8.954062500000004 
18.049077323479878 10.46298177083334 
19.049077323479878 10.245837673611117 
20.049077323479878 10.87423177083334 
21.049077323479878 12.455750868055564 
22.049077323479878 9.652087673611117 
23.049077323479878 10.304175347222229 
24.049077323479878 9.000000000000005 
25.049077323479878 9.000000000000005 
26.049077323479878 9.000000000000005 
27.049077323479878 9.000000000000005 
28.049077323479878 9.000000000000005 
29.049077323479878 9.000000000000005 
#####################################################################
# End of data export. Simulation finished at: 2017-05-25T12:49+0000 #
#####################################################################
