#####################################################################
# Alchemist log file - simulation started at: 2017-05-25T10:18+0000 #
#####################################################################
# random = 8.0, targets = 3.1622776601683795, density = 0.04, gridShift = 1.0, perturbation = 0.0, connfactor = 0.1
#
# The columns have the following meaning: 
# time se[Mean] 
0.0 NaN 
1.0490773234798803 1.0 
2.0490773234798803 1.0 
3.0490773234798803 1.0 
#####################################################################
# End of data export. Simulation finished at: 2017-05-25T10:18+0000 #
#####################################################################
