#####################################################################
# Alchemist log file - simulation started at: 2017-05-24T15:08+0000 #
#####################################################################
# random = 7.0, targets = 1.0, density = 1.2632455339402642, gridShift = 1.0, perturbation = 0.5, connfactor = 0.25
#
# The columns have the following meaning: 
# time se[Mean] 
0.0 NaN 
1.001616958347866 NaN 
2.0016169583478662 1.0 
3.0016169583478662 1.0 
4.001616958347866 1.0 
5.001616958347866 1.0 
6.001616958347866 1.0 
7.001616958347866 1.0 
8.001616958347867 1.0 
9.001616958347867 1.0 
10.001616958347867 1.0 
11.001616958347867 1.0 
12.001616958347867 1.0 
13.001616958347867 1.0 
14.001616958347867 1.0 
15.001616958347867 1.0 
16.001616958347867 1.0 
17.001616958347867 1.0 
18.001616958347867 1.0 
19.001616958347867 1.0 
20.001616958347867 1.0 
21.001616958347867 1.0 
22.001616958347867 1.0 
#####################################################################
# End of data export. Simulation finished at: 2017-05-24T15:08+0000 #
#####################################################################
