#####################################################################
# Alchemist log file - simulation started at: 2017-05-23T11:10+0000 #
#####################################################################
# random = 5.0, targets = 10.0, density = 10.026386447354522, gridShift = 0.0, perturbation = 0.0, connfactor = 2.0
#
# The columns have the following meaning: 
# time se[Mean] 
0.0 NaN 
1.0031365367908396 NaN 
2.00313653679084 1.0288292011019284 
3.00313653679084 1.0537982093663911 
4.00313653679084 1.0890689087848182 
5.00313653679084 1.1349459876543209 
6.00313653679084 1.1610361825323947 
7.00313653679084 1.2129878328741963 
8.00313653679084 1.2083233853688402 
9.00313653679084 1.2252777140087743 
10.00313653679084 1.1868989771451894 
11.00313653679084 1.2125010840730537 
12.00313653679084 1.224031476379961 
13.00313653679084 1.2257210998877668 
14.00313653679084 1.22710342056933 
15.00313653679084 1.19996212121212 
16.00313653679084 1.195675760126517 
17.00313653679084 1.1556723166003475 
18.00313653679084 1.1215014411794721 
19.00313653679084 1.0750577747168653 
20.00313653679084 1.0520399066421797 
21.00313653679084 1.0168097005407615 
22.00313653679084 0.9985864325068871 
23.00313653679084 0.9775269742883379 
24.00313653679084 0.9679990562187533 
25.00313653679084 0.9589393939393939 
26.00313653679084 0.9513318156310581 
27.00313653679084 0.9573796041220284 
28.00313653679084 0.9394103917967555 
29.00313653679084 0.9539242169166412 
30.00313653679084 0.951592503315988 
31.00313653679084 0.958501492194674 
32.00313653679084 0.9600647255382105 
33.00313653679084 0.9422174395469851 
34.00313653679084 0.9449315758596062 
35.00313653679084 0.9328707529843894 
36.00313653679084 0.9131668962350781 
37.00313653679084 0.9126066217732887 
38.00313653679084 0.9035773773084378 
39.00313653679084 0.8850616008570558 
40.00313653679084 0.8737587363534332 
41.00313653679084 0.8583272752780328 
42.00313653679084 0.848967324762779 
43.00313653679084 0.8179390495867769 
44.00313653679084 0.8221610677481893 
45.00313653679084 0.8074510891745739 
46.00313653679084 0.7972562748699111 
47.00313653679084 0.7974314483216002 
48.00313653679084 0.7822600372410984 
49.00313653679084 0.7757948806244261 
50.00313653679084 0.7629775660646876 
51.00313653679084 0.757357348739925 
52.00313653679084 0.7479158376696257 
53.00313653679084 0.7349616748290986 
54.00313653679084 0.7278466483011932 
55.00313653679084 0.7198118814406689 
56.00313653679084 0.7123225308641981 
57.00313653679084 0.7052174523007866 
58.00313653679084 0.6991216457504332 
59.00313653679084 0.6878206305479039 
60.00313653679084 0.6774646082032442 
61.00313653679084 0.6746753520048967 
62.00313653679084 0.669951726864605 
63.00313653679084 0.6625485282114074 
64.00313653679083 0.6573676155494332 
65.00313653679083 0.6508145214774004 
66.00313653679083 0.6452358177736961 
67.00313653679083 0.6377928910315279 
68.00313653679083 0.6301454570962148 
69.00313653679083 0.6239741480461172 
70.00313653679083 0.6177577543107852 
71.00313653679083 0.6109835093357815 
72.00313653679083 0.6059319839812254 
73.00313653679083 0.5999572109988767 
74.00313653679083 0.5951707096214678 
75.00313653679083 0.5883566090194869 
76.00313653679083 0.5824202249770433 
77.00313653679083 0.576492896133048 
78.00313653679083 0.5704378379757163 
79.00313653679083 0.565799216916641 
80.00313653679083 0.5600229568411378 
81.00313653679083 0.5550208524640345 
82.00313653679083 0.5492059483726149 
83.00313653679083 0.5438492245689209 
84.00313653679083 0.5401165059687791 
85.00313653679083 0.5351793822058969 
86.00313653679083 0.5312656871747783 
87.00313653679083 0.5270632460973369 
88.00313653679083 0.5224567008468525 
89.00313653679083 0.5190211458014488 
90.00313653679083 0.5153628456279974 
91.00313653679083 0.5116068513416997 
92.00313653679083 0.5077901489643911 
93.00313653679083 0.504428693500663 
94.00313653679083 0.4990925033159881 
95.00313653679083 0.49507907356392195 
96.00313653679083 0.49089467911437584 
97.00313653679083 0.4850969288848076 
98.00313653679083 0.48211451637588 
99.00313653679083 0.47601016477910396 
100.00313653679083 0.46987558667482887 
101.00313653679083 0.46857068156310555 
102.00313653679083 0.46277873431282507 
103.00313653679083 0.45655207376798274 
104.00313653679083 0.4565544969901029 
105.00313653679083 0.44496881695745355 
106.00313653679083 0.4404180695847357 
107.00313653679083 0.4367047367615547 
108.00313653679083 0.42189546985001547 
109.00313653679083 0.4189871569227625 
110.00313653679083 0.40762364809713314 
111.00313653679083 0.3991036628915417 
112.00313653679083 0.39356092490562167 
113.00313653679083 0.38348759055198384 
114.00313653679083 0.37490230588715395 
115.00313653679083 0.3655100244872976 
116.00313653679083 0.3564559101112134 
117.00313653679083 0.34849683705744294 
118.00313653679083 0.3398773722069181 
119.00313653679083 0.3485411565146411 
120.00313653679083 0.33768218804203665 
121.00313653679083 0.33215685899398034 
122.00313653679083 0.3546313513927151 
123.00313653679083 0.3151081522293644 
124.00313653679083 0.32080910111213135 
125.00313653679083 0.3281857718600142 
126.00313653679083 0.2817470793796548 
127.00313653679083 0.2740543694520969 
128.00313653679083 0.2562857744107746 
129.00313653679083 0.33396349862258967 
130.00313653679083 0.8404952938475653 
131.00313653679083 0.8564691740638725 
132.00313653679083 1.1976534282216111 
133.00313653679083 2.03699061320273 
134.00313653679083 1.2304161565146434 
135.00313653679083 2.0197331267217593 
136.00313653679083 2.0653036042240647 
137.00313653679083 1.3881156259565348 
138.00313653679083 1.4582614018977647 
139.00313653679083 0.8349305555555562 
140.00313653679083 0.6520951943679218 
141.00313653679083 0.6860028951127446 
142.00313653679083 0.4505436945209675 
143.00313653679083 0.31838339200081645 
144.00313653679083 0.43386650596877957 
145.00313653679083 0.27606672788490944 
146.00313653679083 0.32610709366391144 
147.00313653679083 0.3041835654525047 
148.00313653679083 0.2897496428935827 
149.00313653679083 0.2896286730945827 
150.00313653679083 0.27958792470156135 
151.00313653679083 0.28390393837363487 
152.00313653679083 0.35439062340577526 
153.00313653679083 0.2649343816957451 
154.00313653679083 0.29123584328129726 
155.00313653679083 0.25921647025813727 
156.00313653679083 0.16779754616875858 
157.00313653679083 0.2532147229874494 
158.00313653679083 0.3128296857463511 
159.00313653679083 0.33582077083971046 
160.00313653679083 0.2723120089786759 
161.00313653679083 0.1915201892663994 
162.00313653679083 0.32935669829609404 
163.00313653679083 0.1298423630241828 
164.00313653679083 0.18678891184572924 
165.00313653679083 0.21319629374553287 
166.00313653679083 0.12450783083358849 
167.00313653679083 0.06566198602183554 
168.00313653679083 0.037831981430465955 
169.00313653679083 0.010022064075094343 
170.00313653679083 0.009999999999999964 
171.00313653679083 0.009999999999999964 
172.00313653679083 0.009999999999999964 
173.00313653679083 0.009999999999999964 
174.00313653679083 0.009999999999999964 
175.00313653679083 0.009999999999999964 
176.00313653679083 0.009999999999999964 
177.00313653679083 0.009999999999999964 
178.00313653679083 0.009999999999999964 
179.00313653679083 0.009999999999999964 
180.00313653679083 0.009999999999999964 
181.00313653679083 0.009999999999999964 
182.00313653679083 0.009999999999999964 
183.00313653679083 0.009999999999999964 
184.00313653679083 0.009999999999999964 
185.00313653679083 0.009999999999999964 
186.00313653679083 0.009999999999999964 
187.00313653679083 0.009999999999999964 
188.00313653679083 0.009999999999999964 
189.00313653679083 0.009999999999999964 
190.00313653679083 0.009999999999999964 
191.00313653679083 0.009999999999999964 
192.00313653679083 0.009999999999999964 
193.00313653679083 0.009999999999999964 
194.00313653679083 0.009999999999999964 
195.00313653679083 0.009999999999999964 
196.00313653679083 0.009999999999999964 
197.00313653679083 0.009999999999999964 
198.00313653679083 0.009999999999999964 
199.00313653679083 0.009999999999999964 
200.00313653679083 0.009999999999999964 
201.00313653679083 0.009999999999999964 
202.00313653679083 0.009999999999999964 
203.00313653679083 0.009999999999999964 
204.00313653679083 0.009999999999999964 
205.00313653679083 0.009999999999999964 
206.00313653679083 0.009999999999999964 
207.00313653679083 0.009999999999999964 
208.00313653679083 0.009999999999999964 
209.00313653679083 0.009999999999999964 
210.00313653679083 0.009999999999999964 
211.00313653679083 0.009999999999999964 
212.00313653679083 0.009999999999999964 
213.00313653679083 0.009999999999999964 
214.00313653679083 0.009999999999999964 
215.00313653679083 0.009999999999999964 
216.00313653679083 0.009999999999999964 
217.00313653679083 0.009999999999999964 
218.00313653679083 0.009999999999999964 
219.00313653679083 0.009999999999999964 
220.00313653679083 0.009999999999999964 
221.00313653679083 0.009999999999999964 
222.00313653679083 0.009999999999999964 
223.00313653679083 0.009999999999999964 
224.00313653679083 0.009999999999999964 
225.00313653679083 0.009999999999999964 
226.00313653679083 0.009999999999999964 
227.00313653679083 0.009999999999999964 
228.00313653679083 0.009999999999999964 
229.00313653679083 0.009999999999999964 
230.00313653679083 0.009999999999999964 
231.00313653679083 0.009999999999999964 
232.00313653679083 0.009999999999999964 
233.00313653679083 0.009999999999999964 
234.00313653679083 0.009999999999999964 
235.00313653679083 0.009999999999999964 
236.00313653679083 0.009999999999999964 
237.00313653679083 0.009999999999999964 
238.00313653679083 0.009999999999999964 
239.00313653679083 0.009999999999999964 
240.00313653679083 0.009999999999999964 
241.00313653679083 0.009999999999999964 
242.00313653679083 0.009999999999999964 
243.00313653679083 0.009999999999999964 
244.00313653679083 0.009999999999999964 
#####################################################################
# End of data export. Simulation finished at: 2017-05-23T11:17+0000 #
#####################################################################
