#####################################################################
# Alchemist log file - simulation started at: 2017-05-25T07:29+0000 #
#####################################################################
# random = 17.0, targets = 10.0, density = 0.3174802103936399, gridShift = 0.0, perturbation = 0.0, connfactor = 0.1
#
# The columns have the following meaning: 
# time se[Mean] 
0.0 NaN 
1.0045647570182237 NaN 
2.0045647570182235 1.0 
3.0045647570182235 1.0 
4.0045647570182235 1.0 
5.0045647570182235 1.0 
6.0045647570182235 1.0 
7.0045647570182235 1.0 
8.004564757018223 1.0 
9.004564757018223 1.0 
10.004564757018223 1.0 
11.004564757018223 1.0 
12.004564757018223 1.0 
#####################################################################
# End of data export. Simulation finished at: 2017-05-25T07:29+0000 #
#####################################################################
