#####################################################################
# Alchemist log file - simulation started at: 2017-05-19T17:42+0000 #
#####################################################################
# random = 0.0, targets = 1.0, density = 2.519842099789746, gridShift = 1.0, perturbation = 0.0, connfactor = 0.5
#
# The columns have the following meaning: 
# time se[Mean] 
0.0 NaN 
1.0011337332612453 NaN 
2.0011337332612453 1.0 
3.0011337332612453 1.0 
4.001133733261245 1.0 
5.001133733261245 1.0 
6.001133733261245 1.0 
7.001133733261245 1.0 
8.001133733261245 1.0 
9.001133733261245 1.0 
10.001133733261245 1.0 
11.001133733261245 1.0 
12.001133733261245 1.0 
13.001133733261245 1.0 
14.001133733261245 1.0 
15.001133733261245 1.0 
16.001133733261245 1.0 
17.001133733261245 1.0 
18.001133733261245 1.0 
19.001133733261245 1.0 
20.001133733261245 1.0 
21.001133733261245 1.0 
22.001133733261245 1.0 
23.001133733261245 1.0 
24.001133733261245 1.0 
25.001133733261245 1.0 
26.001133733261245 1.0 
27.001133733261245 1.0 
28.001133733261245 1.0 
29.001133733261245 1.0 
30.001133733261245 1.0 
31.001133733261245 1.0 
32.00113373326124 1.0 
33.00113373326124 1.0 
#####################################################################
# End of data export. Simulation finished at: 2017-05-19T17:42+0000 #
#####################################################################
