#####################################################################
# Alchemist log file - simulation started at: 2017-05-25T04:01+0000 #
#####################################################################
# random = 16.0, targets = 100.0, density = 14.160781367816199, gridShift = 1.0, perturbation = 0.5, connfactor = 0.25
#
# The columns have the following meaning: 
# time se[Mean] 
0.0 NaN 
1.000419502192421 NaN 
2.000419502192421 1.0 
3.000419502192421 0.9999605158730158 
4.000419502192421 0.9998026124338625 
5.000419502192421 0.9995460813492063 
6.000419502192421 0.9988550595238095 
7.000419502192421 0.9979545138888889 
8.000419502192422 0.9970666666666667 
9.000419502192422 0.9960159391534391 
10.000419502192422 0.9941938822751323 
11.000419502192422 0.9930714781746032 
12.000419502192422 0.9913982308201058 
13.000419502192422 0.9895479662698413 
14.000419502192422 0.9883279100529101 
15.000419502192422 0.9870624173280423 
16.000419502192422 0.9864476355820105 
17.000419502192422 0.9860422619047619 
18.000419502192422 0.9853700727513227 
19.000419502192422 0.9850398148148148 
20.000419502192422 0.9844630621693121 
21.000419502192422 0.9832628306878307 
22.000419502192422 0.9814389384920635 
23.000419502192422 0.9798927083333333 
24.000419502192422 0.9751569940476191 
25.000419502192422 0.9722811507936507 
26.000419502192422 0.967558201058201 
27.000419502192422 0.9626480324074075 
28.000419502192422 0.957674222883598 
29.000419502192422 0.953242476851852 
30.000419502192422 0.9478014384920634 
31.000419502192422 0.9432034226190475 
32.00041950219242 0.9387387566137567 
33.00041950219242 0.9312548115079363 
34.00041950219242 0.9259141865079367 
35.00041950219242 0.9180167824074077 
36.00041950219242 0.9133598379629625 
37.00041950219242 0.9090864748677252 
38.00041950219242 0.9075897982804235 
39.00041950219242 0.9040698247354495 
40.00041950219242 0.902854232804233 
41.00041950219242 0.9007616732804236 
42.00041950219242 0.8966261739417988 
43.00041950219242 0.8946010912698409 
44.00041950219242 0.8936009259259261 
45.00041950219242 0.8888359126984126 
46.00041950219242 0.884946577380952 
47.00041950219242 0.8805084656084656 
48.00041950219242 0.8752440476190476 
49.00041950219242 0.8738631779100531 
50.00041950219242 0.8688973710317462 
51.00041950219242 0.8683249173280426 
52.00041950219242 0.8659816798941802 
53.00041950219242 0.8589369543650794 
54.00041950219242 0.8589364252645505 
55.00041950219242 0.8558986276455025 
56.00041950219242 0.851805224867725 
57.00041950219242 0.8495462301587299 
58.00041950219242 0.8443097056878308 
59.00041950219242 0.8415211309523808 
60.00041950219242 0.8344129133597887 
61.00041950219242 0.8353219742063496 
62.00041950219242 0.8298345568783071 
63.00041950219242 0.8274487433862433 
64.00041950219241 0.8278034060846559 
65.00041950219241 0.8222257605820108 
66.00041950219241 0.8189028935185182 
67.00041950219241 0.8176373346560846 
68.00041950219241 0.8120837632275133 
69.00041950219241 0.816559060846561 
70.00041950219241 0.8186287202380953 
71.00041950219241 0.8162963458994704 
72.00041950219241 0.8190187665343917 
73.00041950219241 0.8149782076719578 
74.00041950219241 0.8149458167989422 
75.00041950219241 0.8160675099206346 
76.00041950219241 0.8170375661375661 
77.00041950219241 0.8110353670634922 
78.00041950219241 0.8089290839947092 
79.00041950219241 0.8116392526455027 
80.00041950219241 0.804740476190476 
81.00041950219241 0.8070188988095239 
82.00041950219241 0.8024750496031745 
83.00041950219241 0.7956474867724868 
84.00041950219241 0.79708642526455 
85.00041950219241 0.7910216435185184 
86.00041950219241 0.7901596560846558 
87.00041950219241 0.7886542328042327 
88.00041950219241 0.7839194444444443 
89.00041950219241 0.7829827876984126 
90.00041950219241 0.7824558035714285 
91.00041950219241 0.7764982969576721 
92.00041950219241 0.7738090443121693 
93.00041950219241 0.7767188161375661 
94.00041950219241 0.7711630125661374 
95.00041950219241 0.771832919973545 
96.00041950219241 0.7714306547619049 
97.00041950219241 0.7679438492063492 
98.00041950219241 0.7655316468253966 
99.00041950219241 0.7616267857142857 
100.00041950219241 0.7571514715608466 
101.00041950219241 0.7555318948412698 
102.00041950219241 0.7620997023809523 
103.00041950219241 0.7656889384920634 
104.00041950219241 0.7756391369047618 
105.00041950219241 0.7788008597883598 
106.00041950219241 0.7816862599206348 
107.00041950219241 0.8029219742063491 
108.00041950219241 0.8072309358465609 
109.00041950219241 0.8359583664021161 
110.00041950219241 0.804974289021164 
111.00041950219241 0.8357271494708995 
112.00041950219241 0.8181444444444445 
113.00041950219241 0.8262893187830688 
114.00041950219241 0.8385614252645502 
115.00041950219241 0.8566258101851851 
116.00041950219241 0.8656760085978837 
117.00041950219241 0.883182142857143 
118.00041950219241 0.8142010747354498 
119.00041950219241 0.8372434193121694 
120.00041950219241 0.795640128968254 
121.00041950219241 0.778136326058201 
122.00041950219241 0.8329771990740743 
123.00041950219241 0.7643291005291004 
124.00041950219241 0.7558078703703704 
125.00041950219241 0.7471234292328043 
126.00041950219241 0.7858703373015872 
127.00041950219241 0.7429480985449736 
128.00041950219241 0.7435127976190478 
129.00041950219241 0.7621806547619046 
130.00041950219241 0.6911917824074075 
131.00041950219241 0.7533562996031749 
132.00041950219241 0.7477179728835982 
133.00041950219241 0.7279183201058204 
134.00041950219241 0.7440020667989414 
135.00041950219241 0.7047454034391535 
136.00041950219241 0.7399459160052909 
137.00041950219241 0.716975016534392 
138.00041950219241 0.7022913855820107 
139.00041950219241 0.7071897817460313 
140.00041950219241 0.7498494212962961 
141.00041950219241 0.6966761904761901 
142.00041950219241 0.7104012566137562 
143.00041950219241 0.7453346726190472 
144.00041950219241 0.6682257771164023 
145.00041950219241 0.7040514054232799 
146.00041950219241 0.714024007936508 
147.00041950219241 0.6820097387566137 
148.00041950219241 0.6988371693121701 
149.00041950219241 0.6868569940476195 
150.00041950219241 0.6259889880952377 
151.00041950219241 0.556904646164021 
152.00041950219241 0.5512028604497352 
153.00041950219241 0.5648042989417988 
154.00041950219241 0.5290348214285718 
155.00041950219241 0.527558432539683 
156.00041950219241 0.5203422288359785 
157.00041950219241 0.5421776289682536 
158.00041950219241 0.5229821097883596 
159.00041950219241 0.5130977513227521 
160.00041950219241 0.5109523148148148 
161.00041950219241 0.4985212136243386 
162.00041950219241 0.5099815145502647 
163.00041950219241 0.49979250992063506 
164.00041950219241 0.49029434523809534 
165.00041950219241 0.48840570436507913 
166.00041950219241 0.47657162698412703 
167.00041950219241 0.4867842592592593 
168.00041950219241 0.480377843915344 
169.00041950219241 0.47459327050264544 
170.00041950219241 0.4759803240740741 
171.00041950219241 0.48443885582010576 
172.00041950219241 0.4726878306878307 
173.00041950219241 0.48013576388888884 
174.00041950219241 0.4946439484126986 
175.00041950219241 0.46863956679894164 
176.00041950219241 0.4770509920634924 
177.00041950219241 0.47617705026455054 
178.00041950219241 0.4646207175925927 
179.00041950219241 0.4684451719576731 
180.00041950219241 0.47294813161375626 
181.00041950219241 0.44859816468254 
182.00041950219241 0.43176413690476184 
183.00041950219241 0.4291529927248676 
184.00041950219241 0.4281249834656085 
185.00041950219241 0.42662099867724873 
186.00041950219241 0.4248735615079365 
187.00041950219241 0.4265514054232804 
188.00041950219241 0.4281374338624338 
189.00041950219241 0.4282894841269841 
190.00041950219241 0.4268571428571429 
191.00041950219241 0.42375634920634925 
192.00041950219241 0.42786137566137566 
193.00041950219241 0.4257163359788359 
194.00041950219241 0.42548346560846567 
195.00041950219241 0.42810747354497347 
196.00041950219241 0.4288911375661376 
197.00041950219241 0.4294830026455026 
198.00041950219241 0.4281871031746032 
199.00041950219241 0.4285930555555554 
200.00041950219241 0.4287728174603175 
201.00041950219241 0.4287201058201059 
202.00041950219241 0.42895132275132286 
203.00041950219241 0.42995284391534383 
204.00041950219241 0.43027261904761904 
205.00041950219241 0.43085271164021166 
206.00041950219241 0.43155958994709004 
207.00041950219241 0.4328804232804232 
208.00041950219241 0.43389193121693115 
209.00041950219241 0.43434054232804237 
210.00041950219241 0.43479814814814816 
211.00041950219241 0.43501335978835975 
212.00041950219241 0.43526421957671957 
213.00041950219241 0.4352380952380952 
214.00041950219241 0.43526355820105816 
215.00041950219241 0.4352979497354497 
216.00041950219241 0.435340873015873 
217.00041950219241 0.4353671296296296 
218.00041950219241 0.43540138888888885 
219.00041950219241 0.4354791005291005 
220.00041950219241 0.43552228835978835 
221.00041950219241 0.43555681216931214 
222.00041950219241 0.4355741402116402 
223.00041950219241 0.435591335978836 
224.00041950219241 0.4356 
225.00041950219241 0.4356 
226.00041950219241 0.4356 
227.00041950219241 0.4356 
228.00041950219241 0.4356 
229.00041950219241 0.4356 
230.00041950219241 0.4356 
231.00041950219241 0.4356 
232.00041950219241 0.4356 
233.00041950219241 0.4356 
234.00041950219241 0.4356 
235.00041950219241 0.4356 
236.00041950219241 0.4356 
237.00041950219241 0.4356 
238.00041950219241 0.4356 
239.00041950219241 0.4356 
240.00041950219241 0.4356 
241.00041950219241 0.4356 
242.00041950219241 0.4356 
243.00041950219241 0.4356 
244.00041950219241 0.4356 
245.00041950219241 0.4356 
246.00041950219241 0.4356 
247.00041950219241 0.4356 
248.00041950219241 0.4356 
249.00041950219241 0.4356 
250.00041950219241 0.4356 
251.00041950219241 0.4356 
252.00041950219241 0.4356 
253.00041950219241 0.4356 
254.00041950219241 0.4356 
255.00041950219241 0.4356 
256.0004195021924 0.4356 
257.0004195021924 0.4356 
258.0004195021924 0.4356 
259.0004195021924 0.4356 
260.0004195021924 0.4356 
261.0004195021924 0.4356 
262.0004195021924 0.4356 
263.0004195021924 0.4356 
264.0004195021924 0.4356 
265.0004195021924 0.4356 
266.0004195021924 0.4356 
267.0004195021924 0.4356 
268.0004195021924 0.4356 
269.0004195021924 0.4356 
270.0004195021924 0.4356 
271.0004195021924 0.4356 
272.0004195021924 0.4356 
273.0004195021924 0.4356 
274.0004195021924 0.4356 
275.0004195021924 0.4356 
276.0004195021924 0.4356 
277.0004195021924 0.4356 
278.0004195021924 0.4356 
279.0004195021924 0.4356 
280.0004195021924 0.4356 
281.0004195021924 0.4356 
282.0004195021924 0.4356 
283.0004195021924 0.4356 
284.0004195021924 0.4356 
285.0004195021924 0.4356 
286.0004195021924 0.4356 
287.0004195021924 0.4356 
288.0004195021924 0.4356 
289.0004195021924 0.4356 
290.0004195021924 0.4356 
291.0004195021924 0.4356 
292.0004195021924 0.4356 
293.0004195021924 0.4356 
294.0004195021924 0.4356 
295.0004195021924 0.4356 
296.0004195021924 0.4356 
297.0004195021924 0.4356 
298.0004195021924 0.4356 
299.0004195021924 0.4356 
300.0004195021924 0.4356 
301.0004195021924 0.4356 
302.0004195021924 0.4356 
303.0004195021924 0.4356 
304.0004195021924 0.4356 
305.0004195021924 0.4356 
#####################################################################
# End of data export. Simulation finished at: 2017-05-25T04:05+0000 #
#####################################################################
