#####################################################################
# Alchemist log file - simulation started at: 2017-05-25T16:41+0000 #
#####################################################################
# random = 18.0, targets = 31.622776601683793, density = 0.07978946395100113, gridShift = 1.0, perturbation = 0.0, connfactor = 0.75
#
# The columns have the following meaning: 
# time se[Mean] 
0.0 NaN 
1.0067713218599703 NaN 
2.0067713218599703 1.052996442562694 
3.0067713218599703 1.1121417830579192 
4.00677132185997 1.1207107828227003 
5.00677132185997 1.1200236533890864 
6.00677132185997 0.9611769462085854 
7.00677132185997 1.0072430199690343 
8.00677132185997 0.8351129535003681 
9.00677132185997 0.6205471494272117 
10.00677132185997 0.5767555472421332 
11.00677132185997 0.38733095846452614 
12.00677132185997 0.2737179455520557 
13.00677132185997 0.2527619453168368 
14.00677132185997 0.2299423266910059 
15.00677132185997 0.1902514589472454 
16.006771321859972 0.20892107757307637 
17.006771321859972 0.2153378732029194 
18.006771321859972 0.20895492006766112 
19.006771321859972 0.21382559554275102 
20.006771321859972 0.21382559554275102 
21.006771321859972 0.21382559554275102 
22.006771321859972 0.21382559554275102 
23.006771321859972 0.21382559554275102 
24.006771321859972 0.21382559554275102 
25.006771321859972 0.21382559554275102 
#####################################################################
# End of data export. Simulation finished at: 2017-05-25T16:41+0000 #
#####################################################################
