#####################################################################
# Alchemist log file - simulation started at: 2017-05-25T08:03+0000 #
#####################################################################
# random = 8.0, targets = 1.0, density = 1.7841466528270753, gridShift = 0.0, perturbation = 0.0, connfactor = 2.0
#
# The columns have the following meaning: 
# time se[Mean] 
0.0 NaN 
1.003444677401916 NaN 
2.003444677401916 1.038888888888889 
3.003444677401916 1.1271604938271602 
4.003444677401916 1.6736111111111085 
5.003444677401916 3.8617283950617245 
6.003444677401916 2.2987654320987625 
7.003444677401916 4.067283950617275 
8.003444677401916 5.923611111111126 
9.003444677401916 4.0818518518518445 
10.003444677401916 5.455956790123461 
11.003444677401916 5.413055555555561 
12.003444677401916 4.812222222222228 
13.003444677401916 5.014567901234574 
14.003444677401916 5.416697530864191 
15.003444677401916 3.7787345679012354 
16.003444677401916 4.222438271604939 
17.003444677401916 4.002592592592598 
18.003444677401916 2.0346604938271584 
19.003444677401916 1.7462962962962978 
20.003444677401916 1.0032716049382713 
21.003444677401916 0.9103703703703702 
22.003444677401916 0.8260493827160491 
23.003444677401916 0.7932407407407406 
24.003444677401916 0.7638580246913578 
25.003444677401916 0.620925925925926 
26.003444677401916 0.6727777777777779 
27.003444677401916 0.586481481481481 
28.003444677401916 0.6427777777777773 
29.003444677401916 0.6224074074074073 
30.003444677401916 0.5773456790123462 
31.003444677401916 0.5717901234567897 
32.003444677401916 0.5683333333333331 
33.003444677401916 0.5874691358024691 
34.003444677401916 0.5945679012345677 
35.003444677401916 0.62787037037037 
36.003444677401916 0.6572222222222218 
37.003444677401916 0.6916975308641985 
38.003444677401916 0.7169753086419748 
39.003444677401916 0.7522530864197535 
40.003444677401916 0.7944135802469134 
41.003444677401916 0.8110802469135805 
42.003444677401916 0.8418827160493825 
43.003444677401916 0.8704012345679011 
44.003444677401916 0.8976851851851851 
45.003444677401916 0.9121604938271606 
46.003444677401916 0.928672839506173 
47.003444677401916 0.9419753086419753 
48.003444677401916 0.9441358024691358 
49.003444677401916 0.9422839506172838 
50.003444677401916 0.9289506172839506 
51.003444677401916 0.9123765432098764 
52.003444677401916 0.8851234567901233 
53.003444677401916 0.8711419753086418 
54.003444677401916 0.8452777777777779 
55.003444677401916 0.8192283950617285 
56.003444677401916 0.7866666666666666 
57.003444677401916 1.703703703703704 
58.003444677401916 3.552222222222224 
59.003444677401916 2.5701851851851854 
60.003444677401916 1.5971296296296302 
61.003444677401916 2.5194135802469146 
62.003444677401916 2.4521604938271637 
63.003444677401916 2.398641975308645 
64.00344467740192 2.347222222222223 
65.00344467740192 1.3475617283950616 
66.00344467740192 2.245833333333335 
67.00344467740192 1.268549382716049 
68.00344467740192 3.112993827160497 
69.00344467740192 2.1589506172839537 
70.00344467740192 2.124722222222223 
71.00344467740192 2.1254320987654336 
72.00344467740192 2.0800925925925946 
73.00344467740192 2.056080246913583 
74.00344467740192 2.0286111111111143 
75.00344467740192 2.0023765432098797 
76.00344467740192 1.9835802469135801 
77.00344467740192 1.0208641975308625 
78.00344467740192 2.896141975308646 
79.00344467740192 0.9970987654321002 
80.00344467740192 0.028827160493827112 
81.00344467740192 0.0450617283950617 
82.00344467740192 0.015648148148148192 
83.00344467740192 0.00237654320987654 
84.00344467740192 5.555555555555573E-4 
85.00344467740192 8.333333333333371E-4 
86.00344467740192 2.7777777777777897E-4 
87.00344467740192 1.9721522630525295E-31 
88.00344467740192 1.9721522630525295E-31 
89.00344467740192 1.9721522630525295E-31 
90.00344467740192 1.9721522630525295E-31 
91.00344467740192 1.9721522630525295E-31 
92.00344467740192 1.9721522630525295E-31 
93.00344467740192 1.9721522630525295E-31 
94.00344467740192 1.9721522630525295E-31 
95.00344467740192 1.9721522630525295E-31 
96.00344467740192 1.9721522630525295E-31 
97.00344467740192 1.9721522630525295E-31 
98.00344467740192 1.9721522630525295E-31 
99.00344467740192 1.9721522630525295E-31 
100.00344467740192 1.9721522630525295E-31 
101.00344467740192 1.9721522630525295E-31 
102.00344467740192 1.9721522630525295E-31 
103.00344467740192 1.9721522630525295E-31 
104.00344467740192 1.9721522630525295E-31 
105.00344467740192 1.9721522630525295E-31 
106.00344467740192 1.9721522630525295E-31 
107.00344467740192 1.9721522630525295E-31 
108.00344467740192 1.9721522630525295E-31 
109.00344467740192 1.9721522630525295E-31 
110.00344467740192 1.9721522630525295E-31 
111.00344467740192 1.9721522630525295E-31 
112.00344467740192 1.9721522630525295E-31 
113.00344467740192 1.9721522630525295E-31 
114.00344467740192 1.9721522630525295E-31 
115.00344467740192 1.9721522630525295E-31 
#####################################################################
# End of data export. Simulation finished at: 2017-05-25T08:04+0000 #
#####################################################################
