#####################################################################
# Alchemist log file - simulation started at: 2017-05-21T15:20+0000 #
#####################################################################
# random = 2.0, targets = 100.0, density = 1.7841466528270753, gridShift = 1.0, perturbation = 0.5, connfactor = 1.5
#
# The columns have the following meaning: 
# time se[Mean] 
0.0 NaN 
1.0021051854459069 NaN 
2.002105185445907 1.0365409598214286 
3.002105185445907 1.0550774925595239 
4.002105185445907 1.08096875 
5.002105185445907 1.1408129588293652 
6.002105185445907 1.1445208705357144 
7.002105185445907 1.2155060143849206 
8.002105185445906 1.2417963169642858 
9.002105185445906 1.2526145709325398 
10.002105185445906 1.2422505332341272 
11.002105185445906 1.2690652405753968 
12.002105185445906 1.2572952287946428 
13.002105185445906 1.273121552579365 
14.002105185445906 1.3688937810019843 
15.002105185445906 1.394293734499008 
16.002105185445906 1.3475804749503968 
17.002105185445906 1.511831770833333 
18.002105185445906 1.5390026475694447 
19.002105185445906 1.4949736576140875 
20.002105185445906 1.5493881386408732 
21.002105185445906 1.532350443328373 
22.002105185445906 1.4481944227430559 
23.002105185445906 1.4943602616567462 
24.002105185445906 1.4121936259920638 
25.002105185445906 1.4093964781746033 
26.002105185445906 1.3846799231150795 
27.002105185445906 1.3337502480158732 
28.002105185445906 1.3339517361111113 
29.002105185445906 1.323886185515873 
30.002105185445906 1.324665091765873 
31.002105185445906 1.353589670138889 
32.002105185445906 1.321239099702381 
33.002105185445906 1.3276528025793652 
34.002105185445906 1.3922315104166667 
35.002105185445906 1.3858560515873015 
36.002105185445906 1.7327509176587306 
37.002105185445906 1.8076993799603176 
38.002105185445906 1.7829206101190476 
39.002105185445906 1.9247800223214289 
40.002105185445906 2.0446838541666663 
41.002105185445906 1.95548736359127 
42.002105185445906 2.331949156746032 
43.002105185445906 2.119083804563492 
44.002105185445906 2.2586810019841272 
45.002105185445906 2.3151828249007935 
46.002105185445906 2.411037028769842 
47.002105185445906 2.464912264384921 
48.002105185445906 2.691903807043651 
49.002105185445906 2.834960974702381 
50.002105185445906 2.9096691592261905 
51.002105185445906 2.9996632068452387 
52.002105185445906 3.3056058779761908 
53.002105185445906 3.0897931423611116 
54.002105185445906 3.2778623883928577 
55.002105185445906 3.266479427083334 
56.002105185445906 3.3429778397817467 
57.002105185445906 3.2928599206349216 
58.002105185445906 4.390909226190478 
59.002105185445906 4.7192038194444486 
60.002105185445906 4.48700719246032 
61.002105185445906 5.1685019097222265 
62.002105185445906 5.566589037698414 
63.002105185445906 5.097139285714289 
64.00210518544591 6.611828608630957 
65.00210518544591 5.609075979662701 
66.00210518544591 5.840040773809527 
67.00210518544591 6.109722197420639 
68.00210518544591 6.011501388888893 
69.00210518544591 5.98221781994048 
70.00210518544591 6.670339384920639 
71.00210518544591 6.170341034226194 
72.00210518544591 6.281819915674608 
73.00210518544591 5.505976636904764 
74.00210518544591 6.40320414186508 
75.00210518544591 5.030600905257939 
76.00210518544591 5.962913578869047 
77.00210518544591 4.557148896329366 
78.00210518544591 4.777305071924604 
79.00210518544591 4.037671626984127 
80.00210518544591 3.071377678571429 
81.00210518544591 2.829176103670635 
82.00210518544591 2.8290460689484127 
83.00210518544591 2.828765054563492 
84.00210518544591 2.8266354538690477 
85.00210518544591 2.8261328000992063 
86.00210518544591 2.824179625496032 
87.00210518544591 2.824103447420635 
88.00210518544591 2.822976847718254 
89.00210518544591 2.8228262524801586 
90.00210518544591 2.8227256076388887 
91.00210518544591 2.822475111607143 
92.00210518544591 2.8224 
93.00210518544591 2.8224 
94.00210518544591 2.8224 
95.00210518544591 2.8224 
96.00210518544591 2.8224 
97.00210518544591 2.8224 
98.00210518544591 2.8224 
99.00210518544591 2.8224 
100.00210518544591 2.8224 
101.00210518544591 2.8224 
102.00210518544591 2.8224 
103.00210518544591 2.8224 
104.00210518544591 2.8224 
105.00210518544591 2.8224 
106.00210518544591 2.8224 
107.00210518544591 2.8224 
108.00210518544591 2.8224 
109.00210518544591 2.8224 
110.00210518544591 2.8224 
111.00210518544591 2.8224 
112.00210518544591 2.8224 
113.00210518544591 2.8224 
114.00210518544591 2.8224 
115.00210518544591 2.8224 
116.00210518544591 2.8224 
117.00210518544591 2.8224 
118.00210518544591 2.8224 
119.00210518544591 2.8224 
120.00210518544591 2.8224 
#####################################################################
# End of data export. Simulation finished at: 2017-05-21T15:27+0000 #
#####################################################################
