#####################################################################
# Alchemist log file - simulation started at: 2017-05-25T15:13+0000 #
#####################################################################
# random = 18.0, targets = 10.0, density = 0.04, gridShift = 1.0, perturbation = 0.5, connfactor = 0.1
#
# The columns have the following meaning: 
# time se[Mean] 
0.0 NaN 
1.0067713218599703 NaN 
2.0067713218599703 1.0 
3.0067713218599703 0.9841666666666666 
4.00677132185997 0.944375 
5.00677132185997 0.9597916666666667 
6.00677132185997 0.8810416666666667 
7.00677132185997 0.9191666666666667 
8.00677132185997 0.928125 
9.00677132185997 0.9079166666666667 
10.00677132185997 0.9083333333333333 
11.00677132185997 0.900625 
12.00677132185997 0.8697916666666667 
13.00677132185997 0.7275 
14.00677132185997 0.7020833333333334 
15.00677132185997 0.7820833333333334 
16.006771321859972 0.76875 
17.006771321859972 0.76875 
18.006771321859972 0.706875 
19.006771321859972 0.81 
20.006771321859972 0.789375 
21.006771321859972 0.81 
22.006771321859972 0.81 
#####################################################################
# End of data export. Simulation finished at: 2017-05-25T15:13+0000 #
#####################################################################
