0.000000000000000000e+00 nan
2.220446049250313081e-16 6.089225426057387480e-03
4.440892098500626162e-16 1.435178040295613799e-01
0.000000000000000000e+00 1.910855592717963236e-01
8.881784197001252323e-16 2.751224771090615695e-01
2.664535259100375697e-15 3.855126320712555787e-01
0.000000000000000000e+00 6.006555578584866772e-01
8.881784197001252323e-16 6.223567151207727299e-01
1.776356839400250465e-15 8.277283450768764261e-01
3.552713678800500929e-15 8.530645310752563715e-01
5.329070518200751394e-15 8.249776800214847494e-01
3.552713678800500929e-15 6.869973418015947741e-01
0.000000000000000000e+00 8.615093746203319469e-01
7.105427357601001859e-15 8.113054793089489181e-01
1.776356839400250465e-15 7.718967590373743137e-01
3.552713678800500929e-15 7.899078217249184686e-01
3.552713678800500929e-15 7.223747220256206969e-01
7.105427357601001859e-15 7.154211028224461977e-01
7.105427357601001859e-15 7.516919593478705863e-01
0.000000000000000000e+00 7.155322721224890437e-01
1.065814103640150279e-14 7.438683576159172972e-01
1.065814103640150279e-14 7.378389690476377938e-01
7.105427357601001859e-15 7.882669700097819643e-01
3.552713678800500929e-15 7.059780811247731158e-01
0.000000000000000000e+00 8.288868637839940101e-01
3.552713678800500929e-15 9.124752968081452087e-01
1.421085471520200372e-14 8.808764123010734970e-01
7.105427357601001859e-15 9.464080313290004209e-01
3.552713678800500929e-15 7.486159346087634114e-01
3.552713678800500929e-15 6.504006356124177879e-01
7.105427357601001859e-15 6.514067033751005376e-01
0.000000000000000000e+00 6.023678888090270300e-01
7.105427357601001859e-15 6.065175899464432252e-01
1.421085471520200372e-14 6.108033003446655673e-01
1.421085471520200372e-14 6.110334684254102866e-01
7.105427357601001859e-15 6.109835803106693497e-01
1.421085471520200372e-14 6.109406959044956231e-01
7.105427357601001859e-15 6.109406959044956231e-01
0.000000000000000000e+00 6.109406959044956231e-01
7.105427357601001859e-15 6.109406959044956231e-01
2.131628207280300558e-14 6.109406959044956231e-01
7.105427357601001859e-15 6.109406959044956231e-01
2.131628207280300558e-14 6.109406959044956231e-01
2.131628207280300558e-14 6.109406959044956231e-01
1.421085471520200372e-14 6.109406959044956231e-01
