0.000000000000000000e+00 nan
2.220446049250313081e-16 7.582259063967006218e-03
4.440892098500626162e-16 1.517504525221116674e-01
8.881784197001252323e-16 1.379308876368882386e-01
8.881784197001252323e-16 1.425805720791247233e-01
8.881784197001252323e-16 1.575528952138762484e-01
1.776356839400250465e-15 1.526763379050191660e-01
3.552713678800500929e-15 1.729700123403787038e-01
1.776356839400250465e-15 1.797633297210664560e-01
3.552713678800500929e-15 1.845227939742219714e-01
1.776356839400250465e-15 2.046824334775843024e-01
1.776356839400250465e-15 2.250448203398144886e-01
3.552713678800500929e-15 2.580725946507487767e-01
0.000000000000000000e+00 2.758610243386180882e-01
7.105427357601001859e-15 3.222090466992910684e-01
3.552713678800500929e-15 3.436234023980359598e-01
3.552713678800500929e-15 3.675013954396514348e-01
7.105427357601001859e-15 4.044152508851231453e-01
7.105427357601001859e-15 3.926792132341392905e-01
7.105427357601001859e-15 3.925043578521865695e-01
3.552713678800500929e-15 4.373997083499904792e-01
7.105427357601001859e-15 4.680216614560505084e-01
3.552713678800500929e-15 6.290644539548096992e-01
0.000000000000000000e+00 7.847433580161204958e-01
7.105427357601001859e-15 1.683716224180327181e+00
7.105427357601001859e-15 1.343021690794359513e+00
0.000000000000000000e+00 1.145013612895362520e+00
1.065814103640150279e-14 1.499786909098922205e+00
1.421085471520200372e-14 8.878631693514500434e-01
3.552713678800500929e-15 1.256522591191750138e+00
7.105427357601001859e-15 6.700958246435722021e-01
0.000000000000000000e+00 8.662988472027836062e-01
7.105427357601001859e-15 3.415454031711235849e-01
0.000000000000000000e+00 3.443528591589730126e-01
1.421085471520200372e-14 3.434564783047661662e-01
7.105427357601001859e-15 3.428278722288251035e-01
1.421085471520200372e-14 3.428278722288251035e-01
1.421085471520200372e-14 3.426594010640830468e-01
1.421085471520200372e-14 3.426594010640830468e-01
0.000000000000000000e+00 3.426594010640830468e-01
7.105427357601001859e-15 3.426594010640830468e-01
2.131628207280300558e-14 3.426594010640830468e-01
1.421085471520200372e-14 3.426594010640830468e-01
2.131628207280300558e-14 3.426594010640830468e-01
7.105427357601001859e-15 3.426594010640830468e-01
7.105427357601001859e-15 3.426594010640830468e-01
0.000000000000000000e+00 3.426594010640830468e-01
7.105427357601001859e-15 3.426594010640830468e-01
