#####################################################################
# Alchemist log file - simulation started at: 2017-05-19T17:36+0000 #
#####################################################################
# random = 0.0, targets = 1.0, density = 1.7841466528270753, gridShift = 0.0, perturbation = 0.0, connfactor = 2.0
#
# The columns have the following meaning: 
# time se[Mean] 
0.0 NaN 
1.0011337332612453 NaN 
2.0011337332612453 1.0 
3.0011337332612453 1.0055555555555555 
4.001133733261245 1.0333333333333334 
5.001133733261245 1.073456790123457 
6.001133733261245 1.0678086419753088 
7.001133733261245 1.0771604938271604 
8.001133733261245 1.0883950617283948 
9.001133733261245 1.1692901234567905 
10.001133733261245 1.1889814814814819 
11.001133733261245 1.3230246913580237 
12.001133733261245 1.509104938271606 
13.001133733261245 1.6327469135802466 
14.001133733261245 1.7175617283950606 
15.001133733261245 1.7272222222222222 
16.001133733261245 1.7156790123456815 
17.001133733261245 1.674320987654319 
18.001133733261245 1.661759259259261 
19.001133733261245 1.5513888888888867 
20.001133733261245 1.5637654320987675 
21.001133733261245 1.507746913580246 
22.001133733261245 1.409197530864197 
23.001133733261245 1.37675925925926 
24.001133733261245 1.212962962962964 
25.001133733261245 1.1559876543209882 
26.001133733261245 1.0220987654320979 
27.001133733261245 0.919938271604939 
28.001133733261245 0.8175617283950607 
29.001133733261245 0.7120370370370375 
30.001133733261245 0.5990432098765435 
31.001133733261245 0.5353086419753089 
32.00113373326124 0.5006790123456789 
33.00113373326124 0.4126851851851855 
34.00113373326124 0.37604938271604926 
35.00113373326124 0.3260802469135804 
36.00113373326124 0.2910185185185186 
37.00113373326124 0.24666666666666676 
38.00113373326124 0.21895061728395054 
39.00113373326124 0.19049382716049376 
40.00113373326124 0.1713271604938272 
41.00113373326124 0.15651234567901226 
42.00113373326124 0.14194444444444446 
43.00113373326124 0.12611111111111103 
44.00113373326124 0.1192901234567902 
45.00113373326124 0.20820987654321005 
46.00113373326124 0.5820061728395064 
47.00113373326124 0.7044444444444427 
48.00113373326124 1.0254320987654302 
49.00113373326124 1.180524691358024 
50.00113373326124 1.2461111111111118 
51.00113373326124 1.8147222222222203 
52.00113373326124 1.5351543209876533 
53.00113373326124 1.5718518518518523 
54.00113373326124 1.9909259259259264 
55.00113373326124 2.3677777777777793 
56.00113373326124 2.759907407407406 
57.00113373326124 2.8883024691358044 
58.00113373326124 2.9477777777777767 
59.00113373326124 2.6932098765432073 
60.00113373326124 2.548148148148147 
61.00113373326124 1.9662037037037043 
62.00113373326124 1.5090432098765427 
63.00113373326124 1.0518827160493827 
64.00113373326124 0.5877777777777778 
65.00113373326124 0.0653086419753087 
66.00113373326124 0.0 
67.00113373326124 0.0 
68.00113373326124 0.0 
69.00113373326124 0.0 
70.00113373326124 0.0 
71.00113373326124 0.0 
72.00113373326124 0.0 
73.00113373326124 0.0 
74.00113373326124 0.0 
75.00113373326124 0.0 
76.00113373326124 0.0 
77.00113373326124 0.0 
78.00113373326124 0.0 
79.00113373326124 0.0 
80.00113373326124 0.0 
81.00113373326124 0.0 
82.00113373326124 0.0 
83.00113373326124 0.0 
84.00113373326124 0.0 
85.00113373326124 0.0 
86.00113373326124 0.0 
87.00113373326124 0.0 
88.00113373326124 0.0 
89.00113373326124 0.0 
90.00113373326124 0.0 
91.00113373326124 0.0 
92.00113373326124 0.0 
93.00113373326124 0.0 
94.00113373326124 0.0 
95.00113373326124 0.0 
#####################################################################
# End of data export. Simulation finished at: 2017-05-19T17:38+0000 #
#####################################################################
