#####################################################################
# Alchemist log file - simulation started at: 2017-05-25T15:59+0000 #
#####################################################################
# random = 8.0, targets = 31.622776601683793, density = 0.6332893950589894, gridShift = 0.0, perturbation = 0.5, connfactor = 2.0
#
# The columns have the following meaning: 
# time se[Mean] 
0.0 NaN 
1.0447112257851685 NaN 
2.0447112257851687 1.1539840551876475 
3.0447112257851687 1.2916261253173313 
4.044711225785169 1.3872372313278076 
5.044711225785169 1.8930474239228086 
6.044711225785169 2.4825841953467562 
7.044711225785169 2.7929458650328733 
8.044711225785168 3.418807323585392 
9.044711225785168 3.021681840061139 
10.044711225785168 3.215671551488301 
11.044711225785168 2.5881816531602415 
12.044711225785168 2.713985210232001 
13.044711225785168 2.580707251636429 
14.044711225785168 2.7110267206262995 
15.044711225785168 2.767294060655962 
16.044711225785168 2.886751362460271 
17.044711225785168 3.135264473110245 
18.044711225785168 3.308662624581562 
19.044711225785168 3.6642983129160935 
20.044711225785168 4.07729630074511 
21.044711225785168 5.17593139091379 
22.044711225785168 8.94845043391759 
23.044711225785168 13.897995416755881 
24.044711225785168 24.73729280800942 
25.044711225785168 31.209248131199928 
26.044711225785168 43.24224082048154 
27.044711225785168 49.661190620467444 
28.044711225785168 54.91195185162432 
29.044711225785168 60.659067880138586 
30.044711225785168 58.77175672598343 
31.044711225785168 56.01085008621318 
32.044711225785164 55.26811487032926 
33.044711225785164 48.10453310646648 
34.044711225785164 36.430783674267076 
35.044711225785164 30.050412925808025 
36.044711225785164 23.85301065908566 
37.044711225785164 19.452873096909958 
38.044711225785164 18.65213797228617 
39.044711225785164 18.579149191433622 
40.044711225785164 18.439798145489036 
41.044711225785164 18.35573088510257 
42.044711225785164 18.367955992449225 
43.044711225785164 18.375743587260295 
44.044711225785164 18.375729869839173 
45.044711225785164 18.377948626106964 
46.044711225785164 18.377948626106964 
47.044711225785164 18.38017561282743 
48.044711225785164 18.389083559709295 
49.044711225785164 18.39353753315023 
50.044711225785164 18.39353753315023 
51.044711225785164 18.39353753315023 
52.044711225785164 18.39353753315023 
53.044711225785164 18.39353753315023 
54.044711225785164 18.39353753315023 
55.044711225785164 18.39353753315023 
56.044711225785164 18.39353753315023 
57.044711225785164 18.39353753315023 
58.044711225785164 18.39353753315023 
59.044711225785164 18.39353753315023 
60.044711225785164 18.39353753315023 
61.044711225785164 18.39353753315023 
62.044711225785164 18.39353753315023 
63.044711225785164 18.39353753315023 
64.04471122578516 18.39353753315023 
65.04471122578516 18.39353753315023 
#####################################################################
# End of data export. Simulation finished at: 2017-05-25T15:59+0000 #
#####################################################################
