#####################################################################
# Alchemist log file - simulation started at: 2017-05-23T03:57+0000 #
#####################################################################
# random = 10.0, targets = 100.0, density = 3.5589026259761294, gridShift = 1.0, perturbation = 0.0, connfactor = 0.25
#
# The columns have the following meaning: 
# time se[Mean] 
0.0 NaN 
1.0007035023519422 NaN 
2.000703502351942 1.0 
3.000703502351942 0.9998809210526316 
4.000703502351942 0.9988124401913876 
5.000703502351942 0.9966162546517809 
6.000703502351942 0.9940422049441786 
7.000703502351942 0.9897153973950027 
8.000703502351943 0.9877080475810739 
9.000703502351943 0.9853737174375332 
10.000703502351943 0.9811160951621478 
11.000703502351943 0.9794103535353536 
12.000703502351943 0.9761714181286549 
13.000703502351943 0.9742929160021265 
14.000703502351943 0.9717433944710261 
15.000703502351943 0.9700495746943115 
16.000703502351943 0.965874461722488 
17.000703502351943 0.9636187799043062 
18.000703502351943 0.9578808878256247 
19.000703502351943 0.9559884768740032 
20.000703502351943 0.9512219829877725 
21.000703502351943 0.9453922713981925 
22.000703502351943 0.9441788277511962 
23.000703502351943 0.9368888157894737 
24.000703502351943 0.9275989234449761 
25.000703502351943 0.9276733851674641 
26.000703502351943 0.9208269736842105 
27.000703502351943 0.9204130980861244 
28.000703502351943 0.9109497607655503 
29.000703502351943 0.9009022727272727 
30.000703502351943 0.8955367224880383 
31.000703502351943 0.8851514354066986 
32.00070350235194 0.8767580143540671 
33.00070350235194 0.8652977538543327 
34.00070350235194 0.8483548976608186 
35.00070350235194 0.838639726209463 
36.00070350235194 0.818281937799043 
37.00070350235194 0.7974075824029773 
38.00070350235194 0.7928382177033494 
39.00070350235194 0.7671584263689526 
40.00070350235194 0.7568884569377992 
41.00070350235194 0.7370174043062202 
42.00070350235194 0.7292702219564063 
43.00070350235194 0.7213392809675705 
44.00070350235194 0.7170267942583731 
45.00070350235194 0.7100690590111645 
46.00070350235194 0.699766879319511 
47.00070350235194 0.704731399521531 
48.00070350235194 0.6934141547049442 
49.00070350235194 0.6959210925039873 
50.00070350235194 0.6824346889952153 
51.00070350235194 0.67715307682084 
52.00070350235194 0.6752111244019139 
53.00070350235194 0.6654485778841042 
54.00070350235194 0.6616672979797981 
55.00070350235194 0.6646592703349282 
56.00070350235194 0.6609167264752791 
57.00070350235194 0.6646040271132376 
58.00070350235194 0.6594349747474748 
59.00070350235194 0.665106798245614 
60.00070350235194 0.6666527179691654 
61.00070350235194 0.6659911815523658 
62.00070350235194 0.6677346690590111 
63.00070350235194 0.664247687400319 
64.00070350235194 0.6653234649122807 
65.00070350235194 0.6673794590643275 
66.00070350235194 0.6664278907496013 
67.00070350235194 0.6701690324295587 
68.00070350235194 0.6668966706539075 
69.00070350235194 0.6649630515683147 
70.00070350235194 0.6626604066985646 
71.00070350235194 0.6574420122275385 
72.00070350235194 0.6543238902179692 
73.00070350235194 0.6437868221690589 
74.00070350235194 0.6344064128123339 
75.00070350235194 0.6256411948431686 
76.00070350235194 0.610191447368421 
77.00070350235194 0.5891344497607655 
78.00070350235194 0.5845907296650718 
79.00070350235194 0.558640490430622 
80.00070350235194 0.5478868421052631 
81.00070350235194 0.5399029306220097 
82.00070350235194 0.5300831937799043 
83.00070350235194 0.5270701555023924 
84.00070350235194 0.5055478468899521 
85.00070350235194 0.5078570574162679 
86.00070350235194 0.5091985645933015 
87.00070350235194 0.5112152511961723 
88.00070350235194 0.511161004784689 
89.00070350235194 0.5075379186602871 
90.00070350235194 0.5043574760765549 
91.00070350235194 0.5020544856459329 
92.00070350235194 0.4981822368421052 
93.00070350235194 0.5010389354066986 
94.00070350235194 0.49999724880382773 
95.00070350235194 0.5032568779904306 
96.00070350235194 0.5021260167464113 
97.00070350235194 0.5075169258373204 
98.00070350235194 0.5121749401913874 
99.00070350235194 0.5199365430622009 
100.00070350235194 0.526507476076555 
101.00070350235194 0.5294809210526316 
102.00070350235194 0.5314941985645933 
103.00070350235194 0.5314370215311005 
104.00070350235194 0.532034509569378 
105.00070350235194 0.5326602272727273 
106.00070350235194 0.5332890550239234 
107.00070350235194 0.5340255980861244 
108.00070350235194 0.5338298444976077 
109.00070350235194 0.5336716507177034 
110.00070350235194 0.5334085526315789 
111.00070350235194 0.5333382177033493 
112.00070350235194 0.5332154306220096 
113.00070350235194 0.5331278110047847 
114.00070350235194 0.5330752392344498 
115.00070350235194 0.5330226674641149 
116.00070350235194 0.532987619617225 
117.00070350235194 0.5329350478468899 
118.00070350235194 0.5329 
119.00070350235194 0.5329 
120.00070350235194 0.5329 
121.00070350235194 0.5329 
122.00070350235194 0.5329 
123.00070350235194 0.5329 
124.00070350235194 0.5329 
125.00070350235194 0.5329 
126.00070350235194 0.5329 
127.00070350235194 0.5329 
128.00070350235194 0.5329 
129.00070350235194 0.5329 
130.00070350235194 0.5329 
131.00070350235194 0.5329 
132.00070350235194 0.5329 
133.00070350235194 0.5329 
134.00070350235194 0.5329 
135.00070350235194 0.5329 
136.00070350235194 0.5329 
137.00070350235194 0.5329 
138.00070350235194 0.5329 
139.00070350235194 0.5329 
140.00070350235194 0.5329 
141.00070350235194 0.5329 
142.00070350235194 0.5329 
143.00070350235194 0.5329 
144.00070350235194 0.5329 
145.00070350235194 0.5329 
146.00070350235194 0.5329 
147.00070350235194 0.5329 
148.00070350235194 0.5329 
149.00070350235194 0.5329 
150.00070350235194 0.5329 
151.00070350235194 0.5329 
152.00070350235194 0.5329 
153.00070350235194 0.5329 
154.00070350235194 0.5329 
155.00070350235194 0.5329 
156.00070350235194 0.5329 
157.00070350235194 0.5329 
158.00070350235194 0.5329 
#####################################################################
# End of data export. Simulation finished at: 2017-05-23T03:58+0000 #
#####################################################################
