0.000000000000000000e+00 nan
2.220446049250313081e-16 6.386611907757189233e-03
4.440892098500626162e-16 1.341780634795964322e-01
8.881784197001252323e-16 1.340917626018210129e-01
8.881784197001252323e-16 1.335630220013944713e-01
1.776356839400250465e-15 1.330681835240208610e-01
1.776356839400250465e-15 1.323557906106566096e-01
2.664535259100375697e-15 1.330706595023731231e-01
1.776356839400250465e-15 1.343435299094688506e-01
1.776356839400250465e-15 1.350468919016484803e-01
3.552713678800500929e-15 1.384452719446696844e-01
0.000000000000000000e+00 1.457024363253017485e-01
3.552713678800500929e-15 1.506165323314509197e-01
5.329070518200751394e-15 1.595172976743967908e-01
5.329070518200751394e-15 1.641596992150319845e-01
0.000000000000000000e+00 1.738236040415231110e-01
3.552713678800500929e-15 1.817787995351596297e-01
1.065814103640150279e-14 1.898873333579641776e-01
3.552713678800500929e-15 1.924927907814227290e-01
7.105427357601001859e-15 2.031953788871500299e-01
7.105427357601001859e-15 1.949991826337411083e-01
7.105427357601001859e-15 2.017564212730499074e-01
0.000000000000000000e+00 2.123270649113301878e-01
0.000000000000000000e+00 2.074909414483309678e-01
7.105427357601001859e-15 2.311165132687654777e-01
7.105427357601001859e-15 2.096163097730057989e-01
1.065814103640150279e-14 2.262547420633358453e-01
3.552713678800500929e-15 2.300624679968557851e-01
1.065814103640150279e-14 2.596478579513082918e-01
7.105427357601001859e-15 2.535802361610179356e-01
0.000000000000000000e+00 2.594694331899012330e-01
7.105427357601001859e-15 2.907952899958448634e-01
7.105427357601001859e-15 2.580690329345066703e-01
7.105427357601001859e-15 3.397430888486875911e-01
2.131628207280300558e-14 3.166490330821073451e-01
1.421085471520200372e-14 3.741439495366461476e-01
7.105427357601001859e-15 3.162171300381684813e-01
0.000000000000000000e+00 3.436050820289085483e-01
1.421085471520200372e-14 3.224987563790042699e-01
0.000000000000000000e+00 3.524574403211248597e-01
1.421085471520200372e-14 3.631124574840154384e-01
2.131628207280300558e-14 3.806527491326528456e-01
1.421085471520200372e-14 4.444535929639618632e-01
1.421085471520200372e-14 6.929476529299238852e-01
0.000000000000000000e+00 5.066224325455770394e-01
2.842170943040400743e-14 6.815955710517308530e-01
0.000000000000000000e+00 8.156013294879699282e-01
1.421085471520200372e-14 7.870345626069658040e-01
1.421085471520200372e-14 9.107552391727704588e-01
2.131628207280300558e-14 1.029182008716750474e+00
1.421085471520200372e-14 1.280156555503964233e+00
7.105427357601001859e-15 1.017607820939277818e+00
2.131628207280300558e-14 1.001817386899675810e+00
0.000000000000000000e+00 1.503708172307368196e+00
7.105427357601001859e-15 8.699799026069362506e-01
7.105427357601001859e-15 1.480182172215142034e+00
2.131628207280300558e-14 1.345365818643915246e+00
1.421085471520200372e-14 7.115540201601999737e-01
1.421085471520200372e-14 8.261080133869119768e-01
7.105427357601001859e-15 9.364121722820950566e-01
0.000000000000000000e+00 6.889955953503931196e-01
0.000000000000000000e+00 3.871731118702182450e-01
1.421085471520200372e-14 4.007756908767757809e-01
1.421085471520200372e-14 4.238198160009349347e-01
1.421085471520200372e-14 5.166857979031055370e-01
2.842170943040400743e-14 3.523991124918540163e-01
1.421085471520200372e-14 4.337577581392994541e-01
0.000000000000000000e+00 3.376883688687507545e-01
4.263256414560601115e-14 3.547420757648432343e-01
2.842170943040400743e-14 3.448320704979356277e-01
2.842170943040400743e-14 3.520509702570125965e-01
1.421085471520200372e-14 3.520509702570125965e-01
1.421085471520200372e-14 3.628589343056047301e-01
1.421085471520200372e-14 3.559725624689482615e-01
0.000000000000000000e+00 3.628589343056047301e-01
4.263256414560601115e-14 3.628589343056047301e-01
2.842170943040400743e-14 3.628589343056047301e-01
2.842170943040400743e-14 3.628589343056047301e-01
0.000000000000000000e+00 3.628589343056047301e-01
2.842170943040400743e-14 3.628589343056047301e-01
2.842170943040400743e-14 3.628589343056047301e-01
0.000000000000000000e+00 3.628589343056047301e-01
4.263256414560601115e-14 3.628589343056047301e-01
5.684341886080801487e-14 3.628589343056047301e-01
2.842170943040400743e-14 3.628589343056047301e-01
0.000000000000000000e+00 3.628589343056047301e-01
2.842170943040400743e-14 3.628589343056047301e-01
2.842170943040400743e-14 3.628589343056047301e-01
0.000000000000000000e+00 3.628589343056047301e-01
2.842170943040400743e-14 3.628589343056047301e-01
5.684341886080801487e-14 3.628589343056047301e-01
4.263256414560601115e-14 3.628589343056047301e-01
0.000000000000000000e+00 3.628589343056047301e-01
