#####################################################################
# Alchemist log file - simulation started at: 2017-05-23T02:03+0000 #
#####################################################################
# random = 10.0, targets = 31.622776601683793, density = 3.5589026259761294, gridShift = 0.0, perturbation = 0.0, connfactor = 0.5
#
# The columns have the following meaning: 
# time se[Mean] 
0.0 NaN 
1.0007035023519422 NaN 
2.000703502351942 1.0 
3.000703502351942 0.9997278319547352 
4.000703502351942 0.9981004486831468 
5.000703502351942 0.994802559919218 
6.000703502351942 0.9881512333207163 
7.000703502351942 0.982463515017325 
8.000703502351943 0.9749924240998042 
9.000703502351943 0.9685565687897583 
10.000703502351943 0.9622833083822193 
11.000703502351943 0.9554118313330058 
12.000703502351943 0.9444723558314537 
13.000703502351943 0.941444269851183 
14.000703502351943 0.9314156961642399 
15.000703502351943 0.9212297998308246 
16.000703502351943 0.9109584807906626 
17.000703502351943 0.9024478903988297 
18.000703502351943 0.8884603020876969 
19.000703502351943 0.8787197885883892 
20.000703502351943 0.8651621803409367 
21.000703502351943 0.8485562463184905 
22.000703502351943 0.8330008576242711 
23.000703502351943 0.8128918043073324 
24.000703502351943 0.788387078074034 
25.000703502351943 0.7723558755012168 
26.000703502351943 0.7436900731362999 
27.000703502351943 0.7236820310613127 
28.000703502351943 0.6927838062175172 
29.000703502351943 0.6703941412746842 
30.000703502351943 0.6424347066748541 
31.000703502351943 0.6065812395067655 
32.00070350235194 0.58632011353245 
33.00070350235194 0.5687101807413478 
34.00070350235194 0.5341594734918634 
35.00070350235194 0.5108402571257147 
36.00070350235194 0.5122943606490838 
37.00070350235194 0.4847426103287286 
38.00070350235194 0.4743354602528964 
39.00070350235194 0.46567523146490614 
40.00070350235194 0.46765164710959917 
41.00070350235194 0.45908251297774993 
42.00070350235194 0.4553666157914249 
43.00070350235194 0.45909833219812235 
44.00070350235194 0.4513717006212074 
45.00070350235194 0.45090969688614124 
46.00070350235194 0.44824053314953044 
47.00070350235194 0.44449189591121135 
48.00070350235194 0.43582550698177314 
49.00070350235194 0.43473777208019665 
50.00070350235194 0.4330946536753673 
51.00070350235194 0.4260962184692344 
52.00070350235194 0.41943237852958365 
53.00070350235194 0.4194005007465396 
54.00070350235194 0.4179061538659986 
55.00070350235194 0.4304662470804571 
56.00070350235194 0.40242608704240157 
57.00070350235194 0.43473729635619146 
58.00070350235194 0.4039114466084376 
59.00070350235194 0.4023204104115758 
60.00070350235194 0.41453100148273303 
61.00070350235194 0.3885954027164035 
62.00070350235194 0.379545849413682 
63.00070350235194 0.3637746296470399 
64.00070350235194 0.3377924979525154 
65.00070350235194 0.31378250813170233 
66.00070350235194 0.30803916940465637 
67.00070350235194 0.26512337454735097 
68.00070350235194 0.25433113830344556 
69.00070350235194 0.23390262575995602 
70.00070350235194 0.21093743235574045 
71.00070350235194 0.2042140479846347 
72.00070350235194 0.17963977408182596 
73.00070350235194 0.16865826397566144 
74.00070350235194 0.1668777215293485 
75.00070350235194 0.15106094788001423 
76.00070350235194 0.14903239987165146 
77.00070350235194 0.13219338654140686 
78.00070350235194 0.12977885052499744 
79.00070350235194 0.12060270101895712 
80.00070350235194 0.11454451557760538 
81.00070350235194 0.11124172126375946 
82.00070350235194 0.09464137841634651 
83.00070350235194 0.09760668416657167 
84.00070350235194 0.09431538232782682 
85.00070350235194 0.09216045903658725 
86.00070350235194 0.09407356710003303 
87.00070350235194 0.09276436211953538 
88.00070350235194 0.09139589890040595 
89.00070350235194 0.0919060709932579 
90.00070350235194 0.0897206207880555 
91.00070350235194 0.08837542742438939 
92.00070350235194 0.085835288829524 
93.00070350235194 0.08449799730986908 
94.00070350235194 0.08306714655839706 
95.00070350235194 0.08253368689791976 
96.00070350235194 0.08170150365867393 
97.00070350235194 0.08094478477814057 
98.00070350235194 0.08012020755839332 
99.00070350235194 0.07911369749277766 
100.00070350235194 0.07852553784406137 
101.00070350235194 0.07721386439466314 
102.00070350235194 0.07657046724888703 
103.00070350235194 0.07542768591245715 
104.00070350235194 0.07488871097714232 
105.00070350235194 0.07450387306318328 
106.00070350235194 0.0743522763225455 
107.00070350235194 0.0743522763225455 
108.00070350235194 0.0743522763225455 
109.00070350235194 0.0743522763225455 
110.00070350235194 0.0743522763225455 
111.00070350235194 0.0743522763225455 
112.00070350235194 0.0743522763225455 
113.00070350235194 0.0743522763225455 
114.00070350235194 0.0743522763225455 
115.00070350235194 0.0743522763225455 
116.00070350235194 0.0743522763225455 
117.00070350235194 0.0743522763225455 
118.00070350235194 0.0743522763225455 
119.00070350235194 0.0743522763225455 
120.00070350235194 0.0743522763225455 
121.00070350235194 0.0743522763225455 
122.00070350235194 0.0743522763225455 
123.00070350235194 0.0743522763225455 
124.00070350235194 0.0743522763225455 
125.00070350235194 0.0743522763225455 
126.00070350235194 0.0743522763225455 
127.00070350235194 0.0743522763225455 
128.00070350235194 0.0743522763225455 
129.00070350235194 0.0743522763225455 
130.00070350235194 0.0743522763225455 
131.00070350235194 0.0743522763225455 
132.00070350235194 0.0743522763225455 
133.00070350235194 0.0743522763225455 
134.00070350235194 0.0743522763225455 
135.00070350235194 0.0743522763225455 
136.00070350235194 0.0743522763225455 
137.00070350235194 0.0743522763225455 
138.00070350235194 0.0743522763225455 
139.00070350235194 0.0743522763225455 
140.00070350235194 0.0743522763225455 
141.00070350235194 0.0743522763225455 
142.00070350235194 0.0743522763225455 
143.00070350235194 0.0743522763225455 
144.00070350235194 0.0743522763225455 
145.00070350235194 0.0743522763225455 
146.00070350235194 0.0743522763225455 
147.00070350235194 0.0743522763225455 
148.00070350235194 0.0743522763225455 
#####################################################################
# End of data export. Simulation finished at: 2017-05-23T02:04+0000 #
#####################################################################
