#####################################################################
# Alchemist log file - simulation started at: 2017-05-21T14:54+0000 #
#####################################################################
# random = 2.0, targets = 100.0, density = 0.2247883923996312, gridShift = 0.0, perturbation = 0.5, connfactor = 0.5
#
# The columns have the following meaning: 
# time se[Mean] 
0.0 NaN 
1.003288451303821 NaN 
2.003288451303821 1.0207090277777777 
3.003288451303821 1.033930787037037 
4.0032884513038205 1.0268299382716048 
5.0032884513038205 1.0195398148148147 
6.0032884513038205 0.9884567901234568 
7.0032884513038205 0.9750821180555556 
8.00328845130382 1.0174843557098765 
9.00328845130382 0.9805717978395062 
10.00328845130382 1.0378662037037039 
11.00328845130382 1.0071475308641975 
12.00328845130382 0.9795176890432099 
13.00328845130382 0.9582039930555556 
14.00328845130382 0.8828067322530865 
15.00328845130382 0.885106712962963 
16.00328845130382 0.8560618441358026 
17.00328845130382 0.8515929976851853 
18.00328845130382 0.8643700424382716 
19.00328845130382 0.8473889660493829 
20.00328845130382 0.8713883680555556 
21.00328845130382 0.847914101080247 
22.00328845130382 0.8069081404320989 
23.00328845130382 0.8112760995370372 
24.00328845130382 0.760333777006173 
25.00328845130382 0.7604007330246915 
26.00328845130382 0.7402430169753088 
27.00328845130382 0.7494133680555557 
28.00328845130382 0.7778475694444446 
29.00328845130382 0.7643833912037038 
30.00328845130382 0.7829691550925927 
31.00328845130382 0.7922651234567901 
32.00328845130382 0.7921 
33.00328845130382 0.7921 
34.00328845130382 0.7921 
35.00328845130382 0.7921 
36.00328845130382 0.7921 
37.00328845130382 0.7921 
38.00328845130382 0.7921 
39.00328845130382 0.7921 
40.00328845130382 0.7921 
41.00328845130382 0.7921 
42.00328845130382 0.7921 
#####################################################################
# End of data export. Simulation finished at: 2017-05-21T14:54+0000 #
#####################################################################
