#####################################################################
# Alchemist log file - simulation started at: 2017-05-25T01:21+0000 #
#####################################################################
# random = 16.0, targets = 31.622776601683793, density = 0.3174802103936399, gridShift = 0.0, perturbation = 0.5, connfactor = 1.5
#
# The columns have the following meaning: 
# time se[Mean] 
0.0 NaN 
1.0086259768480754 NaN 
2.0086259768480756 1.092955609004639 
3.0086259768480756 1.1686000546201647 
4.008625976848076 1.2766662876996095 
5.008625976848076 1.5741466016746357 
6.008625976848076 1.6177460294697996 
7.008625976848076 2.1036590410724494 
8.008625976848077 1.9103883488314342 
9.008625976848077 1.9436069600720494 
10.008625976848077 2.114502843508705 
11.008625976848077 2.209891896074123 
12.008625976848077 2.415491081897739 
13.008625976848077 2.5850595281127053 
14.008625976848077 2.772026508567396 
15.008625976848077 3.245914822762238 
16.008625976848077 3.8394683585710503 
17.008625976848077 4.267319783249156 
18.008625976848077 5.550768502236969 
19.008625976848077 6.508011227428669 
20.008625976848077 6.545795163308151 
21.008625976848077 7.709665268012118 
22.008625976848077 8.383530895907178 
23.008625976848077 7.593141731972249 
24.008625976848077 7.958156946174641 
25.008625976848077 9.76061498469134 
26.008625976848077 12.439533344268645 
27.008625976848077 11.519723775052656 
28.008625976848077 11.26463355427875 
29.008625976848077 19.149002231465246 
30.008625976848077 17.904830179549098 
31.008625976848077 11.57895956280399 
32.00862597684808 15.520487499312837 
33.00862597684808 16.683013713198797 
34.00862597684808 10.144358246702211 
35.00862597684808 11.509444318082245 
36.00862597684808 7.480750154436403 
37.00862597684808 7.429935419678722 
38.00862597684808 7.36106694741575 
39.00862597684808 7.32777526985525 
40.00862597684808 7.32603296829195 
41.00862597684808 7.33125987298185 
42.00862597684808 7.33125987298185 
43.00862597684808 7.33125987298185 
44.00862597684808 7.33125987298185 
45.00862597684808 7.33125987298185 
46.00862597684808 7.33125987298185 
47.00862597684808 7.33125987298185 
48.00862597684808 7.33125987298185 
49.00862597684808 7.33125987298185 
50.00862597684808 7.33125987298185 
51.00862597684808 7.33125987298185 
52.00862597684808 7.33125987298185 
53.00862597684808 7.33125987298185 
#####################################################################
# End of data export. Simulation finished at: 2017-05-25T01:21+0000 #
#####################################################################
