#####################################################################
# Alchemist log file - simulation started at: 2017-05-24T00:21+0000 #
#####################################################################
# random = 13.0, targets = 10.0, density = 0.3174802103936399, gridShift = 1.0, perturbation = 0.5, connfactor = 0.5
#
# The columns have the following meaning: 
# time se[Mean] 
0.0 NaN 
1.0093475742791087 NaN 
2.0093475742791087 1.0 
3.0093475742791087 0.996016865079365 
4.009347574279109 0.9921230158730159 
5.009347574279109 0.9550496031746032 
6.009347574279109 0.9480009920634921 
7.009347574279109 0.9072371031746032 
8.009347574279108 0.8831994047619047 
9.009347574279108 0.876155753968254 
10.009347574279108 0.8531597222222221 
11.009347574279108 0.8424355158730158 
12.009347574279108 0.8320386904761905 
13.009347574279108 0.8327926587301587 
14.009347574279108 0.8196031746031746 
15.009347574279108 0.8127579365079366 
16.009347574279108 0.8068204365079366 
17.009347574279108 0.8111755952380953 
18.009347574279108 0.7838392857142858 
19.009347574279108 0.7655208333333334 
20.009347574279108 0.7450843253968256 
21.009347574279108 0.7478125000000001 
22.009347574279108 0.7053025793650795 
23.009347574279108 0.682827380952381 
24.009347574279108 0.6639583333333334 
25.009347574279108 0.6416369047619048 
26.009347574279108 0.6143799603174604 
27.009347574279108 0.6001835317460318 
28.009347574279108 0.6042708333333334 
29.009347574279108 0.5814037698412698 
30.009347574279108 0.6065525793650794 
31.009347574279108 0.5940873015873016 
32.009347574279104 0.6073611111111111 
33.009347574279104 0.6272420634920635 
34.009347574279104 0.6353373015873016 
35.009347574279104 0.637202380952381 
36.009347574279104 0.6390674603174603 
37.009347574279104 0.64 
38.009347574279104 0.64 
39.009347574279104 0.64 
40.009347574279104 0.64 
41.009347574279104 0.64 
42.009347574279104 0.64 
43.009347574279104 0.64 
44.009347574279104 0.64 
45.009347574279104 0.64 
#####################################################################
# End of data export. Simulation finished at: 2017-05-24T00:21+0000 #
#####################################################################
