#####################################################################
# Alchemist log file - simulation started at: 2017-05-21T03:32+0000 #
#####################################################################
# random = 2.0, targets = 1.0, density = 5.0264212595847235, gridShift = 1.0, perturbation = 0.5, connfactor = 0.25
#
# The columns have the following meaning: 
# time se[Mean] 
0.0 NaN 
1.0021051854459069 NaN 
2.002105185445907 1.0 
3.002105185445907 1.0 
4.002105185445907 0.9982517482517482 
5.002105185445907 0.9965034965034965 
6.002105185445907 0.9877622377622378 
7.002105185445907 0.9790209790209791 
8.002105185445906 0.9772727272727273 
9.002105185445906 0.9720279720279722 
10.002105185445906 0.965034965034965 
11.002105185445906 0.958041958041958 
12.002105185445906 0.9545454545454546 
13.002105185445906 0.9510489510489512 
14.002105185445906 0.9440559440559445 
15.002105185445906 0.9458041958041952 
16.002105185445906 0.9423076923076921 
17.002105185445906 0.9423076923076922 
18.002105185445906 0.9458041958041953 
19.002105185445906 0.9493006993006988 
20.002105185445906 0.958041958041958 
21.002105185445906 0.9597902097902096 
22.002105185445906 0.9685314685314688 
23.002105185445906 0.9702797202797205 
24.002105185445906 0.9755244755244756 
25.002105185445906 0.9772727272727273 
26.002105185445906 0.9825174825174825 
27.002105185445906 0.9842657342657344 
28.002105185445906 0.9877622377622378 
29.002105185445906 0.9930069930069931 
30.002105185445906 0.9947552447552447 
31.002105185445906 0.9947552447552447 
32.002105185445906 0.9982517482517482 
33.002105185445906 0.9982517482517482 
34.002105185445906 1.0 
35.002105185445906 1.0 
36.002105185445906 1.0 
37.002105185445906 1.0 
38.002105185445906 1.0 
39.002105185445906 1.0 
40.002105185445906 1.013986013986014 
41.002105185445906 1.0559440559440556 
42.002105185445906 1.0681818181818188 
43.002105185445906 1.1311188811188817 
44.002105185445906 1.1643356643356637 
45.002105185445906 1.1608391608391615 
46.002105185445906 1.1520979020979023 
47.002105185445906 1.253496503496501 
48.002105185445906 1.6048951048951094 
49.002105185445906 2.905594405594393 
50.002105185445906 3.389860139860127 
51.002105185445906 5.552447552447537 
52.002105185445906 6.895104895104924 
53.002105185445906 7.37587412587413 
54.002105185445906 7.683566433566423 
55.002105185445906 11.674825174825074 
56.002105185445906 9.384615384615374 
57.002105185445906 9.372377622377606 
58.002105185445906 11.599650349650354 
59.002105185445906 10.089160839160893 
60.002105185445906 11.512237762237717 
61.002105185445906 13.622377622377607 
62.002105185445906 10.44405594405596 
63.002105185445906 10.886363636363622 
64.00210518544591 10.433566433566428 
65.00210518544591 11.208041958041951 
66.00210518544591 11.993006993007 
67.00210518544591 7.977272727272715 
68.00210518544591 11.980769230769193 
69.00210518544591 8.776223776223803 
70.00210518544591 8.73251748251745 
71.00210518544591 9.531468531468512 
72.00210518544591 10.31993006993 
73.00210518544591 8.545454545454577 
74.00210518544591 6.276223776223779 
75.00210518544591 8.059440559440505 
76.00210518544591 7.610139860139797 
77.00210518544591 6.713286713286691 
78.00210518544591 5.818181818181799 
79.00210518544591 3.132867132867131 
80.00210518544591 0.0 
81.00210518544591 1.3426573426573398 
82.00210518544591 0.4475524475524433 
83.00210518544591 0.44755244755244356 
84.00210518544591 0.0 
85.00210518544591 0.0 
86.00210518544591 0.0 
87.00210518544591 0.0 
88.00210518544591 0.0 
89.00210518544591 0.0 
90.00210518544591 0.0 
91.00210518544591 0.0 
92.00210518544591 0.0 
93.00210518544591 0.0 
94.00210518544591 0.0 
95.00210518544591 0.0 
96.00210518544591 0.0 
97.00210518544591 0.0 
98.00210518544591 0.0 
99.00210518544591 0.0 
100.00210518544591 0.0 
101.00210518544591 0.0 
102.00210518544591 0.0 
103.00210518544591 0.0 
104.00210518544591 0.0 
105.00210518544591 0.0 
106.00210518544591 0.0 
107.00210518544591 0.0 
108.00210518544591 0.0 
109.00210518544591 0.0 
110.00210518544591 0.0 
111.00210518544591 0.0 
112.00210518544591 0.0 
113.00210518544591 0.0 
114.00210518544591 0.0 
115.00210518544591 0.0 
116.00210518544591 0.0 
117.00210518544591 0.0 
118.00210518544591 0.0 
119.00210518544591 0.0 
120.00210518544591 0.0 
121.00210518544591 0.0 
122.00210518544591 0.0 
123.00210518544591 0.0 
124.00210518544591 0.0 
125.00210518544591 0.0 
126.00210518544591 0.0 
127.00210518544591 0.0 
128.0021051854459 0.0 
129.0021051854459 0.0 
#####################################################################
# End of data export. Simulation finished at: 2017-05-21T03:35+0000 #
#####################################################################
