#####################################################################
# Alchemist log file - simulation started at: 2017-05-24T06:43+0000 #
#####################################################################
# random = 14.0, targets = 3.1622776601683795, density = 0.3174802103936399, gridShift = 0.0, perturbation = 0.5, connfactor = 1.0
#
# The columns have the following meaning: 
# time se[Mean] 
0.0 NaN 
1.011133799227012 NaN 
2.0111337992270117 1.0 
3.0111337992270117 0.9798246048547374 
4.011133799227012 0.9601213753623643 
5.011133799227012 0.8581829673253366 
6.011133799227012 0.758605387552756 
7.011133799227012 0.7906728651265327 
8.01113379922701 0.9227311496660919 
9.01113379922701 0.9214652939065353 
10.01113379922701 0.9506997382499592 
11.01113379922701 0.9688388153032589 
12.01113379922701 0.919472170453273 
13.01113379922701 0.8678393857969706 
14.01113379922701 0.8449689977702519 
15.01113379922701 0.7947706243848556 
16.01113379922701 0.7992147663261278 
17.01113379922701 0.8263838506179808 
18.01113379922701 0.8326547309924168 
19.01113379922701 0.8403398592082374 
20.01113379922701 0.8971000043203454 
21.01113379922701 0.9183980193532941 
22.01113379922701 0.9605151757274671 
23.01113379922701 0.9719074844333127 
24.01113379922701 1.0122262470455234 
25.01113379922701 1.120382224963454 
26.01113379922701 1.2885169610342515 
27.01113379922701 1.1851224264679183 
28.01113379922701 1.3345414983038384 
29.01113379922701 1.2182210570680554 
30.01113379922701 1.7646099306458456 
31.01113379922701 1.228953532285694 
32.01113379922701 1.7547485486890293 
33.01113379922701 1.2562183954542476 
34.01113379922701 1.4873441839696933 
35.01113379922701 0.8963938042555388 
36.01113379922701 0.9956570393693734 
37.01113379922701 0.44719004763773196 
38.01113379922701 0.44040524086153454 
39.01113379922701 0.4675444679663244 
40.01113379922701 0.4675444679663244 
41.01113379922701 0.4675444679663244 
42.01113379922701 0.4675444679663244 
43.01113379922701 0.4675444679663244 
44.01113379922701 0.4675444679663244 
45.01113379922701 0.4675444679663244 
46.01113379922701 0.4675444679663244 
47.01113379922701 0.4675444679663244 
48.01113379922701 0.4675444679663244 
#####################################################################
# End of data export. Simulation finished at: 2017-05-24T06:43+0000 #
#####################################################################
