#####################################################################
# Alchemist log file - simulation started at: 2017-05-23T23:10+0000 #
#####################################################################
# random = 13.0, targets = 3.1622776601683795, density = 3.5589026259761294, gridShift = 0.0, perturbation = 0.5, connfactor = 0.75
#
# The columns have the following meaning: 
# time se[Mean] 
0.0 NaN 
1.0002602723432414 NaN 
2.000260272343241 NaN 
3.000260272343241 1.0 
4.000260272343241 0.9995007315010831 
5.000260272343241 0.9980029260043322 
6.000260272343241 0.9980029260043322 
7.000260272343241 0.9932807085979545 
8.00026027234324 0.9943845095140796 
9.00026027234324 0.9821008989910156 
10.00026027234324 0.9791995890312484 
11.00026027234324 0.9506396829959505 
12.00026027234324 0.9231843093778611 
13.00026027234324 0.9164825643701197 
14.00026027234324 0.8701178583595719 
15.00026027234324 0.8648262013245942 
16.00026027234324 0.8420462627544788 
17.00026027234324 0.8160711530546806 
18.00026027234324 0.7999776124170964 
19.00026027234324 0.7908277702753397 
20.00026027234324 0.8029980751840434 
21.00026027234324 0.7868548213678788 
22.00026027234324 0.7970455938593745 
23.00026027234324 0.7827334740574496 
24.00026027234324 0.7745024834539198 
25.00026027234324 0.7562890536922275 
26.00026027234324 0.7405142115504715 
27.00026027234324 0.7410558734012931 
28.00026027234324 0.7374886186442537 
29.00026027234324 0.7371297068522359 
30.00026027234324 0.7486889343607402 
31.00026027234324 0.7510485680221523 
32.00026027234324 0.7476004901515149 
33.00026027234324 0.7542700394799132 
34.00026027234324 0.7618248635343855 
35.00026027234324 0.7524279859237175 
36.00026027234324 0.7591450587432907 
37.00026027234324 0.7479455563972439 
38.00026027234324 0.7628775605074318 
39.00026027234324 0.7583490801236381 
40.00026027234324 0.7526955756606215 
41.00026027234324 0.757167056750072 
42.00026027234324 0.7428630316185058 
43.00026027234324 0.7717431954686875 
44.00026027234324 0.7495100007302193 
45.00026027234324 0.7559808225562547 
46.00026027234324 0.7333184678425738 
47.00026027234324 0.7306196873659205 
48.00026027234324 0.7473565396098041 
49.00026027234324 0.7191577061588612 
50.00026027234324 0.7330028061155018 
51.00026027234324 0.741418014595847 
52.00026027234324 0.7359896487276962 
53.00026027234324 0.7293573674277772 
54.00026027234324 0.7090130904732653 
55.00026027234324 0.7091615081396118 
56.00026027234324 0.6970913273782399 
57.00026027234324 0.6964736375732258 
58.00026027234324 0.704094282277639 
59.00026027234324 0.6674415093157058 
60.00026027234324 0.6546981072729869 
61.00026027234324 0.6649773287895526 
62.00026027234324 0.6785512392940076 
63.00026027234324 0.6785913948000629 
64.00026027234324 0.6422441966570632 
65.00026027234324 0.6667449715007466 
66.00026027234324 0.6250928915131406 
67.00026027234324 0.6722055474957744 
68.00026027234324 0.6412756993620797 
69.00026027234324 0.5453720648712614 
70.00026027234324 0.5625036194859422 
71.00026027234324 0.5169129518784003 
72.00026027234324 0.6957705547752759 
73.00026027234324 1.0938363465301522 
74.00026027234324 0.9963129722064028 
75.00026027234324 1.228590812590163 
76.00026027234324 0.8616052981364839 
77.00026027234324 1.505562346653896 
78.00026027234324 3.5823653614726787 
79.00026027234324 2.949202977863921 
80.00026027234324 4.2217828944840745 
81.00026027234324 3.0883785766506184 
82.00026027234324 3.8097479028282204 
83.00026027234324 4.951292668869606 
84.00026027234324 4.164140584066149 
85.00026027234324 6.148860987421016 
86.00026027234324 6.652638943385016 
87.00026027234324 7.59664203794391 
88.00026027234324 7.540400941168859 
89.00026027234324 7.335352690992453 
90.00026027234324 8.199835337231926 
91.00026027234324 8.328377114663017 
92.00026027234324 9.416862109512762 
93.00026027234324 10.429610073932402 
94.00026027234324 9.436268602586095 
95.00026027234324 9.914884314600863 
96.00026027234324 9.985213340797054 
97.00026027234324 12.91812767862411 
98.00026027234324 11.66416407549202 
99.00026027234324 9.863274065018643 
100.00026027234324 11.500889122585834 
101.00026027234324 9.43347517002634 
102.00026027234324 13.440919634241457 
103.00026027234324 10.451648463545343 
104.00026027234324 5.677215799664481 
105.00026027234324 5.435380189958538 
106.00026027234324 3.4110085874083373 
107.00026027234324 6.934400696068078 
108.00026027234324 1.9731369559630891 
109.00026027234324 3.24491839606212 
110.00026027234324 2.780357695919756 
111.00026027234324 0.9658098208719429 
112.00026027234324 0.9962389423204032 
113.00026027234324 1.3502060488508874 
114.00026027234324 0.028828637634634082 
115.00026027234324 0.01591195170458928 
116.00026027234324 0.020853470144701493 
117.00026027234324 0.00309467286832695 
118.00026027234324 0.003259876532827521 
119.00026027234324 0.002807385576469551 
120.00026027234324 0.0026370614043876458 
121.00026027234324 0.00263559840222155 
122.00026027234324 0.002633403898972407 
123.00026027234324 0.002633403898972407 
124.00026027234324 0.002633403898972407 
125.00026027234324 0.002633403898972407 
126.00026027234324 0.002633403898972407 
127.00026027234324 0.002633403898972407 
128.00026027234324 0.002633403898972407 
129.00026027234324 0.002633403898972407 
130.00026027234324 0.002633403898972407 
131.00026027234324 0.002633403898972407 
132.00026027234324 0.002633403898972407 
133.00026027234324 0.002633403898972407 
134.00026027234324 0.002633403898972407 
135.00026027234324 0.002633403898972407 
136.00026027234324 0.002633403898972407 
137.00026027234324 0.002633403898972407 
138.00026027234324 0.002633403898972407 
139.00026027234324 0.002633403898972407 
140.00026027234324 0.002633403898972407 
141.00026027234324 0.002633403898972407 
142.00026027234324 0.002633403898972407 
143.00026027234324 0.002633403898972407 
144.00026027234324 0.002633403898972407 
145.00026027234324 0.002633403898972407 
146.00026027234324 0.002633403898972407 
147.00026027234324 0.002633403898972407 
148.00026027234324 0.002633403898972407 
149.00026027234324 0.002633403898972407 
150.00026027234324 0.002633403898972407 
151.00026027234324 0.002633403898972407 
152.00026027234324 0.002633403898972407 
153.00026027234324 0.002633403898972407 
154.00026027234324 0.002633403898972407 
155.00026027234324 0.002633403898972407 
156.00026027234324 0.002633403898972407 
157.00026027234324 0.002633403898972407 
158.00026027234324 0.002633403898972407 
159.00026027234324 0.002633403898972407 
160.00026027234324 0.002633403898972407 
161.00026027234324 0.002633403898972407 
162.00026027234324 0.002633403898972407 
163.00026027234324 0.002633403898972407 
164.00026027234324 0.002633403898972407 
#####################################################################
# End of data export. Simulation finished at: 2017-05-23T23:10+0000 #
#####################################################################
