#####################################################################
# Alchemist log file - simulation started at: 2017-05-20T13:03+0000 #
#####################################################################
# random = 1.0, targets = 3.1622776601683795, density = 0.894427190999916, gridShift = 0.0, perturbation = 0.0, connfactor = 2.0
#
# The columns have the following meaning: 
# time se[Mean] 
0.0 NaN 
1.0048855897957667 NaN 
2.0048855897957667 1.3353122033197007 
3.0048855897957667 1.6191373943897653 
4.004885589795767 1.7798412163828468 
5.004885589795767 1.7960810615961877 
6.004885589795767 1.5205112571807224 
7.004885589795767 1.2472329130147497 
8.004885589795766 1.265587520011531 
9.004885589795766 1.1776692258876886 
10.004885589795766 1.2842870921318152 
11.004885589795766 1.288763692074001 
12.004885589795766 1.2674301605265612 
13.004885589795766 1.2881287994250317 
14.004885589795766 1.057784819171698 
15.004885589795766 1.045617442835512 
16.004885589795766 1.3231561981527118 
17.004885589795766 1.1601883949087883 
18.004885589795766 1.5321721434962665 
19.004885589795766 1.6433587353402723 
20.004885589795766 1.6268881285429921 
21.004885589795766 2.0216716158189634 
22.004885589795766 2.237598166931531 
23.004885589795766 1.9856043462583102 
24.004885589795766 2.0821009938791195 
25.004885589795766 2.0650486149109013 
26.004885589795766 2.2794400883590007 
27.004885589795766 2.2433408176421854 
28.004885589795766 2.3375107385529685 
29.004885589795766 2.290727460551359 
30.004885589795766 1.0031969592402021 
31.004885589795766 0.8446849030694396 
32.00488558979576 0.43493547249106823 
33.00488558979576 0.41358784156540557 
34.00488558979576 0.37000470431797594 
35.00488558979576 0.3543799211251704 
36.00488558979576 0.3340412298773509 
37.00488558979576 0.33795513667894284 
38.00488558979576 0.2873176230723197 
39.00488558979576 0.2829420062507424 
40.00488558979576 0.27144069252086256 
41.00488558979576 0.3466445398521324 
42.00488558979576 0.2748842664521028 
43.00488558979576 0.36120018345448635 
44.00488558979576 0.3422505042670751 
45.00488558979576 0.34442459119351465 
46.00488558979576 0.3886175602766614 
47.00488558979576 0.4648731188352001 
48.00488558979576 0.3763871519186427 
49.00488558979576 0.5426057026884957 
50.00488558979576 0.5862882360699605 
51.00488558979576 0.7552207650775216 
52.00488558979576 0.8807099859364513 
53.00488558979576 0.9121149127738432 
54.00488558979576 0.7239463247307665 
55.00488558979576 0.3162477173041003 
56.00488558979576 0.12807912926102347 
57.00488558979576 0.0026334038989723777 
58.00488558979576 0.0026334038989723777 
59.00488558979576 0.0026334038989723777 
60.00488558979576 0.0026334038989723777 
61.00488558979576 0.0026334038989723777 
62.00488558979576 0.0026334038989723777 
63.00488558979576 0.0026334038989723777 
64.00488558979576 0.0026334038989723777 
65.00488558979576 0.0026334038989723777 
66.00488558979576 0.0026334038989723777 
67.00488558979576 0.0026334038989723777 
68.00488558979576 0.0026334038989723777 
69.00488558979576 0.0026334038989723777 
70.00488558979576 0.0026334038989723777 
71.00488558979576 0.0026334038989723777 
72.00488558979576 0.0026334038989723777 
73.00488558979576 0.0026334038989723777 
74.00488558979576 0.0026334038989723777 
75.00488558979576 0.0026334038989723777 
76.00488558979576 0.0026334038989723777 
#####################################################################
# End of data export. Simulation finished at: 2017-05-20T13:05+0000 #
#####################################################################
