#####################################################################
# Alchemist log file - simulation started at: 2017-05-25T05:05+0000 #
#####################################################################
# random = 17.0, targets = 1.0, density = 0.4483936332993466, gridShift = 1.0, perturbation = 0.0, connfactor = 0.25
#
# The columns have the following meaning: 
# time se[Mean] 
0.0 NaN 
1.0045647570182237 NaN 
2.0045647570182235 1.0 
3.0045647570182235 1.0 
4.0045647570182235 1.0 
5.0045647570182235 1.0 
6.0045647570182235 1.0 
7.0045647570182235 1.0 
8.004564757018223 1.0 
9.004564757018223 1.0 
10.004564757018223 1.0 
11.004564757018223 1.0 
12.004564757018223 0.9861111111111112 
13.004564757018223 0.9722222222222222 
14.004564757018223 0.9722222222222222 
15.004564757018223 0.9166666666666667 
16.004564757018223 0.9722222222222222 
17.004564757018223 0.875 
18.004564757018223 0.8888888888888888 
19.004564757018223 0.875 
20.004564757018223 0.8055555555555557 
21.004564757018223 0.8194444444444443 
22.004564757018223 0.7361111111111114 
23.004564757018223 0.7083333333333334 
24.004564757018223 0.5694444444444443 
25.004564757018223 0.5555555555555557 
26.004564757018223 0.4166666666666669 
27.004564757018223 0.3472222222222225 
28.004564757018223 0.2638888888888887 
29.004564757018223 0.1805555555555557 
30.004564757018223 0.05555555555555563 
31.004564757018223 0.013888888888888899 
32.00456475701822 0.013888888888888904 
33.00456475701822 0.013888888888888902 
34.00456475701822 0.041666666666666685 
35.00456475701822 0.0 
36.00456475701822 0.0 
37.00456475701822 0.0 
38.00456475701822 0.0 
39.00456475701822 0.0 
40.00456475701822 0.0 
41.00456475701822 0.0 
42.00456475701822 0.0 
43.00456475701822 0.0 
44.00456475701822 0.0 
45.00456475701822 0.0 
46.00456475701822 0.0 
47.00456475701822 0.0 
#####################################################################
# End of data export. Simulation finished at: 2017-05-25T05:05+0000 #
#####################################################################
