#####################################################################
# Alchemist log file - simulation started at: 2017-05-26T00:34+0000 #
#####################################################################
# random = 19.0, targets = 31.622776601683793, density = 0.1591589639397027, gridShift = 1.0, perturbation = 0.0, connfactor = 0.1
#
# The columns have the following meaning: 
# time se[Mean] 
0.0 NaN 
1.029399693434633 NaN 
2.029399693434633 1.0 
3.029399693434633 0.9979251482265544 
4.029399693434633 0.9906548336861615 
5.029399693434633 0.9896090744661054 
6.029399693434633 0.9845136116991581 
7.029399693434633 0.9741726861652634 
8.029399693434634 0.9550199276508637 
9.029399693434634 0.9235180584957905 
10.029399693434634 0.9082816701949485 
11.029399693434634 0.8624267460723668 
12.029399693434634 0.8462655059980793 
13.029399693434634 0.8323415435839602 
14.029399693434634 0.7922905637882134 
15.029399693434634 0.789653286128045 
16.029399693434634 0.8010981559887747 
17.029399693434634 0.7867160084678766 
18.029399693434634 0.8138387850695603 
19.029399693434634 0.8084142297492236 
20.029399693434634 0.8192633403898971 
21.029399693434634 0.8192633403898971 
22.029399693434634 0.8192633403898971 
23.029399693434634 0.8192633403898971 
24.029399693434634 0.8192633403898971 
25.029399693434634 0.8192633403898971 
26.029399693434634 0.8192633403898971 
27.029399693434634 0.8192633403898971 
28.029399693434634 0.8192633403898971 
29.029399693434634 0.8192633403898971 
#####################################################################
# End of data export. Simulation finished at: 2017-05-26T00:34+0000 #
#####################################################################
