#####################################################################
# Alchemist log file - simulation started at: 2017-05-21T20:24+0000 #
#####################################################################
# random = 3.0, targets = 1.0, density = 10.026386447354522, gridShift = 0.0, perturbation = 0.5, connfactor = 1.0
#
# The columns have the following meaning: 
# time se[Mean] 
0.0 NaN 
1.0016359619213666 NaN 
2.001635961921367 1.0 
3.001635961921367 0.9991837567595143 
4.001635961921367 0.9983675135190286 
5.001635961921367 0.997551270278543 
6.001635961921367 0.9885725946332007 
7.001635961921367 0.9844913784307723 
8.001635961921366 0.9820426487093155 
9.001635961921366 0.9844913784307723 
10.001635961921366 0.9861238649117438 
11.001635961921366 0.9885725946332007 
12.001635961921366 0.9934700540761147 
13.001635961921366 0.9926538108356291 
14.001635961921366 0.995102540557086 
15.001635961921366 0.997551270278543 
16.001635961921366 1.0 
17.001635961921366 1.0 
18.001635961921366 1.0 
19.001635961921366 1.0 
20.001635961921366 1.0 
21.001635961921366 1.0 
22.001635961921366 1.0 
23.001635961921366 0.9993112947658402 
24.001635961921366 0.9979338842975206 
25.001635961921366 0.9963524130190797 
26.001635961921366 0.9904091419242935 
27.001635961921366 0.9832415059687786 
28.001635961921366 0.9756147331904906 
29.001635961921366 0.9559738802163043 
30.001635961921366 0.9510509131721254 
31.001635961921366 0.9275329048056318 
32.001635961921366 0.9181461075400462 
33.001635961921366 0.9019997959391903 
34.001635961921366 0.8812876237118664 
35.001635961921366 0.8677175798387917 
36.001635961921366 0.8520814202632389 
37.001635961921366 0.8320324456688097 
38.001635961921366 0.8274410774410772 
39.001635961921366 0.8090245893276202 
40.001635961921366 0.800836649321498 
41.001635961921366 0.7985919804101623 
42.001635961921366 0.8006580961126418 
43.001635961921366 0.7921385572900727 
44.001635961921366 0.8047393123150695 
45.001635961921366 0.7677532904805636 
46.001635961921366 0.7978267523722071 
47.001635961921366 0.7642332415059684 
48.001635961921366 0.7613253749617384 
49.001635961921366 0.7598204264870932 
50.001635961921366 0.7164064891337621 
51.001635961921366 0.7121722273237427 
52.001635961921366 0.7143148658300175 
53.001635961921366 0.6790888684828076 
54.001635961921366 0.6911284562799715 
55.001635961921366 0.6644985205591267 
56.001635961921366 0.6466431996735026 
57.001635961921366 0.6425619834710741 
58.001635961921366 0.6280481583511889 
59.001635961921366 0.6222834404652584 
60.001635961921366 0.5845066829915314 
61.001635961921366 0.5768033874094474 
62.001635961921366 0.5317824711764103 
63.001635961921366 0.5062238547087032 
64.00163596192137 0.47798694010815185 
65.00163596192137 0.4438322620140802 
66.00163596192137 0.4108764411794715 
67.00163596192137 0.40398938883787366 
68.00163596192137 0.3730741761044791 
69.00163596192137 0.3645546372819097 
70.00163596192137 0.34937761452912947 
71.00163596192137 0.3331802877257422 
72.00163596192137 0.3157841036628913 
73.00163596192137 0.3054790327517597 
74.00163596192137 0.2967044179165394 
75.00163596192137 0.282114069992858 
76.00163596192137 0.266095296398327 
77.00163596192137 0.2538516477910421 
78.00163596192137 0.23691460055096425 
79.00163596192137 0.2185491276400368 
80.00163596192137 0.20844811753902687 
81.00163596192137 0.19008264462809948 
82.00163596192137 0.17630853994490356 
83.00163596192137 0.1652892561983469 
84.00163596192137 0.15151515151515105 
85.00163596192137 0.14049586776859543 
86.00163596192137 0.12672176308539965 
87.00163596192137 0.11386593204775035 
88.00163596192137 0.09550045913682301 
89.00163596192137 0.07805325987144146 
90.00163596192137 0.060606060606060656 
91.00163596192137 0.04132231404958661 
92.00163596192137 0.02662993572084496 
93.00163596192137 0.015610651974288257 
94.00163596192137 0.01010101010101002 
95.00163596192137 0.00459136822773189 
96.00163596192137 0.0027548209366391636 
97.00163596192137 0.0018365472910927124 
98.00163596192137 1.232595164407831E-32 
99.00163596192137 1.232595164407831E-32 
100.00163596192137 0.11794714825017737 
101.00163596192137 0.3538414447505352 
102.00163596192137 0.4717885930007107 
103.00163596192137 0.9435771860014206 
104.00163596192137 1.2974186307519633 
105.00163596192137 1.5333129272523278 
106.00163596192137 2.5948372615039266 
107.00163596192137 1.5333129272523192 
108.00163596192137 3.06662585450464 
109.00163596192137 2.5948372615039266 
110.00163596192137 2.712784409754102 
111.00163596192137 3.6563615957555196 
112.00163596192137 2.5948372615039266 
113.00163596192137 3.066625854504635 
114.00163596192137 3.7743087440057104 
115.00163596192137 3.0666258545046343 
116.00163596192137 4.3640444852565965 
117.00163596192137 3.8922558922558905 
118.00163596192137 4.010203040506074 
119.00163596192137 4.599938781756973 
120.00163596192137 4.364044485256598 
121.00163596192137 5.307621671258034 
122.00163596192137 4.128150188756269 
123.00163596192137 5.071727374757676 
124.00163596192137 4.010203040506063 
125.00163596192137 4.010203040506061 
126.00163596192137 4.0102030405060685 
127.00163596192137 2.7127844097541107 
128.00163596192135 2.712784409754106 
129.00163596192135 3.7743087440057095 
130.00163596192135 1.6512600755024982 
131.00163596192135 3.656361595755535 
132.00163596192135 2.7127844097541085 
133.00163596192135 3.4204672992551837 
134.00163596192135 3.0666258545046374 
135.00163596192135 3.066625854504634 
136.00163596192135 2.948678706254462 
137.00163596192135 2.1230486685032126 
138.00163596192135 3.0666258545046388 
139.00163596192135 2.594837261503927 
140.00163596192135 3.0666258545046357 
141.00163596192135 2.0051015202530347 
142.00163596192135 2.005101520253035 
143.00163596192135 1.0615243342516099 
144.00163596192135 0.7076828895010712 
145.00163596192135 0.4717885930007105 
146.00163596192135 0.23589429650035362 
147.00163596192135 0.11794714825017673 
148.00163596192135 0.11794714825017681 
149.00163596192135 1.232595164407831E-32 
150.00163596192135 1.232595164407831E-32 
151.00163596192135 1.232595164407831E-32 
152.00163596192135 1.232595164407831E-32 
153.00163596192135 1.232595164407831E-32 
154.00163596192135 1.232595164407831E-32 
155.00163596192135 1.232595164407831E-32 
156.00163596192135 1.232595164407831E-32 
157.00163596192135 1.232595164407831E-32 
158.00163596192135 1.232595164407831E-32 
159.00163596192135 1.232595164407831E-32 
160.00163596192135 1.232595164407831E-32 
161.00163596192135 1.232595164407831E-32 
162.00163596192135 1.232595164407831E-32 
163.00163596192135 1.232595164407831E-32 
164.00163596192135 1.232595164407831E-32 
165.00163596192135 1.232595164407831E-32 
166.00163596192135 1.232595164407831E-32 
167.00163596192135 1.232595164407831E-32 
168.00163596192135 1.232595164407831E-32 
169.00163596192135 1.232595164407831E-32 
170.00163596192135 1.232595164407831E-32 
171.00163596192135 1.232595164407831E-32 
172.00163596192135 1.232595164407831E-32 
173.00163596192135 1.232595164407831E-32 
174.00163596192135 1.232595164407831E-32 
175.00163596192135 1.232595164407831E-32 
176.00163596192135 1.232595164407831E-32 
177.00163596192135 1.232595164407831E-32 
178.00163596192135 1.232595164407831E-32 
179.00163596192135 1.232595164407831E-32 
180.00163596192135 1.232595164407831E-32 
181.00163596192135 1.232595164407831E-32 
182.00163596192135 1.232595164407831E-32 
183.00163596192135 1.232595164407831E-32 
184.00163596192135 1.232595164407831E-32 
185.00163596192135 1.232595164407831E-32 
186.00163596192135 1.232595164407831E-32 
187.00163596192135 1.232595164407831E-32 
188.00163596192135 1.232595164407831E-32 
189.00163596192135 1.232595164407831E-32 
190.00163596192135 1.232595164407831E-32 
191.00163596192135 1.232595164407831E-32 
192.00163596192135 1.232595164407831E-32 
193.00163596192135 1.232595164407831E-32 
194.00163596192135 1.232595164407831E-32 
195.00163596192135 1.232595164407831E-32 
196.00163596192135 1.232595164407831E-32 
197.00163596192135 1.232595164407831E-32 
198.00163596192135 1.232595164407831E-32 
199.00163596192135 1.232595164407831E-32 
200.00163596192135 1.232595164407831E-32 
201.00163596192135 1.232595164407831E-32 
202.00163596192135 1.232595164407831E-32 
203.00163596192135 1.232595164407831E-32 
204.00163596192135 1.232595164407831E-32 
205.00163596192135 1.232595164407831E-32 
206.00163596192135 1.232595164407831E-32 
207.00163596192135 1.232595164407831E-32 
208.00163596192135 1.232595164407831E-32 
209.00163596192135 1.232595164407831E-32 
210.00163596192135 1.232595164407831E-32 
211.00163596192135 1.232595164407831E-32 
212.00163596192135 1.232595164407831E-32 
213.00163596192135 1.232595164407831E-32 
214.00163596192135 1.232595164407831E-32 
215.00163596192135 1.232595164407831E-32 
216.00163596192135 1.232595164407831E-32 
217.00163596192135 1.232595164407831E-32 
218.00163596192135 1.232595164407831E-32 
219.00163596192135 1.232595164407831E-32 
220.00163596192135 1.232595164407831E-32 
221.00163596192135 1.232595164407831E-32 
222.00163596192135 1.232595164407831E-32 
223.00163596192135 1.232595164407831E-32 
#####################################################################
# End of data export. Simulation finished at: 2017-05-21T20:29+0000 #
#####################################################################
