#####################################################################
# Alchemist log file - simulation started at: 2017-05-20T05:35+0000 #
#####################################################################
# random = 0.0, targets = 100.0, density = 0.1591589639397027, gridShift = 0.0, perturbation = 0.0, connfactor = 2.0
#
# The columns have the following meaning: 
# time se[Mean] 
0.0 NaN 
1.0011337332612453 NaN 
2.0011337332612453 2.4180740000000003 
3.0011337332612453 2.8638259722222226 
4.001133733261245 5.208768805555556 
5.001133733261245 3.8832115277777777 
6.001133733261245 14.917642722222224 
7.001133733261245 26.46863872222222 
8.001133733261245 26.772349944444446 
9.001133733261245 26.668352694444447 
10.001133733261245 16.916388166666664 
11.001133733261245 13.292214305555554 
12.001133733261245 7.038269944444443 
13.001133733261245 3.718751222222222 
14.001133733261245 3.5031914444444436 
15.001133733261245 1.720136083333333 
16.001133733261245 4.181588777777778 
17.001133733261245 0.1938266388888889 
18.001133733261245 3.753202500000002 
19.001133733261245 3.6664666388888905 
20.001133733261245 4.938950916666669 
21.001133733261245 10.731804500000006 
22.001133733261245 4.837081305555558 
23.001133733261245 9.508532388888897 
24.001133733261245 5.399999999999999E-5 
25.001133733261245 0.012173444444444426 
26.001133733261245 0.0 
27.001133733261245 0.0 
28.001133733261245 0.0 
29.001133733261245 0.0 
30.001133733261245 0.0 
31.001133733261245 0.0 
32.00113373326124 0.0 
33.00113373326124 0.0 
34.00113373326124 0.0 
35.00113373326124 0.0 
36.00113373326124 0.0 
37.00113373326124 0.0 
#####################################################################
# End of data export. Simulation finished at: 2017-05-20T05:35+0000 #
#####################################################################
