#####################################################################
# Alchemist log file - simulation started at: 2017-05-24T03:47+0000 #
#####################################################################
# random = 13.0, targets = 100.0, density = 3.5589026259761294, gridShift = 0.0, perturbation = 0.5, connfactor = 0.75
#
# The columns have the following meaning: 
# time se[Mean] 
0.0 NaN 
1.0002602723432414 NaN 
2.000260272343241 NaN 
3.000260272343241 1.0032373767361111 
4.000260272343241 1.003877907986111 
5.000260272343241 1.0046384270833333 
6.000260272343241 1.0028786302083332 
7.000260272343241 1.0067550590277778 
8.00026027234324 1.006755765625 
9.00026027234324 1.0069416684027779 
10.00026027234324 1.0058287621527777 
11.00026027234324 1.0042799548611112 
12.00026027234324 1.002573329861111 
13.00026027234324 1.0013591059027778 
14.00026027234324 0.9987076302083333 
15.00026027234324 0.9972845190972223 
16.00026027234324 0.9945785555555555 
17.00026027234324 0.9939962135416667 
18.00026027234324 0.9924197083333334 
19.00026027234324 0.9926730694444444 
20.00026027234324 0.9929221076388889 
21.00026027234324 0.9932815260416666 
22.00026027234324 0.9947428732638889 
23.00026027234324 0.9943877083333333 
24.00026027234324 0.9974143993055555 
25.00026027234324 0.9988098454861111 
26.00026027234324 0.9981851059027778 
27.00026027234324 0.9964905052083334 
28.00026027234324 0.9948514670138889 
29.00026027234324 0.9959546145833333 
30.00026027234324 0.9980760642361112 
31.00026027234324 0.9970203506944445 
32.00026027234324 0.9975372048611112 
33.00026027234324 0.9977723472222222 
34.00026027234324 0.9983607534722222 
35.00026027234324 0.9980867100694445 
36.00026027234324 0.9973091354166667 
37.00026027234324 0.9986516475694446 
38.00026027234324 0.9973597604166666 
39.00026027234324 0.9985858107638889 
40.00026027234324 0.9973066475694445 
41.00026027234324 0.9970217673611111 
42.00026027234324 0.9967744496527777 
43.00026027234324 0.9968234600694444 
44.00026027234324 0.9955889201388889 
45.00026027234324 0.9955161302083334 
46.00026027234324 0.9962918437500001 
47.00026027234324 0.9948880260416667 
48.00026027234324 0.9941082604166668 
49.00026027234324 0.99411675 
50.00026027234324 0.9927001302083334 
51.00026027234324 0.9922803263888889 
52.00026027234324 0.9917084583333333 
53.00026027234324 0.989692765625 
54.00026027234324 0.9873913767361111 
55.00026027234324 0.9849999861111112 
56.00026027234324 0.9811363697916667 
57.00026027234324 0.9741448350694445 
58.00026027234324 0.9725751996527778 
59.00026027234324 0.9722170572916666 
60.00026027234324 0.9637268159722222 
61.00026027234324 0.9621524635416667 
62.00026027234324 0.9527686493055556 
63.00026027234324 0.960006935763889 
64.00026027234324 0.9563037708333334 
65.00026027234324 0.9467984375 
66.00026027234324 0.9489862604166667 
67.00026027234324 0.936450796875 
68.00026027234324 0.9424296232638889 
69.00026027234324 0.9428763020833334 
70.00026027234324 0.9344155555555557 
71.00026027234324 0.9434633333333334 
72.00026027234324 0.9453767881944445 
73.00026027234324 0.9281681927083334 
74.00026027234324 0.9348448107638889 
75.00026027234324 0.9455901631944446 
76.00026027234324 0.9411947725694446 
77.00026027234324 0.9262652986111113 
78.00026027234324 0.9317555173611113 
79.00026027234324 0.9454307951388891 
80.00026027234324 0.9395251527777779 
81.00026027234324 0.9461254288194446 
82.00026027234324 0.9462275225694446 
83.00026027234324 0.9297933940972224 
84.00026027234324 0.9548981944444447 
85.00026027234324 0.9566340260416669 
86.00026027234324 0.9447795677083335 
87.00026027234324 0.957523855902778 
88.00026027234324 0.9650656562500003 
89.00026027234324 0.9421261041666669 
90.00026027234324 0.9475053177083336 
91.00026027234324 0.9580456128472224 
92.00026027234324 0.9294081406250002 
93.00026027234324 0.9390536753472225 
94.00026027234324 0.9442362812500003 
95.00026027234324 0.9407597170138892 
96.00026027234324 0.9456439670138891 
97.00026027234324 0.9371463958333335 
98.00026027234324 0.9173489791666668 
99.00026027234324 0.9201321909722223 
100.00026027234324 0.9168853680555556 
101.00026027234324 0.924012576388889 
102.00026027234324 0.9243448368055557 
103.00026027234324 0.9284402065972224 
104.00026027234324 0.9227959131944445 
105.00026027234324 0.9212875850694445 
106.00026027234324 0.9263823177083335 
107.00026027234324 0.923467171875 
108.00026027234324 0.9244798697916667 
109.00026027234324 0.9260646250000001 
110.00026027234324 0.9240541805555557 
111.00026027234324 0.9243523906250001 
112.00026027234324 0.9255732725694445 
113.00026027234324 0.9233482986111111 
114.00026027234324 0.9247877760416667 
115.00026027234324 0.9243673038194444 
116.00026027234324 0.9232903767361111 
117.00026027234324 0.9236756041666667 
118.00026027234324 0.9237485260416667 
119.00026027234324 0.9228867760416667 
120.00026027234324 0.9229330815972222 
121.00026027234324 0.9224896024305556 
122.00026027234324 0.92192575 
123.00026027234324 0.9222734739583334 
124.00026027234324 0.9219925659722222 
125.00026027234324 0.9219803628472222 
126.00026027234324 0.9218922569444444 
127.00026027234324 0.9219039010416666 
128.00026027234324 0.9220828333333333 
129.00026027234324 0.9219745607638888 
130.00026027234324 0.9218499861111111 
131.00026027234324 0.9216969618055555 
132.00026027234324 0.9216328680555556 
133.00026027234324 0.9216282413194444 
134.00026027234324 0.9217484184027778 
135.00026027234324 0.9216161944444444 
136.00026027234324 0.9216722708333334 
137.00026027234324 0.9215640468749999 
138.00026027234324 0.9216 
139.00026027234324 0.9216 
140.00026027234324 0.9216 
141.00026027234324 0.9216 
142.00026027234324 0.9216 
143.00026027234324 0.9216 
144.00026027234324 0.9216 
145.00026027234324 0.9216 
146.00026027234324 0.9216 
147.00026027234324 0.9216 
148.00026027234324 0.9216 
149.00026027234324 0.9216 
150.00026027234324 0.9216 
151.00026027234324 0.9216 
152.00026027234324 0.9216 
153.00026027234324 0.9216 
154.00026027234324 0.9216 
155.00026027234324 0.9216 
156.00026027234324 0.9216 
157.00026027234324 0.9216 
158.00026027234324 0.9216 
159.00026027234324 0.9216 
160.00026027234324 0.9216 
161.00026027234324 0.9216 
162.00026027234324 0.9216 
163.00026027234324 0.9216 
164.00026027234324 0.9216 
165.00026027234324 0.9216 
166.00026027234324 0.9216 
167.00026027234324 0.9216 
168.00026027234324 0.9216 
169.00026027234324 0.9216 
170.00026027234324 0.9216 
171.00026027234324 0.9216 
172.00026027234324 0.9216 
173.00026027234324 0.9216 
174.00026027234324 0.9216 
175.00026027234324 0.9216 
176.00026027234324 0.9216 
177.00026027234324 0.9216 
178.00026027234324 0.9216 
179.00026027234324 0.9216 
180.00026027234324 0.9216 
181.00026027234324 0.9216 
182.00026027234324 0.9216 
#####################################################################
# End of data export. Simulation finished at: 2017-05-24T03:48+0000 #
#####################################################################
