#####################################################################
# Alchemist log file - simulation started at: 2017-05-26T09:38+0000 #
#####################################################################
# random = 9.0, targets = 31.622776601683793, density = 7.099073319511142, gridShift = 1.0, perturbation = 0.5, connfactor = 1.5
#
# The columns have the following meaning: 
# time se[Mean] 
0.0 NaN 
1.0015323036356916 NaN 
2.001532303635692 NaN 
3.001532303635692 1.0173600470920399 
4.001532303635692 1.0216653695900773 
5.001532303635692 1.028132335411529 
6.001532303635692 1.0210970042393877 
7.001532303635692 1.0336623378529832 
8.001532303635692 1.0269423841511023 
9.001532303635692 1.0406131771249427 
10.001532303635692 1.037382991813416 
11.001532303635692 1.0325962529017096 
12.001532303635692 1.0303595628106834 
13.001532303635692 1.024360765539653 
14.001532303635692 1.0177944749311225 
15.001532303635692 1.0208249463400707 
16.001532303635692 1.014146887935827 
17.001532303635692 1.0144568008010588 
18.001532303635692 1.0186735482906841 
19.001532303635692 1.0169168845273016 
20.001532303635692 1.0162491015575135 
21.001532303635692 1.014101543695138 
22.001532303635692 1.0128691225668052 
23.001532303635692 1.009919291944071 
24.001532303635692 1.0168650924984783 
25.001532303635692 1.0150944125987882 
26.001532303635692 1.0235905547413366 
27.001532303635692 1.022247337313692 
28.001532303635692 1.0263903195930548 
29.001532303635692 1.030562374756894 
30.001532303635692 1.0351045638118044 
31.001532303635692 1.0384276432253396 
32.00153230363569 1.0386466788288284 
33.00153230363569 1.0410094277942206 
34.00153230363569 1.0407399218733735 
35.00153230363569 1.0403180807278996 
36.00153230363569 1.0410075128125922 
37.00153230363569 1.036397332072802 
38.00153230363569 1.043099921813061 
39.00153230363569 1.0327448697515373 
40.00153230363569 1.0330061907371813 
41.00153230363569 1.0315695673296463 
42.00153230363569 1.0177532554157298 
43.00153230363569 1.0299669698372442 
44.00153230363569 1.015042273356193 
45.00153230363569 1.0085654779998272 
46.00153230363569 1.019328654508017 
47.00153230363569 0.9997225669247414 
48.00153230363569 1.017818456589772 
49.00153230363569 1.0199751671207666 
50.00153230363569 1.0242665038879433 
51.00153230363569 1.0323095306556773 
52.00153230363569 1.0351161561841324 
53.00153230363569 1.0324991038029525 
54.00153230363569 1.0372785307616632 
55.00153230363569 1.032624806152268 
56.00153230363569 1.0225954173888425 
57.00153230363569 1.0232856145152374 
58.00153230363569 1.014083224823505 
59.00153230363569 1.0161391763738707 
60.00153230363569 1.0072623936147374 
61.00153230363569 1.0002678836631438 
62.00153230363569 1.001690544162751 
63.00153230363569 0.9654226985434912 
64.00153230363568 1.0012339079465176 
65.00153230363568 0.9797015800362717 
66.00153230363568 1.074370578313414 
67.00153230363568 1.1984914102669746 
68.00153230363568 1.3001663589805237 
69.00153230363568 1.3192402256536226 
70.00153230363568 1.2315322256273122 
71.00153230363568 1.746373504471715 
72.00153230363568 1.595292361950142 
73.00153230363568 1.401037598714437 
74.00153230363568 1.9499071034783253 
75.00153230363568 1.485850261408656 
76.00153230363568 1.9889188876544295 
77.00153230363568 1.8545699697657567 
78.00153230363568 2.0057586946846264 
79.00153230363568 2.0764364652555174 
80.00153230363568 1.831863533358872 
81.00153230363568 1.8840201674823935 
82.00153230363568 1.8202151458906481 
83.00153230363568 1.6161513242500594 
84.00153230363568 1.7290758086059188 
85.00153230363568 1.6179433310835059 
86.00153230363568 1.6819497162832244 
87.00153230363568 1.651277402818026 
88.00153230363568 1.7554200397072413 
89.00153230363568 1.6637531041040854 
90.00153230363568 1.855255782752158 
91.00153230363568 1.6785621138065066 
92.00153230363568 1.645334765626542 
93.00153230363568 1.4688651125326642 
94.00153230363568 1.355040598084602 
95.00153230363568 1.2802912022440265 
96.00153230363568 1.0404847727346787 
97.00153230363568 1.015645975288303 
98.00153230363568 1.0318967037919868 
99.00153230363568 0.8892862698559011 
100.00153230363568 0.9343765078623573 
101.00153230363568 0.8778644998393131 
102.00153230363568 0.8742420988323615 
103.00153230363568 0.8406736999937017 
104.00153230363568 0.8492786696750779 
105.00153230363568 0.8471646818723009 
106.00153230363568 0.8513037137260595 
107.00153230363568 0.8574151443452248 
108.00153230363568 0.8528456991579344 
109.00153230363568 0.8588274593278458 
110.00153230363568 0.8579967480763078 
111.00153230363568 0.8584423641430174 
112.00153230363568 0.8577584059746322 
113.00153230363568 0.8607028538408575 
114.00153230363568 0.8560806420497131 
115.00153230363568 0.8601684906133497 
116.00153230363568 0.8606843393511386 
117.00153230363568 0.8645888154151916 
118.00153230363568 0.8670940261155001 
119.00153230363568 0.8681158439629559 
120.00153230363568 0.8737912983386384 
121.00153230363568 0.8743088752345748 
122.00153230363568 0.8734978194803029 
123.00153230363568 0.8769659268597775 
124.00153230363568 0.8754970090773961 
125.00153230363568 0.8768510315651556 
126.00153230363568 0.8768127331336151 
127.00153230363568 0.8775088935932651 
128.00153230363568 0.8775088935932651 
129.00153230363568 0.8775088935932651 
130.00153230363568 0.8775088935932651 
131.00153230363568 0.8775088935932651 
132.00153230363568 0.8775088935932651 
133.00153230363568 0.8775088935932651 
134.00153230363568 0.8775088935932651 
135.00153230363568 0.8775088935932651 
136.00153230363568 0.8775088935932651 
137.00153230363568 0.8775088935932651 
138.00153230363568 0.8775088935932651 
139.00153230363568 0.8775088935932651 
140.00153230363568 0.8775088935932651 
141.00153230363568 0.8775088935932651 
142.00153230363568 0.8775088935932651 
143.00153230363568 0.8775088935932651 
144.00153230363568 0.8775088935932651 
145.00153230363568 0.8775088935932651 
146.00153230363568 0.8775088935932651 
147.00153230363568 0.8775088935932651 
148.00153230363568 0.8775088935932651 
149.00153230363568 0.8775088935932651 
150.00153230363568 0.8775088935932651 
151.00153230363568 0.8775088935932651 
152.00153230363568 0.8775088935932651 
153.00153230363568 0.8775088935932651 
154.00153230363568 0.8775088935932651 
155.00153230363568 0.8775088935932651 
156.00153230363568 0.8775088935932651 
157.00153230363568 0.8775088935932651 
158.00153230363568 0.8775088935932651 
159.00153230363568 0.8775088935932651 
160.00153230363568 0.8775088935932651 
161.00153230363568 0.8775088935932651 
162.00153230363568 0.8775088935932651 
163.00153230363568 0.8775088935932651 
164.00153230363568 0.8775088935932651 
165.00153230363568 0.8775088935932651 
166.00153230363568 0.8775088935932651 
167.00153230363568 0.8775088935932651 
168.00153230363568 0.8775088935932651 
169.00153230363568 0.8775088935932651 
170.00153230363568 0.8775088935932651 
171.00153230363568 0.8775088935932651 
172.00153230363568 0.8775088935932651 
173.00153230363568 0.8775088935932651 
174.00153230363568 0.8775088935932651 
175.00153230363568 0.8775088935932651 
176.00153230363568 0.8775088935932651 
177.00153230363568 0.8775088935932651 
178.00153230363568 0.8775088935932651 
179.00153230363568 0.8775088935932651 
180.00153230363568 0.8775088935932651 
181.00153230363568 0.8775088935932651 
182.00153230363568 0.8775088935932651 
183.00153230363568 0.8775088935932651 
184.00153230363568 0.8775088935932651 
185.00153230363568 0.8775088935932651 
#####################################################################
# End of data export. Simulation finished at: 2017-05-26T09:46+0000 #
#####################################################################
