#####################################################################
# Alchemist log file - simulation started at: 2017-05-22T07:09+0000 #
#####################################################################
# random = 3.0, targets = 100.0, density = 0.11269076455391362, gridShift = 1.0, perturbation = 0.0, connfactor = 0.1
#
# The columns have the following meaning: 
# time se[Mean] 
0.0 NaN 
1.0016359619213666 NaN 
2.001635961921367 1.0 
3.001635961921367 0.999601 
4.001635961921367 0.997606 
5.001635961921367 0.995611 
6.001635961921367 0.994015 
7.001635961921367 0.9929554444444445 
8.001635961921366 0.990579 
9.001635961921366 0.9911056666666667 
10.001635961921366 0.9844916666666667 
11.001635961921366 0.9877957777777777 
12.001635961921366 0.9840811111111111 
13.001635961921366 0.9818285555555555 
14.001635961921366 0.9819686666666666 
15.001635961921366 0.9793164444444444 
16.001635961921366 0.9772097777777777 
17.001635961921366 0.978524 
18.001635961921366 0.9795737777777778 
19.001635961921366 0.9790475555555556 
20.001635961921366 0.9801 
21.001635961921366 0.9801 
22.001635961921366 0.9801 
23.001635961921366 0.9801 
24.001635961921366 0.9801 
25.001635961921366 0.9801 
26.001635961921366 0.9801 
27.001635961921366 0.9801 
28.001635961921366 0.9801 
#####################################################################
# End of data export. Simulation finished at: 2017-05-22T07:09+0000 #
#####################################################################
