#####################################################################
# Alchemist log file - simulation started at: 2017-05-23T03:44+0000 #
#####################################################################
# random = 10.0, targets = 100.0, density = 0.1591589639397027, gridShift = 1.0, perturbation = 0.0, connfactor = 0.5
#
# The columns have the following meaning: 
# time se[Mean] 
0.0 NaN 
1.0036005446229952 NaN 
2.003600544622995 1.0221391666666666 
3.003600544622995 1.0343371296296295 
4.003600544622995 1.0401057407407408 
5.003600544622995 1.013005462962963 
6.003600544622995 1.0108842592592593 
7.003600544622995 0.9812900925925926 
8.003600544622994 0.9731351851851852 
9.003600544622994 0.9365916666666667 
10.003600544622994 0.9052399074074075 
11.003600544622994 0.8535373148148149 
12.003600544622994 0.8138237962962963 
13.003600544622994 0.751768425925926 
14.003600544622994 0.7467777777777779 
15.003600544622994 0.7369039814814816 
16.003600544622994 0.7154064814814816 
17.003600544622994 0.7346120370370371 
18.003600544622994 0.7262117592592593 
19.003600544622994 0.7247792592592593 
20.003600544622994 0.7233560185185186 
21.003600544622994 0.722594537037037 
22.003600544622994 0.7225 
23.003600544622994 0.7225 
24.003600544622994 0.7225 
25.003600544622994 0.7225 
26.003600544622994 0.7225 
27.003600544622994 0.7225 
28.003600544622994 0.7225 
29.003600544622994 0.7225 
30.003600544622994 0.7225 
31.003600544622994 0.7225 
#####################################################################
# End of data export. Simulation finished at: 2017-05-23T03:44+0000 #
#####################################################################
