#####################################################################
# Alchemist log file - simulation started at: 2017-05-23T03:54+0000 #
#####################################################################
# random = 10.0, targets = 100.0, density = 2.519842099789746, gridShift = 1.0, perturbation = 0.0, connfactor = 0.25
#
# The columns have the following meaning: 
# time se[Mean] 
0.0 NaN 
1.0007035023519422 NaN 
2.000703502351942 1.0 
3.000703502351942 0.9996408717105263 
4.000703502351942 0.9981382401315789 
5.000703502351942 0.9961111019736842 
6.000703502351942 0.9921349506578947 
7.000703502351942 0.9889756578947368 
8.000703502351943 0.9874667763157895 
9.000703502351943 0.9831784539473685 
10.000703502351943 0.9802902138157895 
11.000703502351943 0.9775814967105263 
12.000703502351943 0.9742049342105263 
13.000703502351943 0.9731244243421052 
14.000703502351943 0.9684130756578947 
15.000703502351943 0.9674569078947368 
16.000703502351943 0.9666435855263158 
17.000703502351943 0.9633365953947368 
18.000703502351943 0.9583845394736843 
19.000703502351943 0.9556789473684211 
20.000703502351943 0.9562248355263158 
21.000703502351943 0.9467771381578948 
22.000703502351943 0.945096134868421 
23.000703502351943 0.9387222039473684 
24.000703502351943 0.9362870888157895 
25.000703502351943 0.9243529605263158 
26.000703502351943 0.9204140625 
27.000703502351943 0.9051082236842105 
28.000703502351943 0.8988628289473684 
29.000703502351943 0.8870704769736842 
30.000703502351943 0.8744194078947367 
31.000703502351943 0.8629225328947367 
32.00070350235194 0.8491280427631578 
33.00070350235194 0.8272903782894737 
34.00070350235194 0.8176404605263157 
35.00070350235194 0.8036449013157894 
36.00070350235194 0.7955486019736842 
37.00070350235194 0.7809286184210527 
38.00070350235194 0.7806652138157896 
39.00070350235194 0.7514571546052631 
40.00070350235194 0.757192927631579 
41.00070350235194 0.7443011513157894 
42.00070350235194 0.7482739309210527 
43.00070350235194 0.7448599506578948 
44.00070350235194 0.7342228618421053 
45.00070350235194 0.7347725328947369 
46.00070350235194 0.7228731907894737 
47.00070350235194 0.6999252467105262 
48.00070350235194 0.7067933388157894 
49.00070350235194 0.6836755756578947 
50.00070350235194 0.6865153782894736 
51.00070350235194 0.6765206414473685 
52.00070350235194 0.6767375 
53.00070350235194 0.6520644736842105 
54.00070350235194 0.6537794407894737 
55.00070350235194 0.6431379111842105 
56.00070350235194 0.6407262335526316 
57.00070350235194 0.6415346217105263 
58.00070350235194 0.6271532894736842 
59.00070350235194 0.6156901315789474 
60.00070350235194 0.6188574013157895 
61.00070350235194 0.614278125 
62.00070350235194 0.6133483552631579 
63.00070350235194 0.6109900493421052 
64.00070350235194 0.609376644736842 
65.00070350235194 0.6166176809210526 
66.00070350235194 0.6159161184210526 
67.00070350235194 0.6083333059210526 
68.00070350235194 0.6124833059210526 
69.00070350235194 0.609125822368421 
70.00070350235194 0.6105064144736843 
71.00070350235194 0.6131964638157895 
72.00070350235194 0.6088594572368421 
73.00070350235194 0.6105376644736843 
74.00070350235194 0.6098313322368422 
75.00070350235194 0.609317927631579 
76.00070350235194 0.6084425986842106 
77.00070350235194 0.608527302631579 
78.00070350235194 0.608421052631579 
79.00070350235194 0.6078478618421053 
80.00070350235194 0.607946052631579 
81.00070350235194 0.6079930921052632 
82.00070350235194 0.6082473684210526 
83.00070350235194 0.6084001644736843 
84.00070350235194 0.6082722861842106 
85.00070350235194 0.6084 
86.00070350235194 0.6083488486842106 
87.00070350235194 0.6083744243421053 
88.00070350235194 0.6083744243421053 
89.00070350235194 0.6084 
90.00070350235194 0.6084 
91.00070350235194 0.6084 
92.00070350235194 0.6084 
93.00070350235194 0.6084 
94.00070350235194 0.6084 
95.00070350235194 0.6084 
96.00070350235194 0.6084 
97.00070350235194 0.6084 
98.00070350235194 0.6084 
99.00070350235194 0.6084 
100.00070350235194 0.6084 
101.00070350235194 0.6084 
102.00070350235194 0.6084 
103.00070350235194 0.6084 
104.00070350235194 0.6084 
105.00070350235194 0.6084 
106.00070350235194 0.6084 
107.00070350235194 0.6084 
108.00070350235194 0.6084 
109.00070350235194 0.6084 
110.00070350235194 0.6084 
111.00070350235194 0.6084 
112.00070350235194 0.6084 
113.00070350235194 0.6084 
114.00070350235194 0.6084 
115.00070350235194 0.6084 
116.00070350235194 0.6084 
117.00070350235194 0.6084 
118.00070350235194 0.6084 
119.00070350235194 0.6084 
120.00070350235194 0.6084 
121.00070350235194 0.6084 
#####################################################################
# End of data export. Simulation finished at: 2017-05-23T03:54+0000 #
#####################################################################
