0.000000000000000000e+00 nan
1.001422248484981514e+00 4.239321808446325779e-01
2.002844496969963028e+00 9.661165352841012410e-01
3.004266745454943432e+00 9.712366198448308952e-01
4.005688993939926057e+00 9.598285090155276311e-01
5.007111242424908681e+00 9.427188354785936975e-01
6.008533490909886865e+00 9.294085766122442971e-01
7.009955739394871266e+00 9.199075803230226667e-01
8.011377987879852114e+00 9.123088343928994481e-01
9.012800236364832074e+00 8.952090374667146522e-01
1.001422248484981736e+01 8.800015342547983233e-01
1.101564473333479732e+01 8.552979630969872460e-01
1.201706698181977373e+01 8.305895253943164080e-01
1.301848923030476080e+01 8.115727643330239438e-01
1.401991147878974253e+01 8.020569765975884557e-01
1.502133372727473137e+01 7.792506568769713704e-01
1.602275597575970423e+01 7.982032761948683053e-01
1.702417822424468241e+01 7.886578262083170365e-01
1.802560047272966415e+01 8.057033103866431123e-01
1.902702272121464233e+01 8.455402657686564849e-01
2.002844496969963473e+01 7.829266100296808917e-01
2.102986721818461646e+01 7.753426008389319168e-01
2.203128946666959465e+01 7.070372819664398900e-01
2.303271171515456572e+01 7.279166944149811913e-01
2.403413396363954746e+01 6.937664967865226906e-01
2.503555621212454696e+01 6.975708104208349081e-01
2.603697846060952159e+01 6.918643399693666929e-01
2.703840070909449977e+01 6.994729672379910168e-01
2.803982295757948506e+01 6.899621831522105841e-01
2.904124520606445614e+01 6.899621831522105841e-01
3.004266745454946275e+01 6.880600263350544754e-01
3.104408970303442317e+01 6.880600263350544754e-01
3.204551195151940846e+01 6.880600263350544754e-01
3.304693420000440085e+01 6.880600263350544754e-01
3.404835644848936482e+01 6.880600263350544754e-01
3.504977869697435722e+01 6.880600263350544754e-01
