#####################################################################
# Alchemist log file - simulation started at: 2017-05-21T11:02+0000 #
#####################################################################
# random = 2.0, targets = 31.622776601683793, density = 0.04, gridShift = 0.0, perturbation = 0.5, connfactor = 0.1
#
# The columns have the following meaning: 
# time se[Mean] 
0.0 NaN 
1.003288451303821 NaN 
2.003288451303821 1.0 
3.003288451303821 1.0 
4.0032884513038205 0.9980392014623948 
5.0032884513038205 0.9941176043871842 
6.0032884513038205 0.9941176043871842 
7.0032884513038205 0.9717130219359214 
8.00328845130382 0.945574342409448 
9.00328845130382 0.9535033350974742 
10.00328845130382 0.8844304906684752 
11.00328845130382 0.8673458038300281 
12.00328845130382 0.8388713257659496 
13.00328845130382 0.8331764301531339 
14.00328845130382 0.8509094155291862 
15.00328845130382 0.8331764301531339 
16.00328845130382 0.8686424009052386 
17.00328845130382 0.8775088935932648 
18.00328845130382 0.8775088935932648 
19.00328845130382 0.8775088935932648 
20.00328845130382 0.8775088935932648 
#####################################################################
# End of data export. Simulation finished at: 2017-05-21T11:02+0000 #
#####################################################################
