#####################################################################
# Alchemist log file - simulation started at: 2017-05-25T10:46+0000 #
#####################################################################
# random = 17.0, targets = 100.0, density = 1.7841466528270753, gridShift = 1.0, perturbation = 0.5, connfactor = 1.0
#
# The columns have the following meaning: 
# time se[Mean] 
0.0 NaN 
1.0003034458253823 NaN 
2.0003034458253826 1.01851640625 
3.0003034458253826 1.0276164930555556 
4.0003034458253826 1.0448408606150794 
5.0003034458253826 1.0644343253968254 
6.0003034458253826 1.0641684771825397 
7.0003034458253826 1.0841770864335318 
8.000303445825383 1.078130236235119 
9.000303445825383 1.1002254030257936 
10.000303445825383 1.1069093625992064 
11.000303445825383 1.1016054222470237 
12.000303445825383 1.1260727678571427 
13.000303445825383 1.1229111049107143 
14.000303445825383 1.140113132440476 
15.000303445825383 1.1486519500248016 
16.00030344582538 1.1255182880704366 
17.00030344582538 1.182715113467262 
18.00030344582538 1.1876020213293652 
19.00030344582538 1.1958349175347223 
20.00030344582538 1.2208527374751983 
21.00030344582538 1.2554865141369047 
22.00030344582538 1.268918080357143 
23.00030344582538 1.220297228422619 
24.00030344582538 1.2743344773065477 
25.00030344582538 1.2810806609623016 
26.00030344582538 1.3154737692212304 
27.00030344582538 1.3530459108382937 
28.00030344582538 1.3736242528521827 
29.00030344582538 1.376884148685516 
30.00030344582538 1.432519019717262 
31.00030344582538 1.4875972439236114 
32.00030344582538 1.4061580605158732 
33.00030344582538 1.5184651165674605 
34.00030344582538 1.5059611979166667 
35.00030344582538 1.4823380704365081 
36.00030344582538 1.5692736607142859 
37.00030344582538 1.5505427207341271 
38.00030344582538 1.534833060515873 
39.00030344582538 1.5447693452380955 
40.00030344582538 1.5690952628968255 
41.00030344582538 1.5232898437500002 
42.00030344582538 1.560361086309524 
43.00030344582538 1.506427666170635 
44.00030344582538 1.4952730778769843 
45.00030344582538 1.4224384796626985 
46.00030344582538 1.4952347005208335 
47.00030344582538 1.564342785838294 
48.00030344582538 1.6640483041914684 
49.00030344582538 1.787616651165675 
50.00030344582538 1.828047181919643 
51.00030344582538 1.9165495535714292 
52.00030344582538 2.2034282738095246 
53.00030344582538 2.082833088417659 
54.00030344582538 2.0669999255952383 
55.00030344582538 2.2296008804563496 
56.00030344582538 2.119421906001984 
57.00030344582538 2.1746837394593257 
58.00030344582538 2.182858410838294 
59.00030344582538 2.1054185608878973 
60.00030344582538 2.0350863498263894 
61.00030344582538 2.007106169394842 
62.00030344582538 2.001992137896826 
63.00030344582538 1.9076640935019848 
64.00030344582538 1.8741829799107141 
65.00030344582538 1.7475922991071429 
66.00030344582538 1.6444635571676594 
67.00030344582538 1.5793741722470243 
68.00030344582538 1.559632899305556 
69.00030344582538 1.538209598214286 
70.00030344582538 1.5370435639880955 
71.00030344582538 1.5382028025793655 
72.00030344582538 1.5375167286706353 
73.00030344582538 1.5379766865079367 
74.00030344582538 1.5378628472222224 
75.00030344582538 1.5379343750000003 
76.00030344582538 1.5376008928571432 
77.00030344582538 1.537711160714286 
78.00030344582538 1.5376000000000003 
79.00030344582538 1.5376000000000003 
80.00030344582538 1.5376000000000003 
81.00030344582538 1.5376000000000003 
82.00030344582538 1.5376000000000003 
83.00030344582538 1.5376000000000003 
84.00030344582538 1.5376000000000003 
85.00030344582538 1.5376000000000003 
86.00030344582538 1.5376000000000003 
87.00030344582538 1.5376000000000003 
88.00030344582538 1.5376000000000003 
89.00030344582538 1.5376000000000003 
90.00030344582538 1.5376000000000003 
91.00030344582538 1.5376000000000003 
92.00030344582538 1.5376000000000003 
93.00030344582538 1.5376000000000003 
94.00030344582538 1.5376000000000003 
95.00030344582538 1.5376000000000003 
96.00030344582538 1.5376000000000003 
97.00030344582538 1.5376000000000003 
98.00030344582538 1.5376000000000003 
99.00030344582538 1.5376000000000003 
100.00030344582538 1.5376000000000003 
101.00030344582538 1.5376000000000003 
102.00030344582538 1.5376000000000003 
103.00030344582538 1.5376000000000003 
104.00030344582538 1.5376000000000003 
105.00030344582538 1.5376000000000003 
#####################################################################
# End of data export. Simulation finished at: 2017-05-25T10:46+0000 #
#####################################################################
