#####################################################################
# Alchemist log file - simulation started at: 2017-05-24T14:55+0000 #
#####################################################################
# random = 15.0, targets = 3.1622776601683795, density = 7.099073319511142, gridShift = 1.0, perturbation = 0.5, connfactor = 2.0
#
# The columns have the following meaning: 
# time se[Mean] 
0.0 NaN 
1.0001976518064393 NaN 
2.000197651806439 1.0364113521605716 
3.000197651806439 1.066992749616319 
4.000197651806439 1.0752863415280098 
5.000197651806439 1.0809007478450205 
6.000197651806439 1.0577766153465382 
7.000197651806439 1.0241065393495734 
8.000197651806438 1.0258371672896418 
9.000197651806438 1.0152332183042467 
10.000197651806438 1.054615452466104 
11.000197651806438 1.0839677109024124 
12.000197651806438 1.1079931694069733 
13.000197651806438 1.1588824690657402 
14.000197651806438 1.1601039302939073 
15.000197651806438 1.1791647749050131 
16.000197651806438 1.1950367606687304 
17.000197651806438 1.1615524177321082 
18.000197651806438 1.1470142139744384 
19.000197651806438 1.1246285128221354 
20.000197651806438 1.0923192447396894 
21.000197651806438 1.1079360819846522 
22.000197651806438 1.0812073420367059 
23.000197651806438 1.0913510076431319 
24.000197651806438 1.0811873800133587 
25.000197651806438 1.070988848771142 
26.000197651806438 1.067455712579282 
27.000197651806438 1.0638649410899428 
28.000197651806438 1.0549810263616268 
29.000197651806438 1.059788104763171 
30.000197651806438 1.0531583685221069 
31.000197651806438 1.0570383980811076 
32.00019765180644 1.0450736263632108 
33.00019765180644 1.0623083468982573 
34.00019765180644 1.1462814706513293 
35.00019765180644 1.0720006661849781 
36.00019765180644 1.5967649884866084 
37.00019765180644 1.7760207833290598 
38.00019765180644 2.046046349406899 
39.00019765180644 3.14087236856118 
40.00019765180644 2.7494581011588415 
41.00019765180644 3.5981738063831585 
42.00019765180644 3.622005088960587 
43.00019765180644 3.6484182316265716 
44.00019765180644 3.65601130359368 
45.00019765180644 3.7529815874686547 
46.00019765180644 3.1176527065212176 
47.00019765180644 4.088871160999964 
48.00019765180644 3.2881512103995414 
49.00019765180644 3.9347345021644684 
50.00019765180644 3.9770639074863228 
51.00019765180644 3.9849545323400988 
52.00019765180644 4.060086042006892 
53.00019765180644 4.42984568078828 
54.00019765180644 4.603394125639073 
55.00019765180644 4.083280271720659 
56.00019765180644 4.324561123526527 
57.00019765180644 4.153956865443358 
58.00019765180644 3.7421144708397573 
59.00019765180644 3.670204888673399 
60.00019765180644 3.5572344379532206 
61.00019765180644 3.3084756792296135 
62.00019765180644 3.3586957217535653 
63.00019765180644 3.3544083352462497 
64.00019765180645 2.9488468813564044 
65.00019765180645 2.7228936352422344 
66.00019765180645 2.8708756877876844 
67.00019765180645 2.348773916472889 
68.00019765180645 2.2335670232128786 
69.00019765180645 2.173951293104691 
70.00019765180645 2.1266972096344654 
71.00019765180645 2.012668908678171 
72.00019765180645 1.9382042344469552 
73.00019765180645 1.816054772386295 
74.00019765180645 1.7723612267950972 
75.00019765180645 1.833502696169508 
76.00019765180645 1.7285758265204985 
77.00019765180645 1.7100022159371246 
78.00019765180645 1.6417870037094104 
79.00019765180645 1.6028940131007998 
80.00019765180645 1.6044939537716958 
81.00019765180645 1.4836636634527325 
82.00019765180645 1.476823435653132 
83.00019765180645 1.448421201461119 
84.00019765180645 1.412519188758847 
85.00019765180645 1.3061586831830376 
86.00019765180645 1.382577547797477 
87.00019765180645 1.2862686729893191 
88.00019765180645 1.2626729983097222 
89.00019765180645 1.265929947316543 
90.00019765180645 1.2472587311153125 
91.00019765180645 1.2365169186709606 
92.00019765180645 1.214556232035077 
93.00019765180645 1.2044386230595252 
94.00019765180645 1.184079750268687 
95.00019765180645 1.1773048429668262 
96.00019765180645 1.1655599774215049 
97.00019765180645 1.1536211648477968 
98.00019765180645 1.1453364760700087 
99.00019765180645 1.1340473584331696 
100.00019765180645 1.1249176221921038 
101.00019765180645 1.1166866347991378 
102.00019765180645 1.1020068773865677 
103.00019765180645 1.0870767555817713 
104.00019765180645 1.0790140361847413 
105.00019765180645 1.0705905535350861 
106.00019765180645 1.0639321397011514 
107.00019765180645 1.0568943110722422 
108.00019765180645 1.0469045345657988 
109.00019765180645 1.0469414113087303 
110.00019765180645 1.0387419125046742 
111.00019765180645 1.0357558038632269 
112.00019765180645 1.0247824661333784 
113.00019765180645 1.0225150267274623 
114.00019765180645 1.0208491103183168 
115.00019765180645 1.01564124960043 
116.00019765180645 1.0141049438175096 
117.00019765180645 1.0101616082256062 
118.00019765180645 1.0162504553277998 
119.00019765180645 1.0088019133490493 
120.00019765180645 1.015488675920773 
121.00019765180645 1.0132560062455902 
122.00019765180645 1.128666419726382 
123.00019765180645 1.710707235737191 
124.00019765180645 1.7312090800292699 
125.00019765180645 1.8012919433207948 
126.00019765180645 3.00409291721005 
127.00019765180645 2.2202354114945377 
128.00019765180645 2.800111664627298 
129.00019765180645 2.9435627111819356 
130.00019765180645 1.7819053938783203 
131.00019765180645 3.2063817154284795 
132.00019765180645 2.31267856219967 
133.00019765180645 3.164406920129719 
134.00019765180645 2.7552977993327814 
135.00019765180645 3.3510984075560413 
136.00019765180645 3.1496037823998924 
137.00019765180645 3.190573826639598 
138.00019765180645 2.983055394767261 
139.00019765180645 3.5620157702515938 
140.00019765180645 3.55310138742498 
141.00019765180645 3.1489137826983087 
142.00019765180645 4.248599794986415 
143.00019765180645 3.6448729567827503 
144.00019765180645 4.193903419603709 
145.00019765180645 4.233365458054941 
146.00019765180645 4.492419600911432 
147.00019765180645 4.084440946751781 
148.00019765180645 4.13346025943581 
149.00019765180645 4.579395472203187 
150.00019765180645 4.109212614350143 
151.00019765180645 5.320853925120109 
152.00019765180645 5.0036643514483705 
153.00019765180645 4.995524791747097 
154.00019765180645 4.7260162644958665 
155.00019765180645 5.060521368664636 
156.00019765180645 5.496680755311648 
157.00019765180645 5.3798341527927835 
158.00019765180645 6.4877856692591545 
159.00019765180645 6.0589110821867775 
160.00019765180645 5.827748274926962 
161.00019765180645 6.680506842108711 
162.00019765180645 5.954618868398869 
163.00019765180645 5.189157963834819 
164.00019765180645 5.705187642368936 
165.00019765180645 4.168619044836921 
166.00019765180645 5.690931796313482 
167.00019765180645 4.26684554797241 
168.00019765180645 5.041783599863971 
169.00019765180645 4.365123796649879 
170.00019765180645 5.087353805198506 
171.00019765180645 4.711745075206186 
172.00019765180645 4.477583699856781 
173.00019765180645 4.114176194754743 
174.00019765180645 4.9786846281587565 
175.00019765180645 4.970163486208569 
176.00019765180645 4.246508998462421 
177.00019765180645 5.864523082402563 
178.00019765180645 4.967402579346371 
179.00019765180645 5.685247354522787 
180.00019765180645 5.687762347324879 
181.00019765180645 6.044303007772973 
182.00019765180645 5.326635920145855 
183.00019765180645 5.325177306700778 
184.00019765180645 6.044886303099488 
185.00019765180645 5.325440464335557 
186.00019765180645 7.1217514941192634 
187.00019765180645 6.582495312449643 
188.00019765180645 6.402864209471282 
189.00019765180645 5.863970900536176 
190.00019765180645 6.402864209471281 
191.00019765180645 7.121388621384779 
192.00019765180645 6.582495312449675 
193.00019765180645 6.762126415428048 
194.00019765180645 6.043602003514549 
195.00019765180645 5.6843397975578425 
196.00019765180645 4.24729097373087 
197.00019765180645 5.145446488622708 
198.00019765180645 2.9898732528822527 
199.00019765180645 3.5287665618173727 
200.00019765180645 4.06765987075246 
201.00019765180645 3.169504355860619 
202.00019765180645 2.810242149903895 
203.00019765180645 2.09171773799042 
204.00019765180645 2.2713488409687854 
205.00019765180645 2.0917177379904195 
206.00019765180645 2.0917177379904195 
207.00019765180645 1.7324555320336767 
208.00019765180645 1.7324555320336767 
209.00019765180645 1.7324555320336767 
210.00019765180645 1.7324555320336767 
211.00019765180645 1.7324555320336767 
212.00019765180645 1.7324555320336767 
213.00019765180645 1.7324555320336767 
214.00019765180645 1.7324555320336767 
215.00019765180645 1.7324555320336767 
216.00019765180645 1.7324555320336767 
217.00019765180645 1.7324555320336767 
218.00019765180645 1.7324555320336767 
219.00019765180645 1.7324555320336767 
220.00019765180645 1.7324555320336767 
221.00019765180645 1.7324555320336767 
222.00019765180645 1.7324555320336767 
223.00019765180645 1.7324555320336767 
224.00019765180645 1.7324555320336767 
225.00019765180645 1.7324555320336767 
226.00019765180645 1.7324555320336767 
227.00019765180645 1.7324555320336767 
228.00019765180645 1.7324555320336767 
229.00019765180645 1.7324555320336767 
230.00019765180645 1.7324555320336767 
231.00019765180645 1.7324555320336767 
232.00019765180645 1.7324555320336767 
233.00019765180645 1.7324555320336767 
234.00019765180645 1.7324555320336767 
235.00019765180645 1.7324555320336767 
236.00019765180645 1.7324555320336767 
237.00019765180645 1.7324555320336767 
238.00019765180645 1.7324555320336767 
239.00019765180645 1.7324555320336767 
240.00019765180645 1.7324555320336767 
241.00019765180645 1.7324555320336767 
242.00019765180645 1.7324555320336767 
243.00019765180645 1.7324555320336767 
244.00019765180645 1.7324555320336767 
245.00019765180645 1.7324555320336767 
246.00019765180645 1.7324555320336767 
247.00019765180645 1.7324555320336767 
248.00019765180645 1.7324555320336767 
249.00019765180645 1.7324555320336767 
250.00019765180645 1.7324555320336767 
251.00019765180645 1.7324555320336767 
252.00019765180645 1.7324555320336767 
253.00019765180645 1.7324555320336767 
254.00019765180645 1.7324555320336767 
255.00019765180645 1.7324555320336767 
256.00019765180645 1.7324555320336767 
257.00019765180645 1.7324555320336767 
258.00019765180645 1.7324555320336767 
259.00019765180645 1.7324555320336767 
260.00019765180645 1.7324555320336767 
261.00019765180645 1.7324555320336767 
262.00019765180645 1.7324555320336767 
263.00019765180645 1.7324555320336767 
264.00019765180645 1.7324555320336767 
#####################################################################
# End of data export. Simulation finished at: 2017-05-24T14:57+0000 #
#####################################################################
