#####################################################################
# Alchemist log file - simulation started at: 2017-05-25T21:05+0000 #
#####################################################################
# random = 19.0, targets = 1.0, density = 14.160781367816199, gridShift = 0.0, perturbation = 0.5, connfactor = 1.0
#
# The columns have the following meaning: 
# time se[Mean] 
0.0 NaN 
1.0033709149780283 NaN 
2.0033709149780283 NaN 
3.0033709149780283 1.0 
4.003370914978028 1.0005113594857185 
5.003370914978028 1.0030681569143107 
6.003370914978028 1.001552341295931 
7.003370914978028 1.0041274015632988 
8.003370914978028 1.0045839725326904 
9.003370914978028 0.9978997735407992 
10.003370914978028 0.9926035502958579 
11.003370914978028 0.9937723719775002 
12.003370914978028 0.9894075535101177 
13.003370914978028 0.9933340638468844 
14.003370914978028 1.0029220542041055 
15.003370914978028 1.0185185185185182 
16.003370914978028 1.0176601650960626 
17.003370914978028 1.0304806779165756 
18.003370914978028 1.035393381547228 
19.003370914978028 1.0252209803491854 
20.003370914978028 1.020290013879757 
21.003370914978028 1.0211483673022137 
22.003370914978028 0.9988311783183579 
23.003370914978028 0.9879100007305136 
24.003370914978028 0.9828329315508803 
25.003370914978028 0.9612827817956023 
26.003370914978028 0.9547812111914675 
27.003370914978028 0.9421250639199349 
28.003370914978028 0.9325735992402666 
29.003370914978028 0.9252867265687783 
30.003370914978028 0.9188582073197469 
31.003370914978028 0.9160274673095191 
32.00337091497803 0.9085031777339468 
33.00337091497803 0.9047775586237125 
34.00337091497803 0.898385565052232 
35.00337091497803 0.8923405654174886 
36.00337091497803 0.8821133757031207 
37.00337091497803 0.8768536781357285 
38.00337091497803 0.8708086785009848 
39.00337091497803 0.8540433925049292 
40.00337091497803 0.8707538899846599 
41.00337091497803 0.9376689312586746 
42.00337091497803 0.8395061728395065 
43.00337091497803 0.9754730075242897 
44.00337091497803 1.0366717802615235 
45.00337091497803 1.0892322302578714 
46.00337091497803 1.0614544524800946 
47.00337091497803 1.1990101541383564 
48.00337091497803 1.3366754328292765 
49.00337091497803 1.1795602308422815 
50.00337091497803 1.344911973117099 
51.00337091497803 1.4870333844692865 
52.00337091497803 1.4175250200891236 
53.00337091497803 1.5544415223902428 
54.00337091497803 1.7744356782818405 
55.00337091497803 1.7326503031631337 
56.00337091497803 1.6407334356052325 
57.00337091497803 1.7853385930309098 
58.00337091497803 1.8806523486010625 
59.00337091497803 1.683358901307621 
60.00337091497803 1.644897362846085 
61.00337091497803 1.8183212798597441 
62.00337091497803 1.7478267221856938 
63.00337091497803 1.7122507122507122 
64.00337091497803 1.5942727737599558 
65.00337091497803 1.47235006209365 
66.00337091497803 1.4618306669588754 
67.00337091497803 1.0016801811673597 
68.00337091497803 0.9054715464971889 
69.00337091497803 0.914749068595226 
70.00337091497803 0.7987435166922328 
71.00337091497803 0.7809920374022923 
72.00337091497803 0.6603842501278437 
73.00337091497803 0.4890057710570488 
74.00337091497803 0.44817006355467964 
75.00337091497803 0.3578785886478205 
76.00337091497803 0.31704288114544216 
77.00337091497803 0.28212433340638327 
78.00337091497803 0.2478632478632456 
79.00337091497803 0.2333990795529267 
80.00337091497803 0.2215647600263 
81.00337091497803 0.21433267587114047 
82.00337091497803 0.20578566732412717 
83.00337091497803 0.19066403681788593 
84.00337091497803 0.1775147928994069 
85.00337091497803 0.16370808678500648 
86.00337091497803 0.15779092702169847 
87.00337091497803 0.1433267587113782 
88.00337091497803 0.13214990138066976 
89.00337091497803 0.11965811965811819 
90.00337091497803 0.1078238001314902 
91.00337091497803 0.09730440499671615 
92.00337091497803 0.08612754766600875 
93.00337091497803 0.07429322813938198 
94.00337091497803 0.061801446416830365 
95.00337091497803 0.05391190006574539 
96.00337091497803 0.04404996712689084 
97.00337091497803 0.036160420775804857 
98.00337091497803 0.029585798816567345 
99.00337091497803 0.024983563445101935 
100.00337091497803 0.019723865877712316 
101.00337091497803 0.013149243918474673 
102.00337091497803 0.01117685733070371 
103.00337091497803 0.005917159763313508 
104.00337091497803 0.004602235371466009 
105.00337091497803 0.001972386587771267 
106.00337091497803 6.574621959237166E-4 
107.00337091497803 1.232595164407831E-32 
108.00337091497803 1.232595164407831E-32 
109.00337091497803 1.232595164407831E-32 
110.00337091497803 1.232595164407831E-32 
111.00337091497803 1.232595164407831E-32 
112.00337091497803 1.232595164407831E-32 
113.00337091497803 1.232595164407831E-32 
114.00337091497803 1.232595164407831E-32 
115.00337091497803 1.232595164407831E-32 
116.00337091497803 1.232595164407831E-32 
117.00337091497803 1.232595164407831E-32 
118.00337091497803 1.232595164407831E-32 
119.00337091497803 1.232595164407831E-32 
120.00337091497803 1.232595164407831E-32 
121.00337091497803 1.232595164407831E-32 
122.00337091497803 1.232595164407831E-32 
123.00337091497803 1.232595164407831E-32 
124.00337091497803 1.232595164407831E-32 
125.00337091497803 1.232595164407831E-32 
126.00337091497803 1.232595164407831E-32 
127.00337091497803 1.232595164407831E-32 
128.00337091497803 1.232595164407831E-32 
129.00337091497803 1.232595164407831E-32 
130.00337091497803 1.232595164407831E-32 
131.00337091497803 1.232595164407831E-32 
132.00337091497803 1.232595164407831E-32 
133.00337091497803 1.232595164407831E-32 
134.00337091497803 1.232595164407831E-32 
135.00337091497803 1.232595164407831E-32 
136.00337091497803 1.232595164407831E-32 
137.00337091497803 1.232595164407831E-32 
138.00337091497803 1.232595164407831E-32 
139.00337091497803 1.232595164407831E-32 
140.00337091497803 1.232595164407831E-32 
141.00337091497803 1.232595164407831E-32 
142.00337091497803 1.232595164407831E-32 
143.00337091497803 1.232595164407831E-32 
144.00337091497803 1.232595164407831E-32 
145.00337091497803 1.232595164407831E-32 
146.00337091497803 1.232595164407831E-32 
147.00337091497803 1.232595164407831E-32 
148.00337091497803 1.232595164407831E-32 
149.00337091497803 1.232595164407831E-32 
150.00337091497803 1.232595164407831E-32 
151.00337091497803 1.232595164407831E-32 
152.00337091497803 1.232595164407831E-32 
153.00337091497803 1.232595164407831E-32 
154.00337091497803 1.232595164407831E-32 
155.00337091497803 1.232595164407831E-32 
156.00337091497803 1.232595164407831E-32 
157.00337091497803 1.232595164407831E-32 
158.00337091497803 1.232595164407831E-32 
159.00337091497803 1.232595164407831E-32 
160.00337091497803 1.232595164407831E-32 
161.00337091497803 1.232595164407831E-32 
162.00337091497803 1.232595164407831E-32 
163.00337091497803 1.232595164407831E-32 
164.00337091497803 1.232595164407831E-32 
165.00337091497803 1.232595164407831E-32 
166.00337091497803 1.232595164407831E-32 
167.00337091497803 1.232595164407831E-32 
168.00337091497803 1.232595164407831E-32 
169.00337091497803 1.232595164407831E-32 
170.00337091497803 1.232595164407831E-32 
171.00337091497803 1.232595164407831E-32 
172.00337091497803 1.232595164407831E-32 
173.00337091497803 1.232595164407831E-32 
174.00337091497803 1.232595164407831E-32 
175.00337091497803 1.232595164407831E-32 
176.00337091497803 1.232595164407831E-32 
177.00337091497803 1.232595164407831E-32 
178.00337091497803 1.232595164407831E-32 
179.00337091497803 1.232595164407831E-32 
180.00337091497803 1.232595164407831E-32 
181.00337091497803 1.232595164407831E-32 
182.00337091497803 1.232595164407831E-32 
183.00337091497803 1.232595164407831E-32 
184.00337091497803 1.232595164407831E-32 
185.00337091497803 1.232595164407831E-32 
186.00337091497803 1.232595164407831E-32 
187.00337091497803 1.232595164407831E-32 
188.00337091497803 1.232595164407831E-32 
189.00337091497803 1.232595164407831E-32 
190.00337091497803 1.232595164407831E-32 
191.00337091497803 1.232595164407831E-32 
192.00337091497803 1.232595164407831E-32 
193.00337091497803 1.232595164407831E-32 
194.00337091497803 1.232595164407831E-32 
195.00337091497803 1.232595164407831E-32 
#####################################################################
# End of data export. Simulation finished at: 2017-05-25T21:07+0000 #
#####################################################################
