0.000000000000000000e+00 nan
1.000001307901222880e+00 9.686700395261276995e-32
2.000002615802445760e+00 1.002114918184560777e+00
3.000003923703671305e+00 1.039187343419367471e+00
4.000005231604891520e+00 1.098383680507551086e+00
5.000006539506116177e+00 1.167521885777758728e+00
6.000007847407342609e+00 1.174493634659114827e+00
7.000009155308561937e+00 1.267350584026937232e+00
8.000010463209783040e+00 1.303493002866134676e+00
9.000011771111010361e+00 1.331184368579409361e+00
1.000001307901223235e+01 1.323750039829011182e+00
1.100001438691345079e+01 1.270279914625928486e+00
1.200001569481468522e+01 1.239767416343835471e+00
1.300001700271590188e+01 1.156637642626081153e+00
1.400001831061712387e+01 1.089658761240376528e+00
1.500001961851834764e+01 1.085745277244130058e+00
1.600002092641956608e+01 1.042247269844181146e+00
1.700002223432079163e+01 1.033908775540402836e+00
1.800002354222202072e+01 1.024110357623765122e+00
1.900002485012322850e+01 9.897983557737810578e-01
2.000002615802446471e+01 9.804672024285980836e-01
2.100002746592569736e+01 9.555316353811812435e-01
2.200002877382690158e+01 9.473853278431957348e-01
2.300003008172813779e+01 9.460809951329228751e-01
2.400003138962937044e+01 9.434669372060544568e-01
2.500003269753057467e+01 1.008069144911341919e+00
2.600003400543180376e+01 1.007208965174249959e+00
2.700003531333301154e+01 1.032000380150633445e+00
2.800003662123424775e+01 1.046701216136677104e+00
2.900003792913547684e+01 1.090682947548931914e+00
3.000003923703669528e+01 1.095136282010910955e+00
3.100004054493793149e+01 1.151634428476324024e+00
3.200004185283913216e+01 1.189318234363560878e+00
3.300004316074035415e+01 1.273818124569972010e+00
3.400004446864158325e+01 1.269566388266906154e+00
3.500004577654282656e+01 1.280206858941646653e+00
3.600004708444404145e+01 1.302017369604675956e+00
3.700004839234523502e+01 1.282597298808917152e+00
3.800004970024645701e+01 1.218809383551138437e+00
3.900005100814770032e+01 1.239153648352533166e+00
4.000005231604892941e+01 1.206375343680699874e+00
4.100005362395015140e+01 1.226096962949924540e+00
4.200005493185139471e+01 1.187178273115652383e+00
4.300005623975258118e+01 1.234613535927321815e+00
4.400005754765380317e+01 1.200568250199103737e+00
4.500005885555503937e+01 1.214080947290102408e+00
4.600006016345627557e+01 1.179976931829547659e+00
4.700006147135749757e+01 1.138565524458091449e+00
4.800006277925874087e+01 1.094155403706249752e+00
4.900006408715992023e+01 1.036902864201665331e+00
5.000006539506114933e+01 1.020843062638212562e+00
5.100006670296237843e+01 9.918764021714207013e-01
5.200006801086360753e+01 9.219790471795654696e-01
5.300006931876485083e+01 9.230381498166010390e-01
5.400007062666602309e+01 8.684012338052317093e-01
5.500007193456726640e+01 8.156392184613594498e-01
5.600007324246849549e+01 8.006437080977100162e-01
5.700007455036970327e+01 7.707341388091415446e-01
5.800007585827095369e+01 7.663210352033632544e-01
5.900007716617212594e+01 7.602880922803209041e-01
6.000007847407339057e+01 7.389717787286286255e-01
6.100007978197459835e+01 7.238798090834763777e-01
6.200008108987586297e+01 7.596522683983905067e-01
6.300008239777707075e+01 7.246869575098314753e-01
6.400008370567826432e+01 7.367547028408215626e-01
6.500008501357955026e+01 6.929529275822148282e-01
6.600008632148070831e+01 7.277460081772081368e-01
6.700008762938198004e+01 7.069867663212292541e-01
6.800008893728316650e+01 6.764212847151304109e-01
6.900009024518438139e+01 6.996806040697378659e-01
7.000009155308565312e+01 6.581085671915524182e-01
7.100009286098681116e+01 6.507626719457951792e-01
7.200009416888808289e+01 6.070962551938533514e-01
7.300009547678928357e+01 6.586010967648997516e-01
7.400009678469047003e+01 6.401361773998858196e-01
7.500009809259175597e+01 6.551537436541925441e-01
7.600009940049291401e+01 6.446296887332466641e-01
7.700010070839419996e+01 6.611910893577436221e-01
7.800010201629540063e+01 6.316176249708074231e-01
7.900010332419657288e+01 5.805238075494295602e-01
8.000010463209785883e+01 5.762546940597473855e-01
8.100010593999905950e+01 5.780970477425734222e-01
8.200010724790030281e+01 5.523415917978887757e-01
8.300010855580150348e+01 5.399808396273416689e-01
8.400010986370278943e+01 5.289025022381751429e-01
8.500011117160396168e+01 5.687198091627115870e-01
8.600011247950516236e+01 4.862488989449635368e-01
8.700011378740644830e+01 5.224808789763734085e-01
8.800011509530760634e+01 4.911127596944337426e-01
8.900011640320889228e+01 4.539063135822853923e-01
9.000011771111007874e+01 4.354335903787847073e-01
9.100011901901126521e+01 4.344824158465263597e-01
9.200012032691255115e+01 4.052148427300318878e-01
9.300012163481370919e+01 3.633128312519924297e-01
9.400012294271499513e+01 3.788827904978180894e-01
9.500012425061619581e+01 3.247005545436445484e-01
9.600012555851748175e+01 3.219888316692208208e-01
9.700012686641865400e+01 3.134539277692485193e-01
9.800012817431984047e+01 3.123629439630557503e-01
9.900012948222109799e+01 2.783770897727618210e-01
1.000001307901222987e+02 2.734365822537829227e-01
1.010001320980235846e+02 2.637018786887657118e-01
1.020001334059247569e+02 2.519084913626833955e-01
1.030001347138259433e+02 2.295686873096731695e-01
1.040001360217272151e+02 2.231858553030446057e-01
1.050001373296284299e+02 1.899505432186282816e-01
1.060001386375297017e+02 1.878114997165858113e-01
1.070001399454308739e+02 1.803437782157159275e-01
1.080001412533320462e+02 1.641717297437826906e-01
1.090001425612333179e+02 1.427039881365460283e-01
1.100001438691345328e+02 1.296877135405153092e-01
1.110001451770358045e+02 9.995041053559715338e-02
1.120001464849369910e+02 9.011118592213701595e-02
1.130001477928381490e+02 8.048568810807142648e-02
1.140001491007394065e+02 7.423943826933324108e-02
1.150001504086406499e+02 6.030994062876669087e-02
1.160001517165419074e+02 4.617401016845725653e-02
1.170001530244430938e+02 4.422196486943612975e-02
1.180001543323442519e+02 2.512744189954854018e-02
1.190001556402455094e+02 2.660648221723993165e-02
1.200001569481467811e+02 2.558809630201214561e-02
1.210001582560480387e+02 1.335195961399750393e-02
1.220001595639491967e+02 1.024019554774826916e-02
1.230001608718504400e+02 3.431145600113083820e-03
1.240001621797517259e+02 2.803893343970952426e-03
1.250001634876528982e+02 2.310164103021894802e-03
1.260001647955541415e+02 1.756349505235591576e-03
1.270001661034552995e+02 1.290218619762228394e-03
1.280001674113565286e+02 9.902477093049590409e-04
1.290001687192578288e+02 7.825792318120850877e-04
1.300001700271591005e+02 6.557623590715277746e-04
1.310001713350602301e+02 5.380509641864251319e-04
1.320001726429614166e+02 4.387724635370906351e-04
1.330001739508626315e+02 3.625695711288827710e-04
1.340001752587639601e+02 2.124611499609129611e-04
1.350001765666652034e+02 1.685833037733888305e-04
1.360001778745663330e+02 1.362522592141793460e-04
1.370001791824675195e+02 1.662739434479110071e-04
1.380001804903687628e+02 1.039212146549537476e-04
1.390001817982700629e+02 8.313697172396312008e-05
1.400001831061713062e+02 4.156848586198120090e-05
1.410001844140724643e+02 6.235272879297253318e-05
1.420001857219736223e+02 8.313697172396264574e-05
1.430001870298748656e+02 1.039212146549537205e-04
1.440001883377761658e+02 4.156848586198131609e-05
1.450001896456774091e+02 8.313697172396242890e-05
1.460001909535785671e+02 6.235272879297257384e-05
1.470001922614797252e+02 2.078424293099056996e-05
1.480001935693809401e+02 4.156848586198123478e-05
1.490001948772822971e+02 2.078424293099064111e-05
1.500001961851835119e+02 1.576276006728861645e-31
1.510001974930846984e+02 2.078424293099064111e-05
1.520001988009858280e+02 1.576276006728861645e-31
1.530002001088870429e+02 1.576276006728861645e-31
1.540002014167883999e+02 1.576276006728861645e-31
1.550002027246896148e+02 1.576276006728861645e-31
1.560002040325908013e+02 1.576276006728861645e-31
1.570002053404919309e+02 1.576276006728861645e-31
1.580002066483931458e+02 1.576276006728861645e-31
1.590002079562945028e+02 1.576276006728861645e-31
1.600002092641957177e+02 1.576276006728861645e-31
1.610002105720969041e+02 1.576276006728861645e-31
1.620002118799981190e+02 1.576276006728861645e-31
1.630002131878992486e+02 1.576276006728861645e-31
1.640002144958006056e+02 1.576276006728861645e-31
1.650002158037018205e+02 1.576276006728861645e-31
1.660002171116030070e+02 1.576276006728861645e-31
1.670002184195042219e+02 1.576276006728861645e-31
1.680002197274055789e+02 1.576276006728861645e-31
1.690002210353067937e+02 1.576276006728861645e-31
1.700002223432079234e+02 1.576276006728861645e-31
1.710002236511091098e+02 1.576276006728861645e-31
1.720002249590103247e+02 1.576276006728861645e-31
1.730002262669116817e+02 1.576276006728861645e-31
1.740002275748128966e+02 1.576276006728861645e-31
1.750002288827140546e+02 1.576276006728861645e-31
1.760002301906152127e+02 1.576276006728861645e-31
1.770002314985164276e+02 1.576276006728861645e-31
1.780002328064177846e+02 1.576276006728861645e-31
1.790002341143189994e+02 1.576276006728861645e-31
1.800002354222201575e+02 1.576276006728861645e-31
1.810002367301213155e+02 1.576276006728861645e-31
1.820002380380225304e+02 1.576276006728861645e-31
1.830002393459238874e+02 1.576276006728861645e-31
1.840002406538251023e+02 1.576276006728861645e-31
1.850002419617262603e+02 1.576276006728861645e-31
1.860002432696274184e+02 1.576276006728861645e-31
1.870002445775286333e+02 1.576276006728861645e-31
1.880002458854299903e+02 1.576276006728861645e-31
1.890002471933312052e+02 1.576276006728861645e-31
1.900002485012323916e+02 1.576276006728861645e-31
1.910002498091335212e+02 1.576276006728861645e-31
1.920002511170349635e+02 1.576276006728861645e-31
1.930002524249361215e+02 1.576276006728861645e-31
1.940002537328373080e+02 1.576276006728861645e-31
1.950002550407384945e+02 1.576276006728861645e-31
1.960002563486396809e+02 1.576276006728861645e-31
1.970002576565410664e+02 1.576276006728861645e-31
1.980002589644421960e+02 1.576276006728861645e-31
1.990002602723434109e+02 1.576276006728861645e-31
