#####################################################################
# Alchemist log file - simulation started at: 2017-05-25T10:18+0000 #
#####################################################################
# random = 8.0, targets = 3.1622776601683795, density = 0.04, gridShift = 1.0, perturbation = 0.0, connfactor = 1.5
#
# The columns have the following meaning: 
# time se[Mean] 
0.0 NaN 
1.0490773234798803 0.9259504698235113 
2.0490773234798803 1.882406765294806 
3.0490773234798803 2.8506565851650896 
4.04907732347988 2.5872064363978784 
5.04907732347988 3.279189605282748 
6.04907732347988 3.4392772569901933 
7.04907732347988 2.2909839323224883 
8.04907732347988 1.188328874032637 
9.04907732347988 0.08318863839822734 
10.04907732347988 0.01637599257125181 
11.04907732347988 0.0026334038989724497 
12.04907732347988 0.0026334038989724497 
13.04907732347988 0.0026334038989724497 
14.04907732347988 0.0026334038989724497 
#####################################################################
# End of data export. Simulation finished at: 2017-05-25T10:18+0000 #
#####################################################################
