#####################################################################
# Alchemist log file - simulation started at: 2017-05-20T05:47+0000 #
#####################################################################
# random = 0.0, targets = 100.0, density = 0.894427190999916, gridShift = 1.0, perturbation = 0.0, connfactor = 0.1
#
# The columns have the following meaning: 
# time se[Mean] 
0.0 NaN 
1.0011337332612453 NaN 
2.0011337332612453 1.0 
3.0011337332612453 1.0 
4.001133733261245 0.9995041666666666 
5.001133733261245 0.9997510416666666 
6.001133733261245 0.9979352083333334 
7.001133733261245 0.997269375 
8.001133733261245 0.9963583333333333 
9.001133733261245 0.9943716666666667 
10.001133733261245 0.993618125 
11.001133733261245 0.9923766666666667 
12.001133733261245 0.991128125 
13.001133733261245 0.9890579166666666 
14.001133733261245 0.98657125 
15.001133733261245 0.9847462499999999 
16.001133733261245 0.9833347916666666 
17.001133733261245 0.9825875 
18.001133733261245 0.9817579166666667 
19.001133733261245 0.9805970833333333 
20.001133733261245 0.9805975 
21.001133733261245 0.9801 
22.001133733261245 0.9801 
23.001133733261245 0.9801 
24.001133733261245 0.9801 
25.001133733261245 0.9792958333333333 
26.001133733261245 0.9792958333333333 
27.001133733261245 0.9792958333333333 
28.001133733261245 0.9776874999999999 
29.001133733261245 0.9791316666666666 
30.001133733261245 0.9778399999999999 
31.001133733261245 0.9763891666666666 
32.00113373326124 0.9763741666666667 
33.00113373326124 0.9758816666666666 
34.00113373326124 0.9729766666666666 
35.00113373326124 0.9708591666666666 
36.00113373326124 0.9697133333333333 
37.00113373326124 0.965835 
38.00113373326124 0.9637249999999999 
39.00113373326124 0.9609475 
40.00113373326124 0.9564125 
41.00113373326124 0.9506275 
42.00113373326124 0.9523233333333333 
43.00113373326124 0.9466816666666666 
44.00113373326124 0.9399258333333333 
45.00113373326124 0.9398316666666666 
46.00113373326124 0.9372375 
47.00113373326124 0.9304658333333333 
48.00113373326124 0.9267475 
49.00113373326124 0.9278291666666666 
50.00113373326124 0.9215966666666666 
51.00113373326124 0.9222308333333333 
52.00113373326124 0.9219041666666666 
53.00113373326124 0.9163308333333333 
54.00113373326124 0.9207825 
55.00113373326124 0.9188708333333333 
56.00113373326124 0.9193458333333333 
57.00113373326124 0.9217124999999999 
58.00113373326124 0.9175533333333333 
59.00113373326124 0.9223133333333333 
60.00113373326124 0.9190958333333333 
61.00113373326124 0.9203716666666666 
62.00113373326124 0.9214541666666667 
63.00113373326124 0.9198708333333333 
64.00113373326124 0.9216016666666667 
65.00113373326124 0.9208091666666667 
66.00113373326124 0.9216 
67.00113373326124 0.9214408333333333 
68.00113373326124 0.9216 
69.00113373326124 0.9216 
70.00113373326124 0.9216 
71.00113373326124 0.9216 
72.00113373326124 0.9216 
73.00113373326124 0.9216 
74.00113373326124 0.9216 
75.00113373326124 0.9216 
76.00113373326124 0.9216 
77.00113373326124 0.9216 
78.00113373326124 0.9216 
79.00113373326124 0.9216 
80.00113373326124 0.9216 
81.00113373326124 0.9216 
82.00113373326124 0.9216 
83.00113373326124 0.9216 
84.00113373326124 0.9216 
85.00113373326124 0.9216 
86.00113373326124 0.9216 
87.00113373326124 0.9216 
88.00113373326124 0.9216 
#####################################################################
# End of data export. Simulation finished at: 2017-05-20T05:48+0000 #
#####################################################################
