#####################################################################
# Alchemist log file - simulation started at: 2017-05-25T07:59+0000 #
#####################################################################
# random = 8.0, targets = 1.0, density = 0.894427190999916, gridShift = 1.0, perturbation = 0.0, connfactor = 0.5
#
# The columns have the following meaning: 
# time se[Mean] 
0.0 NaN 
1.0447112257851685 NaN 
2.0447112257851687 1.0 
3.0447112257851687 1.0 
4.044711225785169 1.0 
5.044711225785169 1.0 
6.044711225785169 1.0 
7.044711225785169 0.9916666666666667 
8.044711225785168 0.9916666666666667 
9.044711225785168 0.975 
10.044711225785168 0.9583333333333333 
11.044711225785168 0.975 
12.044711225785168 0.9583333333333333 
13.044711225785168 0.975 
14.044711225785168 1.0 
15.044711225785168 0.975 
16.044711225785168 1.0 
17.044711225785168 0.9833333333333333 
18.044711225785168 1.0 
19.044711225785168 1.0 
20.044711225785168 1.0 
21.044711225785168 1.0 
22.044711225785168 1.0 
23.044711225785168 1.0 
24.044711225785168 1.0 
25.044711225785168 1.0 
26.044711225785168 1.0 
27.044711225785168 1.0 
28.044711225785168 1.0 
29.044711225785168 1.0 
30.044711225785168 1.0 
31.044711225785168 1.0 
32.044711225785164 1.0 
33.044711225785164 1.0 
34.044711225785164 1.0 
35.044711225785164 1.0 
36.044711225785164 1.0 
37.044711225785164 0.9916666666666667 
38.044711225785164 0.9666666666666666 
39.044711225785164 0.9416666666666668 
40.044711225785164 0.8833333333333336 
41.044711225785164 0.8416666666666666 
42.044711225785164 0.7666666666666664 
43.044711225785164 0.7166666666666668 
44.044711225785164 0.6416666666666666 
45.044711225785164 0.591666666666667 
46.044711225785164 0.5583333333333331 
47.044711225785164 0.4416666666666669 
48.044711225785164 0.40000000000000024 
49.044711225785164 0.29999999999999954 
50.044711225785164 0.27499999999999974 
51.044711225785164 0.15833333333333344 
52.044711225785164 0.14999999999999986 
53.044711225785164 0.1166666666666667 
54.044711225785164 0.07499999999999998 
55.044711225785164 0.06666666666666662 
56.044711225785164 0.04166666666666673 
57.044711225785164 0.0500000000000001 
58.044711225785164 0.025000000000000043 
59.044711225785164 0.02500000000000005 
60.044711225785164 0.008333333333333342 
61.044711225785164 0.008333333333333342 
62.044711225785164 0.0 
63.044711225785164 0.0 
64.04471122578516 0.0 
65.04471122578516 0.0 
66.04471122578516 0.0 
67.04471122578516 0.0 
68.04471122578516 0.0 
69.04471122578516 0.0 
70.04471122578516 0.0 
71.04471122578516 0.0 
72.04471122578516 0.0 
73.04471122578516 0.0 
74.04471122578516 0.0 
75.04471122578516 0.0 
76.04471122578516 0.0 
77.04471122578516 0.0 
78.04471122578516 0.0 
#####################################################################
# End of data export. Simulation finished at: 2017-05-25T07:59+0000 #
#####################################################################
