#####################################################################
# Alchemist log file - simulation started at: 2017-05-24T03:37+0000 #
#####################################################################
# random = 13.0, targets = 100.0, density = 0.4483936332993466, gridShift = 1.0, perturbation = 0.5, connfactor = 0.5
#
# The columns have the following meaning: 
# time se[Mean] 
0.0 NaN 
1.0093475742791087 NaN 
2.0093475742791087 1.0041930555555556 
3.0093475742791087 1.0074068287037037 
4.009347574279109 1.0097702932098764 
5.009347574279109 1.0183819444444444 
6.009347574279109 1.0085433641975308 
7.009347574279109 1.0267761188271605 
8.009347574279108 1.0143778163580246 
9.009347574279108 1.0132470679012346 
10.009347574279108 0.995633487654321 
11.009347574279108 0.9819778935185185 
12.009347574279108 0.9611383487654321 
13.009347574279108 0.9519174768518519 
14.009347574279108 0.9438157793209877 
15.009347574279108 0.9488808641975309 
16.009347574279108 0.9273521219135803 
17.009347574279108 0.9368431712962964 
18.009347574279108 0.9414595679012346 
19.009347574279108 0.939412962962963 
20.009347574279108 0.9528066358024692 
21.009347574279108 0.9525923611111111 
22.009347574279108 0.9633138888888889 
23.009347574279108 0.9550948302469137 
24.009347574279108 0.9586409722222222 
25.009347574279108 0.957066589506173 
26.009347574279108 0.9572727237654322 
27.009347574279108 0.9538293209876544 
28.009347574279108 0.9506383487654322 
29.009347574279108 0.9303100694444445 
30.009347574279108 0.947858063271605 
31.009347574279108 0.905903587962963 
32.009347574279104 0.9167625771604939 
33.009347574279104 0.894132214506173 
34.009347574279104 0.8323804398148149 
35.009347574279104 0.8753395833333334 
36.009347574279104 0.785549575617284 
37.009347574279104 0.8318455632716051 
38.009347574279104 0.7873073688271606 
39.009347574279104 0.7831697916666668 
40.009347574279104 0.7693391589506173 
41.009347574279104 0.7333802469135804 
42.009347574279104 0.7674192901234569 
43.009347574279104 0.7538387345679013 
44.009347574279104 0.7944402391975309 
45.009347574279104 0.7831476466049383 
46.009347574279104 0.7997014274691359 
47.009347574279104 0.8034016589506173 
48.009347574279104 0.8157410108024692 
49.009347574279104 0.8235505015432099 
50.009347574279104 0.8267654320987654 
51.009347574279104 0.8271850308641975 
52.009347574279104 0.8270972222222222 
53.009347574279104 0.8273498456790123 
54.009347574279104 0.8280186728395061 
55.009347574279104 0.8283532407407407 
56.009347574279104 0.8281844135802469 
57.009347574279104 0.8281 
58.009347574279104 0.8281 
59.009347574279104 0.8281 
60.009347574279104 0.8281 
61.009347574279104 0.8281 
62.009347574279104 0.8281 
63.009347574279104 0.8281 
64.0093475742791 0.8281 
65.0093475742791 0.8281 
66.0093475742791 0.8281 
67.0093475742791 0.8281 
68.0093475742791 0.8281 
69.0093475742791 0.8281 
70.0093475742791 0.8281 
71.0093475742791 0.8281 
#####################################################################
# End of data export. Simulation finished at: 2017-05-24T03:37+0000 #
#####################################################################
