#####################################################################
# Alchemist log file - simulation started at: 2017-05-23T08:40+0000 #
#####################################################################
# random = 11.0, targets = 10.0, density = 10.026386447354522, gridShift = 0.0, perturbation = 0.5, connfactor = 0.5
#
# The columns have the following meaning: 
# time se[Mean] 
0.0 NaN 
1.0000311017741008 NaN 
2.000031101774101 NaN 
3.000031101774101 0.9997359963269055 
4.000031101774101 0.9976846750331598 
5.000031101774101 0.9935424956637078 
6.000031101774101 0.9866207529843893 
7.000031101774101 0.9765590245893276 
8.000031101774102 0.9740648913376184 
9.000031101774102 0.9664952555861648 
10.000031101774102 0.9674535761656976 
11.000031101774102 0.9678124681154986 
12.000031101774102 0.9663151719212327 
13.000031101774102 0.9669089888786856 
14.000031101774102 0.9647439036832979 
15.000031101774102 0.9584220997857362 
16.000031101774102 0.9555966227935923 
17.000031101774102 0.9520242832364045 
18.000031101774102 0.947502295684114 
19.000031101774102 0.9420148454239365 
20.000031101774102 0.9366618202224262 
21.000031101774102 0.9325339251096825 
22.000031101774102 0.9268243036424851 
23.000031101774102 0.920519844913784 
24.000031101774102 0.9145773390470363 
25.000031101774102 0.9050530558106317 
26.000031101774102 0.8963238445056629 
27.000031101774102 0.8860871339659221 
28.000031101774102 0.8724176104479139 
29.000031101774102 0.8611452912968066 
30.000031101774102 0.8535180083664935 
31.000031101774102 0.8361478420569333 
32.0000311017741 0.8179196000408123 
33.0000311017741 0.8040187225793287 
34.0000311017741 0.7964929599020508 
35.0000311017741 0.7753900112233443 
36.0000311017741 0.7637639016426896 
37.0000311017741 0.7658828180797878 
38.0000311017741 0.7442457402305885 
39.0000311017741 0.7437690031629426 
40.0000311017741 0.74690363228242 
41.0000311017741 0.747168911335578 
42.0000311017741 0.7380104071013164 
43.0000311017741 0.7457639526578917 
44.0000311017741 0.7520541271298845 
45.0000311017741 0.7542194674012858 
46.0000311017741 0.7795110192837464 
47.0000311017741 0.7838521579430671 
48.0000311017741 0.788767217630854 
49.0000311017741 0.8352548209366394 
50.0000311017741 0.8296258034894397 
51.0000311017741 0.8068067033976124 
52.0000311017741 0.8368801652892561 
53.0000311017741 0.8685835629017441 
54.0000311017741 0.8746028466483011 
55.0000311017741 0.8430050505050506 
56.0000311017741 0.914090909090909 
57.0000311017741 0.8771097337006427 
58.0000311017741 0.7985146923783288 
59.0000311017741 0.9189715335169886 
60.0000311017741 0.847800734618916 
61.0000311017741 0.9109595959595956 
62.0000311017741 0.9099632690541781 
63.0000311017741 0.9339370982552802 
64.0000311017741 1.0646992653810843 
65.0000311017741 1.0868273645546378 
66.0000311017741 1.0003902662993562 
67.0000311017741 1.1784182736455464 
68.0000311017741 1.2218067033976114 
69.0000311017741 1.3415151515151524 
70.0000311017741 1.2189485766758494 
71.0000311017741 1.4671418732782346 
72.0000311017741 1.4140243342516066 
73.0000311017741 1.1614485766758518 
74.0000311017741 1.4758907254361784 
75.0000311017741 1.325851698806244 
76.0000311017741 1.2075344352617083 
77.0000311017741 1.1179729109274565 
78.0000311017741 1.1381726354453634 
79.0000311017741 1.0515243342516067 
80.0000311017741 1.1066023875114774 
81.0000311017741 1.097015610651974 
82.0000311017741 1.205266299357208 
83.0000311017741 0.9120179063360869 
84.0000311017741 1.1835491276400352 
85.0000311017741 1.1058034894398518 
86.0000311017741 0.9691620752984391 
87.0000311017741 1.245798898071626 
88.0000311017741 1.1018342516069788 
89.0000311017741 1.1070311702887454 
90.0000311017741 1.0706514641363118 
91.0000311017741 1.3826953882256912 
92.0000311017741 1.0646479951025398 
93.0000311017741 1.084463830221404 
94.0000311017741 1.1354142434445462 
95.0000311017741 1.072541067238037 
96.0000311017741 0.8932228854198546 
97.0000311017741 0.8405815733088454 
98.0000311017741 0.8321653402714007 
99.0000311017741 0.7213659320477518 
100.0000311017741 0.7551198857259461 
101.0000311017741 0.8115993265993269 
102.0000311017741 0.6395625446383024 
103.0000311017741 0.5631157534945412 
104.0000311017741 0.5284220997857364 
105.0000311017741 0.49234083256810546 
106.0000311017741 0.5801731966125906 
107.0000311017741 0.5161470768288954 
108.0000311017741 0.7890687174778082 
109.0000311017741 0.694583460871339 
110.0000311017741 0.8191095296398326 
111.0000311017741 1.1007904805632074 
112.0000311017741 1.0389610754004714 
113.0000311017741 1.0142363024181222 
114.0000311017741 1.136301907968574 
115.0000311017741 1.3732103866952363 
116.0000311017741 1.4371752882358957 
117.0000311017741 1.4784598510356082 
118.0000311017741 1.7406259565350524 
119.0000311017741 1.712259208244059 
120.0000311017741 1.315028313437404 
121.0000311017741 1.8298599632690546 
122.0000311017741 1.5897477298234874 
123.0000311017741 1.3259945413733298 
124.0000311017741 1.2909996428935822 
125.0000311017741 1.3123438934802576 
126.0000311017741 1.2213220589735743 
127.0000311017741 1.4128099173553716 
128.00003110177408 1.4359787266605446 
129.00003110177408 1.5939825017855342 
130.00003110177408 1.1937258953168044 
131.00003110177408 1.5953736863585364 
132.00003110177408 1.5712738496071819 
133.00003110177408 1.320932557902253 
134.00003110177408 1.6352178349148048 
135.00003110177408 1.5160141822263022 
136.00003110177408 1.4199517906336105 
137.00003110177408 1.3268314457708414 
138.00003110177408 1.8130892255892246 
139.00003110177408 1.3919176614631186 
140.00003110177408 1.29861876339149 
141.00003110177408 1.2275428527701246 
142.00003110177408 1.1427912968064458 
143.00003110177408 0.8980430568309336 
144.00003110177408 0.6629777573716977 
145.00003110177408 0.5758091011121326 
146.00003110177408 0.6002303336394229 
147.00003110177408 0.42741199877563785 
148.00003110177408 0.6127423222120204 
149.00003110177408 0.4511422303846588 
150.00003110177408 0.42771808999082145 
151.00003110177408 0.4023793490460156 
152.00003110177408 0.27038388939903973 
153.00003110177408 0.2747428833792469 
154.00003110177408 0.23702785430058304 
155.00003110177408 0.2567921640648917 
156.00003110177408 0.19818691970207022 
157.00003110177408 0.19260381593714834 
158.00003110177408 0.1815355575961639 
159.00003110177408 0.15480257116620724 
160.00003110177408 0.10674012855831005 
161.00003110177408 0.07236710539740845 
162.00003110177408 0.06505254565860526 
163.00003110177408 0.05910417304356715 
164.00003110177408 0.04780226507499256 
165.00003110177408 0.05836751351902842 
166.00003110177408 0.03747168656259504 
167.00003110177408 0.03333945515763654 
168.00003110177408 0.018782777267625738 
169.00003110177408 0.008311396796245223 
170.00003110177408 0.008358330782573102 
171.00003110177408 0.0 
172.00003110177408 0.0 
173.00003110177408 0.0 
174.00003110177408 0.0 
175.00003110177408 0.0 
176.00003110177408 0.0 
177.00003110177408 0.0 
178.00003110177408 0.0 
179.00003110177408 0.0 
180.00003110177408 0.0 
181.00003110177408 0.0 
182.00003110177408 0.0 
183.00003110177408 0.0 
184.00003110177408 0.0 
185.00003110177408 0.0 
186.00003110177408 0.0 
187.00003110177408 0.0 
188.00003110177408 0.0 
189.00003110177408 0.0 
190.00003110177408 0.0 
191.00003110177408 0.0 
192.00003110177408 0.0 
193.00003110177408 0.0 
194.00003110177408 0.0 
195.00003110177408 0.0 
196.00003110177408 0.0 
197.00003110177408 0.0 
198.00003110177408 0.0 
199.00003110177408 0.0 
200.00003110177408 0.0 
201.00003110177408 0.0 
202.00003110177408 0.0 
203.00003110177408 0.0 
204.00003110177408 0.0 
205.00003110177408 0.0 
206.00003110177408 0.0 
207.00003110177408 0.0 
208.00003110177408 0.0 
209.00003110177408 0.0 
210.00003110177408 0.0 
211.00003110177408 0.0 
212.00003110177408 0.0 
213.00003110177408 0.0 
214.00003110177408 0.0 
215.00003110177408 0.0 
216.00003110177408 0.0 
217.00003110177408 0.0 
218.00003110177408 0.0 
219.00003110177408 0.0 
220.00003110177408 0.0 
221.00003110177408 0.0 
222.00003110177408 0.0 
223.00003110177408 0.0 
224.00003110177408 0.0 
225.00003110177408 0.0 
226.00003110177408 0.0 
227.00003110177408 0.0 
228.00003110177408 0.0 
229.00003110177408 0.0 
230.00003110177408 0.0 
231.00003110177408 0.0 
232.00003110177408 0.0 
233.00003110177408 0.0 
234.00003110177408 0.0 
235.00003110177408 0.0 
236.00003110177408 0.0 
237.00003110177408 0.0 
238.00003110177408 0.0 
239.00003110177408 0.0 
240.00003110177408 0.0 
241.00003110177408 0.0 
242.00003110177408 0.0 
243.00003110177408 0.0 
244.00003110177408 0.0 
245.00003110177408 0.0 
246.00003110177408 0.0 
#####################################################################
# End of data export. Simulation finished at: 2017-05-23T08:42+0000 #
#####################################################################
