#####################################################################
# Alchemist log file - simulation started at: 2017-05-26T03:25+0000 #
#####################################################################
# random = 9.0, targets = 3.1622776601683795, density = 5.0264212595847235, gridShift = 0.0, perturbation = 0.0, connfactor = 1.0
#
# The columns have the following meaning: 
# time se[Mean] 
0.0 NaN 
1.0015323036356916 NaN 
2.001532303635692 1.018670794181374 
3.001532303635692 1.042601696224093 
4.001532303635692 1.0461713816929892 
5.001532303635692 1.0599108247543525 
6.001532303635692 1.033638458652518 
7.001532303635692 1.0267013800175904 
8.001532303635692 1.0149633499271429 
9.001532303635692 1.0139223825784973 
10.001532303635692 0.9885362868640114 
11.001532303635692 0.9902288665284605 
12.001532303635692 0.9716002118463791 
13.001532303635692 0.974893043770837 
14.001532303635692 0.9635087110629498 
15.001532303635692 0.9535169451322049 
16.001532303635692 0.9659235257144181 
17.001532303635692 0.9615700536555425 
18.001532303635692 0.9667362474895829 
19.001532303635692 0.9694333715277649 
20.001532303635692 0.9654782035897748 
21.001532303635692 0.9608028292678819 
22.001532303635692 0.957131174677153 
23.001532303635692 0.9530862192690384 
24.001532303635692 0.9515036045030129 
25.001532303635692 0.9386157241458326 
26.001532303635692 0.9401372292891506 
27.001532303635692 0.9210301940843976 
28.001532303635692 0.9087279312271755 
29.001532303635692 0.887596195039754 
30.001532303635692 0.8837605083930322 
31.001532303635692 0.8661457264907063 
32.00153230363569 0.8526222220265683 
33.00153230363569 0.8364748847986639 
34.00153230363569 0.8196217461171759 
35.00153230363569 0.7915655022975239 
36.00153230363569 0.7735354154360764 
37.00153230363569 0.7429812326419902 
38.00153230363569 0.7130881819008884 
39.00153230363569 0.6810088160752307 
40.00153230363569 0.6502356601400863 
41.00153230363569 0.6094944189812739 
42.00153230363569 0.5804175573865333 
43.00153230363569 0.5361334187050196 
44.00153230363569 0.5037416344459432 
45.00153230363569 0.4833539742164429 
46.00153230363569 0.48674308302882785 
47.00153230363569 0.4858297131441544 
48.00153230363569 0.46102350925235674 
49.00153230363569 0.46900391563233557 
50.00153230363569 0.38766117300233377 
51.00153230363569 0.41827787919275344 
52.00153230363569 0.3148998417129496 
53.00153230363569 0.31783264067652167 
54.00153230363569 0.30104167106784163 
55.00153230363569 0.2395086252938143 
56.00153230363569 0.19243707961435744 
57.00153230363569 0.17131077339463854 
58.00153230363569 0.14117733802460314 
59.00153230363569 0.12845118125229513 
60.00153230363569 0.1594248165088202 
61.00153230363569 0.23206143807954088 
62.00153230363569 0.20553613641209462 
63.00153230363569 0.30284125994299776 
64.00153230363568 0.21305218031294934 
65.00153230363568 0.30982330210399334 
66.00153230363568 0.2096557199485126 
67.00153230363568 0.24978542800457038 
68.00153230363568 0.2774874773679264 
69.00153230363568 0.21083929536804835 
70.00153230363568 0.17703790917011072 
71.00153230363568 0.15933370239395717 
72.00153230363568 0.13719363446156543 
73.00153230363568 0.08081547726158485 
74.00153230363568 0.04485543450844503 
75.00153230363568 0.09161059062087964 
76.00153230363568 0.031180574249539447 
77.00153230363568 0.07406830791364664 
78.00153230363568 0.06395755864548765 
79.00153230363568 0.05159928522008991 
80.00153230363568 0.04929506208978338 
81.00153230363568 0.03611857179502725 
82.00153230363568 0.04309111340474266 
83.00153230363568 0.0034380079173350355 
84.00153230363568 0.00588379973445096 
85.00153230363568 0.0026242668241072535 
86.00153230363568 0.0050746271786557455 
87.00153230363568 0.004260886085427974 
88.00153230363568 0.004260886085427992 
89.00153230363568 0.004260886085427974 
90.00153230363568 0.0034471449922002066 
91.00153230363568 0.004260886085427974 
92.00153230363568 0.0026334038989724207 
93.00153230363568 0.0026334038989724207 
94.00153230363568 0.0026334038989724207 
95.00153230363568 0.0026334038989724207 
96.00153230363568 0.0026334038989724207 
97.00153230363568 0.0026334038989724207 
98.00153230363568 0.0026334038989724207 
99.00153230363568 0.0026334038989724207 
100.00153230363568 0.0026334038989724207 
101.00153230363568 0.0026334038989724207 
102.00153230363568 0.0026334038989724207 
103.00153230363568 0.0026334038989724207 
104.00153230363568 0.0026334038989724207 
105.00153230363568 0.0026334038989724207 
106.00153230363568 0.0026334038989724207 
107.00153230363568 0.0026334038989724207 
108.00153230363568 0.0026334038989724207 
109.00153230363568 0.0026334038989724207 
110.00153230363568 0.0026334038989724207 
111.00153230363568 0.0026334038989724207 
112.00153230363568 0.0026334038989724207 
113.00153230363568 0.0026334038989724207 
114.00153230363568 0.0026334038989724207 
115.00153230363568 0.0026334038989724207 
116.00153230363568 0.0026334038989724207 
117.00153230363568 0.0026334038989724207 
118.00153230363568 0.0026334038989724207 
119.00153230363568 0.0026334038989724207 
120.00153230363568 0.0026334038989724207 
121.00153230363568 0.0026334038989724207 
122.00153230363568 0.0026334038989724207 
123.00153230363568 0.0026334038989724207 
124.00153230363568 0.0026334038989724207 
125.00153230363568 0.0026334038989724207 
126.00153230363568 0.0026334038989724207 
127.00153230363568 0.0026334038989724207 
128.00153230363568 0.0026334038989724207 
129.00153230363568 0.0026334038989724207 
130.00153230363568 0.0026334038989724207 
131.00153230363568 0.0026334038989724207 
132.00153230363568 0.0026334038989724207 
133.00153230363568 0.0026334038989724207 
134.00153230363568 0.0026334038989724207 
135.00153230363568 0.0026334038989724207 
136.00153230363568 0.0026334038989724207 
137.00153230363568 0.0026334038989724207 
138.00153230363568 0.0026334038989724207 
139.00153230363568 0.0026334038989724207 
140.00153230363568 0.0026334038989724207 
141.00153230363568 0.0026334038989724207 
#####################################################################
# End of data export. Simulation finished at: 2017-05-26T03:27+0000 #
#####################################################################
