#####################################################################
# Alchemist log file - simulation started at: 2017-05-24T10:08+0000 #
#####################################################################
# random = 6.0, targets = 100.0, density = 0.6332893950589894, gridShift = 1.0, perturbation = 0.5, connfactor = 1.0
#
# The columns have the following meaning: 
# time se[Mean] 
0.0 NaN 
1.0043581642399184 NaN 
2.0043581642399184 1.052143888888889 
3.0043581642399184 1.0815348148148147 
4.004358164239918 1.1054649845679012 
5.004358164239918 1.095050949074074 
6.004358164239918 1.094397399691358 
7.004358164239918 1.0937617206790122 
8.004358164239918 1.1075325385802468 
9.004358164239918 1.152361512345679 
10.004358164239918 1.1826573996913579 
11.004358164239918 1.254641087962963 
12.004358164239918 1.2680627546296297 
13.004358164239918 1.3852385956790123 
14.004358164239918 1.4254988271604938 
15.004358164239918 1.416361712962963 
16.004358164239918 1.34665112654321 
17.004358164239918 1.3445433719135804 
18.004358164239918 1.3841111419753087 
19.004358164239918 1.2391168595679014 
20.004358164239918 1.2794192438271608 
21.004358164239918 1.1488005478395065 
22.004358164239918 1.0730675925925928 
23.004358164239918 1.0061143055555557 
24.004358164239918 1.0081117669753088 
25.004358164239918 0.9876230246913582 
26.004358164239918 1.0111464737654323 
27.004358164239918 1.029644452160494 
28.004358164239918 1.0437143132716051 
29.004358164239918 1.0528563194444447 
30.004358164239918 1.0578228935185188 
31.004358164239918 1.0927126620370373 
32.00435816423992 1.0990171373456792 
33.00435816423992 1.16526412808642 
34.00435816423992 1.1848413503086421 
35.00435816423992 1.2100479320987656 
36.00435816423992 1.1640619135802472 
37.00435816423992 1.183551327160494 
38.00435816423992 1.1990170370370372 
39.00435816423992 1.130307916666667 
40.00435816423992 1.1873117746913582 
41.00435816423992 1.1358384182098766 
42.00435816423992 1.1013311574074076 
43.00435816423992 1.0652214969135803 
44.00435816423992 1.0477269675925927 
45.00435816423992 0.9992566280864198 
46.00435816423992 0.9988579938271606 
47.00435816423992 0.9992267592592593 
48.00435816423992 1.0 
49.00435816423992 1.0 
50.00435816423992 1.0 
51.00435816423992 1.0 
52.00435816423992 1.0 
53.00435816423992 1.0 
54.00435816423992 1.0 
55.00435816423992 1.0 
56.00435816423992 1.0 
57.00435816423992 1.0 
58.00435816423992 1.0 
59.00435816423992 1.0 
60.00435816423992 1.0 
61.00435816423992 1.0 
62.00435816423992 1.0 
63.00435816423992 1.0 
64.00435816423992 1.0 
65.00435816423992 1.0 
66.00435816423992 1.0 
#####################################################################
# End of data export. Simulation finished at: 2017-05-24T10:08+0000 #
#####################################################################
