0.000000000000000000e+00 nan
1.000680687056951790e+00 7.693899841308593501e-01
2.001361374113903580e+00 1.462892990754681710e+00
3.002042061170854481e+00 1.708868398700666091e+00
4.002722748227807159e+00 1.971741632917541898e+00
5.003403435284756284e+00 3.315044988239022938e+00
6.004084122341708962e+00 3.268228115322568961e+00
7.004764809398662528e+00 3.387535225142454642e+00
8.005445496455614318e+00 2.422710996375419867e+00
9.006126183512559891e+00 1.896762529663354124e+00
1.000680687056951257e+01 1.559215213236812669e+00
1.100748755762646347e+01 1.387984016003079413e+00
1.200816824468341792e+01 5.037755853532389638e-01
1.300884893174037238e+01 2.986123537276408335e-01
1.400952961879732506e+01 1.524918547079813780e-01
1.501021030585428129e+01 1.312838976539826008e-01
1.601089099291122864e+01 2.009302056042906459e-01
1.701157167996818131e+01 7.906417264072537754e-02
1.801225236702511978e+01 1.815574220843998174e-04
1.901293305408206891e+01 1.486330698548988681e-04
2.001361374113902514e+01 8.121838122293903434e-33
2.101429442819597071e+01 8.121838122293903434e-33
2.201497511525292694e+01 8.121838122293903434e-33
2.301565580230988317e+01 8.121838122293903434e-33
2.401633648936683585e+01 8.121838122293903434e-33
2.501701717642378853e+01 8.121838122293903434e-33
