0.000000000000000000e+00 nan
4.440892098500626162e-16 2.039924529520122931e-01
8.881784197001252323e-16 6.117737762184749517e-01
1.332267629550187849e-15 5.108235783541095199e-01
1.776356839400250465e-15 5.209141030271269290e-01
3.552713678800500929e-15 5.075489183954633443e-01
2.664535259100375697e-15 5.081565324448027443e-01
1.776356839400250465e-15 5.072209125953657249e-01
3.552713678800500929e-15 5.072091010931172317e-01
3.552713678800500929e-15 5.069197981455936253e-01
7.105427357601001859e-15 5.074232500215153374e-01
1.776356839400250465e-15 5.082299491544679526e-01
5.329070518200751394e-15 5.086960595418107411e-01
7.105427357601001859e-15 5.083038378483510922e-01
3.552713678800500929e-15 5.094359868997568874e-01
5.329070518200751394e-15 5.095303580347391170e-01
7.105427357601001859e-15 5.106764338977375361e-01
7.105427357601001859e-15 5.110981249575168306e-01
7.105427357601001859e-15 5.129370705570850397e-01
7.105427357601001859e-15 5.143632324417761748e-01
1.421085471520200372e-14 5.132697939885942917e-01
7.105427357601001859e-15 5.150265400205545907e-01
3.552713678800500929e-15 5.154326902709914782e-01
1.065814103640150279e-14 5.146789335696426715e-01
1.065814103640150279e-14 5.153027147781719108e-01
3.552713678800500929e-15 5.161296571184790238e-01
1.421085471520200372e-14 5.162862500632803275e-01
1.065814103640150279e-14 5.151363777829370827e-01
7.105427357601001859e-15 5.142787224761046216e-01
1.065814103640150279e-14 5.267888294895018975e-01
1.065814103640150279e-14 6.255537186898018076e-01
1.065814103640150279e-14 5.555372207177597943e-01
1.421085471520200372e-14 6.314172432294374859e-01
7.105427357601001859e-15 6.540461568720853380e-01
1.421085471520200372e-14 5.739596423675190628e-01
1.421085471520200372e-14 6.406008092825218325e-01
1.421085471520200372e-14 6.234322361881164953e-01
1.421085471520200372e-14 5.779410775660748234e-01
1.421085471520200372e-14 7.019407555977625890e-01
1.421085471520200372e-14 5.953209789375460970e-01
2.842170943040400743e-14 7.473507065845453878e-01
7.105427357601001859e-15 6.509658120422164851e-01
1.421085471520200372e-14 7.104235938801788386e-01
2.842170943040400743e-14 7.367456964209543324e-01
7.105427357601001859e-15 6.958775123184656186e-01
1.421085471520200372e-14 7.843030619016954086e-01
2.131628207280300558e-14 7.872308983914952929e-01
7.105427357601001859e-15 7.656432050928503319e-01
2.131628207280300558e-14 7.687054868124116869e-01
2.131628207280300558e-14 8.888126978635462194e-01
7.105427357601001859e-15 6.984498141876606114e-01
2.131628207280300558e-14 8.806545129080469714e-01
2.842170943040400743e-14 7.441355363348201024e-01
1.421085471520200372e-14 6.963186248472537088e-01
2.131628207280300558e-14 7.215902696114032677e-01
2.842170943040400743e-14 7.573197628593140163e-01
1.421085471520200372e-14 6.861268609263299068e-01
2.131628207280300558e-14 6.616652197726510254e-01
2.131628207280300558e-14 7.136667509332949022e-01
2.131628207280300558e-14 6.566715715559815481e-01
2.131628207280300558e-14 7.460211867434446420e-01
2.131628207280300558e-14 7.635373716316240511e-01
2.131628207280300558e-14 7.403243344459626840e-01
1.421085471520200372e-14 8.071281391140704420e-01
2.842170943040400743e-14 8.038360086972100582e-01
2.842170943040400743e-14 8.785361519506968975e-01
1.421085471520200372e-14 8.719234865173893789e-01
2.842170943040400743e-14 8.688149512356307946e-01
2.842170943040400743e-14 8.916428253283672500e-01
2.842170943040400743e-14 7.385569690362902007e-01
2.842170943040400743e-14 7.985863876253377347e-01
2.842170943040400743e-14 7.890658426642577217e-01
2.842170943040400743e-14 8.306269444064692253e-01
2.842170943040400743e-14 7.821207885508986157e-01
2.842170943040400743e-14 7.533836623029365187e-01
2.842170943040400743e-14 9.744156213009844691e-01
2.842170943040400743e-14 8.391470878335870465e-01
2.842170943040400743e-14 1.061989574887199028e+00
2.842170943040400743e-14 1.438921917210566725e+00
1.421085471520200372e-14 1.169273952080407186e+00
5.684341886080801487e-14 1.668580144268285936e+00
2.842170943040400743e-14 2.130484780455585092e+00
1.421085471520200372e-14 1.861104804384511313e+00
5.684341886080801487e-14 2.236030926151580722e+00
2.842170943040400743e-14 2.041066712133614125e+00
1.421085471520200372e-14 2.206804580532078397e+00
5.684341886080801487e-14 2.723348805722300536e+00
2.842170943040400743e-14 3.785020522583948832e+00
1.421085471520200372e-14 4.187168345096977440e+00
4.263256414560601115e-14 3.746586268227305450e+00
2.842170943040400743e-14 5.911121845846357026e+00
1.421085471520200372e-14 5.647292545194036784e+00
4.263256414560601115e-14 6.870431082007862678e+00
2.842170943040400743e-14 7.161222877593816705e+00
1.421085471520200372e-14 7.276347543829718489e+00
4.263256414560601115e-14 9.607897825438191930e+00
4.263256414560601115e-14 8.989027048709230527e+00
1.421085471520200372e-14 1.001228541645358483e+01
4.263256414560601115e-14 1.113732807537900804e+01
1.421085471520200372e-14 1.147787118208812451e+01
1.421085471520200372e-14 1.165199467589039983e+01
4.263256414560601115e-14 1.475394704704798698e+01
4.263256414560601115e-14 1.239042590930688981e+01
1.421085471520200372e-14 1.471273805701283166e+01
5.684341886080801487e-14 1.395961338977914501e+01
1.421085471520200372e-14 1.578578344348681384e+01
2.842170943040400743e-14 1.672003648647485718e+01
4.263256414560601115e-14 1.578555959401941777e+01
4.263256414560601115e-14 1.637978616383052355e+01
0.000000000000000000e+00 1.519904234524430287e+01
5.684341886080801487e-14 1.374692718032365768e+01
1.421085471520200372e-14 1.542299595990548511e+01
2.842170943040400743e-14 1.237090955401749248e+01
1.421085471520200372e-14 1.306202795088229429e+01
4.263256414560601115e-14 1.416792870778556868e+01
0.000000000000000000e+00 1.361311962484197124e+01
4.263256414560601115e-14 1.442745701352566101e+01
0.000000000000000000e+00 1.334729535243305243e+01
4.263256414560601115e-14 1.212272071777374727e+01
0.000000000000000000e+00 1.352996298816217546e+01
4.263256414560601115e-14 1.345812577840762003e+01
0.000000000000000000e+00 1.472845771223511413e+01
4.263256414560601115e-14 1.376628872066214271e+01
0.000000000000000000e+00 1.443012849476034631e+01
4.263256414560601115e-14 1.488055337677189804e+01
1.421085471520200372e-14 1.525059300699954257e+01
2.842170943040400743e-14 1.361016550557805083e+01
0.000000000000000000e+00 1.442871647042318806e+01
5.684341886080801487e-14 1.415951975376468752e+01
2.842170943040400743e-14 1.344537363050003975e+01
5.684341886080801487e-14 1.389879960288163296e+01
2.842170943040400743e-14 1.339602434003637832e+01
2.842170943040400743e-14 1.371449265799311945e+01
0.000000000000000000e+00 1.365171610812021719e+01
5.684341886080801487e-14 1.398720517052865553e+01
2.842170943040400743e-14 1.328505837219955232e+01
5.684341886080801487e-14 1.321490816016365955e+01
2.842170943040400743e-14 1.215429585613207664e+01
5.684341886080801487e-14 1.301020859787146833e+01
0.000000000000000000e+00 1.103455332369218667e+01
5.684341886080801487e-14 1.062398267831914112e+01
2.842170943040400743e-14 9.144733322394234420e+00
5.684341886080801487e-14 1.096503955527585994e+01
2.842170943040400743e-14 9.707590379012650317e+00
5.684341886080801487e-14 8.783641077052328328e+00
0.000000000000000000e+00 8.341334077089406662e+00
5.684341886080801487e-14 7.571781438083085902e+00
2.842170943040400743e-14 5.620125481754119967e+00
5.684341886080801487e-14 6.567117209667042488e+00
2.842170943040400743e-14 5.330959056290634379e+00
5.684341886080801487e-14 4.929662581909610708e+00
0.000000000000000000e+00 4.268671297351275484e+00
5.684341886080801487e-14 4.206904488998102210e+00
2.842170943040400743e-14 4.482832930346286382e+00
5.684341886080801487e-14 4.005834837649806524e+00
2.842170943040400743e-14 4.051596692399984434e+00
5.684341886080801487e-14 4.346363882556448566e+00
0.000000000000000000e+00 4.981775861572897313e+00
2.842170943040400743e-14 7.552919542394953112e+00
2.842170943040400743e-14 7.534170120213480537e+00
1.136868377216160297e-13 1.269453968361275109e+01
5.684341886080801487e-14 1.161549988512994958e+01
5.684341886080801487e-14 1.876078797248296581e+01
0.000000000000000000e+00 1.999634097303283653e+01
2.842170943040400743e-14 1.786260829188441335e+01
2.842170943040400743e-14 2.149400057440718825e+01
1.136868377216160297e-13 2.166185755840191618e+01
5.684341886080801487e-14 2.679313529787695813e+01
5.684341886080801487e-14 2.281659188379856928e+01
0.000000000000000000e+00 3.640165258638414514e+01
2.842170943040400743e-14 3.185063308438519414e+01
2.842170943040400743e-14 3.202486285548766176e+01
1.136868377216160297e-13 4.504695896900473429e+01
5.684341886080801487e-14 3.634110748887803055e+01
5.684341886080801487e-14 4.825869411048086022e+01
0.000000000000000000e+00 4.681031173635871312e+01
2.842170943040400743e-14 5.336362271186125383e+01
2.842170943040400743e-14 4.979460602326520302e+01
8.526512829121202230e-14 4.863210964262059832e+01
5.684341886080801487e-14 5.478005219578534479e+01
5.684341886080801487e-14 5.688878695543238706e+01
0.000000000000000000e+00 5.732219222370233780e+01
2.842170943040400743e-14 6.349774715214064713e+01
2.842170943040400743e-14 6.382451361025830039e+01
8.526512829121202230e-14 7.063575887317770707e+01
5.684341886080801487e-14 6.765327861144746180e+01
5.684341886080801487e-14 7.932943809958239001e+01
0.000000000000000000e+00 7.411401130848220475e+01
2.842170943040400743e-14 8.518283017856667527e+01
5.684341886080801487e-14 8.735447205998924858e+01
8.526512829121202230e-14 8.507798266957628641e+01
5.684341886080801487e-14 8.378837702530643128e+01
8.526512829121202230e-14 8.770993425125715248e+01
0.000000000000000000e+00 8.311472522990753475e+01
2.842170943040400743e-14 8.060889143644753574e+01
8.526512829121202230e-14 8.977105517819269664e+01
8.526512829121202230e-14 7.758835835291458238e+01
5.684341886080801487e-14 8.143206982282295314e+01
2.842170943040400743e-14 9.030984463921598149e+01
0.000000000000000000e+00 7.581410475940005256e+01
2.842170943040400743e-14 8.493831522037021386e+01
8.526512829121202230e-14 8.281860981352316742e+01
8.526512829121202230e-14 8.318290472661824708e+01
5.684341886080801487e-14 8.221560758051226969e+01
8.526512829121202230e-14 8.476210999632296250e+01
5.684341886080801487e-14 8.139399820490493198e+01
2.842170943040400743e-14 8.327035033788591534e+01
2.842170943040400743e-14 7.588689928085325676e+01
1.136868377216160297e-13 8.814960414525465637e+01
8.526512829121202230e-14 8.299862177220921922e+01
2.842170943040400743e-14 8.420273887624649944e+01
0.000000000000000000e+00 8.080683356772179593e+01
5.684341886080801487e-14 9.640629025105425853e+01
8.526512829121202230e-14 9.419268727607071412e+01
8.526512829121202230e-14 9.770071990993909594e+01
8.526512829121202230e-14 8.191627736417576955e+01
8.526512829121202230e-14 8.406334693297144156e+01
5.684341886080801487e-14 7.994864766589448379e+01
0.000000000000000000e+00 8.464208016300619875e+01
2.842170943040400743e-14 8.924090619093281873e+01
1.136868377216160297e-13 8.139966457291187396e+01
1.136868377216160297e-13 7.868648422151947841e+01
2.842170943040400743e-14 1.076007652815649465e+02
0.000000000000000000e+00 7.227225823757444800e+01
5.684341886080801487e-14 8.245285941121545648e+01
8.526512829121202230e-14 1.217453154797451020e+02
2.842170943040400743e-14 8.047954720782558979e+01
2.842170943040400743e-14 9.607905210339650637e+01
8.526512829121202230e-14 1.317083010908985727e+02
5.684341886080801487e-14 9.579129676663302462e+01
0.000000000000000000e+00 1.053607995551552534e+02
0.000000000000000000e+00 1.226884053019867764e+02
8.526512829121202230e-14 1.436100653562673131e+02
1.136868377216160297e-13 1.438118414923756632e+02
0.000000000000000000e+00 1.423283943975665977e+02
2.842170943040400743e-14 1.505915150827777040e+02
8.526512829121202230e-14 1.259443423114119156e+02
8.526512829121202230e-14 1.313283081452593990e+02
0.000000000000000000e+00 1.513941649285383448e+02
2.842170943040400743e-14 1.393324730906866193e+02
8.526512829121202230e-14 1.171464272097088894e+02
5.684341886080801487e-14 1.383982604222010764e+02
0.000000000000000000e+00 1.354068310116069256e+02
0.000000000000000000e+00 1.493896482930649086e+02
8.526512829121202230e-14 1.463657411372956290e+02
1.136868377216160297e-13 1.302392452641541922e+02
0.000000000000000000e+00 1.522299587065158732e+02
2.842170943040400743e-14 1.719667615638732627e+02
8.526512829121202230e-14 1.575660312983981441e+02
5.684341886080801487e-14 1.645061304712917547e+02
2.842170943040400743e-14 1.536946923907390214e+02
0.000000000000000000e+00 1.909032116178262868e+02
5.684341886080801487e-14 1.660049700161973476e+02
5.684341886080801487e-14 1.570460147551253556e+02
0.000000000000000000e+00 1.756317689282889489e+02
2.842170943040400743e-14 1.879801209526119976e+02
1.136868377216160297e-13 1.885675742347420112e+02
1.705302565824240446e-13 1.542752833189664159e+02
5.684341886080801487e-14 1.794552300194679901e+02
0.000000000000000000e+00 2.111427613343246605e+02
1.136868377216160297e-13 1.743128261381042421e+02
5.684341886080801487e-14 2.031439442980419017e+02
5.684341886080801487e-14 1.396353121530501085e+02
1.705302565824240446e-13 1.405766179744995270e+02
5.684341886080801487e-14 1.407353471982804365e+02
1.136868377216160297e-13 1.674407814377734383e+02
0.000000000000000000e+00 1.495491185835105910e+02
5.684341886080801487e-14 1.296293164069075203e+02
1.136868377216160297e-13 1.211645336730953773e+02
1.705302565824240446e-13 1.437080073461414145e+02
5.684341886080801487e-14 1.599841846933347256e+02
0.000000000000000000e+00 1.186926136858667036e+02
1.136868377216160297e-13 1.359164608492385753e+02
5.684341886080801487e-14 1.405804498020251856e+02
5.684341886080801487e-14 1.369408378823778492e+02
1.705302565824240446e-13 1.367802299419644214e+02
1.136868377216160297e-13 1.062769825994479618e+02
1.136868377216160297e-13 1.583288796931430795e+02
0.000000000000000000e+00 8.441648691694496165e+01
1.136868377216160297e-13 1.001123383894816925e+02
1.136868377216160297e-13 6.283188119087928669e+01
1.705302565824240446e-13 4.592295637937667152e+01
5.684341886080801487e-14 3.384845903720192695e+01
0.000000000000000000e+00 3.334804732341805078e+01
1.136868377216160297e-13 1.079999363909988475e+01
0.000000000000000000e+00 3.613924644465034675e+01
5.684341886080801487e-14 2.215347720255999420e+01
1.705302565824240446e-13 1.031918841382732310e+01
1.136868377216160297e-13 6.370019731689369635e+00
1.136868377216160297e-13 3.587932366347851953e+00
0.000000000000000000e+00 3.526186571418874927e+00
1.136868377216160297e-13 3.529172867395704127e+00
1.136868377216160297e-13 3.529962208152242376e+00
1.705302565824240446e-13 3.529955875784767105e+00
5.684341886080801487e-14 3.529952281394617586e+00
0.000000000000000000e+00 3.529970255865980455e+00
1.136868377216160297e-13 3.529995430712346671e+00
0.000000000000000000e+00 3.529977447418944703e+00
5.684341886080801487e-14 3.529955875784767105e+00
1.705302565824240446e-13 3.529988236638819554e+00
1.136868377216160297e-13 3.529966660467585893e+00
1.705302565824240446e-13 3.529991833549555036e+00
0.000000000000000000e+00 3.529963065321252813e+00
1.705302565824240446e-13 3.529970255865980455e+00
1.136868377216160297e-13 3.529945093370506104e+00
1.705302565824240446e-13 3.529919943226187407e+00
5.684341886080801487e-14 3.529894805433286820e+00
0.000000000000000000e+00 3.529862503563292897e+00
1.136868377216160297e-13 3.529876857429169235e+00
0.000000000000000000e+00 3.529840980326956146e+00
5.684341886080801487e-14 3.529844566902799130e+00
1.705302565824240446e-13 3.529858915727026591e+00
1.136868377216160297e-13 3.529844566902799130e+00
1.136868377216160297e-13 3.529826636544454388e+00
0.000000000000000000e+00 3.529823051229052044e+00
1.705302565824240446e-13 3.529819466165740049e+00
5.684341886080801487e-14 3.529808712488354150e+00
1.705302565824240446e-13 3.529830222111947080e+00
5.684341886080801487e-14 3.529815881354519291e+00
5.684341886080801487e-14 3.529812296795390214e+00
2.273736754432320595e-13 3.529808712488354150e+00
0.000000000000000000e+00 3.529794377781154235e+00
1.136868377216160297e-13 3.529801544630564170e+00
1.705302565824240446e-13 3.529794377781154235e+00
1.136868377216160297e-13 3.529794377781154235e+00
1.136868377216160297e-13 3.529794377781154235e+00
0.000000000000000000e+00 3.529794377781154235e+00
1.705302565824240446e-13 3.529794377781154235e+00
5.684341886080801487e-14 3.529794377781154235e+00
1.705302565824240446e-13 3.529794377781154235e+00
5.684341886080801487e-14 3.529794377781154235e+00
5.684341886080801487e-14 3.529794377781154235e+00
2.273736754432320595e-13 3.529794377781154235e+00
0.000000000000000000e+00 3.529794377781154235e+00
1.136868377216160297e-13 3.529794377781154235e+00
1.705302565824240446e-13 3.529794377781154235e+00
1.136868377216160297e-13 3.529794377781154235e+00
1.136868377216160297e-13 3.529794377781154235e+00
0.000000000000000000e+00 3.529794377781154235e+00
1.705302565824240446e-13 3.529794377781154235e+00
5.684341886080801487e-14 3.529794377781154235e+00
1.705302565824240446e-13 3.529794377781154235e+00
5.684341886080801487e-14 3.529794377781154235e+00
5.684341886080801487e-14 3.529794377781154235e+00
2.273736754432320595e-13 3.529794377781154235e+00
0.000000000000000000e+00 3.529794377781154235e+00
1.136868377216160297e-13 3.529794377781154235e+00
1.705302565824240446e-13 3.529794377781154235e+00
1.136868377216160297e-13 3.529794377781154235e+00
1.136868377216160297e-13 3.529794377781154235e+00
0.000000000000000000e+00 3.529794377781154235e+00
1.705302565824240446e-13 3.529794377781154235e+00
5.684341886080801487e-14 3.529794377781154235e+00
5.684341886080801487e-14 3.529794377781154235e+00
5.684341886080801487e-14 3.529794377781154235e+00
5.684341886080801487e-14 3.529794377781154235e+00
1.705302565824240446e-13 3.529794377781154235e+00
0.000000000000000000e+00 3.529794377781154235e+00
1.136868377216160297e-13 3.529794377781154235e+00
1.136868377216160297e-13 3.529794377781154235e+00
1.136868377216160297e-13 3.529794377781154235e+00
1.136868377216160297e-13 3.529794377781154235e+00
0.000000000000000000e+00 3.529794377781154235e+00
1.705302565824240446e-13 3.529794377781154235e+00
5.684341886080801487e-14 3.529794377781154235e+00
5.684341886080801487e-14 3.529794377781154235e+00
5.684341886080801487e-14 3.529794377781154235e+00
5.684341886080801487e-14 3.529794377781154235e+00
1.705302565824240446e-13 3.529794377781154235e+00
0.000000000000000000e+00 3.529794377781154235e+00
1.136868377216160297e-13 3.529794377781154235e+00
1.136868377216160297e-13 3.529794377781154235e+00
1.136868377216160297e-13 3.529794377781154235e+00
1.136868377216160297e-13 3.529794377781154235e+00
0.000000000000000000e+00 3.529794377781154235e+00
1.705302565824240446e-13 3.529794377781154235e+00
5.684341886080801487e-14 3.529794377781154235e+00
1.136868377216160297e-13 3.529794377781154235e+00
1.136868377216160297e-13 3.529794377781154235e+00
5.684341886080801487e-14 3.529794377781154235e+00
1.705302565824240446e-13 3.529794377781154235e+00
0.000000000000000000e+00 3.529794377781154235e+00
1.136868377216160297e-13 3.529794377781154235e+00
1.136868377216160297e-13 3.529794377781154235e+00
1.705302565824240446e-13 3.529794377781154235e+00
1.136868377216160297e-13 3.529794377781154235e+00
0.000000000000000000e+00 3.529794377781154235e+00
2.273736754432320595e-13 3.529794377781154235e+00
5.684341886080801487e-14 3.529794377781154235e+00
1.136868377216160297e-13 3.529794377781154235e+00
1.705302565824240446e-13 3.529794377781154235e+00
5.684341886080801487e-14 3.529794377781154235e+00
1.705302565824240446e-13 3.529794377781154235e+00
0.000000000000000000e+00 3.529794377781154235e+00
1.136868377216160297e-13 3.529794377781154235e+00
1.136868377216160297e-13 3.529794377781154235e+00
5.684341886080801487e-14 3.529794377781154235e+00
1.136868377216160297e-13 3.529794377781154235e+00
0.000000000000000000e+00 3.529794377781154235e+00
2.273736754432320595e-13 3.529794377781154235e+00
5.684341886080801487e-14 3.529794377781154235e+00
5.684341886080801487e-14 3.529794377781154235e+00
1.705302565824240446e-13 3.529794377781154235e+00
5.684341886080801487e-14 3.529794377781154235e+00
1.705302565824240446e-13 3.529794377781154235e+00
5.684341886080801487e-14 3.529794377781154235e+00
1.136868377216160297e-13 3.529794377781154235e+00
1.136868377216160297e-13 3.529794377781154235e+00
1.705302565824240446e-13 3.529794377781154235e+00
1.136868377216160297e-13 3.529794377781154235e+00
1.136868377216160297e-13 3.529794377781154235e+00
2.273736754432320595e-13 3.529794377781154235e+00
5.684341886080801487e-14 3.529794377781154235e+00
1.136868377216160297e-13 3.529794377781154235e+00
5.684341886080801487e-14 3.529794377781154235e+00
5.684341886080801487e-14 3.529794377781154235e+00
2.273736754432320595e-13 3.529794377781154235e+00
0.000000000000000000e+00 3.529794377781154235e+00
1.705302565824240446e-13 3.529794377781154235e+00
0.000000000000000000e+00 3.529794377781154235e+00
5.684341886080801487e-14 3.529794377781154235e+00
1.136868377216160297e-13 3.529794377781154235e+00
0.000000000000000000e+00 3.529794377781154235e+00
2.273736754432320595e-13 3.529794377781154235e+00
1.136868377216160297e-13 3.529794377781154235e+00
5.684341886080801487e-14 3.529794377781154235e+00
1.705302565824240446e-13 3.529794377781154235e+00
1.136868377216160297e-13 3.529794377781154235e+00
1.705302565824240446e-13 3.529794377781154235e+00
5.684341886080801487e-14 3.529794377781154235e+00
1.705302565824240446e-13 3.529794377781154235e+00
