#####################################################################
# Alchemist log file - simulation started at: 2017-05-24T15:21+0000 #
#####################################################################
# random = 15.0, targets = 3.1622776601683795, density = 20.0, gridShift = 0.0, perturbation = 0.0, connfactor = 0.1
#
# The columns have the following meaning: 
# time se[Mean] 
0.0 NaN 
1.0001976518064393 NaN 
2.000197651806439 1.0 
3.000197651806439 1.0 
4.000197651806439 1.0 
5.000197651806439 1.0 
6.000197651806439 1.0 
7.000197651806439 1.0 
8.000197651806438 1.0 
9.000197651806438 1.0 
10.000197651806438 1.0 
11.000197651806438 1.0 
12.000197651806438 1.0 
13.000197651806438 1.0 
14.000197651806438 1.0 
15.000197651806438 1.0 
16.000197651806438 1.0 
17.000197651806438 1.0 
18.000197651806438 1.0 
19.000197651806438 1.0 
20.000197651806438 1.0 
21.000197651806438 1.0 
22.000197651806438 1.0 
23.000197651806438 1.0 
24.000197651806438 1.0 
25.000197651806438 1.0 
26.000197651806438 1.0 
27.000197651806438 1.0 
28.000197651806438 1.0 
29.000197651806438 1.0 
30.000197651806438 1.0 
31.000197651806438 1.0 
32.00019765180644 1.0 
33.00019765180644 1.0 
34.00019765180644 1.0 
35.00019765180644 1.0 
36.00019765180644 1.0 
37.00019765180644 1.0 
38.00019765180644 1.0 
39.00019765180644 1.0 
40.00019765180644 1.0 
41.00019765180644 1.0 
42.00019765180644 1.0 
43.00019765180644 1.0 
44.00019765180644 1.0 
45.00019765180644 1.0 
46.00019765180644 1.0 
47.00019765180644 1.0 
48.00019765180644 1.0 
49.00019765180644 1.0 
50.00019765180644 1.0 
51.00019765180644 1.0 
52.00019765180644 1.0 
53.00019765180644 1.0 
54.00019765180644 1.0 
55.00019765180644 1.0 
56.00019765180644 1.0 
57.00019765180644 1.0 
58.00019765180644 1.0 
59.00019765180644 1.0 
60.00019765180644 1.0 
61.00019765180644 1.0 
62.00019765180644 1.0 
63.00019765180644 1.0 
64.00019765180645 1.0 
65.00019765180645 1.0 
66.00019765180645 1.0 
67.00019765180645 1.0 
68.00019765180645 1.0 
69.00019765180645 1.0 
70.00019765180645 1.0 
71.00019765180645 1.0 
72.00019765180645 1.0 
73.00019765180645 1.0 
74.00019765180645 1.0 
75.00019765180645 1.0 
76.00019765180645 1.0 
77.00019765180645 1.0 
78.00019765180645 1.0 
79.00019765180645 1.0 
80.00019765180645 1.0 
81.00019765180645 1.0 
82.00019765180645 1.0 
83.00019765180645 1.0 
84.00019765180645 1.0 
85.00019765180645 1.0 
86.00019765180645 1.0 
87.00019765180645 1.0 
88.00019765180645 1.0 
89.00019765180645 1.0 
90.00019765180645 1.0 
91.00019765180645 1.0 
92.00019765180645 1.0 
93.00019765180645 1.0 
94.00019765180645 1.0 
95.00019765180645 1.0 
96.00019765180645 1.0 
97.00019765180645 1.0 
98.00019765180645 1.0 
99.00019765180645 1.0 
100.00019765180645 1.0 
101.00019765180645 1.0 
102.00019765180645 1.0 
103.00019765180645 1.0 
104.00019765180645 1.0 
105.00019765180645 1.0 
106.00019765180645 1.0 
107.00019765180645 1.0 
108.00019765180645 1.0 
#####################################################################
# End of data export. Simulation finished at: 2017-05-24T15:24+0000 #
#####################################################################
