#####################################################################
# Alchemist log file - simulation started at: 2017-05-19T19:55+0000 #
#####################################################################
# random = 0.0, targets = 3.1622776601683795, density = 0.07978946395100113, gridShift = 1.0, perturbation = 0.0, connfactor = 0.25
#
# The columns have the following meaning: 
# time se[Mean] 
0.0 NaN 
1.0078686373248142 NaN 
2.0078686373248145 1.0 
3.0078686373248145 1.0 
4.0078686373248145 1.0 
5.0078686373248145 0.9733772233983162 
6.0078686373248145 0.9467544467966325 
7.0078686373248145 0.866886116991581 
8.007868637324815 0.9201316701949487 
9.007868637324815 0.733772233983162 
10.007868637324815 0.7603950105848458 
11.007868637324815 0.6539039041781107 
12.007868637324815 0.5474127977713755 
13.007868637324815 0.49416724456800787 
14.007868637324815 0.4675444679663241 
15.007868637324815 0.4675444679663241 
16.007868637324815 0.4675444679663241 
17.007868637324815 0.4675444679663241 
#####################################################################
# End of data export. Simulation finished at: 2017-05-19T19:55+0000 #
#####################################################################
