0.000000000000000000e+00 nan
6.661338147750939243e-16 1.326778854347905601e-02
1.332267629550187849e-15 2.024887613726437385e-01
4.440892098500626162e-16 2.024946873581044693e-01
2.664535259100375697e-15 2.022841831608842844e-01
2.664535259100375697e-15 2.018971772303678192e-01
8.881784197001252323e-16 2.008862720063785134e-01
0.000000000000000000e+00 1.998687531464975742e-01
5.329070518200751394e-15 1.995500084879331393e-01
1.776356839400250465e-15 1.982930765725487154e-01
5.329070518200751394e-15 1.974538328654280583e-01
5.329070518200751394e-15 1.964573455618543463e-01
1.776356839400250465e-15 1.954664921021612156e-01
7.105427357601001859e-15 1.943470152199063550e-01
0.000000000000000000e+00 1.929229112915033517e-01
3.552713678800500929e-15 1.920195021431074789e-01
1.065814103640150279e-14 1.905049159795107749e-01
0.000000000000000000e+00 1.896939583955194186e-01
3.552713678800500929e-15 1.880563061945991210e-01
1.065814103640150279e-14 1.872357901515992740e-01
1.065814103640150279e-14 1.856984863519579865e-01
7.105427357601001859e-15 1.844842037103587851e-01
1.065814103640150279e-14 1.837469678081452562e-01
0.000000000000000000e+00 1.828189519348540626e-01
3.552713678800500929e-15 1.825203287277148978e-01
3.552713678800500929e-15 1.830511230922671206e-01
1.421085471520200372e-14 1.838223367230100158e-01
1.065814103640150279e-14 1.852933918055184315e-01
0.000000000000000000e+00 1.870783961541164497e-01
0.000000000000000000e+00 1.890343347147130648e-01
7.105427357601001859e-15 1.913756970155576220e-01
7.105427357601001859e-15 1.931603476685226917e-01
2.131628207280300558e-14 1.967796911093621093e-01
7.105427357601001859e-15 1.991522202024192667e-01
0.000000000000000000e+00 2.027276486802658539e-01
1.421085471520200372e-14 2.051121326796178090e-01
7.105427357601001859e-15 2.091400495502253876e-01
7.105427357601001859e-15 2.106015415666218638e-01
2.131628207280300558e-14 2.146689321164885755e-01
7.105427357601001859e-15 2.190099933866649917e-01
2.131628207280300558e-14 2.242373768228417275e-01
0.000000000000000000e+00 2.273357508485647493e-01
1.421085471520200372e-14 2.326957716384384645e-01
1.421085471520200372e-14 2.329824603029199970e-01
2.131628207280300558e-14 2.425875378477265198e-01
1.421085471520200372e-14 2.398064850278840698e-01
0.000000000000000000e+00 2.423791738227095427e-01
2.131628207280300558e-14 2.454992815487902769e-01
7.105427357601001859e-15 2.490204603583603682e-01
7.105427357601001859e-15 2.550527127827770246e-01
7.105427357601001859e-15 2.557667042298287785e-01
7.105427357601001859e-15 2.660135492691138026e-01
2.842170943040400743e-14 2.772204642537819397e-01
1.421085471520200372e-14 2.707799941641862995e-01
2.131628207280300558e-14 2.759834098713007666e-01
2.131628207280300558e-14 2.835256925715961551e-01
0.000000000000000000e+00 3.004174015556967392e-01
0.000000000000000000e+00 2.888744010781584826e-01
0.000000000000000000e+00 3.197721592208662145e-01
7.105427357601001859e-15 3.198922309581034851e-01
1.421085471520200372e-14 2.922468129420661143e-01
2.131628207280300558e-14 3.152834701170457721e-01
1.421085471520200372e-14 3.242808824716137406e-01
2.131628207280300558e-14 3.468437380841527529e-01
4.263256414560601115e-14 3.230577523599105216e-01
0.000000000000000000e+00 3.217976714391745374e-01
1.421085471520200372e-14 3.116005394160696884e-01
1.421085471520200372e-14 2.898794180568874390e-01
0.000000000000000000e+00 3.014266105274052698e-01
2.842170943040400743e-14 2.916261800969840445e-01
2.842170943040400743e-14 3.041397132026216199e-01
2.842170943040400743e-14 2.882394593122819537e-01
1.421085471520200372e-14 2.812922867908524971e-01
1.421085471520200372e-14 2.856087018467532990e-01
1.421085471520200372e-14 2.958277019817874276e-01
0.000000000000000000e+00 3.069452033037693428e-01
4.263256414560601115e-14 3.034890884053052518e-01
4.263256414560601115e-14 3.234831915623064824e-01
1.421085471520200372e-14 3.154726749488210857e-01
1.421085471520200372e-14 3.247122249556975704e-01
4.263256414560601115e-14 2.941574003853952846e-01
4.263256414560601115e-14 3.287257840581357948e-01
0.000000000000000000e+00 3.125956848571945779e-01
1.421085471520200372e-14 3.079324271944572922e-01
2.842170943040400743e-14 2.962108067532230327e-01
1.421085471520200372e-14 2.754555352259094314e-01
2.842170943040400743e-14 2.721634702924681792e-01
5.684341886080801487e-14 3.191955910318856060e-01
4.263256414560601115e-14 3.493022466574653428e-01
0.000000000000000000e+00 4.151311511822066147e-01
2.842170943040400743e-14 5.066402569564527614e-01
1.421085471520200372e-14 2.650587807187292921e-01
0.000000000000000000e+00 4.669898934630940524e-01
4.263256414560601115e-14 3.225426492721677474e-01
4.263256414560601115e-14 4.204677316322608105e-01
2.842170943040400743e-14 3.342139504020873453e-01
1.421085471520200372e-14 3.555915063280912225e-01
4.263256414560601115e-14 3.711154628335583960e-01
1.421085471520200372e-14 3.614213842985589120e-01
1.421085471520200372e-14 4.926007493672174276e-01
1.421085471520200372e-14 6.841457891670689184e-01
4.263256414560601115e-14 6.527652735486785263e-01
1.421085471520200372e-14 7.339901401930208902e-01
2.842170943040400743e-14 8.425238156087072605e-01
5.684341886080801487e-14 9.398916976020351699e-01
1.421085471520200372e-14 8.589982226663891440e-01
2.842170943040400743e-14 9.131919121299535425e-01
2.842170943040400743e-14 8.999946830569238720e-01
4.263256414560601115e-14 9.979417029800174976e-01
0.000000000000000000e+00 8.396596055136854586e-01
4.263256414560601115e-14 7.889327745462607622e-01
5.684341886080801487e-14 7.741990713694555382e-01
0.000000000000000000e+00 6.983789302383438535e-01
1.421085471520200372e-14 7.174710282483688362e-01
0.000000000000000000e+00 4.450337326274505512e-01
2.842170943040400743e-14 5.302595513041398201e-01
0.000000000000000000e+00 4.391488651030387436e-01
4.263256414560601115e-14 4.603355575887487783e-01
1.421085471520200372e-14 2.322132380115500272e-01
2.842170943040400743e-14 2.811407292184907036e-01
2.842170943040400743e-14 1.766344100309517051e-01
0.000000000000000000e+00 3.086361540703420614e-01
4.263256414560601115e-14 1.102235625890950893e-01
0.000000000000000000e+00 1.389167882126337017e-01
2.842170943040400743e-14 7.959291298832056605e-02
1.421085471520200372e-14 1.407861817514616254e-01
4.263256414560601115e-14 9.605080897237161519e-02
1.421085471520200372e-14 7.216980469700881584e-02
8.526512829121202230e-14 8.065909085916470045e-02
2.842170943040400743e-14 7.491867090604335810e-02
0.000000000000000000e+00 6.841933705119414288e-02
5.684341886080801487e-14 5.556575099106803722e-02
2.842170943040400743e-14 6.020684381534949225e-02
5.684341886080801487e-14 3.681101832235827293e-02
2.842170943040400743e-14 5.662542543691038988e-02
8.526512829121202230e-14 3.488838693038306266e-02
0.000000000000000000e+00 3.274251973709235014e-02
0.000000000000000000e+00 3.377415365574733958e-02
5.684341886080801487e-14 3.140783458626194430e-02
2.842170943040400743e-14 3.015687170306654077e-02
5.684341886080801487e-14 3.005962151560052920e-02
2.842170943040400743e-14 2.928090292141042120e-02
5.684341886080801487e-14 2.899747941071426430e-02
0.000000000000000000e+00 2.873604474442426060e-02
2.842170943040400743e-14 2.816611659624917649e-02
8.526512829121202230e-14 2.835643592280098768e-02
2.842170943040400743e-14 2.787114074332758956e-02
8.526512829121202230e-14 2.778450204161275403e-02
2.842170943040400743e-14 2.773206066214361359e-02
5.684341886080801487e-14 2.771522054760293396e-02
0.000000000000000000e+00 2.770106943784946332e-02
2.842170943040400743e-14 2.771085672336350003e-02
8.526512829121202230e-14 2.770863621695953197e-02
8.526512829121202230e-14 2.770886062287607893e-02
8.526512829121202230e-14 2.771418753652665073e-02
2.842170943040400743e-14 2.772277919150992545e-02
2.842170943040400743e-14 2.772720884063128652e-02
0.000000000000000000e+00 2.773351823408597844e-02
2.842170943040400743e-14 2.773916161481015594e-02
2.842170943040400743e-14 2.774500494430992906e-02
8.526512829121202230e-14 2.774865326967819110e-02
8.526512829121202230e-14 2.775298735883325110e-02
8.526512829121202230e-14 2.775732458393857099e-02
2.842170943040400743e-14 2.776040121573912153e-02
0.000000000000000000e+00 2.776403171771273451e-02
5.684341886080801487e-14 2.776612866517231756e-02
2.842170943040400743e-14 2.776916036355335862e-02
8.526512829121202230e-14 2.777184805391605046e-02
5.684341886080801487e-14 2.777230399593167212e-02
8.526512829121202230e-14 2.777368552308921018e-02
2.842170943040400743e-14 2.777415059879998621e-02
0.000000000000000000e+00 2.777461795764916974e-02
5.684341886080801487e-14 2.777461795764916974e-02
2.842170943040400743e-14 2.777461795764916974e-02
1.136868377216160297e-13 2.777461795764916974e-02
5.684341886080801487e-14 2.777461795764916974e-02
8.526512829121202230e-14 2.777461795764916974e-02
0.000000000000000000e+00 2.777461795764916974e-02
0.000000000000000000e+00 2.777461795764916974e-02
8.526512829121202230e-14 2.777461795764916974e-02
5.684341886080801487e-14 2.777461795764916974e-02
1.136868377216160297e-13 2.777461795764916974e-02
2.842170943040400743e-14 2.777461795764916974e-02
5.684341886080801487e-14 2.777461795764916974e-02
0.000000000000000000e+00 2.777461795764916974e-02
2.842170943040400743e-14 2.777461795764916974e-02
8.526512829121202230e-14 2.777461795764916974e-02
5.684341886080801487e-14 2.777461795764916974e-02
8.526512829121202230e-14 2.777461795764916974e-02
5.684341886080801487e-14 2.777461795764916974e-02
5.684341886080801487e-14 2.777461795764916974e-02
0.000000000000000000e+00 2.777461795764916974e-02
2.842170943040400743e-14 2.777461795764916974e-02
8.526512829121202230e-14 2.777461795764916974e-02
8.526512829121202230e-14 2.777461795764916974e-02
8.526512829121202230e-14 2.777461795764916974e-02
2.842170943040400743e-14 2.777461795764916974e-02
2.842170943040400743e-14 2.777461795764916974e-02
2.842170943040400743e-14 2.777461795764916974e-02
2.842170943040400743e-14 2.777461795764916974e-02
2.842170943040400743e-14 2.777461795764916974e-02
8.526512829121202230e-14 2.777461795764916974e-02
8.526512829121202230e-14 2.777461795764916974e-02
2.842170943040400743e-14 2.777461795764916974e-02
2.842170943040400743e-14 2.777461795764916974e-02
2.842170943040400743e-14 2.777461795764916974e-02
5.684341886080801487e-14 2.777461795764916974e-02
2.842170943040400743e-14 2.777461795764916974e-02
1.136868377216160297e-13 2.777461795764916974e-02
8.526512829121202230e-14 2.777461795764916974e-02
2.842170943040400743e-14 2.777461795764916974e-02
0.000000000000000000e+00 2.777461795764916974e-02
5.684341886080801487e-14 2.777461795764916974e-02
5.684341886080801487e-14 2.777461795764916974e-02
5.684341886080801487e-14 2.777461795764916974e-02
1.136868377216160297e-13 2.777461795764916974e-02
8.526512829121202230e-14 2.777461795764916974e-02
0.000000000000000000e+00 2.777461795764916974e-02
