#####################################################################
# Alchemist log file - simulation started at: 2017-05-25T12:10+0000 #
#####################################################################
# random = 17.0, targets = 100.0, density = 20.0, gridShift = 0.0, perturbation = 0.5, connfactor = 1.0
#
# The columns have the following meaning: 
# time se[Mean] 
0.0 NaN 
1.0002469869236763 NaN 
2.0002469869236763 NaN 
3.0002469869236763 1.0022659810832808 
4.000246986923676 1.0026363480623819 
5.000246986923676 1.0026593375866415 
6.000246986923676 1.0012409604074775 
7.000246986923676 0.99892268168452 
8.000246986923676 0.9993643056868305 
9.000246986923676 0.9995626900204789 
10.000246986923676 0.9990884258165301 
11.000246986923676 1.000433239799937 
12.000246986923676 0.9996720709278513 
13.000246986923676 0.998980671405692 
14.000246986923676 0.999892705379647 
15.000246986923676 0.9983913768772317 
16.000246986923678 0.9980366447437513 
17.000246986923678 0.9963892603969754 
18.000246986923678 0.9963857681553244 
19.000246986923678 0.9934144940663725 
20.000246986923678 0.9927515142564589 
21.000246986923678 0.9904600415485191 
22.000246986923678 0.9888849404668136 
23.000246986923678 0.9883027498818526 
24.000246986923678 0.9849732212245327 
25.000246986923678 0.985058613605335 
26.000246986923678 0.9817518293163202 
27.000246986923678 0.9810884527278932 
28.000246986923678 0.9776810507902751 
29.000246986923678 0.9757243505172232 
30.000246986923678 0.9742073182498424 
31.000246986923678 0.972088900047259 
32.00024698692368 0.9710282352709515 
33.00024698692368 0.9702031509268011 
34.00024698692368 0.969392664684415 
35.00024698692368 0.9697940368357488 
36.00024698692368 0.968607120352867 
37.00024698692368 0.9683370608853182 
38.00024698692368 0.968417192094623 
39.00024698692368 0.969703955642197 
40.00024698692368 0.9689807127572988 
41.00024698692368 0.970350928442029 
42.00024698692368 0.9678945284604075 
43.00024698692368 0.970605272658055 
44.00024698692368 0.9728595886499685 
45.00024698692368 0.9737490390674228 
46.00024698692368 0.9739498907136106 
47.00024698692368 0.976271836273892 
48.00024698692368 0.9809107172862845 
49.00024698692368 0.9794289825535601 
50.00024698692368 0.9791163936147869 
51.00024698692368 0.9784778365233143 
52.00024698692368 0.9805901005566058 
53.00024698692368 0.9834703784656585 
54.00024698692368 0.9816603638285024 
55.00024698692368 0.98458279510607 
56.00024698692368 0.9822846329552615 
57.00024698692368 0.9802905590343416 
58.00024698692368 0.9831968927221171 
59.00024698692368 0.9865609161678219 
60.00024698692368 0.9881211881038647 
61.00024698692368 0.9876704273655748 
62.00024698692368 0.9879126654064272 
63.00024698692368 0.9883475874947493 
64.00024698692368 0.9895944733249314 
65.00024698692368 0.989217086746482 
66.00024698692368 0.9890177956311704 
67.00024698692368 0.9881509382876494 
68.00024698692368 0.9877305657293641 
69.00024698692368 0.9858936226633058 
70.00024698692368 0.9822063038227269 
71.00024698692368 0.9827443978418402 
72.00024698692368 0.98026998496902 
73.00024698692368 0.9758842991887204 
74.00024698692368 0.9748171271135263 
75.00024698692368 0.9739444818578035 
76.00024698692368 0.9706551719045379 
77.00024698692368 0.9677151051512283 
78.00024698692368 0.9663981775756139 
79.00024698692368 0.9634925028880493 
80.00024698692368 0.9608466843231469 
81.00024698692368 0.9589471861216127 
82.00024698692368 0.9549552234299516 
83.00024698692368 0.9541342256747529 
84.00024698692368 0.9500945714529522 
85.00024698692368 0.9441532024522157 
86.00024698692368 0.9427966216393627 
87.00024698692368 0.9377497896319056 
88.00024698692368 0.9278186771424072 
89.00024698692368 0.928092193735559 
90.00024698692368 0.9227112010344477 
91.00024698692368 0.9162710840684748 
92.00024698692368 0.9166784092102509 
93.00024698692368 0.9084648563852125 
94.00024698692368 0.9033989727735791 
95.00024698692368 0.9082367028329129 
96.00024698692368 0.893372198264546 
97.00024698692368 0.8933302027541479 
98.00024698692368 0.8926874937644403 
99.00024698692368 0.8821932895531392 
100.00024698692368 0.8820299605518809 
101.00024698692368 0.8801306930660568 
102.00024698692368 0.869475706915563 
103.00024698692368 0.8706338948618992 
104.00024698692368 0.8678268063432056 
105.00024698692368 0.8660885249291115 
106.00024698692368 0.8649403549018063 
107.00024698692368 0.8650569638074979 
108.00024698692368 0.8632698940611223 
109.00024698692368 0.8616185179715407 
110.00024698692368 0.8592744525834907 
111.00024698692368 0.8594822726318007 
112.00024698692368 0.8529173322306252 
113.00024698692368 0.8551592660417988 
114.00024698692368 0.8493911199065327 
115.00024698692368 0.8486339650939926 
116.00024698692368 0.8440339874107324 
117.00024698692368 0.8415210528906746 
118.00024698692368 0.8412726488657852 
119.00024698692368 0.8361850792900655 
120.00024698692368 0.8340654625472594 
121.00024698692368 0.8331628613342792 
122.00024698692368 0.8318262723823774 
123.00024698692368 0.83022075063012 
124.00024698692368 0.8291923420762445 
125.00024698692368 0.8277693217023733 
126.00024698692368 0.8241867730650072 
127.00024698692368 0.8202324078449906 
128.00024698692368 0.8240657333018271 
129.00024698692368 0.8170914969938038 
130.00024698692368 0.8153291755277252 
131.00024698692368 0.8149734545657424 
132.00024698692368 0.8069311935517749 
133.00024698692368 0.8055613234483301 
134.00024698692368 0.7957767689298467 
135.00024698692368 0.7944925471933421 
136.00024698692368 0.7906195451979626 
137.00024698692368 0.7851447634425542 
138.00024698692368 0.7806146109010714 
139.00024698692368 0.7821357231936567 
140.00024698692368 0.7799327409551564 
141.00024698692368 0.7711597097511026 
142.00024698692368 0.7657105154510607 
143.00024698692368 0.7615918855676326 
144.00024698692368 0.7621059077005882 
145.00024698692368 0.7464382318578027 
146.00024698692368 0.7498138048729257 
147.00024698692368 0.7400098062381851 
148.00024698692368 0.7371968795946232 
149.00024698692368 0.732333156440349 
150.00024698692368 0.7282276346880904 
151.00024698692368 0.7246023767328292 
152.00024698692368 0.722017529143037 
153.00024698692368 0.7183393099532663 
154.00024698692368 0.7212534357934256 
155.00024698692368 0.7177753140752996 
156.00024698692368 0.7191969025677376 
157.00024698692368 0.7118141852420706 
158.00024698692368 0.7109375298650497 
159.00024698692368 0.7054774292428063 
160.00024698692368 0.7067684611951277 
161.00024698692368 0.7018078883112794 
162.00024698692368 0.6903908757351397 
163.00024698692368 0.6965725684598821 
164.00024698692368 0.6935639039855078 
165.00024698692368 0.6778769139886582 
166.00024698692368 0.6878760616860956 
167.00024698692368 0.6749128012759925 
168.00024698692368 0.6747041755277255 
169.00024698692368 0.7168250344596726 
170.00024698692368 0.7059799129647134 
171.00024698692368 0.7770019294134639 
172.00024698692368 1.135183035339211 
173.00024698692368 0.9257525628150598 
174.00024698692368 1.0412216853077108 
175.00024698692368 0.9901276944181907 
176.00024698692368 1.2954284571256032 
177.00024698692368 1.1054235044502196 
178.00024698692368 1.2402184523340705 
179.00024698692368 1.1706677385265754 
180.00024698692368 1.354390988303403 
181.00024698692368 1.306015329631378 
182.00024698692368 1.4682226580550275 
183.00024698692368 1.3335112948960337 
184.00024698692368 1.5785960542034265 
185.00024698692368 1.364158708123294 
186.00024698692368 1.6084346388626256 
187.00024698692368 1.7187370736846206 
188.00024698692368 1.830798519546839 
189.00024698692368 1.7170156243436232 
190.00024698692368 2.0609385190217426 
191.00024698692368 1.7763399879883344 
192.00024698692368 2.0990469691897706 
193.00024698692368 2.1303113516724426 
194.00024698692368 1.852902173256668 
195.00024698692368 2.317491933811168 
196.00024698692368 2.3193381278224057 
197.00024698692368 1.848714552155533 
198.00024698692368 2.431155490902647 
199.00024698692368 2.116805667795628 
200.00024698692368 2.3125706876181518 
201.00024698692368 2.466692155009447 
202.00024698692368 2.197138263363788 
203.00024698692368 2.1545223889414027 
204.00024698692368 2.3826290396581578 
205.00024698692368 2.230588091393613 
206.00024698692368 2.218744600333441 
207.00024698692368 1.9039156374711241 
208.00024698692368 1.8194450752205458 
209.00024698692368 2.1266797268824806 
210.00024698692368 1.6943253167007999 
211.00024698692368 2.003733628701957 
212.00024698692368 1.8467162564324713 
213.00024698692368 1.5684297002993077 
214.00024698692368 1.9988374264860291 
215.00024698692368 1.5651788355256246 
216.00024698692368 2.035300342299416 
217.00024698692368 1.5240679065584972 
218.00024698692368 1.9550439062171845 
219.00024698692368 1.8353143660733022 
220.00024698692368 1.7953371002678067 
221.00024698692368 1.9119558706154107 
222.00024698692368 1.873292220318732 
223.00024698692368 1.6343973282267443 
224.00024698692368 1.828435685780296 
225.00024698692368 1.829556831547993 
226.00024698692368 1.828302624186089 
227.00024698692368 1.5525955179452788 
228.00024698692368 1.8673739576769612 
229.00024698692368 1.9447969252126693 
230.00024698692368 1.67056020728313 
231.00024698692368 1.8285108600477784 
232.00024698692368 1.7498897516934537 
233.00024698692368 1.7109951244486545 
234.00024698692368 1.8684643188143304 
235.00024698692368 1.712143414592512 
236.00024698692368 1.5166107497768304 
237.00024698692368 1.5557642922311552 
238.00024698692368 1.2808063218730383 
239.00024698692368 1.1232608912255835 
240.00024698692368 0.927409509228628 
241.00024698692368 0.6521298256668772 
242.00024698692368 0.5754369857304132 
243.00024698692368 0.5452284098666246 
244.00024698692368 0.5010674602236924 
245.00024698692368 0.5042390168819574 
246.00024698692368 0.5033351912019535 
247.00024698692368 0.5120154451533289 
248.00024698692368 0.5069025874291115 
249.00024698692368 0.5118181819076878 
250.00024698692368 0.5105023688563332 
251.00024698692368 0.516735129502731 
252.00024698692368 0.5166223118173702 
253.00024698692368 0.5219097346933422 
254.00024698692368 0.5199131547337744 
255.00024698692368 0.5271495129699643 
256.0002469869237 0.5226655816792691 
257.0002469869237 0.5295198182498428 
258.0002469869237 0.5330622817554085 
259.0002469869237 0.5366237328686194 
260.0002469869237 0.533808583740286 
261.0002469869237 0.5436691336510191 
262.0002469869237 0.5365411940768744 
263.0002469869237 0.5454020826769588 
264.0002469869237 0.5466959744538963 
265.0002469869237 0.5395425206101654 
266.0002469869237 0.5525178832571941 
267.0002469869237 0.5525303717706367 
268.0002469869237 0.5398840353260866 
269.0002469869237 0.5558868282004829 
270.0002469869237 0.5473591994197645 
271.0002469869237 0.5526862971933421 
272.0002469869237 0.5568787570888468 
273.0002469869237 0.5493511607986771 
274.0002469869237 0.5483308499396139 
275.0002469869237 0.5545728470909471 
276.0002469869237 0.550163269599349 
277.0002469869237 0.5501118285286705 
278.0002469869237 0.5415160447516273 
279.0002469869237 0.5393269973482469 
280.0002469869237 0.547790528184731 
281.0002469869237 0.5360908944418193 
282.0002469869237 0.5445488231201424 
283.0002469869237 0.5403330990075623 
284.0002469869237 0.5329066645006298 
285.0002469869237 0.5445210059598823 
286.0002469869237 0.5328412108144294 
287.0002469869237 0.5454661517407058 
288.0002469869237 0.5316759117044743 
289.0002469869237 0.5432703571334809 
290.0002469869237 0.5400709206311697 
291.0002469869237 0.539004445297731 
292.0002469869237 0.5421724808338577 
293.0002469869237 0.5411127320284613 
294.0002469869237 0.5347676922521525 
295.0002469869237 0.5400552253990749 
296.0002469869237 0.5400552253990748 
297.0002469869237 0.5400552253990747 
298.0002469869237 0.5326526789933843 
299.0002469869237 0.5411127320284613 
300.0002469869237 0.5432277452872285 
301.0002469869237 0.5358251988815365 
302.0002469869237 0.540055225399077 
303.0002469869237 0.5379402121403062 
304.0002469869237 0.5368827055109218 
305.0002469869237 0.5411127320284597 
306.0002469869237 0.5368827055109217 
307.0002469869237 0.5315951723639998 
308.0002469869237 0.5326526789933825 
309.0002469869237 0.5252501325876912 
310.0002469869237 0.5210201060701534 
311.0002469869237 0.5157325729232305 
312.0002469869237 0.5083300265175384 
313.0002469869237 0.506215013258769 
314.0002469869237 0.5051575066293845 
315.0002469869237 0.5041 
316.0002469869237 0.5041 
317.0002469869237 0.5041 
318.0002469869237 0.5041 
319.0002469869237 0.5041 
320.0002469869237 0.5041 
321.0002469869237 0.5041 
322.0002469869237 0.5041 
323.0002469869237 0.5041 
324.0002469869237 0.5041 
325.0002469869237 0.5041 
326.0002469869237 0.5041 
327.0002469869237 0.5041 
328.0002469869237 0.5041 
329.0002469869237 0.5041 
330.0002469869237 0.5041 
331.0002469869237 0.5041 
332.0002469869237 0.5041 
333.0002469869237 0.5041 
334.0002469869237 0.5041 
335.0002469869237 0.5041 
336.0002469869237 0.5041 
337.0002469869237 0.5041 
338.0002469869237 0.5041 
339.0002469869237 0.5041 
340.0002469869237 0.5041 
341.0002469869237 0.5041 
342.0002469869237 0.5041 
343.0002469869237 0.5041 
344.0002469869237 0.5041 
345.0002469869237 0.5041 
346.0002469869237 0.5041 
347.0002469869237 0.5041 
348.0002469869237 0.5041 
349.0002469869237 0.5041 
350.0002469869237 0.5041 
351.0002469869237 0.5041 
352.0002469869237 0.5041 
353.0002469869237 0.5041 
354.0002469869237 0.5041 
355.0002469869237 0.5041 
356.0002469869237 0.5041 
357.0002469869237 0.5041 
358.0002469869237 0.5041 
359.0002469869237 0.5041 
360.0002469869237 0.5041 
361.0002469869237 0.5041 
362.0002469869237 0.5041 
363.0002469869237 0.5041 
364.0002469869237 0.5041 
365.0002469869237 0.5041 
366.0002469869237 0.5041 
367.0002469869237 0.5041 
368.0002469869237 0.5041 
369.0002469869237 0.5041 
370.0002469869237 0.5041 
371.0002469869237 0.5041 
372.0002469869237 0.5041 
373.0002469869237 0.5041 
374.0002469869237 0.5041 
375.0002469869237 0.5041 
376.0002469869237 0.5041 
377.0002469869237 0.5041 
378.0002469869237 0.5041 
379.0002469869237 0.5041 
380.0002469869237 0.5041 
381.0002469869237 0.5041 
382.0002469869237 0.5041 
383.0002469869237 0.5041 
384.0002469869237 0.5041 
385.0002469869237 0.5041 
386.0002469869237 0.5041 
387.0002469869237 0.5041 
388.0002469869237 0.5041 
389.0002469869237 0.5041 
390.0002469869237 0.5041 
391.0002469869237 0.5041 
392.0002469869237 0.5041 
393.0002469869237 0.5041 
394.0002469869237 0.5041 
395.0002469869237 0.5041 
396.0002469869237 0.5041 
397.0002469869237 0.5041 
398.0002469869237 0.5041 
399.0002469869237 0.5041 
400.0002469869237 0.5041 
401.0002469869237 0.5041 
402.0002469869237 0.5041 
403.0002469869237 0.5041 
404.0002469869237 0.5041 
405.0002469869237 0.5041 
406.0002469869237 0.5041 
407.0002469869237 0.5041 
408.0002469869237 0.5041 
409.0002469869237 0.5041 
410.0002469869237 0.5041 
411.0002469869237 0.5041 
412.0002469869237 0.5041 
413.0002469869237 0.5041 
414.0002469869237 0.5041 
415.0002469869237 0.5041 
416.0002469869237 0.5041 
417.0002469869237 0.5041 
418.0002469869237 0.5041 
419.0002469869237 0.5041 
420.0002469869237 0.5041 
421.0002469869237 0.5041 
#####################################################################
# End of data export. Simulation finished at: 2017-05-25T12:19+0000 #
#####################################################################
