#####################################################################
# Alchemist log file - simulation started at: 2017-05-25T09:04+0000 #
#####################################################################
# random = 17.0, targets = 31.622776601683793, density = 2.519842099789746, gridShift = 1.0, perturbation = 0.0, connfactor = 0.25
#
# The columns have the following meaning: 
# time se[Mean] 
0.0 NaN 
1.0003034458253823 NaN 
2.0003034458253826 1.0 
3.0003034458253826 0.9991809795631136 
4.0003034458253826 0.9963341448761164 
5.0003034458253826 0.9918558482627148 
6.0003034458253826 0.9847354720715376 
7.0003034458253826 0.9764128810145044 
8.000303445825383 0.9763865652250308 
9.000303445825383 0.9688698367101471 
10.000303445825383 0.9667293726139727 
11.000303445825383 0.9640412404046181 
12.000303445825383 0.9539868877290533 
13.000303445825383 0.9548330316962139 
14.000303445825383 0.9492898703708926 
15.000303445825383 0.9489864310511447 
16.00030344582538 0.9503605062893802 
17.00030344582538 0.9462974911009896 
18.00030344582538 0.9435764641547929 
19.00030344582538 0.9429227251429176 
20.00030344582538 0.9379222684650091 
21.00030344582538 0.9354454703122446 
22.00030344582538 0.931858562556782 
23.00030344582538 0.92446025509453 
24.00030344582538 0.9223658436299346 
25.00030344582538 0.9106602921858599 
26.00030344582538 0.9082221599765053 
27.00030344582538 0.9024084540682782 
28.00030344582538 0.8929009617650928 
29.00030344582538 0.8837495403606026 
30.00030344582538 0.871564650520398 
31.00030344582538 0.861401803723736 
32.00030344582538 0.8463684637149328 
33.00030344582538 0.8351694912182266 
34.00030344582538 0.825739330801861 
35.00030344582538 0.8132649672774458 
36.00030344582538 0.7986205929041801 
37.00030344582538 0.7863033163758062 
38.00030344582538 0.7672078859403773 
39.00030344582538 0.75656396824502 
40.00030344582538 0.7360352520450396 
41.00030344582538 0.7219245801494169 
42.00030344582538 0.706949759947093 
43.00030344582538 0.6918902211697802 
44.00030344582538 0.662978438967742 
45.00030344582538 0.653269656560465 
46.00030344582538 0.6286481557834378 
47.00030344582538 0.6060222652395157 
48.00030344582538 0.5826310276203834 
49.00030344582538 0.556653572965625 
50.00030344582538 0.5399891220933093 
51.00030344582538 0.5250310418118168 
52.00030344582538 0.5105782646530357 
53.00030344582538 0.4948619899425735 
54.00030344582538 0.48406191001293924 
55.00030344582538 0.46083918478201996 
56.00030344582538 0.4549197476320423 
57.00030344582538 0.43966711317960766 
58.00030344582538 0.42529871493887106 
59.00030344582538 0.42838584533031415 
60.00030344582538 0.41545234833572986 
61.00030344582538 0.4052204811021816 
62.00030344582538 0.40473363899691844 
63.00030344582538 0.3990105398912122 
64.00030344582538 0.4060037154959682 
65.00030344582538 0.40014499873889076 
66.00030344582538 0.40137756809822317 
67.00030344582538 0.4091215514437797 
68.00030344582538 0.4157530019642367 
69.00030344582538 0.41755758868172965 
70.00030344582538 0.4253469339390286 
71.00030344582538 0.4311249708251199 
72.00030344582538 0.4326897185160755 
73.00030344582538 0.4342191482477874 
74.00030344582538 0.43134034358571266 
75.00030344582538 0.4306734466791005 
76.00030344582538 0.4342100290570533 
77.00030344582538 0.4328006358595741 
78.00030344582538 0.43070299343177637 
79.00030344582538 0.4306108881686185 
80.00030344582538 0.429016476704023 
81.00030344582538 0.42897700301981245 
82.00030344582538 0.4276999965105022 
83.00030344582538 0.4272107311828374 
84.00030344582538 0.4267609395393831 
85.00030344582538 0.4265890791670036 
86.00030344582538 0.42641721879462413 
87.00030344582538 0.4262716742117183 
88.00030344582538 0.4258547773051061 
89.00030344582538 0.42571581166956873 
90.00030344582538 0.42557684603403134 
91.00030344582538 0.42529891476295656 
92.00030344582538 0.42529891476295656 
93.00030344582538 0.42529891476295656 
94.00030344582538 0.42529891476295656 
95.00030344582538 0.42529891476295656 
96.00030344582538 0.42529891476295656 
97.00030344582538 0.42529891476295656 
98.00030344582538 0.42529891476295656 
99.00030344582538 0.42529891476295656 
100.00030344582538 0.42529891476295656 
101.00030344582538 0.42529891476295656 
102.00030344582538 0.42529891476295656 
103.00030344582538 0.42529891476295656 
104.00030344582538 0.42529891476295656 
105.00030344582538 0.42529891476295656 
106.00030344582538 0.42529891476295656 
107.00030344582538 0.42529891476295656 
108.00030344582538 0.42529891476295656 
109.00030344582538 0.42529891476295656 
110.00030344582538 0.42529891476295656 
111.00030344582538 0.42529891476295656 
112.00030344582538 0.42529891476295656 
113.00030344582538 0.42529891476295656 
114.00030344582538 0.42529891476295656 
115.00030344582538 0.42529891476295656 
116.00030344582538 0.42529891476295656 
117.00030344582538 0.42529891476295656 
118.00030344582538 0.42529891476295656 
119.00030344582538 0.42529891476295656 
120.00030344582538 0.42529891476295656 
121.00030344582538 0.42529891476295656 
122.00030344582538 0.42529891476295656 
#####################################################################
# End of data export. Simulation finished at: 2017-05-25T09:04+0000 #
#####################################################################
