0.000000000000000000e+00 nan
1.000000410218000235e+00 1.518870047449727596e-02
2.000000820436000470e+00 9.532208100226543523e-01
3.000001230654000484e+00 9.533099028551584864e-01
4.000001640872000941e+00 9.528574055159705347e-01
5.000002051090006283e+00 9.521251300784178140e-01
6.000002461308000967e+00 9.502441762341451437e-01
7.000002871526004533e+00 9.484996449981936140e-01
8.000003281744001882e+00 9.475393959598586990e-01
9.000003691962005448e+00 9.460090659273560076e-01
1.000000410218001257e+01 9.448280150075739625e-01
1.100000451239800014e+01 9.431815998547200541e-01
1.200000492261600193e+01 9.415873047090848047e-01
1.300000533283400905e+01 9.396988862876903825e-01
1.400000574305200907e+01 9.379680684627640375e-01
1.500000615327001618e+01 9.358710737606837915e-01
1.600000656348800376e+01 9.339033695580279959e-01
1.700000697370601799e+01 9.316329186972914789e-01
1.800000738392401090e+01 9.291830132104306195e-01
1.900000779414200736e+01 9.268104777044743336e-01
2.000000820436002513e+01 9.239797131078709702e-01
2.100000861457801093e+01 9.212862109870273430e-01
2.200000902479600029e+01 9.184336378552026003e-01
2.300000943501401807e+01 9.156433421790470817e-01
2.400000984523200387e+01 9.127775609333766971e-01
2.500001025545002165e+01 9.097689247704561222e-01
2.600001066566801811e+01 9.066209956420611116e-01
2.700001107588601457e+01 9.034158352458514507e-01
2.800001148610401813e+01 8.998996975659113717e-01
2.900001189632201104e+01 8.965629521255009671e-01
3.000001230654003237e+01 8.929722065892633509e-01
3.100001271675800751e+01 8.891899621666770059e-01
3.200001312697600753e+01 8.853449847940915163e-01
3.300001353719402886e+01 8.820085814398658242e-01
3.400001394741203598e+01 8.779437940659395867e-01
3.500001435763000046e+01 8.743783248661961549e-01
3.600001476784802179e+01 8.709416782020522607e-01
3.700001517806603601e+01 8.672372126161544958e-01
3.800001558828401471e+01 8.641138613839267624e-01
3.900001599850202894e+01 8.605801109469054522e-01
4.000001640872005026e+01 8.573087291385695918e-01
4.100001681893800765e+01 8.544078179952460106e-01
4.200001722915602187e+01 8.511026622664679131e-01
4.300001763937404320e+01 8.485752375622940269e-01
4.400001804959200058e+01 8.452504589030344073e-01
4.500001845981001480e+01 8.425035248841300506e-01
4.600001887002803613e+01 8.396982507672877682e-01
4.700001928024605036e+01 8.366959083887209880e-01
4.800001969046400774e+01 8.339866829077443589e-01
4.900002010068202907e+01 8.311372579314952880e-01
5.000002051090004329e+01 8.283768785168266202e-01
5.100002092111802199e+01 8.257780485067904852e-01
5.200002133133603621e+01 8.229628426844356470e-01
5.300002174155405754e+01 8.204444757095777918e-01
5.400002215177202913e+01 8.173418700852613794e-01
5.500002256199004336e+01 8.147963416045445051e-01
5.600002297220803626e+01 8.121060364272992826e-01
5.700002338242600075e+01 8.095377268159983375e-01
5.800002379264402208e+01 8.068393396834110387e-01
5.900002420286204341e+01 8.045950080884719524e-01
6.000002461308006474e+01 8.017603021755616011e-01
6.100002502329805054e+01 7.993006744502505478e-01
6.200002543351601503e+01 7.974449756747925555e-01
6.300002584373403636e+01 7.943808121350636187e-01
6.400002625395201505e+01 7.919875618490475055e-01
6.500002666417005059e+01 7.895821458948938387e-01
6.600002707438805771e+01 7.870537140790677677e-01
6.700002748460609325e+01 7.840772770474185860e-01
6.800002789482407195e+01 7.812665989330832561e-01
6.900002830504202223e+01 7.778097353511722600e-01
7.000002871526000092e+01 7.749268477022461798e-01
7.100002912547803646e+01 7.709195348568941286e-01
7.200002953569604358e+01 7.681012173941673682e-01
7.300002994591407912e+01 7.650482327261840521e-01
7.400003035613207203e+01 7.609051460186829763e-01
7.500003076635002230e+01 7.574657454428863623e-01
7.600003117656802942e+01 7.540922136135460585e-01
7.700003158678602233e+01 7.503127616149875001e-01
7.800003199700405787e+01 7.471950385522491134e-01
7.900003240722206499e+01 7.437079042843021126e-01
8.000003281744010053e+01 7.399595950737466454e-01
8.100003322765809344e+01 7.369254047039792699e-01
8.200003363787601529e+01 7.333911986762234880e-01
8.300003404809400820e+01 7.296453766386949980e-01
8.400003445831204374e+01 7.267492808994461262e-01
8.500003486853005086e+01 7.226224840636485958e-01
8.600003527874808640e+01 7.190628433271515352e-01
8.700003568896607931e+01 7.154049169221307070e-01
8.800003609918400116e+01 7.115804190151693298e-01
8.900003650940203670e+01 7.077739785229024694e-01
9.000003691962002961e+01 7.042795862846688015e-01
9.100003732983806515e+01 7.006489561123808718e-01
9.200003774005607227e+01 6.966435026892429105e-01
9.300003815027410781e+01 6.932837666425157863e-01
9.400003856049210071e+01 6.878735154696071774e-01
9.500003897071002257e+01 6.844065594140086306e-01
9.600003938092801548e+01 6.793960446340449044e-01
9.700003979114605102e+01 6.745855788860013469e-01
9.800004020136405813e+01 6.696728253693049471e-01
9.900004061158209367e+01 6.646678166908298602e-01
1.000000410218000866e+02 6.589223829642620878e-01
1.010000414320180084e+02 6.544219124291738021e-01
1.020000418422360440e+02 6.487966137314806758e-01
1.030000422524540369e+02 6.451630500850604744e-01
1.040000426626720724e+02 6.394412334743490023e-01
1.050000430728900795e+02 6.352447721574501216e-01
1.060000434831081151e+02 6.325101411244322680e-01
1.070000438933261222e+02 6.259477910199365835e-01
1.080000443035440583e+02 6.256732364338043473e-01
1.090000447137620938e+02 6.173887524255778914e-01
1.100000451239800867e+02 6.157118007207021959e-01
1.110000455341980654e+02 6.092286660774427487e-01
1.120000459444160725e+02 6.020516647508135089e-01
1.130000463546340654e+02 5.986551487074582845e-01
1.140000467648520015e+02 5.891516866938524277e-01
1.150000471750700370e+02 5.873144314324479920e-01
1.160000475852880442e+02 5.836831295494202543e-01
1.170000479955060797e+02 5.779997975178079450e-01
1.180000484057240868e+02 5.754681864943217429e-01
1.190000488159421224e+02 5.708899627478019045e-01
1.200000492261601295e+02 5.637769322056224164e-01
1.210000496363780798e+02 5.583294139234177278e-01
1.220000500465961011e+02 5.535713916069605611e-01
1.230000504568141082e+02 5.490051926364808432e-01
1.240000508670320301e+02 5.371092421339743739e-01
1.250000512772500656e+02 5.334349398343116722e-01
1.260000516874680727e+02 5.255357602022830976e-01
1.270000520976860088e+02 5.182684357071724035e-01
1.280000525079040301e+02 5.091861707203108045e-01
1.290000529181220656e+02 5.055405119091144206e-01
1.300000533283401012e+02 5.049890275703866616e-01
1.310000537385580799e+02 4.938733643892854186e-01
1.320000541487761154e+02 4.918865799348663415e-01
1.330000545589941510e+02 4.852191947216335510e-01
1.340000549692121865e+02 4.842813338546397284e-01
1.350000553794301084e+02 4.766498707196898388e-01
1.360000557896481439e+02 4.684696800913970005e-01
1.370000561998660373e+02 4.588527406282096321e-01
1.380000566100840445e+02 4.544851518920844935e-01
1.390000570203020800e+02 4.494321806117717588e-01
1.400000574305200018e+02 4.387842787789393295e-01
1.410000578407380374e+02 4.337912323465303310e-01
1.420000582509560729e+02 4.269669984891656389e-01
1.430000586611741085e+02 4.196356555973906333e-01
1.440000590713920872e+02 4.197193916644820777e-01
1.450000594816101227e+02 4.100122762023998835e-01
1.460000598918281582e+02 4.054963560245409826e-01
1.470000603020461938e+02 4.045581692388416917e-01
1.480000607122641441e+02 3.908210985499773193e-01
1.490000611224821796e+02 3.920449776390957930e-01
1.500000615327000446e+02 3.819903015484563125e-01
1.510000619429180233e+02 3.762717777167757793e-01
1.520000623531360588e+02 3.667859874300447021e-01
1.530000627633540091e+02 3.637093019663772964e-01
1.540000631735720447e+02 3.597788159165908328e-01
1.550000635837900802e+02 3.518876639010153906e-01
1.560000639940081157e+02 3.449056872681412478e-01
1.570000644042260944e+02 3.461443262555922717e-01
1.580000648144441300e+02 3.410457059880480646e-01
1.590000652246621655e+02 3.389794026566819163e-01
1.600000656348802011e+02 3.368280939599801460e-01
1.610000660450981513e+02 3.378438395057783983e-01
1.620000664553161869e+02 3.220814969131216565e-01
1.630000668655339950e+02 3.318572673226030667e-01
1.640000672757520306e+02 3.263517364175241853e-01
1.650000676859700661e+02 3.240614537891109981e-01
1.660000680961880164e+02 3.190710361123177408e-01
1.670000685064060519e+02 3.110966410674823046e-01
1.680000689166240875e+02 3.108897101220606252e-01
1.690000693268421230e+02 2.926871226935033876e-01
1.700000697370601017e+02 2.923740217183186108e-01
1.710000701472781373e+02 2.855484873301711302e-01
1.720000705574961728e+02 2.815814680432854322e-01
1.730000709677142083e+02 2.728897401701376180e-01
1.740000713779321586e+02 2.673226042436938621e-01
1.750000717881501942e+02 2.627292136019839242e-01
1.760000721983680023e+02 2.581806506086256059e-01
1.770000726085860379e+02 2.527370191446418612e-01
1.780000730188040734e+02 2.495952325085033507e-01
1.790000734290220237e+02 2.459865709973116377e-01
1.800000738392400592e+02 2.408169983529805103e-01
1.810000742494580948e+02 2.372886596944396576e-01
1.820000746596761303e+02 2.313860313972020688e-01
1.830000750698941374e+02 2.318984610458396378e-01
1.840000754801121445e+02 2.303048260793717494e-01
1.850000758903301801e+02 2.253377321156923574e-01
1.860000763005482156e+02 2.189563076437295586e-01
1.870000767107661943e+02 2.207463047914504095e-01
1.880000771209842014e+02 2.104063125601874917e-01
1.890000775312020096e+02 2.131397429088927598e-01
1.900000779414200451e+02 2.120194854943730500e-01
1.910000783516380807e+02 2.050905886143358781e-01
1.920000787618560310e+02 2.084229138548345517e-01
1.930000791720740665e+02 1.960207222350448530e-01
1.940000795822921020e+02 2.009357834507090323e-01
1.950000799925101376e+02 1.992537078414358120e-01
1.960000804027281163e+02 1.853204746924772273e-01
1.970000808129461518e+02 1.859281834279843670e-01
1.980000812231641873e+02 1.855071240130651278e-01
1.990000816333822229e+02 1.799186549801769230e-01
2.000000820436001732e+02 1.753972714669436439e-01
2.010000824538182087e+02 1.731604491066605356e-01
2.020000828640360169e+02 1.642373343839255984e-01
2.030000832742540524e+02 1.602887198992257456e-01
2.040000836844720880e+02 1.513838729042537024e-01
2.050000840946901235e+02 1.477833446873549894e-01
2.060000845049080738e+02 1.419014357963292727e-01
2.070000849151261662e+02 1.441715902915682856e-01
2.080000853253441448e+02 1.356626591939355531e-01
2.090000857355621804e+02 1.320760079303255619e-01
2.100000861457801591e+02 1.273174139273590411e-01
2.110000865559981378e+02 1.261002218992611779e-01
2.120000869662162302e+02 1.207390271101069917e-01
2.130000873764341804e+02 1.139796728954969446e-01
2.140000877866522444e+02 1.103458235774945478e-01
2.150000881968700241e+02 1.084158691158687571e-01
2.160000886070881165e+02 1.030467935251400680e-01
2.170000890173060668e+02 1.055030070351774124e-01
2.180000894275241876e+02 9.796178066362587478e-02
2.190000898377420810e+02 9.927020757088721170e-02
2.200000902479601734e+02 9.010591728459051153e-02
2.210000906581781521e+02 8.860384721727218582e-02
2.220000910683961308e+02 8.853303132690132360e-02
2.230000914786141664e+02 8.457972271193300862e-02
2.240000918888321451e+02 8.228223170778135864e-02
2.250000922990502374e+02 8.148418760450094889e-02
2.260000927092681309e+02 7.657613553548091312e-02
2.270000931194862517e+02 7.464666388643634298e-02
2.280000935297040030e+02 6.782592624680426618e-02
2.290000939399221238e+02 6.842045695419755880e-02
2.300000943501400741e+02 6.585263551717536468e-02
2.310000947603581949e+02 6.486688220043712594e-02
2.320000951705760883e+02 5.995413005172766513e-02
2.330000955807942091e+02 5.761613804156238278e-02
2.340000959910121594e+02 5.486755174514246214e-02
2.350000964012301949e+02 5.336390159710655001e-02
2.360000968114481736e+02 5.212221953741442981e-02
2.370000972216661239e+02 5.232372766528051167e-02
2.380000976318842447e+02 5.036331652617508786e-02
2.390000980421021382e+02 4.790343336773364435e-02
2.400000984523202590e+02 4.763104912986804163e-02
2.410000988625380103e+02 4.660419045686325923e-02
2.420000992727561595e+02 4.463342389230996049e-02
2.430000996829740814e+02 4.566187771149275015e-02
2.440001000931922022e+02 4.409817825139723119e-02
2.450001005034100956e+02 4.454952330191586096e-02
2.460001009136282164e+02 4.245910137156565928e-02
2.470001013238461667e+02 4.240357547382068298e-02
2.480001017340640601e+02 4.130203173572212505e-02
2.490001021442821809e+02 4.095227352044783498e-02
2.500001025545001312e+02 4.040723628967952258e-02
2.510001029647182520e+02 3.965976159669739459e-02
2.520001033749361454e+02 3.649354773202687086e-02
2.530001037851542662e+02 3.283327168205366076e-02
2.540001041953720176e+02 3.225097757511729418e-02
2.550001046055901668e+02 3.164902239545241969e-02
2.560001050158080602e+02 3.108816238448002325e-02
2.570001054260262094e+02 3.053204835014820817e-02
2.580001058362441313e+02 3.010052152866223713e-02
2.590001062464622805e+02 2.965945119078389203e-02
2.600001066566802024e+02 4.341760766395666438e-02
2.610001070668982948e+02 2.875999209767175074e-02
2.620001074771161598e+02 7.092299315563041495e-02
2.630001078873340816e+02 5.643977330592302166e-02
2.640001082975522309e+02 8.420319615053654949e-02
2.650001087077700959e+02 9.822829712677756675e-02
2.660001091179883019e+02 6.944561468997823006e-02
2.670001095282059964e+02 6.902603518419075934e-02
2.680001099384243730e+02 8.285077159014604675e-02
2.690001103486420675e+02 8.254923778421832670e-02
2.700001107588602167e+02 5.388163519693151687e-02
2.710001111690781386e+02 9.601174396697433056e-02
2.720001115792962878e+02 5.311681003310142479e-02
2.730001119895142097e+02 3.868306635103741647e-02
2.740001123997320747e+02 5.253571478313186216e-02
2.750001128099501670e+02 2.384239520900862525e-02
2.760001132201680889e+02 5.188675740265436681e-02
2.770001136303862381e+02 5.161103302755143396e-02
2.780001140406041600e+02 2.298169776185468929e-02
2.790001144508223092e+02 5.106511436246267965e-02
2.800001148610400037e+02 3.667788822696657625e-02
2.810001152712583803e+02 3.642991800323877594e-02
2.820001156814760748e+02 5.045336591903637480e-02
2.830001160916942240e+02 2.184302657517913845e-02
2.840001165019121458e+02 4.998902149143775314e-02
2.850001169121302951e+02 3.563602741250235240e-02
2.860001173223482169e+02 3.547694194889066538e-02
2.870001177325663093e+02 3.529656509427933631e-02
2.880001181427841743e+02 4.924186147064325142e-02
2.890001185530020962e+02 4.918814996049532262e-02
2.900001189632202454e+02 2.067045387375008453e-02
2.910001193734381673e+02 4.879454891588237003e-02
2.920001197836563165e+02 4.873934809595666107e-02
2.930001201938740110e+02 2.026204984787361232e-02
2.940001206040923876e+02 4.849021116004598869e-02
2.950001210143100820e+02 4.832052474446188461e-02
2.960001214245282881e+02 4.826933610280980530e-02
2.970001218347461531e+02 3.395438105183445215e-02
2.980001222449643592e+02 4.802464170257293025e-02
2.990001226551822242e+02 1.956906409574868042e-02
3.000001230654000892e+02 4.783981712209246784e-02
3.010001234756181816e+02 3.359007300383257122e-02
3.020001238858360466e+02 3.350425301700517278e-02
3.030001242960542527e+02 4.754782278710700111e-02
3.040001247062721177e+02 4.747763172813241478e-02
3.050001251164903238e+02 1.907276488599191425e-02
3.060001255267080182e+02 4.733067299811124368e-02
3.070001259369263948e+02 3.308285123004692241e-02
3.080001263471440893e+02 6.137521574968019672e-02
3.090001267573622954e+02 4.717045834130191573e-02
3.100001271675801604e+02 4.700553085027323053e-02
3.110001275777983665e+02 6.117820995011501867e-02
3.120001279880162315e+02 3.275857857362588638e-02
3.130001283982343239e+02 4.689461246349552886e-02
3.140001288084521889e+02 4.681346339817062802e-02
3.150001292186700539e+02 4.675912536769411681e-02
3.160001296288882600e+02 3.253889967336508204e-02
3.170001300391061250e+02 4.660598361166150283e-02
3.180001304493243310e+02 3.242295422152539214e-02
3.190001308595420255e+02 3.235233957550912032e-02
3.200001312697604021e+02 4.651184725118006486e-02
3.210001316799780966e+02 3.224474332443619251e-02
3.220001320901963027e+02 4.636571258374425075e-02
3.230001325004141677e+02 3.217396081413578107e-02
3.240001329106323738e+02 1.796486501055776300e-02
3.250001333208502388e+02 4.624697543237170361e-02
3.260001337310679901e+02 4.619364370666478870e-02
3.270001341412861962e+02 3.199873047927306174e-02
3.280001345515040612e+02 3.194083941086259260e-02
3.290001349617222672e+02 3.188588006002134739e-02
3.300001353719401322e+02 3.186384712164212069e-02
3.310001357821583383e+02 3.183875764494719512e-02
3.320001361923760328e+02 1.761703761830370890e-02
3.330001366025944094e+02 1.758515509414864883e-02
3.340001370128121039e+02 1.756260773331965244e-02
3.350001374230303099e+02 1.753925533970156214e-02
3.360001378332481750e+02 1.751911110073227362e-02
3.370001382434663810e+02 1.748576109791118161e-02
3.380001386536842460e+02 1.746555193569235970e-02
3.390001390639024521e+02 1.744971423166387370e-02
3.400001394741202034e+02 1.743820503875879308e-02
3.410001398843380684e+02 1.742514350899612707e-02
3.420001402945562745e+02 1.741126264262161591e-02
3.430001407047741395e+02 1.740204925294881744e-02
3.440001411149923456e+02 1.739294244111882701e-02
3.450001415252100401e+02 1.738459168184583459e-02
3.460001419354284167e+02 1.737571796935966084e-02
3.470001423456461112e+02 1.737078835674022576e-02
3.480001427558643172e+02 1.736197984715579651e-02
3.490001431660821822e+02 1.735864304223646432e-02
3.500001435763003883e+02 1.735257486721786604e-02
3.510001439865182533e+02 1.734936416395428671e-02
3.520001443967360046e+02 1.734548216402470242e-02
3.530001448069542676e+02 1.734216932725909585e-02
3.540001452171720757e+02 1.733885834227156739e-02
3.550001456273902818e+02 1.733728924316614919e-02
3.560001460376081468e+02 1.733601597044882175e-02
3.570001464478263529e+02 1.733476095595325173e-02
3.580001468580440473e+02 1.733383696034547852e-02
3.590001472682624239e+02 1.733216360768471617e-02
3.600001476784801184e+02 1.733216360768471617e-02
3.610001480886983245e+02 1.733132693135433500e-02
3.620001484989161895e+02 1.733132693135433500e-02
3.630001489091343956e+02 1.733090859318914614e-02
3.640001493193522606e+02 1.733090859318914614e-02
3.650001497295704667e+02 1.733090859318914614e-02
3.660001501397882748e+02 1.733090859318914614e-02
3.670001505500060830e+02 1.733090859318914614e-02
3.680001509602242891e+02 1.733090859318914614e-02
3.690001513704421541e+02 1.733090859318914614e-02
3.700001517806603601e+02 1.733090859318914614e-02
3.710001521908780546e+02 1.733090859318914614e-02
3.720001526010964312e+02 1.733090859318914614e-02
3.730001530113141257e+02 1.733090859318914614e-02
3.740001534215323886e+02 1.733090859318914614e-02
3.750001538317501968e+02 1.733090859318914614e-02
3.760001542419684029e+02 1.733090859318914614e-02
3.770001546521862679e+02 1.733090859318914614e-02
3.780001550624040192e+02 1.733090859318914614e-02
3.790001554726222821e+02 1.733090859318914614e-02
3.800001558828400903e+02 1.733090859318914614e-02
3.810001562930582963e+02 1.733090859318914614e-02
3.820001567032761614e+02 1.733090859318914614e-02
3.830001571134943674e+02 1.733090859318914614e-02
3.840001575237120619e+02 1.733090859318914614e-02
3.850001579339304385e+02 1.733090859318914614e-02
3.860001583441481330e+02 1.733090859318914614e-02
3.870001587543663959e+02 1.733090859318914614e-02
3.880001591645842041e+02 1.733090859318914614e-02
3.890001595748024101e+02 1.733090859318914614e-02
3.900001599850202751e+02 1.733090859318914614e-02
3.910001603952384812e+02 1.733090859318914614e-02
3.920001608054562325e+02 1.733090859318914614e-02
3.930001612156740975e+02 1.733090859318914614e-02
3.940001616258923036e+02 1.733090859318914614e-02
3.950001620361101686e+02 1.733090859318914614e-02
3.960001624463283747e+02 1.733090859318914614e-02
3.970001628565461829e+02 1.733090859318914614e-02
3.980001632667644458e+02 1.733090859318914614e-02
3.990001636769821403e+02 1.733090859318914614e-02
4.000001640872003463e+02 1.733090859318914614e-02
4.010001644974182113e+02 1.733090859318914614e-02
4.020001649076364174e+02 1.733090859318914614e-02
4.030001653178542824e+02 1.733090859318914614e-02
4.040001657280720337e+02 1.733090859318914614e-02
4.050001661382902967e+02 1.733090859318914614e-02
4.060001665485081048e+02 1.733090859318914614e-02
4.070001669587263109e+02 1.733090859318914614e-02
4.080001673689441759e+02 1.733090859318914614e-02
4.090001677791623820e+02 1.733090859318914614e-02
4.100001681893802470e+02 1.733090859318914614e-02
4.110001685995983394e+02 1.733090859318914614e-02
4.120001690098161475e+02 1.733090859318914614e-02
4.130001694200344105e+02 1.733090859318914614e-02
4.140001698302523323e+02 1.733090859318914614e-02
4.150001702404704247e+02 1.733090859318914614e-02
4.160001706506882897e+02 1.733090859318914614e-02
4.170001710609064958e+02 1.733090859318914614e-02
4.180001714711243608e+02 1.733090859318914614e-02
4.190001718813420553e+02 1.733090859318914614e-02
4.200001722915603182e+02 1.733090859318914614e-02
4.210001727017781832e+02 1.733090859318914614e-02
4.220001731119962756e+02 1.733090859318914614e-02
4.230001735222141974e+02 1.733090859318914614e-02
4.240001739324324603e+02 1.733090859318914614e-02
4.250001743426502685e+02 1.733090859318914614e-02
4.260001747528683609e+02 1.733090859318914614e-02
4.270001751630862259e+02 1.733090859318914614e-02
4.280001755733044888e+02 1.733090859318914614e-02
4.290001759835224107e+02 1.733090859318914614e-02
4.300001763937400483e+02 1.733090859318914614e-02
4.310001768039583112e+02 1.733090859318914614e-02
4.320001772141762331e+02 1.733090859318914614e-02
4.330001776243942118e+02 1.733090859318914614e-02
4.340001780346121336e+02 1.733090859318914614e-02
4.350001784448303965e+02 1.733090859318914614e-02
4.360001788550483752e+02 1.733090859318914614e-02
4.370001792652663539e+02 1.733090859318914614e-02
4.380001796754841621e+02 1.733090859318914614e-02
4.390001800857024250e+02 1.733090859318914614e-02
4.400001804959203469e+02 1.733090859318914614e-02
4.410001809061383256e+02 1.733090859318914614e-02
4.420001813163563043e+02 1.733090859318914614e-02
4.430001817265745103e+02 1.733090859318914614e-02
4.440001821367922616e+02 1.733090859318914614e-02
4.450001825470100698e+02 1.733090859318914614e-02
4.460001829572283327e+02 1.733090859318914614e-02
4.470001833674463114e+02 1.733090859318914614e-02
4.480001837776642901e+02 1.733090859318914614e-02
4.490001841878822120e+02 1.733090859318914614e-02
4.500001845981004749e+02 1.733090859318914614e-02
4.510001850083182831e+02 1.733090859318914614e-02
4.520001854185362617e+02 1.733090859318914614e-02
4.530001858287542404e+02 1.733090859318914614e-02
4.540001862389725034e+02 1.733090859318914614e-02
4.550001866491904252e+02 1.733090859318914614e-02
4.560001870594080060e+02 1.733090859318914614e-02
4.570001874696263258e+02 1.733090859318914614e-02
4.580001878798442476e+02 1.733090859318914614e-02
4.590001882900621695e+02 1.733090859318914614e-02
4.600001887002801482e+02 1.733090859318914614e-02
4.610001891104984111e+02 1.733090859318914614e-02
4.620001895207163898e+02 1.733090859318914614e-02
4.630001899309343116e+02 1.733090859318914614e-02
