#####################################################################
# Alchemist log file - simulation started at: 2017-05-24T04:29+0000 #
#####################################################################
# random = 13.0, targets = 100.0, density = 14.160781367816199, gridShift = 0.0, perturbation = 0.5, connfactor = 0.75
#
# The columns have the following meaning: 
# time se[Mean] 
0.0 NaN 
1.0002602723432414 NaN 
2.000260272343241 1.0003628040762655 
3.000260272343241 1.0007218122214918 
4.000260272343241 1.000292644185112 
5.000260272343241 0.9989432815581853 
6.000260272343241 0.9973631743553218 
7.000260272343241 0.9951904334684784 
8.00026027234324 0.9950676898422091 
9.00026027234324 0.9932957242128716 
10.00026027234324 0.9923394518408941 
11.00026027234324 0.9915347217656513 
12.00026027234324 0.9906741831945358 
13.00026027234324 0.9895695092775221 
14.00026027234324 0.9883158927788736 
15.00026027234324 0.9864187207794579 
16.00026027234324 0.9838061623383739 
17.00026027234324 0.9818406206625758 
18.00026027234324 0.977267885254584 
19.00026027234324 0.9736229531923443 
20.00026027234324 0.9704956589232231 
21.00026027234324 0.9641368945868946 
22.00026027234324 0.9601460963182117 
23.00026027234324 0.9549376022718973 
24.00026027234324 0.9508681135400688 
25.00026027234324 0.9457840373657681 
26.00026027234324 0.9403845825115056 
27.00026027234324 0.9355568490211119 
28.00026027234324 0.9340024901380671 
29.00026027234324 0.9307026006282417 
30.00026027234324 0.9290549327927533 
31.00026027234324 0.9257658471217766 
32.00026027234324 0.9262524403718314 
33.00026027234324 0.9228008387208707 
34.00026027234324 0.9226477262765724 
35.00026027234324 0.9225098719775002 
36.00026027234324 0.9202549579041567 
37.00026027234324 0.9189026823544452 
38.00026027234324 0.9171773353605085 
39.00026027234324 0.912743571937322 
40.00026027234324 0.9080702658156184 
41.00026027234324 0.9042979207758054 
42.00026027234324 0.9010866503214259 
43.00026027234324 0.8930590770874424 
44.00026027234324 0.8903633957922418 
45.00026027234324 0.8817101226349622 
46.00026027234324 0.8809743060121268 
47.00026027234324 0.8705013281649504 
48.00026027234324 0.8677330119073711 
49.00026027234324 0.8588180340967199 
50.00026027234324 0.8514704931879609 
51.00026027234324 0.8481789356417558 
52.00026027234324 0.8410033516874862 
53.00026027234324 0.8388905261523852 
54.00026027234324 0.8255219332127984 
55.00026027234324 0.8353717154284461 
56.00026027234324 0.8249952909270216 
57.00026027234324 0.8258431098875008 
58.00026027234324 0.8226810600664769 
59.00026027234324 0.8196864503433418 
60.00026027234324 0.8177568070165826 
61.00026027234324 0.813430645500037 
62.00026027234324 0.8136895385893785 
63.00026027234324 0.8023165000182629 
64.00026027234324 0.801065974505077 
65.00026027234324 0.7954084766966182 
66.00026027234324 0.789678360818906 
67.00026027234324 0.7870316024727885 
68.00026027234324 0.7821184244648991 
69.00026027234324 0.7743689677843523 
70.00026027234324 0.768033399536124 
71.00026027234324 0.7611759058368033 
72.00026027234324 0.7569073658594493 
73.00026027234324 0.7560265158156185 
74.00026027234324 0.7436296643290233 
75.00026027234324 0.7423600883921398 
76.00026027234324 0.7370682893198919 
77.00026027234324 0.7332893107604643 
78.00026027234324 0.7291057258565272 
79.00026027234324 0.725993391135218 
80.00026027234324 0.724321612699978 
81.00026027234324 0.7390792401745929 
82.00026027234324 0.7368587150266638 
83.00026027234324 0.7432787032471326 
84.00026027234324 0.7508481814778292 
85.00026027234324 0.7496723404741035 
86.00026027234324 0.7909940175505883 
87.00026027234324 0.7584171182153555 
88.00026027234324 0.8061133779859744 
89.00026027234324 0.8037878725619111 
90.00026027234324 0.8233950576192567 
91.00026027234324 0.8199336017970638 
92.00026027234324 0.8676611905544607 
93.00026027234324 0.8635041771677995 
94.00026027234324 0.8631170931039526 
95.00026027234324 0.9745158507743444 
96.00026027234324 0.8850473267769751 
97.00026027234324 0.9862380561034412 
98.00026027234324 0.9791396860618011 
99.00026027234324 1.0533051291182698 
100.00026027234324 1.0222614065125282 
101.00026027234324 1.0760515911498298 
102.00026027234324 1.2075362430601202 
103.00026027234324 1.0352724313317274 
104.00026027234324 1.2551847085250945 
105.00026027234324 1.2262816289539054 
106.00026027234324 1.272013198097012 
107.00026027234324 1.209444644422528 
108.00026027234324 1.2809501520381321 
109.00026027234324 1.252518262838777 
110.00026027234324 1.2743315618379718 
111.00026027234324 1.5397145659836364 
112.00026027234324 1.2981395011505588 
113.00026027234324 1.3717438682518812 
114.00026027234324 1.303826216305062 
115.00026027234324 1.3917725098619331 
116.00026027234324 1.2073295218788809 
117.00026027234324 1.1922306162794944 
118.00026027234324 1.1469196919059104 
119.00026027234324 1.0072154508181745 
120.00026027234324 1.1762468880122718 
121.00026027234324 1.0723451283877574 
122.00026027234324 1.061197519906494 
123.00026027234324 1.0929502241763456 
124.00026027234324 0.9020794985937608 
125.00026027234324 1.1094354527357728 
126.00026027234324 0.9681482609211777 
127.00026027234324 0.9917659891153497 
128.00026027234324 1.079357072740887 
129.00026027234324 0.9727328365841169 
130.00026027234324 0.8665176834502171 
131.00026027234324 0.9654974847505295 
132.00026027234324 0.9524274828329304 
133.00026027234324 0.8758052761341226 
134.00026027234324 0.9475735659105861 
135.00026027234324 0.6875835346811321 
136.00026027234324 0.6787687865256768 
137.00026027234324 0.5876390660384274 
138.00026027234324 0.5449607138943663 
139.00026027234324 0.4868663470669881 
140.00026027234324 0.40471280818540406 
141.00026027234324 0.42977720386806884 
142.00026027234324 0.42313608097742633 
143.00026027234324 0.4590081242238281 
144.00026027234324 0.37997708835561395 
145.00026027234324 0.3878978221564757 
146.00026027234324 0.387954268938564 
147.00026027234324 0.3336498717035574 
148.00026027234324 0.3749163822229534 
149.00026027234324 0.32452679158448383 
150.00026027234324 0.2844349742493973 
151.00026027234324 0.27466230778362194 
152.00026027234324 0.275717691211922 
153.00026027234324 0.28415607193732195 
154.00026027234324 0.2766322010373293 
155.00026027234324 0.28685368681057793 
156.00026027234324 0.28478123721601284 
157.00026027234324 0.287361486412448 
158.00026027234324 0.28470400641025645 
159.00026027234324 0.29770884286653515 
160.00026027234324 0.2898180473372781 
161.00026027234324 0.29827349148951704 
162.00026027234324 0.31862731481481493 
163.00026027234324 0.29378630241434717 
164.00026027234324 0.3068382172729928 
165.00026027234324 0.30077578667178023 
166.00026027234324 0.30767238795748414 
167.00026027234324 0.2860626077507488 
168.00026027234324 0.2891940823836658 
169.00026027234324 0.28224054761122075 
170.00026027234324 0.2734939992877493 
171.00026027234324 0.29312497397545484 
172.00026027234324 0.28690797446855143 
173.00026027234324 0.2829531818430858 
174.00026027234324 0.2880639596573892 
175.00026027234324 0.2734252333077653 
176.00026027234324 0.29081284927679146 
177.00026027234324 0.28259474304185844 
178.00026027234324 0.28308442773394704 
179.00026027234324 0.29667206242238287 
180.00026027234324 0.2882827653590475 
181.00026027234324 0.2824756898787349 
182.00026027234324 0.29894532699612836 
183.00026027234324 0.2962275672985611 
184.00026027234324 0.29282158941485925 
185.00026027234324 0.30171157590035824 
186.00026027234324 0.28021113074366283 
187.00026027234324 0.28019221729125626 
188.00026027234324 0.2706533361640731 
189.00026027234324 0.268445151216305 
190.00026027234324 0.2625182888633209 
191.00026027234324 0.25681032443933083 
192.00026027234324 0.2608842409964207 
193.00026027234324 0.2610590273212071 
194.00026027234324 0.26528846245160326 
195.00026027234324 0.2584084629994886 
196.00026027234324 0.26065645134779764 
197.00026027234324 0.26113412639710754 
198.00026027234324 0.2562584945028855 
199.00026027234324 0.25997724998173716 
200.00026027234324 0.25500679560230854 
201.00026027234324 0.2512583063956462 
202.00026027234324 0.25000330374753466 
203.00026027234324 0.2500000000000001 
204.00026027234324 0.2500000000000001 
205.00026027234324 0.2500000000000001 
206.00026027234324 0.2500000000000001 
207.00026027234324 0.2500000000000001 
208.00026027234324 0.2500000000000001 
209.00026027234324 0.2500000000000001 
210.00026027234324 0.2500000000000001 
211.00026027234324 0.2500000000000001 
212.00026027234324 0.2500000000000001 
213.00026027234324 0.2500000000000001 
214.00026027234324 0.2500000000000001 
215.00026027234324 0.2500000000000001 
216.00026027234324 0.2500000000000001 
217.00026027234324 0.2500000000000001 
218.00026027234324 0.2500000000000001 
219.00026027234324 0.2500000000000001 
220.00026027234324 0.2500000000000001 
221.00026027234324 0.2500000000000001 
222.00026027234324 0.2500000000000001 
223.00026027234324 0.2500000000000001 
224.00026027234324 0.2500000000000001 
225.00026027234324 0.2500000000000001 
226.00026027234324 0.2500000000000001 
227.00026027234324 0.2500000000000001 
228.00026027234324 0.2500000000000001 
229.00026027234324 0.2500000000000001 
230.00026027234324 0.2500000000000001 
231.00026027234324 0.2500000000000001 
232.00026027234324 0.2500000000000001 
233.00026027234324 0.2500000000000001 
234.00026027234324 0.2500000000000001 
235.00026027234324 0.2500000000000001 
236.00026027234324 0.2500000000000001 
237.00026027234324 0.2500000000000001 
238.00026027234324 0.2500000000000001 
239.00026027234324 0.2500000000000001 
240.00026027234324 0.2500000000000001 
241.00026027234324 0.2500000000000001 
242.00026027234324 0.2500000000000001 
243.00026027234324 0.2500000000000001 
244.00026027234324 0.2500000000000001 
245.00026027234324 0.2500000000000001 
246.00026027234324 0.2500000000000001 
247.00026027234324 0.2500000000000001 
248.00026027234324 0.2500000000000001 
249.00026027234324 0.2500000000000001 
250.00026027234324 0.2500000000000001 
251.00026027234324 0.2500000000000001 
252.00026027234324 0.2500000000000001 
253.00026027234324 0.2500000000000001 
254.00026027234324 0.2500000000000001 
255.00026027234324 0.2500000000000001 
256.0002602723432 0.2500000000000001 
257.0002602723432 0.2500000000000001 
258.0002602723432 0.2500000000000001 
259.0002602723432 0.2500000000000001 
260.0002602723432 0.2500000000000001 
261.0002602723432 0.2500000000000001 
262.0002602723432 0.2500000000000001 
263.0002602723432 0.2500000000000001 
264.0002602723432 0.2500000000000001 
265.0002602723432 0.2500000000000001 
266.0002602723432 0.2500000000000001 
267.0002602723432 0.2500000000000001 
268.0002602723432 0.2500000000000001 
269.0002602723432 0.2500000000000001 
270.0002602723432 0.2500000000000001 
271.0002602723432 0.2500000000000001 
272.0002602723432 0.2500000000000001 
273.0002602723432 0.2500000000000001 
274.0002602723432 0.2500000000000001 
275.0002602723432 0.2500000000000001 
276.0002602723432 0.2500000000000001 
277.0002602723432 0.2500000000000001 
278.0002602723432 0.2500000000000001 
279.0002602723432 0.2500000000000001 
280.0002602723432 0.2500000000000001 
281.0002602723432 0.2500000000000001 
282.0002602723432 0.2500000000000001 
283.0002602723432 0.2500000000000001 
284.0002602723432 0.2500000000000001 
285.0002602723432 0.2500000000000001 
286.0002602723432 0.2500000000000001 
287.0002602723432 0.2500000000000001 
288.0002602723432 0.2500000000000001 
289.0002602723432 0.2500000000000001 
290.0002602723432 0.2500000000000001 
291.0002602723432 0.2500000000000001 
292.0002602723432 0.2500000000000001 
#####################################################################
# End of data export. Simulation finished at: 2017-05-24T04:33+0000 #
#####################################################################
