#####################################################################
# Alchemist log file - simulation started at: 2017-05-23T16:30+0000 #
#####################################################################
# random = 12.0, targets = 10.0, density = 0.3174802103936399, gridShift = 1.0, perturbation = 0.5, connfactor = 0.25
#
# The columns have the following meaning: 
# time se[Mean] 
0.0 NaN 
1.0005590746559656 NaN 
2.000559074655966 1.0 
3.000559074655966 1.0 
4.000559074655966 1.0 
5.000559074655966 1.0 
6.000559074655966 1.0 
7.000559074655966 0.985 
8.000559074655966 0.9516071428571429 
9.000559074655966 0.8907142857142857 
10.000559074655966 0.8082142857142858 
11.000559074655966 0.8510714285714286 
12.000559074655966 0.6608928571428572 
13.000559074655966 0.6605357142857143 
14.000559074655966 0.5892857142857143 
15.000559074655966 0.5421428571428571 
16.000559074655968 0.5623214285714286 
17.000559074655968 0.5025 
18.000559074655968 0.4732142857142857 
19.000559074655968 0.49874999999999997 
20.000559074655968 0.4541071428571428 
21.000559074655968 0.47232142857142856 
22.000559074655968 0.43607142857142855 
23.000559074655968 0.46053571428571427 
24.000559074655968 0.4489285714285714 
25.000559074655968 0.46017857142857144 
26.000559074655968 0.46678571428571425 
27.000559074655968 0.4760714285714286 
28.000559074655968 0.4830357142857143 
29.000559074655968 0.4853571428571428 
30.000559074655968 0.4876785714285714 
31.000559074655968 0.49 
32.00055907465597 0.49 
33.00055907465597 0.49 
34.00055907465597 0.49 
35.00055907465597 0.49 
36.00055907465597 0.49 
37.00055907465597 0.49 
38.00055907465597 0.49 
39.00055907465597 0.49 
40.00055907465597 0.49 
#####################################################################
# End of data export. Simulation finished at: 2017-05-23T16:30+0000 #
#####################################################################
