#####################################################################
# Alchemist log file - simulation started at: 2017-05-22T22:01+0000 #
#####################################################################
# random = 10.0, targets = 1.0, density = 7.099073319511142, gridShift = 1.0, perturbation = 0.0, connfactor = 0.75
#
# The columns have the following meaning: 
# time se[Mean] 
0.0 NaN 
1.0007035023519422 NaN 
2.000703502351942 1.0 
3.000703502351942 1.0 
4.000703502351942 1.0 
5.000703502351942 1.0 
6.000703502351942 1.0 
7.000703502351942 1.0 
8.000703502351943 0.9990384615384615 
9.000703502351943 0.9942307692307693 
10.000703502351943 0.9942307692307693 
11.000703502351943 0.9951923076923077 
12.000703502351943 0.9928774928774928 
13.000703502351943 0.9899572649572649 
14.000703502351943 0.9910968660968662 
15.000703502351943 0.988568376068376 
16.000703502351943 0.988497150997151 
17.000703502351943 0.9917735042735043 
18.000703502351943 0.9839387464387462 
19.000703502351943 0.9843304843304843 
20.000703502351943 0.978454415954416 
21.000703502351943 0.9757122507122505 
22.000703502351943 0.975320512820513 
23.000703502351943 0.9757122507122505 
24.000703502351943 0.9761039886039884 
25.000703502351943 0.9796296296296295 
26.000703502351943 0.9827635327635329 
27.000703502351943 0.9847222222222224 
28.000703502351943 0.9886396011396013 
29.000703502351943 0.9909900284900284 
30.000703502351943 0.9952991452991454 
31.000703502351943 0.9968660968660968 
32.00070350235194 0.9992165242165242 
33.00070350235194 1.0 
34.00070350235194 1.0 
35.00070350235194 1.0 
36.00070350235194 1.0 
37.00070350235194 1.0 
38.00070350235194 1.0 
39.00070350235194 1.0 
40.00070350235194 1.0 
41.00070350235194 1.0 
42.00070350235194 1.0 
43.00070350235194 1.0 
44.00070350235194 1.0 
45.00070350235194 1.0 
46.00070350235194 1.0 
47.00070350235194 1.0 
48.00070350235194 1.0 
49.00070350235194 1.0 
50.00070350235194 1.0 
51.00070350235194 1.0 
52.00070350235194 1.0 
53.00070350235194 1.0 
54.00070350235194 1.0 
55.00070350235194 1.0 
56.00070350235194 1.0 
57.00070350235194 1.0 
58.00070350235194 1.0 
59.00070350235194 1.0 
60.00070350235194 1.0 
61.00070350235194 1.0 
62.00070350235194 1.0 
63.00070350235194 1.0 
64.00070350235194 1.0 
65.00070350235194 1.0056980056980058 
66.00070350235194 1.0275284900284896 
67.00070350235194 1.0170227920227919 
68.00070350235194 1.0245726495726497 
69.00070350235194 1.014102564102564 
70.00070350235194 1.01488603988604 
71.00070350235194 0.9751424501424506 
72.00070350235194 1.0166310541310541 
73.00070350235194 1.0073361823361824 
74.00070350235194 0.990811965811966 
75.00070350235194 0.9763176638176639 
76.00070350235194 0.9836894586894586 
77.00070350235194 0.9551282051282054 
78.00070350235194 0.9585113960113963 
79.00070350235194 1.043554131054131 
80.00070350235194 1.105626780626782 
81.00070350235194 1.5775284900284858 
82.00070350235194 1.4385327635327607 
83.00070350235194 1.6316951566951547 
84.00070350235194 1.4375000000000007 
85.00070350235194 1.5479344729344717 
86.00070350235194 1.017022792022792 
87.00070350235194 1.7107193732193717 
88.00070350235194 1.7367877492877435 
89.00070350235194 1.5615740740740687 
90.00070350235194 1.8459401709401617 
91.00070350235194 2.7629629629629484 
92.00070350235194 2.1273504273504233 
93.00070350235194 2.619159544159551 
94.00070350235194 2.655982905982905 
95.00070350235194 2.208440170940167 
96.00070350235194 1.566168091168089 
97.00070350235194 3.213746438746456 
98.00070350235194 2.669693732193724 
99.00070350235194 2.7335826210826157 
100.00070350235194 3.047792022792029 
101.00070350235194 3.021260683760675 
102.00070350235194 1.978418803418811 
103.00070350235194 2.333653846153855 
104.00070350235194 2.233867521367516 
105.00070350235194 1.6835470085470081 
106.00070350235194 2.878596866096875 
107.00070350235194 2.794017094017085 
108.00070350235194 1.8470085470085433 
109.00070350235194 2.1597934472934432 
110.00070350235194 2.5230769230769186 
111.00070350235194 2.3414529914529942 
112.00070350235194 2.005484330484332 
113.00070350235194 2.530056980056979 
114.00070350235194 1.3014601139601145 
115.00070350235194 2.24935897435897 
116.00070350235194 1.507443019943017 
117.00070350235194 1.7199074074074105 
118.00070350235194 1.896688034188025 
119.00070350235194 1.3569088319088318 
120.00070350235194 1.90544871794871 
121.00070350235194 1.1126780626780588 
122.00070350235194 0.4935185185185174 
123.00070350235194 1.1749287749287691 
124.00070350235194 1.0797008547008644 
125.00070350235194 0.9685897435897413 
126.00070350235194 0.598290598290603 
127.00070350235194 1.0741452991453069 
128.00070350235194 0.25017806267806414 
129.00070350235194 0.839494301994301 
130.00070350235194 0.9504629629629627 
131.00070350235194 0.3715811965812014 
132.00070350235194 0.49522792022791223 
133.00070350235194 0.5879985754985667 
134.00070350235194 0.34494301994301574 
135.00070350235194 0.0022792022792023033 
136.00070350235194 0.23365384615384424 
137.00070350235194 0.23593304843304524 
138.00070350235194 0.0022792022792023033 
139.00070350235194 0.23365384615384427 
140.00070350235194 1.232595164407831E-32 
141.00070350235194 0.23365384615384427 
142.00070350235194 1.232595164407831E-32 
143.00070350235194 0.2336538461538443 
144.00070350235194 0.2336538461538443 
145.00070350235194 1.232595164407831E-32 
146.00070350235194 1.232595164407831E-32 
147.00070350235194 1.232595164407831E-32 
148.00070350235194 1.232595164407831E-32 
149.00070350235194 1.232595164407831E-32 
150.00070350235194 1.232595164407831E-32 
151.00070350235194 1.232595164407831E-32 
152.00070350235194 1.232595164407831E-32 
153.00070350235194 1.232595164407831E-32 
154.00070350235194 1.232595164407831E-32 
155.00070350235194 1.232595164407831E-32 
156.00070350235194 1.232595164407831E-32 
157.00070350235194 1.232595164407831E-32 
158.00070350235194 1.232595164407831E-32 
159.00070350235194 1.232595164407831E-32 
160.00070350235194 1.232595164407831E-32 
161.00070350235194 1.232595164407831E-32 
162.00070350235194 1.232595164407831E-32 
163.00070350235194 1.232595164407831E-32 
164.00070350235194 1.232595164407831E-32 
165.00070350235194 1.232595164407831E-32 
166.00070350235194 1.232595164407831E-32 
167.00070350235194 1.232595164407831E-32 
168.00070350235194 1.232595164407831E-32 
169.00070350235194 1.232595164407831E-32 
170.00070350235194 1.232595164407831E-32 
171.00070350235194 1.232595164407831E-32 
172.00070350235194 1.232595164407831E-32 
173.00070350235194 1.232595164407831E-32 
174.00070350235194 1.232595164407831E-32 
175.00070350235194 1.232595164407831E-32 
176.00070350235194 1.232595164407831E-32 
177.00070350235194 1.232595164407831E-32 
178.00070350235194 1.232595164407831E-32 
179.00070350235194 1.232595164407831E-32 
180.00070350235194 1.232595164407831E-32 
181.00070350235194 1.232595164407831E-32 
182.00070350235194 1.232595164407831E-32 
183.00070350235194 1.232595164407831E-32 
184.00070350235194 1.232595164407831E-32 
185.00070350235194 1.232595164407831E-32 
186.00070350235194 1.232595164407831E-32 
187.00070350235194 1.232595164407831E-32 
188.00070350235194 1.232595164407831E-32 
189.00070350235194 1.232595164407831E-32 
190.00070350235194 1.232595164407831E-32 
191.00070350235194 1.232595164407831E-32 
192.00070350235194 1.232595164407831E-32 
193.00070350235194 1.232595164407831E-32 
194.00070350235194 1.232595164407831E-32 
195.00070350235194 1.232595164407831E-32 
196.00070350235194 1.232595164407831E-32 
197.00070350235194 1.232595164407831E-32 
198.00070350235194 1.232595164407831E-32 
199.00070350235194 1.232595164407831E-32 
200.00070350235194 1.232595164407831E-32 
201.00070350235194 1.232595164407831E-32 
202.00070350235194 1.232595164407831E-32 
#####################################################################
# End of data export. Simulation finished at: 2017-05-22T22:02+0000 #
#####################################################################
