#####################################################################
# Alchemist log file - simulation started at: 2017-05-23T00:31+0000 #
#####################################################################
# random = 10.0, targets = 10.0, density = 0.4483936332993466, gridShift = 1.0, perturbation = 0.5, connfactor = 0.5
#
# The columns have the following meaning: 
# time se[Mean] 
0.0 NaN 
1.0036005446229952 NaN 
2.003600544622995 0.9973611111111111 
3.003600544622995 0.9986458333333333 
4.003600544622995 0.9880902777777778 
5.003600544622995 0.9722839506172839 
6.003600544622995 0.946358024691358 
7.003600544622995 0.9196643518518518 
8.003600544622994 0.9116550925925926 
9.003600544622994 0.8933179012345679 
10.003600544622994 0.894074074074074 
11.003600544622994 0.8886728395061728 
12.003600544622994 0.904194637345679 
13.003600544622994 0.9045871913580247 
14.003600544622994 0.9041782407407407 
15.003600544622994 0.8961902006172839 
16.003600544622994 0.9110503472222222 
17.003600544622994 0.8587712191358025 
18.003600544622994 0.8952681327160494 
19.003600544622994 0.8521190200617283 
20.003600544622994 0.8479610339506173 
21.003600544622994 0.846784336419753 
22.003600544622994 0.7929774305555555 
23.003600544622994 0.8059452160493827 
24.003600544622994 0.7225578703703703 
25.003600544622994 0.730883487654321 
26.003600544622994 0.6446402391975309 
27.003600544622994 0.8419000771604938 
28.003600544622994 0.6320495756172839 
29.003600544622994 0.8072270447530864 
30.003600544622994 0.8150704089506172 
31.003600544622994 0.733611111111111 
32.003600544623 0.8417843364197529 
33.003600544623 0.5264371141975308 
34.003600544623 0.779891010802469 
35.003600544623 0.7299903549382715 
36.003600544623 0.7565586419753085 
37.003600544623 0.7093634259259258 
38.003600544623 0.5131452546296296 
39.003600544623 0.35621334876543204 
40.003600544623 0.36101176697530857 
41.003600544623 0.24412519290123458 
42.003600544623 0.31160493827160496 
43.003600544623 0.24470293209876542 
44.003600544623 0.2419135802469136 
45.003600544623 0.2440625 
46.003600544623 0.2401388888888889 
47.003600544623 0.2459375 
48.003600544623 0.24684027777777778 
49.003600544623 0.24822916666666667 
50.003600544623 0.25 
51.003600544623 0.24875 
52.003600544623 0.25 
53.003600544623 0.25 
54.003600544623 0.25 
55.003600544623 0.25 
56.003600544623 0.25 
57.003600544623 0.25 
58.003600544623 0.25 
59.003600544623 0.25 
60.003600544623 0.25 
61.003600544623 0.25 
62.003600544623 0.25 
63.003600544623 0.25 
#####################################################################
# End of data export. Simulation finished at: 2017-05-23T00:31+0000 #
#####################################################################
