#####################################################################
# Alchemist log file - simulation started at: 2017-05-25T19:36+0000 #
#####################################################################
# random = 8.0, targets = 100.0, density = 0.07978946395100113, gridShift = 0.0, perturbation = 0.0, connfactor = 2.0
#
# The columns have the following meaning: 
# time se[Mean] 
0.0 NaN 
1.0447112257851685 NaN 
2.0447112257851687 1.284175 
3.0447112257851687 1.3774896267361112 
4.044711225785169 3.3819342447916676 
5.044711225785169 11.828788020833336 
6.044711225785169 6.208339322916668 
7.044711225785169 9.639537630208334 
8.044711225785168 3.8297440538194447 
9.044711225785168 8.907266796875 
10.044711225785168 1.3342515190972222 
11.044711225785168 0.19051931423611113 
12.044711225785168 0.33548151041666674 
13.044711225785168 0.011150347222222228 
14.044711225785168 0.010000000000000002 
15.044711225785168 1.5950520833333233E-4 
16.044711225785168 0.0 
17.044711225785168 0.0 
18.044711225785168 0.0 
19.044711225785168 0.0 
20.044711225785168 0.0 
21.044711225785168 0.0 
22.044711225785168 0.0 
23.044711225785168 0.0 
#####################################################################
# End of data export. Simulation finished at: 2017-05-25T19:36+0000 #
#####################################################################
