#####################################################################
# Alchemist log file - simulation started at: 2017-05-25T21:06+0000 #
#####################################################################
# random = 8.0, targets = 100.0, density = 5.0264212595847235, gridShift = 1.0, perturbation = 0.5, connfactor = 1.0
#
# The columns have the following meaning: 
# time se[Mean] 
0.0 NaN 
1.0009686244946094 NaN 
2.000968624494609 NaN 
3.000968624494609 1.0077803783022532 
4.000968624494609 1.010586964597902 
5.000968624494609 1.009323581973582 
6.000968624494609 1.0054037648115772 
7.000968624494609 1.0055847877816628 
8.00096862449461 1.00364987252331 
9.00096862449461 1.003978328962704 
10.00096862449461 1.0050147472319346 
11.00096862449461 1.0033537223193474 
12.00096862449461 1.0081562815656566 
13.00096862449461 1.0071006483100233 
14.00096862449461 1.00911389253108 
15.00096862449461 1.0180791168900543 
16.00096862449461 1.0178411761849262 
17.00096862449461 1.0226679450757576 
18.00096862449461 1.0310443643162392 
19.00096862449461 1.0318216406857033 
20.00096862449461 1.0343425832847708 
21.00096862449461 1.035052258158508 
22.00096862449461 1.0363321314102563 
23.00096862449461 1.0385625060703185 
24.00096862449461 1.045017306478244 
25.00096862449461 1.0446903287684537 
26.00096862449461 1.0576153931138306 
27.00096862449461 1.0642048089063714 
28.00096862449461 1.0627706803613053 
29.00096862449461 1.067718286227661 
30.00096862449461 1.0645107189685314 
31.00096862449461 1.0664485115578866 
32.00096862449461 1.0625665950369074 
33.00096862449461 1.0644414991258742 
34.00096862449461 1.0688880062645687 
35.00096862449461 1.0761849346833723 
36.00096862449461 1.0669156262140636 
37.00096862449461 1.0674501966783216 
38.00096862449461 1.0610787793803418 
39.00096862449461 1.0592168924825176 
40.00096862449461 1.0508345777486403 
41.00096862449461 1.0443594150641025 
42.00096862449461 1.0397671231546233 
43.00096862449461 1.0268355247183374 
44.00096862449461 1.0196317356254858 
45.00096862449461 1.0065491210178712 
46.00096862449461 0.9967608597999223 
47.00096862449461 0.9871925201534578 
48.00096862449461 0.9830678868006995 
49.00096862449461 0.9724580116064492 
50.00096862449461 0.9613009530400157 
51.00096862449461 0.9587635368104119 
52.00096862449461 0.9479962194055944 
53.00096862449461 0.9363962788947165 
54.00096862449461 0.9212915149087025 
55.00096862449461 0.9184970486111111 
56.00096862449461 0.9147134530400155 
57.00096862449461 0.901995036907537 
58.00096862449461 0.8934262432012433 
59.00096862449461 0.8926839792152294 
60.00096862449461 0.8838171498640249 
61.00096862449461 0.8721742424242426 
62.00096862449461 0.8748900507478633 
63.00096862449461 0.8629367715617717 
64.00096862449462 0.8575995726495728 
65.00096862449462 0.8473954351204352 
66.00096862449462 0.8423976495726497 
67.00096862449462 0.8327811431623933 
68.00096862449462 0.8307482905982907 
69.00096862449462 0.8227210033022534 
70.00096862449462 0.8196853681041182 
71.00096862449462 0.8275740542443669 
72.00096862449462 0.8305332483488735 
73.00096862449462 0.8233934792637919 
74.00096862449462 0.8322433080808083 
75.00096862449462 0.8398575393356645 
76.00096862449462 0.8413039857711734 
77.00096862449462 0.8383402644230771 
78.00096862449462 0.8400386424339551 
79.00096862449462 0.8477963784479411 
80.00096862449462 0.8473714780011656 
81.00096862449462 0.8466763597513599 
82.00096862449462 0.8506890467171718 
83.00096862449462 0.8628086672008548 
84.00096862449462 0.8579284989316242 
85.00096862449462 0.8554856036324788 
86.00096862449462 0.8653953440656568 
87.00096862449462 0.8572509554681431 
88.00096862449462 0.8611855235042737 
89.00096862449462 0.8589036349067601 
90.00096862449462 0.8611139787296039 
91.00096862449462 0.8530888621794873 
92.00096862449462 0.8557843470765347 
93.00096862449462 0.8535361402486404 
94.00096862449462 0.8563028481934734 
95.00096862449462 0.8471054207944835 
96.00096862449462 0.845592591783217 
97.00096862449462 0.8487770068473195 
98.00096862449462 0.8451058639277392 
99.00096862449462 0.8492818400349653 
100.00096862449462 0.8425369560994563 
101.00096862449462 0.845401643842269 
102.00096862449462 0.8402796401515155 
103.00096862449462 0.8259285135003888 
104.00096862449462 0.8194726580710958 
105.00096862449462 0.8149288097319349 
106.00096862449462 0.8079237932206684 
107.00096862449462 0.7969035341394718 
108.00096862449462 0.7990718288655791 
109.00096862449462 0.7921718956390834 
110.00096862449462 0.7836569432303809 
111.00096862449462 0.7855706463675216 
112.00096862449462 0.7840502185314688 
113.00096862449462 0.7665973229895107 
114.00096862449462 0.7589190535159287 
115.00096862449462 0.7575361268939396 
116.00096862449462 0.7541555082070709 
117.00096862449462 0.7482533544580422 
118.00096862449462 0.7437736827408705 
119.00096862449462 0.7459970425407928 
120.00096862449462 0.739129646221834 
121.00096862449462 0.7398867897727275 
122.00096862449462 0.7438321241258744 
123.00096862449462 0.7360725415209793 
124.00096862449462 0.744509163752914 
125.00096862449462 0.7394567963286717 
126.00096862449462 0.7398424036033414 
127.00096862449462 0.7388624283702412 
128.00096862449462 0.741577425699301 
129.00096862449462 0.7404780436577314 
130.00096862449462 0.7411539748446001 
131.00096862449462 0.7442257430069933 
132.00096862449462 0.7378918293512047 
133.00096862449462 0.7455562257187259 
134.00096862449462 0.7484834243881122 
135.00096862449462 0.7509512249902877 
136.00096862449462 0.7524763306138309 
137.00096862449462 0.7514949798465426 
138.00096862449462 0.7569464221542349 
139.00096862449462 0.7545688301282054 
140.00096862449462 0.758501240773116 
141.00096862449462 0.7572062572843825 
142.00096862449462 0.7540273164335667 
143.00096862449462 0.7581782014860142 
144.00096862449462 0.7576831815753693 
145.00096862449462 0.7574271391802644 
146.00096862449462 0.757512161276224 
147.00096862449462 0.7575240675990679 
148.00096862449462 0.7573317259129762 
149.00096862449462 0.7571862555846933 
150.00096862449462 0.7570554001554004 
151.00096862449462 0.7570368164821292 
152.00096862449462 0.7572595546814299 
153.00096862449462 0.7570822127525255 
154.00096862449462 0.7569051112082364 
155.00096862449462 0.7568696241258743 
156.00096862449462 0.7568595182595185 
157.00096862449462 0.7569000000000002 
158.00096862449462 0.7569000000000002 
159.00096862449462 0.7569000000000002 
160.00096862449462 0.7569000000000002 
161.00096862449462 0.7569000000000002 
162.00096862449462 0.7569000000000002 
163.00096862449462 0.7569000000000002 
164.00096862449462 0.7569000000000002 
165.00096862449462 0.7569000000000002 
166.00096862449462 0.7569000000000002 
167.00096862449462 0.7569000000000002 
168.00096862449462 0.7569000000000002 
169.00096862449462 0.7569000000000002 
170.00096862449462 0.7569000000000002 
171.00096862449462 0.7569000000000002 
172.00096862449462 0.7569000000000002 
173.00096862449462 0.7569000000000002 
174.00096862449462 0.7569000000000002 
175.00096862449462 0.7569000000000002 
176.00096862449462 0.7569000000000002 
177.00096862449462 0.7569000000000002 
178.00096862449462 0.7569000000000002 
179.00096862449462 0.7569000000000002 
180.00096862449462 0.7569000000000002 
181.00096862449462 0.7569000000000002 
182.00096862449462 0.7569000000000002 
183.00096862449462 0.7569000000000002 
184.00096862449462 0.7569000000000002 
185.00096862449462 0.7569000000000002 
186.00096862449462 0.7569000000000002 
187.00096862449462 0.7569000000000002 
188.00096862449462 0.7569000000000002 
189.00096862449462 0.7569000000000002 
190.00096862449462 0.7569000000000002 
191.00096862449462 0.7569000000000002 
192.00096862449462 0.7569000000000002 
193.00096862449462 0.7569000000000002 
194.00096862449462 0.7569000000000002 
195.00096862449462 0.7569000000000002 
196.00096862449462 0.7569000000000002 
197.00096862449462 0.7569000000000002 
198.00096862449462 0.7569000000000002 
199.00096862449462 0.7569000000000002 
200.00096862449462 0.7569000000000002 
201.00096862449462 0.7569000000000002 
202.00096862449462 0.7569000000000002 
203.00096862449462 0.7569000000000002 
204.00096862449462 0.7569000000000002 
#####################################################################
# End of data export. Simulation finished at: 2017-05-25T21:18+0000 #
#####################################################################
