#####################################################################
# Alchemist log file - simulation started at: 2017-05-25T07:33+0000 #
#####################################################################
# random = 17.0, targets = 10.0, density = 1.7841466528270753, gridShift = 1.0, perturbation = 0.5, connfactor = 2.0
#
# The columns have the following meaning: 
# time se[Mean] 
0.0 NaN 
1.0003034458253823 NaN 
2.0003034458253826 1.1444977678571429 
3.0003034458253826 1.2033110119047619 
4.0003034458253826 1.2575731646825397 
5.0003034458253826 1.2801016865079364 
6.0003034458253826 1.3300545634920635 
7.0003034458253826 1.3214248511904763 
8.000303445825383 1.600970982142857 
9.000303445825383 1.535970982142857 
10.000303445825383 1.7745200892857145 
11.000303445825383 1.641789434523809 
12.000303445825383 1.7571986607142862 
13.000303445825383 1.6265004960317457 
14.000303445825383 1.6135181051587302 
15.000303445825383 1.5457601686507936 
16.00030344582538 1.5287375992063494 
17.00030344582538 1.4341666666666666 
18.00030344582538 1.3778658234126984 
19.00030344582538 1.3680865575396826 
20.00030344582538 1.4125483630952382 
21.00030344582538 1.444153025793651 
22.00030344582538 1.6219060019841274 
23.00030344582538 2.053916170634922 
24.00030344582538 2.5381026785714296 
25.00030344582538 3.663442460317458 
26.00030344582538 3.367061011904764 
27.00030344582538 3.6886470734126973 
28.00030344582538 4.327735615079365 
29.00030344582538 5.443415178571431 
30.00030344582538 5.704873511904764 
31.00030344582538 6.344078621031751 
32.00030344582538 6.392067212301588 
33.00030344582538 7.776469494047622 
34.00030344582538 7.7049689980158735 
35.00030344582538 7.221547619047621 
36.00030344582538 7.68089285714286 
37.00030344582538 7.678495783730161 
38.00030344582538 6.724564732142857 
39.00030344582538 6.135972222222223 
40.00030344582538 7.327772817460319 
41.00030344582538 6.7236470734127005 
42.00030344582538 5.731816716269843 
43.00030344582538 6.11986731150794 
44.00030344582538 6.044495287698413 
45.00030344582538 5.888401537698412 
46.00030344582538 5.896671626984132 
47.00030344582538 5.9073970734126995 
48.00030344582538 5.506042906746031 
49.00030344582538 5.268678075396828 
50.00030344582538 4.564512648809525 
51.00030344582538 4.242693452380953 
52.00030344582538 4.307506200396826 
53.00030344582538 4.388183283730159 
54.00030344582538 4.543368055555556 
55.00030344582538 4.728079117063493 
56.00030344582538 4.942495039682541 
57.00030344582538 5.407615327380953 
58.00030344582538 5.956037946428573 
59.00030344582538 6.311623263888889 
60.00030344582538 7.290373263888891 
61.00030344582538 7.135127728174604 
62.00030344582538 7.446646825396827 
63.00030344582538 7.781268601190481 
64.00030344582538 8.32051835317461 
65.00030344582538 8.240089285714287 
66.00030344582538 8.4199751984127 
67.00030344582538 7.725497271825399 
68.00030344582538 8.711014384920636 
69.00030344582538 8.46090525793651 
70.00030344582538 7.539889632936512 
71.00030344582538 7.76892981150794 
72.00030344582538 7.699926835317462 
73.00030344582538 7.242658730158731 
74.00030344582538 6.902281746031748 
75.00030344582538 7.05082465277778 
76.00030344582538 6.131707589285713 
77.00030344582538 6.031289682539681 
78.00030344582538 5.236615823412699 
79.00030344582538 4.749662698412698 
80.00030344582538 4.784455605158731 
81.00030344582538 4.794582093253968 
82.00030344582538 4.8166021825396825 
83.00030344582538 4.834477926587302 
84.00030344582538 4.839021577380953 
85.00030344582538 4.84 
86.00030344582538 4.84 
87.00030344582538 4.84 
88.00030344582538 4.84 
89.00030344582538 4.84 
90.00030344582538 4.84 
91.00030344582538 4.84 
92.00030344582538 4.84 
93.00030344582538 4.84 
94.00030344582538 4.84 
95.00030344582538 4.84 
96.00030344582538 4.84 
97.00030344582538 4.84 
98.00030344582538 4.84 
99.00030344582538 4.84 
100.00030344582538 4.84 
101.00030344582538 4.84 
102.00030344582538 4.84 
103.00030344582538 4.84 
104.00030344582538 4.84 
105.00030344582538 4.84 
106.00030344582538 4.84 
107.00030344582538 4.84 
108.00030344582538 4.84 
109.00030344582538 4.84 
110.00030344582538 4.84 
111.00030344582538 4.84 
112.00030344582538 4.84 
#####################################################################
# End of data export. Simulation finished at: 2017-05-25T07:34+0000 #
#####################################################################
