#####################################################################
# Alchemist log file - simulation started at: 2017-05-24T08:13+0000 #
#####################################################################
# random = 14.0, targets = 10.0, density = 1.7841466528270753, gridShift = 1.0, perturbation = 0.5, connfactor = 0.25
#
# The columns have the following meaning: 
# time se[Mean] 
0.0 NaN 
1.00680225313191 NaN 
2.00680225313191 1.0 
3.00680225313191 0.9991517857142858 
4.0068022531319105 0.9941517857142858 
5.0068022531319105 0.9907589285714286 
6.0068022531319105 0.9765178571428571 
7.0068022531319105 0.9645535714285715 
8.00680225313191 0.9561607142857144 
9.00680225313191 0.9381696428571429 
10.00680225313191 0.9218303571428572 
11.00680225313191 0.9044642857142857 
12.00680225313191 0.8888392857142857 
13.00680225313191 0.8522321428571429 
14.00680225313191 0.8419642857142857 
15.00680225313191 0.7950446428571428 
16.00680225313191 0.7670089285714287 
17.00680225313191 0.7222767857142857 
18.00680225313191 0.6821428571428572 
19.00680225313191 0.6467857142857144 
20.00680225313191 0.6315624999999999 
21.00680225313191 0.611294642857143 
22.00680225313191 0.6111160714285715 
23.00680225313191 0.6109375 
24.00680225313191 0.5938392857142858 
25.00680225313191 0.5992410714285714 
26.00680225313191 0.5812053571428571 
27.00680225313191 0.5842857142857144 
28.00680225313191 0.5842410714285715 
29.00680225313191 0.5683482142857144 
30.00680225313191 0.5917410714285714 
31.00680225313191 0.5640624999999999 
32.00680225313191 0.5702232142857143 
33.00680225313191 0.5707142857142857 
34.00680225313191 0.5686160714285714 
35.00680225313191 0.5844196428571429 
36.00680225313191 0.5471874999999999 
37.00680225313191 0.5595089285714286 
38.00680225313191 0.5502232142857143 
39.00680225313191 0.5336607142857143 
40.00680225313191 0.5355803571428571 
41.00680225313191 0.5155357142857143 
42.00680225313191 0.5170982142857143 
43.00680225313191 0.5208928571428572 
44.00680225313191 0.5201785714285714 
45.00680225313191 0.6098214285714285 
46.00680225313191 0.6655357142857143 
47.00680225313191 0.8720535714285712 
48.00680225313191 0.8526785714285714 
49.00680225313191 0.9925446428571421 
50.00680225313191 0.8991517857142856 
51.00680225313191 0.933482142857143 
52.00680225313191 0.9765178571428574 
53.00680225313191 0.8950000000000001 
54.00680225313191 1.0011160714285718 
55.00680225313191 0.9928125000000001 
56.00680225313191 0.9749553571428572 
57.00680225313191 0.9820982142857143 
58.00680225313191 0.9829910714285711 
59.00680225313191 1.2509375000000003 
60.00680225313191 1.1762946428571428 
61.00680225313191 1.1118750000000002 
62.00680225313191 1.0805803571428572 
63.00680225313191 0.8510714285714286 
64.00680225313191 0.8587499999999995 
65.00680225313191 0.5714732142857148 
66.00680225313191 0.4846428571428569 
67.00680225313191 0.2810714285714284 
68.00680225313191 0.2775446428571425 
69.00680225313191 0.18821428571428542 
70.00680225313191 0.14254464285714288 
71.00680225313191 0.12370535714285717 
72.00680225313191 0.11544642857142859 
73.00680225313191 0.10625 
74.00680225313191 0.1338392857142857 
75.00680225313191 0.12683035714285718 
76.00680225313191 0.1292857142857143 
77.00680225313191 0.13174107142857144 
78.00680225313191 0.11700892857142857 
79.00680225313191 0.12437500000000003 
80.00680225313191 0.11209821428571426 
81.00680225313191 0.11209821428571426 
82.00680225313191 0.09491071428571426 
83.00680225313191 0.0998214285714286 
84.00680225313191 0.09491071428571426 
85.00680225313191 0.09245535714285713 
86.00680225313191 0.09 
87.00680225313191 0.09 
88.00680225313191 0.09 
89.00680225313191 0.09 
90.00680225313191 0.09 
91.00680225313191 0.09 
92.00680225313191 0.09 
93.00680225313191 0.09 
94.00680225313191 0.09 
95.00680225313191 0.09 
96.00680225313191 0.09 
97.00680225313191 0.09 
98.00680225313191 0.09 
99.00680225313191 0.09 
100.00680225313191 0.09 
101.00680225313191 0.09 
102.00680225313191 0.09 
103.00680225313191 0.09 
104.00680225313191 0.09 
105.00680225313191 0.09 
106.00680225313191 0.09 
107.00680225313191 0.09 
108.00680225313191 0.09 
109.00680225313191 0.09 
110.00680225313191 0.09 
111.00680225313191 0.09 
112.00680225313191 0.09 
#####################################################################
# End of data export. Simulation finished at: 2017-05-24T08:13+0000 #
#####################################################################
