#####################################################################
# Alchemist log file - simulation started at: 2017-05-24T14:49+0000 #
#####################################################################
# random = 15.0, targets = 3.1622776601683795, density = 5.0264212595847235, gridShift = 1.0, perturbation = 0.5, connfactor = 0.75
#
# The columns have the following meaning: 
# time se[Mean] 
0.0 NaN 
1.0003675412420963 NaN 
2.0003675412420963 1.0 
3.0003675412420963 1.0 
4.000367541242096 0.9983417185352554 
5.000367541242096 0.9936142873690812 
6.000367541242096 0.9842177000950078 
7.000367541242096 0.9754902529126599 
8.000367541242095 0.9607574155958375 
9.000367541242095 0.946739726590932 
10.000367541242095 0.9327051668949725 
11.000367541242095 0.9225131802706348 
12.000367541242095 0.9135960833792834 
13.000367541242095 0.907110179783649 
14.000367541242095 0.9072543328116803 
15.000367541242095 0.9071193773864193 
16.000367541242095 0.9094171498745333 
17.000367541242095 0.9075088974856339 
18.000367541242095 0.9104333826198135 
19.000367541242095 0.9107089102985728 
20.000367541242095 0.9145197881449632 
21.000367541242095 0.9220541312503283 
22.000367541242095 0.9272176022751284 
23.000367541242095 0.9379662711883922 
24.000367541242095 0.9384754106394707 
25.000367541242095 0.9464314806085031 
26.000367541242095 0.9482932132379917 
27.000367541242095 0.9525258179480465 
28.000367541242095 0.9571801495217672 
29.000367541242095 0.9636962137249769 
30.000367541242095 0.9655579463544648 
31.000367541242095 0.9748666095019068 
32.0003675412421 0.979520941075628 
33.0003675412421 0.9869678715935815 
34.0003675412421 0.9903421980421268 
35.0003675412421 0.9948799794992975 
36.0003675412421 0.9965346902926799 
37.0003675412421 0.9949582146902806 
38.0003675412421 0.9995277351530881 
39.0003675412421 1.0133691418231507 
40.0003675412421 1.0301207475742211 
41.0003675412421 1.0393834496495995 
42.0003675412421 1.0796613857103787 
43.0003675412421 1.0155240605149927 
44.0003675412421 1.141343687433335 
45.0003675412421 1.1182669024330723 
46.0003675412421 1.1411829095580606 
47.0003675412421 1.1523722996405594 
48.0003675412421 1.1997424644641979 
49.0003675412421 1.072274396564314 
50.0003675412421 1.1376995245789268 
51.0003675412421 1.1846050572312554 
52.0003675412421 1.0301924378642706 
53.0003675412421 1.1036550413059147 
54.0003675412421 1.0320259115856947 
55.0003675412421 1.0428272791416775 
56.0003675412421 1.0531523232142317 
57.0003675412421 1.08735221036511 
58.0003675412421 1.0627641573645947 
59.0003675412421 1.1696780879452464 
60.0003675412421 1.2658238606064631 
61.0003675412421 0.9382269151329236 
62.0003675412421 1.2663069923827392 
63.0003675412421 1.1158908924504816 
64.0003675412421 1.236344482181058 
65.0003675412421 1.5287653324232804 
66.0003675412421 1.306868667691568 
67.0003675412421 1.163618397550671 
68.0003675412421 1.2563395815786755 
69.0003675412421 1.307160736379227 
70.0003675412421 1.0452652911881557 
71.0003675412421 1.5161070011092275 
72.0003675412421 1.2257039837836248 
73.0003675412421 1.4297704325437879 
74.0003675412421 1.4627705016210937 
75.0003675412421 1.095315459076568 
76.0003675412421 1.0198558277948502 
77.0003675412421 0.8496517311264433 
78.0003675412421 0.9549604321412866 
79.0003675412421 0.799771841811185 
80.0003675412421 0.7045610985006562 
81.0003675412421 0.9524612512775805 
82.0003675412421 0.46879949966253454 
83.0003675412421 0.7769504256612925 
84.0003675412421 0.5885353160306318 
85.0003675412421 0.31564075314015627 
86.0003675412421 0.5250798453175278 
87.0003675412421 0.19837641706030468 
88.0003675412421 0.23947059760583334 
89.0003675412421 0.19288984184166283 
90.0003675412421 0.15641017700386642 
91.0003675412421 0.12464666589536323 
92.0003675412421 0.03625354908339206 
93.0003675412421 0.11606130201010625 
94.0003675412421 0.022752124033671908 
95.0003675412421 0.022632504681808392 
96.0003675412421 0.029285580570324387 
97.0003675412421 0.009286479787488462 
98.0003675412421 0.009326352904776293 
99.0003675412421 0.002633403898972407 
100.0003675412421 0.009286479787488462 
101.0003675412421 0.002633403898972407 
102.0003675412421 0.002633403898972407 
103.0003675412421 0.002633403898972407 
104.0003675412421 0.002633403898972407 
105.0003675412421 0.002633403898972407 
106.0003675412421 0.002633403898972407 
107.0003675412421 0.002633403898972407 
108.0003675412421 0.002633403898972407 
109.0003675412421 0.002633403898972407 
110.0003675412421 0.002633403898972407 
111.0003675412421 0.002633403898972407 
112.0003675412421 0.002633403898972407 
113.0003675412421 0.002633403898972407 
114.0003675412421 0.002633403898972407 
115.0003675412421 0.002633403898972407 
116.0003675412421 0.002633403898972407 
117.0003675412421 0.002633403898972407 
118.0003675412421 0.002633403898972407 
119.0003675412421 0.002633403898972407 
120.0003675412421 0.002633403898972407 
121.0003675412421 0.002633403898972407 
122.0003675412421 0.002633403898972407 
123.0003675412421 0.002633403898972407 
124.0003675412421 0.002633403898972407 
125.0003675412421 0.002633403898972407 
126.0003675412421 0.002633403898972407 
127.0003675412421 0.002633403898972407 
128.0003675412421 0.002633403898972407 
129.0003675412421 0.002633403898972407 
130.0003675412421 0.002633403898972407 
131.0003675412421 0.002633403898972407 
132.0003675412421 0.002633403898972407 
133.0003675412421 0.002633403898972407 
134.0003675412421 0.002633403898972407 
135.0003675412421 0.002633403898972407 
136.0003675412421 0.002633403898972407 
137.0003675412421 0.002633403898972407 
138.0003675412421 0.002633403898972407 
139.0003675412421 0.002633403898972407 
140.0003675412421 0.002633403898972407 
141.0003675412421 0.002633403898972407 
142.0003675412421 0.002633403898972407 
143.0003675412421 0.002633403898972407 
144.0003675412421 0.002633403898972407 
145.0003675412421 0.002633403898972407 
#####################################################################
# End of data export. Simulation finished at: 2017-05-24T14:50+0000 #
#####################################################################
