#####################################################################
# Alchemist log file - simulation started at: 2017-05-24T00:21+0000 #
#####################################################################
# random = 13.0, targets = 10.0, density = 0.1591589639397027, gridShift = 1.0, perturbation = 0.0, connfactor = 1.5
#
# The columns have the following meaning: 
# time se[Mean] 
0.0 NaN 
1.0170171764237625 NaN 
2.0170171764237628 0.99025 
3.0170171764237628 1.0013055555555554 
4.017017176423763 1.0228796296296296 
5.017017176423763 1.051361111111111 
6.017017176423763 1.229574074074074 
7.017017176423763 1.36725 
8.017017176423764 1.1712777777777779 
9.017017176423764 2.565620370370371 
10.017017176423764 2.2800000000000002 
11.017017176423764 2.187546296296297 
12.017017176423764 2.0874907407407406 
13.017017176423764 1.3744259259259264 
14.017017176423764 0.8780555555555558 
15.017017176423764 0.3628333333333335 
16.017017176423764 0.2904814814814817 
17.017017176423764 0.34010185185185204 
18.017017176423764 0.5447129629629631 
19.017017176423764 0.6083333333333336 
20.017017176423764 0.5035740740740744 
21.017017176423764 0.6638240740740743 
22.017017176423764 0.7628703703703706 
23.017017176423764 0.728888888888889 
24.017017176423764 0.5037870370370373 
25.017017176423764 0.1618981481481484 
26.017017176423764 0.01708333333333341 
27.017017176423764 0.009675925925925994 
28.017017176423764 0.010000000000000071 
29.017017176423764 0.010000000000000071 
30.017017176423764 0.010000000000000071 
31.017017176423764 0.010000000000000071 
32.017017176423764 0.010000000000000071 
33.017017176423764 0.010000000000000071 
34.017017176423764 0.010000000000000071 
35.017017176423764 0.010000000000000071 
#####################################################################
# End of data export. Simulation finished at: 2017-05-24T00:21+0000 #
#####################################################################
