#####################################################################
# Alchemist log file - simulation started at: 2017-05-26T00:44+0000 #
#####################################################################
# random = 9.0, targets = 1.0, density = 0.04, gridShift = 0.0, perturbation = 0.0, connfactor = 2.0
#
# The columns have the following meaning: 
# time se[Mean] 
0.0 NaN 
1.034185494435238 1.0 
2.034185494435238 1.0 
3.034185494435238 1.0108506944444444 
4.034185494435238 3.0581597222222223 
5.034185494435238 11.046440972222223 
6.034185494435238 8.897135416666668 
7.034185494435238 14.659288194444446 
8.034185494435238 0.3472222222222222 
9.034185494435238 0.14192708333333331 
10.034185494435238 0.06510416666666662 
11.034185494435238 0.0 
12.034185494435238 0.0 
#####################################################################
# End of data export. Simulation finished at: 2017-05-26T00:44+0000 #
#####################################################################
