#####################################################################
# Alchemist log file - simulation started at: 2017-05-20T01:49+0000 #
#####################################################################
# random = 0.0, targets = 31.622776601683793, density = 1.7841466528270753, gridShift = 0.0, perturbation = 0.5, connfactor = 2.0
#
# The columns have the following meaning: 
# time se[Mean] 
0.0 NaN 
1.0011337332612453 NaN 
2.0011337332612453 1.1160866773729934 
3.0011337332612453 1.1660293307859901 
4.001133733261245 1.2388144626938513 
5.001133733261245 1.320996885074838 
6.001133733261245 1.4363805109342178 
7.001133733261245 1.627724369100785 
8.001133733261245 1.7209911258478845 
9.001133733261245 1.804371215065418 
10.001133733261245 1.8742015938215209 
11.001133733261245 1.9335464147082233 
12.001133733261245 2.0564240762321004 
13.001133733261245 2.02762641775429 
14.001133733261245 2.224373076880027 
15.001133733261245 2.244614843553989 
16.001133733261245 2.476585854110252 
17.001133733261245 2.5137852434208976 
18.001133733261245 2.6528336320524515 
19.001133733261245 2.714170161636013 
20.001133733261245 3.2704217210225583 
21.001133733261245 3.0619590246848767 
22.001133733261245 4.457016029248947 
23.001133733261245 4.989086998637916 
24.001133733261245 6.239729428014433 
25.001133733261245 7.522176406553813 
26.001133733261245 7.780680150523566 
27.001133733261245 8.947701459351071 
28.001133733261245 8.852828775267593 
29.001133733261245 10.267433906569313 
30.001133733261245 9.886949069697359 
31.001133733261245 10.228546756455117 
32.00113373326124 13.50684515775071 
33.00113373326124 12.642624228341594 
34.00113373326124 13.27747826681105 
35.00113373326124 11.333651038064167 
36.00113373326124 13.803369095358873 
37.00113373326124 14.120070726781359 
38.00113373326124 11.048299002067948 
39.00113373326124 12.598985519922163 
40.00113373326124 13.492063586868879 
41.00113373326124 14.89523385478958 
42.00113373326124 16.99208366886973 
43.00113373326124 18.668865044974805 
44.00113373326124 21.57523005965759 
45.00113373326124 23.38633716004054 
46.00113373326124 23.620110308796978 
47.00113373326124 25.567432381370846 
48.00113373326124 28.934481028009742 
49.00113373326124 29.675691298133867 
50.00113373326124 35.30068176709189 
51.00113373326124 45.173524850138286 
52.00113373326124 47.058282242824276 
53.00113373326124 52.951492648825955 
54.00113373326124 54.40697685490238 
55.00113373326124 60.64732978406967 
56.00113373326124 62.83916657524959 
57.00113373326124 58.95348668803624 
58.00113373326124 61.111971695392214 
59.00113373326124 70.62371689429331 
60.00113373326124 69.88460109484109 
61.00113373326124 69.04180509133894 
62.00113373326124 69.40653692287295 
63.00113373326124 58.685696296861224 
64.00113373326124 73.39115101921122 
65.00113373326124 58.700812009765876 
66.00113373326124 49.338656802528455 
67.00113373326124 55.480236925861014 
68.00113373326124 50.8407670656233 
69.00113373326124 45.1050871135588 
70.00113373326124 48.98272120918971 
71.00113373326124 41.240674549410876 
72.00113373326124 38.892717131114615 
73.00113373326124 38.03397030000423 
74.00113373326124 25.52400559291831 
75.00113373326124 27.759151367639106 
76.00113373326124 23.80241669276664 
77.00113373326124 23.61239608686725 
78.00113373326124 23.60645965308232 
79.00113373326124 23.29230782657478 
80.00113373326124 23.253456679557207 
81.00113373326124 23.18174447597427 
82.00113373326124 23.036457188984336 
83.00113373326124 23.03006303842455 
84.00113373326124 23.009557696183208 
85.00113373326124 22.987002963847157 
86.00113373326124 22.993756568733158 
87.00113373326124 22.98946638440412 
88.00113373326124 22.98946638440412 
89.00113373326124 22.98946638440412 
90.00113373326124 22.98946638440412 
91.00113373326124 22.98946638440412 
92.00113373326124 22.98946638440412 
93.00113373326124 22.98946638440412 
94.00113373326124 22.98946638440412 
95.00113373326124 22.98946638440412 
96.00113373326124 22.98946638440412 
97.00113373326124 22.98946638440412 
98.00113373326124 22.98946638440412 
99.00113373326124 22.98946638440412 
100.00113373326124 22.98946638440412 
101.00113373326124 22.98946638440412 
102.00113373326124 22.98946638440412 
103.00113373326124 22.98946638440412 
104.00113373326124 22.98946638440412 
105.00113373326124 22.98946638440412 
106.00113373326124 22.98946638440412 
107.00113373326124 22.98946638440412 
108.00113373326124 22.98946638440412 
109.00113373326124 22.98946638440412 
110.00113373326124 22.98946638440412 
111.00113373326124 22.98946638440412 
112.00113373326124 22.98946638440412 
113.00113373326124 22.98946638440412 
114.00113373326124 22.98946638440412 
115.00113373326124 22.98946638440412 
116.00113373326124 22.98946638440412 
#####################################################################
# End of data export. Simulation finished at: 2017-05-20T01:50+0000 #
#####################################################################
