#####################################################################
# Alchemist log file - simulation started at: 2017-05-19T17:33+0000 #
#####################################################################
# random = 0.0, targets = 1.0, density = 0.2247883923996312, gridShift = 1.0, perturbation = 0.0, connfactor = 1.0
#
# The columns have the following meaning: 
# time se[Mean] 
0.0 NaN 
1.0011337332612453 NaN 
2.0011337332612453 1.1488095238095237 
3.0011337332612453 1.2903439153439153 
4.001133733261245 1.1216931216931216 
5.001133733261245 1.1607142857142858 
6.001133733261245 0.9431216931216931 
7.001133733261245 0.9186507936507937 
8.001133733261245 0.923941798941799 
9.001133733261245 0.8948412698412699 
10.001133733261245 0.8624338624338624 
11.001133733261245 0.7923280423280424 
12.001133733261245 0.7380952380952381 
13.001133733261245 0.5945767195767196 
14.001133733261245 0.47685185185185186 
15.001133733261245 0.371031746031746 
16.001133733261245 0.2691798941798943 
17.001133733261245 0.18253968253968259 
18.001133733261245 0.13293650793650802 
19.001133733261245 0.07936507936507939 
20.001133733261245 0.08002645502645504 
21.001133733261245 0.06415343915343914 
22.001133733261245 0.08597883597883593 
23.001133733261245 0.02447089947089946 
24.001133733261245 0.039021164021164 
25.001133733261245 0.021164021164021142 
26.001133733261245 0.005952380952380942 
27.001133733261245 0.005952380952380943 
28.001133733261245 4.930380657631324E-32 
29.001133733261245 4.930380657631324E-32 
30.001133733261245 4.930380657631324E-32 
31.001133733261245 4.930380657631324E-32 
32.00113373326124 4.930380657631324E-32 
33.00113373326124 4.930380657631324E-32 
34.00113373326124 4.930380657631324E-32 
35.00113373326124 4.930380657631324E-32 
#####################################################################
# End of data export. Simulation finished at: 2017-05-19T17:33+0000 #
#####################################################################
