#####################################################################
# Alchemist log file - simulation started at: 2017-05-24T12:34+0000 #
#####################################################################
# random = 14.0, targets = 100.0, density = 14.160781367816199, gridShift = 1.0, perturbation = 0.5, connfactor = 2.0
#
# The columns have the following meaning: 
# time se[Mean] 
0.0 NaN 
1.0015837731381736 NaN 
2.0015837731381736 NaN 
3.0015837731381736 1.0204637299750148 
4.001583773138174 1.030013718952087 
5.001583773138174 1.0372250670561434 
6.001583773138174 1.0410659111368312 
7.001583773138174 1.051485384516461 
8.001583773138174 1.0539406548537624 
9.001583773138174 1.0581987475198413 
10.001583773138174 1.0562120039682539 
11.001583773138174 1.0568521889697238 
12.001583773138174 1.057400850143298 
13.001583773138174 1.0639127167842446 
14.001583773138174 1.0624416850382128 
15.001583773138174 1.0670338853982952 
16.001583773138172 1.077827053020282 
17.001583773138172 1.076673746601264 
18.001583773138172 1.0897995154504703 
19.001583773138172 1.0966772165270429 
20.001583773138172 1.0997262901418283 
21.001583773138172 1.1087052864124045 
22.001583773138172 1.1137132817092885 
23.001583773138172 1.1167342610964137 
24.001583773138172 1.1283320399764845 
25.001583773138172 1.131533763686802 
26.001583773138172 1.1341440122538213 
27.001583773138172 1.1443839639366549 
28.001583773138172 1.152193881356555 
29.001583773138172 1.1624453193893298 
30.001583773138172 1.1730759158215756 
31.001583773138172 1.1869390230011758 
32.00158377313817 1.2029852779614933 
33.00158377313817 1.231585344558348 
34.00158377313817 1.2516271200764255 
35.00158377313817 1.262844035218254 
36.00158377313817 1.2905682792291298 
37.00158377313817 1.3121212526638744 
38.00158377313817 1.330362718621399 
39.00158377313817 1.3365383822935037 
40.00158377313817 1.3630893316431514 
41.00158377313817 1.3716575617283955 
42.00158377313817 1.3753589542915932 
43.00158377313817 1.4027913626175779 
44.00158377313817 1.4038708925815697 
45.00158377313817 1.4215314373897707 
46.00158377313817 1.4014736469356261 
47.00158377313817 1.4468911306768077 
48.00158377313817 1.4469897399507645 
49.00158377313817 1.4163019409538509 
50.00158377313817 1.4490133009994122 
51.00158377313817 1.47215496031746 
52.00158377313817 1.4495127108134922 
53.00158377313817 1.462396247611699 
54.00158377313817 1.4879511803718413 
55.00158377313817 1.4281986014660502 
56.00158377313817 1.4848162353946222 
57.00158377313817 1.5267823871987083 
58.00158377313817 1.5077526909722234 
59.00158377313817 1.5698969893628734 
60.00158377313817 1.488062697494122 
61.00158377313817 1.564149520502646 
62.00158377313817 1.529627867339066 
63.00158377313817 1.5734561792695483 
64.00158377313818 1.532612940457819 
65.00158377313818 1.6162748213367137 
66.00158377313818 1.5895730062279552 
67.00158377313818 1.563283971285273 
68.00158377313818 1.6515036155202818 
69.00158377313818 1.589361935074956 
70.00158377313818 1.6569823256540281 
71.00158377313818 1.6876634663433296 
72.00158377313818 1.6072985344099078 
73.00158377313818 1.7207348434744278 
74.00158377313818 1.7620039723875685 
75.00158377313818 1.7130899493863916 
76.00158377313818 1.863331497556586 
77.00158377313818 1.8878608598802176 
78.00158377313818 1.8973935570987646 
79.00158377313818 1.965214064337155 
80.00158377313818 2.008646820803941 
81.00158377313818 1.9600981063528797 
82.00158377313818 2.0093038171480018 
83.00158377313818 2.084385655496766 
84.00158377313818 2.0492754037147267 
85.00158377313818 2.1603483488572897 
86.00158377313818 1.9754191417732214 
87.00158377313818 2.1339143720605533 
88.00158377313818 2.0627564240704017 
89.00158377313818 2.081267159483392 
90.00158377313818 2.0539017062573497 
91.00158377313818 2.131727482914463 
92.00158377313818 2.0959905303865365 
93.00158377313818 2.026057536467519 
94.00158377313818 2.1661639054232817 
95.00158377313818 2.062410730360818 
96.00158377313818 2.196932260435039 
97.00158377313818 2.211725824882422 
98.00158377313818 2.1045514417070845 
99.00158377313818 2.197473788396532 
100.00158377313818 2.230582891956937 
101.00158377313818 2.195317046498383 
102.00158377313818 2.223733964395944 
103.00158377313818 2.256817889752352 
104.00158377313818 2.2802842551256606 
105.00158377313818 2.2534943994341563 
106.00158377313818 2.2276240828005585 
107.00158377313818 2.253755319481188 
108.00158377313818 2.3771564998530277 
109.00158377313818 2.2935046296296298 
110.00158377313818 2.2942418926366845 
111.00158377313818 2.331671592996767 
112.00158377313818 2.332572144602439 
113.00158377313818 2.2101742568709586 
114.00158377313818 2.3336064961787186 
115.00158377313818 2.35522129537772 
116.00158377313818 2.393359137088477 
117.00158377313818 2.3543644754004993 
118.00158377313818 2.3768905584031446 
119.00158377313818 2.4576950171773957 
120.00158377313818 2.3691481959141676 
121.00158377313818 2.3527728771678427 
122.00158377313818 2.372639312812317 
123.00158377313818 2.4478604621362434 
124.00158377313818 2.4633288607804227 
125.00158377313818 2.5128802616108197 
126.00158377313818 2.5561865047214867 
127.00158377313818 2.59034838605967 
128.00158377313818 2.6507539443709582 
129.00158377313818 2.892930618937386 
130.00158377313818 3.0879878132348613 
131.00158377313818 4.223544972626398 
132.00158377313818 5.292157062022326 
133.00158377313818 4.872941307962224 
134.00158377313818 6.646459370407109 
135.00158377313818 8.548798149526036 
136.00158377313818 8.824230663488386 
137.00158377313818 9.917694064153455 
138.00158377313818 11.38247377691433 
139.00158377313818 10.798520138888879 
140.00158377313818 12.283347532242075 
141.00158377313818 15.920615257109773 
142.00158377313818 19.292196964102033 
143.00158377313818 21.53672193838183 
144.00158377313818 19.566581810791416 
145.00158377313818 26.43602724867716 
146.00158377313818 27.77151808357209 
147.00158377313818 28.536188578869048 
148.00158377313818 30.44968276794892 
149.00158377313818 32.76907847819308 
150.00158377313818 31.35248224987144 
151.00158377313818 33.5220076324589 
152.00158377313818 39.5418467372133 
153.00158377313818 39.47868409575237 
154.00158377313818 42.15961374375362 
155.00158377313818 39.01456714616405 
156.00158377313818 41.59508406498015 
157.00158377313818 38.733964654063726 
158.00158377313818 40.967710455246966 
159.00158377313818 37.58068757302688 
160.00158377313818 41.797024750146946 
161.00158377313818 38.25741819977222 
162.00158377313818 36.53363759690991 
163.00158377313818 41.39500389063415 
164.00158377313818 37.153080638227536 
165.00158377313818 43.17480388741916 
166.00158377313818 43.731741362617576 
167.00158377313818 38.73303657637053 
168.00158377313818 42.056546301807764 
169.00158377313818 42.84714302156818 
170.00158377313818 39.561575272817485 
171.00158377313818 38.18488014173648 
172.00158377313818 41.25238438005215 
173.00158377313818 42.07540758928569 
174.00158377313818 40.52626102109054 
175.00158377313818 38.896773548647815 
176.00158377313818 41.157504428920525 
177.00158377313818 45.17152267875517 
178.00158377313818 38.26157907756463 
179.00158377313818 35.377230025536505 
180.00158377313818 35.46401853091928 
181.00158377313818 31.953123303387663 
182.00158377313818 27.507196704144626 
183.00158377313818 32.825741077858495 
184.00158377313818 33.0769977738281 
185.00158377313818 30.430688516864983 
186.00158377313818 25.990683052248773 
187.00158377313818 25.941532543816013 
188.00158377313818 24.595260774452424 
189.00158377313818 16.969886947016466 
190.00158377313818 13.404867235265968 
191.00158377313818 12.707954624118162 
192.00158377313818 14.071526197824895 
193.00158377313818 12.575555127957847 
194.00158377313818 12.374280035640837 
195.00158377313818 10.8759252071391 
196.00158377313818 8.002241341490285 
197.00158377313818 6.6056703005584945 
198.00158377313818 5.618943892379484 
199.00158377313818 5.615864395024987 
200.00158377313818 5.609013207763817 
201.00158377313818 5.607801764587009 
202.00158377313818 5.604768593841858 
203.00158377313818 5.606232887823341 
204.00158377313818 5.596421570950913 
205.00158377313818 5.592259156378603 
206.00158377313818 5.590281448412699 
207.00158377313818 5.5886671700470325 
208.00158377313818 5.5828395879262205 
209.00158377313818 5.580221927358908 
210.00158377313818 5.581157219099061 
211.00158377313818 5.576898240465169 
212.00158377313818 5.575149435993534 
213.00158377313818 5.573094658472958 
214.00158377313818 5.5714502833811 
215.00158377313818 5.570340081202235 
216.00158377313818 5.569780922067903 
217.00158377313818 5.569608114711936 
218.00158377313818 5.569638185258673 
219.00158377313818 5.569590850970019 
220.00158377313818 5.5693715975896545 
221.00158377313818 5.569361000881836 
222.00158377313818 5.569366014476779 
223.00158377313818 5.569428404247502 
224.00158377313818 5.569475209435628 
225.00158377313818 5.569548004850089 
226.00158377313818 5.56957920340976 
227.00158377313818 5.569600000000001 
228.00158377313818 5.569600000000001 
229.00158377313818 5.569600000000001 
230.00158377313818 5.569600000000001 
231.00158377313818 5.569600000000001 
232.00158377313818 5.569600000000001 
233.00158377313818 5.569600000000001 
234.00158377313818 5.569600000000001 
235.00158377313818 5.569600000000001 
236.00158377313818 5.569600000000001 
237.00158377313818 5.569600000000001 
238.00158377313818 5.569600000000001 
239.00158377313818 5.569600000000001 
240.00158377313818 5.569600000000001 
241.00158377313818 5.569600000000001 
242.00158377313818 5.569600000000001 
243.00158377313818 5.569600000000001 
244.00158377313818 5.569600000000001 
245.00158377313818 5.569600000000001 
246.00158377313818 5.569600000000001 
247.00158377313818 5.569600000000001 
248.00158377313818 5.569600000000001 
249.00158377313818 5.569600000000001 
250.00158377313818 5.569600000000001 
251.00158377313818 5.569600000000001 
252.00158377313818 5.569600000000001 
253.00158377313818 5.569600000000001 
254.00158377313818 5.569600000000001 
255.00158377313818 5.569600000000001 
256.0015837731382 5.569600000000001 
257.0015837731382 5.569600000000001 
258.0015837731382 5.569600000000001 
259.0015837731382 5.569600000000001 
260.0015837731382 5.569600000000001 
261.0015837731382 5.569600000000001 
262.0015837731382 5.569600000000001 
263.0015837731382 5.569600000000001 
264.0015837731382 5.569600000000001 
265.0015837731382 5.569600000000001 
266.0015837731382 5.569600000000001 
267.0015837731382 5.569600000000001 
268.0015837731382 5.569600000000001 
269.0015837731382 5.569600000000001 
270.0015837731382 5.569600000000001 
271.0015837731382 5.569600000000001 
272.0015837731382 5.569600000000001 
273.0015837731382 5.569600000000001 
274.0015837731382 5.569600000000001 
275.0015837731382 5.569600000000001 
276.0015837731382 5.569600000000001 
277.0015837731382 5.569600000000001 
278.0015837731382 5.569600000000001 
279.0015837731382 5.569600000000001 
280.0015837731382 5.569600000000001 
281.0015837731382 5.569600000000001 
282.0015837731382 5.569600000000001 
283.0015837731382 5.569600000000001 
284.0015837731382 5.569600000000001 
285.0015837731382 5.569600000000001 
286.0015837731382 5.569600000000001 
287.0015837731382 5.569600000000001 
288.0015837731382 5.569600000000001 
289.0015837731382 5.569600000000001 
290.0015837731382 5.569600000000001 
291.0015837731382 5.569600000000001 
292.0015837731382 5.569600000000001 
293.0015837731382 5.569600000000001 
294.0015837731382 5.569600000000001 
295.0015837731382 5.569600000000001 
296.0015837731382 5.569600000000001 
297.0015837731382 5.569600000000001 
298.0015837731382 5.569600000000001 
299.0015837731382 5.569600000000001 
300.0015837731382 5.569600000000001 
301.0015837731382 5.569600000000001 
302.0015837731382 5.569600000000001 
303.0015837731382 5.569600000000001 
304.0015837731382 5.569600000000001 
305.0015837731382 5.569600000000001 
306.0015837731382 5.569600000000001 
307.0015837731382 5.569600000000001 
308.0015837731382 5.569600000000001 
309.0015837731382 5.569600000000001 
310.0015837731382 5.569600000000001 
#####################################################################
# End of data export. Simulation finished at: 2017-05-24T12:41+0000 #
#####################################################################
