#####################################################################
# Alchemist log file - simulation started at: 2017-05-23T00:43+0000 #
#####################################################################
# random = 10.0, targets = 10.0, density = 7.099073319511142, gridShift = 0.0, perturbation = 0.5, connfactor = 0.25
#
# The columns have the following meaning: 
# time se[Mean] 
0.0 NaN 
1.0007035023519422 NaN 
2.000703502351942 1.0 
3.000703502351942 1.0 
4.000703502351942 0.9995408163265306 
5.000703502351942 0.997704081632653 
6.000703502351942 0.9972448979591837 
7.000703502351942 0.9931122448979592 
8.000703502351943 0.9917346938775511 
9.000703502351943 0.9897066326530611 
10.000703502351943 0.9892474489795918 
11.000703502351943 0.9879719387755103 
12.000703502351943 0.986045918367347 
13.000703502351943 0.985561224489796 
14.000703502351943 0.9835969387755102 
15.000703502351943 0.9831122448979591 
16.000703502351943 0.9815051020408163 
17.000703502351943 0.9787372448979593 
18.000703502351943 0.9667602040816325 
19.000703502351943 0.9681887755102041 
20.000703502351943 0.9601658163265306 
21.000703502351943 0.9504846938775511 
22.000703502351943 0.9423341836734694 
23.000703502351943 0.9361989795918367 
24.000703502351943 0.922640306122449 
25.000703502351943 0.9102806122448981 
26.000703502351943 0.8899744897959184 
27.000703502351943 0.8835969387755102 
28.000703502351943 0.8668877551020409 
29.000703502351943 0.8577168367346935 
30.000703502351943 0.8520663265306122 
31.000703502351943 0.8383545918367348 
32.00070350235194 0.8294642857142857 
33.00070350235194 0.8091964285714288 
34.00070350235194 0.8018494897959182 
35.00070350235194 0.7885969387755101 
36.00070350235194 0.7803316326530615 
37.00070350235194 0.772959183673469 
38.00070350235194 0.7722959183673468 
39.00070350235194 0.7637882653061235 
40.00070350235194 0.7603698979591846 
41.00070350235194 0.7521045918367351 
42.00070350235194 0.7470663265306121 
43.00070350235194 0.741836734693878 
44.00070350235194 0.7384693877551015 
45.00070350235194 0.7327168367346931 
46.00070350235194 0.730395408163265 
47.00070350235194 0.731721938775511 
48.00070350235194 0.7251275510204084 
49.00070350235194 0.7252933673469383 
50.00070350235194 0.7263903061224495 
51.00070350235194 0.7239285714285713 
52.00070350235194 0.7263265306122447 
53.00070350235194 0.7298979591836732 
54.00070350235194 0.7213775510204076 
55.00070350235194 0.7271556122448973 
56.00070350235194 0.726849489795919 
57.00070350235194 0.7203954081632657 
58.00070350235194 0.7255229591836737 
59.00070350235194 0.7303571428571428 
60.00070350235194 0.7222066326530607 
61.00070350235194 0.7236352040816332 
62.00070350235194 0.7296938775510197 
63.00070350235194 0.7215816326530614 
64.00070350235194 0.7250127551020408 
65.00070350235194 0.7275382653061219 
66.00070350235194 0.7312627551020406 
67.00070350235194 0.7317346938775515 
68.00070350235194 0.7385331632653058 
69.00070350235194 0.7352295918367343 
70.00070350235194 0.7452168367346939 
71.00070350235194 0.7469387755102037 
72.00070350235194 0.7505612244897958 
73.00070350235194 0.7552933673469384 
74.00070350235194 0.7619515306122453 
75.00070350235194 0.7613137755102045 
76.00070350235194 0.7645280612244905 
77.00070350235194 0.7776530612244907 
78.00070350235194 0.8196938775510194 
79.00070350235194 0.8322448979591835 
80.00070350235194 0.8544897959183672 
81.00070350235194 0.8880612244897957 
82.00070350235194 0.9280612244897942 
83.00070350235194 0.9121301020408175 
84.00070350235194 0.9048341836734681 
85.00070350235194 0.9654209183673463 
86.00070350235194 0.9667602040816321 
87.00070350235194 0.9478698979591836 
88.00070350235194 0.9662882653061222 
89.00070350235194 0.9457653061224487 
90.00070350235194 0.9055867346938773 
91.00070350235194 1.0000382653061224 
92.00070350235194 0.9495918367346947 
93.00070350235194 0.9459821428571435 
94.00070350235194 1.0180484693877554 
95.00070350235194 0.9759311224489802 
96.00070350235194 0.9298724489795913 
97.00070350235194 1.1060969387755104 
98.00070350235194 1.0993877551020406 
99.00070350235194 1.057397959183674 
100.00070350235194 1.2055357142857146 
101.00070350235194 1.2702295918367328 
102.00070350235194 1.2568750000000006 
103.00070350235194 1.239068877551019 
104.00070350235194 1.4043367346938784 
105.00070350235194 1.3904719387755111 
106.00070350235194 1.4159311224489803 
107.00070350235194 1.377206632653061 
108.00070350235194 1.6223724489795899 
109.00070350235194 1.622117346938776 
110.00070350235194 1.6976275510204086 
111.00070350235194 1.7524744897959166 
112.00070350235194 1.8339285714285716 
113.00070350235194 1.8489285714285701 
114.00070350235194 1.8254209183673458 
115.00070350235194 1.78911989795918 
116.00070350235194 2.0262372448979566 
117.00070350235194 1.982908163265309 
118.00070350235194 1.8335076530612218 
119.00070350235194 1.8820918367346948 
120.00070350235194 1.7097448979591847 
121.00070350235194 2.0829591836734713 
122.00070350235194 1.8115561224489791 
123.00070350235194 1.9443239795918372 
124.00070350235194 2.0832015306122442 
125.00070350235194 2.1608163265306115 
126.00070350235194 1.7489413265306115 
127.00070350235194 2.298584183673471 
128.00070350235194 2.2733545918367346 
129.00070350235194 1.8748724489795925 
130.00070350235194 2.092665816326529 
131.00070350235194 2.0266198979591845 
132.00070350235194 2.0545025510204122 
133.00070350235194 1.8684693877551048 
134.00070350235194 1.8919897959183707 
135.00070350235194 1.7054464285714297 
136.00070350235194 1.985420918367341 
137.00070350235194 1.6727423469387757 
138.00070350235194 1.8520408163265352 
139.00070350235194 1.860012755102037 
140.00070350235194 1.449489795918356 
141.00070350235194 1.2755484693877652 
142.00070350235194 1.153596938775499 
143.00070350235194 0.9797193877551073 
144.00070350235194 1.001913265306118 
145.00070350235194 0.6965051020408171 
146.00070350235194 0.685752551020405 
147.00070350235194 0.6542474489795942 
148.00070350235194 0.5287499999999987 
149.00070350235194 0.5814413265306146 
150.00070350235194 0.3427040816326526 
151.00070350235194 0.4768494897959181 
152.00070350235194 0.3294387755102034 
153.00070350235194 0.29672193877551084 
154.00070350235194 0.29533163265306195 
155.00070350235194 0.2592602040816326 
156.00070350235194 0.2525510204081633 
157.00070350235194 0.2522448979591837 
158.00070350235194 0.2512627551020408 
159.00070350235194 0.2514030612244898 
160.00070350235194 0.2512627551020408 
161.00070350235194 0.2508418367346939 
162.00070350235194 0.25112244897959185 
163.00070350235194 0.250140306122449 
164.00070350235194 0.2508418367346939 
165.00070350235194 0.250140306122449 
166.00070350235194 0.250140306122449 
167.00070350235194 0.250140306122449 
168.00070350235194 0.25 
169.00070350235194 0.25 
170.00070350235194 0.25 
171.00070350235194 0.25 
172.00070350235194 0.25 
173.00070350235194 0.25 
174.00070350235194 0.25 
175.00070350235194 0.25 
176.00070350235194 0.25 
177.00070350235194 0.25 
178.00070350235194 0.25 
179.00070350235194 0.25 
180.00070350235194 0.25 
181.00070350235194 0.25 
182.00070350235194 0.25 
183.00070350235194 0.25 
184.00070350235194 0.25 
185.00070350235194 0.25 
186.00070350235194 0.25 
187.00070350235194 0.25 
188.00070350235194 0.25 
189.00070350235194 0.25 
190.00070350235194 0.25 
191.00070350235194 0.25 
192.00070350235194 0.25 
193.00070350235194 0.25 
194.00070350235194 0.25 
195.00070350235194 0.25 
196.00070350235194 0.25 
197.00070350235194 0.25 
198.00070350235194 0.25 
199.00070350235194 0.25 
200.00070350235194 0.25 
201.00070350235194 0.25 
202.00070350235194 0.25 
203.00070350235194 0.25 
204.00070350235194 0.25 
205.00070350235194 0.25 
206.00070350235194 0.25 
207.00070350235194 0.25 
208.00070350235194 0.25 
209.00070350235194 0.25 
210.00070350235194 0.25 
211.00070350235194 0.25 
212.00070350235194 0.25 
213.00070350235194 0.25 
214.00070350235194 0.25 
215.00070350235194 0.25 
216.00070350235194 0.25 
217.00070350235194 0.25 
218.00070350235194 0.25 
219.00070350235194 0.25 
220.00070350235194 0.25 
221.00070350235194 0.25 
222.00070350235194 0.25 
223.00070350235194 0.25 
224.00070350235194 0.25 
225.00070350235194 0.25 
226.00070350235194 0.25 
227.00070350235194 0.25 
228.00070350235194 0.25 
#####################################################################
# End of data export. Simulation finished at: 2017-05-23T00:45+0000 #
#####################################################################
