#####################################################################
# Alchemist log file - simulation started at: 2017-05-23T10:09+0000 #
#####################################################################
# random = 11.0, targets = 31.622776601683793, density = 7.099073319511142, gridShift = 0.0, perturbation = 0.5, connfactor = 1.0
#
# The columns have the following meaning: 
# time se[Mean] 
0.0 NaN 
1.0000311017741008 NaN 
2.000031101774101 NaN 
3.000031101774101 1.006700043691221 
4.000031101774101 1.0096881678760956 
5.000031101774101 1.0095537239125632 
6.000031101774101 1.0019896489394835 
7.000031101774101 0.9985466530367478 
8.000031101774102 0.9966943160868628 
9.000031101774102 0.9964181558572391 
10.000031101774102 0.9961181421650653 
11.000031101774102 0.99280435827822 
12.000031101774102 0.992365827494012 
13.000031101774102 0.9903181922239631 
14.000031101774102 0.9902718730192245 
15.000031101774102 0.9873856181684157 
16.000031101774102 0.9838869325493478 
17.000031101774102 0.9791951276442177 
18.000031101774102 0.9769653306330793 
19.000031101774102 0.9726658225758877 
20.000031101774102 0.9685362561746644 
21.000031101774102 0.967040313534646 
22.000031101774102 0.9619888391033926 
23.000031101774102 0.9633894555437368 
24.000031101774102 0.956208569594124 
25.000031101774102 0.9568937906578074 
26.000031101774102 0.9548721465171791 
27.000031101774102 0.9555394743075502 
28.000031101774102 0.9527776284763475 
29.000031101774102 0.9600747679622936 
30.000031101774102 0.9530862601433456 
31.000031101774102 0.9540457343159422 
32.0000311017741 0.9579387864053567 
33.0000311017741 0.9549215024317796 
34.0000311017741 0.9545882210911791 
35.0000311017741 0.9558036240116677 
36.0000311017741 0.9569332774575591 
37.0000311017741 0.9534980184852847 
38.0000311017741 0.9608664568440369 
39.0000311017741 0.9558590548409193 
40.0000311017741 0.9546684381556189 
41.0000311017741 0.9542507813161049 
42.0000311017741 0.947112154450288 
43.0000311017741 0.9362340929687175 
44.0000311017741 0.9303021294226858 
45.0000311017741 0.9235390179864758 
46.0000311017741 0.913496981655432 
47.0000311017741 0.895873498652199 
48.0000311017741 0.8867671799455004 
49.0000311017741 0.8682979048279666 
50.0000311017741 0.851270904838458 
51.0000311017741 0.8485382213674668 
52.0000311017741 0.8196003287017698 
53.0000311017741 0.7981956189132534 
54.0000311017741 0.7840553896393189 
55.0000311017741 0.7682899170761229 
56.0000311017741 0.7349374370256578 
57.0000311017741 0.7172573499297388 
58.0000311017741 0.7012564056160326 
59.0000311017741 0.6815423349716633 
60.0000311017741 0.6661314035598808 
61.0000311017741 0.656869760383953 
62.0000311017741 0.6370437939526777 
63.0000311017741 0.6199998598545795 
64.0000311017741 0.6189543660928188 
65.0000311017741 0.6084252249402965 
66.0000311017741 0.6014663694249649 
67.0000311017741 0.5805081593340132 
68.0000311017741 0.569346022495209 
69.0000311017741 0.5541363931300405 
70.0000311017741 0.5300252069104308 
71.0000311017741 0.5121984409556014 
72.0000311017741 0.4990834085074944 
73.0000311017741 0.4959233638553232 
74.0000311017741 0.4820521356600601 
75.0000311017741 0.4733237422425655 
76.0000311017741 0.4673158054287945 
77.0000311017741 0.47972200690438643 
78.0000311017741 0.4698532630092956 
79.0000311017741 0.48096197502144494 
80.0000311017741 0.47732212262012513 
81.0000311017741 0.46513956250971183 
82.0000311017741 0.46326464477345014 
83.0000311017741 0.466465436755237 
84.0000311017741 0.4609486534216985 
85.0000311017741 0.4560790703764547 
86.0000311017741 0.4593769126869898 
87.0000311017741 0.46000923149398776 
88.0000311017741 0.4680950059646941 
89.0000311017741 0.47327598587951214 
90.0000311017741 0.49068073761787606 
91.0000311017741 0.47289280845856163 
92.0000311017741 0.5318771055302929 
93.0000311017741 0.5471839196888848 
94.0000311017741 0.5572389386802131 
95.0000311017741 0.5570792708929094 
96.0000311017741 0.6268501697509594 
97.0000311017741 0.6379049881516144 
98.0000311017741 0.622452449479083 
99.0000311017741 0.6787455262228355 
100.0000311017741 0.6466035989345126 
101.0000311017741 0.6387315283522179 
102.0000311017741 0.6372483994035412 
103.0000311017741 0.664256550217776 
104.0000311017741 0.5999302010388562 
105.0000311017741 0.583768001420802 
106.0000311017741 0.6147894242221712 
107.0000311017741 0.6053168645405359 
108.0000311017741 0.57717473067083 
109.0000311017741 0.5752130042093919 
110.0000311017741 0.6208275154648388 
111.0000311017741 0.5791825314409259 
112.0000311017741 0.5638560327562467 
113.0000311017741 0.533207411766685 
114.0000311017741 0.5342783977190207 
115.0000311017741 0.4843455036426975 
116.0000311017741 0.4697420463228005 
117.0000311017741 0.44483977355407484 
118.0000311017741 0.4081442247615919 
119.0000311017741 0.4020781734006186 
120.0000311017741 0.3959654863206617 
121.0000311017741 0.3935506133567043 
122.0000311017741 0.38389053259670325 
123.0000311017741 0.3838913824641781 
124.0000311017741 0.3839566734652188 
125.0000311017741 0.3841504397514037 
126.0000311017741 0.38443229489288255 
127.0000311017741 0.38468768650625507 
128.00003110177408 0.3848522438469723 
129.00003110177408 0.3848633677124354 
130.00003110177408 0.3849211842244302 
131.00003110177408 0.3849914532583507 
132.00003110177408 0.3850533615595891 
133.00003110177408 0.3850533615595891 
134.00003110177408 0.3850533615595891 
135.00003110177408 0.3850533615595891 
136.00003110177408 0.3850533615595891 
137.00003110177408 0.3850533615595891 
138.00003110177408 0.3850533615595891 
139.00003110177408 0.3850533615595891 
140.00003110177408 0.3850533615595891 
141.00003110177408 0.3850533615595891 
142.00003110177408 0.3850533615595891 
143.00003110177408 0.3850533615595891 
144.00003110177408 0.3850533615595891 
145.00003110177408 0.3850533615595891 
146.00003110177408 0.3850533615595891 
147.00003110177408 0.3850533615595891 
148.00003110177408 0.3850533615595891 
149.00003110177408 0.3850533615595891 
150.00003110177408 0.3850533615595891 
151.00003110177408 0.3850533615595891 
152.00003110177408 0.3850533615595891 
153.00003110177408 0.3850533615595891 
154.00003110177408 0.3850533615595891 
155.00003110177408 0.3850533615595891 
156.00003110177408 0.3850533615595891 
157.00003110177408 0.3850533615595891 
158.00003110177408 0.3850533615595891 
159.00003110177408 0.3850533615595891 
160.00003110177408 0.3850533615595891 
161.00003110177408 0.3850533615595891 
162.00003110177408 0.3850533615595891 
163.00003110177408 0.3850533615595891 
164.00003110177408 0.3850533615595891 
165.00003110177408 0.3850533615595891 
166.00003110177408 0.3850533615595891 
167.00003110177408 0.3850533615595891 
168.00003110177408 0.3850533615595891 
169.00003110177408 0.3850533615595891 
170.00003110177408 0.3850533615595891 
171.00003110177408 0.3850533615595891 
172.00003110177408 0.3850533615595891 
173.00003110177408 0.3850533615595891 
174.00003110177408 0.3850533615595891 
175.00003110177408 0.3850533615595891 
176.00003110177408 0.3850533615595891 
177.00003110177408 0.3850533615595891 
178.00003110177408 0.3850533615595891 
179.00003110177408 0.3850533615595891 
180.00003110177408 0.3850533615595891 
181.00003110177408 0.3850533615595891 
182.00003110177408 0.3850533615595891 
183.00003110177408 0.3850533615595891 
184.00003110177408 0.3850533615595891 
185.00003110177408 0.3850533615595891 
186.00003110177408 0.3850533615595891 
187.00003110177408 0.3850533615595891 
188.00003110177408 0.3850533615595891 
189.00003110177408 0.3850533615595891 
190.00003110177408 0.3850533615595891 
191.00003110177408 0.3850533615595891 
192.00003110177408 0.3850533615595891 
193.00003110177408 0.3850533615595891 
#####################################################################
# End of data export. Simulation finished at: 2017-05-23T10:10+0000 #
#####################################################################
