#####################################################################
# Alchemist log file - simulation started at: 2017-05-23T03:45+0000 #
#####################################################################
# random = 10.0, targets = 100.0, density = 0.3174802103936399, gridShift = 0.0, perturbation = 0.5, connfactor = 0.1
#
# The columns have the following meaning: 
# time se[Mean] 
0.0 NaN 
1.0036005446229952 NaN 
2.003600544622995 0.9995938775510204 
3.003600544622995 1.0 
4.003600544622995 0.999390306122449 
5.003600544622995 0.9985780612244898 
6.003600544622995 0.9968828798185941 
7.003600544622995 0.9932451247165532 
8.003600544622994 0.9920141723356009 
9.003600544622994 0.9845467120181406 
10.003600544622994 0.9774642857142857 
11.003600544622994 0.9768399659863946 
12.003600544622994 0.9693867913832199 
13.003600544622994 0.9635951247165533 
14.003600544622994 0.9584858843537415 
15.003600544622994 0.9439476757369614 
16.003600544622994 0.9341564058956916 
17.003600544622994 0.9197343537414966 
18.003600544622994 0.9086260204081632 
19.003600544622994 0.8791422335600907 
20.003600544622994 0.8522773809523809 
21.003600544622994 0.8433834467120181 
22.003600544622994 0.8410907596371882 
23.003600544622994 0.8074607709750566 
24.003600544622994 0.8030915532879819 
25.003600544622994 0.8045395124716553 
26.003600544622994 0.8001536848072562 
27.003600544622994 0.8231233560090703 
28.003600544622994 0.8389093537414966 
29.003600544622994 0.8320111111111111 
30.003600544622994 0.8461063492063492 
31.003600544622994 0.8602015873015874 
32.003600544623 0.8649 
33.003600544623 0.8649 
34.003600544623 0.8649 
35.003600544623 0.8649 
36.003600544623 0.8649 
37.003600544623 0.8649 
38.003600544623 0.8649 
39.003600544623 0.8649 
40.003600544623 0.8649 
41.003600544623 0.8649 
42.003600544623 0.8649 
43.003600544623 0.8649 
44.003600544623 0.8649 
45.003600544623 0.8649 
46.003600544623 0.8649 
#####################################################################
# End of data export. Simulation finished at: 2017-05-23T03:45+0000 #
#####################################################################
