#####################################################################
# Alchemist log file - simulation started at: 2017-05-19T17:33+0000 #
#####################################################################
# random = 0.0, targets = 1.0, density = 0.3174802103936399, gridShift = 0.0, perturbation = 0.0, connfactor = 0.75
#
# The columns have the following meaning: 
# time se[Mean] 
0.0 NaN 
1.0011337332612453 NaN 
2.0011337332612453 1.0 
3.0011337332612453 1.0 
4.001133733261245 1.0 
5.001133733261245 1.0 
6.001133733261245 1.0 
7.001133733261245 0.9808673469387755 
8.001133733261245 0.9617346938775511 
9.001133733261245 0.8316326530612245 
10.001133733261245 0.6581632653061225 
11.001133733261245 0.5127551020408164 
12.001133733261245 0.27040816326530626 
13.001133733261245 0.2334183673469387 
14.001133733261245 0.1288265306122449 
15.001133733261245 0.11734693877551021 
16.001133733261245 0.12244897959183673 
17.001133733261245 0.10204081632653061 
18.001133733261245 0.10204081632653061 
19.001133733261245 0.10204081632653061 
20.001133733261245 0.10204081632653061 
21.001133733261245 0.06632653061224489 
22.001133733261245 0.04591836734693878 
23.001133733261245 0.02551020408163267 
24.001133733261245 0.0 
25.001133733261245 0.0 
26.001133733261245 0.0 
27.001133733261245 0.0 
28.001133733261245 0.0 
29.001133733261245 0.0 
30.001133733261245 0.0 
31.001133733261245 0.0 
32.00113373326124 0.0 
33.00113373326124 0.0 
34.00113373326124 0.0 
#####################################################################
# End of data export. Simulation finished at: 2017-05-19T17:33+0000 #
#####################################################################
