#####################################################################
# Alchemist log file - simulation started at: 2017-05-21T03:13+0000 #
#####################################################################
# random = 2.0, targets = 1.0, density = 1.2632455339402642, gridShift = 1.0, perturbation = 0.0, connfactor = 0.75
#
# The columns have the following meaning: 
# time se[Mean] 
0.0 NaN 
1.003288451303821 NaN 
2.003288451303821 1.0446428571428572 
3.003288451303821 1.0744047619047619 
4.0032884513038205 1.1339285714285716 
5.0032884513038205 1.1860119047619044 
6.0032884513038205 1.1041666666666665 
7.0032884513038205 1.0446428571428572 
8.00328845130382 1.0 
9.00328845130382 1.0 
10.00328845130382 0.9966931216931217 
11.00328845130382 0.990079365079365 
12.00328845130382 0.9867724867724867 
13.00328845130382 0.9750330687830687 
14.00328845130382 0.9813161375661376 
15.00328845130382 0.9618055555555556 
16.00328845130382 0.9381613756613757 
17.00328845130382 0.9168320105820106 
18.00328845130382 0.8773148148148149 
19.00328845130382 0.8366402116402116 
20.00328845130382 0.8118386243386244 
21.00328845130382 0.7708333333333335 
22.00328845130382 0.7488425925925926 
23.00328845130382 0.7020502645502646 
24.00328845130382 0.6909722222222222 
25.00328845130382 0.6557539682539681 
26.00328845130382 0.6451719576719579 
27.00328845130382 0.604166666666667 
28.00328845130382 0.54348544973545 
29.00328845130382 0.5112433862433864 
30.00328845130382 0.44444444444444425 
31.00328845130382 0.4356812169312171 
32.00328845130382 0.37499999999999994 
33.00328845130382 0.357804232804233 
34.00328845130382 0.2956349206349204 
35.00328845130382 0.25975529100529093 
36.00328845130382 0.20618386243386252 
37.00328845130382 0.19163359788359774 
38.00328845130382 0.16253306878306892 
39.00328845130382 0.13409391534391535 
40.00328845130382 0.11160714285714267 
41.00328845130382 0.089781746031746 
42.00328845130382 0.07853835978835963 
43.00328845130382 0.06283068783068796 
44.00328845130382 0.045138888888888916 
45.00328845130382 0.03389550264550259 
46.00328845130382 0.019510582010581975 
47.00328845130382 0.14219576719576713 
48.00328845130382 0.39550264550264486 
49.00328845130382 0.521825396825396 
50.00328845130382 0.7794312169312178 
51.00328845130382 0.2594246031746027 
52.00328845130382 0.6481481481481481 
53.00328845130382 0.25925925925925875 
54.00328845130382 0.3888888888888887 
55.00328845130382 0.12962962962962937 
56.00328845130382 0.25925925925925875 
57.00328845130382 0.2592592592592588 
58.00328845130382 0.2592592592592588 
59.00328845130382 0.38888888888888834 
60.00328845130382 0.12962962962962937 
61.00328845130382 0.3888888888888883 
62.00328845130382 0.25925925925925875 
63.00328845130382 0.12962962962962937 
64.00328845130382 0.12962962962962937 
65.00328845130382 0.25925925925925875 
66.00328845130382 0.12962962962962937 
67.00328845130382 4.930380657631324E-32 
68.00328845130382 4.930380657631324E-32 
69.00328845130382 4.930380657631324E-32 
70.00328845130382 4.930380657631324E-32 
71.00328845130382 4.930380657631324E-32 
72.00328845130382 4.930380657631324E-32 
73.00328845130382 4.930380657631324E-32 
74.00328845130382 4.930380657631324E-32 
75.00328845130382 4.930380657631324E-32 
76.00328845130382 4.930380657631324E-32 
77.00328845130382 4.930380657631324E-32 
78.00328845130382 4.930380657631324E-32 
79.00328845130382 4.930380657631324E-32 
80.00328845130382 4.930380657631324E-32 
81.00328845130382 4.930380657631324E-32 
82.00328845130382 4.930380657631324E-32 
83.00328845130382 4.930380657631324E-32 
84.00328845130382 4.930380657631324E-32 
85.00328845130382 4.930380657631324E-32 
86.00328845130382 4.930380657631324E-32 
87.00328845130382 4.930380657631324E-32 
88.00328845130382 4.930380657631324E-32 
#####################################################################
# End of data export. Simulation finished at: 2017-05-21T03:13+0000 #
#####################################################################
