#####################################################################
# Alchemist log file - simulation started at: 2017-05-25T06:12+0000 #
#####################################################################
# random = 17.0, targets = 3.1622776601683795, density = 0.6332893950589894, gridShift = 0.0, perturbation = 0.5, connfactor = 2.0
#
# The columns have the following meaning: 
# time se[Mean] 
0.0 NaN 
1.0045647570182237 NaN 
2.0045647570182235 1.025276130816062 
3.0045647570182235 1.0761844168032941 
4.0045647570182235 1.2648439689658397 
5.0045647570182235 1.5907200229185792 
6.0045647570182235 2.2713262164757384 
7.0045647570182235 3.2596414662744166 
8.004564757018223 4.199694268181972 
9.004564757018223 5.567515531606358 
10.004564757018223 7.500452747994058 
11.004564757018223 9.734693844111764 
12.004564757018223 8.897232712558232 
13.004564757018223 10.921176456611938 
14.004564757018223 10.859543996631347 
15.004564757018223 10.6629435856895 
16.004564757018223 9.066559167304206 
17.004564757018223 9.760457796272913 
18.004564757018223 10.05405744999786 
19.004564757018223 10.947552179069374 
20.004564757018223 12.45991546797984 
21.004564757018223 13.28409033115346 
22.004564757018223 15.275223962006052 
23.004564757018223 16.048782058173288 
24.004564757018223 17.343330315778225 
25.004564757018223 18.56543984791878 
26.004564757018223 19.24886951436774 
27.004564757018223 20.199086320516603 
28.004564757018223 19.930031795945585 
29.004564757018223 21.997470673363924 
30.004564757018223 20.7875017360781 
31.004564757018223 29.90678945255204 
32.00456475701822 33.223332075139716 
33.00456475701822 25.8420919264945 
34.00456475701822 39.928073229535556 
35.00456475701822 33.91573049197361 
36.00456475701822 37.223331973753304 
37.00456475701822 32.980554385229894 
38.00456475701822 34.56461897556817 
39.00456475701822 33.229201994103825 
40.00456475701822 25.792435634309665 
41.00456475701822 31.934240567904645 
42.00456475701822 22.851724101542473 
43.00456475701822 25.965883815371996 
44.00456475701822 24.484051894535586 
45.00456475701822 22.915619745753077 
46.00456475701822 23.0082881263714 
47.00456475701822 22.97105616507057 
48.00456475701822 22.977124317742796 
49.00456475701822 22.989466384404114 
50.00456475701822 22.989466384404114 
51.00456475701822 22.989466384404114 
52.00456475701822 22.989466384404114 
53.00456475701822 22.989466384404114 
54.00456475701822 22.989466384404114 
55.00456475701822 22.989466384404114 
56.00456475701822 22.989466384404114 
57.00456475701822 22.989466384404114 
58.00456475701822 22.989466384404114 
59.00456475701822 22.989466384404114 
60.00456475701822 22.989466384404114 
61.00456475701822 22.989466384404114 
62.00456475701822 22.989466384404114 
63.00456475701822 22.989466384404114 
64.00456475701822 22.989466384404114 
65.00456475701822 22.989466384404114 
#####################################################################
# End of data export. Simulation finished at: 2017-05-25T06:12+0000 #
#####################################################################
