#####################################################################
# Alchemist log file - simulation started at: 2017-05-26T14:51+0000 #
#####################################################################
# random = 9.0, targets = 100.0, density = 10.026386447354522, gridShift = 1.0, perturbation = 0.5, connfactor = 2.0
#
# The columns have the following meaning: 
# time se[Mean] 
0.0 NaN 
1.0015323036356916 NaN 
2.001532303635692 1.0150170993343575 
3.001532303635692 1.0239838133640553 
4.001532303635692 1.0381044956477214 
5.001532303635692 1.0580701478494623 
6.001532303635692 1.0648673163082436 
7.001532303635692 1.0835352374551972 
8.001532303635692 1.0887573393497183 
9.001532303635692 1.1027393631592424 
10.001532303635692 1.1097889624935995 
11.001532303635692 1.1155699340757808 
12.001532303635692 1.1285223252688172 
13.001532303635692 1.1378548476702508 
14.001532303635692 1.1532820462109574 
15.001532303635692 1.169821081669227 
16.001532303635692 1.1672738722478238 
17.001532303635692 1.1878385426267282 
18.001532303635692 1.1955972343830004 
19.001532303635692 1.197756662826421 
20.001532303635692 1.211283495903738 
21.001532303635692 1.219519757424475 
22.001532303635692 1.2267207622887866 
23.001532303635692 1.2477175377624168 
24.001532303635692 1.2468615693804403 
25.001532303635692 1.2697652924987197 
26.001532303635692 1.2945241154633897 
27.001532303635692 1.2807311687147975 
28.001532303635692 1.3177749532770098 
29.001532303635692 1.3239909146185356 
30.001532303635692 1.3535422363031233 
31.001532303635692 1.3743620890937016 
32.00153230363569 1.4153551721710191 
33.00153230363569 1.4348811053507424 
34.00153230363569 1.504570782130057 
35.00153230363569 1.5616723137480792 
36.00153230363569 1.6334044220430104 
37.00153230363569 1.6909615828213 
38.00153230363569 1.7967675230414737 
39.00153230363569 1.8410813031234001 
40.00153230363569 2.0065829384280582 
41.00153230363569 2.014908728238605 
42.00153230363569 2.0837249494367627 
43.00153230363569 2.324090082565282 
44.00153230363569 2.205650485791091 
45.00153230363569 2.3792761527137714 
46.00153230363569 2.4033220417306707 
47.00153230363569 2.481520108806963 
48.00153230363569 2.494604256912441 
49.00153230363569 2.62095968701997 
50.00153230363569 2.536084070660524 
51.00153230363569 2.7077712064772137 
52.00153230363569 2.7439386987967236 
53.00153230363569 2.8060088466461854 
54.00153230363569 2.7880851203277017 
55.00153230363569 2.8942821396569385 
56.00153230363569 3.137788601510497 
57.00153230363569 3.1286637903225802 
58.00153230363569 3.0170692812339994 
59.00153230363569 3.1737052400153605 
60.00153230363569 3.1017124059139776 
61.00153230363569 3.329207843701997 
62.00153230363569 3.5593840495391698 
63.00153230363569 3.832024582693293 
64.00153230363568 3.88014812403994 
65.00153230363568 4.3832606035586315 
66.00153230363568 4.448831703789048 
67.00153230363568 5.175271608422942 
68.00153230363568 5.472278961853558 
69.00153230363568 5.392844244751664 
70.00153230363568 6.2317916186636 
71.00153230363568 6.380070064004092 
72.00153230363568 6.49240944764465 
73.00153230363568 6.837026416410658 
74.00153230363568 6.968492763056839 
75.00153230363568 7.130514420762933 
76.00153230363568 7.394341493215569 
77.00153230363568 7.196172695212496 
78.00153230363568 7.331278672555044 
79.00153230363568 7.728255472990274 
80.00153230363568 7.831805892857146 
81.00153230363568 7.95483027713774 
82.00153230363568 8.004371394009217 
83.00153230363568 8.764772448796725 
84.00153230363568 9.118514372759858 
85.00153230363568 8.2430820999744 
86.00153230363568 8.138950485791092 
87.00153230363568 8.113132052611368 
88.00153230363568 8.440924701100874 
89.00153230363568 8.61681388568869 
90.00153230363568 8.69858297363031 
91.00153230363568 8.054732482078855 
92.00153230363568 8.120508102278547 
93.00153230363568 8.263811477214544 
94.00153230363568 8.627324623015873 
95.00153230363568 9.460298729518692 
96.00153230363568 9.758995355222735 
97.00153230363568 9.751212023169483 
98.00153230363568 10.963029340757808 
99.00153230363568 11.07687116807476 
100.00153230363568 11.171038185483873 
101.00153230363568 12.626955887096775 
102.00153230363568 12.01737630440348 
103.00153230363568 12.16174016833077 
104.00153230363568 12.766598456861237 
105.00153230363568 13.153252879544288 
106.00153230363568 12.89368992959549 
107.00153230363568 13.31526332693292 
108.00153230363568 12.730804971198152 
109.00153230363568 13.414139158346135 
110.00153230363568 13.970232117895542 
111.00153230363568 14.280383253968253 
112.00153230363568 14.617280176651306 
113.00153230363568 14.828030664362519 
114.00153230363568 16.573756005504354 
115.00153230363568 16.865862933307728 
116.00153230363568 15.991361535458266 
117.00153230363568 16.853825949180745 
118.00153230363568 17.176213128520224 
119.00153230363568 18.66570570596518 
120.00153230363568 20.22990799411162 
121.00153230363568 21.03224876600102 
122.00153230363568 22.017755005760364 
123.00153230363568 22.00211272145417 
124.00153230363568 22.650634229390683 
125.00153230363568 26.00292370839734 
126.00153230363568 25.667975995903735 
127.00153230363568 25.984279080261135 
128.00153230363568 25.875675752048128 
129.00153230363568 26.148175399385554 
130.00153230363568 26.483362732334875 
131.00153230363568 26.69281364823349 
132.00153230363568 25.234996145673318 
133.00153230363568 26.447460357142866 
134.00153230363568 25.85135730286739 
135.00153230363568 26.56673540706606 
136.00153230363568 26.250642672811068 
137.00153230363568 26.485795321300564 
138.00153230363568 29.76828638952894 
139.00153230363568 26.42528266129033 
140.00153230363568 23.884219525729648 
141.00153230363568 24.16268600166411 
142.00153230363568 23.66375876984127 
143.00153230363568 25.152040101766534 
144.00153230363568 24.356582300947263 
145.00153230363568 23.287229747823865 
146.00153230363568 20.41772197324629 
147.00153230363568 21.669692272145426 
148.00153230363568 18.81622178763441 
149.00153230363568 21.71712847222222 
150.00153230363568 20.722567521121356 
151.00153230363568 19.135661088709682 
152.00153230363568 19.604901747311832 
153.00153230363568 18.612343609190994 
154.00153230363568 18.38414039234511 
155.00153230363568 17.934083853046594 
156.00153230363568 16.899469159626232 
157.00153230363568 15.46407910330261 
158.00153230363568 15.781401263440845 
159.00153230363568 15.327221793394783 
160.00153230363568 14.968709441884283 
161.00153230363568 12.12647548195084 
162.00153230363568 13.083486277521757 
163.00153230363568 12.128164621095747 
164.00153230363568 10.848828633512548 
165.00153230363568 11.217172318228359 
166.00153230363568 10.937531039426524 
167.00153230363568 10.563186568740397 
168.00153230363568 10.898770765489001 
169.00153230363568 10.35328727406554 
170.00153230363568 10.359902779697896 
171.00153230363568 10.11804538466462 
172.00153230363568 10.118539854710704 
173.00153230363568 10.144122755376342 
174.00153230363568 9.807548033794163 
175.00153230363568 9.90855969406042 
176.00153230363568 9.840208191244239 
177.00153230363568 9.706338605350744 
178.00153230363568 9.739502402713775 
179.00153230363568 9.739564719022017 
180.00153230363568 9.67230134280594 
181.00153230363568 9.73935837685612 
182.00153230363568 9.672191111751152 
183.00153230363568 9.705700506912443 
184.00153230363568 9.672090448028674 
185.00153230363568 9.672090448028674 
186.00153230363568 9.6721 
187.00153230363568 9.6721 
188.00153230363568 9.6721 
189.00153230363568 9.6721 
190.00153230363568 9.6721 
191.00153230363568 9.6721 
192.00153230363568 9.6721 
193.00153230363568 9.6721 
194.00153230363568 9.6721 
195.00153230363568 9.6721 
196.00153230363568 9.6721 
197.00153230363568 9.6721 
198.00153230363568 9.6721 
199.00153230363568 9.6721 
200.00153230363568 9.6721 
201.00153230363568 9.6721 
202.00153230363568 9.6721 
203.00153230363568 9.6721 
204.00153230363568 9.6721 
205.00153230363568 9.6721 
206.00153230363568 9.6721 
207.00153230363568 9.6721 
208.00153230363568 9.6721 
209.00153230363568 9.6721 
210.00153230363568 9.6721 
211.00153230363568 9.6721 
212.00153230363568 9.6721 
213.00153230363568 9.6721 
214.00153230363568 9.6721 
215.00153230363568 9.6721 
216.00153230363568 9.6721 
217.00153230363568 9.6721 
218.00153230363568 9.6721 
219.00153230363568 9.6721 
220.00153230363568 9.6721 
221.00153230363568 9.6721 
222.00153230363568 9.6721 
223.00153230363568 9.6721 
224.00153230363568 9.6721 
225.00153230363568 9.6721 
226.00153230363568 9.6721 
227.00153230363568 9.6721 
228.00153230363568 9.6721 
229.00153230363568 9.6721 
230.00153230363568 9.6721 
231.00153230363568 9.6721 
232.00153230363568 9.6721 
233.00153230363568 9.6721 
234.00153230363568 9.6721 
235.00153230363568 9.6721 
236.00153230363568 9.6721 
237.00153230363568 9.6721 
238.00153230363568 9.6721 
239.00153230363568 9.6721 
240.00153230363568 9.6721 
241.00153230363568 9.6721 
242.00153230363568 9.6721 
243.00153230363568 9.6721 
244.00153230363568 9.6721 
245.00153230363568 9.6721 
246.00153230363568 9.6721 
247.00153230363568 9.6721 
248.00153230363568 9.6721 
249.00153230363568 9.6721 
250.00153230363568 9.6721 
251.00153230363568 9.6721 
252.00153230363568 9.6721 
253.00153230363568 9.6721 
254.00153230363568 9.6721 
255.00153230363568 9.6721 
#####################################################################
# End of data export. Simulation finished at: 2017-05-26T15:07+0000 #
#####################################################################
