#####################################################################
# Alchemist log file - simulation started at: 2017-05-23T08:48+0000 #
#####################################################################
# random = 11.0, targets = 10.0, density = 14.160781367816199, gridShift = 0.0, perturbation = 0.0, connfactor = 0.5
#
# The columns have the following meaning: 
# time se[Mean] 
0.0 NaN 
1.0000311017741008 NaN 
2.000031101774101 1.0 
3.000031101774101 0.9996219592373439 
4.000031101774101 0.9976232741617357 
5.000031101774101 0.9937130177514794 
6.000031101774101 0.9887524654832347 
7.000031101774101 0.9810470085470085 
8.000031101774102 0.9793211702827086 
9.000031101774102 0.9726643655489811 
10.000031101774102 0.9717324128862589 
11.000031101774102 0.966614069690993 
12.000031101774102 0.9656969099276794 
13.000031101774102 0.9613593030900722 
14.000031101774102 0.9592258382642995 
15.000031101774102 0.9528500986193293 
16.000031101774102 0.9497304404996715 
17.000031101774102 0.9437146614069694 
18.000031101774102 0.9371531886916503 
19.000031101774102 0.931610782380013 
20.000031101774102 0.9269165023011176 
21.000031101774102 0.9190401051939516 
22.000031101774102 0.9142406311637084 
23.000031101774102 0.9103616042077576 
24.000031101774102 0.9043523997370149 
25.000031101774102 0.8986127547666013 
26.000031101774102 0.8927761341222878 
27.000031101774102 0.8851019066403685 
28.000031101774102 0.8771268902038127 
29.000031101774102 0.8678829717291251 
30.000031101774102 0.8572172912557525 
31.000031101774102 0.8466058514135428 
32.0000311017741 0.8321351084812617 
33.0000311017741 0.8216584483892171 
34.0000311017741 0.810682117028271 
35.0000311017741 0.795501314924391 
36.0000311017741 0.7836620644312949 
37.0000311017741 0.7731295200525974 
38.0000311017741 0.7623915187376722 
39.0000311017741 0.7527136752136763 
40.0000311017741 0.7421005917159774 
41.0000311017741 0.7292077580539117 
42.0000311017741 0.7186554898093347 
43.0000311017741 0.7146301775147926 
44.0000311017741 0.7085585141354377 
45.0000311017741 0.7011209730440494 
46.0000311017741 0.6999753451676523 
47.0000311017741 0.6940368178829706 
48.0000311017741 0.691168639053254 
49.0000311017741 0.6888330046022358 
50.0000311017741 0.6846679815910581 
51.0000311017741 0.6871301775147933 
52.0000311017741 0.6836078238001307 
53.0000311017741 0.6871597633136106 
54.0000311017741 0.6886916502301114 
55.0000311017741 0.6920299145299146 
56.0000311017741 0.6910470085470085 
57.0000311017741 0.6962952005259694 
58.0000311017741 0.6980999342537808 
59.0000311017741 0.7025969756739004 
60.0000311017741 0.7047978303747523 
61.0000311017741 0.7090401051939507 
62.0000311017741 0.71094181459566 
63.0000311017741 0.71525969756739 
64.0000311017741 0.7190023011176867 
65.0000311017741 0.7228040762656136 
66.0000311017741 0.7276643655489804 
67.0000311017741 0.7312278106508877 
68.0000311017741 0.737445759368837 
69.0000311017741 0.7429733727810658 
70.0000311017741 0.7459467455621297 
71.0000311017741 0.7520857988165679 
72.0000311017741 0.7574457593688364 
73.0000311017741 0.7615072320841548 
74.0000311017741 0.7654437869822487 
75.0000311017741 0.7714743589743586 
76.0000311017741 0.7741847468770541 
77.0000311017741 0.779002301117686 
78.0000311017741 0.7809631821170279 
79.0000311017741 0.7866863905325442 
80.0000311017741 0.7899227481919792 
81.0000311017741 0.7942011834319523 
82.0000311017741 0.794621959237344 
83.0000311017741 0.7984072978303747 
84.0000311017741 0.8017176199868508 
85.0000311017741 0.803456607495069 
86.0000311017741 0.8064447731755425 
87.0000311017741 0.8075361604207759 
88.0000311017741 0.8098948060486522 
89.0000311017741 0.8133760683760685 
90.0000311017741 0.8152005259697568 
91.0000311017741 0.8153698224852071 
92.0000311017741 0.8177547666009205 
93.0000311017741 0.8135848126232742 
94.0000311017741 0.8126495726495727 
95.0000311017741 0.8093902038132809 
96.0000311017741 0.8714283366206428 
97.0000311017741 1.0581541748849468 
98.0000311017741 1.117161406969091 
99.0000311017741 1.2446383957922458 
100.0000311017741 0.9918392504930934 
101.0000311017741 0.9925624589086112 
102.0000311017741 1.0576660092044718 
103.0000311017741 0.8047945430637741 
104.0000311017741 0.9891173570019689 
105.0000311017741 0.985539119000659 
106.0000311017741 0.8575410913872462 
107.0000311017741 0.9818984220907286 
108.0000311017741 0.8516666666666662 
109.0000311017741 0.9737639710716615 
110.0000311017741 0.8440138067061138 
111.0000311017741 0.9013658777120309 
112.0000311017741 0.9026824457593702 
113.0000311017741 0.9622468770545717 
114.0000311017741 0.8381722550953321 
115.0000311017741 0.903509204470743 
116.0000311017741 0.8490154503616049 
117.0000311017741 0.9609582511505572 
118.0000311017741 0.8368622616699546 
119.0000311017741 0.8813740959894817 
120.0000311017741 0.8687836949375404 
121.0000311017741 0.8797633136094668 
122.0000311017741 0.8667587113740959 
123.0000311017741 0.803380999342538 
124.0000311017741 0.920307363576595 
125.0000311017741 0.8373865877712037 
126.0000311017741 0.8462343852728471 
127.0000311017741 0.7611209730440499 
128.00003110177408 0.8837130177514796 
129.00003110177408 0.8111094674556216 
130.00003110177408 0.8030982905982901 
131.00003110177408 0.7977449046679822 
132.00003110177408 0.7972896120973036 
133.00003110177408 0.7823997370151217 
134.00003110177408 0.7060075608152532 
135.00003110177408 0.8121761998685089 
136.00003110177408 0.7454454306377375 
137.00003110177408 0.7217291255752802 
138.00003110177408 0.7141748849441146 
139.00003110177408 0.6377679158448388 
140.00003110177408 0.7447600262984895 
141.00003110177408 0.6189677843523994 
142.00003110177408 0.7137919132149897 
143.00003110177408 0.6499457593688377 
144.00003110177408 0.558124589086127 
145.00003110177408 0.6174260355029582 
146.00003110177408 0.5934730440499677 
147.00003110177408 0.6493392504930943 
148.00003110177408 0.5672945430637729 
149.00003110177408 0.4884533201840873 
150.00003110177408 0.5980982905982881 
151.00003110177408 0.46080539119000596 
152.00003110177408 0.45417159763313625 
153.00003110177408 0.43360124917817094 
154.00003110177408 0.3628418803418815 
155.00003110177408 0.34642011834319497 
156.00003110177408 0.33067882971729096 
157.00003110177408 0.31804404996712626 
158.00003110177408 0.29760190664036806 
159.00003110177408 0.29526955950032885 
160.00003110177408 0.26859631821170377 
161.00003110177408 0.25412721893491086 
162.00003110177408 0.24473208415516012 
163.00003110177408 0.22251150558842772 
164.00003110177408 0.22021203155818583 
165.00003110177408 0.1987376725838264 
166.00003110177408 0.1884878369493751 
167.00003110177408 0.17358152531229568 
168.00003110177408 0.14715483234714055 
169.00003110177408 0.15074786324786316 
170.00003110177408 0.13164694280078862 
171.00003110177408 0.12126890203813318 
172.00003110177408 0.11146614069690979 
173.00003110177408 0.09764628533859324 
174.00003110177408 0.1039020381328073 
175.00003110177408 0.09262656147271542 
176.00003110177408 0.09369986850756072 
177.00003110177408 0.08542570677186083 
178.00003110177408 0.07847961867192639 
179.00003110177408 0.07612426035502964 
180.00003110177408 0.07153846153846155 
181.00003110177408 0.07043063773833003 
182.00003110177408 0.062348783694937425 
183.00003110177408 0.05697896120973051 
184.00003110177408 0.059533201840894306 
185.00003110177408 0.05117028270874423 
186.00003110177408 0.04843030900723197 
187.00003110177408 0.04555555555555577 
188.00003110177408 0.03957758053911903 
189.00003110177408 0.03666337935568694 
190.00003110177408 0.032912557527942234 
191.00003110177408 0.030504602235371416 
192.00003110177408 0.027629848783694923 
193.00003110177408 0.023818211702826966 
194.00003110177408 0.020782380013149256 
195.00003110177408 0.01861604207758039 
196.00003110177408 0.01616370808678495 
197.00003110177408 0.014008875739645104 
198.00003110177408 0.012018408941485832 
199.00003110177408 0.010828402366863846 
200.00003110177408 0.009607166337935586 
201.00003110177408 0.008648915187376713 
202.00003110177408 0.008570019723865898 
203.00003110177408 0.008032544378698247 
204.00003110177408 0.007416173570019737 
205.00003110177408 0.006785009861932966 
206.00003110177408 0.006073307034845531 
207.00003110177408 0.006060157790927003 
208.00003110177408 0.005465154503616024 
209.00003110177408 0.005430637738330022 
210.00003110177408 0.005299145299145299 
211.00003110177408 0.0046088099934253664 
212.00003110177408 0.0042866535174227545 
213.00003110177408 0.004253780407626573 
214.00003110177408 0.004411571334648256 
215.00003110177408 0.003885601577909297 
216.00003110177408 0.0031097961867192748 
217.00003110177408 0.0032215647600263293 
218.00003110177408 0.0026955950032873373 
219.00003110177408 0.0019460880999342602 
220.00003110177408 0.0015844838921762114 
221.00003110177408 0.0010059171597633226 
222.00003110177408 4.930966469427991E-4 
223.00003110177408 2.5641025641025034E-4 
224.00003110177408 1.3806706114398667E-4 
225.00003110177408 6.574621959237257E-6 
226.00003110177408 0.0 
227.00003110177408 0.0 
228.00003110177408 0.0 
229.00003110177408 0.0 
230.00003110177408 0.0 
231.00003110177408 0.0 
232.00003110177408 0.0 
233.00003110177408 0.0 
234.00003110177408 0.0 
235.00003110177408 0.0 
236.00003110177408 0.0 
237.00003110177408 0.0 
238.00003110177408 0.0 
239.00003110177408 0.0 
240.00003110177408 0.0 
241.00003110177408 0.0 
242.00003110177408 0.0 
243.00003110177408 0.0 
244.00003110177408 0.0 
245.00003110177408 0.0 
246.00003110177408 0.0 
247.00003110177408 0.0 
248.00003110177408 0.0 
249.00003110177408 0.0 
250.00003110177408 0.0 
251.00003110177408 0.0 
252.00003110177408 0.0 
253.00003110177408 0.0 
254.00003110177408 0.0 
255.00003110177408 0.0 
256.0000311017741 0.0 
257.0000311017741 0.0 
258.0000311017741 0.0 
259.0000311017741 0.0 
260.0000311017741 0.0 
261.0000311017741 0.0 
262.0000311017741 0.0 
263.0000311017741 0.0 
264.0000311017741 0.0 
265.0000311017741 0.0 
266.0000311017741 0.0 
267.0000311017741 0.0 
268.0000311017741 0.0 
269.0000311017741 0.0 
270.0000311017741 0.0 
271.0000311017741 0.0 
272.0000311017741 0.0 
273.0000311017741 0.0 
274.0000311017741 0.0 
275.0000311017741 0.0 
276.0000311017741 0.0 
277.0000311017741 0.0 
278.0000311017741 0.0 
279.0000311017741 0.0 
280.0000311017741 0.0 
281.0000311017741 0.0 
282.0000311017741 0.0 
283.0000311017741 0.0 
284.0000311017741 0.0 
285.0000311017741 0.0 
286.0000311017741 0.0 
287.0000311017741 0.0 
288.0000311017741 0.0 
289.0000311017741 0.0 
290.0000311017741 0.0 
291.0000311017741 0.0 
292.0000311017741 0.0 
293.0000311017741 0.0 
294.0000311017741 0.0 
295.0000311017741 0.0 
296.0000311017741 0.0 
297.0000311017741 0.0 
298.0000311017741 0.0 
299.0000311017741 0.0 
300.0000311017741 0.0 
301.0000311017741 0.0 
302.0000311017741 0.0 
303.0000311017741 0.0 
304.0000311017741 0.0 
305.0000311017741 0.0 
306.0000311017741 0.0 
307.0000311017741 0.0 
308.0000311017741 0.0 
309.0000311017741 0.0 
310.0000311017741 0.0 
311.0000311017741 0.0 
312.0000311017741 0.0 
313.0000311017741 0.0 
314.0000311017741 0.0 
#####################################################################
# End of data export. Simulation finished at: 2017-05-23T08:52+0000 #
#####################################################################
