#####################################################################
# Alchemist log file - simulation started at: 2017-05-23T16:31+0000 #
#####################################################################
# random = 12.0, targets = 10.0, density = 0.4483936332993466, gridShift = 1.0, perturbation = 0.5, connfactor = 2.0
#
# The columns have the following meaning: 
# time se[Mean] 
0.0 NaN 
1.0005590746559656 NaN 
2.000559074655966 1.6405208333333332 
3.000559074655966 2.0616512345679014 
4.000559074655966 2.454664351851852 
5.000559074655966 2.594490740740741 
6.000559074655966 2.4786921296296303 
7.000559074655966 1.9328009259259264 
8.000559074655966 2.3194483024691364 
9.000559074655966 1.8755979938271607 
10.000559074655966 1.7998533950617286 
11.000559074655966 1.9619868827160496 
12.000559074655966 1.660127314814815 
13.000559074655966 1.743950617283951 
14.000559074655966 1.4325578703703707 
15.000559074655966 1.314888117283951 
16.000559074655968 0.8784413580246917 
17.000559074655968 0.8635262345679017 
18.000559074655968 0.7945949074074078 
19.000559074655968 0.8009490740740746 
20.000559074655968 0.7503009259259263 
21.000559074655968 0.7664429012345685 
22.000559074655968 0.683248456790124 
23.000559074655968 0.7285725308641982 
24.000559074655968 0.6457445987654327 
25.000559074655968 0.6700424382716056 
26.000559074655968 0.662125771604939 
27.000559074655968 0.6742129629629636 
28.000559074655968 0.7120331790123465 
29.000559074655968 0.6756404320987662 
30.000559074655968 0.7052430555555564 
31.000559074655968 0.6605825617283959 
32.00055907465597 0.661111111111112 
33.00055907465597 0.5938657407407415 
34.00055907465597 0.5704745370370378 
35.00055907465597 0.521728395061729 
36.00055907465597 0.5203626543209883 
37.00055907465597 0.48972608024691405 
38.00055907465597 0.4893595679012351 
39.00055907465597 0.4893595679012351 
40.00055907465597 0.4900000000000005 
41.00055907465597 0.4900000000000005 
42.00055907465597 0.4900000000000005 
43.00055907465597 0.4900000000000005 
44.00055907465597 0.4900000000000005 
45.00055907465597 0.4900000000000005 
46.00055907465597 0.4900000000000005 
47.00055907465597 0.4900000000000005 
48.00055907465597 0.4900000000000005 
49.00055907465597 0.4900000000000005 
50.00055907465597 0.4900000000000005 
51.00055907465597 0.4900000000000005 
#####################################################################
# End of data export. Simulation finished at: 2017-05-23T16:31+0000 #
#####################################################################
