#####################################################################
# Alchemist log file - simulation started at: 2017-05-23T22:07+0000 #
#####################################################################
# random = 6.0, targets = 1.0, density = 0.11269076455391362, gridShift = 0.0, perturbation = 0.5, connfactor = 1.5
#
# The columns have the following meaning: 
# time se[Mean] 
0.0 NaN 
1.0115592716150654 NaN 
2.0115592716150656 1.0 
3.0115592716150656 0.9611111111111111 
4.011559271615066 1.2044444444444447 
5.011559271615066 2.038055555555556 
6.011559271615066 1.2519444444444445 
7.011559271615066 2.681666666666667 
8.011559271615067 1.9672222222222222 
9.011559271615067 2.230833333333334 
10.011559271615067 2.125833333333334 
11.011559271615067 1.0836111111111113 
12.011559271615067 1.0783333333333334 
13.011559271615067 0.8325000000000001 
14.011559271615067 0.6047222222222222 
15.011559271615067 0.3408333333333334 
16.011559271615067 0.2366666666666667 
17.011559271615067 0.2788888888888889 
18.011559271615067 0.2588888888888889 
19.011559271615067 0.18111111111111114 
20.011559271615067 0.17777777777777778 
21.011559271615067 0.16000000000000003 
22.011559271615067 0.18472222222222223 
23.011559271615067 0.20388888888888893 
24.011559271615067 0.18555555555555556 
25.011559271615067 0.3547222222222221 
26.011559271615067 0.17 
27.011559271615067 0.27249999999999985 
28.011559271615067 0.24361111111111103 
29.011559271615067 0.18777777777777765 
30.011559271615067 0.09388888888888881 
31.011559271615067 1.232595164407831E-32 
32.01155927161507 1.232595164407831E-32 
33.01155927161507 1.232595164407831E-32 
34.01155927161507 1.232595164407831E-32 
35.01155927161507 1.232595164407831E-32 
36.01155927161507 1.232595164407831E-32 
#####################################################################
# End of data export. Simulation finished at: 2017-05-23T22:07+0000 #
#####################################################################
