#####################################################################
# Alchemist log file - simulation started at: 2017-05-25T07:57+0000 #
#####################################################################
# random = 8.0, targets = 1.0, density = 0.6332893950589894, gridShift = 1.0, perturbation = 0.0, connfactor = 1.0
#
# The columns have the following meaning: 
# time se[Mean] 
0.0 NaN 
1.0447112257851685 NaN 
2.0447112257851687 1.0 
3.0447112257851687 1.0 
4.044711225785169 1.0138888888888888 
5.044711225785169 1.0333333333333334 
6.044711225785169 1.0361111111111112 
7.044711225785169 1.0472222222222223 
8.044711225785168 0.975 
9.044711225785168 0.95 
10.044711225785168 0.8055555555555557 
11.044711225785168 0.827777777777778 
12.044711225785168 0.7749999999999999 
13.044711225785168 0.7916666666666667 
14.044711225785168 0.8000000000000002 
15.044711225785168 0.8416666666666667 
16.044711225785168 0.8666666666666667 
17.044711225785168 0.9083333333333333 
18.044711225785168 0.9382716049382717 
19.044711225785168 1.019753086419753 
20.044711225785168 0.9212962962962963 
21.044711225785168 1.3814814814814809 
22.044711225785168 1.23395061728395 
23.044711225785168 1.3299382716049375 
24.044711225785168 1.2231481481481477 
25.044711225785168 1.1299382716049378 
26.044711225785168 1.1163580246913574 
27.044711225785168 0.8629629629629625 
28.044711225785168 0.5163580246913578 
29.044711225785168 0.18580246913580248 
30.044711225785168 0.12191358024691358 
31.044711225785168 0.07530864197530865 
32.044711225785164 0.04043209876543212 
33.044711225785164 0.02345679012345679 
34.044711225785164 0.0064814814814814865 
35.044711225785164 0.003086419753086416 
36.044711225785164 4.930380657631324E-32 
37.044711225785164 4.930380657631324E-32 
38.044711225785164 4.930380657631324E-32 
39.044711225785164 4.930380657631324E-32 
40.044711225785164 4.930380657631324E-32 
41.044711225785164 4.930380657631324E-32 
42.044711225785164 4.930380657631324E-32 
43.044711225785164 4.930380657631324E-32 
44.044711225785164 4.930380657631324E-32 
45.044711225785164 4.930380657631324E-32 
46.044711225785164 4.930380657631324E-32 
47.044711225785164 4.930380657631324E-32 
48.044711225785164 4.930380657631324E-32 
49.044711225785164 4.930380657631324E-32 
50.044711225785164 4.930380657631324E-32 
51.044711225785164 4.930380657631324E-32 
#####################################################################
# End of data export. Simulation finished at: 2017-05-25T07:57+0000 #
#####################################################################
