#####################################################################
# Alchemist log file - simulation started at: 2017-05-25T23:07+0000 #
#####################################################################
# random = 19.0, targets = 10.0, density = 0.2247883923996312, gridShift = 0.0, perturbation = 0.5, connfactor = 2.0
#
# The columns have the following meaning: 
# time se[Mean] 
0.0 NaN 
1.029399693434633 NaN 
2.029399693434633 1.0302083333333334 
3.029399693434633 1.0861072530864198 
4.029399693434633 1.7654918981481482 
5.029399693434633 1.8480054012345681 
6.029399693434633 4.248987268518519 
7.029399693434633 5.17224151234568 
8.029399693434634 5.966570216049384 
9.029399693434634 6.217191358024692 
10.029399693434634 4.115412808641976 
11.029399693434634 4.837729552469137 
12.029399693434634 5.214668209876544 
13.029399693434634 5.160418595679013 
14.029399693434634 4.090370370370371 
15.029399693434634 7.581959876543212 
16.029399693434634 6.250497685185187 
17.029399693434634 12.12880015432099 
18.029399693434634 7.684315200617285 
19.029399693434634 15.265362654320992 
20.029399693434634 18.141878858024697 
21.029399693434634 16.396485339506178 
22.029399693434634 18.7544000771605 
23.029399693434634 21.781469907407413 
24.029399693434634 12.296358024691362 
25.029399693434634 15.209392361111114 
26.029399693434634 11.59448302469136 
27.029399693434634 10.03329475308642 
28.029399693434634 11.951327160493827 
29.029399693434634 12.85832561728395 
30.029399693434634 15.664402006172839 
31.029399693434634 19.382903163580245 
32.029399693434634 16.398560956790124 
33.029399693434634 21.435530478395062 
34.029399693434634 23.08407600308642 
35.029399693434634 19.127949459876543 
36.029399693434634 21.076082175925926 
37.029399693434634 20.82672646604938 
38.029399693434634 14.924756944444445 
39.029399693434634 16.221857638888885 
40.029399693434634 13.56737847222222 
41.029399693434634 12.25 
42.029399693434634 12.25 
43.029399693434634 12.25 
44.029399693434634 12.25 
45.029399693434634 12.25 
46.029399693434634 12.25 
47.029399693434634 12.25 
48.029399693434634 12.25 
49.029399693434634 12.25 
50.029399693434634 12.25 
51.029399693434634 12.25 
#####################################################################
# End of data export. Simulation finished at: 2017-05-25T23:07+0000 #
#####################################################################
