#####################################################################
# Alchemist log file - simulation started at: 2017-05-25T08:08+0000 #
#####################################################################
# random = 8.0, targets = 1.0, density = 2.519842099789746, gridShift = 1.0, perturbation = 0.5, connfactor = 0.1
#
# The columns have the following meaning: 
# time se[Mean] 
0.0 NaN 
1.001230439556543 NaN 
2.001230439556543 1.0 
3.001230439556543 1.0 
4.001230439556543 1.0 
5.001230439556543 1.0 
6.001230439556543 1.0 
7.001230439556543 1.0 
8.001230439556544 1.0 
9.001230439556544 1.0 
10.001230439556544 1.0 
11.001230439556544 1.0 
12.001230439556544 1.0 
13.001230439556544 1.0 
14.001230439556544 1.0 
15.001230439556544 1.0 
16.001230439556544 1.0 
17.001230439556544 1.0 
18.001230439556544 1.0 
19.001230439556544 1.0 
20.001230439556544 1.0 
21.001230439556544 1.0 
22.001230439556544 1.0 
23.001230439556544 1.0 
24.001230439556544 1.0 
25.001230439556544 1.0 
26.001230439556544 1.0 
27.001230439556544 1.0 
28.001230439556544 1.0 
29.001230439556544 1.0 
30.001230439556544 1.0 
31.001230439556544 1.0 
32.001230439556544 1.0 
33.001230439556544 1.0 
#####################################################################
# End of data export. Simulation finished at: 2017-05-25T08:09+0000 #
#####################################################################
