#####################################################################
# Alchemist log file - simulation started at: 2017-05-23T06:58+0000 #
#####################################################################
# random = 11.0, targets = 3.1622776601683795, density = 1.2632455339402642, gridShift = 0.0, perturbation = 0.5, connfactor = 2.0
#
# The columns have the following meaning: 
# time se[Mean] 
0.0 NaN 
1.0028758930102715 NaN 
2.0028758930102715 1.0908750465956016 
3.0028758930102715 1.2015615381063143 
4.0028758930102715 1.301872898576932 
5.0028758930102715 1.4299356392310212 
6.0028758930102715 1.3365170528626122 
7.0028758930102715 1.344523172890667 
8.002875893010271 1.3039244893460689 
9.002875893010271 1.584758463871754 
10.002875893010271 1.8371031218101672 
11.002875893010271 2.031304366673675 
12.002875893010271 2.4444066358084044 
13.002875893010271 2.3248244711754564 
14.002875893010271 2.45007028759886 
15.002875893010271 2.5160487318711757 
16.00287589301027 2.4138759144606765 
17.00287589301027 2.433067739410916 
18.00287589301027 2.424084948588281 
19.00287589301027 2.328389876569589 
20.00287589301027 2.2386411497277123 
21.00287589301027 2.2263267301789167 
22.00287589301027 2.13778415658616 
23.00287589301027 2.071993428473315 
24.00287589301027 1.983448257835294 
25.00287589301027 1.8584210971452706 
26.00287589301027 1.9540005181609899 
27.00287589301027 2.711272825021945 
28.00287589301027 2.83193281143313 
29.00287589301027 6.989506602913494 
30.00287589301027 6.269428135071506 
31.00287589301027 7.520913279612549 
32.00287589301027 12.423649111119442 
33.00287589301027 10.633447222975839 
34.00287589301027 12.375973473829935 
35.00287589301027 11.231411006306523 
36.00287589301027 14.030187362446181 
37.00287589301027 13.385500370531728 
38.00287589301027 16.583690617529093 
39.00287589301027 17.75437792960764 
40.00287589301027 23.362649200817646 
41.00287589301027 18.98008434211696 
42.00287589301027 20.16372490668482 
43.00287589301027 28.020780106200394 
44.00287589301027 22.22763881455607 
45.00287589301027 21.164691869605218 
46.00287589301027 23.090133739849083 
47.00287589301027 21.249266216825905 
48.00287589301027 22.463233609191743 
49.00287589301027 21.65203089539287 
50.00287589301027 24.3453015923616 
51.00287589301027 23.402200101680478 
52.00287589301027 21.29955396752141 
53.00287589301027 22.298193238785988 
54.00287589301027 24.773938769552263 
55.00287589301027 18.8491047560803 
56.00287589301027 16.691781781340243 
57.00287589301027 18.21603889561239 
58.00287589301027 15.437144505955068 
59.00287589301027 14.291026098760636 
60.00287589301027 13.184649336375454 
61.00287589301027 12.445264654208014 
62.00287589301027 12.81186919396069 
63.00287589301027 12.459336503705945 
64.00287589301027 12.461862325498894 
65.00287589301027 12.453187287239722 
66.00287589301027 12.459644256269407 
67.00287589301027 12.459644256269407 
68.00287589301027 12.459644256269407 
69.00287589301027 12.459644256269407 
70.00287589301027 12.459644256269407 
71.00287589301027 12.459644256269407 
72.00287589301027 12.459644256269407 
73.00287589301027 12.459644256269407 
74.00287589301027 12.459644256269407 
75.00287589301027 12.459644256269407 
76.00287589301027 12.459644256269407 
77.00287589301027 12.459644256269407 
78.00287589301027 12.459644256269407 
79.00287589301027 12.459644256269407 
80.00287589301027 12.459644256269407 
81.00287589301027 12.459644256269407 
82.00287589301027 12.459644256269407 
83.00287589301027 12.459644256269407 
84.00287589301027 12.459644256269407 
85.00287589301027 12.459644256269407 
86.00287589301027 12.459644256269407 
87.00287589301027 12.459644256269407 
88.00287589301027 12.459644256269407 
#####################################################################
# End of data export. Simulation finished at: 2017-05-23T06:58+0000 #
#####################################################################
