#####################################################################
# Alchemist log file - simulation started at: 2017-05-23T05:37+0000 #
#####################################################################
# random = 10.0, targets = 100.0, density = 20.0, gridShift = 1.0, perturbation = 0.5, connfactor = 0.1
#
# The columns have the following meaning: 
# time se[Mean] 
0.0 NaN 
1.0001899309342401 NaN 
2.00018993093424 NaN 
3.00018993093424 1.0 
4.000189930934241 0.9999905552918842 
5.000189930934241 0.9999433317513051 
6.000189930934241 0.9998489795918367 
7.000189930934241 0.9997549121974371 
8.00018993093424 0.9996797342192691 
9.00018993093424 0.9995668723303275 
10.00018993093424 0.9994728049359278 
11.00018993093424 0.9994823445657333 
12.00018993093424 0.9994728049359278 
13.00018993093424 0.9993878974845752 
14.00018993093424 0.999330849549122 
15.00018993093424 0.9993494542002848 
16.00018993093424 0.9992642619838633 
17.00018993093424 0.9991035121025155 
18.00018993093424 0.9990372093023255 
19.00018993093424 0.9989990507831039 
20.00018993093424 0.9989705268153773 
21.00018993093424 0.9988760797342192 
22.00018993093424 0.998696630280019 
23.00018993093424 0.9986588514475557 
24.00018993093424 0.9984416231608922 
25.00018993093424 0.9983849549121975 
26.00018993093424 0.9982810631229236 
27.00018993093424 0.9981677266255339 
28.00018993093424 0.9979977218794495 
29.00018993093424 0.9979316089226388 
30.00018993093424 0.9977332700522069 
31.00018993093424 0.9976954912197437 
32.00018993093424 0.9975821547223541 
33.00018993093424 0.9974877076411961 
34.00018993093424 0.9973554817275747 
35.00018993093424 0.9972893687707641 
36.00018993093424 0.9972422401518747 
37.00018993093424 0.9971291884195539 
38.00018993093424 0.9971765068818225 
39.00018993093424 0.9971201233981964 
40.00018993093424 0.9970261509254865 
41.00018993093424 0.9971489321309919 
42.00018993093424 0.9968767441860464 
43.00018993093424 0.9969051732320835 
44.00018993093424 0.9966517797816801 
45.00018993093424 0.9964831988609397 
46.00018993093424 0.9964820598006645 
47.00018993093424 0.9962012814428096 
48.00018993093424 0.9960311817750357 
49.00018993093424 0.9957126245847175 
50.00018993093424 0.9957025154247746 
51.00018993093424 0.995409634551495 
52.00018993093424 0.9953715709539629 
53.00018993093424 0.995005030849549 
54.00018993093424 0.9946099667774085 
55.00018993093424 0.9946449928808733 
56.00018993093424 0.9942410536307547 
57.00018993093424 0.9938728049359278 
58.00018993093424 0.9936092074038916 
59.00018993093424 0.9934121025154247 
60.00018993093424 0.9930610346464167 
61.00018993093424 0.9932192216421452 
62.00018993093424 0.9924301376364498 
63.00018993093424 0.9923642145230184 
64.00018993093424 0.9923517323208352 
65.00018993093424 0.9919574276222116 
66.00018993093424 0.9918688182249643 
67.00018993093424 0.9915128618889415 
68.00018993093424 0.9911922164214523 
69.00018993093424 0.9907409587090649 
70.00018993093424 0.9907383009017559 
71.00018993093424 0.9901285714285712 
72.00018993093424 0.9900505457997153 
73.00018993093424 0.9895062648315139 
74.00018993093424 0.9891949691504508 
75.00018993093424 0.9889111532985287 
76.00018993093424 0.9883577123872803 
77.00018993093424 0.9879993830090176 
78.00018993093424 0.9875858092074037 
79.00018993093424 0.9873129568106315 
80.00018993093424 0.9869558614143332 
81.00018993093424 0.9864627906976744 
82.00018993093424 0.985772852396773 
83.00018993093424 0.9851959183673473 
84.00018993093424 0.984505980066445 
85.00018993093424 0.9833492168960608 
86.00018993093424 0.9820862363550068 
87.00018993093424 0.9805073089700992 
88.00018993093424 0.9791922164214522 
89.00018993093424 0.97642757475083 
90.00018993093424 0.9768037494067399 
91.00018993093424 0.9737276222116759 
92.00018993093424 0.973713146654011 
93.00018993093424 0.9702014712861892 
94.00018993093424 0.969512197437115 
95.00018993093424 0.9703356905552916 
96.00018993093424 0.9691527764594204 
97.00018993093424 0.9673234456573324 
98.00018993093424 0.9654919791172284 
99.00018993093424 0.9665329852871387 
100.00018993093424 0.9641260085429514 
101.00018993093424 0.9645298528713808 
102.00018993093424 0.9616963929757953 
103.00018993093424 0.9583571428571421 
104.00018993093424 0.9607617940199337 
105.00018993093424 0.9594684385382054 
106.00018993093424 0.957118841955387 
107.00018993093424 0.9541539155196958 
108.00018993093424 0.956568770764119 
109.00018993093424 0.9522505457997147 
110.00018993093424 0.9566087802562889 
111.00018993093424 0.9517310393925016 
112.00018993093424 0.9515802088277165 
113.00018993093424 0.9496128144280963 
114.00018993093424 0.9523209302325584 
115.00018993093424 0.9501860465116275 
116.00018993093424 0.9503247271001422 
117.00018993093424 0.9494498338870427 
118.00018993093424 0.9491425723777882 
119.00018993093424 0.9505201708590414 
120.00018993093424 0.9465917418130041 
121.00018993093424 0.948784765068818 
122.00018993093424 0.9455555766492643 
123.00018993093424 0.9461251067869008 
124.00018993093424 0.948801661129568 
125.00018993093424 0.9487015662078785 
126.00018993093424 0.9492611295681064 
127.00018993093424 0.9482208353108688 
128.00018993093425 0.9485168485999051 
129.00018993093425 0.9468030374940676 
130.00018993093425 0.9464739914570479 
131.00018993093425 0.9492026103464644 
132.00018993093425 0.946967062173707 
133.00018993093425 0.9479391077361179 
134.00018993093425 0.9474962980541054 
135.00018993093425 0.9492184148077836 
136.00018993093425 0.9475373042240154 
137.00018993093425 0.9489353583293784 
138.00018993093425 0.9476922164214523 
139.00018993093425 0.9446559088751781 
140.00018993093425 0.9484314665401042 
141.00018993093425 0.9488893687707644 
142.00018993093425 0.9492669672520174 
143.00018993093425 0.9498759373516851 
144.00018993093425 0.9509587565258665 
145.00018993093425 0.9519745135263408 
146.00018993093425 0.9507416231608926 
147.00018993093425 0.9531345040341717 
148.00018993093425 0.954117085904129 
149.00018993093425 0.9554645942097771 
150.00018993093425 0.958321214997627 
151.00018993093425 0.9589737541528239 
152.00018993093425 0.9585910299003323 
153.00018993093425 0.9586854295206455 
154.00018993093425 0.9584658756525867 
155.00018993093425 0.957756383483626 
156.00018993093425 0.9583654959658282 
157.00018993093425 0.9583467014712862 
158.00018993093425 0.958139534883721 
159.00018993093425 0.9583279069767442 
160.00018993093425 0.9587046511627907 
161.00018993093425 0.958579069767442 
162.00018993093425 0.9584442335073565 
163.00018993093425 0.958846748932131 
164.00018993093425 0.9588004746084481 
165.00018993093425 0.9589148077835786 
166.00018993093425 0.9597363550071192 
167.00018993093425 0.9597693877551021 
168.00018993093425 0.9596563360227812 
169.00018993093425 0.9596873754152824 
170.00018993093425 0.9594560037968677 
171.00018993093425 0.9592246321784528 
172.00018993093425 0.9590210251542478 
173.00018993093425 0.9588174181300427 
174.00018993093425 0.9585675367821547 
175.00018993093425 0.958289890840057 
176.00018993093425 0.9580770289511154 
177.00018993093425 0.957790128144281 
178.00018993093425 0.9575309919316565 
179.00018993093425 0.9572348362600854 
180.00018993093425 0.9567372093023256 
181.00018993093425 0.95593132415757 
182.00018993093425 0.9549995253915518 
183.00018993093425 0.95370484100617 
184.00018993093425 0.9521429995253916 
185.00018993093425 0.9511587090650213 
186.00018993093425 0.9493018035121027 
187.00018993093425 0.9485191267204555 
188.00018993093425 0.9461215472235406 
189.00018993093425 0.9449467014712862 
190.00018993093425 0.9437941623160895 
191.00018993093425 0.9438155196962509 
192.00018993093425 0.9431396298054108 
193.00018993093425 0.9417407214048414 
194.00018993093425 0.9411581395348839 
195.00018993093425 0.9402364973896539 
196.00018993093425 0.9402123398196489 
197.00018993093425 0.9385315614617942 
198.00018993093425 0.9369824394874225 
199.00018993093425 0.9359058376839103 
200.00018993093425 0.9354728523967722 
201.00018993093425 0.934864973896535 
202.00018993093425 0.9328738965353586 
203.00018993093425 0.9319000949216896 
204.00018993093425 0.9306710963455146 
205.00018993093425 0.93209990507831 
206.00018993093425 0.9299168485999052 
207.00018993093425 0.9295826767916464 
208.00018993093425 0.9267857142857139 
209.00018993093425 0.9271816326530614 
210.00018993093425 0.9265967252017087 
211.00018993093425 0.9273056953013762 
212.00018993093425 0.9261503084954911 
213.00018993093425 0.9264096345514948 
214.00018993093425 0.9270453725676319 
215.00018993093425 0.9256463692453726 
216.00018993093425 0.9250023730422402 
217.00018993093425 0.922245799715235 
218.00018993093425 0.9211177978168011 
219.00018993093425 0.920627005220693 
220.00018993093425 0.9212567157095394 
221.00018993093425 0.9206182724252491 
222.00018993093425 0.9208881347887993 
223.00018993093425 0.9191599430469862 
224.00018993093425 0.9176780256288563 
225.00018993093425 0.9153645467489321 
226.00018993093425 0.9140984812529663 
227.00018993093425 0.9150668248694825 
228.00018993093425 0.9158784053156145 
229.00018993093425 0.9142864261983862 
230.00018993093425 0.9138233032747982 
231.00018993093425 0.9161750355956335 
232.00018993093425 0.9152458471760796 
233.00018993093425 0.9147962980541052 
234.00018993093425 0.9129849074513527 
235.00018993093425 0.9091363550071191 
236.00018993093425 0.9108666824869481 
237.00018993093425 0.912737114380636 
238.00018993093425 0.9100726150925486 
239.00018993093425 0.9092361651637398 
240.00018993093425 0.9126521120075938 
241.00018993093425 0.9109449928808733 
242.00018993093425 0.9140635500711912 
243.00018993093425 0.9121646891314663 
244.00018993093425 0.9119371143806358 
245.00018993093425 0.9130424774560987 
246.00018993093425 0.9187024679639296 
247.00018993093425 0.9191174655908875 
248.00018993093425 0.9213935927859517 
249.00018993093425 0.9212799715234932 
250.00018993093425 0.9225036544850499 
251.00018993093425 0.924395870906502 
252.00018993093425 0.9204110109159943 
253.00018993093425 0.9211720930232558 
254.00018993093425 0.9190623160892265 
255.00018993093425 0.9197949216896062 
256.00018993093425 0.9223158044613193 
257.00018993093425 0.924176601803512 
258.00018993093425 0.9249282392026577 
259.00018993093425 0.9246083056478407 
260.00018993093425 0.9256635500711913 
261.00018993093425 0.9244849549121972 
262.00018993093425 0.9237189843379212 
263.00018993093425 0.9264807783578549 
264.00018993093425 0.9254012339819646 
265.00018993093425 0.9264826293308018 
266.00018993093425 0.9266938775510203 
267.00018993093425 0.9287184622686285 
268.00018993093425 0.9283045562411009 
269.00018993093425 0.9288155671570951 
270.00018993093425 0.9285067394399622 
271.00018993093425 0.9250407214048413 
272.00018993093425 0.9269670147128624 
273.00018993093425 0.9279224015187475 
274.00018993093425 0.9270292358803983 
275.00018993093425 0.9276357854769812 
276.00018993093425 0.9297087327954442 
277.00018993093425 0.929686521120076 
278.00018993093425 0.9288999999999996 
279.00018993093425 0.9307929757949691 
280.00018993093425 0.9314617465590889 
281.00018993093425 0.9323549121974373 
282.00018993093425 0.9371073564309442 
283.00018993093425 0.939135880398671 
284.00018993093425 0.9396246796392975 
285.00018993093425 0.9406133839582345 
286.00018993093425 0.9409 
287.00018993093425 0.9409 
288.00018993093425 0.9409 
289.00018993093425 0.9409 
290.00018993093425 0.9409 
291.00018993093425 0.9409 
292.00018993093425 0.9409 
293.00018993093425 0.9409 
294.00018993093425 0.9409 
295.00018993093425 0.9409 
296.00018993093425 0.9409 
297.00018993093425 0.9409 
298.00018993093425 0.9409 
299.00018993093425 0.9409 
300.00018993093425 0.9409 
301.00018993093425 0.9409 
302.00018993093425 0.9409 
303.00018993093425 0.9409 
304.00018993093425 0.9409 
305.00018993093425 0.9409 
306.00018993093425 0.9409 
307.00018993093425 0.9409 
308.00018993093425 0.9409 
309.00018993093425 0.9409 
310.00018993093425 0.9409 
311.00018993093425 0.9409 
312.00018993093425 0.9409 
313.00018993093425 0.9409 
314.00018993093425 0.9409 
315.00018993093425 0.9409 
316.00018993093425 0.9409 
317.00018993093425 0.9409 
318.00018993093425 0.9409 
319.00018993093425 0.9409 
320.00018993093425 0.9409 
321.00018993093425 0.9409 
322.00018993093425 0.9409 
323.00018993093425 0.9409 
324.00018993093425 0.9409 
325.00018993093425 0.9409 
326.00018993093425 0.9409 
327.00018993093425 0.9409 
328.00018993093425 0.9409 
329.00018993093425 0.9409 
330.00018993093425 0.9409 
331.00018993093425 0.9409 
332.00018993093425 0.9409 
333.00018993093425 0.9409 
334.00018993093425 0.9409 
335.00018993093425 0.9409 
336.00018993093425 0.9409 
337.00018993093425 0.9409 
338.00018993093425 0.9409 
339.00018993093425 0.9409 
340.00018993093425 0.9409 
341.00018993093425 0.9409 
342.00018993093425 0.9409 
343.00018993093425 0.9409 
344.00018993093425 0.9409 
345.00018993093425 0.9409 
346.00018993093425 0.9409 
347.00018993093425 0.9409 
348.00018993093425 0.9409 
349.00018993093425 0.9409 
350.00018993093425 0.9409 
351.00018993093425 0.9409 
352.00018993093425 0.9409 
353.00018993093425 0.9409 
354.00018993093425 0.9409 
355.00018993093425 0.9409 
356.00018993093425 0.9409 
357.00018993093425 0.9409 
358.00018993093425 0.9409 
359.00018993093425 0.9409 
360.00018993093425 0.9409 
361.00018993093425 0.9409 
362.00018993093425 0.9409 
363.00018993093425 0.9409 
364.00018993093425 0.9409 
365.00018993093425 0.9409 
366.00018993093425 0.9409 
367.00018993093425 0.9409 
368.00018993093425 0.9409 
369.00018993093425 0.9409 
370.00018993093425 0.9409 
371.00018993093425 0.9409 
372.00018993093425 0.9409 
373.00018993093425 0.9409 
374.00018993093425 0.9409 
375.00018993093425 0.9409 
376.00018993093425 0.9409 
377.00018993093425 0.9409 
378.00018993093425 0.9409 
379.00018993093425 0.9409 
380.00018993093425 0.9409 
381.00018993093425 0.9409 
382.00018993093425 0.9409 
383.00018993093425 0.9409 
384.00018993093425 0.9409 
385.00018993093425 0.9409 
386.00018993093425 0.9409 
387.00018993093425 0.9409 
#####################################################################
# End of data export. Simulation finished at: 2017-05-23T05:45+0000 #
#####################################################################
