#####################################################################
# Alchemist log file - simulation started at: 2017-05-21T22:00+0000 #
#####################################################################
# random = 3.0, targets = 3.1622776601683795, density = 0.07978946395100113, gridShift = 0.0, perturbation = 0.5, connfactor = 1.5
#
# The columns have the following meaning: 
# time se[Mean] 
0.0 NaN 
1.0016359619213666 NaN 
2.001635961921367 1.0832418956979524 
3.001635961921367 0.9967493635484357 
4.001635961921367 1.5245084926107988 
5.001635961921367 1.5050914794569688 
6.001635961921367 1.8367981860494227 
7.001635961921367 2.503469003211464 
8.001635961921366 2.348939203033468 
9.001635961921366 2.2251066265478117 
10.001635961921366 2.4294809827456603 
11.001635961921366 2.450595396510706 
12.001635961921366 3.1921975752481546 
13.001635961921366 3.0628802170772786 
14.001635961921366 3.6981824061055506 
15.001635961921366 3.805535582482902 
16.001635961921366 3.917494205780636 
17.001635961921366 3.07596268051741 
18.001635961921366 1.960822540777154 
19.001635961921366 1.8616677971219209 
20.001635961921366 1.780066063215986 
21.001635961921366 1.787609002785781 
22.001635961921366 1.7685300680906348 
23.001635961921366 1.732455532033676 
24.001635961921366 1.732455532033676 
25.001635961921366 1.732455532033676 
26.001635961921366 1.732455532033676 
27.001635961921366 1.732455532033676 
#####################################################################
# End of data export. Simulation finished at: 2017-05-21T22:01+0000 #
#####################################################################
