#####################################################################
# Alchemist log file - simulation started at: 2017-05-23T23:07+0000 #
#####################################################################
# random = 13.0, targets = 3.1622776601683795, density = 1.7841466528270753, gridShift = 0.0, perturbation = 0.0, connfactor = 0.5
#
# The columns have the following meaning: 
# time se[Mean] 
0.0 NaN 
1.0093475742791087 NaN 
2.0093475742791087 1.0 
3.0093475742791087 0.9987056543732585 
4.009347574279109 0.9961169631197755 
5.009347574279109 0.987056543732585 
6.009347574279109 0.9779961243453945 
7.009347574279109 0.9676413593314626 
8.009347574279108 0.97411308746517 
9.009347574279108 0.9443431380501154 
10.009347574279108 0.9754074330919115 
11.009347574279108 0.9456374836768568 
12.009347574279108 0.9572865943175304 
13.009347574279108 0.9430487924233739 
14.009347574279108 0.9417544467966324 
15.009347574279108 0.9585809399442718 
16.009347574279108 0.9352827186629249 
17.009347574279108 0.9546979030640474 
18.009347574279108 0.9391657555431494 
19.009347574279108 0.9598752855710134 
20.009347574279108 0.9443431380501156 
21.009347574279108 0.9702300505849455 
22.009347574279108 0.9443431380501156 
23.009347574279108 0.968935704958204 
24.009347574279108 0.9411267678365575 
25.009347574279108 0.933516644902476 
26.009347574279108 0.9006472883936391 
27.009347574279108 0.8694504505601334 
28.009347574279108 0.8281327739522462 
29.009347574279108 0.7829593441533981 
30.009347574279108 0.742791766363214 
31.009347574279108 0.7072674472050395 
32.009347574279104 0.6712713999131572 
33.009347574279104 0.6208543162114875 
34.009347574279104 0.5746087630081202 
35.009347574279104 0.526480172924528 
36.009347574279104 0.4733301511603377 
37.009347574279104 0.41607487029369955 
38.009347574279104 0.36026988588017084 
39.009347574279104 0.2996618163536606 
40.009347574279104 0.24647280688287782 
41.009347574279104 0.20971653783921085 
42.009347574279104 0.17854698369496824 
43.009347574279104 0.16002076523624673 
44.009347574279104 0.1891397817635931 
45.009347574279104 0.17808331508452035 
46.009347574279104 0.1908202058551595 
47.009347574279104 0.1579781330355858 
48.009347574279104 0.16134270276629986 
49.009347574279104 0.15108544554560357 
50.009347574279104 0.22758058171396864 
51.009347574279104 0.93352632254949 
52.009347574279104 0.8363021239732096 
53.009347574279104 1.1366492917849542 
54.009347574279104 0.7137095570651205 
55.009347574279104 0.9058851173250515 
56.009347574279104 0.6913353367246499 
57.009347574279104 0.3506841726764054 
58.009347574279104 0.03852814479652569 
59.009347574279104 0.33901560670919195 
60.009347574279104 0.22076214808958894 
61.009347574279104 0.32204874240711906 
62.009347574279104 0.21171730837433247 
63.009347574279104 0.31782652018489654 
64.0093475742791 0.0034170336854145666 
65.0093475742791 0.21171730837433275 
66.0093475742791 0.10717535613665252 
67.0093475742791 0.002633403898972407 
68.0093475742791 0.002633403898972407 
69.0093475742791 0.002633403898972407 
70.0093475742791 0.002633403898972407 
71.0093475742791 0.002633403898972407 
72.0093475742791 0.002633403898972407 
73.0093475742791 0.002633403898972407 
74.0093475742791 0.002633403898972407 
75.0093475742791 0.002633403898972407 
76.0093475742791 0.002633403898972407 
77.0093475742791 0.002633403898972407 
78.0093475742791 0.002633403898972407 
79.0093475742791 0.002633403898972407 
80.0093475742791 0.002633403898972407 
81.0093475742791 0.002633403898972407 
82.0093475742791 0.002633403898972407 
83.0093475742791 0.002633403898972407 
84.0093475742791 0.002633403898972407 
85.0093475742791 0.002633403898972407 
86.0093475742791 0.002633403898972407 
87.0093475742791 0.002633403898972407 
88.0093475742791 0.002633403898972407 
89.0093475742791 0.002633403898972407 
90.0093475742791 0.002633403898972407 
91.0093475742791 0.002633403898972407 
92.0093475742791 0.002633403898972407 
93.0093475742791 0.002633403898972407 
#####################################################################
# End of data export. Simulation finished at: 2017-05-23T23:07+0000 #
#####################################################################
