#####################################################################
# Alchemist log file - simulation started at: 2017-05-23T16:43+0000 #
#####################################################################
# random = 12.0, targets = 10.0, density = 7.099073319511142, gridShift = 0.0, perturbation = 0.0, connfactor = 1.0
#
# The columns have the following meaning: 
# time se[Mean] 
0.0 NaN 
1.0005590746559656 NaN 
2.000559074655966 1.0074617346938775 
3.000559074655966 1.0135074759070295 
4.000559074655966 1.0179684842687076 
5.000559074655966 1.02515660430839 
6.000559074655966 1.0125256873582766 
7.000559074655966 1.020885416666667 
8.000559074655966 1.011850818452381 
9.000559074655966 1.0125710388321998 
10.000559074655966 1.0056028557256234 
11.000559074655966 1.0024365787981862 
12.000559074655966 0.9940690547052154 
13.000559074655966 0.9867693275226758 
14.000559074655966 0.97960795776644 
15.000559074655966 0.9736604485544218 
16.000559074655968 0.9744022817460319 
17.000559074655968 0.9709131412981862 
18.000559074655968 0.9706075503117915 
19.000559074655968 0.9631669855442179 
20.000559074655968 0.9647199192176871 
21.000559074655968 0.9557658375850341 
22.000559074655968 0.9538903946995465 
23.000559074655968 0.940361394557823 
24.000559074655968 0.9378092226473922 
25.000559074655968 0.9239444267290251 
26.000559074655968 0.9228753897392291 
27.000559074655968 0.9139574475623582 
28.000559074655968 0.903418367346939 
29.000559074655968 0.8963248476473926 
30.000559074655968 0.8804181724773246 
31.000559074655968 0.8775404797335598 
32.00055907465597 0.8675251558956915 
33.00055907465597 0.8536891475340136 
34.00055907465597 0.8409412202380956 
35.00055907465597 0.8275699759070293 
36.00055907465597 0.8109290851757366 
37.00055907465597 0.7964069586167799 
38.00055907465597 0.7790522250566891 
39.00055907465597 0.7564218395691613 
40.00055907465597 0.7343008609693883 
41.00055907465597 0.7219587939342403 
42.00055907465597 0.7190394699546484 
43.00055907465597 0.7194178713151925 
44.00055907465597 0.6653445649092968 
45.00055907465597 0.676125903486395 
46.00055907465597 0.6536636373299319 
47.00055907465597 0.618728741496599 
48.00055907465597 0.6251807858560093 
49.00055907465597 0.5830912521258504 
50.00055907465597 0.5446309878117915 
51.00055907465597 0.5255120642006803 
52.00055907465597 0.5112124433106576 
53.00055907465597 0.48173841411564633 
54.00055907465597 0.45810870181405877 
55.00055907465597 0.4422730654761903 
56.00055907465597 0.4232873618197281 
57.00055907465597 0.3984103954081631 
58.00055907465597 0.36801711309523805 
59.00055907465597 0.36660988874716594 
60.00055907465597 0.33338701105442164 
61.00055907465597 0.32370845734127 
62.00055907465597 0.31006598993764195 
63.00055907465597 0.291023685515873 
64.00055907465597 0.2845274411848074 
65.00055907465597 0.26496501204648537 
66.00055907465597 0.2588905718537416 
67.00055907465597 0.2492550666099774 
68.00055907465597 0.24001550099206365 
69.00055907465597 0.2271053890306124 
70.00055907465597 0.23288185586734697 
71.00055907465597 0.22793783659297065 
72.00055907465597 0.21992160926870763 
73.00055907465597 0.21434373228458062 
74.00055907465597 0.20894584396258511 
75.00055907465597 0.20347275368480733 
76.00055907465597 0.19946756306689348 
77.00055907465597 0.19058859481292528 
78.00055907465597 0.18589516014739238 
79.00055907465597 0.18139712655895707 
80.00055907465597 0.1745022852891158 
81.00055907465597 0.16948926445578244 
82.00055907465597 0.16370181405895706 
83.00055907465597 0.16062296272675755 
84.00055907465597 0.15404637896825416 
85.00055907465597 0.15362174036281184 
86.00055907465597 0.14967279620181406 
87.00055907465597 0.14483515802154198 
88.00055907465597 0.14321012259070295 
89.00055907465597 0.13977970875850346 
90.00055907465597 0.1380299567743765 
91.00055907465597 0.1358128720238096 
92.00055907465597 0.1329479343820862 
93.00055907465597 0.13303615717120199 
94.00055907465597 0.1284686791383221 
95.00055907465597 0.12734614158163277 
96.00055907465597 0.12673309948979605 
97.00055907465597 0.12304714073129264 
98.00055907465597 0.12242612670068036 
99.00055907465597 0.1193022782029479 
100.00055907465597 0.1175878684807257 
101.00055907465597 0.11662538973922912 
102.00055907465597 0.11432947137188217 
103.00055907465597 0.11531329719387766 
104.00055907465597 0.11427632511337879 
105.00055907465597 0.1136104024943312 
106.00055907465597 0.11236766581632666 
107.00055907465597 0.11149721867913841 
108.00055907465597 0.111373653628118 
109.00055907465597 0.11019035218253977 
110.00055907465597 0.10983994118480739 
111.00055907465597 0.10962797619047628 
112.00055907465597 0.10835450325963734 
113.00055907465597 0.1080118870464854 
114.00055907465597 0.10668863378684816 
115.00055907465597 0.1047367488662133 
116.00055907465597 0.10297105300453523 
117.00055907465597 0.10092040462018155 
118.00055907465597 0.0993048469387756 
119.00055907465597 0.09756049815759649 
120.00055907465597 0.09619481646825408 
121.00055907465597 0.09508414824263049 
122.00055907465597 0.09395204435941053 
123.00055907465597 0.09277237457483005 
124.00055907465597 0.09158039257369625 
125.00055907465597 0.09073492417800463 
126.00055907465597 0.0903733524659865 
127.00055907465597 0.08999255952380963 
128.00055907465597 0.0898827239229026 
129.00055907465597 0.08994136196145136 
130.00055907465597 0.09000000000000011 
131.00055907465597 0.09000000000000011 
132.00055907465597 0.09000000000000011 
133.00055907465597 0.09000000000000011 
134.00055907465597 0.09000000000000011 
135.00055907465597 0.09000000000000011 
136.00055907465597 0.09000000000000011 
137.00055907465597 0.09000000000000011 
138.00055907465597 0.09000000000000011 
139.00055907465597 0.09000000000000011 
140.00055907465597 0.09000000000000011 
141.00055907465597 0.09000000000000011 
142.00055907465597 0.09000000000000011 
143.00055907465597 0.09000000000000011 
144.00055907465597 0.09000000000000011 
145.00055907465597 0.09000000000000011 
146.00055907465597 0.09000000000000011 
147.00055907465597 0.09000000000000011 
148.00055907465597 0.09000000000000011 
149.00055907465597 0.09000000000000011 
150.00055907465597 0.09000000000000011 
151.00055907465597 0.09000000000000011 
152.00055907465597 0.09000000000000011 
153.00055907465597 0.09000000000000011 
154.00055907465597 0.09000000000000011 
155.00055907465597 0.09000000000000011 
156.00055907465597 0.09000000000000011 
157.00055907465597 0.09000000000000011 
158.00055907465597 0.09000000000000011 
159.00055907465597 0.09000000000000011 
160.00055907465597 0.09000000000000011 
161.00055907465597 0.09000000000000011 
162.00055907465597 0.09000000000000011 
163.00055907465597 0.09000000000000011 
164.00055907465597 0.09000000000000011 
165.00055907465597 0.09000000000000011 
166.00055907465597 0.09000000000000011 
167.00055907465597 0.09000000000000011 
168.00055907465597 0.09000000000000011 
169.00055907465597 0.09000000000000011 
170.00055907465597 0.09000000000000011 
171.00055907465597 0.09000000000000011 
172.00055907465597 0.09000000000000011 
173.00055907465597 0.09000000000000011 
174.00055907465597 0.09000000000000011 
175.00055907465597 0.09000000000000011 
176.00055907465597 0.09000000000000011 
177.00055907465597 0.09000000000000011 
178.00055907465597 0.09000000000000011 
179.00055907465597 0.09000000000000011 
180.00055907465597 0.09000000000000011 
181.00055907465597 0.09000000000000011 
182.00055907465597 0.09000000000000011 
183.00055907465597 0.09000000000000011 
184.00055907465597 0.09000000000000011 
185.00055907465597 0.09000000000000011 
186.00055907465597 0.09000000000000011 
187.00055907465597 0.09000000000000011 
188.00055907465597 0.09000000000000011 
189.00055907465597 0.09000000000000011 
190.00055907465597 0.09000000000000011 
191.00055907465597 0.09000000000000011 
192.00055907465597 0.09000000000000011 
#####################################################################
# End of data export. Simulation finished at: 2017-05-23T16:44+0000 #
#####################################################################
