#####################################################################
# Alchemist log file - simulation started at: 2017-05-26T01:06+0000 #
#####################################################################
# random = 19.0, targets = 31.622776601683793, density = 10.026386447354522, gridShift = 1.0, perturbation = 0.5, connfactor = 1.5
#
# The columns have the following meaning: 
# time se[Mean] 
0.0 NaN 
1.0036597452439835 NaN 
2.0036597452439837 1.011037025710439 
3.0036597452439837 1.0187066330431793 
4.003659745243984 1.0261992057422793 
5.003659745243984 1.0304332293237433 
6.003659745243984 1.020817822448694 
7.003659745243984 1.0209460617390365 
8.003659745243983 1.0216550965355855 
9.003659745243983 1.0231192267006206 
10.003659745243983 1.0236944804766985 
11.003659745243983 1.022994003116591 
12.003659745243983 1.0229622753502376 
13.003659745243983 1.0232003478829743 
14.003659745243983 1.0203879818808936 
15.003659745243983 1.0208352187756073 
16.003659745243983 1.0225447570394317 
17.003659745243983 1.0200228388939023 
18.003659745243983 1.0292493135863077 
19.003659745243983 1.0255761848546219 
20.003659745243983 1.0316440940492198 
21.003659745243983 1.0330624379240962 
22.003659745243983 1.0376457049046306 
23.003659745243983 1.0427488378689318 
24.003659745243983 1.0438731093972853 
25.003659745243983 1.0520928917332695 
26.003659745243983 1.065007710494352 
27.003659745243983 1.0491230481675238 
28.003659745243983 1.0643337289855241 
29.003659745243983 1.0632083359576703 
30.003659745243983 1.0535195857851314 
31.003659745243983 1.0620045719556834 
32.00365974524398 1.0436933425456285 
33.00365974524398 1.0583123583083962 
34.00365974524398 1.053428366640209 
35.00365974524398 1.0451033477987413 
36.00365974524398 1.0506874006018436 
37.00365974524398 1.047724998424063 
38.00365974524398 1.0449323618306618 
39.00365974524398 1.0357989819643585 
40.00365974524398 1.0291589404256614 
41.00365974524398 1.032860161940965 
42.00365974524398 1.022207132242433 
43.00365974524398 1.0024744774973653 
44.00365974524398 0.9841165063938648 
45.00365974524398 0.9786139189178977 
46.00365974524398 0.965344524593726 
47.00365974524398 0.943377292663298 
48.00365974524398 0.927577955745557 
49.00365974524398 0.9242638316319212 
50.00365974524398 0.914166778974069 
51.00365974524398 0.8951713810601593 
52.00365974524398 0.887716921086629 
53.00365974524398 0.869215954515457 
54.00365974524398 0.8660876100862736 
55.00365974524398 0.8587445351355981 
56.00365974524398 0.8477721597642265 
57.00365974524398 0.8465359950184392 
58.00365974524398 0.8387045227465932 
59.00365974524398 0.830415871264362 
60.00365974524398 0.8288511080395248 
61.00365974524398 0.8273709085432566 
62.00365974524398 0.818615034739847 
63.00365974524398 0.8189857938846814 
64.00365974524398 0.8163205041592242 
65.00365974524398 0.8159772324311066 
66.00365974524398 0.8131806291559217 
67.00365974524398 0.8134237397197714 
68.00365974524398 0.8098928517237002 
69.00365974524398 0.8146306112605632 
70.00365974524398 0.8176441729581179 
71.00365974524398 0.8156105960120855 
72.00365974524398 0.8180834046826418 
73.00365974524398 0.8194677879975908 
74.00365974524398 0.8244490804697417 
75.00365974524398 0.8249854411487054 
76.00365974524398 0.8337649361513829 
77.00365974524398 0.8342428385219948 
78.00365974524398 0.8360280395727888 
79.00365974524398 0.8475749980765445 
80.00365974524398 0.8441742430734985 
81.00365974524398 0.8357591401125484 
82.00365974524398 0.8539535633588705 
83.00365974524398 0.8396307071578352 
84.00365974524398 0.8583569418332421 
85.00365974524398 0.8477288588144706 
86.00365974524398 0.8473340024208066 
87.00365974524398 0.8557396212039401 
88.00365974524398 0.8462991957911091 
89.00365974524398 0.8487260423062487 
90.00365974524398 0.8530684794413199 
91.00365974524398 0.85239797849898 
92.00365974524398 0.8480988490901838 
93.00365974524398 0.8580690650425892 
94.00365974524398 0.8577913618294198 
95.00365974524398 0.8544130238338201 
96.00365974524398 0.8605005769718416 
97.00365974524398 0.8629548127324681 
98.00365974524398 0.8654213924579394 
99.00365974524398 0.8965149576699863 
100.00365974524398 0.8978475991451552 
101.00365974524398 0.8918308703717642 
102.00365974524398 0.9277037861696269 
103.00365974524398 0.9329586245120689 
104.00365974524398 0.9299732487575187 
105.00365974524398 0.9541462843503652 
106.00365974524398 0.9748975569376496 
107.00365974524398 0.95946907352628 
108.00365974524398 1.0044332423217603 
109.00365974524398 1.0103073202534913 
110.00365974524398 1.0408149984682855 
111.00365974524398 1.115621590835049 
112.00365974524398 1.073142823326611 
113.00365974524398 1.1383774909488682 
114.00365974524398 1.2132466685388739 
115.00365974524398 1.154791030568539 
116.00365974524398 1.1459145089936762 
117.00365974524398 1.2737181371760393 
118.00365974524398 1.181286035264901 
119.00365974524398 1.323401776314292 
120.00365974524398 1.2317553362983897 
121.00365974524398 1.2619341594986722 
122.00365974524398 1.325358541927574 
123.00365974524398 1.2637951540825123 
124.00365974524398 1.2878199116205655 
125.00365974524398 1.3192030800789825 
126.00365974524398 1.3312842612552969 
127.00365974524398 1.293420500450299 
128.00365974524397 1.3794600191751698 
129.00365974524397 1.37788438580373 
130.00365974524397 1.3677048186977416 
131.00365974524397 1.4068631504266393 
132.00365974524397 1.3968765768353528 
133.00365974524397 1.3946759318488953 
134.00365974524397 1.5804359938113988 
135.00365974524397 1.4949805291637266 
136.00365974524397 1.405661702629116 
137.00365974524397 1.5600323936125198 
138.00365974524397 1.4756013479796874 
139.00365974524397 1.481996239155809 
140.00365974524397 1.5416817020795428 
141.00365974524397 1.5524121751759168 
142.00365974524397 1.4753866249897318 
143.00365974524397 1.5793152608321288 
144.00365974524397 1.5373133598053497 
145.00365974524397 1.5252294504729993 
146.00365974524397 1.6205741415203163 
147.00365974524397 1.4566027050319208 
148.00365974524397 1.603407236415386 
149.00365974524397 1.5547339712656079 
150.00365974524397 1.6991330854141327 
151.00365974524397 1.6948129061850046 
152.00365974524397 1.7971430889964621 
153.00365974524397 2.095041595290135 
154.00365974524397 1.8043911362459282 
155.00365974524397 1.8193120858528127 
156.00365974524397 2.129266876729216 
157.00365974524397 1.8161814179156175 
158.00365974524397 2.2902230183906163 
159.00365974524397 1.9762382650153196 
160.00365974524397 2.0154479197984614 
161.00365974524397 2.173865423408722 
162.00365974524397 1.929706102507492 
163.00365974524397 2.0129555706441433 
164.00365974524397 2.0716152236275596 
165.00365974524397 2.0001800051934886 
166.00365974524397 1.8985715909063638 
167.00365974524397 2.094719726988291 
168.00365974524397 2.0398372071526802 
169.00365974524397 1.9937826258348816 
170.00365974524397 2.0604795719905487 
171.00365974524397 1.9580765918918117 
172.00365974524397 1.9749287503160675 
173.00365974524397 2.454359706545899 
174.00365974524397 2.164344728032046 
175.00365974524397 1.9655655538301213 
176.00365974524397 2.3445259885086687 
177.00365974524397 2.136124374919128 
178.00365974524397 2.166000214651563 
179.00365974524397 2.3101786273869576 
180.00365974524397 2.335280828936776 
181.00365974524397 2.1231935505557185 
182.00365974524397 2.4342259536883613 
183.00365974524397 2.251261437118303 
184.00365974524397 2.249356662479073 
185.00365974524397 2.5096200484650555 
186.00365974524397 1.8763896565061833 
187.00365974524397 2.211143870799543 
188.00365974524397 1.8609243661355033 
189.00365974524397 1.8167250366217558 
190.00365974524397 1.8087668804058297 
191.00365974524397 1.7790879711684149 
192.00365974524397 1.9084952984619077 
193.00365974524397 1.485331587986532 
194.00365974524397 1.6868613136062445 
195.00365974524397 1.5825820627283467 
196.00365974524397 1.4415330842564442 
197.00365974524397 1.5093298081386288 
198.00365974524397 1.504863627560157 
199.00365974524397 1.294349807057889 
200.00365974524397 1.3599563216409318 
201.00365974524397 1.3570477028756829 
202.00365974524397 1.28145060517155 
203.00365974524397 1.2469239722924514 
204.00365974524397 1.2414617035047408 
205.00365974524397 1.1247404871677151 
206.00365974524397 1.0799745732553903 
207.00365974524397 1.0975976596581332 
208.00365974524397 1.0725992701598577 
209.00365974524397 1.0664584155855206 
210.00365974524397 1.0597639905908707 
211.00365974524397 1.0610703131181756 
212.00365974524397 1.0478262619155778 
213.00365974524397 1.0449096759041676 
214.00365974524397 1.0431776675308486 
215.00365974524397 1.0370037891929427 
216.00365974524397 1.0324308001615647 
217.00365974524397 1.033474204462585 
218.00365974524397 1.0211918474162243 
219.00365974524397 1.0286566288672052 
220.00365974524397 1.0360989215639136 
221.00365974524397 1.0310295955754085 
222.00365974524397 1.039875720033695 
223.00365974524397 1.0388972600556026 
224.00365974524397 1.0356833279000577 
225.00365974524397 1.032557117927826 
226.00365974524397 1.0380024585408127 
227.00365974524397 1.0436135462812417 
228.00365974524397 1.039439029936639 
229.00365974524397 1.0453399500411888 
230.00365974524397 1.0474805692552844 
231.00365974524397 1.0449518906237083 
232.00365974524397 1.0501206898107058 
233.00365974524397 1.0537142670942536 
234.00365974524397 1.0516598139107922 
235.00365974524397 1.0532596156695615 
236.00365974524397 1.0559973173214752 
237.00365974524397 1.0568640581705657 
238.00365974524397 1.0593614309708443 
239.00365974524397 1.0631065449124295 
240.00365974524397 1.063167605653779 
241.00365974524397 1.0630960745253528 
242.00365974524397 1.0641524593341256 
243.00365974524397 1.0640920179640458 
244.00365974524397 1.064091979561588 
245.00365974524397 1.0641159793900072 
246.00365974524397 1.064075685143287 
247.00365974524397 1.0641509104349962 
248.00365974524397 1.064185572662781 
249.00365974524397 1.064190590242392 
250.00365974524397 1.0641955694195453 
251.00365974524397 1.0642355564466033 
252.00365974524397 1.0642455532033677 
253.00365974524397 1.0642355564466033 
254.00365974524397 1.0642455532033677 
255.00365974524397 1.0642455532033677 
256.00365974524397 1.0642455532033677 
257.00365974524397 1.0642455532033677 
258.00365974524397 1.0642455532033677 
259.00365974524397 1.0642455532033677 
260.00365974524397 1.0642455532033677 
261.00365974524397 1.0642455532033677 
262.00365974524397 1.0642455532033677 
263.00365974524397 1.0642455532033677 
264.00365974524397 1.0642455532033677 
265.00365974524397 1.0642455532033677 
266.00365974524397 1.0642455532033677 
267.00365974524397 1.0642455532033677 
268.00365974524397 1.0642455532033677 
269.00365974524397 1.0642455532033677 
270.00365974524397 1.0642455532033677 
271.00365974524397 1.0642455532033677 
272.00365974524397 1.0642455532033677 
273.00365974524397 1.0642455532033677 
274.00365974524397 1.0642455532033677 
275.00365974524397 1.0642455532033677 
276.00365974524397 1.0642455532033677 
277.00365974524397 1.0642455532033677 
278.00365974524397 1.0642455532033677 
279.00365974524397 1.0642455532033677 
280.00365974524397 1.0642455532033677 
281.00365974524397 1.0642455532033677 
282.00365974524397 1.0642455532033677 
283.00365974524397 1.0642455532033677 
284.00365974524397 1.0642455532033677 
285.00365974524397 1.0642455532033677 
286.00365974524397 1.0642455532033677 
287.00365974524397 1.0642455532033677 
288.00365974524397 1.0642455532033677 
289.00365974524397 1.0642455532033677 
290.00365974524397 1.0642455532033677 
291.00365974524397 1.0642455532033677 
292.00365974524397 1.0642455532033677 
293.00365974524397 1.0642455532033677 
294.00365974524397 1.0642455532033677 
295.00365974524397 1.0642455532033677 
296.00365974524397 1.0642455532033677 
297.00365974524397 1.0642455532033677 
298.00365974524397 1.0642455532033677 
299.00365974524397 1.0642455532033677 
300.00365974524397 1.0642455532033677 
301.00365974524397 1.0642455532033677 
302.00365974524397 1.0642455532033677 
303.00365974524397 1.0642455532033677 
304.00365974524397 1.0642455532033677 
305.00365974524397 1.0642455532033677 
306.00365974524397 1.0642455532033677 
307.00365974524397 1.0642455532033677 
308.00365974524397 1.0642455532033677 
309.00365974524397 1.0642455532033677 
310.00365974524397 1.0642455532033677 
311.00365974524397 1.0642455532033677 
312.00365974524397 1.0642455532033677 
313.00365974524397 1.0642455532033677 
314.00365974524397 1.0642455532033677 
315.00365974524397 1.0642455532033677 
316.00365974524397 1.0642455532033677 
317.00365974524397 1.0642455532033677 
318.00365974524397 1.0642455532033677 
319.00365974524397 1.0642455532033677 
320.00365974524397 1.0642455532033677 
321.00365974524397 1.0642455532033677 
322.00365974524397 1.0642455532033677 
323.00365974524397 1.0642455532033677 
324.00365974524397 1.0642455532033677 
#####################################################################
# End of data export. Simulation finished at: 2017-05-26T01:09+0000 #
#####################################################################
