#####################################################################
# Alchemist log file - simulation started at: 2017-05-24T12:33+0000 #
#####################################################################
# random = 14.0, targets = 100.0, density = 14.160781367816199, gridShift = 1.0, perturbation = 0.5, connfactor = 1.0
#
# The columns have the following meaning: 
# time se[Mean] 
0.0 NaN 
1.0015837731381736 NaN 
2.0015837731381736 NaN 
3.0015837731381736 1.0030650926844502 
4.001583773138174 1.003795419973545 
5.001583773138174 1.0041623378711053 
6.001583773138174 1.001767791005291 
7.001583773138174 1.0002349353321576 
8.001583773138174 0.9990323665307173 
9.001583773138174 0.9972687541335978 
10.001583773138174 0.9969872078924162 
11.001583773138174 0.9964375151565256 
12.001583773138174 0.9966485128233392 
13.001583773138174 0.9959906107620518 
14.001583773138174 0.9956262621252204 
15.001583773138174 0.9957822728358319 
16.001583773138172 0.9962306386868018 
17.001583773138172 0.9948393826241916 
18.001583773138172 0.9945960932907113 
19.001583773138172 0.9932727931180187 
20.001583773138172 0.9912632711456496 
21.001583773138172 0.9909350777116402 
22.001583773138172 0.9891150830393886 
23.001583773138172 0.9866193645282186 
24.001583773138172 0.9844573444848618 
25.001583773138172 0.9815049860376249 
26.001583773138172 0.9785585928314227 
27.001583773138172 0.9750253127755731 
28.001583773138172 0.9704701825213109 
29.001583773138172 0.9691935079548795 
30.001583773138172 0.9653767278439154 
31.001583773138172 0.9620649769437095 
32.00158377313817 0.9595751235486478 
33.00158377313817 0.95598139329806 
34.00158377313817 0.9514126396237507 
35.00158377313817 0.9483485683972663 
36.00158377313817 0.9450229929085832 
37.00158377313817 0.9417163336823927 
38.00158377313817 0.936276359494415 
39.00158377313817 0.936909162808642 
40.00158377313817 0.9297206826866549 
41.00158377313817 0.9251821676587302 
42.00158377313817 0.9247481784611993 
43.00158377313817 0.9215074317497061 
44.00158377313817 0.9165596253123163 
45.00158377313817 0.9168102407591123 
46.00158377313817 0.9113488076866549 
47.00158377313817 0.9112519042107584 
48.00158377313817 0.9054503201241917 
49.00158377313817 0.9107225464800118 
50.00158377313817 0.9029894290123457 
51.00158377313817 0.9041373626726926 
52.00158377313817 0.9006984600051441 
53.00158377313817 0.9004728440990594 
54.00158377313817 0.9024903765248383 
55.00158377313817 0.8976276188639036 
56.00158377313817 0.9017232565402704 
57.00158377313817 0.8977010288065844 
58.00158377313817 0.8968924267893886 
59.00158377313817 0.8959273928938861 
60.00158377313817 0.8985091187169313 
61.00158377313817 0.8930242196685774 
62.00158377313817 0.8925970619304823 
63.00158377313817 0.8910978105709877 
64.00158377313818 0.8898889504335687 
65.00158377313818 0.8853154821612288 
66.00158377313818 0.8795084261096416 
67.00158377313818 0.8800793526785715 
68.00158377313818 0.8715930532591124 
69.00158377313818 0.869666465038948 
70.00158377313818 0.860006053424456 
71.00158377313818 0.8580608915711351 
72.00158377313818 0.8564592592592594 
73.00158377313818 0.8414595936213994 
74.00158377313818 0.8411571460721634 
75.00158377313818 0.8367531879225462 
76.00158377313818 0.8247351002167848 
77.00158377313818 0.824266391093474 
78.00158377313818 0.8156567014807471 
79.00158377313818 0.8111847167107583 
80.00158377313818 0.8052629395392414 
81.00158377313818 0.8023513158619927 
82.00158377313818 0.7993558279137276 
83.00158377313818 0.7926625321502063 
84.00158377313818 0.7910779229129925 
85.00158377313818 0.7811267393261314 
86.00158377313818 0.7918307250330691 
87.00158377313818 0.7774484544936806 
88.00158377313818 0.781229287918871 
89.00158377313818 0.7793711203887422 
90.00158377313818 0.7741084504519404 
91.00158377313818 0.7727842160861255 
92.00158377313818 0.7698326228137864 
93.00158377313818 0.7683147757752795 
94.00158377313818 0.763888822292034 
95.00158377313818 0.7662173431988538 
96.00158377313818 0.7564413607804233 
97.00158377313818 0.7539325355489421 
98.00158377313818 0.7579996941137566 
99.00158377313818 0.7523129735266023 
100.00158377313818 0.7487182144694301 
101.00158377313818 0.7478342059817756 
102.00158377313818 0.7474193452380955 
103.00158377313818 0.7449921268738979 
104.00158377313818 0.7407428745958262 
105.00158377313818 0.741783775628307 
106.00158377313818 0.7441238724463553 
107.00158377313818 0.7398501823375957 
108.00158377313818 0.7316781272964434 
109.00158377313818 0.7363492233428867 
110.00158377313818 0.7342819710831865 
111.00158377313818 0.7309977265211641 
112.00158377313818 0.7274466568378896 
113.00158377313818 0.7349068810626104 
114.00158377313818 0.7268207286155204 
115.00158377313818 0.7244115180408583 
116.00158377313818 0.7200603532848325 
117.00158377313818 0.7212021398258378 
118.00158377313818 0.7190418852880659 
119.00158377313818 0.7125419684193123 
120.00158377313818 0.7157104478982952 
121.00158377313818 0.7150041937646973 
122.00158377313818 0.7127867711089065 
123.00158377313818 0.7085550866218403 
124.00158377313818 0.7071108626359496 
125.00158377313818 0.7032427354313642 
126.00158377313818 0.6998651445840685 
127.00158377313818 0.6959108318636095 
128.00158377313818 0.6904322760508529 
129.00158377313818 0.6895113389182836 
130.00158377313818 0.6837958195546743 
131.00158377313818 0.6866471230158727 
132.00158377313818 0.6820466756687245 
133.00158377313818 0.6763413869598764 
134.00158377313818 0.6797928869966199 
135.00158377313818 0.677931262400794 
136.00158377313818 0.6714966361699002 
137.00158377313818 0.6703634879298943 
138.00158377313818 0.6700905156893007 
139.00158377313818 0.6652307333002647 
140.00158377313818 0.6752285392783657 
141.00158377313818 0.7311499026308056 
142.00158377313818 0.7909148212448562 
143.00158377313818 0.7805187127976193 
144.00158377313818 0.8265795515505584 
145.00158377313818 0.9659908638300997 
146.00158377313818 0.9763243119855952 
147.00158377313818 1.020620108116549 
148.00158377313818 1.0935379964910357 
149.00158377313818 1.073638630768666 
150.00158377313818 1.082321231995885 
151.00158377313818 1.2163833314961772 
152.00158377313818 1.2831351443084908 
153.00158377313818 1.3424794936801894 
154.00158377313818 1.272154749963258 
155.00158377313818 1.2778527920157257 
156.00158377313818 1.2957767333553771 
157.00158377313818 1.2708663405717209 
158.00158377313818 1.2162335142930616 
159.00158377313818 1.2359547136794518 
160.00158377313818 1.2823097980048481 
161.00158377313818 1.1149146572788058 
162.00158377313818 1.1800775132275132 
163.00158377313818 1.1941891704328333 
164.00158377313818 1.19749469475676 
165.00158377313818 1.3140269184487054 
166.00158377313818 1.199392420818635 
167.00158377313818 1.1561451618533205 
168.00158377313818 1.2609643467996756 
169.00158377313818 1.211993188749264 
170.00158377313818 1.1625746096046428 
171.00158377313818 1.20553385600382 
172.00158377313818 1.2566752879739858 
173.00158377313818 1.2212353519069656 
174.00158377313818 1.1800583438969703 
175.00158377313818 1.182169330081568 
176.00158377313818 1.3077141874265115 
177.00158377313818 1.3194609769988237 
178.00158377313818 1.2021398290527623 
179.00158377313818 1.2199232923647845 
180.00158377313818 1.2213714625587881 
181.00158377313818 1.0535013755695146 
182.00158377313818 1.0462021095127854 
183.00158377313818 1.1603289296737214 
184.00158377313818 1.1686281608245102 
185.00158377313818 1.0874372345311554 
186.00158377313818 1.018093855636395 
187.00158377313818 1.047217785493825 
188.00158377313818 0.9339959375918575 
189.00158377313818 0.7446083893665467 
190.00158377313818 0.6525366324037334 
191.00158377313818 0.6680439644878028 
192.00158377313818 0.6730020080099913 
193.00158377313818 0.6455706565071992 
194.00158377313818 0.6336964988425893 
195.00158377313818 0.5692254147376525 
196.00158377313818 0.4993218607620515 
197.00158377313818 0.4601814341747501 
198.00158377313818 0.4390495531121399 
199.00158377313818 0.4390125587889477 
200.00158377313818 0.44005280992798357 
201.00158377313818 0.4401913819077016 
202.00158377313818 0.4405937651565257 
203.00158377313818 0.44050261243386263 
204.00158377313818 0.4429147495958261 
205.00158377313818 0.4434364381246327 
206.00158377313818 0.44382072310405635 
207.00158377313818 0.4439933531746033 
208.00158377313818 0.44526564888300996 
209.00158377313818 0.44603805298353905 
210.00158377313818 0.4461963771310994 
211.00158377313818 0.4470402924750147 
212.00158377313818 0.44744914388594953 
213.00158377313818 0.44788718400940625 
214.00158377313818 0.4482581422692534 
215.00158377313818 0.4485961585097002 
216.00158377313818 0.44877742688124633 
217.00158377313818 0.4488810754703116 
218.00158377313818 0.44887956716637273 
219.00158377313818 0.448886932319224 
220.00158377313818 0.44890899470899476 
221.00158377313818 0.44890301660787774 
222.00158377313818 0.4489059229864786 
223.00158377313818 0.4489 
224.00158377313818 0.4489 
225.00158377313818 0.4489 
226.00158377313818 0.4489 
227.00158377313818 0.4489 
228.00158377313818 0.4489 
229.00158377313818 0.4489 
230.00158377313818 0.4489 
231.00158377313818 0.4489 
232.00158377313818 0.4489 
233.00158377313818 0.4489 
234.00158377313818 0.4489 
235.00158377313818 0.4489 
236.00158377313818 0.4489 
237.00158377313818 0.4489 
238.00158377313818 0.4489 
239.00158377313818 0.4489 
240.00158377313818 0.4489 
241.00158377313818 0.4489 
242.00158377313818 0.4489 
243.00158377313818 0.4489 
244.00158377313818 0.4489 
245.00158377313818 0.4489 
246.00158377313818 0.4489 
247.00158377313818 0.4489 
248.00158377313818 0.4489 
249.00158377313818 0.4489 
250.00158377313818 0.4489 
251.00158377313818 0.4489 
252.00158377313818 0.4489 
253.00158377313818 0.4489 
254.00158377313818 0.4489 
255.00158377313818 0.4489 
256.0015837731382 0.4489 
257.0015837731382 0.4489 
258.0015837731382 0.4489 
259.0015837731382 0.4489 
260.0015837731382 0.4489 
261.0015837731382 0.4489 
262.0015837731382 0.4489 
263.0015837731382 0.4489 
264.0015837731382 0.4489 
265.0015837731382 0.4489 
266.0015837731382 0.4489 
267.0015837731382 0.4489 
268.0015837731382 0.4489 
269.0015837731382 0.4489 
270.0015837731382 0.4489 
271.0015837731382 0.4489 
272.0015837731382 0.4489 
273.0015837731382 0.4489 
274.0015837731382 0.4489 
275.0015837731382 0.4489 
276.0015837731382 0.4489 
277.0015837731382 0.4489 
278.0015837731382 0.4489 
279.0015837731382 0.4489 
280.0015837731382 0.4489 
281.0015837731382 0.4489 
282.0015837731382 0.4489 
283.0015837731382 0.4489 
284.0015837731382 0.4489 
285.0015837731382 0.4489 
286.0015837731382 0.4489 
287.0015837731382 0.4489 
288.0015837731382 0.4489 
289.0015837731382 0.4489 
290.0015837731382 0.4489 
291.0015837731382 0.4489 
292.0015837731382 0.4489 
293.0015837731382 0.4489 
294.0015837731382 0.4489 
295.0015837731382 0.4489 
296.0015837731382 0.4489 
297.0015837731382 0.4489 
298.0015837731382 0.4489 
299.0015837731382 0.4489 
300.0015837731382 0.4489 
301.0015837731382 0.4489 
302.0015837731382 0.4489 
303.0015837731382 0.4489 
304.0015837731382 0.4489 
305.0015837731382 0.4489 
#####################################################################
# End of data export. Simulation finished at: 2017-05-24T12:37+0000 #
#####################################################################
