#####################################################################
# Alchemist log file - simulation started at: 2017-05-20T18:22+0000 #
#####################################################################
# random = 1.0, targets = 31.622776601683793, density = 0.2247883923996312, gridShift = 0.0, perturbation = 0.5, connfactor = 0.75
#
# The columns have the following meaning: 
# time se[Mean] 
0.0 NaN 
1.0048855897957667 NaN 
2.0048855897957667 1.0880496264933792 
3.0048855897957667 1.1107275217889616 
4.004885589795767 1.1066695950084653 
5.004885589795767 1.0810282533632818 
6.004885589795767 1.0184847371316126 
7.004885589795767 0.9893944964020372 
8.004885589795766 0.9969040949387843 
9.004885589795766 0.9659877535386204 
10.004885589795766 1.0219823605557334 
11.004885589795766 0.9504972244273985 
12.004885589795766 0.9988727370611048 
13.004885589795766 1.0129464043373224 
14.004885589795766 1.0524404876104865 
15.004885589795766 1.0056689818898477 
16.004885589795766 1.0425902975480674 
17.004885589795766 1.0295313681711904 
18.004885589795766 1.0067232309862733 
19.004885589795766 1.020292109287628 
20.004885589795766 0.9129001532987286 
21.004885589795766 0.915675621204264 
22.004885589795766 0.8193017666425161 
23.004885589795766 0.8701881743869547 
24.004885589795766 0.8852241408988767 
25.004885589795766 0.8684844706832511 
26.004885589795766 0.8864065225316706 
27.004885589795766 0.8464473727018818 
28.004885589795766 0.7826071537844257 
29.004885589795766 0.7635324065063142 
30.004885589795766 0.7836178739054758 
31.004885589795766 0.7630177871865299 
32.00488558979576 0.7630177871865299 
33.00488558979576 0.7630177871865299 
34.00488558979576 0.7630177871865299 
35.00488558979576 0.7630177871865299 
36.00488558979576 0.7630177871865299 
37.00488558979576 0.7630177871865299 
38.00488558979576 0.7630177871865299 
39.00488558979576 0.7630177871865299 
40.00488558979576 0.7630177871865299 
41.00488558979576 0.7630177871865299 
42.00488558979576 0.7630177871865299 
#####################################################################
# End of data export. Simulation finished at: 2017-05-20T18:22+0000 #
#####################################################################
