#####################################################################
# Alchemist log file - simulation started at: 2017-05-21T22:09+0000 #
#####################################################################
# random = 3.0, targets = 3.1622776601683795, density = 0.894427190999916, gridShift = 0.0, perturbation = 0.0, connfactor = 0.5
#
# The columns have the following meaning: 
# time se[Mean] 
0.0 NaN 
1.0016359619213666 NaN 
2.001635961921367 1.0 
3.001635961921367 1.0 
4.001635961921367 1.0 
5.001635961921367 1.0 
6.001635961921367 0.9920980261976513 
7.001635961921367 0.9718936196505269 
8.001635961921366 0.9709946755680214 
9.001635961921366 0.9156808589515806 
10.001635961921366 0.9392925188885265 
11.001635961921366 0.9155865974814804 
12.001635961921366 0.9251921979787397 
13.001635961921366 0.9471944926908751 
14.001635961921366 0.9515949516333021 
15.001635961921366 0.9603958695181563 
16.001635961921366 0.9603958695181563 
17.001635961921366 0.9779977052878647 
18.001635961921366 0.9823981642302918 
19.001635961921366 0.9843917821312573 
20.001635961921366 0.9763448127258811 
21.001635961921366 0.9715311306429583 
22.001635961921366 0.9422358150049247 
23.001635961921366 0.9157605635488486 
24.001635961921366 0.8921053762747296 
25.001635961921366 0.8613021636777402 
26.001635961921366 0.8404670405855786 
27.001635961921366 0.7895754465801516 
28.001635961921366 0.8054593853447651 
29.001635961921366 0.707467416837239 
30.001635961921366 0.7501167415453082 
31.001635961921366 0.676454204194111 
32.001635961921366 0.6277881350856988 
33.001635961921366 0.6154132045394094 
34.001635961921366 0.5668993378297789 
35.001635961921366 0.5532775310662477 
36.001635961921366 0.5064237637143547 
37.001635961921366 0.49446205630856105 
38.001635961921366 0.4758524581134146 
39.001635961921366 0.48416044826050497 
40.001635961921366 0.4675444679663241 
41.001635961921366 0.4675444679663241 
42.001635961921366 0.4675444679663241 
43.001635961921366 0.4675444679663241 
44.001635961921366 0.4675444679663241 
45.001635961921366 0.4675444679663241 
46.001635961921366 0.4675444679663241 
47.001635961921366 0.4675444679663241 
48.001635961921366 0.4675444679663241 
49.001635961921366 0.4675444679663241 
50.001635961921366 0.4675444679663241 
51.001635961921366 0.4675444679663241 
52.001635961921366 0.4675444679663241 
53.001635961921366 0.4675444679663241 
54.001635961921366 0.4675444679663241 
55.001635961921366 0.4675444679663241 
56.001635961921366 0.4675444679663241 
57.001635961921366 0.4675444679663241 
58.001635961921366 0.4675444679663241 
59.001635961921366 0.4675444679663241 
#####################################################################
# End of data export. Simulation finished at: 2017-05-21T22:09+0000 #
#####################################################################
