#####################################################################
# Alchemist log file - simulation started at: 2017-05-23T09:07+0000 #
#####################################################################
# random = 11.0, targets = 10.0, density = 14.160781367816199, gridShift = 1.0, perturbation = 0.5, connfactor = 2.0
#
# The columns have the following meaning: 
# time se[Mean] 
0.0 NaN 
1.0000311017741008 NaN 
2.000031101774101 1.0054017857142856 
3.000031101774101 1.0073917915931805 
4.000031101774101 1.0127954603909466 
5.000031101774101 1.019841775058789 
6.000031101774101 1.0216097608024692 
7.000031101774101 1.0357389954438565 
8.000031101774102 1.0421647652116401 
9.000031101774102 1.0498280882569075 
10.000031101774102 1.0619550999412113 
11.000031101774102 1.0624075911228688 
12.000031101774102 1.0643406452087003 
13.000031101774102 1.0614986129482655 
14.000031101774102 1.0606435552616114 
15.000031101774102 1.0718579603909462 
16.000031101774102 1.0601993312757203 
17.000031101774102 1.0676200580540856 
18.000031101774102 1.0623229442239854 
19.000031101774102 1.0599721211787183 
20.000031101774102 1.0576640119782479 
21.000031101774102 1.0598597791740154 
22.000031101774102 1.0511791317607286 
23.000031101774102 1.0431669789829512 
24.000031101774102 1.0385609108612581 
25.000031101774102 1.0333071079512053 
26.000031101774102 1.0259952785126396 
27.000031101774102 1.0234083810993533 
28.000031101774102 1.0214513521457966 
29.000031101774102 1.0183319095385068 
30.000031101774102 1.0203256356554968 
31.000031101774102 1.0219069205614344 
32.0000311017741 1.0181303277483835 
33.0000311017741 1.0185909483392124 
34.0000311017741 1.0179181823192243 
35.0000311017741 1.015819784318048 
36.0000311017741 1.0177676274985301 
37.0000311017741 1.028417429085832 
38.0000311017741 1.0446572788065847 
39.0000311017741 1.0429027042915933 
40.0000311017741 1.0733436673280425 
41.0000311017741 1.0959406690917097 
42.0000311017741 1.0842654137272185 
43.0000311017741 1.131070555922987 
44.0000311017741 1.1154014642122279 
45.0000311017741 1.1239229221781302 
46.0000311017741 1.1295012125220463 
47.0000311017741 1.1255041611552028 
48.0000311017741 1.136980177101706 
49.0000311017741 1.1294979056437378 
50.0000311017741 1.132078648589066 
51.0000311017741 1.1582404651675486 
52.0000311017741 1.1684557337595534 
53.0000311017741 1.1402233980011751 
54.0000311017741 1.1390316358024686 
55.0000311017741 1.182811489564962 
56.0000311017741 1.1516582157554374 
57.0000311017741 1.1589273313492068 
58.0000311017741 1.189258432539684 
59.0000311017741 1.1583529908877135 
60.0000311017741 1.191283436213991 
61.0000311017741 1.169205155055848 
62.0000311017741 1.1505425576866557 
63.0000311017741 1.1656482859347448 
64.0000311017741 1.1657079934597288 
65.0000311017741 1.1783755878894764 
66.0000311017741 1.1809637253821281 
67.0000311017741 1.2033705816431493 
68.0000311017741 1.2433803185626113 
69.0000311017741 1.2229290215314512 
70.0000311017741 1.2896369323192274 
71.0000311017741 1.2470926109641398 
72.0000311017741 1.2657774838330407 
73.0000311017741 1.2733534961052313 
74.0000311017741 1.2749720752498535 
75.0000311017741 1.2874062132569095 
76.0000311017741 1.3129345329952935 
77.0000311017741 1.4625177744709061 
78.0000311017741 1.4262257954879487 
79.0000311017741 1.6152561452821839 
80.0000311017741 1.7695839304085894 
81.0000311017741 1.5919551917989452 
82.0000311017741 2.0183722810111586 
83.0000311017741 1.8597332910787767 
84.0000311017741 1.899238729056436 
85.0000311017741 2.0133691578483166 
86.0000311017741 1.933617587081131 
87.0000311017741 2.076783509700169 
88.0000311017741 2.010652878821285 
89.0000311017741 2.0102050723838905 
90.0000311017741 2.191421728027629 
91.0000311017741 2.2887190439447376 
92.0000311017741 2.137678249926512 
93.0000311017741 2.094276161081719 
94.0000311017741 2.440501956569663 
95.0000311017741 2.2197248860964125 
96.0000311017741 2.251882578262781 
97.0000311017741 2.502287716784247 
98.0000311017741 2.257089487801301 
99.0000311017741 2.6206030460023513 
100.0000311017741 2.5672765101410935 
101.0000311017741 2.4546440972222228 
102.0000311017741 2.6782727531599084 
103.0000311017741 2.6467957727072315 
104.0000311017741 2.6172561177248643 
105.0000311017741 2.86521591159612 
106.0000311017741 2.751838716196354 
107.0000311017741 2.8427064502498567 
108.0000311017741 3.0206505364491467 
109.0000311017741 2.8353191137566123 
110.0000311017741 3.0071655000734876 
111.0000311017741 3.2163503545708405 
112.0000311017741 3.1420602770429147 
113.0000311017741 2.977606922398589 
114.0000311017741 3.1638516405790735 
115.0000311017741 3.3046948026895957 
116.0000311017741 2.9896929196061146 
117.0000311017741 3.1825594319517934 
118.0000311017741 3.1170524691358006 
119.0000311017741 3.070107106114051 
120.0000311017741 3.172539223251031 
121.0000311017741 3.071845559597296 
122.0000311017741 3.167592868165787 
123.0000311017741 3.1122212117871872 
124.0000311017741 3.0912739748677236 
125.0000311017741 3.5115883120223392 
126.0000311017741 3.262625018371547 
127.0000311017741 3.214824689520871 
128.00003110177408 3.3001845881099365 
129.00003110177408 2.7431751543209884 
130.00003110177408 3.0298436581422714 
131.00003110177408 3.135712310773073 
132.00003110177408 3.016070188492064 
133.00003110177408 3.213655340608467 
134.00003110177408 3.6596455669459176 
135.00003110177408 3.2858981389623776 
136.00003110177408 3.898618505658429 
137.00003110177408 3.5781279394473855 
138.00003110177408 3.5951586842298653 
139.00003110177408 3.880765863830104 
140.00003110177408 3.657109053497943 
141.00003110177408 3.662573715828924 
142.00003110177408 3.723256080981776 
143.00003110177408 3.4387846762933583 
144.00003110177408 3.7896383101851874 
145.00003110177408 4.135829659024106 
146.00003110177408 3.487546801513816 
147.00003110177408 3.4659949110817148 
148.00003110177408 4.15644455467372 
149.00003110177408 3.4775605342445646 
150.00003110177408 3.5633594668577335 
151.00003110177408 3.989106683568486 
152.00003110177408 3.4037303883744836 
153.00003110177408 4.12822746729865 
154.00003110177408 3.9025720164609017 
155.00003110177408 3.804187334656085 
156.00003110177408 4.18273171112581 
157.00003110177408 3.9621962264844184 
158.00003110177408 3.9535524599500276 
159.00003110177408 4.423800613609644 
160.00003110177408 4.223887143592008 
161.00003110177408 4.227537064594356 
162.00003110177408 4.645827546296298 
163.00003110177408 4.311744975382124 
164.00003110177408 4.524913791519694 
165.00003110177408 5.0735703262786656 
166.00003110177408 4.869185589359206 
167.00003110177408 4.3783473875661345 
168.00003110177408 4.841267498897705 
169.00003110177408 5.200526161081723 
170.00003110177408 4.708345320767195 
171.00003110177408 5.318995351998825 
172.00003110177408 5.10212788433275 
173.00003110177408 5.200324717078185 
174.00003110177408 5.393799786890069 
175.00003110177408 5.083478422619043 
176.00003110177408 5.277359871031752 
177.00003110177408 5.050751809597291 
178.00003110177408 4.88351489013817 
179.00003110177408 5.630932401895939 
180.00003110177408 5.217272927689617 
181.00003110177408 4.760558862433871 
182.00003110177408 4.963339212228103 
183.00003110177408 3.935992247207528 
184.00003110177408 4.062673427395649 
185.00003110177408 3.8843430335097007 
186.00003110177408 3.91476153733098 
187.00003110177408 3.510277042915936 
188.00003110177408 3.763578960905355 
189.00003110177408 3.61136574074074 
190.00003110177408 3.3499039168136355 
191.00003110177408 3.3961120296884286 
192.00003110177408 3.200293209876551 
193.00003110177408 3.527550705467364 
194.00003110177408 3.4535100676072847 
195.00003110177408 3.1526833480305756 
196.00003110177408 3.2044343400940605 
197.00003110177408 3.045748273074665 
198.00003110177408 2.9300308641975357 
199.00003110177408 3.1243540564374 
200.00003110177408 2.8791793430335124 
201.00003110177408 2.888508230452674 
202.00003110177408 3.0804892342739625 
203.00003110177408 2.800126763668433 
204.00003110177408 2.7888238536155225 
205.00003110177408 2.7501060038212852 
206.00003110177408 2.7740694811875395 
207.00003110177408 2.769480452674901 
208.00003110177408 2.799141865079368 
209.00003110177408 2.891733355379192 
210.00003110177408 2.838379262198707 
211.00003110177408 2.940749375367434 
212.00003110177408 2.9051313565549677 
213.00003110177408 2.9341416813639056 
214.00003110177408 3.0669637345679046 
215.00003110177408 3.0361719209288687 
216.00003110177408 2.9516495811287533 
217.00003110177408 3.1438007054673722 
218.00003110177408 3.1721628821281618 
219.00003110177408 3.1011335243974187 
220.00003110177408 3.190490703997649 
221.00003110177408 2.9317592592592603 
222.00003110177408 2.9446143812463275 
223.00003110177408 2.820711713697826 
224.00003110177408 2.7836978248089363 
225.00003110177408 2.7297178130511495 
226.00003110177408 2.753998199588481 
227.00003110177408 2.6879322824808973 
228.00003110177408 2.807519473838921 
229.00003110177408 2.711273331863613 
230.00003110177408 2.5972213036449143 
231.00003110177408 2.632939998530279 
232.00003110177408 2.435627388300999 
233.00003110177408 2.470014513521459 
234.00003110177408 2.432517636684305 
235.00003110177408 2.4083291078777216 
236.00003110177408 2.342551624044682 
237.00003110177408 2.3884700176366866 
238.00003110177408 2.3052979864785423 
239.00003110177408 2.3057333921222822 
240.00003110177408 2.2731635802469157 
241.00003110177408 2.225108575837744 
242.00003110177408 2.2701126175778965 
243.00003110177408 2.228601190476192 
244.00003110177408 2.188211713697826 
245.00003110177408 2.1986621840094074 
246.00003110177408 2.1606736845972963 
247.00003110177408 2.17592757936508 
248.00003110177408 2.229563859494416 
249.00003110177408 2.1662733318636107 
250.00003110177408 2.188692680776015 
251.00003110177408 2.201595752498532 
252.00003110177408 2.1640154688418587 
253.00003110177408 2.1799836493239284 
254.00003110177408 2.1653817607289843 
255.00003110177408 2.1837670855379203 
256.0000311017741 2.1903411596119944 
257.0000311017741 2.193656488830101 
258.0000311017741 2.202455908289243 
259.0000311017741 2.199955357142858 
260.0000311017741 2.200815145502647 
261.0000311017741 2.2189858906525592 
262.0000311017741 2.2273269400352738 
263.0000311017741 2.229701646090536 
264.0000311017741 2.2061699000587898 
265.0000311017741 2.1610332157554386 
266.0000311017741 2.133743202527926 
267.0000311017741 2.093032958553793 
268.0000311017741 2.093888705173428 
269.0000311017741 2.0764436360964145 
270.0000311017741 2.075953850676074 
271.0000311017741 2.067468400940625 
272.0000311017741 2.064079218106997 
273.0000311017741 2.0525973691945922 
274.0000311017741 2.0405144032921823 
275.0000311017741 2.043571244855968 
276.0000311017741 2.0441119194591435 
277.0000311017741 2.0432664609053504 
278.0000311017741 2.0368035346854807 
279.0000311017741 2.021962081128749 
280.0000311017741 2.014538874191654 
281.0000311017741 2.008818525867139 
282.0000311017741 2.001876469723694 
283.0000311017741 1.9999632569077015 
284.0000311017741 1.9922382054673726 
285.0000311017741 1.9875644841269853 
286.0000311017741 1.9777358906525588 
287.0000311017741 1.9649046516754862 
288.0000311017741 1.9620089285714297 
289.0000311017741 1.9593360523221646 
290.0000311017741 1.9595734126984137 
291.0000311017741 1.9598480673133463 
292.0000311017741 1.9599390064667854 
293.0000311017741 1.960000000000001 
294.0000311017741 1.960000000000001 
295.0000311017741 1.960000000000001 
296.0000311017741 1.960000000000001 
297.0000311017741 1.960000000000001 
298.0000311017741 1.960000000000001 
299.0000311017741 1.960000000000001 
300.0000311017741 1.960000000000001 
301.0000311017741 1.960000000000001 
302.0000311017741 1.960000000000001 
303.0000311017741 1.960000000000001 
304.0000311017741 1.960000000000001 
305.0000311017741 1.960000000000001 
306.0000311017741 1.960000000000001 
307.0000311017741 1.960000000000001 
308.0000311017741 1.960000000000001 
309.0000311017741 1.960000000000001 
310.0000311017741 1.960000000000001 
311.0000311017741 1.960000000000001 
312.0000311017741 1.960000000000001 
313.0000311017741 1.960000000000001 
314.0000311017741 1.960000000000001 
315.0000311017741 1.960000000000001 
316.0000311017741 1.960000000000001 
317.0000311017741 1.960000000000001 
318.0000311017741 1.960000000000001 
319.0000311017741 1.960000000000001 
320.0000311017741 1.960000000000001 
321.0000311017741 1.960000000000001 
322.0000311017741 1.960000000000001 
323.0000311017741 1.960000000000001 
324.0000311017741 1.960000000000001 
325.0000311017741 1.960000000000001 
326.0000311017741 1.960000000000001 
327.0000311017741 1.960000000000001 
328.0000311017741 1.960000000000001 
329.0000311017741 1.960000000000001 
330.0000311017741 1.960000000000001 
331.0000311017741 1.960000000000001 
332.0000311017741 1.960000000000001 
333.0000311017741 1.960000000000001 
334.0000311017741 1.960000000000001 
335.0000311017741 1.960000000000001 
336.0000311017741 1.960000000000001 
337.0000311017741 1.960000000000001 
338.0000311017741 1.960000000000001 
339.0000311017741 1.960000000000001 
340.0000311017741 1.960000000000001 
341.0000311017741 1.960000000000001 
342.0000311017741 1.960000000000001 
343.0000311017741 1.960000000000001 
344.0000311017741 1.960000000000001 
345.0000311017741 1.960000000000001 
346.0000311017741 1.960000000000001 
347.0000311017741 1.960000000000001 
348.0000311017741 1.960000000000001 
349.0000311017741 1.960000000000001 
350.0000311017741 1.960000000000001 
351.0000311017741 1.960000000000001 
352.0000311017741 1.960000000000001 
353.0000311017741 1.960000000000001 
354.0000311017741 1.960000000000001 
355.0000311017741 1.960000000000001 
356.0000311017741 1.960000000000001 
357.0000311017741 1.960000000000001 
358.0000311017741 1.960000000000001 
359.0000311017741 1.960000000000001 
360.0000311017741 1.960000000000001 
361.0000311017741 1.960000000000001 
362.0000311017741 1.960000000000001 
363.0000311017741 1.960000000000001 
364.0000311017741 1.960000000000001 
365.0000311017741 1.960000000000001 
366.0000311017741 1.960000000000001 
367.0000311017741 1.960000000000001 
368.0000311017741 1.960000000000001 
369.0000311017741 1.960000000000001 
370.0000311017741 1.960000000000001 
371.0000311017741 1.960000000000001 
372.0000311017741 1.960000000000001 
373.0000311017741 1.960000000000001 
374.0000311017741 1.960000000000001 
#####################################################################
# End of data export. Simulation finished at: 2017-05-23T09:12+0000 #
#####################################################################
