#####################################################################
# Alchemist log file - simulation started at: 2017-05-19T22:27+0000 #
#####################################################################
# random = 0.0, targets = 10.0, density = 0.07978946395100113, gridShift = 1.0, perturbation = 0.0, connfactor = 2.0
#
# The columns have the following meaning: 
# time se[Mean] 
0.0 NaN 
1.0078686373248142 NaN 
2.0078686373248145 1.028125 
3.0078686373248145 1.07725 
4.0078686373248145 1.469 
5.0078686373248145 3.241916666666667 
6.0078686373248145 2.4050833333333337 
7.0078686373248145 2.6535 
8.007868637324815 1.8661805555555557 
9.007868637324815 3.364472222222223 
10.007868637324815 1.8955694444444446 
11.007868637324815 1.422930555555556 
12.007868637324815 0.6152222222222224 
13.007868637324815 0.8912638888888895 
14.007868637324815 0.2000277777777779 
15.007868637324815 0.2640555555555557 
16.007868637324815 0.04679166666666664 
17.007868637324815 0.04769444444444437 
18.007868637324815 0.0075694444444444255 
19.007868637324815 0.004013888888888876 
20.007868637324815 1.262177448353619E-31 
21.007868637324815 1.262177448353619E-31 
22.007868637324815 1.262177448353619E-31 
23.007868637324815 1.262177448353619E-31 
#####################################################################
# End of data export. Simulation finished at: 2017-05-19T22:27+0000 #
#####################################################################
