#####################################################################
# Alchemist log file - simulation started at: 2017-05-23T05:22+0000 #
#####################################################################
# random = 5.0, targets = 1.0, density = 0.4483936332993466, gridShift = 0.0, perturbation = 0.0, connfactor = 0.5
#
# The columns have the following meaning: 
# time se[Mean] 
0.0 NaN 
1.0183713707442061 NaN 
2.018371370744206 1.0 
3.018371370744206 0.98828125 
4.018371370744206 0.94921875 
5.018371370744206 0.8828125 
6.018371370744206 0.77734375 
7.018371370744206 0.671875 
8.018371370744205 0.6171875 
9.018371370744205 0.5234375 
10.018371370744205 0.44140625 
11.018371370744205 0.3828125 
12.018371370744205 0.2890625 
13.018371370744205 0.234375 
14.018371370744205 0.125 
15.018371370744205 0.0625 
16.018371370744205 0.015625 
17.018371370744205 0.0 
18.018371370744205 0.0 
19.018371370744205 0.0 
20.018371370744205 0.0 
21.018371370744205 0.0 
22.018371370744205 0.0 
23.018371370744205 0.0 
24.018371370744205 0.0 
25.018371370744205 0.0 
26.018371370744205 0.0 
27.018371370744205 0.0 
28.018371370744205 0.0 
29.018371370744205 0.0 
#####################################################################
# End of data export. Simulation finished at: 2017-05-23T05:22+0000 #
#####################################################################
