#####################################################################
# Alchemist log file - simulation started at: 2017-05-25T23:07+0000 #
#####################################################################
# random = 19.0, targets = 10.0, density = 0.4483936332993466, gridShift = 0.0, perturbation = 0.5, connfactor = 1.5
#
# The columns have the following meaning: 
# time se[Mean] 
0.0 NaN 
1.029399693434633 NaN 
2.029399693434633 1.1746484375 
3.029399693434633 1.2632085503472221 
4.029399693434633 1.332275390625 
5.029399693434633 1.512165798611111 
6.029399693434633 1.4661783854166668 
7.029399693434633 1.4388009982638892 
8.029399693434634 1.4223198784722224 
9.029399693434634 1.4363921440972223 
10.029399693434634 1.4027246093749999 
11.029399693434634 1.494001736111111 
12.029399693434634 1.9899707031250002 
13.029399693434634 3.457345920138889 
14.029399693434634 3.1512087673611116 
15.029399693434634 4.14595920138889 
16.029399693434634 4.415104166666667 
17.029399693434634 4.956766493055556 
18.029399693434634 5.869822048611112 
19.029399693434634 6.833186848958334 
20.029399693434634 6.251459418402778 
21.029399693434634 6.131095920138889 
22.029399693434634 5.635782335069444 
23.029399693434634 7.530631510416666 
24.029399693434634 14.134021267361105 
25.029399693434634 12.01233506944444 
26.029399693434634 15.961299913194438 
27.029399693434634 14.942452256944437 
28.029399693434634 16.325601128472215 
29.029399693434634 17.97946723090277 
30.029399693434634 22.265756293402767 
31.029399693434634 16.699161241319437 
32.029399693434634 17.699831814236106 
33.029399693434634 12.431015624999995 
34.029399693434634 11.463588324652775 
35.029399693434634 10.519391276041665 
36.029399693434634 11.14560329861111 
37.029399693434634 9.814440104166664 
38.029399693434634 9.803375651041664 
39.029399693434634 8.492241753472218 
40.029399693434634 8.166120876736107 
41.029399693434634 7.839999999999995 
42.029399693434634 7.839999999999995 
43.029399693434634 7.839999999999995 
44.029399693434634 7.839999999999995 
45.029399693434634 7.839999999999995 
46.029399693434634 7.839999999999995 
47.029399693434634 7.839999999999995 
48.029399693434634 7.839999999999995 
49.029399693434634 7.839999999999995 
50.029399693434634 7.839999999999995 
51.029399693434634 7.839999999999995 
52.029399693434634 7.839999999999995 
53.029399693434634 7.839999999999995 
#####################################################################
# End of data export. Simulation finished at: 2017-05-25T23:07+0000 #
#####################################################################
