#####################################################################
# Alchemist log file - simulation started at: 2017-05-24T11:40+0000 #
#####################################################################
# random = 14.0, targets = 100.0, density = 3.5589026259761294, gridShift = 1.0, perturbation = 0.0, connfactor = 1.0
#
# The columns have the following meaning: 
# time se[Mean] 
0.0 NaN 
1.0015837731381736 NaN 
2.0015837731381736 1.0120431220095694 
3.0015837731381736 1.0187123803827751 
4.001583773138174 1.0252466573631047 
5.001583773138174 1.0276954213184477 
6.001583773138174 1.0227713450292397 
7.001583773138174 1.029377033492823 
8.001583773138174 1.0307112772461458 
9.001583773138174 1.0345979598617756 
10.001583773138174 1.0306903841041999 
11.001583773138174 1.0317426302498671 
12.001583773138174 1.024139393939394 
13.001583773138174 1.020274634502924 
14.001583773138174 1.0159557615629984 
15.001583773138174 1.008528495481127 
16.001583773138172 1.0082707934609252 
17.001583773138172 1.0024532562466772 
18.001583773138172 1.0032819444444445 
19.001583773138172 0.9978879120148857 
20.001583773138172 0.9965532030834663 
21.001583773138172 0.9963082270069112 
22.001583773138172 0.9939468434343435 
23.001583773138172 0.995293567251462 
24.001583773138172 0.9914579346092505 
25.001583773138172 0.9944878854332803 
26.001583773138172 0.9942049641148326 
27.001583773138172 0.9953438330675174 
28.001583773138172 0.9952713383838384 
29.001583773138172 0.9960196903242957 
30.001583773138172 0.9977661084529507 
31.001583773138172 0.9968994883040937 
32.00158377313817 0.9961661217437534 
33.00158377313817 0.9951855462519937 
34.00158377313817 0.9927775651249336 
35.00158377313817 0.9935843434343435 
36.00158377313817 0.9924246743753323 
37.00158377313817 0.9929227472089315 
38.00158377313817 0.9914632509303563 
39.00158377313817 0.9919489898989899 
40.00158377313817 0.9916024322169059 
41.00158377313817 0.9882495614035088 
42.00158377313817 0.9884600943646997 
43.00158377313817 0.9846044191919193 
44.00158377313817 0.9852199029771399 
45.00158377313817 0.9823528641679958 
46.00158377313817 0.9797507309941521 
47.00158377313817 0.9770209595959597 
48.00158377313817 0.971147807017544 
49.00158377313817 0.967565330940989 
50.00158377313817 0.9630145800106328 
51.00158377313817 0.9609912280701756 
52.00158377313817 0.9571014619883041 
53.00158377313817 0.9512760699096227 
54.00158377313817 0.948892437533227 
55.00158377313817 0.9426869949494951 
56.00158377313817 0.9409158625730994 
57.00158377313817 0.9371084861775653 
58.00158377313817 0.9344662480063796 
59.00158377313817 0.9360499069643808 
60.00158377313817 0.9287678163211059 
61.00158377313817 0.9273211124401914 
62.00158377313817 0.9183128322700692 
63.00158377313817 0.9104659157363105 
64.00158377313818 0.9035163211057949 
65.00158377313818 0.8922017344497609 
66.00158377313818 0.8793724481658693 
67.00158377313818 0.8749415603402446 
68.00158377313818 0.8641249534821904 
69.00158377313818 0.854099142743222 
70.00158377313818 0.8504975677830943 
71.00158377313818 0.8357918992557153 
72.00158377313818 0.8270663343965978 
73.00158377313818 0.818137898724083 
74.00158377313818 0.8049196039340778 
75.00158377313818 0.7980882376395536 
76.00158377313818 0.7891543859649125 
77.00158377313818 0.7817805887825626 
78.00158377313818 0.7715033692185009 
79.00158377313818 0.7622665404040406 
80.00158377313818 0.7608331738437002 
81.00158377313818 0.7466933080808082 
82.00158377313818 0.7405376927166403 
83.00158377313818 0.731257562466773 
84.00158377313818 0.7212120281765019 
85.00158377313818 0.7131385101010103 
86.00158377313818 0.7024702020202023 
87.00158377313818 0.6902491493886234 
88.00158377313818 0.6882295720361511 
89.00158377313818 0.671721119085593 
90.00158377313818 0.6662951089845829 
91.00158377313818 0.6601093700159492 
92.00158377313818 0.6525125066454016 
93.00158377313818 0.6456833732057418 
94.00158377313818 0.6429537014885701 
95.00158377313818 0.6371783227006913 
96.00158377313818 0.6376854598617758 
97.00158377313818 0.6303394072301969 
98.00158377313818 0.6322782097288678 
99.00158377313818 0.62958918128655 
100.00158377313818 0.6293693314726212 
101.00158377313818 0.6273928561935144 
102.00158377313818 0.6266731060606063 
103.00158377313818 0.6260277910685809 
104.00158377313818 0.626855243221691 
105.00158377313818 0.6253566254651785 
106.00158377313818 0.6271798511430093 
107.00158377313818 0.6255370680489104 
108.00158377313818 0.6239801634768743 
109.00158377313818 0.6261591241360981 
110.00158377313818 0.6249092836257313 
111.00158377313818 0.6261640151515154 
112.00158377313818 0.6256225943646999 
113.00158377313818 0.6253082270069115 
114.00158377313818 0.6255134303561938 
115.00158377313818 0.6241434210526319 
116.00158377313818 0.6236542862838919 
117.00158377313818 0.6212002923976611 
118.00158377313818 0.6218838583200428 
119.00158377313818 0.6205953482190326 
120.00158377313818 0.6197506778309413 
121.00158377313818 0.6187109848484851 
122.00158377313818 0.6181777113237642 
123.00158377313818 0.6165074096225415 
124.00158377313818 0.6163050106326424 
125.00158377313818 0.6146314659755452 
126.00158377313818 0.6138874534821905 
127.00158377313818 0.6128639486975015 
128.00158377313818 0.6123022328548646 
129.00158377313818 0.6113724548112708 
130.00158377313818 0.6109809276980331 
131.00158377313818 0.6104446371610847 
132.00158377313818 0.6099809542796387 
133.00158377313818 0.609596816852738 
134.00158377313818 0.6094335127591708 
135.00158377313818 0.6091830608718768 
136.00158377313818 0.608988662945242 
137.00158377313818 0.6088194909622543 
138.00158377313818 0.6086941719829879 
139.00158377313818 0.6085814659755451 
140.00158377313818 0.6084686935140884 
141.00158377313818 0.6084249069643808 
142.00158377313818 0.6084062267410953 
143.00158377313818 0.6084000000000002 
144.00158377313818 0.6084000000000002 
145.00158377313818 0.6084000000000002 
146.00158377313818 0.6084000000000002 
147.00158377313818 0.6084000000000002 
148.00158377313818 0.6084000000000002 
149.00158377313818 0.6084000000000002 
150.00158377313818 0.6084000000000002 
151.00158377313818 0.6084000000000002 
152.00158377313818 0.6084000000000002 
153.00158377313818 0.6084000000000002 
154.00158377313818 0.6084000000000002 
155.00158377313818 0.6084000000000002 
156.00158377313818 0.6084000000000002 
157.00158377313818 0.6084000000000002 
158.00158377313818 0.6084000000000002 
159.00158377313818 0.6084000000000002 
160.00158377313818 0.6084000000000002 
161.00158377313818 0.6084000000000002 
162.00158377313818 0.6084000000000002 
163.00158377313818 0.6084000000000002 
164.00158377313818 0.6084000000000002 
165.00158377313818 0.6084000000000002 
166.00158377313818 0.6084000000000002 
167.00158377313818 0.6084000000000002 
168.00158377313818 0.6084000000000002 
169.00158377313818 0.6084000000000002 
170.00158377313818 0.6084000000000002 
171.00158377313818 0.6084000000000002 
172.00158377313818 0.6084000000000002 
173.00158377313818 0.6084000000000002 
174.00158377313818 0.6084000000000002 
175.00158377313818 0.6084000000000002 
176.00158377313818 0.6084000000000002 
177.00158377313818 0.6084000000000002 
178.00158377313818 0.6084000000000002 
179.00158377313818 0.6084000000000002 
180.00158377313818 0.6084000000000002 
181.00158377313818 0.6084000000000002 
182.00158377313818 0.6084000000000002 
#####################################################################
# End of data export. Simulation finished at: 2017-05-24T11:41+0000 #
#####################################################################
