#####################################################################
# Alchemist log file - simulation started at: 2017-05-25T05:04+0000 #
#####################################################################
# random = 17.0, targets = 1.0, density = 0.3174802103936399, gridShift = 0.0, perturbation = 0.5, connfactor = 2.0
#
# The columns have the following meaning: 
# time se[Mean] 
0.0 NaN 
1.0045647570182237 NaN 
2.0045647570182235 2.1887755102040822 
3.0045647570182235 2.487528344671202 
4.0045647570182235 2.868480725623583 
5.0045647570182235 2.7448979591836737 
6.0045647570182235 1.9892290249433109 
7.0045647570182235 1.857284580498866 
8.004564757018223 2.529195011337868 
9.004564757018223 5.094671201814058 
10.004564757018223 3.465561224489795 
11.004564757018223 6.573129251700679 
12.004564757018223 7.256660997732425 
13.004564757018223 3.8469387755102034 
14.004564757018223 6.065617913832198 
15.004564757018223 4.1811224489795915 
16.004564757018223 3.763180272108843 
17.004564757018223 4.954931972789115 
18.004564757018223 10.989937641723357 
19.004564757018223 34.80243764172335 
20.004564757018223 13.029478458049889 
21.004564757018223 44.15221088435376 
22.004564757018223 55.97222222222222 
23.004564757018223 54.2529761904762 
24.004564757018223 73.11678004535149 
25.004564757018223 75.76445578231294 
26.004564757018223 87.74433106575964 
27.004564757018223 59.56717687074831 
28.004564757018223 71.04435941043086 
29.004564757018223 53.63081065759638 
30.004564757018223 53.317035147392296 
31.004564757018223 43.91071428571429 
32.00456475701822 30.512613378684804 
33.00456475701822 31.804421768707485 
34.00456475701822 25.433956916099774 
35.00456475701822 27.41638321995465 
36.00456475701822 27.7609126984127 
37.00456475701822 26.19047619047619 
38.00456475701822 28.571428571428573 
39.00456475701822 26.984126984126984 
40.00456475701822 27.380952380952383 
41.00456475701822 26.58730158730159 
42.00456475701822 25.396825396825395 
43.00456475701822 25.396825396825395 
44.00456475701822 25.0 
45.00456475701822 25.0 
46.00456475701822 25.0 
47.00456475701822 25.0 
48.00456475701822 25.0 
49.00456475701822 25.0 
50.00456475701822 25.0 
51.00456475701822 25.0 
52.00456475701822 25.0 
53.00456475701822 25.0 
#####################################################################
# End of data export. Simulation finished at: 2017-05-25T05:04+0000 #
#####################################################################
