#####################################################################
# Alchemist log file - simulation started at: 2017-05-25T05:03+0000 #
#####################################################################
# random = 17.0, targets = 1.0, density = 0.04, gridShift = 1.0, perturbation = 0.0, connfactor = 1.0
#
# The columns have the following meaning: 
# time se[Mean] 
0.0 NaN 
1.0045647570182237 NaN 
2.0045647570182235 0.9375 
3.0045647570182235 0.9745370370370371 
4.0045647570182235 0.9814814814814815 
5.0045647570182235 1.212962962962963 
6.0045647570182235 0.6990740740740742 
7.0045647570182235 0.9652777777777779 
8.004564757018223 0.4722222222222223 
9.004564757018223 0.2152777777777778 
10.004564757018223 0.013888888888888916 
11.004564757018223 0.0023148148148148234 
12.004564757018223 4.930380657631324E-32 
13.004564757018223 4.930380657631324E-32 
#####################################################################
# End of data export. Simulation finished at: 2017-05-25T05:03+0000 #
#####################################################################
