0.000000000000000000e+00 nan
4.440892098500626162e-16 1.543844703295783882e-02
8.881784197001252323e-16 1.926600607835368684e-01
1.332267629550187849e-15 1.794422819722577556e-01
1.776356839400250465e-15 1.782272301359693056e-01
8.881784197001252323e-16 1.756637249809224754e-01
2.664535259100375697e-15 1.738191051389185726e-01
0.000000000000000000e+00 1.744283790465261108e-01
3.552713678800500929e-15 1.718876051700844176e-01
1.776356839400250465e-15 1.709671024178077148e-01
1.776356839400250465e-15 1.635497945919140439e-01
0.000000000000000000e+00 1.664002133713848586e-01
5.329070518200751394e-15 1.596848655086998414e-01
7.105427357601001859e-15 1.557784906384687418e-01
0.000000000000000000e+00 1.555929513530107944e-01
1.776356839400250465e-15 1.547924351373757834e-01
7.105427357601001859e-15 1.592308192365902431e-01
3.552713678800500929e-15 1.557878964213791351e-01
3.552713678800500929e-15 1.535941620075952363e-01
1.065814103640150279e-14 1.487110478341145681e-01
3.552713678800500929e-15 1.480040205868319025e-01
0.000000000000000000e+00 1.473799845540056108e-01
0.000000000000000000e+00 1.465749415407148204e-01
3.552713678800500929e-15 1.467892924329827209e-01
1.065814103640150279e-14 1.464384890414903995e-01
7.105427357601001859e-15 1.465294736975596424e-01
1.421085471520200372e-14 1.472968197533188750e-01
1.421085471520200372e-14 1.472968197533188750e-01
0.000000000000000000e+00 1.472968197533188750e-01
1.065814103640150279e-14 1.472968197533188750e-01
3.552713678800500929e-15 1.472968197533188750e-01
0.000000000000000000e+00 1.472968197533188750e-01
