#####################################################################
# Alchemist log file - simulation started at: 2017-05-25T21:20+0000 #
#####################################################################
# random = 8.0, targets = 100.0, density = 7.099073319511142, gridShift = 0.0, perturbation = 0.5, connfactor = 1.0
#
# The columns have the following meaning: 
# time se[Mean] 
0.0 NaN 
1.0009686244946094 NaN 
2.000968624494609 1.003819706632653 
3.000968624494609 1.006471201814059 
4.000968624494609 1.0078945835104876 
5.000968624494609 1.009960514101474 
6.000968624494609 1.0060136169571996 
7.000968624494609 1.0078009504322563 
8.00096862449461 1.0104201973497733 
9.00096862449461 1.0086725685586735 
10.00096862449461 1.012478015164399 
11.00096862449461 1.01265660430839 
12.00096862449461 1.0110479822137188 
13.00096862449461 1.009570844848356 
14.00096862449461 1.0099437934027777 
15.00096862449461 1.0071126355229592 
16.00096862449461 1.0108940414186507 
17.00096862449461 1.0098796768707483 
18.00096862449461 1.0085825396825396 
19.00096862449461 1.0096504269416098 
20.00096862449461 1.0139233444940474 
21.00096862449461 1.0167973533163264 
22.00096862449461 1.0202642803996598 
23.00096862449461 1.0229782064909296 
24.00096862449461 1.0225270089285714 
25.00096862449461 1.024030006377551 
26.00096862449461 1.0197169979450114 
27.00096862449461 1.0182215729520974 
28.00096862449461 1.012243219423186 
29.00096862449461 1.0113412406108275 
30.00096862449461 1.0045968803146257 
31.00096862449461 1.000736681547619 
32.00096862449461 0.9937782507794783 
33.00096862449461 0.9877970122945011 
34.00096862449461 0.9838328939909298 
35.00096862449461 0.9788633698270975 
36.00096862449461 0.9726431751346373 
37.00096862449461 0.9661269114937642 
38.00096862449461 0.9665486137684242 
39.00096862449461 0.9565163300736961 
40.00096862449461 0.959734733737245 
41.00096862449461 0.953568256625567 
42.00096862449461 0.9492053093112244 
43.00096862449461 0.9460502799036281 
44.00096862449461 0.942237604520975 
45.00096862449461 0.9398327690972222 
46.00096862449461 0.9368911192602041 
47.00096862449461 0.9317901050524376 
48.00096862449461 0.9310434080924036 
49.00096862449461 0.9350148712089003 
50.00096862449461 0.9352508335104875 
51.00096862449461 0.9561277405753968 
52.00096862449461 0.9650977926587302 
53.00096862449461 1.004148859126984 
54.00096862449461 1.004947621704932 
55.00096862449461 1.0400086902990364 
56.00096862449461 1.058197265625 
57.00096862449461 1.0801635248370183 
58.00096862449461 1.120013742736678 
59.00096862449461 1.1448857151714855 
60.00096862449461 1.151391834077381 
61.00096862449461 1.1595502196712018 
62.00096862449461 1.1828554492630385 
63.00096862449461 1.1906955844316893 
64.00096862449462 1.2324324794501136 
65.00096862449462 1.2271747758999434 
66.00096862449462 1.2592308044571996 
67.00096862449462 1.2603754517431973 
68.00096862449462 1.2610425621811225 
69.00096862449462 1.3003029354450113 
70.00096862449462 1.2347603502338438 
71.00096862449462 1.267845389562075 
72.00096862449462 1.2293755243764173 
73.00096862449462 1.2609716278698981 
74.00096862449462 1.2832470211522111 
75.00096862449462 1.2193053128543085 
76.00096862449462 1.269215339781746 
77.00096862449462 1.256575434913549 
78.00096862449462 1.2645827620110546 
79.00096862449462 1.2776678589143993 
80.00096862449462 1.252558426339286 
81.00096862449462 1.263824148774093 
82.00096862449462 1.2594853475765306 
83.00096862449462 1.229929233985261 
84.00096862449462 1.3443913779053287 
85.00096862449462 1.3439420891794218 
86.00096862449462 1.3961645346159293 
87.00096862449462 1.3833424434878119 
88.00096862449462 1.4582812127976188 
89.00096862449462 1.4785049585459182 
90.00096862449462 1.5469522472009636 
91.00096862449462 1.5361625593466555 
92.00096862449462 1.5489338293650792 
93.00096862449462 1.5632593121102605 
94.00096862449462 1.5292885115504535 
95.00096862449462 1.5937542481575961 
96.00096862449462 1.5694362209467119 
97.00096862449462 1.6163502595308956 
98.00096862449462 1.5271371625212584 
99.00096862449462 1.5904859658446708 
100.00096862449462 1.706494552508503 
101.00096862449462 1.410997044182256 
102.00096862449462 1.538927935445011 
103.00096862449462 1.4360431574192176 
104.00096862449462 1.4266486394557822 
105.00096862449462 1.4520006581278344 
106.00096862449462 1.3425050409226191 
107.00096862449462 1.4162798469387754 
108.00096862449462 1.3681477767148527 
109.00096862449462 1.3672713603670634 
110.00096862449462 1.415939384920635 
111.00096862449462 1.3500829861111112 
112.00096862449462 1.3487351757369614 
113.00096862449462 1.2542359658446713 
114.00096862449462 1.1925234738166102 
115.00096862449462 1.1647038265306122 
116.00096862449462 1.133898374610261 
117.00096862449462 1.1440452735260773 
118.00096862449462 1.1410897994614515 
119.00096862449462 1.134844901502268 
120.00096862449462 1.1433910528273812 
121.00096862449462 1.139409530895692 
122.00096862449462 1.1338310657596375 
123.00096862449462 1.138347309913549 
124.00096862449462 1.1362636329010773 
125.00096862449462 1.1464275908801025 
126.00096862449462 1.1489196968891726 
127.00096862449462 1.1516064475269279 
128.00096862449462 1.1548221991921772 
129.00096862449462 1.1533047140731296 
130.00096862449462 1.1549118569302725 
131.00096862449462 1.1546030240221092 
132.00096862449462 1.1535972576530618 
133.00096862449462 1.1511893477182544 
134.00096862449462 1.1482675125779482 
135.00096862449462 1.1463881085246603 
136.00096862449462 1.1452766227324267 
137.00096862449462 1.1448904274730731 
138.00096862449462 1.1449890943877556 
139.00096862449462 1.144886667375284 
140.00096862449462 1.1448638109410436 
141.00096862449462 1.1449136585884359 
142.00096862449462 1.144886383928572 
143.00096862449462 1.1449045528628123 
144.00096862449462 1.1449000000000005 
145.00096862449462 1.1449000000000005 
146.00096862449462 1.1449000000000005 
147.00096862449462 1.1449000000000005 
148.00096862449462 1.1449000000000005 
149.00096862449462 1.1449000000000005 
150.00096862449462 1.1449000000000005 
151.00096862449462 1.1449000000000005 
152.00096862449462 1.1449000000000005 
153.00096862449462 1.1449000000000005 
154.00096862449462 1.1449000000000005 
155.00096862449462 1.1449000000000005 
156.00096862449462 1.1449000000000005 
157.00096862449462 1.1449000000000005 
158.00096862449462 1.1449000000000005 
159.00096862449462 1.1449000000000005 
160.00096862449462 1.1449000000000005 
161.00096862449462 1.1449000000000005 
162.00096862449462 1.1449000000000005 
163.00096862449462 1.1449000000000005 
164.00096862449462 1.1449000000000005 
165.00096862449462 1.1449000000000005 
166.00096862449462 1.1449000000000005 
167.00096862449462 1.1449000000000005 
168.00096862449462 1.1449000000000005 
169.00096862449462 1.1449000000000005 
170.00096862449462 1.1449000000000005 
171.00096862449462 1.1449000000000005 
172.00096862449462 1.1449000000000005 
173.00096862449462 1.1449000000000005 
174.00096862449462 1.1449000000000005 
175.00096862449462 1.1449000000000005 
176.00096862449462 1.1449000000000005 
177.00096862449462 1.1449000000000005 
178.00096862449462 1.1449000000000005 
179.00096862449462 1.1449000000000005 
180.00096862449462 1.1449000000000005 
181.00096862449462 1.1449000000000005 
182.00096862449462 1.1449000000000005 
183.00096862449462 1.1449000000000005 
184.00096862449462 1.1449000000000005 
185.00096862449462 1.1449000000000005 
186.00096862449462 1.1449000000000005 
187.00096862449462 1.1449000000000005 
188.00096862449462 1.1449000000000005 
189.00096862449462 1.1449000000000005 
190.00096862449462 1.1449000000000005 
191.00096862449462 1.1449000000000005 
192.00096862449462 1.1449000000000005 
193.00096862449462 1.1449000000000005 
194.00096862449462 1.1449000000000005 
195.00096862449462 1.1449000000000005 
196.00096862449462 1.1449000000000005 
197.00096862449462 1.1449000000000005 
198.00096862449462 1.1449000000000005 
199.00096862449462 1.1449000000000005 
200.00096862449462 1.1449000000000005 
201.00096862449462 1.1449000000000005 
202.00096862449462 1.1449000000000005 
203.00096862449462 1.1449000000000005 
204.00096862449462 1.1449000000000005 
205.00096862449462 1.1449000000000005 
206.00096862449462 1.1449000000000005 
#####################################################################
# End of data export. Simulation finished at: 2017-05-25T21:24+0000 #
#####################################################################
