#####################################################################
# Alchemist log file - simulation started at: 2017-05-19T22:40+0000 #
#####################################################################
# random = 0.0, targets = 10.0, density = 0.894427190999916, gridShift = 0.0, perturbation = 0.0, connfactor = 0.25
#
# The columns have the following meaning: 
# time se[Mean] 
0.0 NaN 
1.0011337332612453 NaN 
2.0011337332612453 1.0 
3.0011337332612453 1.0 
4.001133733261245 0.9970247933884298 
5.001133733261245 0.9984297520661157 
6.001133733261245 0.9746280991735536 
7.001133733261245 0.9799173553719008 
8.001133733261245 0.9720661157024794 
9.001133733261245 0.971900826446281 
10.001133733261245 0.9671900826446281 
11.001133733261245 0.9609090909090909 
12.001133733261245 0.9544628099173554 
13.001133733261245 0.9466115702479339 
14.001133733261245 0.9371900826446281 
15.001133733261245 0.9293388429752066 
16.001133733261245 0.9199173553719009 
17.001133733261245 0.9089256198347108 
18.001133733261245 0.898099173553719 
19.001133733261245 0.887107438016529 
20.001133733261245 0.8694214876033058 
21.001133733261245 0.8463636363636364 
22.001133733261245 0.8427272727272727 
23.001133733261245 0.823305785123967 
24.001133733261245 0.8182644628099175 
25.001133733261245 0.7919834710743803 
26.001133733261245 0.7886776859504133 
27.001133733261245 0.7823966942148761 
28.001133733261245 0.7709090909090909 
29.001133733261245 0.7641322314049587 
30.001133733261245 0.7627272727272728 
31.001133733261245 0.7580991735537191 
32.00113373326124 0.7465289256198347 
33.00113373326124 0.7449586776859504 
34.00113373326124 0.7417355371900827 
35.00113373326124 0.7342148760330578 
36.00113373326124 0.7337190082644629 
37.00113373326124 0.7226446280991736 
38.00113373326124 0.7159504132231406 
39.00113373326124 0.7137190082644628 
40.00113373326124 0.6933057851239669 
41.00113373326124 0.6914049586776859 
42.00113373326124 0.6838842975206612 
43.00113373326124 0.660495867768595 
44.00113373326124 0.6543801652892562 
45.00113373326124 0.6417355371900827 
46.00113373326124 0.6375206611570248 
47.00113373326124 0.64 
48.00113373326124 0.6387603305785124 
49.00113373326124 0.64 
50.00113373326124 0.64 
51.00113373326124 0.64 
52.00113373326124 0.64 
53.00113373326124 0.64 
54.00113373326124 0.64 
55.00113373326124 0.64 
56.00113373326124 0.64 
57.00113373326124 0.64 
58.00113373326124 0.64 
59.00113373326124 0.64 
60.00113373326124 0.64 
61.00113373326124 0.64 
62.00113373326124 0.64 
63.00113373326124 0.64 
64.00113373326124 0.64 
65.00113373326124 0.64 
66.00113373326124 0.64 
67.00113373326124 0.64 
68.00113373326124 0.64 
#####################################################################
# End of data export. Simulation finished at: 2017-05-19T22:40+0000 #
#####################################################################
