#####################################################################
# Alchemist log file - simulation started at: 2017-05-25T10:42+0000 #
#####################################################################
# random = 17.0, targets = 100.0, density = 0.894427190999916, gridShift = 1.0, perturbation = 0.0, connfactor = 0.75
#
# The columns have the following meaning: 
# time se[Mean] 
0.0 NaN 
1.0003034458253823 NaN 
2.0003034458253826 1.0072266666666667 
3.0003034458253826 1.012833449074074 
4.0003034458253826 1.0184430092592593 
5.0003034458253826 1.0265569212962964 
6.0003034458253826 1.020264074074074 
7.0003034458253826 1.031230162037037 
8.000303445825383 1.0374747453703703 
9.000303445825383 1.0322760879629629 
10.000303445825383 1.0480577314814814 
11.000303445825383 1.018892337962963 
12.000303445825383 1.0126640277777779 
13.000303445825383 1.0198734722222222 
14.000303445825383 0.9892011574074074 
15.000303445825383 0.9808739583333335 
16.00030344582538 0.9578510648148149 
17.00030344582538 0.943091689814815 
18.00030344582538 0.9281941435185187 
19.00030344582538 0.9051415277777779 
20.00030344582538 0.8817968055555557 
21.00030344582538 0.8612126620370372 
22.00030344582538 0.8395621527777779 
23.00030344582538 0.8134750231481482 
24.00030344582538 0.786447638888889 
25.00030344582538 0.7718755555555556 
26.00030344582538 0.7467001620370372 
27.00030344582538 0.7222286111111113 
28.00030344582538 0.694700138888889 
29.00030344582538 0.6738980787037039 
30.00030344582538 0.6551007870370371 
31.00030344582538 0.6522347685185186 
32.00030344582538 0.6225430092592593 
33.00030344582538 0.6160679629629631 
34.00030344582538 0.6083614120370371 
35.00030344582538 0.6052293750000001 
36.00030344582538 0.5965150925925927 
37.00030344582538 0.5987508564814815 
38.00030344582538 0.5991969675925927 
39.00030344582538 0.6036513657407407 
40.00030344582538 0.6053205324074075 
41.00030344582538 0.604344675925926 
42.00030344582538 0.6057889583333333 
43.00030344582538 0.6083352083333334 
44.00030344582538 0.6084 
45.00030344582538 0.6084 
46.00030344582538 0.6084 
47.00030344582538 0.6084 
48.00030344582538 0.6084 
49.00030344582538 0.6084 
50.00030344582538 0.6084 
51.00030344582538 0.6084 
52.00030344582538 0.6084 
53.00030344582538 0.6084 
54.00030344582538 0.6084 
55.00030344582538 0.6084 
56.00030344582538 0.6084 
57.00030344582538 0.6084 
58.00030344582538 0.6084 
59.00030344582538 0.6084 
60.00030344582538 0.6084 
61.00030344582538 0.6084 
62.00030344582538 0.6084 
63.00030344582538 0.6084 
64.00030344582538 0.6084 
#####################################################################
# End of data export. Simulation finished at: 2017-05-25T10:43+0000 #
#####################################################################
