#####################################################################
# Alchemist log file - simulation started at: 2017-05-26T03:20+0000 #
#####################################################################
# random = 9.0, targets = 3.1622776601683795, density = 3.5589026259761294, gridShift = 0.0, perturbation = 0.0, connfactor = 2.0
#
# The columns have the following meaning: 
# time se[Mean] 
0.0 NaN 
1.0015323036356916 NaN 
2.001532303635692 1.1682345228969875 
3.001532303635692 1.3263754907088576 
4.001532303635692 1.4484135984681012 
5.001532303635692 1.5126588100001492 
6.001532303635692 1.7060357517983826 
7.001532303635692 1.738337284097982 
8.001532303635692 2.105157040051305 
9.001532303635692 1.997211841293926 
10.001532303635692 2.0145409709039557 
11.001532303635692 2.0845059490856443 
12.001532303635692 1.9619922082205612 
13.001532303635692 2.0732267131215436 
14.001532303635692 1.6605284573183006 
15.001532303635692 1.7714654435439519 
16.001532303635692 1.4527995915150962 
17.001532303635692 1.6404188332885785 
18.001532303635692 1.5180243595435743 
19.001532303635692 1.8983581655897597 
20.001532303635692 1.784165712369365 
21.001532303635692 2.1169089134139836 
22.001532303635692 2.3651148705093523 
23.001532303635692 2.6637584033908577 
24.001532303635692 3.3968127339480843 
25.001532303635692 3.878593891179667 
26.001532303635692 4.3464253029918805 
27.001532303635692 4.775294197010827 
28.001532303635692 5.018616666057586 
29.001532303635692 5.267396917403963 
30.001532303635692 5.37767366408456 
31.001532303635692 5.38815531040304 
32.00153230363569 5.359904707662384 
33.00153230363569 5.337011283010554 
34.00153230363569 5.065766443312258 
35.00153230363569 4.78778851837255 
36.00153230363569 4.516804461091483 
37.00153230363569 4.117483841328169 
38.00153230363569 3.781127192728595 
39.00153230363569 3.543100998349094 
40.00153230363569 3.2043191902184165 
41.00153230363569 2.748049851317055 
42.00153230363569 2.41443534148876 
43.00153230363569 1.9575022619250688 
44.00153230363569 1.6221937684523944 
45.00153230363569 1.2905110918986273 
46.00153230363569 0.9271991358354185 
47.00153230363569 0.7508057786054144 
48.00153230363569 0.5484687132478963 
49.00153230363569 0.4353012068504677 
50.00153230363569 0.32560518635833113 
51.00153230363569 0.3104625786254202 
52.00153230363569 0.2644690153787304 
53.00153230363569 0.22133345195562693 
54.00153230363569 0.20978687414379438 
55.00153230363569 0.20015485872905367 
56.00153230363569 0.1896622832369365 
57.00153230363569 0.1804749877835077 
58.00153230363569 0.16992101435885942 
59.00153230363569 0.16132481841796562 
60.00153230363569 0.14964156066802708 
61.00153230363569 0.14064304774941558 
62.00153230363569 0.17468594524398168 
63.00153230363569 0.301409831466468 
64.00153230363568 0.3380637498384714 
65.00153230363568 0.6733224738634488 
66.00153230363568 0.6659877545814604 
67.00153230363568 0.9215308061830507 
68.00153230363568 1.1735796099279414 
69.00153230363568 0.7690205664352601 
70.00153230363568 0.9089009829904584 
71.00153230363568 0.7125891711489405 
72.00153230363568 0.6560229908316743 
73.00153230363568 0.6947880816533953 
74.00153230363568 0.573617723770402 
75.00153230363568 0.4391941691820534 
76.00153230363568 0.41222171833403753 
77.00153230363568 0.33887256267789984 
78.00153230363568 0.27211947901807026 
79.00153230363568 0.24059528295956717 
80.00153230363568 0.12819082191814712 
81.00153230363568 0.11944025643687911 
82.00153230363568 0.13682715536908938 
83.00153230363568 0.07551774257739255 
84.00153230363568 0.11559679640127986 
85.00153230363568 0.10562072657460515 
86.00153230363568 0.055851246746385294 
87.00153230363568 0.03221325537839447 
88.00153230363568 0.01306658586277032 
89.00153230363568 0.012171583895883296 
90.00153230363568 0.010468732004828311 
91.00153230363568 0.008144908185574564 
92.00153230363568 0.004737736585454003 
93.00153230363568 0.004208229920331902 
94.00153230363568 0.003807010194238981 
95.00153230363568 0.0034137371146963163 
96.00153230363568 0.0028488621440986616 
97.00153230363568 0.002669313606493425 
98.00153230363568 0.0026334038989723777 
99.00153230363568 0.0026334038989723777 
100.00153230363568 0.0026334038989723777 
101.00153230363568 0.0026334038989723777 
102.00153230363568 0.0026334038989723777 
103.00153230363568 0.0026334038989723777 
104.00153230363568 0.0026334038989723777 
105.00153230363568 0.0026334038989723777 
106.00153230363568 0.0026334038989723777 
107.00153230363568 0.0026334038989723777 
108.00153230363568 0.0026334038989723777 
109.00153230363568 0.0026334038989723777 
110.00153230363568 0.0026334038989723777 
111.00153230363568 0.0026334038989723777 
112.00153230363568 0.0026334038989723777 
113.00153230363568 0.0026334038989723777 
114.00153230363568 0.0026334038989723777 
115.00153230363568 0.0026334038989723777 
116.00153230363568 0.0026334038989723777 
117.00153230363568 0.0026334038989723777 
118.00153230363568 0.0026334038989723777 
119.00153230363568 0.0026334038989723777 
120.00153230363568 0.0026334038989723777 
121.00153230363568 0.0026334038989723777 
122.00153230363568 0.0026334038989723777 
123.00153230363568 0.0026334038989723777 
124.00153230363568 0.0026334038989723777 
125.00153230363568 0.0026334038989723777 
126.00153230363568 0.0026334038989723777 
127.00153230363568 0.0026334038989723777 
128.00153230363568 0.0026334038989723777 
129.00153230363568 0.0026334038989723777 
130.00153230363568 0.0026334038989723777 
131.00153230363568 0.0026334038989723777 
132.00153230363568 0.0026334038989723777 
133.00153230363568 0.0026334038989723777 
134.00153230363568 0.0026334038989723777 
135.00153230363568 0.0026334038989723777 
136.00153230363568 0.0026334038989723777 
137.00153230363568 0.0026334038989723777 
138.00153230363568 0.0026334038989723777 
139.00153230363568 0.0026334038989723777 
140.00153230363568 0.0026334038989723777 
#####################################################################
# End of data export. Simulation finished at: 2017-05-26T03:21+0000 #
#####################################################################
