#####################################################################
# Alchemist log file - simulation started at: 2017-05-23T05:31+0000 #
#####################################################################
# random = 5.0, targets = 1.0, density = 1.2632455339402642, gridShift = 0.0, perturbation = 0.5, connfactor = 0.25
#
# The columns have the following meaning: 
# time se[Mean] 
0.0 NaN 
1.0052461206074068 NaN 
2.005246120607407 1.0 
3.005246120607407 1.0 
4.005246120607406 1.0 
5.005246120607406 1.0 
6.005246120607406 1.0 
7.005246120607406 1.0 
8.005246120607406 1.0 
9.005246120607406 1.0 
10.005246120607406 1.0 
11.005246120607406 1.0 
12.005246120607406 1.0 
13.005246120607406 1.0 
14.005246120607406 1.0 
15.005246120607406 1.0 
16.005246120607406 1.0 
17.005246120607406 1.0 
18.005246120607406 1.0 
19.005246120607406 1.0 
20.005246120607406 1.0 
21.005246120607406 1.0 
22.005246120607406 1.0 
23.005246120607406 1.0 
24.005246120607406 1.0 
#####################################################################
# End of data export. Simulation finished at: 2017-05-23T05:31+0000 #
#####################################################################
