#####################################################################
# Alchemist log file - simulation started at: 2017-05-23T03:47+0000 #
#####################################################################
# random = 10.0, targets = 100.0, density = 0.6332893950589894, gridShift = 1.0, perturbation = 0.0, connfactor = 1.5
#
# The columns have the following meaning: 
# time se[Mean] 
0.0 NaN 
1.0036005446229952 NaN 
2.003600544622995 1.0585255555555555 
3.003600544622995 1.0801335185185186 
4.003600544622995 1.1337454320987654 
5.003600544622995 1.2091382098765433 
6.003600544622995 1.2680741358024692 
7.003600544622995 1.4501625308641977 
8.003600544622994 1.510196049382716 
9.003600544622994 1.5941496296296298 
10.003600544622994 1.574785524691358 
11.003600544622994 1.638729074074074 
12.003600544622994 1.668141913580247 
13.003600544622994 1.8300250925925927 
14.003600544622994 1.8847202469135802 
15.003600544622994 1.8752181481481482 
16.003600544622994 1.8980958641975305 
17.003600544622994 1.7802970679012347 
18.003600544622994 1.674515925925926 
19.003600544622994 1.5317181790123457 
20.003600544622994 1.3879937962962963 
21.003600544622994 1.110381635802469 
22.003600544622994 1.079206728395062 
23.003600544622994 0.9654523456790123 
24.003600544622994 0.9230758024691358 
25.003600544622994 0.8533358333333334 
26.003600544622994 0.8082675308641976 
27.003600544622994 0.782355401234568 
28.003600544622994 0.7626390740740742 
29.003600544622994 0.7340047839506174 
30.003600544622994 0.7117056481481483 
31.003600544622994 0.6780765123456791 
32.003600544623 0.6439121913580248 
33.003600544623 0.5986451234567903 
34.003600544623 0.5613562345679014 
35.003600544623 0.518815216049383 
36.003600544623 0.5025156481481484 
37.003600544623 0.4757723765432102 
38.003600544623 0.5133174382716053 
39.003600544623 0.6634335802469137 
40.003600544623 0.725551327160494 
41.003600544623 0.8459119135802469 
42.003600544623 0.8912445987654322 
43.003600544623 0.9698716049382715 
44.003600544623 0.8859547839506171 
45.003600544623 0.9671315432098763 
46.003600544623 1.0509236419753083 
47.003600544623 1.0912621913580245 
48.003600544623 0.9172687962962963 
49.003600544623 0.8729050617283953 
50.003600544623 0.6564259259259259 
51.003600544623 0.6557090123456788 
52.003600544623 0.5690871604938271 
53.003600544623 0.4829935802469137 
54.003600544623 0.43994679012345705 
55.003600544623 0.39690000000000025 
56.003600544623 0.39690000000000025 
57.003600544623 0.39690000000000025 
58.003600544623 0.39690000000000025 
59.003600544623 0.39690000000000025 
60.003600544623 0.39690000000000025 
61.003600544623 0.39690000000000025 
62.003600544623 0.39690000000000025 
63.003600544623 0.39690000000000025 
64.003600544623 0.39690000000000025 
65.003600544623 0.39690000000000025 
66.003600544623 0.39690000000000025 
67.003600544623 0.39690000000000025 
68.003600544623 0.39690000000000025 
69.003600544623 0.39690000000000025 
70.003600544623 0.39690000000000025 
71.003600544623 0.39690000000000025 
72.003600544623 0.39690000000000025 
73.003600544623 0.39690000000000025 
#####################################################################
# End of data export. Simulation finished at: 2017-05-23T03:47+0000 #
#####################################################################
