#####################################################################
# Alchemist log file - simulation started at: 2017-05-23T11:25+0000 #
#####################################################################
# random = 11.0, targets = 31.622776601683793, density = 20.0, gridShift = 1.0, perturbation = 0.5, connfactor = 0.75
#
# The columns have the following meaning: 
# time se[Mean] 
0.0 NaN 
1.0000311017741008 NaN 
2.000031101774101 1.0 
3.000031101774101 0.9999404408607467 
4.000031101774101 0.9995432682238111 
5.000031101774101 0.9983395825832354 
6.000031101774101 0.9970482658575837 
7.000031101774101 0.9949625046295528 
8.000031101774102 0.9928707455815775 
9.000031101774102 0.9908460804337159 
10.000031101774102 0.9878931271630073 
11.000031101774102 0.9845745287029936 
12.000031101774102 0.9803614510285233 
13.000031101774102 0.9776037122028924 
14.000031101774102 0.974519955179384 
15.000031101774102 0.9716786812287763 
16.000031101774102 0.9698378081109889 
17.000031101774102 0.9683540301954844 
18.000031101774102 0.966023329100711 
19.000031101774102 0.9628516942046647 
20.000031101774102 0.9600873991990395 
21.000031101774102 0.9566748515731011 
22.000031101774102 0.9515474323373696 
23.000031101774102 0.9467909240711164 
24.000031101774102 0.9423404414736153 
25.000031101774102 0.9362562889911868 
26.000031101774102 0.9324743713748095 
27.000031101774102 0.9277117737071311 
28.000031101774102 0.926836681984664 
29.000031101774102 0.9214417663179844 
30.000031101774102 0.9201078682575328 
31.000031101774102 0.9181658286598811 
32.0000311017741 0.9151184590789766 
33.0000311017741 0.913067063648878 
34.0000311017741 0.9098711174585165 
35.0000311017741 0.9056014110616115 
36.0000311017741 0.9022976782770064 
37.0000311017741 0.8994678792928237 
38.0000311017741 0.8965197508981189 
39.0000311017741 0.8922416883210147 
40.0000311017741 0.8869552055658091 
41.0000311017741 0.8837602550865792 
42.0000311017741 0.8790676294942966 
43.0000311017741 0.8741236338166241 
44.0000311017741 0.8724804244177609 
45.0000311017741 0.868272754383237 
46.0000311017741 0.8623526619492508 
47.0000311017741 0.8598712368218536 
48.0000311017741 0.8528151483206386 
49.0000311017741 0.8484053861836965 
50.0000311017741 0.843431117297957 
51.0000311017741 0.8379963655947914 
52.0000311017741 0.8339041329642608 
53.0000311017741 0.8322700121510718 
54.0000311017741 0.8264782354681648 
55.0000311017741 0.8248820581166083 
56.0000311017741 0.8281048522433351 
57.0000311017741 0.8241053090786555 
58.0000311017741 0.8298017653852308 
59.0000311017741 0.8277811315239798 
60.0000311017741 0.8321589442986929 
61.0000311017741 0.8323113358125576 
62.0000311017741 0.8319828232054688 
63.0000311017741 0.8309918983737199 
64.0000311017741 0.8335222623202255 
65.0000311017741 0.8306138962345003 
66.0000311017741 0.832494587519406 
67.0000311017741 0.8312771016520586 
68.0000311017741 0.835911662668803 
69.0000311017741 0.834926055317908 
70.0000311017741 0.8376639869311666 
71.0000311017741 0.831203218671552 
72.0000311017741 0.8328963592381192 
73.0000311017741 0.8347711101587603 
74.0000311017741 0.8338823327879021 
75.0000311017741 0.8325145152634061 
76.0000311017741 0.8353799305087248 
77.0000311017741 0.8332992780744931 
78.0000311017741 0.8348202017278722 
79.0000311017741 0.8375926656644929 
80.0000311017741 0.8335150604196765 
81.0000311017741 0.8391048191568915 
82.0000311017741 0.8384635450122685 
83.0000311017741 0.8369087410596351 
84.0000311017741 0.8355254567972006 
85.0000311017741 0.8364131765493011 
86.0000311017741 0.8384088067185943 
87.0000311017741 0.8379322286210612 
88.0000311017741 0.8381747456523073 
89.0000311017741 0.8404470741443438 
90.0000311017741 0.8355329365102396 
91.0000311017741 0.8371998744548717 
92.0000311017741 0.8397327938193544 
93.0000311017741 0.8396888610355446 
94.0000311017741 0.8365245026028989 
95.0000311017741 0.8354272120285107 
96.0000311017741 0.8347169421951435 
97.0000311017741 0.8334635708385495 
98.0000311017741 0.8329097979700824 
99.0000311017741 0.8325488010514392 
100.0000311017741 0.8320758046711256 
101.0000311017741 0.8301280739295559 
102.0000311017741 0.8292977595418692 
103.0000311017741 0.8271837198347536 
104.0000311017741 0.8257234150931779 
105.0000311017741 0.8238816754688065 
106.0000311017741 0.8231853609488583 
107.0000311017741 0.8209180810117506 
108.0000311017741 0.8185628070896991 
109.0000311017741 0.813785891995957 
110.0000311017741 0.8140556475105313 
111.0000311017741 0.8120101422299205 
112.0000311017741 0.8080386341906147 
113.0000311017741 0.8075280138704697 
114.0000311017741 0.8043821061371705 
115.0000311017741 0.802155153180342 
116.0000311017741 0.7986251483419482 
117.0000311017741 0.7948847815324562 
118.0000311017741 0.7979827019463006 
119.0000311017741 0.8177214957835843 
120.0000311017741 0.8295524517593944 
121.0000311017741 0.8518385960937045 
122.0000311017741 0.8502721898852214 
123.0000311017741 0.8671399782151344 
124.0000311017741 0.8832180728966791 
125.0000311017741 0.8928619302911565 
126.0000311017741 0.9224199875083892 
127.0000311017741 0.9106633832087092 
128.00003110177408 0.9124183022944433 
129.00003110177408 0.8683149379206356 
130.00003110177408 0.9415039797015905 
131.00003110177408 1.1604774122916235 
132.00003110177408 1.6434337212640477 
133.00003110177408 1.9945985478880683 
134.00003110177408 2.394795468815602 
135.00003110177408 2.5830029220945625 
136.00003110177408 3.017613913247666 
137.00003110177408 3.4066668585222253 
138.00003110177408 3.88053410649046 
139.00003110177408 4.295872758642385 
140.00003110177408 4.2350738359786435 
141.00003110177408 4.017501903020964 
142.00003110177408 3.507441503746054 
143.00003110177408 3.3057285071593636 
144.00003110177408 3.4403174481824137 
145.00003110177408 4.135161297605025 
146.00003110177408 3.597639949742699 
147.00003110177408 4.120641581619982 
148.00003110177408 4.18408062673364 
149.00003110177408 3.9537880367615172 
150.00003110177408 3.8640504784109706 
151.00003110177408 4.215871534711901 
152.00003110177408 4.4527201189899825 
153.00003110177408 4.724564448504636 
154.00003110177408 4.904881163821064 
155.00003110177408 4.286658718114324 
156.00003110177408 4.7185239899062115 
157.00003110177408 5.520540963077863 
158.00003110177408 5.882142412411174 
159.00003110177408 5.545060922949765 
160.00003110177408 5.045606762222442 
161.00003110177408 5.3303741652203485 
162.00003110177408 5.132401901314778 
163.00003110177408 5.138499639468393 
164.00003110177408 6.3475986994472535 
165.00003110177408 6.081635980009975 
166.00003110177408 5.5154411856586485 
167.00003110177408 5.922281695316511 
168.00003110177408 6.406967046100725 
169.00003110177408 6.0991765005700005 
170.00003110177408 6.269476837144711 
171.00003110177408 6.21512824752932 
172.00003110177408 6.1675816712741485 
173.00003110177408 6.49338752251064 
174.00003110177408 6.995497849024831 
175.00003110177408 6.850290701779065 
176.00003110177408 7.0208422502344385 
177.00003110177408 7.745670478900675 
178.00003110177408 7.257708942100341 
179.00003110177408 7.210100647734223 
180.00003110177408 7.244150731944491 
181.00003110177408 7.175189930165376 
182.00003110177408 7.8032582467815645 
183.00003110177408 7.550827575099592 
184.00003110177408 6.673886502509285 
185.00003110177408 7.339126271245436 
186.00003110177408 7.675420301191556 
187.00003110177408 7.30446837079595 
188.00003110177408 7.4267727509775865 
189.00003110177408 7.121938267087053 
190.00003110177408 7.331580500740214 
191.00003110177408 6.812145195858364 
192.00003110177408 6.1106489853194645 
193.00003110177408 5.270066045405745 
194.00003110177408 4.698071478538934 
195.00003110177408 4.453334643919047 
196.00003110177408 3.6402623261616345 
197.00003110177408 3.133716767627053 
198.00003110177408 3.2942159663598494 
199.00003110177408 2.846847910012467 
200.00003110177408 2.6719338727174198 
201.00003110177408 2.3627445345463034 
202.00003110177408 2.1415228130475312 
203.00003110177408 2.575346656246398 
204.00003110177408 2.235901373968332 
205.00003110177408 1.8590619834365207 
206.00003110177408 1.8526814355088521 
207.00003110177408 1.8496064434995274 
208.00003110177408 1.8225182593378633 
209.00003110177408 1.438700951433531 
210.00003110177408 1.427030126872203 
211.00003110177408 1.246596087609074 
212.00003110177408 0.9788734124972476 
213.00003110177408 0.9201291344381048 
214.00003110177408 0.6492325286762832 
215.00003110177408 0.5926558214731417 
216.00003110177408 0.5587985228518336 
217.00003110177408 0.6086757164040238 
218.00003110177408 0.5207734953526574 
219.00003110177408 0.5124944172375745 
220.00003110177408 0.5695865064223539 
221.00003110177408 0.622017761355182 
222.00003110177408 0.5860159321950179 
223.00003110177408 0.5359852125895472 
224.00003110177408 0.5270106267784809 
225.00003110177408 0.5610210755034141 
226.00003110177408 0.43629504927661267 
227.00003110177408 0.7311905263271655 
228.00003110177408 1.0708234371026701 
229.00003110177408 1.2303406745172683 
230.00003110177408 1.67851963486543 
231.00003110177408 1.7835567191076174 
232.00003110177408 2.0646018745035253 
233.00003110177408 2.4280673345793593 
234.00003110177408 2.665827590814955 
235.00003110177408 3.230606323295208 
236.00003110177408 3.112071048374812 
237.00003110177408 3.291933499687681 
238.00003110177408 2.6073583862671064 
239.00003110177408 2.7777342649020205 
240.00003110177408 2.091075979727902 
241.00003110177408 3.5609154579609656 
242.00003110177408 2.4828198153681234 
243.00003110177408 3.106015383622512 
244.00003110177408 3.2949477714587068 
245.00003110177408 3.113137140976287 
246.00003110177408 3.063130897516044 
247.00003110177408 3.0284715681887096 
248.00003110177408 3.4149786497732326 
249.00003110177408 3.402050856890239 
250.00003110177408 4.137496842059685 
251.00003110177408 3.251776761232276 
252.00003110177408 3.308680219566161 
253.00003110177408 4.05913518875548 
254.00003110177408 4.487609243984474 
255.00003110177408 4.435216334554837 
256.0000311017741 3.6655994860230177 
257.0000311017741 3.7032750745574465 
258.0000311017741 4.044328861613274 
259.0000311017741 3.068894251348295 
260.0000311017741 4.467954733791614 
261.0000311017741 4.527677033816052 
262.0000311017741 3.899270322473536 
263.0000311017741 3.740585477392122 
264.0000311017741 4.691466951137575 
265.0000311017741 4.128527889536487 
266.0000311017741 4.326600512378114 
267.0000311017741 4.420757740231793 
268.0000311017741 4.268035455740078 
269.0000311017741 4.2426459869647415 
270.0000311017741 4.859694545757615 
271.0000311017741 4.958058703839688 
272.0000311017741 4.466296698045755 
273.0000311017741 5.618714560792851 
274.0000311017741 5.153173945119469 
275.0000311017741 4.876827302784146 
276.0000311017741 5.237196879989219 
277.0000311017741 4.855342608607299 
278.0000311017741 5.305055322148141 
279.0000311017741 5.888794444696039 
280.0000311017741 4.598737110591485 
281.0000311017741 4.825217198684351 
282.0000311017741 5.7640521789253665 
283.0000311017741 5.059237314047136 
284.0000311017741 5.524436818289991 
285.0000311017741 4.939863341173529 
286.0000311017741 5.402087607979697 
287.0000311017741 5.055504328509391 
288.0000311017741 4.585686319538278 
289.0000311017741 3.9988634134881864 
290.0000311017741 3.2950482595569635 
291.0000311017741 3.179644130509718 
292.0000311017741 2.827678509076336 
293.0000311017741 1.772973206486876 
294.0000311017741 2.2402445318824933 
295.0000311017741 1.8891627398448516 
296.0000311017741 1.5357855887929721 
297.0000311017741 1.6535094928859102 
298.0000311017741 0.8328567967265467 
299.0000311017741 1.534137188144093 
300.0000311017741 1.3000784352378612 
301.0000311017741 1.0660296132587401 
302.0000311017741 0.8319856532935817 
303.0000311017741 1.0660324457423989 
304.0000311017741 0.9490151531125407 
305.0000311017741 0.7149409190250775 
306.0000311017741 0.5979880980250437 
307.0000311017741 0.5979869097312404 
308.0000311017741 0.24697499555630575 
309.0000311017741 0.3640108278916884 
310.0000311017741 0.13001888894241057 
311.0000311017741 0.013034249597807315 
312.0000311017741 0.01305811289717787 
313.0000311017741 0.013084393348260337 
314.0000311017741 0.013101105891510912 
315.0000311017741 0.013104613149818029 
316.0000311017741 0.01312182991185452 
317.0000311017741 0.013122428708954935 
318.0000311017741 0.01312341677305925 
319.0000311017741 0.01312451030570757 
320.0000311017741 0.01312451030570757 
321.0000311017741 0.01312451030570757 
322.0000311017741 0.01312451030570757 
323.0000311017741 0.01312451030570757 
324.0000311017741 0.01312451030570757 
325.0000311017741 0.01312451030570757 
326.0000311017741 0.01312451030570757 
327.0000311017741 0.01312451030570757 
328.0000311017741 0.01312451030570757 
329.0000311017741 0.01312451030570757 
330.0000311017741 0.01312451030570757 
331.0000311017741 0.01312451030570757 
332.0000311017741 0.01312451030570757 
333.0000311017741 0.01312451030570757 
334.0000311017741 0.01312451030570757 
335.0000311017741 0.01312451030570757 
336.0000311017741 0.01312451030570757 
337.0000311017741 0.01312451030570757 
338.0000311017741 0.01312451030570757 
339.0000311017741 0.01312451030570757 
340.0000311017741 0.01312451030570757 
341.0000311017741 0.01312451030570757 
342.0000311017741 0.01312451030570757 
343.0000311017741 0.01312451030570757 
344.0000311017741 0.01312451030570757 
345.0000311017741 0.01312451030570757 
346.0000311017741 0.01312451030570757 
347.0000311017741 0.01312451030570757 
348.0000311017741 0.01312451030570757 
349.0000311017741 0.01312451030570757 
350.0000311017741 0.01312451030570757 
351.0000311017741 0.01312451030570757 
352.0000311017741 0.01312451030570757 
353.0000311017741 0.01312451030570757 
354.0000311017741 0.01312451030570757 
355.0000311017741 0.01312451030570757 
356.0000311017741 0.01312451030570757 
357.0000311017741 0.01312451030570757 
358.0000311017741 0.01312451030570757 
359.0000311017741 0.01312451030570757 
360.0000311017741 0.01312451030570757 
361.0000311017741 0.01312451030570757 
362.0000311017741 0.01312451030570757 
363.0000311017741 0.01312451030570757 
364.0000311017741 0.01312451030570757 
365.0000311017741 0.01312451030570757 
366.0000311017741 0.01312451030570757 
367.0000311017741 0.01312451030570757 
368.0000311017741 0.01312451030570757 
369.0000311017741 0.01312451030570757 
370.0000311017741 0.01312451030570757 
371.0000311017741 0.01312451030570757 
372.0000311017741 0.01312451030570757 
373.0000311017741 0.01312451030570757 
374.0000311017741 0.01312451030570757 
375.0000311017741 0.01312451030570757 
376.0000311017741 0.01312451030570757 
377.0000311017741 0.01312451030570757 
378.0000311017741 0.01312451030570757 
379.0000311017741 0.01312451030570757 
380.0000311017741 0.01312451030570757 
381.0000311017741 0.01312451030570757 
382.0000311017741 0.01312451030570757 
383.0000311017741 0.01312451030570757 
384.0000311017741 0.01312451030570757 
385.0000311017741 0.01312451030570757 
386.0000311017741 0.01312451030570757 
387.0000311017741 0.01312451030570757 
388.0000311017741 0.01312451030570757 
389.0000311017741 0.01312451030570757 
390.0000311017741 0.01312451030570757 
391.0000311017741 0.01312451030570757 
392.0000311017741 0.01312451030570757 
393.0000311017741 0.01312451030570757 
394.0000311017741 0.01312451030570757 
395.0000311017741 0.01312451030570757 
396.0000311017741 0.01312451030570757 
397.0000311017741 0.01312451030570757 
398.0000311017741 0.01312451030570757 
399.0000311017741 0.01312451030570757 
400.0000311017741 0.01312451030570757 
401.0000311017741 0.01312451030570757 
402.0000311017741 0.01312451030570757 
403.0000311017741 0.01312451030570757 
404.0000311017741 0.01312451030570757 
405.0000311017741 0.01312451030570757 
406.0000311017741 0.01312451030570757 
407.0000311017741 0.01312451030570757 
408.0000311017741 0.01312451030570757 
409.0000311017741 0.01312451030570757 
410.0000311017741 0.01312451030570757 
411.0000311017741 0.01312451030570757 
412.0000311017741 0.01312451030570757 
413.0000311017741 0.01312451030570757 
414.0000311017741 0.01312451030570757 
415.0000311017741 0.01312451030570757 
416.0000311017741 0.01312451030570757 
417.0000311017741 0.01312451030570757 
418.0000311017741 0.01312451030570757 
419.0000311017741 0.01312451030570757 
420.0000311017741 0.01312451030570757 
#####################################################################
# End of data export. Simulation finished at: 2017-05-23T11:34+0000 #
#####################################################################
