#####################################################################
# Alchemist log file - simulation started at: 2017-05-23T10:03+0000 #
#####################################################################
# random = 11.0, targets = 31.622776601683793, density = 5.0264212595847235, gridShift = 0.0, perturbation = 0.0, connfactor = 0.5
#
# The columns have the following meaning: 
# time se[Mean] 
0.0 NaN 
1.0028758930102715 NaN 
2.0028758930102715 1.0 
3.0028758930102715 0.9998192161847896 
4.0028758930102715 0.998997660789143 
5.0028758930102715 0.9964428184217978 
6.0028758930102715 0.991832836280689 
7.0028758930102715 0.989363228286302 
8.002875893010271 0.9862704763484761 
9.002875893010271 0.983910425961813 
10.002875893010271 0.9813883260056581 
11.002875893010271 0.9780605113810564 
12.002875893010271 0.9738832899583786 
13.002875893010271 0.9691303782959657 
14.002875893010271 0.9632995329647106 
15.002875893010271 0.9591734406627039 
16.00287589301027 0.9526584415602563 
17.00287589301027 0.9462833009996255 
18.00287589301027 0.9373428049543657 
19.00287589301027 0.93023231817073 
20.00287589301027 0.9152937475329782 
21.00287589301027 0.9104502333825154 
22.00287589301027 0.8956372568887334 
23.00287589301027 0.8907595329807996 
24.00287589301027 0.8850891284390745 
25.00287589301027 0.8753616526399539 
26.00287589301027 0.8753249027158249 
27.00287589301027 0.8650058274718727 
28.00287589301027 0.8593130779363374 
29.00287589301027 0.8582746758192596 
30.00287589301027 0.8450459913493608 
31.00287589301027 0.8478736600623934 
32.00287589301027 0.8395360922660418 
33.00287589301027 0.8374103410157827 
34.00287589301027 0.8264381306008297 
35.00287589301027 0.8227440238356372 
36.00287589301027 0.8100880955817794 
37.00287589301027 0.7944122064998728 
38.00287589301027 0.7971121811082709 
39.00287589301027 0.7840403725896062 
40.00287589301027 0.781140949120726 
41.00287589301027 0.7720466256377094 
42.00287589301027 0.7549624069982269 
43.00287589301027 0.7459074424183282 
44.00287589301027 0.7275989673931132 
45.00287589301027 0.7078500710887503 
46.00287589301027 0.6902214966689478 
47.00287589301027 0.6671888976338128 
48.00287589301027 0.6570510349100698 
49.00287589301027 0.6366399699356565 
50.00287589301027 0.6194734427163189 
51.00287589301027 0.5985427489332598 
52.00287589301027 0.5716398563664922 
53.00287589301027 0.5570742827546729 
54.00287589301027 0.5315288177227543 
55.00287589301027 0.5109022405582161 
56.00287589301027 0.4862775219444107 
57.00287589301027 0.4663349899534722 
58.00287589301027 0.4488756466864682 
59.00287589301027 0.4260374579756372 
60.00287589301027 0.4080445623752273 
61.00287589301027 0.3903579648290389 
62.00287589301027 0.3701151918724356 
63.00287589301027 0.35259681598717263 
64.00287589301027 0.3323462643189123 
65.00287589301027 0.319855233472975 
66.00287589301027 0.3140731622099708 
67.00287589301027 0.29209171445260557 
68.00287589301027 0.30469559622158177 
69.00287589301027 0.2670482912427399 
70.00287589301027 0.25864719080909393 
71.00287589301027 0.2700722363635337 
72.00287589301027 0.2292083242839543 
73.00287589301027 0.2114778837231995 
74.00287589301027 0.1817260975720196 
75.00287589301027 0.1711854202898661 
76.00287589301027 0.16761787968813016 
77.00287589301027 0.15940043792151984 
78.00287589301027 0.15356750745204423 
79.00287589301027 0.15785001313801061 
80.00287589301027 0.1605337381047495 
81.00287589301027 0.15676228737022835 
82.00287589301027 0.159819390919823 
83.00287589301027 0.1612934948074051 
84.00287589301027 0.1624002347857292 
85.00287589301027 0.16026689867730345 
86.00287589301027 0.164604254139201 
87.00287589301027 0.15875682525291895 
88.00287589301027 0.1638277937600446 
89.00287589301027 0.16469551374767788 
90.00287589301027 0.16549118954840591 
91.00287589301027 0.17055728403159087 
92.00287589301027 0.15965354774455937 
93.00287589301027 0.16080559591080995 
94.00287589301027 0.15504480672220117 
95.00287589301027 0.1481132385883013 
96.00287589301027 0.1441567573722578 
97.00287589301027 0.14158284868874546 
98.00287589301027 0.14036138723669783 
99.00287589301027 0.13828675682020125 
100.00287589301027 0.13784528695567225 
101.00287589301027 0.13765433467712707 
102.00287589301027 0.13713626405657567 
103.00287589301027 0.13656737811429287 
104.00287589301027 0.13632176020945797 
105.00287589301027 0.13607476723998232 
106.00287589301027 0.13583891431680298 
107.00287589301027 0.1356954228187501 
108.00287589301027 0.13554959303657252 
109.00287589301027 0.13537345943801324 
110.00287589301027 0.1352515207928568 
111.00287589301027 0.13517022836275253 
112.00287589301027 0.13509571030182357 
113.00287589301027 0.13508893593264823 
114.00287589301027 0.13508893593264823 
115.00287589301027 0.13508893593264823 
116.00287589301027 0.13508893593264823 
117.00287589301027 0.13508893593264823 
118.00287589301027 0.13508893593264823 
119.00287589301027 0.13508893593264823 
120.00287589301027 0.13508893593264823 
121.00287589301027 0.13508893593264823 
122.00287589301027 0.13508893593264823 
123.00287589301027 0.13508893593264823 
124.00287589301027 0.13508893593264823 
125.00287589301027 0.13508893593264823 
126.00287589301027 0.13508893593264823 
127.00287589301027 0.13508893593264823 
128.00287589301027 0.13508893593264823 
129.00287589301027 0.13508893593264823 
130.00287589301027 0.13508893593264823 
131.00287589301027 0.13508893593264823 
132.00287589301027 0.13508893593264823 
133.00287589301027 0.13508893593264823 
134.00287589301027 0.13508893593264823 
135.00287589301027 0.13508893593264823 
136.00287589301027 0.13508893593264823 
137.00287589301027 0.13508893593264823 
138.00287589301027 0.13508893593264823 
139.00287589301027 0.13508893593264823 
140.00287589301027 0.13508893593264823 
141.00287589301027 0.13508893593264823 
142.00287589301027 0.13508893593264823 
143.00287589301027 0.13508893593264823 
144.00287589301027 0.13508893593264823 
145.00287589301027 0.13508893593264823 
146.00287589301027 0.13508893593264823 
147.00287589301027 0.13508893593264823 
148.00287589301027 0.13508893593264823 
149.00287589301027 0.13508893593264823 
150.00287589301027 0.13508893593264823 
151.00287589301027 0.13508893593264823 
152.00287589301027 0.13508893593264823 
153.00287589301027 0.13508893593264823 
154.00287589301027 0.13508893593264823 
155.00287589301027 0.13508893593264823 
156.00287589301027 0.13508893593264823 
157.00287589301027 0.13508893593264823 
158.00287589301027 0.13508893593264823 
159.00287589301027 0.13508893593264823 
160.00287589301027 0.13508893593264823 
161.00287589301027 0.13508893593264823 
162.00287589301027 0.13508893593264823 
163.00287589301027 0.13508893593264823 
164.00287589301027 0.13508893593264823 
165.00287589301027 0.13508893593264823 
#####################################################################
# End of data export. Simulation finished at: 2017-05-23T10:04+0000 #
#####################################################################
