#####################################################################
# Alchemist log file - simulation started at: 2017-05-21T15:07+0000 #
#####################################################################
# random = 2.0, targets = 100.0, density = 1.2632455339402642, gridShift = 0.0, perturbation = 0.5, connfactor = 0.5
#
# The columns have the following meaning: 
# time se[Mean] 
0.0 NaN 
1.0021051854459069 NaN 
2.002105185445907 1.0011270710059172 
3.002105185445907 1.0020871671597633 
4.002105185445907 1.0008487138395792 
5.002105185445907 0.9998515162721894 
6.002105185445907 0.99389455539119 
7.002105185445907 0.985527342209073 
8.002105185445906 0.986591765285996 
9.002105185445906 0.9731867069362262 
10.002105185445906 0.9819226413543721 
11.002105185445906 0.9749140984549639 
12.002105185445906 0.9642783037475345 
13.002105185445906 0.9656570923734386 
14.002105185445906 0.9585449663050625 
15.002105185445906 0.9540454347468771 
16.002105185445906 0.9481106755424064 
17.002105185445906 0.9495642217291256 
18.002105185445906 0.9433469551282052 
19.002105185445906 0.9415028722879685 
20.002105185445906 0.938339484714004 
21.002105185445906 0.9251017052925706 
22.002105185445906 0.9191765614727153 
23.002105185445906 0.9029042118671926 
24.002105185445906 0.8830718318540434 
25.002105185445906 0.86690141765286 
26.002105185445906 0.8307044789612097 
27.002105185445906 0.8075771983892176 
28.002105185445906 0.7692856549967126 
29.002105185445906 0.7319223372781065 
30.002105185445906 0.6746826553254438 
31.002105185445906 0.6270541666666667 
32.002105185445906 0.5922853879026957 
33.002105185445906 0.5296480276134123 
34.002105185445906 0.5125816485864563 
35.002105185445906 0.47793359220907305 
36.002105185445906 0.47402017176199873 
37.002105185445906 0.47493927925706775 
38.002105185445906 0.482824926035503 
39.002105185445906 0.5051588839579224 
40.002105185445906 0.5200938568376069 
41.002105185445906 0.5488046104536489 
42.002105185445906 0.5588540557199211 
43.002105185445906 0.5716038297172913 
44.002105185445906 0.585389155982906 
45.002105185445906 0.5960441568047338 
46.002105185445906 0.6122939390203813 
47.002105185445906 0.619481295200526 
48.002105185445906 0.6203036653517423 
49.002105185445906 0.6228598290598291 
50.002105185445906 0.6232009204470743 
51.002105185445906 0.6237900065746219 
52.002105185445906 0.6240225016436555 
53.002105185445906 0.6240225016436555 
54.002105185445906 0.6241 
55.002105185445906 0.6241 
56.002105185445906 0.6241 
57.002105185445906 0.6241 
58.002105185445906 0.6241 
59.002105185445906 0.6241 
60.002105185445906 0.6241 
61.002105185445906 0.6241 
62.002105185445906 0.6241 
63.002105185445906 0.6241 
64.00210518544591 0.6241 
65.00210518544591 0.6241 
66.00210518544591 0.6241 
67.00210518544591 0.6241 
68.00210518544591 0.6241 
69.00210518544591 0.6241 
70.00210518544591 0.6241 
71.00210518544591 0.6241 
72.00210518544591 0.6241 
73.00210518544591 0.6241 
74.00210518544591 0.6241 
75.00210518544591 0.6241 
76.00210518544591 0.6241 
77.00210518544591 0.6241 
78.00210518544591 0.6241 
79.00210518544591 0.6241 
#####################################################################
# End of data export. Simulation finished at: 2017-05-21T15:08+0000 #
#####################################################################
