#####################################################################
# Alchemist log file - simulation started at: 2017-05-21T11:24+0000 #
#####################################################################
# random = 2.0, targets = 31.622776601683793, density = 1.7841466528270753, gridShift = 1.0, perturbation = 0.0, connfactor = 2.0
#
# The columns have the following meaning: 
# time se[Mean] 
0.0 NaN 
1.003288451303821 NaN 
2.003288451303821 1.0680707589882867 
3.003288451303821 1.101077778349841 
4.0032884513038205 1.1652845207714917 
5.0032884513038205 1.2925922725682986 
6.0032884513038205 1.320233573198362 
7.0032884513038205 1.5847036767577083 
8.00328845130382 1.5494691439936268 
9.00328845130382 1.5262451706334257 
10.00328845130382 1.5703978668315437 
11.00328845130382 1.5109670723124702 
12.00328845130382 1.6393639596091196 
13.00328845130382 1.4775235438919148 
14.00328845130382 1.5816868720936275 
15.00328845130382 1.5087032265670117 
16.00328845130382 1.5014385383750528 
17.00328845130382 1.5029110822629461 
18.00328845130382 1.4829220840906572 
19.00328845130382 1.5793469843990762 
20.00328845130382 1.663516986525264 
21.00328845130382 1.7438420946535718 
22.00328845130382 1.8894942564561228 
23.00328845130382 1.9159283797903441 
24.00328845130382 1.9593856612423528 
25.00328845130382 1.8948008149198798 
26.00328845130382 1.8608227449255037 
27.00328845130382 1.8118276918636316 
28.00328845130382 1.8526553864794126 
29.00328845130382 1.830629423549968 
30.00328845130382 1.7931785144710553 
31.00328845130382 1.7740619630152794 
32.00328845130382 1.7233849980503007 
33.00328845130382 1.5649476864113363 
34.00328845130382 1.3619515805086413 
35.00328845130382 1.2358887919021384 
36.00328845130382 1.1352389169728527 
37.00328845130382 1.0170326543611783 
38.00328845130382 0.9115018828314332 
39.00328845130382 0.8487393972536382 
40.00328845130382 0.7795427940989069 
41.00328845130382 0.7386177534430789 
42.00328845130382 0.6953698524985285 
43.00328845130382 0.6906205389733009 
44.00328845130382 0.6780654379535962 
45.00328845130382 0.6761432803940153 
46.00328845130382 0.6717955206441519 
47.00328845130382 0.6579817292742669 
48.00328845130382 0.6514678765766212 
49.00328845130382 0.6164517191364041 
50.00328845130382 0.5930838286049313 
51.00328845130382 0.5788130049938135 
52.00328845130382 0.5853438884647677 
53.00328845130382 0.5831518919527412 
54.00328845130382 0.5609988424600911 
55.00328845130382 0.5616520236280185 
56.00328845130382 0.5516774938207873 
57.00328845130382 0.5142700864435752 
58.00328845130382 0.47618564523119616 
59.00328845130382 0.4510218689207776 
60.00328845130382 0.4353195373941536 
61.00328845130382 0.41202689182609936 
62.00328845130382 0.3941017453665704 
63.00328845130382 0.38324065952958425 
64.00328845130382 0.37131676870132985 
65.00328845130382 0.3651105247736397 
66.00328845130382 0.35751970834572755 
67.00328845130382 0.3558344364512445 
68.00328845130382 0.3540814694579419 
69.00328845130382 0.3528523177457335 
70.00328845130382 0.35248460860493214 
71.00328845130382 0.35204901504477804 
72.00328845130382 0.35106810075243094 
73.00328845130382 0.35001086950104854 
74.00328845130382 0.34940571824811895 
75.00328845130382 0.34875233452514465 
76.00328845130382 0.3481031670720116 
77.00328845130382 0.3475961581749427 
78.00328845130382 0.34731481725329066 
79.00328845130382 0.3470891492778738 
80.00328845130382 0.34694847881704777 
81.00328845130382 0.3468356448293394 
82.00328845130382 0.34680780835622177 
83.00328845130382 0.34680780835622177 
84.00328845130382 0.34680780835622177 
85.00328845130382 0.34680780835622177 
86.00328845130382 0.34680780835622177 
87.00328845130382 0.34680780835622177 
88.00328845130382 0.34680780835622177 
89.00328845130382 0.34680780835622177 
90.00328845130382 0.34680780835622177 
91.00328845130382 0.34680780835622177 
92.00328845130382 0.34680780835622177 
93.00328845130382 0.34680780835622177 
94.00328845130382 0.34680780835622177 
95.00328845130382 0.34680780835622177 
96.00328845130382 0.34680780835622177 
97.00328845130382 0.34680780835622177 
98.00328845130382 0.34680780835622177 
99.00328845130382 0.34680780835622177 
100.00328845130382 0.34680780835622177 
101.00328845130382 0.34680780835622177 
102.00328845130382 0.34680780835622177 
103.00328845130382 0.34680780835622177 
104.00328845130382 0.34680780835622177 
105.00328845130382 0.34680780835622177 
106.00328845130382 0.34680780835622177 
107.00328845130382 0.34680780835622177 
108.00328845130382 0.34680780835622177 
109.00328845130382 0.34680780835622177 
#####################################################################
# End of data export. Simulation finished at: 2017-05-21T11:25+0000 #
#####################################################################
