#####################################################################
# Alchemist log file - simulation started at: 2017-05-25T23:07+0000 #
#####################################################################
# random = 19.0, targets = 10.0, density = 0.6332893950589894, gridShift = 0.0, perturbation = 0.0, connfactor = 0.75
#
# The columns have the following meaning: 
# time se[Mean] 
0.0 NaN 
1.0189000266060093 NaN 
2.0189000266060093 1.0387654320987654 
3.0189000266060093 1.0712628600823044 
4.018900026606009 1.090048010973937 
5.018900026606009 1.064178669410151 
6.018900026606009 1.0641315157750344 
7.018900026606009 1.0557433127572016 
8.018900026606008 1.0733933470507544 
9.018900026606008 1.0883144718792868 
10.018900026606008 1.1075908779149521 
11.018900026606008 1.1490980795610426 
12.018900026606008 1.141644375857339 
13.018900026606008 1.0984807956104252 
14.018900026606008 1.0836514060356655 
15.018900026606008 1.0889549039780522 
16.01890002660601 1.058638545953361 
17.01890002660601 0.9913468792866942 
18.01890002660601 0.9841992455418382 
19.01890002660601 0.9752829218106996 
20.01890002660601 0.9706850137174211 
21.01890002660601 0.8806875857338821 
22.01890002660601 0.8356652949245542 
23.01890002660601 0.7858521947873799 
24.01890002660601 0.7631121399176954 
25.01890002660601 0.7144941700960219 
26.01890002660601 0.6816958161865567 
27.01890002660601 0.6596287722908093 
28.01890002660601 0.6543852880658435 
29.01890002660601 0.6469727366255144 
30.01890002660601 0.6238245884773662 
31.01890002660601 0.6131901577503429 
32.018900026606005 0.6148902606310014 
33.018900026606005 0.6240637860082304 
34.018900026606005 0.632800925925926 
35.018900026606005 0.6380658436213992 
36.018900026606005 0.64 
37.018900026606005 0.64 
38.018900026606005 0.64 
39.018900026606005 0.64 
40.018900026606005 0.64 
41.018900026606005 0.64 
42.018900026606005 0.64 
43.018900026606005 0.64 
44.018900026606005 0.64 
45.018900026606005 0.64 
46.018900026606005 0.64 
47.018900026606005 0.64 
48.018900026606005 0.64 
49.018900026606005 0.64 
50.018900026606005 0.64 
51.018900026606005 0.64 
52.018900026606005 0.64 
#####################################################################
# End of data export. Simulation finished at: 2017-05-25T23:07+0000 #
#####################################################################
