#####################################################################
# Alchemist log file - simulation started at: 2017-05-23T14:06+0000 #
#####################################################################
# random = 5.0, targets = 31.622776601683793, density = 5.0264212595847235, gridShift = 1.0, perturbation = 0.5, connfactor = 0.1
#
# The columns have the following meaning: 
# time se[Mean] 
0.0 NaN 
1.0031365367908396 NaN 
2.00313653679084 1.0 
3.00313653679084 1.0 
4.00313653679084 1.0 
5.00313653679084 0.9998911791027913 
6.00313653679084 0.9995647164111653 
7.00313653679084 0.9995647164111653 
8.00313653679084 0.9976094367649054 
9.00313653679084 0.9975146018816827 
10.00313653679084 0.9954505013382142 
11.00313653679084 0.9939584773087612 
12.00313653679084 0.9924594602723151 
13.00313653679084 0.9901882074449188 
14.00313653679084 0.9910622711260848 
15.00313653679084 0.9907393049379553 
16.00313653679084 0.9923576323820995 
17.00313653679084 0.9922488114848909 
18.00313653679084 0.9931088891520707 
19.00313653679084 0.9925717776730203 
20.00313653679084 0.9946218922025029 
21.00313653679084 0.9953696524689776 
22.00313653679084 0.9968756625124167 
23.00313653679084 0.9979533819740141 
24.00313653679084 0.9978375680698123 
25.00313653679084 0.9985923213432801 
26.00313653679084 0.9986941492334958 
27.00313653679084 0.9990206119251218 
28.00313653679084 0.9991294328223306 
29.00313653679084 0.9986941492334958 
30.00313653679084 0.9991294328223306 
31.00313653679084 0.9991294328223306 
32.00313653679084 0.9991294328223306 
33.00313653679084 0.9993470746167479 
34.00313653679084 0.9989117910279132 
35.00313653679084 0.9991294328223306 
36.00313653679084 0.9986941492334958 
37.00313653679084 0.9986941492334958 
38.00313653679084 0.9994558955139565 
39.00313653679084 0.9988029701307045 
40.00313653679084 0.9992382537195392 
41.00313653679084 0.9989117910279132 
42.00313653679084 0.9983676865418697 
43.00313653679084 0.9985853283362871 
44.00313653679084 0.9985853283362871 
45.00313653679084 0.9984765074390785 
46.00313653679084 0.9988029701307045 
47.00313653679084 0.9984765074390785 
48.00313653679084 0.9981500447474524 
49.00313653679084 0.9981500447474524 
50.00313653679084 0.9988029701307045 
51.00313653679084 0.998258865644661 
52.00313653679084 0.9988029701307045 
53.00313653679084 0.9989117910279132 
54.00313653679084 0.9988029701307045 
55.00313653679084 0.9994558955139565 
56.00313653679084 0.9991294328223306 
57.00313653679084 0.9993470746167479 
58.00313653679084 0.9995647164111653 
59.00313653679084 0.9995647164111653 
60.00313653679084 0.9998911791027913 
61.00313653679084 1.0 
62.00313653679084 1.0 
63.00313653679084 1.0 
64.00313653679083 1.0 
65.00313653679083 1.0 
66.00313653679083 1.0 
67.00313653679083 0.9998911791027913 
68.00313653679083 0.9996735373083739 
69.00313653679083 0.9992382537195392 
70.00313653679083 0.9985853283362871 
71.00313653679083 0.997932402953035 
72.00313653679083 0.9967353730837395 
73.00313653679083 0.9955383432144439 
74.00313653679083 0.9944501342423571 
75.00313653679083 0.9934707461674789 
76.00313653679083 0.9923825371953922 
77.00313653679083 0.9908590446344706 
78.00313653679083 0.989662014765175 
79.00313653679083 0.9880297013070448 
80.00313653679083 0.9868326714377491 
81.00313653679083 0.9834856028829035 
82.00313653679083 0.9806826388141012 
83.00313653679083 0.97562081516254 
84.00313653679083 0.9713207377914397 
85.00313653679083 0.9694707825388919 
86.00313653679083 0.9594823353916019 
87.00313653679083 0.958067663727889 
88.00313653679083 0.9574971799832219 
89.00313653679083 0.9568178753413465 
90.00313653679083 0.953035523197666 
91.00313653679083 0.9444353684554655 
92.00313653679083 0.9459885441377247 
93.00313653679083 0.9378236729843589 
94.00313653679083 0.9416357082493776 
95.00313653679083 0.9314296193076701 
96.00313653679083 0.9368475887721953 
97.00313653679083 0.9257973119114421 
98.00313653679083 0.9346447915693983 
99.00313653679083 0.9214444760230945 
100.00313653679083 0.9173247423884815 
101.00313653679083 0.9216326652823068 
102.00313653679083 0.905994614800186 
103.00313653679083 0.8996582845276692 
104.00313653679083 0.8975276260318474 
105.00313653679083 0.8915888520014182 
106.00313653679083 0.8708165964508235 
107.00313653679083 0.8895770685625752 
108.00313653679083 0.8766810732063874 
109.00313653679083 0.8821748022673042 
110.00313653679083 0.8720424448019207 
111.00313653679083 0.8873232921907593 
112.00313653679083 0.8684974195452833 
113.00313653679083 0.8754381473790158 
114.00313653679083 0.8725662923348951 
115.00313653679083 0.8656121321619132 
116.00313653679083 0.8701061039327678 
117.00313653679083 0.8788277155267521 
118.00313653679083 0.8801098188985931 
119.00313653679083 0.8776554600229273 
120.00313653679083 0.8762166177376361 
121.00313653679083 0.877252373095373 
122.00313653679083 0.8765768698598913 
123.00313653679083 0.8673488750647086 
124.00313653679083 0.8716661239884921 
125.00313653679083 0.8618737798780013 
126.00313653679083 0.864028602933499 
127.00313653679083 0.8592667383290206 
128.00313653679083 0.8627454483432422 
129.00313653679083 0.8557495045833777 
130.00313653679083 0.8605240051424311 
131.00313653679083 0.8570898289030701 
132.00313653679083 0.8585451085493299 
133.00313653679083 0.8545205147008367 
134.00313653679083 0.8522033780391688 
135.00313653679083 0.8516352273174669 
136.00313653679083 0.8531639335371531 
137.00313653679083 0.8601406154313069 
138.00313653679083 0.8637661785923815 
139.00313653679083 0.8658215067806289 
140.00313653679083 0.8664615534993687 
141.00313653679083 0.8679551141671126 
142.00313653679083 0.8663897318190951 
143.00313653679083 0.8653299924186595 
144.00313653679083 0.8648348389815671 
145.00313653679083 0.8612052438279655 
146.00313653679083 0.8588343717473989 
147.00313653679083 0.8605656263980429 
148.00313653679083 0.8622125356759538 
149.00313653679083 0.8615139752302696 
150.00313653679083 0.8563488613669661 
151.00313653679083 0.8579703682879052 
152.00313653679083 0.8547019520890552 
153.00313653679083 0.8574961938717918 
154.00313653679083 0.8535292172272576 
155.00313653679083 0.8570220194556786 
156.00313653679083 0.8523564823654602 
157.00313653679083 0.8577205799013627 
158.00313653679083 0.8528306567815735 
159.00313653679083 0.8483387010069826 
160.00313653679083 0.8537282008998568 
161.00313653679083 0.847889928947841 
162.00313653679083 0.84339797317325 
163.00313653679083 0.8440965336189342 
164.00313653679083 0.8445707080350475 
165.00313653679083 0.8328433594170725 
166.00313653679083 0.8445199033211039 
167.00313653679083 0.841776466252311 
168.00313653679083 0.8426740103705941 
169.00313653679083 0.8398797685878575 
170.00313653679083 0.8508831544031767 
171.00313653679083 0.8455444592242459 
172.00313653679083 0.8459678289264161 
173.00313653679083 0.849037261452667 
174.00313653679083 0.8436477615597924 
175.00313653679083 0.848313298650011 
176.00313653679083 0.8558492845938811 
177.00313653679083 0.8624369217055247 
178.00313653679083 0.8643336193699779 
179.00313653679083 0.8655063542317752 
180.00313653679083 0.8694987332332813 
181.00313653679083 0.8732667262052164 
182.00313653679083 0.871869605313848 
183.00313653679083 0.8756121959288113 
184.00313653679083 0.8763361587314673 
185.00313653679083 0.8770347191771515 
186.00313653679083 0.8775088935932648 
187.00313653679083 0.8775088935932648 
188.00313653679083 0.8775088935932648 
189.00313653679083 0.8775088935932648 
190.00313653679083 0.8775088935932648 
191.00313653679083 0.8775088935932648 
192.00313653679083 0.8775088935932648 
193.00313653679083 0.8775088935932648 
194.00313653679083 0.8775088935932648 
195.00313653679083 0.8775088935932648 
196.00313653679083 0.8775088935932648 
197.00313653679083 0.8775088935932648 
198.00313653679083 0.8775088935932648 
199.00313653679083 0.8775088935932648 
200.00313653679083 0.8775088935932648 
201.00313653679083 0.8775088935932648 
202.00313653679083 0.8775088935932648 
203.00313653679083 0.8775088935932648 
204.00313653679083 0.8775088935932648 
205.00313653679083 0.8775088935932648 
206.00313653679083 0.8775088935932648 
207.00313653679083 0.8775088935932648 
208.00313653679083 0.8775088935932648 
209.00313653679083 0.8775088935932648 
210.00313653679083 0.8775088935932648 
211.00313653679083 0.8775088935932648 
212.00313653679083 0.8775088935932648 
213.00313653679083 0.8775088935932648 
214.00313653679083 0.8775088935932648 
215.00313653679083 0.8775088935932648 
216.00313653679083 0.8775088935932648 
217.00313653679083 0.8775088935932648 
218.00313653679083 0.8775088935932648 
219.00313653679083 0.8775088935932648 
220.00313653679083 0.8775088935932648 
221.00313653679083 0.8775088935932648 
222.00313653679083 0.8775088935932648 
223.00313653679083 0.8775088935932648 
224.00313653679083 0.8775088935932648 
225.00313653679083 0.8775088935932648 
226.00313653679083 0.8775088935932648 
227.00313653679083 0.8775088935932648 
228.00313653679083 0.8775088935932648 
229.00313653679083 0.8775088935932648 
230.00313653679083 0.8775088935932648 
231.00313653679083 0.8775088935932648 
232.00313653679083 0.8775088935932648 
#####################################################################
# End of data export. Simulation finished at: 2017-05-23T14:08+0000 #
#####################################################################
