#####################################################################
# Alchemist log file - simulation started at: 2017-05-25T18:41+0000 #
#####################################################################
# random = 18.0, targets = 100.0, density = 1.7841466528270753, gridShift = 1.0, perturbation = 0.5, connfactor = 0.5
#
# The columns have the following meaning: 
# time se[Mean] 
0.0 NaN 
1.001562157851807 NaN 
2.001562157851807 1.0017950892857144 
3.001562157851807 1.0015008091517856 
4.001562157851807 0.9983392268105159 
5.001562157851807 0.9923699559771826 
6.001562157851807 0.9819596013144841 
7.001562157851807 0.9704342230902778 
8.001562157851808 0.9653746434771825 
9.001562157851808 0.9534497705853174 
10.001562157851808 0.9483662822420635 
11.001562157851808 0.9405751488095239 
12.001562157851808 0.9376873635912699 
13.001562157851808 0.9352282738095239 
14.001562157851808 0.9313919270833334 
15.001562157851808 0.9223928447420635 
16.001562157851808 0.9201193452380952 
17.001562157851808 0.9138416170634921 
18.001562157851808 0.9147250496031747 
19.001562157851808 0.9015368303571429 
20.001562157851808 0.9049362723214287 
21.001562157851808 0.8976923487103176 
22.001562157851808 0.8991200520833333 
23.001562157851808 0.8987551215277779 
24.001562157851808 0.8936911458333334 
25.001562157851808 0.8915706473214287 
26.001562157851808 0.8885788690476192 
27.001562157851808 0.8795937003968256 
28.001562157851808 0.8766881324404763 
29.001562157851808 0.869919717261905 
30.001562157851808 0.8617683779761905 
31.001562157851808 0.8587401537698413 
32.00156215785181 0.8509342757936508 
33.00156215785181 0.8382677083333335 
34.00156215785181 0.835141480654762 
35.00156215785181 0.8241232018849208 
36.00156215785181 0.8152069692460319 
37.00156215785181 0.8070892237103174 
38.00156215785181 0.7948489831349206 
39.00156215785181 0.7881429811507936 
40.00156215785181 0.7757163473462301 
41.00156215785181 0.7689055462549604 
42.00156215785181 0.7524646608382936 
43.00156215785181 0.7462186910962303 
44.00156215785181 0.7285311104910716 
45.00156215785181 0.7360258525545635 
46.00156215785181 0.7010673859126985 
47.00156215785181 0.7167230747767858 
48.00156215785181 0.6938946459573413 
49.00156215785181 0.7072604321676588 
50.00156215785181 0.6639477895585317 
51.00156215785181 0.6773843936011905 
52.00156215785181 0.6428463851686508 
53.00156215785181 0.6464061414930555 
54.00156215785181 0.6094940228174603 
55.00156215785181 0.577268179563492 
56.00156215785181 0.5891351996527777 
57.00156215785181 0.5597531994047619 
58.00156215785181 0.545924519469246 
59.00156215785181 0.5299948474702381 
60.00156215785181 0.5284675161210317 
61.00156215785181 0.4767527963789682 
62.00156215785181 0.4989317150297619 
63.00156215785181 0.43107314608134917 
64.00156215785181 0.47348033234126985 
65.00156215785181 0.4030316437251984 
66.00156215785181 0.4216240730406746 
67.00156215785181 0.42097616877480165 
68.00156215785181 0.363091263640873 
69.00156215785181 0.38414345858134924 
70.00156215785181 0.34556174975198417 
71.00156215785181 0.37143809833829367 
72.00156215785181 0.3632090773809524 
73.00156215785181 0.363852628968254 
74.00156215785181 0.3679159970238095 
75.00156215785181 0.3792533482142857 
76.00156215785181 0.3970249007936508 
77.00156215785181 0.39698571428571433 
78.00156215785181 0.40463830605158735 
79.00156215785181 0.40321628224206346 
80.00156215785181 0.40448137400793654 
81.00156215785181 0.4053262028769841 
82.00156215785181 0.41065665922619043 
83.00156215785181 0.416861185515873 
84.00156215785181 0.4182563492063492 
85.00156215785181 0.42056298363095235 
86.00156215785181 0.42214375 
87.00156215785181 0.42260772569444444 
88.00156215785181 0.4225683159722222 
89.00156215785181 0.4225 
90.00156215785181 0.4225 
91.00156215785181 0.4225 
92.00156215785181 0.4225 
93.00156215785181 0.4225 
94.00156215785181 0.4225 
95.00156215785181 0.4225 
96.00156215785181 0.4225 
97.00156215785181 0.4225 
98.00156215785181 0.4225 
99.00156215785181 0.4225 
100.00156215785181 0.4225 
101.00156215785181 0.4225 
102.00156215785181 0.4225 
103.00156215785181 0.4225 
104.00156215785181 0.4225 
105.00156215785181 0.4225 
106.00156215785181 0.4225 
107.00156215785181 0.4225 
108.00156215785181 0.4225 
109.00156215785181 0.4225 
110.00156215785181 0.4225 
111.00156215785181 0.4225 
112.00156215785181 0.4225 
113.00156215785181 0.4225 
114.00156215785181 0.4225 
115.00156215785181 0.4225 
116.00156215785181 0.4225 
117.00156215785181 0.4225 
118.00156215785181 0.4225 
#####################################################################
# End of data export. Simulation finished at: 2017-05-25T18:41+0000 #
#####################################################################
