#####################################################################
# Alchemist log file - simulation started at: 2017-05-21T22:08+0000 #
#####################################################################
# random = 3.0, targets = 3.1622776601683795, density = 0.6332893950589894, gridShift = 1.0, perturbation = 0.0, connfactor = 0.5
#
# The columns have the following meaning: 
# time se[Mean] 
0.0 NaN 
1.0016359619213666 NaN 
2.001635961921367 1.0 
3.001635961921367 1.0 
4.001635961921367 1.0 
5.001635961921367 1.0 
6.001635961921367 1.0 
7.001635961921367 1.0 
8.001635961921366 1.0 
9.001635961921366 1.0 
10.001635961921366 1.0 
11.001635961921366 1.0 
12.001635961921366 1.0 
13.001635961921366 0.9933138480415388 
14.001635961921366 0.9598830882492325 
15.001635961921366 1.0049058888682119 
16.001635961921366 1.18321682825388 
17.001635961921366 1.1034084942671611 
18.001635961921366 1.1202441975581565 
19.001635961921366 1.0576744269882965 
20.001635961921366 0.8478855354858655 
21.001635961921366 0.8625186302689536 
22.001635961921366 0.8277299742078098 
23.001635961921366 0.6995688858072231 
24.001635961921366 0.6184286430753103 
25.001635961921366 0.502574241699727 
26.001635961921366 0.5549038577662297 
27.001635961921366 0.4386400940329333 
28.001635961921366 0.18637214215023248 
29.001635961921366 0.15995568298724416 
30.001635961921366 0.14614154836086898 
31.001635961921366 0.1345398826089421 
32.001635961921366 0.13665813333283544 
33.001635961921366 0.13508893593264834 
34.001635961921366 0.13508893593264834 
35.001635961921366 0.13508893593264834 
36.001635961921366 0.13508893593264834 
37.001635961921366 0.13508893593264834 
38.001635961921366 0.13508893593264834 
39.001635961921366 0.13508893593264834 
40.001635961921366 0.13508893593264834 
41.001635961921366 0.13508893593264834 
42.001635961921366 0.13508893593264834 
43.001635961921366 0.13508893593264834 
44.001635961921366 0.13508893593264834 
45.001635961921366 0.13508893593264834 
46.001635961921366 0.13508893593264834 
47.001635961921366 0.13508893593264834 
48.001635961921366 0.13508893593264834 
#####################################################################
# End of data export. Simulation finished at: 2017-05-21T22:08+0000 #
#####################################################################
