#####################################################################
# Alchemist log file - simulation started at: 2017-05-23T06:03+0000 #
#####################################################################
# random = 11.0, targets = 1.0, density = 7.099073319511142, gridShift = 0.0, perturbation = 0.0, connfactor = 0.5
#
# The columns have the following meaning: 
# time se[Mean] 
0.0 NaN 
1.0000311017741008 NaN 
2.000031101774101 1.0 
3.000031101774101 1.0 
4.000031101774101 1.0 
5.000031101774101 1.0 
6.000031101774101 1.0 
7.000031101774101 0.9990433673469388 
8.000031101774102 0.9990433673469388 
9.000031101774102 0.9933035714285715 
10.000031101774102 0.987563775510204 
11.000031101774102 0.9866071428571429 
12.000031101774102 0.9626913265306125 
13.000031101774102 0.9713010204081632 
14.000031101774102 0.94547193877551 
15.000031101774102 0.9665178571428571 
16.000031101774102 0.9406887755102045 
17.000031101774102 0.9665178571428571 
18.000031101774102 0.9540816326530615 
19.000031101774102 0.9607780612244898 
20.000031101774102 0.9713010204081634 
21.000031101774102 0.9588647959183673 
22.000031101774102 0.9799107142857143 
23.000031101774102 0.9607780612244899 
24.000031101774102 0.9837372448979591 
25.000031101774102 0.96077806122449 
26.000031101774102 0.9837372448979591 
27.000031101774102 0.9703443877551022 
28.000031101774102 0.9799107142857144 
29.000031101774102 0.9856505102040818 
30.000031101774102 0.9779974489795921 
31.000031101774102 0.9885204081632653 
32.0000311017741 0.9799107142857145 
33.0000311017741 0.9971301020408163 
34.0000311017741 0.9856505102040818 
35.0000311017741 0.9971301020408163 
36.0000311017741 0.9923469387755102 
37.0000311017741 0.9961734693877551 
38.0000311017741 0.9961734693877551 
39.0000311017741 0.9980867346938775 
40.0000311017741 0.9971301020408163 
41.0000311017741 0.9971301020408163 
42.0000311017741 0.9952168367346939 
43.0000311017741 0.9872448979591836 
44.0000311017741 1.0066964285714286 
45.0000311017741 1.0385841836734693 
46.0000311017741 1.1033163265306123 
47.0000311017741 1.3137755102040818 
48.0000311017741 1.3185586734693895 
49.0000311017741 1.6517857142857129 
50.0000311017741 1.562181122448982 
51.0000311017741 1.6536989795918362 
52.0000311017741 1.7184311224489823 
53.0000311017741 1.5554846938775535 
54.0000311017741 1.5379464285714277 
55.0000311017741 1.3565051020408174 
56.0000311017741 1.3456632653061225 
57.0000311017741 1.2024872448979589 
58.0000311017741 1.2110969387755093 
59.0000311017741 1.1396683673469388 
60.0000311017741 1.1996173469387754 
61.0000311017741 0.9540816326530612 
62.0000311017741 0.9279336734693883 
63.0000311017741 0.8794642857142844 
64.0000311017741 0.759885204081632 
65.0000311017741 0.7643494897959181 
66.0000311017741 0.5258290816326534 
67.0000311017741 0.5487882653061228 
68.0000311017741 0.33099489795918396 
69.0000311017741 0.33545918367346955 
70.0000311017741 0.25573979591836754 
71.0000311017741 0.2369260204081635 
72.0000311017741 0.19005102040816355 
73.0000311017741 0.11001275510204092 
74.0000311017741 0.08577806122448976 
75.0000311017741 0.05739795918367363 
76.0000311017741 0.08067602040816327 
77.0000311017741 0.023915816326530708 
78.0000311017741 0.05548469387755114 
79.0000311017741 0.039859693877551144 
80.0000311017741 0.03985969387755113 
81.0000311017741 0.04783163265306139 
82.0000311017741 0.023915816326530715 
83.0000311017741 0.023915816326530687 
84.0000311017741 0.007971938775510235 
85.0000311017741 0.007971938775510234 
86.0000311017741 0.0 
87.0000311017741 0.007971938775510234 
88.0000311017741 0.0 
89.0000311017741 0.0 
90.0000311017741 0.0 
91.0000311017741 0.0 
92.0000311017741 0.0 
93.0000311017741 0.0 
94.0000311017741 0.0 
95.0000311017741 0.0 
96.0000311017741 0.0 
97.0000311017741 0.0 
98.0000311017741 0.0 
99.0000311017741 0.0 
100.0000311017741 0.0 
101.0000311017741 0.0 
102.0000311017741 0.0 
103.0000311017741 0.0 
104.0000311017741 0.0 
105.0000311017741 0.0 
106.0000311017741 0.0 
107.0000311017741 0.0 
108.0000311017741 0.0 
109.0000311017741 0.0 
110.0000311017741 0.0 
111.0000311017741 0.0 
112.0000311017741 0.0 
113.0000311017741 0.0 
114.0000311017741 0.0 
115.0000311017741 0.0 
116.0000311017741 0.0 
117.0000311017741 0.0 
118.0000311017741 0.0 
119.0000311017741 0.0 
120.0000311017741 0.0 
121.0000311017741 0.0 
122.0000311017741 0.0 
123.0000311017741 0.0 
124.0000311017741 0.0 
125.0000311017741 0.0 
126.0000311017741 0.0 
127.0000311017741 0.0 
128.00003110177408 0.0 
129.00003110177408 0.0 
130.00003110177408 0.0 
131.00003110177408 0.0 
132.00003110177408 0.0 
133.00003110177408 0.0 
134.00003110177408 0.0 
135.00003110177408 0.0 
136.00003110177408 0.0 
137.00003110177408 0.0 
138.00003110177408 0.0 
139.00003110177408 0.0 
140.00003110177408 0.0 
141.00003110177408 0.0 
142.00003110177408 0.0 
143.00003110177408 0.0 
144.00003110177408 0.0 
145.00003110177408 0.0 
146.00003110177408 0.0 
147.00003110177408 0.0 
#####################################################################
# End of data export. Simulation finished at: 2017-05-23T06:04+0000 #
#####################################################################
