#####################################################################
# Alchemist log file - simulation started at: 2017-05-20T05:49+0000 #
#####################################################################
# random = 0.0, targets = 100.0, density = 1.2632455339402642, gridShift = 0.0, perturbation = 0.0, connfactor = 0.25
#
# The columns have the following meaning: 
# time se[Mean] 
0.0 NaN 
1.0011337332612453 NaN 
2.0011337332612453 1.0001189349112427 
3.0011337332612453 1.0000014792899408 
4.001133733261245 1.0011739809335962 
5.001133733261245 1.0009500821827746 
6.001133733261245 0.9982280407626561 
7.001133733261245 0.9947793228139382 
8.001133733261245 0.9900399901380671 
9.001133733261245 0.986371942800789 
10.001133733261245 0.9861858316896779 
11.001133733261245 0.9829267422748191 
12.001133733261245 0.9831894641683103 
13.001133733261245 0.980013708086785 
14.001133733261245 0.9802593195266273 
15.001133733261245 0.9776176035502958 
16.001133733261245 0.9767642998027614 
17.001133733261245 0.975469510190664 
18.001133733261245 0.9761763313609467 
19.001133733261245 0.9754615877712032 
20.001133733261245 0.9745772846811308 
21.001133733261245 0.9744992439184746 
22.001133733261245 0.9709069197896121 
23.001133733261245 0.9729220085470085 
24.001133733261245 0.9683200690335305 
25.001133733261245 0.9662361439842209 
26.001133733261245 0.9671031558185404 
27.001133733261245 0.9620304404996712 
28.001133733261245 0.9639405982905983 
29.001133733261245 0.9609151380670611 
30.001133733261245 0.9593439184746877 
31.001133733261245 0.9548943293885601 
32.00113373326124 0.9542597797501644 
33.00113373326124 0.9464895134779749 
34.00113373326124 0.9432807199211045 
35.00113373326124 0.9354863905325443 
36.00113373326124 0.9279767258382643 
37.00113373326124 0.9205484385272846 
38.00113373326124 0.9063800460223537 
39.00113373326124 0.8768942472057856 
40.00113373326124 0.8603831689677843 
41.00113373326124 0.8397293885601578 
42.00113373326124 0.8226226824457593 
43.00113373326124 0.8239260355029585 
44.00113373326124 0.7963629684418146 
45.00113373326124 0.8027077744904668 
46.00113373326124 0.784680013149244 
47.00113373326124 0.7710790598290598 
48.00113373326124 0.7603169789612098 
49.00113373326124 0.7644978468113084 
50.00113373326124 0.7441767422748192 
51.00113373326124 0.7421144148586456 
52.00113373326124 0.7469807363576595 
53.00113373326124 0.7417700197238659 
54.00113373326124 0.7584764135437212 
55.00113373326124 0.762119033530572 
56.00113373326124 0.7666795529257068 
57.00113373326124 0.7703092044707429 
58.00113373326124 0.7723180144641683 
59.00113373326124 0.7738834319526627 
60.00113373326124 0.7744 
61.00113373326124 0.774296449704142 
62.00113373326124 0.7744 
63.00113373326124 0.7744 
64.00113373326124 0.7744 
65.00113373326124 0.7744 
66.00113373326124 0.7744 
67.00113373326124 0.7744 
68.00113373326124 0.7744 
69.00113373326124 0.7744 
70.00113373326124 0.7744 
71.00113373326124 0.7744 
72.00113373326124 0.7744 
73.00113373326124 0.7744 
74.00113373326124 0.7744 
75.00113373326124 0.7744 
76.00113373326124 0.7744 
77.00113373326124 0.7744 
78.00113373326124 0.7744 
79.00113373326124 0.7744 
80.00113373326124 0.7744 
81.00113373326124 0.7744 
82.00113373326124 0.7744 
83.00113373326124 0.7744 
84.00113373326124 0.7744 
85.00113373326124 0.7744 
86.00113373326124 0.7744 
87.00113373326124 0.7744 
88.00113373326124 0.7744 
#####################################################################
# End of data export. Simulation finished at: 2017-05-20T05:49+0000 #
#####################################################################
