#####################################################################
# Alchemist log file - simulation started at: 2017-05-25T03:17+0000 #
#####################################################################
# random = 7.0, targets = 100.0, density = 2.519842099789746, gridShift = 0.0, perturbation = 0.0, connfactor = 0.5
#
# The columns have the following meaning: 
# time se[Mean] 
0.0 NaN 
1.001616958347866 NaN 
2.0016169583478662 1.0030703671664745 
3.0016169583478662 1.0054658953287197 
4.001616958347866 1.0063433631295655 
5.001616958347866 1.0078043733179547 
6.001616958347866 1.0024598639946174 
7.001616958347866 1.0065781598423684 
8.001616958347867 1.0036650519031143 
9.001616958347867 1.0028265162437524 
10.001616958347867 0.9957714196462899 
11.001616958347867 0.9886220660322953 
12.001616958347867 0.979420597846982 
13.001616958347867 0.9705274125336409 
14.001616958347867 0.9560638696655133 
15.001616958347867 0.946384426662822 
16.001616958347867 0.9326353469819301 
17.001616958347867 0.9241780012495194 
18.001616958347867 0.9086164744329104 
19.001616958347867 0.89868842272203 
20.001616958347867 0.8888158136293733 
21.001616958347867 0.8843540657439446 
22.001616958347867 0.871837396674356 
23.001616958347867 0.8662235390234525 
24.001616958347867 0.8568876465782391 
25.001616958347867 0.8503192401960785 
26.001616958347867 0.8421311707035756 
27.001616958347867 0.8340297361591695 
28.001616958347867 0.8272412053056517 
29.001616958347867 0.8151669502114571 
30.001616958347867 0.8099988514033065 
31.001616958347867 0.7967516195693963 
32.00161695834787 0.7884029483852365 
33.00161695834787 0.7802805002883506 
34.00161695834787 0.7714493632256825 
35.00161695834787 0.763880276816609 
36.00161695834787 0.75038463331411 
37.00161695834787 0.7449591671472511 
38.00161695834787 0.7331457588427528 
39.00161695834787 0.7263231930026913 
40.00161695834787 0.7179318747597078 
41.00161695834787 0.7058062235678585 
42.00161695834787 0.7034448889850058 
43.00161695834787 0.6885565984236832 
44.00161695834787 0.6797008842752787 
45.00161695834787 0.6658798034409843 
46.00161695834787 0.6488147491349482 
47.00161695834787 0.6350077470203768 
48.00161695834787 0.6217785034602077 
49.00161695834787 0.6015788903306422 
50.00161695834787 0.5929038278546713 
51.00161695834787 0.5888124158977316 
52.00161695834787 0.5775942594194541 
53.00161695834787 0.5881609332948866 
54.00161695834787 0.5773569492502884 
55.00161695834787 0.5903999207035756 
56.00161695834787 0.5816342128027682 
57.00161695834787 0.5840631535947713 
58.00161695834787 0.5760456939638601 
59.00161695834787 0.5750016195693964 
60.00161695834787 0.5727997524990389 
61.00161695834787 0.5728193074778932 
62.00161695834787 0.5716788014225298 
63.00161695834787 0.5747739499231066 
64.00161695834787 0.5751888047866206 
65.00161695834787 0.5767954993271819 
66.00161695834787 0.5765473543829297 
67.00161695834787 0.5765921953094963 
68.00161695834787 0.5776019223375625 
69.00161695834787 0.5776703575547866 
70.00161695834787 0.5774787004998078 
71.00161695834787 0.5774612072279892 
72.00161695834787 0.5775825067281815 
73.00161695834787 0.5776 
74.00161695834787 0.5776 
75.00161695834787 0.5776 
76.00161695834787 0.5776 
77.00161695834787 0.5776 
78.00161695834787 0.5776 
79.00161695834787 0.5776 
80.00161695834787 0.5776 
81.00161695834787 0.5776 
82.00161695834787 0.5776 
83.00161695834787 0.5776 
84.00161695834787 0.5776 
85.00161695834787 0.5776 
86.00161695834787 0.5776 
87.00161695834787 0.5776 
88.00161695834787 0.5776 
89.00161695834787 0.5776 
90.00161695834787 0.5776 
91.00161695834787 0.5776 
92.00161695834787 0.5776 
93.00161695834787 0.5776 
94.00161695834787 0.5776 
95.00161695834787 0.5776 
96.00161695834787 0.5776 
97.00161695834787 0.5776 
98.00161695834787 0.5776 
99.00161695834787 0.5776 
100.00161695834787 0.5776 
101.00161695834787 0.5776 
102.00161695834787 0.5776 
103.00161695834787 0.5776 
104.00161695834787 0.5776 
105.00161695834787 0.5776 
106.00161695834787 0.5776 
107.00161695834787 0.5776 
108.00161695834787 0.5776 
109.00161695834787 0.5776 
110.00161695834787 0.5776 
#####################################################################
# End of data export. Simulation finished at: 2017-05-25T03:19+0000 #
#####################################################################
