#####################################################################
# Alchemist log file - simulation started at: 2017-05-25T16:51+0000 #
#####################################################################
# random = 8.0, targets = 31.622776601683793, density = 7.099073319511142, gridShift = 1.0, perturbation = 0.5, connfactor = 0.5
#
# The columns have the following meaning: 
# time se[Mean] 
0.0 NaN 
1.0009686244946094 NaN 
2.000968624494609 1.0 
3.000968624494609 0.9996145396631985 
4.000968624494609 0.9969012551033644 
5.000968624494609 0.9923565508608084 
6.000968624494609 0.987744488357652 
7.000968624494609 0.9796005955058683 
8.00096862449461 0.9780004246260099 
9.00096862449461 0.9726066902641763 
10.00096862449461 0.9712900642455582 
11.00096862449461 0.9671645266545907 
12.00096862449461 0.9636572520994384 
13.00096862449461 0.9595196981282125 
14.00096862449461 0.955189340036487 
15.00096862449461 0.9486042438995418 
16.00096862449461 0.9403162893334358 
17.00096862449461 0.9304276859687515 
18.00096862449461 0.9231086425715308 
19.00096862449461 0.9112935965183073 
20.00096862449461 0.902913115130625 
21.00096862449461 0.8945598998898054 
22.00096862449461 0.8840161453443318 
23.00096862449461 0.8772633070572224 
24.00096862449461 0.8656366539586288 
25.00096862449461 0.8553964573599683 
26.00096862449461 0.8426671246357914 
27.00096862449461 0.8264008513733977 
28.00096862449461 0.8192205093006857 
29.00096862449461 0.8012565094433648 
30.00096862449461 0.7948109339662135 
31.00096862449461 0.7800456580263928 
32.00096862449461 0.7793694500129973 
33.00096862449461 0.7611345174145223 
34.00096862449461 0.758353382288934 
35.00096862449461 0.7526040912121037 
36.00096862449461 0.735625314375201 
37.00096862449461 0.7343849913870003 
38.00096862449461 0.739902932394395 
39.00096862449461 0.7251681417521296 
40.00096862449461 0.7251403876155214 
41.00096862449461 0.7171130761412564 
42.00096862449461 0.7170916891225517 
43.00096862449461 0.7133585601889018 
44.00096862449461 0.7119894467468455 
45.00096862449461 0.7056011661384736 
46.00096862449461 0.7057743970645168 
47.00096862449461 0.7070420295304571 
48.00096862449461 0.6912102207225014 
49.00096862449461 0.694130463715466 
50.00096862449461 0.6914127438754545 
51.00096862449461 0.6856972995670282 
52.00096862449461 0.692622149749483 
53.00096862449461 0.6892454008383722 
54.00096862449461 0.6887590868093759 
55.00096862449461 0.6853152641947978 
56.00096862449461 0.6811796660248245 
57.00096862449461 0.6748299206496492 
58.00096862449461 0.6765777820933571 
59.00096862449461 0.6703168545535753 
60.00096862449461 0.6664283488679469 
61.00096862449461 0.6695831935246018 
62.00096862449461 0.6620723170262509 
63.00096862449461 0.6577480576858846 
64.00096862449462 0.657730024687448 
65.00096862449462 0.6532419415637006 
66.00096862449462 0.6510951751008273 
67.00096862449462 0.6512397502710144 
68.00096862449462 0.6498579820642982 
69.00096862449462 0.6487302133696806 
70.00096862449462 0.6458530088500021 
71.00096862449462 0.6421464321591284 
72.00096862449462 0.6423926008856485 
73.00096862449462 0.6412548317574106 
74.00096862449462 0.637773517828245 
75.00096862449462 0.6356497370721074 
76.00096862449462 0.6384812712899829 
77.00096862449462 0.6383767363550183 
78.00096862449462 0.6383542766656317 
79.00096862449462 0.6373147118794652 
80.00096862449462 0.6355844926087773 
81.00096862449462 0.632044012955576 
82.00096862449462 0.6304058855546751 
83.00096862449462 0.6389262254104061 
84.00096862449462 0.6320891448709164 
85.00096862449462 0.6314626479849793 
86.00096862449462 0.6334428713994997 
87.00096862449462 0.6273743801096672 
88.00096862449462 0.6276285200961769 
89.00096862449462 0.623839102205548 
90.00096862449462 0.6205389646947331 
91.00096862449462 0.6207523204796386 
92.00096862449462 0.6147196679621156 
93.00096862449462 0.6105494155636343 
94.00096862449462 0.6054158857127473 
95.00096862449462 0.5974087662992085 
96.00096862449462 0.5911493506765114 
97.00096862449462 0.5844535448188302 
98.00096862449462 0.603889143399558 
99.00096862449462 0.6714199041763069 
100.00096862449462 0.687728389282122 
101.00096862449462 0.7038660080833077 
102.00096862449462 0.9392378612027998 
103.00096862449462 1.164161751731559 
104.00096862449462 1.7057675854440046 
105.00096862449462 1.8726815620553292 
106.00096862449462 2.603013822421729 
107.00096862449462 2.7223834451602404 
108.00096862449462 2.534538564069053 
109.00096862449462 2.980625804767518 
110.00096862449462 3.106781616372533 
111.00096862449462 3.644314650138473 
112.00096862449462 3.576878680141255 
113.00096862449462 3.9574275557429264 
114.00096862449462 3.771406849493228 
115.00096862449462 4.135095395993359 
116.00096862449462 3.746174576061143 
117.00096862449462 3.747681271056712 
118.00096862449462 4.540550277840604 
119.00096862449462 4.312043487947661 
120.00096862449462 4.432117781972502 
121.00096862449462 4.789875641031886 
122.00096862449462 4.857857314658341 
123.00096862449462 4.284685984098677 
124.00096862449462 4.5748940028074525 
125.00096862449462 4.6948150816798755 
126.00096862449462 5.072055623943003 
127.00096862449462 5.077854144022346 
128.00096862449462 4.942397291857498 
129.00096862449462 5.413097264987633 
130.00096862449462 5.605088228024039 
131.00096862449462 5.619212022100789 
132.00096862449462 5.204587943638482 
133.00096862449462 4.838313841259467 
134.00096862449462 4.552511324735579 
135.00096862449462 4.865735541140241 
136.00096862449462 5.45279499191544 
137.00096862449462 5.37796644959245 
138.00096862449462 5.512657866625657 
139.00096862449462 5.0982056061823835 
140.00096862449462 5.401404082509748 
141.00096862449462 5.231303527761119 
142.00096862449462 4.055070810741041 
143.00096862449462 4.520725970651496 
144.00096862449462 4.240427040758898 
145.00096862449462 4.497822904063556 
146.00096862449462 3.336178430705722 
147.00096862449462 1.5521063327879518 
148.00096862449462 1.015620592708491 
149.00096862449462 0.2413801045127863 
150.00096862449462 0.14770086855775721 
151.00096862449462 0.03666003037191974 
152.00096862449462 0.036049429945447284 
153.00096862449462 0.0365936881565285 
154.00096862449462 0.03508956124622981 
155.00096862449462 0.03629914079213767 
156.00096862449462 0.03451532621254166 
157.00096862449462 0.03566665389278875 
158.00096862449462 0.035766388812198055 
159.00096862449462 0.036437433124909296 
160.00096862449462 0.03626457664132356 
161.00096862449462 0.035368145002313785 
162.00096862449462 0.035443293915171176 
163.00096862449462 0.03591729163247611 
164.00096862449462 0.035226765081676305 
165.00096862449462 0.035085340499144795 
166.00096862449462 0.035693308644756436 
167.00096862449462 0.03583367940922901 
168.00096862449462 0.037371350406067025 
169.00096862449462 0.03788990997816879 
170.00096862449462 0.038043286480165125 
171.00096862449462 0.039012117704764974 
172.00096862449462 0.03918701656817947 
173.00096862449462 0.040461300064442485 
174.00096862449462 0.040794052860671864 
175.00096862449462 0.04062731943512337 
176.00096862449462 0.0412538285601873 
177.00096862449462 0.041103699659394304 
178.00096862449462 0.04156954286773761 
179.00096862449462 0.04160526579467147 
180.00096862449462 0.04177539539112925 
181.00096862449462 0.04192550148783689 
182.00096862449462 0.04216659901944227 
183.00096862449462 0.042189990754318396 
184.00096862449462 0.042313185176145636 
185.00096862449462 0.04251231263132781 
186.00096862449462 0.042863784071939935 
187.00096862449462 0.043302400793603604 
188.00096862449462 0.0435849904829121 
189.00096862449462 0.043750632899882666 
190.00096862449462 0.043830412087083735 
191.00096862449462 0.043852999689397903 
192.00096862449462 0.04386116991581032 
193.00096862449462 0.04386116991581032 
194.00096862449462 0.04386116991581032 
195.00096862449462 0.04386116991581032 
196.00096862449462 0.04386116991581032 
197.00096862449462 0.04386116991581032 
198.00096862449462 0.04386116991581032 
199.00096862449462 0.04386116991581032 
200.00096862449462 0.04386116991581032 
201.00096862449462 0.04386116991581032 
202.00096862449462 0.04386116991581032 
203.00096862449462 0.04386116991581032 
204.00096862449462 0.04386116991581032 
205.00096862449462 0.04386116991581032 
206.00096862449462 0.04386116991581032 
207.00096862449462 0.04386116991581032 
208.00096862449462 0.04386116991581032 
209.00096862449462 0.04386116991581032 
210.00096862449462 0.04386116991581032 
211.00096862449462 0.04386116991581032 
212.00096862449462 0.04386116991581032 
213.00096862449462 0.04386116991581032 
214.00096862449462 0.04386116991581032 
215.00096862449462 0.04386116991581032 
216.00096862449462 0.04386116991581032 
217.00096862449462 0.04386116991581032 
218.00096862449462 0.04386116991581032 
219.00096862449462 0.04386116991581032 
220.00096862449462 0.04386116991581032 
221.00096862449462 0.04386116991581032 
222.00096862449462 0.04386116991581032 
223.00096862449462 0.04386116991581032 
224.00096862449462 0.04386116991581032 
225.00096862449462 0.04386116991581032 
226.00096862449462 0.04386116991581032 
227.00096862449462 0.04386116991581032 
228.00096862449462 0.04386116991581032 
229.00096862449462 0.04386116991581032 
230.00096862449462 0.04386116991581032 
231.00096862449462 0.04386116991581032 
232.00096862449462 0.04386116991581032 
233.00096862449462 0.04386116991581032 
234.00096862449462 0.04386116991581032 
235.00096862449462 0.04386116991581032 
236.00096862449462 0.04386116991581032 
237.00096862449462 0.04386116991581032 
238.00096862449462 0.04386116991581032 
239.00096862449462 0.04386116991581032 
240.00096862449462 0.04386116991581032 
241.00096862449462 0.04386116991581032 
242.00096862449462 0.04386116991581032 
243.00096862449462 0.04386116991581032 
244.00096862449462 0.04386116991581032 
245.00096862449462 0.04386116991581032 
246.00096862449462 0.04386116991581032 
247.00096862449462 0.04386116991581032 
248.00096862449462 0.04386116991581032 
249.00096862449462 0.04386116991581032 
#####################################################################
# End of data export. Simulation finished at: 2017-05-25T16:59+0000 #
#####################################################################
