#####################################################################
# Alchemist log file - simulation started at: 2017-05-24T00:28+0000 #
#####################################################################
# random = 13.0, targets = 10.0, density = 3.5589026259761294, gridShift = 1.0, perturbation = 0.5, connfactor = 0.75
#
# The columns have the following meaning: 
# time se[Mean] 
0.0 NaN 
1.0002602723432414 NaN 
2.000260272343241 1.0014712918660287 
3.000260272343241 1.0018500797448167 
4.000260272343241 0.9969125465178097 
5.000260272343241 0.9924481658692185 
6.000260272343241 0.9751634768740032 
7.000260272343241 0.9683572567783094 
8.00026027234324 0.9787234183944711 
9.00026027234324 0.9736376927166401 
10.00026027234324 1.003181818181818 
11.00026027234324 0.9930754917597022 
12.00026027234324 1.0335758904837855 
13.00026027234324 1.0182721956406169 
14.00026027234324 1.035964912280702 
15.00026027234324 1.0336250664540134 
16.00026027234324 1.0255648591174904 
17.00026027234324 1.022311935140883 
18.00026027234324 1.0076335725677827 
19.00026027234324 0.9848591174906959 
20.00026027234324 0.9756253322700694 
21.00026027234324 0.9564320839978737 
22.00026027234324 0.9329797979797976 
23.00026027234324 0.9186968367889425 
24.00026027234324 0.8849388623072832 
25.00026027234324 0.8686835459861777 
26.00026027234324 0.8293148591174908 
27.00026027234324 0.802857522594365 
28.00026027234324 0.7807290005316316 
29.00026027234324 0.7510014619883043 
30.00026027234324 0.7349375332270066 
31.00026027234324 0.7334948165869214 
32.00026027234324 0.7119564061669328 
33.00026027234324 0.7000571504518873 
34.00026027234324 0.6971737107921318 
35.00026027234324 0.678092769803296 
36.00026027234324 0.6753335991493887 
37.00026027234324 0.6664314194577354 
38.00026027234324 0.6647428229665068 
39.00026027234324 0.6379066985645933 
40.00026027234324 0.6261263955342902 
41.00026027234324 0.6160001329080278 
42.00026027234324 0.601744417862839 
43.00026027234324 0.597088649654439 
44.00026027234324 0.5842769803296122 
45.00026027234324 0.5684649122807017 
46.00026027234324 0.5706100478468902 
47.00026027234324 0.5621205475810741 
48.00026027234324 0.5496730462519935 
49.00026027234324 0.5505927698032963 
50.00026027234324 0.5399614566719831 
51.00026027234324 0.5325279106858054 
52.00026027234324 0.5339254385964913 
53.00026027234324 0.5206359649122808 
54.00026027234324 0.5124302232854866 
55.00026027234324 0.5033924774056353 
56.00026027234324 0.48250066454013824 
57.00026027234324 0.46717105263157904 
58.00026027234324 0.4491274587985116 
59.00026027234324 0.42657894736842106 
60.00026027234324 0.4165716374269005 
61.00026027234324 0.3866307814992025 
62.00026027234324 0.36687200956937815 
63.00026027234324 0.34983187134502935 
64.00026027234324 0.33285220627325895 
65.00026027234324 0.41351741095162153 
66.00026027234324 0.6859017809675705 
67.00026027234324 0.7752478734715578 
68.00026027234324 1.2414865762892078 
69.00026027234324 1.4237938596491222 
70.00026027234324 1.4523544657097291 
71.00026027234324 1.4545454545454541 
72.00026027234324 1.4488928761297193 
73.00026027234324 1.7944849813928763 
74.00026027234324 1.7925976874003193 
75.00026027234324 1.5202671451355658 
76.00026027234324 1.9000863902179683 
77.00026027234324 1.382176368952684 
78.00026027234324 1.8932522594364694 
79.00026027234324 1.109012493354598 
80.00026027234324 2.153124003189792 
81.00026027234324 1.9139952153110051 
82.00026027234324 2.0482270069112167 
83.00026027234324 2.3328834396597546 
84.00026027234324 1.4899993354598609 
85.00026027234324 2.3485865231259955 
86.00026027234324 2.105930356193515 
87.00026027234324 2.2477651515151518 
88.00026027234324 2.39146664008506 
89.00026027234324 2.0259423179160003 
90.00026027234324 1.200981525784157 
91.00026027234324 1.253747341839448 
92.00026027234324 1.0059210526315774 
93.00026027234324 0.726738437001596 
94.00026027234324 0.6252319245082394 
95.00026027234324 0.4038343965975545 
96.00026027234324 0.5901129718234975 
97.00026027234324 0.10841108452950553 
98.00026027234324 0.3976362307283368 
99.00026027234324 0.1785586124401907 
100.00026027234324 0.10701820839978728 
101.00026027234324 0.09417331206804892 
102.00026027234324 0.08756180223285491 
103.00026027234324 0.08844896331738443 
104.00026027234324 0.08850013290802769 
105.00026027234324 0.08886828814460397 
106.00026027234324 0.08909489633173849 
107.00026027234324 0.08928296119085599 
108.00026027234324 0.08970959595959602 
109.00026027234324 0.08970295055821377 
110.00026027234324 0.0899548112706008 
111.00026027234324 0.0899302232854865 
112.00026027234324 0.0899767410951622 
113.00026027234324 0.09000000000000005 
114.00026027234324 0.09000000000000005 
115.00026027234324 0.09000000000000005 
116.00026027234324 0.09000000000000005 
117.00026027234324 0.09000000000000005 
118.00026027234324 0.09000000000000005 
119.00026027234324 0.09000000000000005 
120.00026027234324 0.09000000000000005 
121.00026027234324 0.09000000000000005 
122.00026027234324 0.09000000000000005 
123.00026027234324 0.09000000000000005 
124.00026027234324 0.09000000000000005 
125.00026027234324 0.09000000000000005 
126.00026027234324 0.09000000000000005 
127.00026027234324 0.09000000000000005 
128.00026027234324 0.09000000000000005 
129.00026027234324 0.09000000000000005 
130.00026027234324 0.09000000000000005 
131.00026027234324 0.09000000000000005 
132.00026027234324 0.09000000000000005 
133.00026027234324 0.09000000000000005 
134.00026027234324 0.09000000000000005 
135.00026027234324 0.09000000000000005 
136.00026027234324 0.09000000000000005 
137.00026027234324 0.09000000000000005 
138.00026027234324 0.09000000000000005 
139.00026027234324 0.09000000000000005 
140.00026027234324 0.09000000000000005 
141.00026027234324 0.09000000000000005 
142.00026027234324 0.09000000000000005 
143.00026027234324 0.09000000000000005 
144.00026027234324 0.09000000000000005 
145.00026027234324 0.09000000000000005 
146.00026027234324 0.09000000000000005 
147.00026027234324 0.09000000000000005 
148.00026027234324 0.09000000000000005 
149.00026027234324 0.09000000000000005 
150.00026027234324 0.09000000000000005 
151.00026027234324 0.09000000000000005 
#####################################################################
# End of data export. Simulation finished at: 2017-05-24T00:29+0000 #
#####################################################################
