#####################################################################
# Alchemist log file - simulation started at: 2017-05-22T13:39+0000 #
#####################################################################
# random = 4.0, targets = 1.0, density = 14.160781367816199, gridShift = 1.0, perturbation = 0.5, connfactor = 0.1
#
# The columns have the following meaning: 
# time se[Mean] 
0.0 NaN 
1.000075526147678 NaN 
2.000075526147678 NaN 
3.000075526147678 1.0 
4.000075526147678 1.0 
5.000075526147678 1.0 
6.000075526147678 1.0 
7.000075526147678 1.0 
8.000075526147679 1.0 
9.000075526147679 1.0 
10.000075526147679 1.0 
11.000075526147679 1.0 
12.000075526147679 1.0 
13.000075526147679 1.0 
14.000075526147679 1.0 
15.000075526147679 1.0 
16.00007552614768 1.0 
17.00007552614768 1.0 
18.00007552614768 1.0 
19.00007552614768 1.0 
20.00007552614768 1.0 
21.00007552614768 1.0 
22.00007552614768 1.0 
23.00007552614768 1.0 
24.00007552614768 1.0 
25.00007552614768 1.0 
26.00007552614768 1.0 
27.00007552614768 1.0 
28.00007552614768 1.0 
29.00007552614768 1.0 
30.00007552614768 1.0 
31.00007552614768 1.0 
32.00007552614768 1.0 
33.00007552614768 1.0 
34.00007552614768 1.0 
35.00007552614768 1.0 
36.00007552614768 1.0 
37.00007552614768 1.0 
38.00007552614768 1.0 
39.00007552614768 1.0 
40.00007552614768 1.0 
41.00007552614768 1.0 
42.00007552614768 1.0 
43.00007552614768 1.0 
44.00007552614768 1.0 
45.00007552614768 1.0 
46.00007552614768 1.0 
47.00007552614768 1.0 
48.00007552614768 1.0 
49.00007552614768 1.0 
50.00007552614768 1.0 
51.00007552614768 1.0 
52.00007552614768 1.0 
53.00007552614768 1.0 
54.00007552614768 1.0 
55.00007552614768 1.0 
56.00007552614768 1.0 
57.00007552614768 1.0 
58.00007552614768 1.0 
59.00007552614768 1.0 
60.00007552614768 1.0 
61.00007552614768 1.0 
62.00007552614768 1.0 
63.00007552614768 1.0 
64.00007552614768 1.0 
65.00007552614768 1.0 
66.00007552614768 1.0 
67.00007552614768 1.0 
68.00007552614768 1.0 
69.00007552614768 1.0 
70.00007552614768 1.0 
71.00007552614768 1.0 
72.00007552614768 1.0 
73.00007552614768 1.0 
74.00007552614768 1.0 
75.00007552614768 1.0 
76.00007552614768 1.0 
77.00007552614768 1.0 
78.00007552614768 1.0 
79.00007552614768 1.0 
80.00007552614768 1.0 
81.00007552614768 1.0 
82.00007552614768 1.0 
83.00007552614768 1.0 
84.00007552614768 1.0 
#####################################################################
# End of data export. Simulation finished at: 2017-05-22T13:41+0000 #
#####################################################################
