#####################################################################
# Alchemist log file - simulation started at: 2017-05-20T10:37+0000 #
#####################################################################
# random = 1.0, targets = 1.0, density = 1.2632455339402642, gridShift = 0.0, perturbation = 0.0, connfactor = 0.25
#
# The columns have the following meaning: 
# time se[Mean] 
0.0 NaN 
1.0048855897957667 NaN 
2.0048855897957667 1.0 
3.0048855897957667 1.0 
4.004885589795767 1.0 
5.004885589795767 1.0 
6.004885589795767 1.0 
7.004885589795767 1.0 
8.004885589795766 1.0 
9.004885589795766 1.0 
10.004885589795766 1.0 
11.004885589795766 1.0 
12.004885589795766 1.0 
13.004885589795766 1.0 
14.004885589795766 1.0 
15.004885589795766 1.0 
16.004885589795766 1.0 
17.004885589795766 1.0 
18.004885589795766 1.0 
19.004885589795766 1.0 
20.004885589795766 1.0 
21.004885589795766 1.0 
22.004885589795766 1.0 
23.004885589795766 1.0 
24.004885589795766 1.0 
#####################################################################
# End of data export. Simulation finished at: 2017-05-20T10:37+0000 #
#####################################################################
