#####################################################################
# Alchemist log file - simulation started at: 2017-05-26T02:15+0000 #
#####################################################################
# random = 19.0, targets = 100.0, density = 0.05649405772326896, gridShift = 0.0, perturbation = 0.0, connfactor = 0.1
#
# The columns have the following meaning: 
# time se[Mean] 
0.0 NaN 
1.0189000266060093 NaN 
2.0189000266060093 1.0 
3.0189000266060093 0.9993765625 
4.018900026606009 0.9950218750000001 
5.018900026606009 0.98758125 
6.018900026606009 0.9832109375 
7.018900026606009 0.97765 
8.018900026606008 0.9739625000000001 
9.018900026606008 0.97030625 
10.018900026606008 0.9585671875 
11.018900026606008 0.9561234375000001 
12.018900026606008 0.9604 
13.018900026606008 0.9604 
14.018900026606008 0.9604 
15.018900026606008 0.9604 
16.01890002660601 0.9604 
17.01890002660601 0.9604 
18.01890002660601 0.9604 
19.01890002660601 0.9604 
20.01890002660601 0.9604 
#####################################################################
# End of data export. Simulation finished at: 2017-05-26T02:15+0000 #
#####################################################################
