0.000000000000000000e+00 nan
1.000127989414529628e+00 1.447473149640187973e-01
2.000255978829059256e+00 9.659996496065129667e-01
3.000383968243587773e+00 9.708501989460692760e-01
4.000511957658118511e+00 9.726896070379368320e-01
5.000639947072643032e+00 9.749322286663908432e-01
6.000767936487175547e+00 9.677012778360545298e-01
7.000895925901704508e+00 9.698116437988808514e-01
8.001023915316237023e+00 9.636074732504552598e-01
9.001151904730761544e+00 9.597958570718918558e-01
1.000127989414528606e+01 9.536643555190962296e-01
1.100140788355981414e+01 9.468540998905019546e-01
1.200153587297435109e+01 9.413840751671731510e-01
1.300166386238887561e+01 9.323035365425943466e-01
1.400179185180340902e+01 9.273989548986296683e-01
1.500191984121793354e+01 9.188068563256348575e-01
1.600204783063247405e+01 9.107726410402789963e-01
1.700217582004699679e+01 9.029427485122375474e-01
1.800230380946152309e+01 8.948831290746553924e-01
1.900243179887604938e+01 8.876671304005875340e-01
2.000255978829057213e+01 8.791716097320826373e-01
2.100268777770510553e+01 8.709821815729493766e-01
2.200281576711962828e+01 8.616051984906875072e-01
2.300294375653415102e+01 8.538661828957678779e-01
2.400307174594870219e+01 8.447256993697574989e-01
2.500319973536322848e+01 8.341253122289734590e-01
2.600332772477775123e+01 8.270889468388812338e-01
2.700345571419227397e+01 8.156735097881580021e-01
2.800358370360681803e+01 8.067535362034727875e-01
2.900371169302134433e+01 7.994245320046607928e-01
3.000383968243586708e+01 7.860484685389527160e-01
3.100396767185040048e+01 7.759044109455278670e-01
3.200409566126494809e+01 7.644848786228760629e-01
3.300422365067947084e+01 7.492876719394729879e-01
3.400435164009399358e+01 7.396009026691657828e-01
3.500447962950851633e+01 7.256086231151172017e-01
3.600460761892304618e+01 7.209870490794811904e-01
3.700473560833756892e+01 7.090871849116714420e-01
3.800486359775209877e+01 7.033418865197614833e-01
3.900499158716662151e+01 7.028408718310806824e-01
4.000511957658114426e+01 6.977249820812985170e-01
4.100524756599566700e+01 6.956586692513705428e-01
4.200537555541021106e+01 6.959891722475153308e-01
4.300550354482473381e+01 6.947063299460926045e-01
4.400563153423925655e+01 6.956382993001084536e-01
4.500575952365377930e+01 6.961766673646448966e-01
4.600588751306830204e+01 6.951735242964995898e-01
4.700601550248288163e+01 6.954432151356566560e-01
4.800614349189740437e+01 6.956854164001057272e-01
4.900627148131192712e+01 6.956769911077390622e-01
5.000639947072645697e+01 6.954576816284013807e-01
5.100652746014099392e+01 6.952438401626060971e-01
5.200665544955550246e+01 6.950831707594764541e-01
5.300678343897002520e+01 6.950744472893906067e-01
5.400691142838454795e+01 6.949901278224017709e-01
5.500703941779909911e+01 6.949786106621629322e-01
5.600716740721363607e+01 6.949728025873833648e-01
5.700729539662816592e+01 6.949728025873833648e-01
5.800742338604268866e+01 6.949728025873833648e-01
5.900755137545721141e+01 6.949728025873833648e-01
6.000767936487173415e+01 6.949728025873833648e-01
6.100780735428627111e+01 6.949728025873833648e-01
6.200793534370080096e+01 6.949728025873833648e-01
6.300806333311532370e+01 6.949728025873833648e-01
6.400819132252989618e+01 6.949728025873833648e-01
6.500831931194441893e+01 6.949728025873833648e-01
6.600844730135894167e+01 6.949728025873833648e-01
6.700857529077346442e+01 6.949728025873833648e-01
6.800870328018798716e+01 6.949728025873833648e-01
6.900883126960250991e+01 6.949728025873833648e-01
7.000895925901703265e+01 6.949728025873833648e-01
7.100908724843155539e+01 6.949728025873833648e-01
