#####################################################################
# Alchemist log file - simulation started at: 2017-05-26T09:32+0000 #
#####################################################################
# random = 9.0, targets = 31.622776601683793, density = 7.099073319511142, gridShift = 0.0, perturbation = 0.5, connfactor = 2.0
#
# The columns have the following meaning: 
# time se[Mean] 
0.0 NaN 
1.0015323036356916 NaN 
2.001532303635692 1.0152974144079419 
3.001532303635692 1.0263791239004503 
4.001532303635692 1.0412620797351153 
5.001532303635692 1.0658089139795532 
6.001532303635692 1.0772929335965171 
7.001532303635692 1.1040199378549778 
8.001532303635692 1.1193523646053654 
9.001532303635692 1.136571530213574 
10.001532303635692 1.178608775410114 
11.001532303635692 1.169784380080745 
12.001532303635692 1.2097931122805023 
13.001532303635692 1.2236914047148886 
14.001532303635692 1.2313197403962135 
15.001532303635692 1.2280700090572307 
16.001532303635692 1.2403084631447499 
17.001532303635692 1.2473094136722471 
18.001532303635692 1.2558502982158772 
19.001532303635692 1.279527408459207 
20.001532303635692 1.2709636110339502 
21.001532303635692 1.2995832398465146 
22.001532303635692 1.3281688648275731 
23.001532303635692 1.3669925918928758 
24.001532303635692 1.4484519882625688 
25.001532303635692 1.4613012866138833 
26.001532303635692 1.6085831701027107 
27.001532303635692 1.6973356264938644 
28.001532303635692 1.86284987175698 
29.001532303635692 2.0615783075102696 
30.001532303635692 2.1181230144921925 
31.001532303635692 2.387018989264973 
32.00153230363569 2.3691903663315768 
33.00153230363569 2.4765601720416255 
34.00153230363569 2.562647687763823 
35.00153230363569 2.571617372245401 
36.00153230363569 2.830856576085401 
37.00153230363569 2.901248729014121 
38.00153230363569 2.97092790996419 
39.00153230363569 2.9852633312470194 
40.00153230363569 3.05064726637232 
41.00153230363569 3.241448817895155 
42.00153230363569 3.0811487552764274 
43.00153230363569 3.0383547889306683 
44.00153230363569 3.1373332462796184 
45.00153230363569 3.0112097987971076 
46.00153230363569 3.014582290320083 
47.00153230363569 2.9204543879300764 
48.00153230363569 2.883320028910427 
49.00153230363569 2.9573535251697356 
50.00153230363569 2.9206474923237455 
51.00153230363569 3.041883115607732 
52.00153230363569 3.0473833657825806 
53.00153230363569 3.0843365082787932 
54.00153230363569 3.100981712275042 
55.00153230363569 3.1942209968813 
56.00153230363569 3.2693189489454237 
57.00153230363569 3.297143844035447 
58.00153230363569 3.295820891485969 
59.00153230363569 3.345588973662748 
60.00153230363569 3.439884841752113 
61.00153230363569 3.493121944632503 
62.00153230363569 3.5702021914674678 
63.00153230363569 3.561559452718804 
64.00153230363568 3.669877522220234 
65.00153230363568 3.727804865714431 
66.00153230363568 3.938373644657709 
67.00153230363568 3.994579937865632 
68.00153230363568 5.484603207376174 
69.00153230363568 6.248938859845266 
70.00153230363568 5.08432948910054 
71.00153230363568 8.588561789781718 
72.00153230363568 6.83949371257228 
73.00153230363568 8.060541256508067 
74.00153230363568 8.663457610292372 
75.00153230363568 7.968325882859549 
76.00153230363568 10.934135771340268 
77.00153230363568 10.024122964751172 
78.00153230363568 10.194878514991814 
79.00153230363568 10.676304018433362 
80.00153230363568 11.883861895356024 
81.00153230363568 12.457111422723868 
82.00153230363568 12.175686953876868 
83.00153230363568 11.255590893380269 
84.00153230363568 11.307966450219105 
85.00153230363568 12.398420464971736 
86.00153230363568 12.693449354993701 
87.00153230363568 14.449005065893077 
88.00153230363568 11.693909579836369 
89.00153230363568 18.820918118095385 
90.00153230363568 23.75959117718073 
91.00153230363568 14.559607620997026 
92.00153230363568 32.76085627661539 
93.00153230363568 24.155454494281113 
94.00153230363568 27.24984647595964 
95.00153230363568 29.796225977202734 
96.00153230363568 25.55517251926917 
97.00153230363568 36.34173641081124 
98.00153230363568 32.93695311501533 
99.00153230363568 32.87724764567391 
100.00153230363568 34.25872001384492 
101.00153230363568 37.52435876424787 
102.00153230363568 38.56076192171934 
103.00153230363568 37.16800409066664 
104.00153230363568 33.29954090861054 
105.00153230363568 32.3240769746687 
106.00153230363568 36.07273087270838 
107.00153230363568 34.25281837873113 
108.00153230363568 37.428733888336 
109.00153230363568 29.971356205914024 
110.00153230363568 38.009416773174266 
111.00153230363568 41.98811751635162 
112.00153230363568 33.778051282853916 
113.00153230363568 45.54202615638836 
114.00153230363568 43.82172722241925 
115.00153230363568 40.824503034502584 
116.00153230363568 37.79758854318645 
117.00153230363568 43.19887383845164 
118.00153230363568 37.42483889576512 
119.00153230363568 39.61270099463138 
120.00153230363568 39.17028411096858 
121.00153230363568 41.50625145859625 
122.00153230363568 40.245296286901485 
123.00153230363568 37.13953323037487 
124.00153230363568 32.31622323093577 
125.00153230363568 33.27026170420823 
126.00153230363568 32.631705447765924 
127.00153230363568 32.692695840910794 
128.00153230363568 25.0566749032747 
129.00153230363568 21.788019366442985 
130.00153230363568 25.833984883204838 
131.00153230363568 23.901095518549127 
132.00153230363568 33.671557379578594 
133.00153230363568 48.9364211127117 
134.00153230363568 28.852640416914745 
135.00153230363568 69.98472094363622 
136.00153230363568 47.17889231490585 
137.00153230363568 59.26171224273825 
138.00153230363568 66.38219909505 
139.00153230363568 53.25088374955013 
140.00153230363568 86.81539263144975 
141.00153230363568 76.01162538506424 
142.00153230363568 76.08397790367377 
143.00153230363568 77.77462639482104 
144.00153230363568 90.4807892725092 
145.00153230363568 98.42641205895447 
146.00153230363568 91.74002963785696 
147.00153230363568 87.7524334126103 
148.00153230363568 78.70600461003457 
149.00153230363568 91.68664154827302 
150.00153230363568 92.96206533362471 
151.00153230363568 101.44171155278656 
152.00153230363568 81.76776407020934 
153.00153230363568 99.66909669967939 
154.00153230363568 116.37770474024077 
155.00153230363568 80.56750746591162 
156.00153230363568 121.84130395522915 
157.00153230363568 114.34011873414413 
158.00153230363568 102.6385875099577 
159.00153230363568 95.1552112328984 
160.00153230363568 100.24460909013325 
161.00153230363568 88.1593483421837 
162.00153230363568 93.79165735862912 
163.00153230363568 92.94611308320106 
164.00153230363568 91.41699321516901 
165.00153230363568 89.13244633576177 
166.00153230363568 83.54869282199135 
167.00153230363568 66.06159971767669 
168.00153230363568 75.59190396748755 
169.00153230363568 68.53359649090582 
170.00153230363568 66.48500218424026 
171.00153230363568 40.20377704974274 
172.00153230363568 38.34422290834819 
173.00153230363568 33.10077617830951 
174.00153230363568 31.23201329266638 
175.00153230363568 27.932947610934306 
176.00153230363568 28.41228483853363 
177.00153230363568 27.446815552281738 
178.00153230363568 26.003077011776806 
179.00153230363568 24.072939500538283 
180.00153230363568 24.550073038153567 
181.00153230363568 23.58396540581924 
182.00153230363568 23.58908454315018 
183.00153230363568 19.257754377041493 
184.00153230363568 18.77495664163064 
185.00153230363568 18.291711723447907 
186.00153230363568 17.8087492551871 
187.00153230363568 17.326718407524613 
188.00153230363568 17.326772155162057 
189.00153230363568 17.327022115477266 
190.00153230363568 17.326041122950116 
191.00153230363568 17.325088191174792 
192.00153230363568 17.32503178622442 
193.00153230363568 17.324891517896116 
194.00153230363568 17.32466738618988 
195.00153230363568 17.32455532033676 
196.00153230363568 17.32455532033676 
197.00153230363568 17.32455532033676 
198.00153230363568 17.32455532033676 
199.00153230363568 17.32455532033676 
200.00153230363568 17.32455532033676 
201.00153230363568 17.32455532033676 
202.00153230363568 17.32455532033676 
203.00153230363568 17.32455532033676 
204.00153230363568 17.32455532033676 
205.00153230363568 17.32455532033676 
206.00153230363568 17.32455532033676 
207.00153230363568 17.32455532033676 
208.00153230363568 17.32455532033676 
209.00153230363568 17.32455532033676 
210.00153230363568 17.32455532033676 
211.00153230363568 17.32455532033676 
212.00153230363568 17.32455532033676 
213.00153230363568 17.32455532033676 
214.00153230363568 17.32455532033676 
215.00153230363568 17.32455532033676 
216.00153230363568 17.32455532033676 
217.00153230363568 17.32455532033676 
218.00153230363568 17.32455532033676 
219.00153230363568 17.32455532033676 
220.00153230363568 17.32455532033676 
221.00153230363568 17.32455532033676 
222.00153230363568 17.32455532033676 
223.00153230363568 17.32455532033676 
224.00153230363568 17.32455532033676 
225.00153230363568 17.32455532033676 
226.00153230363568 17.32455532033676 
227.00153230363568 17.32455532033676 
228.00153230363568 17.32455532033676 
229.00153230363568 17.32455532033676 
230.00153230363568 17.32455532033676 
231.00153230363568 17.32455532033676 
232.00153230363568 17.32455532033676 
233.00153230363568 17.32455532033676 
234.00153230363568 17.32455532033676 
235.00153230363568 17.32455532033676 
236.00153230363568 17.32455532033676 
237.00153230363568 17.32455532033676 
238.00153230363568 17.32455532033676 
239.00153230363568 17.32455532033676 
240.00153230363568 17.32455532033676 
241.00153230363568 17.32455532033676 
242.00153230363568 17.32455532033676 
243.00153230363568 17.32455532033676 
244.00153230363568 17.32455532033676 
245.00153230363568 17.32455532033676 
246.00153230363568 17.32455532033676 
247.00153230363568 17.32455532033676 
248.00153230363568 17.32455532033676 
249.00153230363568 17.32455532033676 
250.00153230363568 17.32455532033676 
251.00153230363568 17.32455532033676 
252.00153230363568 17.32455532033676 
253.00153230363568 17.32455532033676 
254.00153230363568 17.32455532033676 
255.00153230363568 17.32455532033676 
256.0015323036357 17.32455532033676 
#####################################################################
# End of data export. Simulation finished at: 2017-05-26T09:38+0000 #
#####################################################################
