0.000000000000000000e+00 nan
2.220446049250313081e-16 1.241338873402343668e-02
4.440892098500626162e-16 1.954378803622686678e-01
1.776356839400250465e-15 2.025233140265628173e-01
8.881784197001252323e-16 2.099046603786450249e-01
1.776356839400250465e-15 2.239013009445578184e-01
3.552713678800500929e-15 2.351665432238059517e-01
3.552713678800500929e-15 2.537845132237954160e-01
1.776356839400250465e-15 2.528861166817877870e-01
1.776356839400250465e-15 2.399747126664295294e-01
3.552713678800500929e-15 2.151733079533156012e-01
0.000000000000000000e+00 2.107237641535391337e-01
7.105427357601001859e-15 2.020963523713981413e-01
0.000000000000000000e+00 2.033408077700733785e-01
7.105427357601001859e-15 1.906328229792863260e-01
5.329070518200751394e-15 1.684262523859146321e-01
3.552713678800500929e-15 1.839619203286287918e-01
0.000000000000000000e+00 1.587973270418949756e-01
3.552713678800500929e-15 1.767870336372705797e-01
7.105427357601001859e-15 1.476920066740001203e-01
7.105427357601001859e-15 1.381558268765221698e-01
7.105427357601001859e-15 1.435607284285466412e-01
0.000000000000000000e+00 1.320908941706251949e-01
3.552713678800500929e-15 1.400140448308684615e-01
1.421085471520200372e-14 1.284992315202387880e-01
1.065814103640150279e-14 1.283030996977169436e-01
0.000000000000000000e+00 1.285749974622789338e-01
1.065814103640150279e-14 1.285749974622789338e-01
1.421085471520200372e-14 1.285749974622789338e-01
3.552713678800500929e-15 1.285749974622789338e-01
1.065814103640150279e-14 1.285749974622789338e-01
7.105427357601001859e-15 1.285749974622789338e-01
7.105427357601001859e-15 1.285749974622789338e-01
1.421085471520200372e-14 1.285749974622789338e-01
0.000000000000000000e+00 1.285749974622789338e-01
0.000000000000000000e+00 1.285749974622789338e-01
7.105427357601001859e-15 1.285749974622789338e-01
2.131628207280300558e-14 1.285749974622789338e-01
