#####################################################################
# Alchemist log file - simulation started at: 2017-05-24T01:08+0000 #
#####################################################################
# random = 6.0, targets = 3.1622776601683795, density = 7.099073319511142, gridShift = 0.0, perturbation = 0.5, connfactor = 0.25
#
# The columns have the following meaning: 
# time se[Mean] 
0.0 NaN 
1.001281360956031 NaN 
2.001281360956031 1.0 
3.001281360956031 1.0 
4.001281360956031 0.9993208475356713 
5.001281360956031 0.9993208475356713 
6.001281360956031 0.9972833901426853 
7.001281360956031 0.9918501704280559 
8.001281360956032 0.9891335605707412 
9.001281360956032 0.9884544081064127 
10.001281360956032 0.9932084753567132 
11.001281360956032 0.9925293228923846 
12.001281360956032 0.9972833901426853 
13.001281360956032 0.9993208475356713 
14.001281360956032 1.0 
15.001281360956032 1.0 
16.001281360956032 1.0 
17.001281360956032 1.0 
18.001281360956032 1.0 
19.001281360956032 1.0 
20.001281360956032 1.0 
21.001281360956032 1.0 
22.001281360956032 1.0 
23.001281360956032 1.0 
24.001281360956032 1.0 
25.001281360956032 1.0 
26.001281360956032 1.0 
27.001281360956032 1.0 
28.001281360956032 1.0 
29.001281360956032 1.0 
30.001281360956032 1.0 
31.001281360956032 1.0 
32.00128136095603 1.0 
33.00128136095603 1.0 
34.00128136095603 1.0 
35.00128136095603 1.0 
36.00128136095603 1.0 
37.00128136095603 1.0 
38.00128136095603 1.0 
39.00128136095603 1.0 
40.00128136095603 1.0 
41.00128136095603 1.0 
42.00128136095603 1.0 
43.00128136095603 1.0 
44.00128136095603 1.0 
45.00128136095603 1.0 
46.00128136095603 1.0 
47.00128136095603 1.0 
48.00128136095603 1.0 
49.00128136095603 1.0 
50.00128136095603 1.0 
51.00128136095603 1.0 
52.00128136095603 1.0 
53.00128136095603 1.0 
54.00128136095603 1.0 
55.00128136095603 1.0 
56.00128136095603 1.0 
57.00128136095603 1.0 
58.00128136095603 1.0 
59.00128136095603 1.0 
60.00128136095603 1.0 
61.00128136095603 1.0 
62.00128136095603 1.0 
63.00128136095603 1.0 
64.00128136095603 1.0 
65.00128136095603 1.0 
66.00128136095603 1.0268058678869822 
67.00128136095603 1.0525085328861232 
68.00128136095603 1.1586288015462092 
69.00128136095603 1.1798358602694108 
70.00128136095603 1.2579642634300996 
71.00128136095603 1.4362795882552444 
72.00128136095603 1.3718081309191135 
73.00128136095603 1.4176213696207038 
74.00128136095603 1.5352022551302968 
75.00128136095603 1.8177592628046082 
76.00128136095603 1.570736513955789 
77.00128136095603 1.7248730681595958 
78.00128136095603 1.79792076271927 
79.00128136095603 1.8077444600644892 
80.00128136095603 1.5573293078275716 
81.00128136095603 1.6552135932575924 
82.00128136095603 1.4075911277354773 
83.00128136095603 1.5272687528278184 
84.00128136095603 1.5235161187535555 
85.00128136095603 1.433653021715317 
86.00128136095603 1.4045557730085731 
87.00128136095603 1.471638711556673 
88.00128136095603 1.3735530670225453 
89.00128136095603 1.4339407113861162 
90.00128136095603 1.468870715990723 
91.00128136095603 1.4757260603713545 
92.00128136095603 1.4453398657263505 
93.00128136095603 1.345895916263571 
94.00128136095603 1.4222789123410755 
95.00128136095603 1.181341664202863 
96.00128136095603 1.4607177043938093 
97.00128136095603 1.166871385480767 
98.00128136095603 1.263740802000575 
99.00128136095603 1.0623354720022897 
100.00128136095603 1.1486886029783718 
101.00128136095603 1.2791342567217134 
102.00128136095603 1.0776269801030496 
103.00128136095603 1.1887664948548877 
104.00128136095603 1.2844902209648152 
105.00128136095603 1.316102720424774 
106.00128136095603 1.1247179093282302 
107.00128136095603 1.2246854986068219 
108.00128136095603 1.0358449900513547 
109.00128136095603 1.1573541758849966 
110.00128136095603 1.1817746128129678 
111.00128136095603 1.1108852972538912 
112.00128136095603 1.110885297253891 
113.00128136095603 1.1823676116191757 
114.00128136095603 1.1108852972538894 
115.00128136095603 1.1823676116191764 
116.00128136095603 1.2300224878626982 
117.00128136095603 1.25384992598446 
118.00128136095603 1.2300224878627 
119.00128136095603 1.1347127353756583 
120.00128136095603 1.1347127353756508 
121.00128136095603 0.9202657922797985 
122.00128136095603 1.1108852972538816 
123.00128136095603 0.7296462873057019 
124.00128136095603 0.8487834779145106 
125.00128136095603 0.6581639729404154 
126.00128136095603 0.6105090966968942 
127.00128136095603 0.5151993442098478 
128.00128136095603 0.49137190608808595 
129.00128136095603 0.4675444679663241 
130.00128136095603 0.4675444679663241 
131.00128136095603 0.4675444679663241 
132.00128136095603 0.4675444679663241 
133.00128136095603 0.4675444679663241 
134.00128136095603 0.4675444679663241 
135.00128136095603 0.4675444679663241 
136.00128136095603 0.4675444679663241 
137.00128136095603 0.4675444679663241 
138.00128136095603 0.4675444679663241 
139.00128136095603 0.4675444679663241 
140.00128136095603 0.4675444679663241 
141.00128136095603 0.4675444679663241 
142.00128136095603 0.4675444679663241 
143.00128136095603 0.4675444679663241 
144.00128136095603 0.4675444679663241 
145.00128136095603 0.4675444679663241 
146.00128136095603 0.4675444679663241 
147.00128136095603 0.4675444679663241 
148.00128136095603 0.4675444679663241 
149.00128136095603 0.4675444679663241 
150.00128136095603 0.4675444679663241 
151.00128136095603 0.4675444679663241 
152.00128136095603 0.4675444679663241 
153.00128136095603 0.4675444679663241 
154.00128136095603 0.4675444679663241 
155.00128136095603 0.4675444679663241 
156.00128136095603 0.4675444679663241 
157.00128136095603 0.4675444679663241 
158.00128136095603 0.4675444679663241 
159.00128136095603 0.4675444679663241 
160.00128136095603 0.4675444679663241 
161.00128136095603 0.4675444679663241 
162.00128136095603 0.4675444679663241 
163.00128136095603 0.4675444679663241 
164.00128136095603 0.4675444679663241 
165.00128136095603 0.4675444679663241 
166.00128136095603 0.4675444679663241 
167.00128136095603 0.4675444679663241 
168.00128136095603 0.4675444679663241 
169.00128136095603 0.4675444679663241 
170.00128136095603 0.4675444679663241 
171.00128136095603 0.4675444679663241 
172.00128136095603 0.4675444679663241 
173.00128136095603 0.4675444679663241 
174.00128136095603 0.4675444679663241 
175.00128136095603 0.4675444679663241 
176.00128136095603 0.4675444679663241 
177.00128136095603 0.4675444679663241 
178.00128136095603 0.4675444679663241 
179.00128136095603 0.4675444679663241 
180.00128136095603 0.4675444679663241 
181.00128136095603 0.4675444679663241 
182.00128136095603 0.4675444679663241 
183.00128136095603 0.4675444679663241 
184.00128136095603 0.4675444679663241 
185.00128136095603 0.4675444679663241 
186.00128136095603 0.4675444679663241 
187.00128136095603 0.4675444679663241 
188.00128136095603 0.4675444679663241 
189.00128136095603 0.4675444679663241 
190.00128136095603 0.4675444679663241 
#####################################################################
# End of data export. Simulation finished at: 2017-05-24T01:11+0000 #
#####################################################################
