#####################################################################
# Alchemist log file - simulation started at: 2017-05-25T06:15+0000 #
#####################################################################
# random = 17.0, targets = 3.1622776601683795, density = 2.519842099789746, gridShift = 1.0, perturbation = 0.5, connfactor = 0.25
#
# The columns have the following meaning: 
# time se[Mean] 
0.0 NaN 
1.0003034458253823 NaN 
2.0003034458253826 1.0 
3.0003034458253826 1.0 
4.0003034458253826 1.0 
5.0003034458253826 1.0 
6.0003034458253826 1.0 
7.0003034458253826 1.0 
8.000303445825383 1.0 
9.000303445825383 1.0 
10.000303445825383 1.0 
11.000303445825383 1.0 
12.000303445825383 1.0 
13.000303445825383 1.0 
14.000303445825383 1.0 
15.000303445825383 1.0 
16.00030344582538 1.0 
17.00030344582538 1.0 
18.00030344582538 1.0 
19.00030344582538 1.0 
20.00030344582538 1.0 
21.00030344582538 0.998248501539363 
22.00030344582538 0.9929940061574516 
23.00030344582538 0.9929940061574516 
24.00030344582538 0.9831429101304713 
25.00030344582538 0.9676016097346265 
26.00030344582538 0.9605956158920781 
27.00030344582538 0.9299487240873419 
28.00030344582538 0.910263857059032 
29.00030344582538 0.8890756648584511 
30.00030344582538 0.8446389711185076 
31.00030344582538 0.8344128036943532 
32.00030344582538 0.7847822521622767 
33.00030344582538 0.7463012611052147 
34.00030344582538 0.7418086106140521 
35.00030344582538 0.691511501832308 
36.00030344582538 0.6572347149974893 
37.00030344582538 0.6410788324289308 
38.00030344582538 0.6003413338216734 
39.00030344582538 0.578359686262617 
40.00030344582538 0.5707217852217031 
41.00030344582538 0.5422621008645568 
42.00030344582538 0.5160905345253317 
43.00030344582538 0.5278490542438096 
44.00030344582538 0.5176458347745564 
45.00030344582538 0.5077774137219249 
46.00030344582538 0.5048803364605393 
47.00030344582538 0.5004019714114526 
48.00030344582538 0.48755851048200527 
49.00030344582538 0.49087397170469266 
50.00030344582538 0.48420839920801584 
51.00030344582538 0.4742100404630008 
52.00030344582538 0.47309911171355473 
53.00030344582538 0.4719881829641086 
54.00030344582538 0.46976632546521635 
55.00030344582538 0.4675444679663241 
56.00030344582538 0.4686553967157702 
57.00030344582538 0.4675444679663241 
58.00030344582538 0.4675444679663241 
59.00030344582538 0.4675444679663241 
60.00030344582538 0.4675444679663241 
61.00030344582538 0.4675444679663241 
62.00030344582538 0.4675444679663241 
63.00030344582538 0.4675444679663241 
64.00030344582538 0.4675444679663241 
65.00030344582538 0.4675444679663241 
66.00030344582538 0.4675444679663241 
67.00030344582538 0.4675444679663241 
68.00030344582538 0.4675444679663241 
69.00030344582538 0.4675444679663241 
70.00030344582538 0.4675444679663241 
71.00030344582538 0.4675444679663241 
72.00030344582538 0.4675444679663241 
73.00030344582538 0.4675444679663241 
74.00030344582538 0.4675444679663241 
75.00030344582538 0.4675444679663241 
76.00030344582538 0.4675444679663241 
77.00030344582538 0.4675444679663241 
78.00030344582538 0.4675444679663241 
79.00030344582538 0.4675444679663241 
80.00030344582538 0.4675444679663241 
81.00030344582538 0.4675444679663241 
82.00030344582538 0.4675444679663241 
83.00030344582538 0.4675444679663241 
84.00030344582538 0.4675444679663241 
85.00030344582538 0.4675444679663241 
86.00030344582538 0.4675444679663241 
87.00030344582538 0.4675444679663241 
88.00030344582538 0.4675444679663241 
89.00030344582538 0.4675444679663241 
#####################################################################
# End of data export. Simulation finished at: 2017-05-25T06:15+0000 #
#####################################################################
