0.000000000000000000e+00 nan
1.000095753429296019e+00 2.942192471052959002e-01
2.000191506858592039e+00 9.781918005764663748e-01
3.000287260287889612e+00 9.886277148356835687e-01
4.000383013717184078e+00 9.905650548753488494e-01
5.000478767146478987e+00 9.903478205438411841e-01
6.000574520575779225e+00 9.468385920830915126e-01
7.000670274005074134e+00 9.388040395100478719e-01
8.000766027434368155e+00 9.107937866221206269e-01
9.000861780863660400e+00 9.009514038051307239e-01
1.000095753429295797e+01 8.796058735624593394e-01
1.100105328772226443e+01 8.639285949004217313e-01
1.200114904115155845e+01 8.597527895209741144e-01
1.300124479458085069e+01 8.412810167825980345e-01
1.400134054801014827e+01 8.215967023074038922e-01
1.500143630143944762e+01 7.983069687100585732e-01
1.600153205486873631e+01 7.823519309815687439e-01
1.700162780829803921e+01 7.657381078960269205e-01
1.800172356172732080e+01 7.518825184685493657e-01
1.900181931515663436e+01 7.228802433779795145e-01
2.000191506858591595e+01 7.032676639153794262e-01
2.100201082201522240e+01 6.946030039400171718e-01
2.200210657544452886e+01 6.659440021037265067e-01
2.300220232887381044e+01 7.019470396743613394e-01
2.400229808230311690e+01 6.849379331752654121e-01
2.500239383573239493e+01 6.990105132864841142e-01
2.600248958916170139e+01 6.915953947000107460e-01
2.700258534259099719e+01 6.822188189724358587e-01
2.800268109602029654e+01 6.819754765380843242e-01
2.900277684944959589e+01 6.699990101846695634e-01
3.000287260287889524e+01 6.904189253560144568e-01
3.100296835630819103e+01 7.071988537710585110e-01
3.200306410973747262e+01 6.893435917201327090e-01
3.300315986316676486e+01 7.397080395994989344e-01
3.400325561659607843e+01 7.018464391461232132e-01
3.500335137002537067e+01 6.983274090024937930e-01
3.600344712345464160e+01 7.291021896306070227e-01
3.700354287688398358e+01 7.701471955799289448e-01
3.800363863031326872e+01 7.844537375837771220e-01
3.900373438374254675e+01 8.454089260002486395e-01
4.000383013717183189e+01 8.910076568027517352e-01
4.100392589060115256e+01 9.465587305232251447e-01
4.200402164403044480e+01 9.385598302002808868e-01
4.300411739745971573e+01 1.059019413458084369e+00
4.400421315088905772e+01 9.270789379456615409e-01
4.500430890431834285e+01 1.063775023118392893e+00
4.600440465774762089e+01 8.912608838982126747e-01
4.700450041117690603e+01 8.920818999959542195e-01
4.800459616460623380e+01 8.909371042847730182e-01
4.900469191803551183e+01 8.448934240024935649e-01
5.000478767146478987e+01 8.337983183797671449e-01
5.100488342489413185e+01 8.984385239290290093e-01
5.200497917832340278e+01 7.919169830435969226e-01
5.300507493175269502e+01 8.136772508316320041e-01
5.400517068518199437e+01 7.712790531810388428e-01
5.500526643861128662e+01 7.942970733308146736e-01
5.600536219204059307e+01 8.830140384765865491e-01
5.700545794546988532e+01 6.439820555044524220e-01
5.800555369889919177e+01 8.659809697649252236e-01
5.900564945232849112e+01 7.623889162227548422e-01
6.000574520575779047e+01 8.245125550067410325e-01
6.100584095918704719e+01 7.769836064169830525e-01
6.200593671261638207e+01 8.017443305755527216e-01
6.300603246604563878e+01 7.774880207464889281e-01
6.400612821947494524e+01 8.180135130373830110e-01
6.500622397290429433e+01 6.923602498556399309e-01
6.600631972633352973e+01 7.213762183881421430e-01
6.700641547976285040e+01 5.106154829225245662e-01
6.800651123319215685e+01 5.313550990769665416e-01
6.900660698662142067e+01 4.253762416924428691e-01
7.000670274005074134e+01 2.836193933386305099e-01
7.100679849348004780e+01 2.405532606418346042e-01
7.200689424690928320e+01 1.770812195008683865e-01
7.300699000033863229e+01 2.087302310146004203e-01
7.400708575376796716e+01 1.770369792637500328e-01
7.500718150719718835e+01 1.770775347546964251e-01
7.600727726062653744e+01 1.770775347546964251e-01
7.700737301405578705e+01 1.770917871151243550e-01
7.800746876748509351e+01 1.770917871151243550e-01
7.900756452091444260e+01 1.770917871151243550e-01
8.000766027434366379e+01 1.770917871151243550e-01
8.100775602777299866e+01 1.770917871151243550e-01
8.200785178120230512e+01 1.770917871151243550e-01
8.300794753463156894e+01 1.770917871151243550e-01
8.400804328806088961e+01 1.770917871151243550e-01
8.500813904149021027e+01 1.770917871151243550e-01
8.600823479491943147e+01 1.770917871151243550e-01
8.700833054834878055e+01 1.770917871151243550e-01
8.800842630177811543e+01 1.770917871151243550e-01
8.900852205520733662e+01 1.770917871151243550e-01
9.000861780863668571e+01 1.770917871151243550e-01
9.100871356206602059e+01 1.770917871151243550e-01
9.200880931549524178e+01 1.770917871151243550e-01
9.300890506892459086e+01 1.770917871151243550e-01
9.400900082235381205e+01 1.770917871151243550e-01
