#####################################################################
# Alchemist log file - simulation started at: 2017-05-21T15:07+0000 #
#####################################################################
# random = 2.0, targets = 100.0, density = 1.2632455339402642, gridShift = 0.0, perturbation = 0.5, connfactor = 0.1
#
# The columns have the following meaning: 
# time se[Mean] 
0.0 NaN 
1.0021051854459069 NaN 
2.002105185445907 1.0 
3.002105185445907 0.9998822485207101 
4.002105185445907 0.999412426035503 
5.002105185445907 0.9991184911242603 
6.002105185445907 0.997121449704142 
7.002105185445907 0.9957149408284024 
8.002105185445906 0.9944252958579881 
9.002105185445906 0.9919726331360946 
10.002105185445906 0.9913431952662722 
11.002105185445906 0.9900609467455621 
12.002105185445906 0.986282100591716 
13.002105185445906 0.9829715976331361 
14.002105185445906 0.9823081360946746 
15.002105185445906 0.9773016272189349 
16.002105185445906 0.9717837278106509 
17.002105185445906 0.9672099112426036 
18.002105185445906 0.963110650887574 
19.002105185445906 0.9548251479289941 
20.002105185445906 0.9480698224852071 
21.002105185445906 0.9379887573964497 
22.002105185445906 0.9284686390532544 
23.002105185445906 0.9156828402366864 
24.002105185445906 0.903889349112426 
25.002105185445906 0.8965869822485207 
26.002105185445906 0.8818579881656804 
27.002105185445906 0.8772325443786982 
28.002105185445906 0.867775147928994 
29.002105185445906 0.8633710059171598 
30.002105185445906 0.850998224852071 
31.002105185445906 0.8452668639053255 
32.002105185445906 0.839785798816568 
33.002105185445906 0.8165924556213018 
34.002105185445906 0.8154326923076923 
35.002105185445906 0.8031291420118343 
36.002105185445906 0.7999961538461539 
37.002105185445906 0.7925763313609467 
38.002105185445906 0.7969119822485207 
39.002105185445906 0.8024955621301775 
40.002105185445906 0.8105516272189349 
41.002105185445906 0.8255704142011834 
42.002105185445906 0.8316754437869822 
43.002105185445906 0.834153550295858 
44.002105185445906 0.8383673076923077 
45.002105185445906 0.8408477810650887 
46.002105185445906 0.8434852071005917 
47.002105185445906 0.844832100591716 
48.002105185445906 0.8456983727810651 
49.002105185445906 0.8462917159763313 
50.002105185445906 0.8462917159763313 
51.002105185445906 0.8464 
52.002105185445906 0.8464 
53.002105185445906 0.8464 
54.002105185445906 0.8464 
55.002105185445906 0.8464 
56.002105185445906 0.8464 
57.002105185445906 0.8464 
58.002105185445906 0.8464 
59.002105185445906 0.8464 
60.002105185445906 0.8464 
61.002105185445906 0.8464 
62.002105185445906 0.8464 
63.002105185445906 0.8464 
64.00210518544591 0.8464 
65.00210518544591 0.8464 
66.00210518544591 0.8464 
67.00210518544591 0.8464 
68.00210518544591 0.8464 
69.00210518544591 0.8464 
70.00210518544591 0.8464 
71.00210518544591 0.8464 
72.00210518544591 0.8464 
73.00210518544591 0.8464 
74.00210518544591 0.8464 
75.00210518544591 0.8464 
#####################################################################
# End of data export. Simulation finished at: 2017-05-21T15:07+0000 #
#####################################################################
