#####################################################################
# Alchemist log file - simulation started at: 2017-05-21T07:32+0000 #
#####################################################################
# random = 2.0, targets = 3.1622776601683795, density = 20.0, gridShift = 1.0, perturbation = 0.0, connfactor = 0.5
#
# The columns have the following meaning: 
# time se[Mean] 
0.0 NaN 
1.0002668521400264 NaN 
2.0002668521400264 1.0 
3.0002668521400264 1.0 
4.000266852140026 0.9998617808419474 
5.000266852140026 0.998665269264277 
6.000266852140026 0.9976544376894622 
7.000266852140026 0.9947364317006689 
8.000266852140026 0.9934533251861055 
9.000266852140026 0.9903496391944566 
10.000266852140026 0.987867107561604 
11.000266852140026 0.9842580057825476 
12.000266852140026 0.9816734755431136 
13.000266852140026 0.9777363112267919 
14.000266852140026 0.9716484273220952 
15.000266852140026 0.9664931068080342 
16.000266852140026 0.964160034626566 
17.000266852140026 0.9547382374231808 
18.000266852140026 0.949579995140195 
19.000266852140026 0.9413938436065692 
20.000266852140026 0.9307476492550619 
21.000266852140026 0.9274441211983011 
22.000266852140026 0.9184328098644109 
23.000266852140026 0.913104307704869 
24.000266852140026 0.9087241617898771 
25.000266852140026 0.9038427881487511 
26.000266852140026 0.901076733054512 
27.000266852140026 0.9011233579327217 
28.000266852140026 0.8941836784930455 
29.000266852140026 0.8966362305248089 
30.000266852140026 0.8917386090190947 
31.000266852140026 0.8899030397414652 
32.00026685214003 0.8854758633074253 
33.00026685214003 0.8800291146767144 
34.00026685214003 0.8775399199960279 
35.00026685214003 0.8739362314290676 
36.00026685214003 0.8724507914062232 
37.00026685214003 0.871673100679065 
38.00026685214003 0.8670964647936398 
39.00026685214003 0.8656276782762206 
40.00026685214003 0.8621093348104172 
41.00026685214003 0.8589190538818714 
42.00026685214003 0.8547333450482055 
43.00026685214003 0.8533190962925631 
44.00026685214003 0.8477399555850403 
45.00026685214003 0.8423381681276534 
46.00026685214003 0.8342794093278946 
47.00026685214003 0.828739402712457 
48.00026685214003 0.821979154096948 
49.00026685214003 0.8134582769782338 
50.00026685214003 0.8071880404804422 
51.00026685214003 0.7989827357699129 
52.00026685214003 0.7917212347433543 
53.00026685214003 0.7833148463602827 
54.00026685214003 0.7760533453337242 
55.00026685214003 0.7677851761087081 
56.00026685214003 0.7616294283465757 
57.00026685214003 0.7517696571157738 
58.00026685214003 0.7435489487355553 
59.00026685214003 0.7346134141426773 
60.00026685214003 0.7306608461566735 
61.00026685214003 0.7211249740867731 
62.00026685214003 0.7146257601176889 
63.00026685214003 0.7061007196226103 
64.00026685214003 0.6973704320786354 
65.00026685214003 0.6921147766628625 
66.00026685214003 0.6893724766759441 
67.00026685214003 0.69976101316064 
68.00026685214003 0.7044276043059439 
69.00026685214003 0.6938725739085169 
70.00026685214003 0.6856618724425132 
71.00026685214003 0.681445794823526 
72.00026685214003 0.7103157613418029 
73.00026685214003 0.6778833590642127 
74.00026685214003 0.6530805068657316 
75.00026685214003 0.6953082097528941 
76.00026685214003 0.6391928459185843 
77.00026685214003 0.6695082824010222 
78.00026685214003 0.6286511745300514 
79.00026685214003 0.613753054735703 
80.00026685214003 0.6094674577827037 
81.00026685214003 0.5902666407475619 
82.00026685214003 0.5785001336568438 
83.00026685214003 0.5929611400752836 
84.00026685214003 0.6625346327783238 
85.00026685214003 0.6982918185485232 
86.00026685214003 0.6889966027973273 
87.00026685214003 0.6769320209987378 
88.00026685214003 0.6933580834593136 
89.00026685214003 0.8489056549156225 
90.00026685214003 0.7280853338476321 
91.00026685214003 0.6016742179096398 
92.00026685214003 0.9175116875670434 
93.00026685214003 0.5919726961219158 
94.00026685214003 0.8521868669518325 
95.00026685214003 0.664744415550286 
96.00026685214003 0.6448254531210221 
97.00026685214003 0.6996102989658023 
98.00026685214003 0.6261400834724128 
99.00026685214003 0.646419637081339 
100.00026685214003 0.6284528184676873 
101.00026685214003 0.6219540512809631 
102.00026685214003 0.6061758365120405 
103.00026685214003 0.5330898850225743 
104.00026685214003 0.6128304110685042 
105.00026685214003 0.6054269578332924 
106.00026685214003 0.49183648625758614 
107.00026685214003 0.4520909669605796 
108.00026685214003 0.389400612416167 
109.00026685214003 0.4929377363312614 
110.00026685214003 0.34662091823322355 
111.00026685214003 0.36436464405494984 
112.00026685214003 0.46819486801988164 
113.00026685214003 0.3404069408002351 
114.00026685214003 0.421980536452315 
115.00026685214003 0.3531802066007701 
116.00026685214003 0.36173026026720884 
117.00026685214003 0.36808838267915506 
118.00026685214003 0.34459527272995977 
119.00026685214003 0.4552581946416421 
120.00026685214003 0.26849309083725176 
121.00026685214003 0.32866473433886895 
122.00026685214003 0.33005235558810486 
123.00026685214003 0.24221813293990305 
124.00026685214003 0.1657025187238536 
125.00026685214003 0.2113557127329412 
126.00026685214003 0.13287669795132945 
127.00026685214003 0.15868668158724641 
128.00026685214004 0.11433993533090146 
129.00026685214004 0.13440798448393587 
130.00026685214004 0.14957756793635113 
131.00026685214004 0.09241930712380458 
132.00026685214004 0.11844285633302895 
133.00026685214004 0.05701686076711753 
134.00026685214004 0.13861498989497653 
135.00026685214004 0.07481428015571999 
136.00026685214004 0.10528165930440771 
137.00026685214004 0.05022165789248603 
138.00026685214004 0.04299428338676245 
139.00026685214004 0.017269669536921696 
140.00026685214004 0.008073497710157997 
141.00026685214004 0.007002715161471001 
142.00026685214004 0.003419835247985442 
143.00026685214004 0.003010590985921639 
144.00026685214004 0.002884861956938576 
145.00026685214004 0.0026962684134639453 
146.00026685214004 0.002633403898972407 
147.00026685214004 0.002633403898972407 
148.00026685214004 0.002633403898972407 
149.00026685214004 0.002633403898972407 
150.00026685214004 0.002633403898972407 
151.00026685214004 0.002633403898972407 
152.00026685214004 0.002633403898972407 
153.00026685214004 0.002633403898972407 
154.00026685214004 0.002633403898972407 
155.00026685214004 0.002633403898972407 
156.00026685214004 0.002633403898972407 
157.00026685214004 0.002633403898972407 
158.00026685214004 0.002633403898972407 
159.00026685214004 0.002633403898972407 
160.00026685214004 0.002633403898972407 
161.00026685214004 0.002633403898972407 
162.00026685214004 0.002633403898972407 
163.00026685214004 0.002633403898972407 
164.00026685214004 0.002633403898972407 
165.00026685214004 0.002633403898972407 
166.00026685214004 0.002633403898972407 
167.00026685214004 0.002633403898972407 
168.00026685214004 0.002633403898972407 
169.00026685214004 0.002633403898972407 
170.00026685214004 0.002633403898972407 
171.00026685214004 0.002633403898972407 
172.00026685214004 0.002633403898972407 
173.00026685214004 0.002633403898972407 
174.00026685214004 0.002633403898972407 
175.00026685214004 0.002633403898972407 
176.00026685214004 0.002633403898972407 
177.00026685214004 0.002633403898972407 
178.00026685214004 0.002633403898972407 
179.00026685214004 0.002633403898972407 
180.00026685214004 0.002633403898972407 
181.00026685214004 0.002633403898972407 
182.00026685214004 0.002633403898972407 
183.00026685214004 0.002633403898972407 
184.00026685214004 0.002633403898972407 
185.00026685214004 0.002633403898972407 
186.00026685214004 0.002633403898972407 
187.00026685214004 0.002633403898972407 
188.00026685214004 0.002633403898972407 
189.00026685214004 0.002633403898972407 
190.00026685214004 0.002633403898972407 
191.00026685214004 0.002633403898972407 
192.00026685214004 0.002633403898972407 
193.00026685214004 0.002633403898972407 
194.00026685214004 0.002633403898972407 
195.00026685214004 0.002633403898972407 
196.00026685214004 0.002633403898972407 
197.00026685214004 0.002633403898972407 
198.00026685214004 0.002633403898972407 
199.00026685214004 0.002633403898972407 
200.00026685214004 0.002633403898972407 
201.00026685214004 0.002633403898972407 
202.00026685214004 0.002633403898972407 
203.00026685214004 0.002633403898972407 
204.00026685214004 0.002633403898972407 
205.00026685214004 0.002633403898972407 
206.00026685214004 0.002633403898972407 
207.00026685214004 0.002633403898972407 
208.00026685214004 0.002633403898972407 
209.00026685214004 0.002633403898972407 
210.00026685214004 0.002633403898972407 
211.00026685214004 0.002633403898972407 
212.00026685214004 0.002633403898972407 
213.00026685214004 0.002633403898972407 
214.00026685214004 0.002633403898972407 
215.00026685214004 0.002633403898972407 
216.00026685214004 0.002633403898972407 
217.00026685214004 0.002633403898972407 
218.00026685214004 0.002633403898972407 
219.00026685214004 0.002633403898972407 
220.00026685214004 0.002633403898972407 
221.00026685214004 0.002633403898972407 
222.00026685214004 0.002633403898972407 
223.00026685214004 0.002633403898972407 
224.00026685214004 0.002633403898972407 
225.00026685214004 0.002633403898972407 
226.00026685214004 0.002633403898972407 
227.00026685214004 0.002633403898972407 
228.00026685214004 0.002633403898972407 
229.00026685214004 0.002633403898972407 
230.00026685214004 0.002633403898972407 
231.00026685214004 0.002633403898972407 
232.00026685214004 0.002633403898972407 
233.00026685214004 0.002633403898972407 
234.00026685214004 0.002633403898972407 
235.00026685214004 0.002633403898972407 
236.00026685214004 0.002633403898972407 
237.00026685214004 0.002633403898972407 
238.00026685214004 0.002633403898972407 
239.00026685214004 0.002633403898972407 
240.00026685214004 0.002633403898972407 
241.00026685214004 0.002633403898972407 
242.00026685214004 0.002633403898972407 
243.00026685214004 0.002633403898972407 
244.00026685214004 0.002633403898972407 
245.00026685214004 0.002633403898972407 
246.00026685214004 0.002633403898972407 
#####################################################################
# End of data export. Simulation finished at: 2017-05-21T07:46+0000 #
#####################################################################
