#####################################################################
# Alchemist log file - simulation started at: 2017-05-24T08:18+0000 #
#####################################################################
# random = 14.0, targets = 10.0, density = 5.0264212595847235, gridShift = 0.0, perturbation = 0.5, connfactor = 0.75
#
# The columns have the following meaning: 
# time se[Mean] 
0.0 NaN 
1.0015837731381736 NaN 
2.0015837731381736 NaN 
3.0015837731381736 0.9994685570987655 
4.001583773138174 0.9984628182870371 
5.001583773138174 0.9990421248070988 
6.001583773138174 0.9950207368827161 
7.001583773138174 0.987881462191358 
8.001583773138174 0.9863503086419753 
9.001583773138174 0.9756669560185185 
10.001583773138174 0.9789336178626543 
11.001583773138174 0.9696162471064814 
12.001583773138174 0.9642188705632717 
13.001583773138174 0.9608629918981481 
14.001583773138174 0.9549816743827162 
15.001583773138174 0.9527041136188272 
16.001583773138172 0.9469122540509259 
17.001583773138172 0.9382812500000001 
18.001583773138172 0.9292592592592592 
19.001583773138172 0.9225528067129629 
20.001583773138172 0.917166763117284 
21.001583773138172 0.9097621286651235 
22.001583773138172 0.901517650462963 
23.001583773138172 0.8904906925154322 
24.001583773138172 0.8874931278935186 
25.001583773138172 0.8829968412422841 
26.001583773138172 0.879633487654321 
27.001583773138172 0.8770886381172841 
28.001583773138172 0.8748414592978394 
29.001583773138172 0.8720149739583332 
30.001583773138172 0.8720399305555554 
31.001583773138172 0.8680772569444444 
32.00158377313817 0.8671484375000001 
33.00158377313817 0.8654427083333333 
34.00158377313817 0.8661024305555555 
35.00158377313817 0.8654947916666667 
36.00158377313817 0.8665364583333335 
37.00158377313817 0.8676953124999999 
38.00158377313817 0.8705685763888887 
39.00158377313817 0.8722265624999997 
40.00158377313817 0.875412326388889 
41.00158377313817 0.8792664930555555 
42.00158377313817 0.8826649305555557 
43.00158377313817 0.8886067708333332 
44.00158377313817 0.8926041666666669 
45.00158377313817 0.8955468749999997 
46.00158377313817 0.897947048611111 
47.00158377313817 0.9011848958333332 
48.00158377313817 0.9064930555555554 
49.00158377313817 0.9076432291666667 
50.00158377313817 0.9106684027777779 
51.00158377313817 0.9161718750000002 
52.00158377313817 0.9199088541666667 
53.00158377313817 0.9222840711805557 
54.00158377313817 0.9264605034722221 
55.00158377313817 0.9272135416666668 
56.00158377313817 0.9257595486111112 
57.00158377313817 0.9242588975694443 
58.00158377313817 0.9165668402777778 
59.00158377313817 0.9123274739583334 
60.00158377313817 0.9065473090277777 
61.00158377313817 0.9058962673611111 
62.00158377313817 0.8969563802083335 
63.00158377313817 0.8985757860725309 
64.00158377313818 0.8934059124228396 
65.00158377313818 0.9152881462191357 
66.00158377313818 0.8931114969135803 
67.00158377313818 0.9296233603395062 
68.00158377313818 0.8818470293209877 
69.00158377313818 0.8932167486496914 
70.00158377313818 0.8423054108796296 
71.00158377313818 0.8885094762731481 
72.00158377313818 0.852475887345679 
73.00158377313818 0.8389992042824074 
74.00158377313818 1.0536277488425922 
75.00158377313818 1.263990041473766 
76.00158377313818 2.3950407503857996 
77.00158377313818 2.131217930169751 
78.00158377313818 3.734479287229942 
79.00158377313818 2.5502941743827177 
80.00158377313818 3.646908396026239 
81.00158377313818 2.2914439863040137 
82.00158377313818 4.546567563657411 
83.00158377313818 4.064179325810181 
84.00158377313818 4.2783925298996905 
85.00158377313818 4.441787712191361 
86.00158377313818 5.088410614390432 
87.00158377313818 5.772301191165123 
88.00158377313818 5.015606674382719 
89.00158377313818 6.872208236882717 
90.00158377313818 5.420144073109571 
91.00158377313818 5.467298779899694 
92.00158377313818 7.174267578125 
93.00158377313818 7.887702064043213 
94.00158377313818 8.711911530671301 
95.00158377313818 8.265559654706786 
96.00158377313818 7.101469786844137 
97.00158377313818 5.9785098379629655 
98.00158377313818 8.355732301311727 
99.00158377313818 6.74129870756173 
100.00158377313818 8.511189959490745 
101.00158377313818 6.682909915123459 
102.00158377313818 9.13723922164352 
103.00158377313818 8.188472101658949 
104.00158377313818 8.874829764660495 
105.00158377313818 10.146302686149692 
106.00158377313818 8.14888358410494 
107.00158377313818 7.70207175925926 
108.00158377313818 8.104751277970678 
109.00158377313818 7.416853178047845 
110.00158377313818 6.046690176504627 
111.00158377313818 6.049458912037034 
112.00158377313818 3.835375313464507 
113.00158377313818 4.062072120949071 
114.00158377313818 4.264492790316359 
115.00158377313818 3.1644917052469173 
116.00158377313818 4.680634283371913 
117.00158377313818 2.7032759452160486 
118.00158377313818 4.433886477623459 
119.00158377313818 2.8951158613040104 
120.00158377313818 4.197337480709878 
121.00158377313818 3.7585990547839496 
122.00158377313818 3.319064670138886 
123.00158377313818 3.1001546826774717 
124.00158377313818 2.8817843364197597 
125.00158377313818 1.350939670138889 
126.00158377313818 0.695540002893513 
127.00158377313818 0.039941647376543245 
128.00158377313818 0.03997829861111114 
129.00158377313818 0.039913676697530896 
130.00158377313818 0.0399088541666667 
131.00158377313818 0.03993634259259263 
132.00158377313818 0.040000000000000036 
133.00158377313818 0.040000000000000036 
134.00158377313818 0.040000000000000036 
135.00158377313818 0.040000000000000036 
136.00158377313818 0.040000000000000036 
137.00158377313818 0.040000000000000036 
138.00158377313818 0.040000000000000036 
139.00158377313818 0.040000000000000036 
140.00158377313818 0.040000000000000036 
141.00158377313818 0.040000000000000036 
142.00158377313818 0.040000000000000036 
143.00158377313818 0.040000000000000036 
144.00158377313818 0.040000000000000036 
145.00158377313818 0.040000000000000036 
146.00158377313818 0.040000000000000036 
147.00158377313818 0.040000000000000036 
148.00158377313818 0.040000000000000036 
149.00158377313818 0.040000000000000036 
150.00158377313818 0.040000000000000036 
151.00158377313818 0.040000000000000036 
152.00158377313818 0.040000000000000036 
153.00158377313818 0.040000000000000036 
154.00158377313818 0.040000000000000036 
155.00158377313818 0.040000000000000036 
156.00158377313818 0.040000000000000036 
157.00158377313818 0.040000000000000036 
158.00158377313818 0.040000000000000036 
159.00158377313818 0.040000000000000036 
160.00158377313818 0.040000000000000036 
161.00158377313818 0.040000000000000036 
162.00158377313818 0.040000000000000036 
163.00158377313818 0.040000000000000036 
164.00158377313818 0.040000000000000036 
165.00158377313818 0.040000000000000036 
166.00158377313818 0.040000000000000036 
167.00158377313818 0.040000000000000036 
168.00158377313818 0.040000000000000036 
169.00158377313818 0.040000000000000036 
170.00158377313818 0.040000000000000036 
171.00158377313818 0.040000000000000036 
172.00158377313818 0.040000000000000036 
173.00158377313818 0.040000000000000036 
174.00158377313818 0.040000000000000036 
175.00158377313818 0.040000000000000036 
176.00158377313818 0.040000000000000036 
177.00158377313818 0.040000000000000036 
178.00158377313818 0.040000000000000036 
179.00158377313818 0.040000000000000036 
180.00158377313818 0.040000000000000036 
181.00158377313818 0.040000000000000036 
182.00158377313818 0.040000000000000036 
183.00158377313818 0.040000000000000036 
#####################################################################
# End of data export. Simulation finished at: 2017-05-24T08:19+0000 #
#####################################################################
