#####################################################################
# Alchemist log file - simulation started at: 2017-05-21T20:42+0000 #
#####################################################################
# random = 3.0, targets = 1.0, density = 14.160781367816199, gridShift = 0.0, perturbation = 0.5, connfactor = 1.0
#
# The columns have the following meaning: 
# time se[Mean] 
0.0 NaN 
1.0005923698108095 NaN 
2.0005923698108097 1.0032873109796188 
3.0005923698108097 1.0065746219592373 
4.00059236981081 1.0123274161735702 
5.00059236981081 1.017258382642998 
6.00059236981081 1.01232741617357 
7.00059236981081 1.0032873109796188 
8.00059236981081 1.0034014537219667 
9.00059236981081 1.0123045876251002 
10.00059236981081 1.0070311929286286 
11.00059236981081 1.0170848856746293 
12.00059236981081 1.01392541456644 
13.00059236981081 1.0172218569654468 
14.00059236981081 1.0117064796551976 
15.00059236981081 1.0016208269413398 
16.00059236981081 0.9892294908320547 
17.00059236981081 0.9798515231207541 
18.00059236981081 0.9732540726130465 
19.00059236981081 0.9693640879538318 
20.00059236981081 0.9616571699905039 
21.00059236981081 0.9542059317700349 
22.00059236981081 0.9507633866608216 
23.00059236981081 0.9360891957045797 
24.00059236981081 0.9291995397764633 
25.00059236981081 0.9157124333406377 
26.00059236981081 0.9069782306961776 
27.00059236981081 0.8927058221929995 
28.00059236981081 0.8828941120607781 
29.00059236981081 0.868580612170353 
30.00059236981081 0.8566138870626038 
31.00059236981081 0.850189933523266 
32.00059236981081 0.843934911242606 
33.00059236981081 0.8383921396741929 
34.00059236981081 0.8366799985389727 
35.00059236981081 0.8339907955292567 
36.00059236981081 0.8333333333333341 
37.00059236981081 0.8380999342537812 
38.00059236981081 0.8387573964497026 
39.00059236981081 0.8428665351742303 
40.00059236981081 0.847468770545696 
41.00059236981081 0.8528928336620617 
42.00059236981081 0.8627547666009228 
43.00059236981081 0.8701512163050639 
44.00059236981081 0.8778763971071637 
45.00059236981081 0.8897107166337906 
46.00059236981081 0.8964497041420101 
47.00059236981081 0.9068047337278111 
48.00059236981081 0.9146942800788961 
49.00059236981081 0.9220907297830383 
50.00059236981081 0.9370479947403011 
51.00059236981081 0.9462524654832355 
52.00059236981081 0.9523339907955285 
53.00059236981081 0.9618671926364231 
54.00059236981081 0.9710716633793561 
55.00059236981081 0.9783037475345162 
56.00059236981081 0.9809335963182114 
57.00059236981081 0.9848783694937541 
58.00059236981081 0.9901380670611438 
59.00059236981081 0.9940828402366866 
60.00059236981081 0.9960552268244575 
61.00059236981081 0.9986850756081525 
62.00059236981081 1.0 
63.00059236981081 1.0 
64.00059236981082 1.0 
65.00059236981082 1.0 
66.00059236981082 1.0 
67.00059236981082 1.0 
68.00059236981082 1.0 
69.00059236981082 1.0 
70.00059236981082 1.0 
71.00059236981082 1.0 
72.00059236981082 1.128205128205127 
73.00059236981082 1.7495069033530388 
74.00059236981082 2.715323434874688 
75.00059236981082 3.8273294250858956 
76.00059236981082 5.1358161662649655 
77.00059236981082 5.366247534516827 
78.00059236981082 6.386501022718873 
79.00059236981082 8.404060742201642 
80.00059236981082 8.247899773540889 
81.00059236981082 8.302455438673547 
82.00059236981082 9.335136788662348 
83.00059236981082 8.61797337278103 
84.00059236981082 9.515902366863925 
85.00059236981082 11.044022572868595 
86.00059236981082 11.827078311052514 
87.00059236981082 13.20684491197312 
88.00059236981082 11.866891299583628 
89.00059236981082 12.691526955949904 
90.00059236981082 13.993142304039697 
91.00059236981082 12.04203648915196 
92.00059236981082 12.80763751917604 
93.00059236981082 11.659247388414133 
94.00059236981082 12.479819563152907 
95.00059236981082 12.758072174738784 
96.00059236981082 12.677555884286722 
97.00059236981082 12.062769376871914 
98.00059236981082 14.299624698663175 
99.00059236981082 13.283229235152334 
100.00059236981082 12.751301227262728 
101.00059236981082 14.27473244941186 
102.00059236981082 13.637669844400618 
103.00059236981082 14.327585104828684 
104.00059236981082 15.383245671707158 
105.00059236981082 12.650896705383897 
106.00059236981082 13.393568741325199 
107.00059236981082 13.81568686536633 
108.00059236981082 15.140066841989837 
109.00059236981082 16.88492585287465 
110.00059236981082 14.1827151362408 
111.00059236981082 16.442709474760775 
112.00059236981082 14.840186463584022 
113.00059236981082 10.40472277010729 
114.00059236981082 9.816093213529232 
115.00059236981082 10.271897143692216 
116.00059236981082 9.276846373000224 
117.00059236981082 8.687372160128623 
118.00059236981082 8.796506318942228 
119.00059236981082 9.123223938929211 
120.00059236981082 7.860453648915134 
121.00059236981082 5.396130104463366 
122.00059236981082 4.2132551683833155 
123.00059236981082 4.6686892760610865 
124.00059236981082 3.411228906421306 
125.00059236981082 2.2093286580465983 
126.00059236981082 1.5727819782306636 
127.00059236981082 0.9696745562130162 
128.00059236981082 0.9332356271458699 
129.00059236981082 0.4408923223025816 
130.00059236981082 0.4217711301044597 
131.00059236981082 0.40204269851705965 
132.00059236981082 0.3743973263204018 
133.00059236981082 0.34889783767989113 
134.00059236981082 0.3232020235225403 
135.00059236981082 0.29390843012637907 
136.00059236981082 0.26920794068230397 
137.00059236981082 0.2465391920520134 
138.00059236981082 0.22744539411205697 
139.00059236981082 0.2076713054277196 
140.00059236981082 0.18647271531886794 
141.00059236981082 0.16673058660238183 
142.00059236981082 0.1460159617210894 
143.00059236981082 0.12688107239388965 
144.00059236981082 0.10681477828913911 
145.00059236981082 0.08906329899919879 
146.00059236981082 0.07566294104755779 
147.00059236981082 0.06292461100153365 
148.00059236981082 0.05170666228358516 
149.00059236981082 0.041657535247277847 
150.00059236981082 0.03520162174008317 
151.00059236981082 0.0294259989772809 
152.00059236981082 0.02357275914968193 
153.00059236981082 0.018920300971582843 
154.00059236981082 0.01530425889400285 
155.00059236981082 0.01282507853020639 
156.00059236981082 0.009578858937833093 
157.00059236981082 0.006780078895463519 
158.00059236981082 0.00493096646942808 
159.00059236981082 0.4703228869895488 
160.00059236981082 1.8722514427642571 
161.00059236981082 2.805993863686204 
162.00059236981082 5.143144130323577 
163.00059236981082 5.610508437431577 
164.00059236981082 5.61034407188253 
165.00059236981082 9.350573453137688 
166.00059236981082 9.81810212579439 
167.00059236981082 8.415516107824038 
168.00059236981082 11.220688143765063 
169.00059236981082 9.818102125794491 
170.00059236981082 9.818102125794493 
171.00059236981082 13.09080283439242 
172.00059236981082 12.623274161735843 
173.00059236981082 16.36350354299077 
174.00059236981082 14.493388852363378 
175.00059236981082 13.090802834392425 
176.00059236981082 18.701146906275174 
177.00059236981082 13.090802834392454 
178.00059236981082 16.36350354299077 
179.00059236981082 13.090802834392482 
180.00059236981082 14.960917525020088 
181.00059236981082 14.49338885236328 
182.00059236981082 16.363503542990763 
183.00059236981082 12.62327416173567 
184.00059236981082 17.298560888304408 
185.00059236981082 16.831032215647618 
186.00059236981082 14.025860179706408 
187.00059236981082 17.298560888304397 
188.00059236981082 16.831032215647582 
189.00059236981082 15.428446197677118 
190.00059236981082 20.57126159690268 
191.00059236981082 14.960917525020085 
192.00059236981082 15.428446197677108 
193.00059236981082 17.29856088830441 
194.00059236981082 15.895974870333854 
195.00059236981082 22.908904960186916 
196.00059236981082 16.363503542990752 
197.00059236981082 21.506318942216467 
198.00059236981082 23.84396230550071 
199.00059236981082 14.96091752502021 
200.00059236981082 14.493388852363436 
201.00059236981082 16.831032215648023 
202.00059236981082 15.428446197677136 
203.00059236981082 13.5583315070496 
204.00059236981082 13.558331507049607 
205.00059236981082 13.55833150704964 
206.00059236981082 14.49338885236349 
207.00059236981082 10.753159471107908 
208.00059236981082 9.350573453137704 
209.00059236981082 10.28563079845143 
210.00059236981082 8.41551610782408 
211.00059236981082 5.610344071882531 
212.00059236981082 6.077872744539345 
213.00059236981082 1.8701146906275206 
214.00059236981082 3.7402293812550402 
215.00059236981082 1.4025860179706322 
216.00059236981082 0.46752867265688164 
217.00059236981082 0.4675286726568815 
218.00059236981082 4.930380657631324E-32 
219.00059236981082 4.930380657631324E-32 
220.00059236981082 4.930380657631324E-32 
221.00059236981082 4.930380657631324E-32 
222.00059236981082 4.930380657631324E-32 
223.00059236981082 4.930380657631324E-32 
224.00059236981082 4.930380657631324E-32 
225.00059236981082 4.930380657631324E-32 
226.00059236981082 4.930380657631324E-32 
227.00059236981082 4.930380657631324E-32 
228.00059236981082 4.930380657631324E-32 
229.00059236981082 4.930380657631324E-32 
230.00059236981082 4.930380657631324E-32 
231.00059236981082 4.930380657631324E-32 
232.00059236981082 4.930380657631324E-32 
233.00059236981082 4.930380657631324E-32 
234.00059236981082 4.930380657631324E-32 
235.00059236981082 4.930380657631324E-32 
236.00059236981082 4.930380657631324E-32 
237.00059236981082 4.930380657631324E-32 
238.00059236981082 4.930380657631324E-32 
239.00059236981082 4.930380657631324E-32 
240.00059236981082 4.930380657631324E-32 
241.00059236981082 4.930380657631324E-32 
242.00059236981082 4.930380657631324E-32 
243.00059236981082 4.930380657631324E-32 
244.00059236981082 4.930380657631324E-32 
245.00059236981082 4.930380657631324E-32 
246.00059236981082 4.930380657631324E-32 
247.00059236981082 4.930380657631324E-32 
248.00059236981082 4.930380657631324E-32 
249.00059236981082 4.930380657631324E-32 
250.00059236981082 4.930380657631324E-32 
251.00059236981082 4.930380657631324E-32 
252.00059236981082 4.930380657631324E-32 
253.00059236981082 4.930380657631324E-32 
254.00059236981082 4.930380657631324E-32 
255.00059236981082 4.930380657631324E-32 
256.0005923698108 4.930380657631324E-32 
257.0005923698108 4.930380657631324E-32 
258.0005923698108 4.930380657631324E-32 
259.0005923698108 4.930380657631324E-32 
260.0005923698108 4.930380657631324E-32 
261.0005923698108 4.930380657631324E-32 
262.0005923698108 4.930380657631324E-32 
263.0005923698108 4.930380657631324E-32 
264.0005923698108 4.930380657631324E-32 
265.0005923698108 4.930380657631324E-32 
266.0005923698108 4.930380657631324E-32 
267.0005923698108 4.930380657631324E-32 
268.0005923698108 4.930380657631324E-32 
269.0005923698108 4.930380657631324E-32 
270.0005923698108 4.930380657631324E-32 
271.0005923698108 4.930380657631324E-32 
272.0005923698108 4.930380657631324E-32 
273.0005923698108 4.930380657631324E-32 
274.0005923698108 4.930380657631324E-32 
275.0005923698108 4.930380657631324E-32 
276.0005923698108 4.930380657631324E-32 
277.0005923698108 4.930380657631324E-32 
278.0005923698108 4.930380657631324E-32 
279.0005923698108 4.930380657631324E-32 
280.0005923698108 4.930380657631324E-32 
281.0005923698108 4.930380657631324E-32 
282.0005923698108 4.930380657631324E-32 
283.0005923698108 4.930380657631324E-32 
284.0005923698108 4.930380657631324E-32 
285.0005923698108 4.930380657631324E-32 
286.0005923698108 4.930380657631324E-32 
287.0005923698108 4.930380657631324E-32 
288.0005923698108 4.930380657631324E-32 
289.0005923698108 4.930380657631324E-32 
290.0005923698108 4.930380657631324E-32 
291.0005923698108 4.930380657631324E-32 
292.0005923698108 4.930380657631324E-32 
293.0005923698108 4.930380657631324E-32 
294.0005923698108 4.930380657631324E-32 
295.0005923698108 4.930380657631324E-32 
296.0005923698108 4.930380657631324E-32 
297.0005923698108 4.930380657631324E-32 
298.0005923698108 4.930380657631324E-32 
299.0005923698108 4.930380657631324E-32 
300.0005923698108 4.930380657631324E-32 
301.0005923698108 4.930380657631324E-32 
302.0005923698108 4.930380657631324E-32 
303.0005923698108 4.930380657631324E-32 
304.0005923698108 4.930380657631324E-32 
305.0005923698108 4.930380657631324E-32 
306.0005923698108 4.930380657631324E-32 
307.0005923698108 4.930380657631324E-32 
#####################################################################
# End of data export. Simulation finished at: 2017-05-21T20:50+0000 #
#####################################################################
