#####################################################################
# Alchemist log file - simulation started at: 2017-05-24T01:52+0000 #
#####################################################################
# random = 13.0, targets = 31.622776601683793, density = 0.2247883923996312, gridShift = 0.0, perturbation = 0.5, connfactor = 2.0
#
# The columns have the following meaning: 
# time se[Mean] 
0.0 NaN 
1.0093475742791087 NaN 
2.0093475742791087 NaN 
3.0093475742791087 1.1793431266722332 
4.009347574279109 1.6256256935092355 
5.009347574279109 2.608607416036027 
6.009347574279109 2.2000578249152056 
7.009347574279109 4.295302894252649 
8.009347574279108 4.133675138858703 
9.009347574279108 4.153170594886268 
10.009347574279108 4.728963845612849 
11.009347574279108 4.285804836459248 
12.009347574279108 4.2560523058890745 
13.009347574279108 4.067851265303906 
14.009347574279108 3.5524889748889064 
15.009347574279108 3.999358629289914 
16.009347574279108 4.714712356278543 
17.009347574279108 4.87174986314178 
18.009347574279108 6.147312905557462 
19.009347574279108 8.444703195841994 
20.009347574279108 8.003985194367534 
21.009347574279108 9.445357784587468 
22.009347574279108 12.270412882539064 
23.009347574279108 10.057235077632344 
24.009347574279108 10.096263431029989 
25.009347574279108 12.138215289054887 
26.009347574279108 9.388784263870594 
27.009347574279108 8.728671997351725 
28.009347574279108 9.19153547106991 
29.009347574279108 6.680294394966619 
30.009347574279108 5.45769333685583 
31.009347574279108 5.429937987497182 
32.009347574279104 5.453923357475521 
33.009347574279104 5.436896073786258 
34.009347574279104 5.420313234541439 
35.009347574279104 5.420313234541439 
36.009347574279104 5.420313234541439 
37.009347574279104 5.420313234541439 
38.009347574279104 5.420313234541439 
39.009347574279104 5.420313234541439 
40.009347574279104 5.420313234541439 
41.009347574279104 5.420313234541439 
42.009347574279104 5.420313234541439 
43.009347574279104 5.420313234541439 
44.009347574279104 5.420313234541439 
#####################################################################
# End of data export. Simulation finished at: 2017-05-24T01:52+0000 #
#####################################################################
