#####################################################################
# Alchemist log file - simulation started at: 2017-05-25T20:37+0000 #
#####################################################################
# random = 19.0, targets = 1.0, density = 0.894427190999916, gridShift = 0.0, perturbation = 0.5, connfactor = 0.25
#
# The columns have the following meaning: 
# time se[Mean] 
0.0 NaN 
1.0189000266060093 NaN 
2.0189000266060093 1.0 
3.0189000266060093 1.0 
4.018900026606009 1.0 
5.018900026606009 1.0 
6.018900026606009 1.0 
7.018900026606009 1.0 
8.018900026606008 1.0 
9.018900026606008 1.0 
10.018900026606008 1.0 
11.018900026606008 1.0 
12.018900026606008 1.0 
13.018900026606008 1.0 
14.018900026606008 1.0 
15.018900026606008 1.0 
16.01890002660601 1.0 
17.01890002660601 1.0 
18.01890002660601 1.0 
19.01890002660601 1.0 
20.01890002660601 1.0 
#####################################################################
# End of data export. Simulation finished at: 2017-05-25T20:37+0000 #
#####################################################################
