#####################################################################
# Alchemist log file - simulation started at: 2017-05-23T05:55+0000 #
#####################################################################
# random = 5.0, targets = 1.0, density = 7.099073319511142, gridShift = 1.0, perturbation = 0.0, connfactor = 0.25
#
# The columns have the following meaning: 
# time se[Mean] 
0.0 NaN 
1.0031365367908396 NaN 
2.00313653679084 1.0 
3.00313653679084 1.0 
4.00313653679084 1.0 
5.00313653679084 1.0 
6.00313653679084 1.0 
7.00313653679084 1.0 
8.00313653679084 1.0 
9.00313653679084 1.0 
10.00313653679084 1.0 
11.00313653679084 1.0 
12.00313653679084 1.0 
13.00313653679084 1.0 
14.00313653679084 1.0 
15.00313653679084 1.0 
16.00313653679084 1.0 
17.00313653679084 1.0 
18.00313653679084 1.0 
19.00313653679084 1.0 
20.00313653679084 1.0 
21.00313653679084 1.0 
22.00313653679084 1.0 
23.00313653679084 1.0 
24.00313653679084 1.0 
25.00313653679084 1.0 
26.00313653679084 1.0 
27.00313653679084 1.0 
28.00313653679084 1.0 
29.00313653679084 1.0 
30.00313653679084 1.0 
31.00313653679084 1.0 
32.00313653679084 1.0 
33.00313653679084 1.0 
34.00313653679084 1.0 
35.00313653679084 1.0 
36.00313653679084 1.0 
37.00313653679084 1.0 
38.00313653679084 1.0 
39.00313653679084 1.0 
40.00313653679084 1.0 
41.00313653679084 1.0 
42.00313653679084 1.0 
43.00313653679084 1.0 
44.00313653679084 1.0 
45.00313653679084 1.0 
46.00313653679084 1.0 
47.00313653679084 1.0 
48.00313653679084 1.0 
49.00313653679084 1.0 
50.00313653679084 1.0 
51.00313653679084 1.0 
52.00313653679084 1.0 
53.00313653679084 1.0 
54.00313653679084 1.0 
55.00313653679084 1.0 
56.00313653679084 1.0 
57.00313653679084 1.0 
58.00313653679084 1.0 
59.00313653679084 1.0 
#####################################################################
# End of data export. Simulation finished at: 2017-05-23T05:56+0000 #
#####################################################################
