#####################################################################
# Alchemist log file - simulation started at: 2017-05-25T15:13+0000 #
#####################################################################
# random = 18.0, targets = 10.0, density = 0.05649405772326896, gridShift = 0.0, perturbation = 0.5, connfactor = 2.0
#
# The columns have the following meaning: 
# time se[Mean] 
0.0 NaN 
1.0067713218599703 NaN 
2.0067713218599703 NaN 
3.0067713218599703 1.0458680555555555 
4.00677132185997 1.4358159722222223 
5.00677132185997 1.1934375 
6.00677132185997 1.6829861111111115 
7.00677132185997 2.4526779513888894 
8.00677132185997 2.6087022569444454 
9.00677132185997 5.416011284722224 
10.00677132185997 4.87467013888889 
11.00677132185997 5.4871267361111125 
12.00677132185997 6.564622395833335 
13.00677132185997 6.21076388888889 
14.00677132185997 6.141106770833334 
15.00677132185997 7.476757812500002 
16.006771321859972 7.217604166666668 
17.006771321859972 11.019982638888893 
18.006771321859972 9.960052083333336 
19.006771321859972 10.117083333333337 
20.006771321859972 9.822065972222225 
21.006771321859972 7.223281250000001 
22.006771321859972 5.822152777777778 
23.006771321859972 5.666944444444445 
24.006771321859972 5.711736111111111 
25.006771321859972 5.76 
26.006771321859972 5.76 
27.006771321859972 5.76 
28.006771321859972 5.76 
29.006771321859972 5.76 
30.006771321859972 5.76 
#####################################################################
# End of data export. Simulation finished at: 2017-05-25T15:13+0000 #
#####################################################################
