#####################################################################
# Alchemist log file - simulation started at: 2017-05-24T08:10+0000 #
#####################################################################
# random = 14.0, targets = 10.0, density = 0.2247883923996312, gridShift = 1.0, perturbation = 0.5, connfactor = 0.75
#
# The columns have the following meaning: 
# time se[Mean] 
0.0 NaN 
1.011133799227012 NaN 
2.0111337992270117 1.0097619047619049 
3.0111337992270117 1.011521164021164 
4.011133799227012 0.9902513227513228 
5.011133799227012 0.9508862433862434 
6.011133799227012 0.8644378306878308 
7.011133799227012 0.8031415343915345 
8.01113379922701 0.8196693121693122 
9.01113379922701 0.7480357142857144 
10.01113379922701 0.6967063492063492 
11.01113379922701 0.6716600529100529 
12.01113379922701 0.5661904761904762 
13.01113379922701 0.550952380952381 
14.01113379922701 0.4685648148148148 
15.01113379922701 0.4063095238095239 
16.01113379922701 0.3268121693121694 
17.01113379922701 0.26784391534391544 
18.01113379922701 0.26614417989417993 
19.01113379922701 0.24746693121693125 
20.01113379922701 0.22658730158730164 
21.01113379922701 0.23652777777777784 
22.01113379922701 0.18958333333333338 
23.01113379922701 0.21515873015873022 
24.01113379922701 0.21225529100529106 
25.01113379922701 0.24049603174603176 
26.01113379922701 0.19662037037037042 
27.01113379922701 0.16161375661375665 
28.01113379922701 0.16400132275132281 
29.01113379922701 0.15578042328042335 
30.01113379922701 0.1584986772486773 
31.01113379922701 0.15939153439153445 
32.01113379922701 0.16000000000000006 
33.01113379922701 0.16000000000000006 
34.01113379922701 0.16000000000000006 
35.01113379922701 0.16000000000000006 
36.01113379922701 0.16000000000000006 
37.01113379922701 0.16000000000000006 
38.01113379922701 0.16000000000000006 
39.01113379922701 0.16000000000000006 
40.01113379922701 0.16000000000000006 
#####################################################################
# End of data export. Simulation finished at: 2017-05-24T08:10+0000 #
#####################################################################
