#####################################################################
# Alchemist log file - simulation started at: 2017-05-25T23:08+0000 #
#####################################################################
# random = 19.0, targets = 10.0, density = 0.894427190999916, gridShift = 0.0, perturbation = 0.0, connfactor = 0.75
#
# The columns have the following meaning: 
# time se[Mean] 
0.0 NaN 
1.0189000266060093 NaN 
2.0189000266060093 1.0 
3.0189000266060093 1.0 
4.018900026606009 1.0029843893480257 
5.018900026606009 1.026540404040404 
6.018900026606009 1.0354384756657484 
7.018900026606009 1.0338797061524334 
8.018900026606008 1.020861455463728 
9.018900026606008 0.9945230716253444 
10.018900026606008 0.9356646005509642 
11.018900026606008 0.8708958907254362 
12.018900026606008 0.7507191230486685 
13.018900026606008 0.6599988521579432 
14.018900026606008 0.570436753902663 
15.018900026606008 0.44678604224058777 
16.01890002660601 0.3739302112029385 
17.01890002660601 0.2664084022038568 
18.01890002660601 0.20357954545454549 
19.01890002660601 0.19142676767676772 
20.01890002660601 0.12590622130394863 
21.01890002660601 0.1084837006427916 
22.01890002660601 0.10220787419651063 
23.01890002660601 0.06998507805325992 
24.01890002660601 0.06629476584022043 
25.01890002660601 0.04978305785123971 
26.01890002660601 0.041854912764003716 
27.01890002660601 0.038061294765840255 
28.01890002660601 0.024557506887052376 
29.01890002660601 0.025738636363636408 
30.01890002660601 0.02770259412304872 
31.01890002660601 0.03382346189164378 
32.018900026606005 0.03752066115702486 
33.018900026606005 0.04000000000000007 
34.018900026606005 0.04000000000000007 
35.018900026606005 0.04000000000000007 
36.018900026606005 0.04000000000000007 
37.018900026606005 0.04000000000000007 
38.018900026606005 0.04000000000000007 
39.018900026606005 0.04000000000000007 
40.018900026606005 0.04000000000000007 
41.018900026606005 0.04000000000000007 
42.018900026606005 0.04000000000000007 
43.018900026606005 0.04000000000000007 
44.018900026606005 0.04000000000000007 
45.018900026606005 0.04000000000000007 
46.018900026606005 0.04000000000000007 
47.018900026606005 0.04000000000000007 
48.018900026606005 0.04000000000000007 
49.018900026606005 0.04000000000000007 
50.018900026606005 0.04000000000000007 
51.018900026606005 0.04000000000000007 
52.018900026606005 0.04000000000000007 
53.018900026606005 0.04000000000000007 
#####################################################################
# End of data export. Simulation finished at: 2017-05-25T23:08+0000 #
#####################################################################
