0.000000000000000000e+00 nan
1.000004365537424666e+00 8.710425002407377187e-03
2.000008731074849333e+00 9.531360806796912444e-01
3.000013096612271557e+00 9.531041736367132922e-01
4.000017462149698666e+00 9.523687700358709485e-01
5.000021827687120890e+00 9.511207528073793993e-01
6.000026193224543114e+00 9.487798192210757930e-01
7.000030558761968891e+00 9.459306237882959545e-01
8.000034924299397332e+00 9.439626599888106817e-01
9.000039289836818668e+00 9.413752988089583162e-01
1.000004365537424178e+01 9.388003723580752302e-01
1.100004802091166489e+01 9.356832137164105001e-01
1.200005238644908623e+01 9.327325789080865848e-01
1.300005675198651112e+01 9.292238498337376251e-01
1.400006111752393778e+01 9.258575027835642679e-01
1.500006548306135379e+01 9.224426771443017259e-01
1.600006984859879466e+01 9.199062727516694737e-01
1.700007421413620889e+01 9.163103310431585102e-01
1.800007857967363734e+01 9.129351623589637699e-01
1.900008294521104801e+01 9.098397792277549412e-01
2.000008731074848356e+01 9.059284619486853707e-01
2.100009167628591911e+01 9.015957729991508351e-01
2.200009604182332978e+01 8.975763305298318784e-01
2.300010040736076178e+01 8.927937998224840799e-01
2.400010477289817246e+01 8.884394503359405171e-01
2.500010913843561511e+01 8.826101679648413745e-01
2.600011350397302223e+01 8.779361986206845048e-01
2.700011786951045067e+01 8.737656449076076637e-01
2.800012223504787556e+01 8.680279403855846176e-01
2.900012660058530400e+01 8.632916691588238267e-01
3.000013096612270758e+01 8.574309403162611032e-01
3.100013533166016089e+01 8.528768639243234917e-01
3.200013969719758933e+01 8.465965653719348394e-01
3.300014406273499645e+01 8.410850391268155368e-01
3.400014842827241779e+01 8.361323313836023230e-01
3.500015279380985334e+01 8.302117052251556384e-01
3.600015715934727467e+01 8.253765206015276634e-01
3.700016152488468180e+01 8.195429863430262474e-01
3.800016589042209603e+01 8.139513968029686852e-01
3.900017025595956710e+01 8.090851946435414499e-01
4.000017462149696712e+01 8.025398138747310561e-01
4.100017898703438846e+01 7.991239862721584153e-01
4.200018335257183821e+01 7.920128595972734109e-01
4.300018771810925244e+01 7.880877803842025742e-01
4.400019208364665957e+01 7.819999180411563167e-01
4.500019644918407380e+01 7.773993345279339717e-01
4.600020081472152356e+01 7.714819909702402834e-01
4.700020518025893779e+01 7.656603534134013289e-01
4.800020954579634491e+01 7.607884054621453229e-01
4.900021391133375914e+01 7.548802160416784313e-01
5.000021827687123022e+01 7.496491366041769799e-01
5.100022264240863734e+01 7.429835105803122008e-01
5.200022700794604447e+01 7.383394798853550878e-01
5.300023137348350843e+01 7.321722722141715822e-01
5.400023573902090135e+01 7.256288095170794206e-01
5.500024010455832268e+01 7.201369152901304638e-01
5.600024447009575113e+01 7.149588544404728019e-01
5.700024883563317246e+01 7.077434279233634218e-01
5.800025320117060801e+01 7.030892721828067016e-01
5.900025756670802934e+01 6.952353666147813582e-01
6.000026193224541515e+01 6.897384419486722873e-01
6.100026629778289333e+01 6.833004746723925216e-01
6.200027066332032177e+01 6.770080818334521799e-01
6.300027502885770758e+01 6.702003999227104103e-01
6.400027939439517866e+01 6.645441700128106310e-01
6.500028375993254315e+01 6.591141392444627156e-01
6.600028812546999291e+01 6.536848957416521166e-01
6.700029249100747109e+01 6.462371381498193124e-01
6.800029685654483558e+01 6.399135027902042028e-01
6.900030122208227112e+01 6.360002552885406502e-01
7.000030558761970667e+01 6.265472072965393435e-01
7.100030995315707116e+01 6.203085559258393333e-01
7.200031431869454934e+01 6.145931087377167756e-01
7.300031868423199910e+01 6.059237221866320411e-01
7.400032304976936359e+01 5.985620632452086642e-01
7.500032741530684177e+01 5.917066829188613042e-01
7.600033178084419205e+01 5.810282871454997000e-01
7.700033614638165602e+01 5.720808551584594115e-01
7.800034051191913420e+01 5.689868175070038614e-01
7.900034487745648448e+01 5.563560763867232417e-01
8.000034924299393424e+01 5.545908758081679046e-01
8.100035360853138400e+01 5.395443775216749449e-01
8.200035797406877691e+01 5.362867371127166827e-01
8.300036233960621246e+01 5.299525355725451803e-01
8.400036670514367643e+01 5.198401310464864089e-01
8.500037107068102671e+01 5.121245403957082054e-01
8.600037543621850489e+01 5.041576356347696741e-01
8.700037980175596886e+01 4.972053531238607715e-01
8.800038416729331914e+01 4.886533285116962944e-01
8.900038853283079732e+01 4.804740763677186610e-01
9.000039289836814760e+01 4.705785434902468589e-01
9.100039726390559736e+01 4.686522767588260918e-01
9.200040162944304711e+01 4.601053682712827331e-01
9.300040599498044003e+01 4.536995979404777057e-01
9.400041036051787557e+01 4.483029711209186030e-01
9.500041472605533954e+01 4.435917088935120711e-01
9.600041909159268982e+01 4.390451292300145414e-01
9.700042345713016800e+01 4.370776565970299066e-01
9.800042782266751829e+01 4.370635517759104416e-01
9.900043218820498225e+01 4.394496595660790650e-01
1.000004365537424604e+02 4.361606309226822575e-01
1.010004409192798107e+02 4.252739469824458607e-01
1.020004452848172747e+02 4.252495713294004442e-01
1.030004496503547244e+02 4.179541467254210829e-01
1.040004540158920889e+02 4.100279600155617987e-01
1.050004583814295103e+02 4.026129832890736893e-01
1.060004627469670169e+02 4.004705774230636894e-01
1.070004671125043529e+02 3.953042233873829137e-01
1.080004714780418027e+02 3.893500419024466530e-01
1.090004758435792951e+02 3.912247018957186739e-01
1.100004802091166454e+02 3.752645257680706226e-01
1.110004845746540951e+02 3.859256269212628099e-01
1.120004889401915023e+02 3.772062087924097917e-01
1.130004933057289378e+02 3.766392072553262360e-01
1.140004976712663449e+02 3.780006045171917517e-01
1.150005020368037947e+02 3.737011507112599218e-01
1.160005064023412160e+02 3.893720995215342873e-01
1.170005107678786374e+02 3.810486647240163283e-01
1.180005151334160587e+02 4.058318080824904195e-01
1.190005194989534942e+02 4.146041531350742049e-01
1.200005238644908303e+02 3.866719899844903718e-01
1.210005282300283511e+02 4.154713259124382940e-01
1.220005325955657867e+02 3.821198237976614620e-01
1.230005369611031227e+02 3.863043325275405393e-01
1.240005413266406435e+02 4.162653055301511196e-01
1.250005456921780507e+02 3.676214653037913616e-01
1.260005500577154152e+02 3.786955366427541270e-01
1.270005544232528223e+02 3.667584384446757051e-01
1.280005587887903573e+02 3.494803318912557688e-01
1.290005631543276934e+02 3.438255737624605346e-01
1.300005675198650863e+02 3.456711755368723216e-01
1.310005718854026497e+02 3.158280614489452076e-01
1.320005762509399858e+02 3.327753601151885454e-01
1.330005806164773787e+02 3.474472392663710552e-01
1.340005849820149422e+02 3.228770628646607799e-01
1.350005893475522782e+02 3.271016225091329388e-01
1.360005937130896712e+02 3.258572803402260409e-01
1.370005980786271493e+02 3.214960456145463108e-01
1.380006024441645422e+02 3.143504523215648327e-01
1.390006068097019352e+02 2.959473594197320478e-01
1.400006111752394133e+02 2.884554428516421520e-01
1.410006155407768063e+02 2.939236864117897863e-01
1.420006199063141423e+02 2.791547297113219361e-01
1.430006242718517058e+02 2.893010409469150002e-01
1.440006286373890987e+02 2.849303438099321517e-01
1.450006330029264348e+02 2.518039852110714460e-01
1.460006373684639982e+02 2.670844720052637511e-01
1.470006417340013911e+02 2.716615221245863854e-01
1.480006460995387272e+02 2.697007771082835514e-01
1.490006504650762622e+02 2.657978035609839806e-01
1.500006548306136835e+02 2.651305009338379981e-01
1.510006591961510196e+02 2.827210214144953992e-01
1.520006635616883841e+02 3.051011252914453964e-01
1.530006679272259760e+02 3.619036317996620622e-01
1.540006722927633120e+02 2.995061299475038630e-01
1.550006766583006765e+02 3.294547043106721973e-01
1.560006810238382684e+02 3.227653892067680053e-01
1.570006853893756045e+02 3.354531674182814616e-01
1.580006897549129690e+02 3.219026629244926552e-01
1.590006941204504756e+02 3.105653778449483648e-01
1.600006984859878685e+02 3.044344486523121174e-01
1.610007028515252614e+02 2.688742969183534615e-01
1.620007072170627680e+02 2.680012569372159370e-01
1.630007115826001609e+02 2.357168346383385904e-01
1.640007159481375538e+02 2.463724104824900618e-01
1.650007203136750604e+02 2.421214071152751890e-01
1.660007246792124249e+02 1.863493252429625768e-01
1.670007290447497610e+02 2.406463668818432378e-01
1.680007334102873529e+02 2.000655561142737626e-01
1.690007377758247173e+02 1.812167373344975296e-01
1.700007421413620534e+02 1.743379583389268461e-01
1.710007465068994179e+02 1.772461986381618226e-01
1.720007508724370098e+02 1.571966865225269960e-01
1.730007552379743458e+02 1.535917956925980377e-01
1.740007596035119377e+02 1.463958736578500064e-01
1.750007639690493022e+02 1.538085664550059295e-01
1.760007683345866383e+02 1.352725849468033315e-01
1.770007727001240028e+02 1.312691825074050467e-01
1.780007770656615946e+02 1.258892192611473504e-01
1.790007814311989307e+02 1.208718155493459651e-01
1.800007857967362952e+02 1.382766459540823167e-01
1.810007901622738018e+02 1.144999130065504772e-01
1.820007945278111947e+02 1.222175793757871304e-01
1.830007988933485876e+02 1.244060108543218052e-01
1.840008032588860942e+02 1.097585415335942532e-01
1.850008076244234871e+02 1.121293965835897244e-01
1.860008119899608801e+02 1.051252552401271134e-01
1.870008163554983867e+02 8.979584078269146896e-02
1.880008207210357511e+02 1.007412022311205413e-01
1.890008250865730872e+02 7.928978557917194803e-02
1.900008294521106791e+02 9.240917325336116261e-02
1.910008338176480436e+02 8.573501828154830862e-02
1.920008381831853796e+02 7.396031876646061431e-02
1.930008425487229715e+02 7.954274262354220359e-02
1.940008469142603360e+02 7.724006522847266798e-02
1.950008512797976721e+02 5.598406317899256440e-02
1.960008556453350366e+02 7.504467884895543728e-02
1.970008600108726284e+02 6.283678715888170452e-02
1.980008643764099645e+02 6.319862010958179899e-02
1.990008687419473290e+02 6.647337648206391725e-02
2.000008731074849209e+02 5.344296702265955573e-02
2.010008774730222569e+02 6.022676998983427649e-02
2.020008818385596214e+02 4.258836791061190036e-02
2.030008862040971565e+02 3.318395661434248717e-02
2.040008905696345494e+02 3.388598954815791320e-02
2.050008949351719139e+02 2.889559113782241492e-02
2.060008993007094489e+02 2.931094797860006596e-02
2.070009036662468134e+02 2.660945302368431659e-02
2.080009080317841779e+02 2.848276199426460695e-02
2.090009123973217129e+02 2.345736474770116278e-02
2.100009167628590205e+02 2.408949019665410779e-02
2.110009211283964703e+02 2.239665325039505786e-02
2.120009254939340337e+02 2.434470907123603353e-02
2.130009298594713698e+02 2.152344635202668374e-02
2.140009342250087059e+02 1.833544184855235085e-02
2.150009385905462977e+02 1.769730311902869072e-02
2.160009429560836054e+02 1.711902631777420525e-02
2.170009473216210552e+02 1.578405881241590550e-02
2.180009516871585902e+02 1.525192104799142322e-02
2.190009560526959547e+02 1.458614071765754888e-02
2.200009604182332907e+02 1.433869460462156541e-02
2.210009647837706268e+02 1.401690729184175248e-02
2.220009691493081903e+02 1.363463886433356580e-02
2.230009735148456400e+02 1.347256063049600064e-02
2.240009778803830045e+02 1.319719845688491211e-02
2.250009822459205395e+02 1.296592199120816073e-02
2.260009866114578756e+02 1.271853164634387245e-02
2.270009909769952117e+02 1.239496953086326875e-02
2.280009953425326898e+02 1.221860075143482195e-02
2.290009997080701680e+02 1.208458526008231344e-02
2.300010040736075894e+02 1.195060029115364159e-02
2.310010084391450675e+02 1.175739668852963764e-02
2.320010128046824320e+02 1.161129458359090247e-02
2.330010171702197965e+02 1.148351508242164039e-02
2.340010215357572747e+02 1.131359950826884946e-02
2.350010259012946108e+02 1.125495111865224517e-02
2.360010302668321174e+02 1.115595755503503810e-02
2.370010346323696524e+02 1.106015863143815399e-02
2.380010389979069885e+02 1.097777676991978230e-02
2.390010433634443245e+02 1.085204035895785853e-02
2.400010477289816606e+02 1.076560758361600964e-02
2.410010520945191956e+02 1.070465362547000018e-02
2.420010564600567022e+02 1.063506506483873244e-02
2.430010608255942373e+02 1.058121317367803280e-02
2.440010651911315733e+02 1.052615006753800618e-02
2.450010695566689094e+02 1.047488549035753731e-02
2.460010739222062455e+02 1.043216724026205418e-02
2.470010782877437805e+02 1.039280127693271299e-02
2.480010826532812871e+02 1.035931336119840125e-02
2.490010870188186516e+02 1.032185685262673389e-02
2.500010913843561013e+02 1.029660197949544380e-02
2.510010957498934658e+02 1.027302412112490043e-02
2.520011001154308303e+02 1.024005496557118741e-02
2.530011044809683085e+02 1.021512213910856157e-02
2.540011088465056446e+02 1.019339782209437682e-02
2.550011132120432080e+02 1.017258467567735622e-02
2.560011175775807146e+02 1.015743374144429008e-02
2.570011219431180507e+02 1.014427138790350950e-02
2.580011263086553868e+02 1.013075593276163873e-02
2.590011306741928365e+02 1.012097936561791658e-02
2.600011350397301726e+02 1.011204145108418606e-02
2.610011394052677929e+02 1.010509337589939223e-02
2.620011437708052995e+02 1.009950513399874780e-02
2.630011481363425787e+02 1.009493291847645031e-02
2.640011525018799716e+02 1.009179131147010938e-02
2.650011568674172509e+02 1.008969690679921427e-02
2.660011612329547575e+02 1.008864970446376672e-02
2.670011655984923777e+02 1.008631131404163876e-02
2.680011699640298843e+02 1.008557935678794197e-02
2.690011743295671636e+02 1.008502012595495836e-02
2.700011786951045565e+02 1.008453215445249442e-02
2.710011830606418357e+02 1.008453215445249442e-02
2.720011874261793423e+02 1.008453215445249442e-02
2.730011917917166784e+02 1.008453215445249442e-02
2.740011961572542987e+02 1.008453215445249442e-02
2.750012005227917484e+02 1.008453215445249442e-02
2.760012048883290845e+02 1.008453215445249442e-02
2.770012092538664206e+02 1.008453215445249442e-02
2.780012136194038703e+02 1.008453215445249442e-02
2.790012179849414906e+02 1.008453215445249442e-02
2.800012223504788267e+02 1.008453215445249442e-02
2.810012267160163333e+02 1.008453215445249442e-02
2.820012310815536125e+02 1.008453215445249442e-02
2.830012354470910054e+02 1.008453215445249442e-02
2.840012398126282847e+02 1.008453215445249442e-02
2.850012441781657913e+02 1.008453215445249442e-02
2.860012485437034115e+02 1.008453215445249442e-02
2.870012529092409181e+02 1.008453215445249442e-02
2.880012572747781974e+02 1.008453215445249442e-02
2.890012616403155903e+02 1.008453215445249442e-02
2.900012660058528695e+02 1.008453215445249442e-02
2.910012703713903761e+02 1.008453215445249442e-02
2.920012747369279964e+02 1.008453215445249442e-02
2.930012791024653325e+02 1.008453215445249442e-02
2.940012834680027822e+02 1.008453215445249442e-02
2.950012878335401183e+02 1.008453215445249442e-02
2.960012921990774544e+02 1.008453215445249442e-02
2.970012965646149041e+02 1.008453215445249442e-02
2.980013009301525244e+02 1.008453215445249442e-02
2.990013052956899173e+02 1.008453215445249442e-02
3.000013096612273671e+02 1.008453215445249442e-02
3.010013140267647032e+02 1.008453215445249442e-02
3.020013183923020392e+02 1.008453215445249442e-02
3.030013227578394890e+02 1.008453215445249442e-02
3.040013271233767682e+02 1.008453215445249442e-02
3.050013314889145022e+02 1.008453215445249442e-02
3.060013358544519519e+02 1.008453215445249442e-02
3.070013402199892312e+02 1.008453215445249442e-02
3.080013445855266241e+02 1.008453215445249442e-02
3.090013489510639033e+02 1.008453215445249442e-02
3.100013533166013531e+02 1.008453215445249442e-02
3.110013576821390870e+02 1.008453215445249442e-02
3.120013620476765368e+02 1.008453215445249442e-02
3.130013664132138160e+02 1.008453215445249442e-02
3.140013707787512089e+02 1.008453215445249442e-02
3.150013751442884882e+02 1.008453215445249442e-02
3.160013795098259379e+02 1.008453215445249442e-02
3.170013838753636719e+02 1.008453215445249442e-02
3.180013882409009511e+02 1.008453215445249442e-02
3.190013926064384009e+02 1.008453215445249442e-02
3.200013969719757370e+02 1.008453215445249442e-02
3.210014013375130730e+02 1.008453215445249442e-02
3.220014057030505228e+02 1.008453215445249442e-02
3.230014100685878020e+02 1.008453215445249442e-02
3.240014144341255360e+02 1.008453215445249442e-02
3.250014187996629857e+02 1.008453215445249442e-02
3.260014231652003218e+02 1.008453215445249442e-02
3.270014275307376579e+02 1.008453215445249442e-02
3.280014318962751076e+02 1.008453215445249442e-02
3.290014362618123869e+02 1.008453215445249442e-02
3.300014406273501208e+02 1.008453215445249442e-02
3.310014449928875706e+02 1.008453215445249442e-02
3.320014493584248498e+02 1.008453215445249442e-02
3.330014537239622427e+02 1.008453215445249442e-02
3.340014580894995220e+02 1.008453215445249442e-02
3.350014624550369717e+02 1.008453215445249442e-02
3.360014668205747057e+02 1.008453215445249442e-02
3.370014711861121555e+02 1.008453215445249442e-02
3.380014755516494347e+02 1.008453215445249442e-02
3.390014799171868276e+02 1.008453215445249442e-02
3.400014842827241068e+02 1.008453215445249442e-02
3.410014886482615566e+02 1.008453215445249442e-02
3.420014930137988358e+02 1.008453215445249442e-02
3.430014973793365698e+02 1.008453215445249442e-02
3.440015017448740196e+02 1.008453215445249442e-02
3.450015061104113556e+02 1.008453215445249442e-02
3.460015104759486917e+02 1.008453215445249442e-02
3.470015148414861414e+02 1.008453215445249442e-02
3.480015192070238754e+02 1.008453215445249442e-02
3.490015235725611547e+02 1.008453215445249442e-02
3.500015279380986044e+02 1.008453215445249442e-02
3.510015323036358836e+02 1.008453215445249442e-02
