#####################################################################
# Alchemist log file - simulation started at: 2017-05-26T00:01+0000 #
#####################################################################
# random = 19.0, targets = 10.0, density = 20.0, gridShift = 0.0, perturbation = 0.0, connfactor = 2.0
#
# The columns have the following meaning: 
# time se[Mean] 
0.0 NaN 
1.0025586873541308 NaN 
2.0025586873541306 1.0099645557655954 
3.0025586873541306 1.0198107015332916 
4.002558687354131 1.0346059454421341 
5.002558687354131 1.07331141041798 
6.002558687354131 1.0888307340894765 
7.002558687354131 1.1134449826717079 
8.002558687354131 1.138224703318631 
9.002558687354131 1.1393084436042844 
10.002558687354131 1.1611673624238605 
11.002558687354131 1.1573723351186727 
12.002558687354131 1.195751778775467 
13.002558687354131 1.1493533724532659 
14.002558687354131 1.1990964017538341 
15.002558687354131 1.1410135081915562 
16.00255868735413 1.1698696111636213 
17.00255868735413 1.13645902252678 
18.00255868735413 1.123126017380801 
19.00255868735413 1.11065315847511 
20.00255868735413 1.086625150966183 
21.00255868735413 1.086494696492334 
22.00255868735413 1.056079933312329 
23.00255868735413 1.066532700588112 
24.00255868735413 1.0441581009766847 
25.00255868735413 1.0512961759609332 
26.00255868735413 1.0409800002625507 
27.00255868735413 1.0318101173597984 
28.00255868735413 1.0349341656164668 
29.00255868735413 1.0238859680214238 
30.00255868735413 1.0300999658685146 
31.00255868735413 1.0363366086431425 
32.00255868735413 1.0286298506091152 
33.00255868735413 1.021113966341104 
34.00255868735413 1.0151976016068063 
35.00255868735413 1.015056481043899 
36.00255868735413 1.0164959107855494 
37.00255868735413 1.0113774023314432 
38.00255868735413 1.0143746718126445 
39.00255868735413 1.0006532897500529 
40.00255868735413 1.0038142262654903 
41.00255868735413 0.9905492543583273 
42.00255868735413 0.9890653224112578 
43.00255868735413 0.9792098889413983 
44.00255868735413 0.9756258532871249 
45.00255868735413 0.9668517643352231 
46.00255868735413 0.9551762037912207 
47.00255868735413 0.9448951113211507 
48.00255868735413 0.934893142197017 
49.00255868735413 0.9300369210775045 
50.00255868735413 0.9209506603129598 
51.00255868735413 0.9227304531611009 
52.00255868735413 0.9173263232514175 
53.00255868735413 0.9153696045998738 
54.00255868735413 0.909408836116362 
55.00255868735413 0.9055726541167821 
56.00255868735413 0.9050787649653437 
57.00255868735413 0.8974259609325771 
58.00255868735413 0.8996180555555553 
59.00255868735413 0.8945351882482666 
60.00255868735413 0.8904147631800039 
61.00255868735413 0.8856221775887414 
62.00255868735413 0.8808363854757402 
63.00255868735413 0.876162242701113 
64.00255868735414 0.8722152318315477 
65.00255868735414 0.8648080760344465 
66.00255868735414 0.8634430463663099 
67.00255868735414 0.8548229429216542 
68.00255868735414 0.8535790472064694 
69.00255868735414 0.8424308509241756 
70.00255868735414 0.8405189626654057 
71.00255868735414 0.8361068446754887 
72.00255868735414 0.8258056671392572 
73.00255868735414 0.8276475858538124 
74.00255868735414 0.8186760593887844 
75.00255868735414 0.8213853116467134 
76.00255868735414 0.8107619854022265 
77.00255868735414 0.809122623923546 
78.00255868735414 0.8049691175698374 
79.00255868735414 0.7950732185990343 
80.00255868735414 0.7957125932052087 
81.00255868735414 0.7817139256458718 
82.00255868735414 0.7811957178113836 
83.00255868735414 0.7747407319890786 
84.00255868735414 0.7734375984562056 
85.00255868735414 0.7667753295001044 
86.00255868735414 0.7621389282713714 
87.00255868735414 0.7555948067632849 
88.00255868735414 0.7505175842785126 
89.00255868735414 0.7456652357697967 
90.00255868735414 0.7344808732409156 
91.00255868735414 0.733352532293635 
92.00255868735414 0.735844951165722 
93.00255868735414 0.7416559021214035 
94.00255868735414 0.7849060727788278 
95.00255868735414 0.8252514899705945 
96.00255868735414 0.7844090986662472 
97.00255868735414 0.8680532910628022 
98.00255868735414 0.7939973548099141 
99.00255868735414 0.750006760659525 
100.00255868735414 0.8004378675698388 
101.00255868735414 0.7309607028460406 
102.00255868735414 0.7315398550724642 
103.00255868735414 0.7023580261499681 
104.00255868735414 0.6794485796051254 
105.00255868735414 0.6773195297731572 
106.00255868735414 0.6663679177168663 
107.00255868735414 0.6383407175488347 
108.00255868735414 0.5937587297836584 
109.00255868735414 0.628215645347616 
110.00255868735414 0.5926008847931108 
111.00255868735414 0.5749168701428271 
112.00255868735414 0.5920864839319475 
113.00255868735414 0.5598788004095775 
114.00255868735414 0.5378065598088635 
115.00255868735414 0.5230676328502414 
116.00255868735414 0.49121938011972244 
117.00255868735414 0.4752529339949589 
118.00255868735414 0.47664884609325786 
119.00255868735414 0.4493378491913464 
120.00255868735414 0.42311410417979434 
121.00255868735414 0.4254063287649654 
122.00255868735414 0.4007767538332281 
123.00255868735414 0.3808487581390465 
124.00255868735414 0.3916756261814742 
125.00255868735414 0.3596142157634949 
126.00255868735414 0.3500366257088849 
127.00255868735414 0.3520990863264018 
128.00255868735414 0.3150946492333545 
129.00255868735414 0.33526747269481194 
130.00255868735414 0.32004423965553486 
131.00255868735414 0.2829063287649652 
132.00255868735414 0.28698592732619177 
133.00255868735414 0.2753478129594623 
134.00255868735414 0.2616287938458305 
135.00255868735414 0.2679765280403279 
136.00255868735414 0.24306523708254515 
137.00255868735414 0.2249796852026886 
138.00255868735414 0.21520085066162564 
139.00255868735414 0.19894930818105452 
140.00255868735414 0.18641885239445463 
141.00255868735414 0.184292099873976 
142.00255868735414 0.16153079710144921 
143.00255868735414 0.15926568079185027 
144.00255868735414 0.14755050803402628 
145.00255868735414 0.1449774207099347 
146.00255868735414 0.14052080051459775 
147.00255868735414 0.13690158317580342 
148.00255868735414 0.11528155193236699 
149.00255868735414 0.1213052667506826 
150.00255868735414 0.10782490548204146 
151.00255868735414 0.11079267091997475 
152.00255868735414 0.10863260738290272 
153.00255868735414 0.10263157031085897 
154.00255868735414 0.09633719938038217 
155.00255868735414 0.07734240443184187 
156.00255868735414 0.08491755933627387 
157.00255868735414 0.06723029563116988 
158.00255868735414 0.06503754463348035 
159.00255868735414 0.05812352315689964 
160.00255868735414 0.053689055608065465 
161.00255868735414 0.04822188090737233 
162.00255868735414 0.04733974611426162 
163.00255868735414 0.043632607382902755 
164.00255868735414 0.04242720804452842 
165.00255868735414 0.03667388678848972 
166.00255868735414 0.03669049306868298 
167.00255868735414 0.03089713295526144 
168.00255868735414 0.031071662990968217 
169.00255868735414 0.028971067002730465 
170.00255868735414 0.026866007666456516 
171.00255868735414 0.023023951113211434 
172.00255868735414 0.02157398655744584 
173.00255868735414 0.019865344727998262 
174.00255868735414 0.018710519061121544 
175.00255868735414 0.01755349453896234 
176.00255868735414 0.016173696439823543 
177.00255868735414 0.01363096644612472 
178.00255868735414 0.012784210249947433 
179.00255868735414 0.010929820415878984 
180.00255868735414 0.010232094097878572 
181.00255868735414 0.009323310491493356 
182.00255868735414 0.008545801827347157 
183.00255868735414 0.007800652436462904 
184.00255868735414 0.006288627651753826 
185.00255868735414 0.007045657424910709 
186.00255868735414 0.00535637864944337 
187.00255868735414 0.005006563747111926 
188.00255868735414 0.004385830182734687 
189.00255868735414 0.004058857120352851 
190.00255868735414 0.0035809178743961235 
191.00255868735414 0.003088472747321982 
192.00255868735414 0.0025890700483091537 
193.00255868735414 0.0021590789750052415 
194.00255868735414 0.0017115955156479638 
195.00255868735414 0.001481700273051865 
196.00255868735414 0.001213210197437503 
197.00255868735414 0.0010523655744591367 
198.00255868735414 9.268667296786311E-4 
199.00255868735414 8.11476055450528E-4 
200.00255868735414 7.432459042217958E-4 
201.00255868735414 6.537492123503418E-4 
202.00255868735414 5.711772736819945E-4 
203.00255868735414 5.398025624868694E-4 
204.00255868735414 4.643522894349884E-4 
205.00255868735414 4.372111951270707E-4 
206.00255868735414 4.0334226002940356E-4 
207.00255868735414 3.4420289855072243E-4 
208.00255868735414 2.7236268641041587E-4 
209.00255868735414 2.6087612896450113E-4 
210.00255868735414 1.7889492753623006E-4 
211.00255868735414 1.666863579080008E-4 
212.00255868735414 1.1565322411258042E-4 
213.00255868735414 9.793110691031229E-5 
214.00255868735414 6.803323881537399E-5 
215.00255868735414 2.077425960932537E-5 
216.00255868735414 4.3648918294475785E-5 
217.00255868735414 8.139046418819368E-6 
218.00255868735414 4.2007981516486725E-6 
219.00255868735414 2.756773787019472E-6 
220.00255868735414 7.876496534341417E-7 
221.00255868735414 1.31274942239028E-7 
222.00255868735414 1.262177448353619E-31 
223.00255868735414 1.262177448353619E-31 
224.00255868735414 1.262177448353619E-31 
225.00255868735414 1.262177448353619E-31 
226.00255868735414 1.262177448353619E-31 
227.00255868735414 1.262177448353619E-31 
228.00255868735414 1.262177448353619E-31 
229.00255868735414 1.262177448353619E-31 
230.00255868735414 1.262177448353619E-31 
231.00255868735414 1.262177448353619E-31 
232.00255868735414 1.262177448353619E-31 
233.00255868735414 1.262177448353619E-31 
234.00255868735414 1.262177448353619E-31 
235.00255868735414 1.262177448353619E-31 
236.00255868735414 1.262177448353619E-31 
237.00255868735414 1.262177448353619E-31 
238.00255868735414 1.262177448353619E-31 
239.00255868735414 1.262177448353619E-31 
240.00255868735414 1.262177448353619E-31 
241.00255868735414 1.262177448353619E-31 
242.00255868735414 1.262177448353619E-31 
243.00255868735414 1.262177448353619E-31 
244.00255868735414 1.262177448353619E-31 
245.00255868735414 1.262177448353619E-31 
246.00255868735414 1.262177448353619E-31 
247.00255868735414 1.262177448353619E-31 
248.00255868735414 1.262177448353619E-31 
249.00255868735414 1.262177448353619E-31 
250.00255868735414 1.262177448353619E-31 
251.00255868735414 1.262177448353619E-31 
252.00255868735414 1.262177448353619E-31 
253.00255868735414 1.262177448353619E-31 
254.00255868735414 1.262177448353619E-31 
255.00255868735414 1.262177448353619E-31 
256.00255868735417 1.262177448353619E-31 
257.00255868735417 1.262177448353619E-31 
258.00255868735417 1.262177448353619E-31 
259.00255868735417 1.262177448353619E-31 
260.00255868735417 1.262177448353619E-31 
261.00255868735417 1.262177448353619E-31 
262.00255868735417 1.262177448353619E-31 
263.00255868735417 1.262177448353619E-31 
264.00255868735417 1.262177448353619E-31 
265.00255868735417 1.262177448353619E-31 
266.00255868735417 1.262177448353619E-31 
267.00255868735417 1.262177448353619E-31 
268.00255868735417 1.262177448353619E-31 
269.00255868735417 1.262177448353619E-31 
270.00255868735417 1.262177448353619E-31 
271.00255868735417 1.262177448353619E-31 
272.00255868735417 1.262177448353619E-31 
273.00255868735417 1.262177448353619E-31 
274.00255868735417 1.262177448353619E-31 
275.00255868735417 1.262177448353619E-31 
276.00255868735417 1.262177448353619E-31 
277.00255868735417 1.262177448353619E-31 
278.00255868735417 1.262177448353619E-31 
279.00255868735417 1.262177448353619E-31 
280.00255868735417 1.262177448353619E-31 
281.00255868735417 1.262177448353619E-31 
282.00255868735417 1.262177448353619E-31 
283.00255868735417 1.262177448353619E-31 
284.00255868735417 1.262177448353619E-31 
285.00255868735417 1.262177448353619E-31 
286.00255868735417 1.262177448353619E-31 
287.00255868735417 1.262177448353619E-31 
288.00255868735417 1.262177448353619E-31 
289.00255868735417 1.262177448353619E-31 
290.00255868735417 1.262177448353619E-31 
291.00255868735417 1.262177448353619E-31 
292.00255868735417 1.262177448353619E-31 
293.00255868735417 1.262177448353619E-31 
294.00255868735417 1.262177448353619E-31 
295.00255868735417 1.262177448353619E-31 
296.00255868735417 1.262177448353619E-31 
297.00255868735417 1.262177448353619E-31 
298.00255868735417 1.262177448353619E-31 
299.00255868735417 1.262177448353619E-31 
300.00255868735417 1.262177448353619E-31 
301.00255868735417 1.262177448353619E-31 
302.00255868735417 1.262177448353619E-31 
303.00255868735417 1.262177448353619E-31 
304.00255868735417 1.262177448353619E-31 
305.00255868735417 1.262177448353619E-31 
306.00255868735417 1.262177448353619E-31 
307.00255868735417 1.262177448353619E-31 
308.00255868735417 1.262177448353619E-31 
309.00255868735417 1.262177448353619E-31 
310.00255868735417 1.262177448353619E-31 
311.00255868735417 1.262177448353619E-31 
312.00255868735417 1.262177448353619E-31 
313.00255868735417 1.262177448353619E-31 
314.00255868735417 1.262177448353619E-31 
315.00255868735417 1.262177448353619E-31 
316.00255868735417 1.262177448353619E-31 
317.00255868735417 1.262177448353619E-31 
318.00255868735417 1.262177448353619E-31 
319.00255868735417 1.262177448353619E-31 
320.00255868735417 1.262177448353619E-31 
321.00255868735417 1.262177448353619E-31 
322.00255868735417 1.262177448353619E-31 
323.00255868735417 1.262177448353619E-31 
324.00255868735417 1.262177448353619E-31 
325.00255868735417 1.262177448353619E-31 
326.00255868735417 1.262177448353619E-31 
327.00255868735417 1.262177448353619E-31 
328.00255868735417 1.262177448353619E-31 
#####################################################################
# End of data export. Simulation finished at: 2017-05-26T00:09+0000 #
#####################################################################
