#####################################################################
# Alchemist log file - simulation started at: 2017-05-25T21:47+0000 #
#####################################################################
# random = 19.0, targets = 3.1622776601683795, density = 0.2247883923996312, gridShift = 1.0, perturbation = 0.0, connfactor = 1.0
#
# The columns have the following meaning: 
# time se[Mean] 
0.0 NaN 
1.029399693434633 NaN 
2.029399693434633 0.9930660055710276 
3.029399693434633 0.9930660055710276 
4.029399693434633 0.9767544101044837 
5.029399693434633 0.9702172410723369 
6.029399693434633 0.9791353624854361 
7.029399693434633 1.008458641788627 
8.029399693434634 1.0568712943361396 
9.029399693434634 1.0690893273791358 
10.029399693434634 1.0824978366126083 
11.029399693434634 1.0902254818352313 
12.029399693434634 1.0597117263415643 
13.029399693434634 1.0499372999071672 
14.029399693434634 1.0129559962859815 
15.029399693434634 0.9585352752354226 
16.029399693434634 0.8934351018554849 
17.029399693434634 0.808521525342203 
18.029399693434634 0.7763647807105689 
19.029399693434634 0.6488239158153448 
20.029399693434634 0.6153026656642567 
21.029399693434634 0.4935193440918632 
22.029399693434634 0.42721485289785815 
23.029399693434634 0.3390499480328061 
24.029399693434634 0.261711070904857 
25.029399693434634 0.20426181757037534 
26.029399693434634 0.1826105876695137 
27.029399693434634 0.1548955099845686 
28.029399693434634 0.1430116022455651 
29.029399693434634 0.1321929081069299 
30.029399693434634 0.13242954579836874 
31.029399693434634 0.12676261514148227 
32.029399693434634 0.1312877904815766 
33.029399693434634 0.1350889359326484 
34.029399693434634 0.1350889359326484 
35.029399693434634 0.1350889359326484 
36.029399693434634 0.1350889359326484 
37.029399693434634 0.1350889359326484 
38.029399693434634 0.1350889359326484 
39.029399693434634 0.1350889359326484 
#####################################################################
# End of data export. Simulation finished at: 2017-05-25T21:47+0000 #
#####################################################################
