#####################################################################
# Alchemist log file - simulation started at: 2017-05-24T03:43+0000 #
#####################################################################
# random = 6.0, targets = 10.0, density = 3.5589026259761294, gridShift = 1.0, perturbation = 0.5, connfactor = 1.5
#
# The columns have the following meaning: 
# time se[Mean] 
0.0 NaN 
1.001281360956031 NaN 
2.001281360956031 NaN 
3.001281360956031 1.0397129186602871 
4.001281360956031 1.0508951355661882 
5.001281360956031 1.0635167464114834 
6.001281360956031 1.0242437533227007 
7.001281360956031 1.0378561935140884 
8.001281360956032 1.0344504253056885 
9.001281360956032 1.018468234981393 
10.001281360956032 1.033048245614035 
11.001281360956032 1.048728070175439 
12.001281360956032 1.0363297448165871 
13.001281360956032 1.0563284157363109 
14.001281360956032 1.0606937799043068 
15.001281360956032 1.0747527910685808 
16.001281360956032 1.0966427432216908 
17.001281360956032 1.1179625199362047 
18.001281360956032 1.1075172780435942 
19.001281360956032 1.1403335991493881 
20.001281360956032 1.144778708133971 
21.001281360956032 1.1573026315789472 
22.001281360956032 1.1561948431685276 
23.001281360956032 1.1519178628389153 
24.001281360956032 1.1960453216374274 
25.001281360956032 1.176994284954811 
26.001281360956032 1.1578091772993089 
27.001281360956032 1.1357351475279105 
28.001281360956032 1.130753754651781 
29.001281360956032 1.1218431020733652 
30.001281360956032 1.112885765550239 
31.001281360956032 1.1114262692716645 
32.00128136095603 1.1134622541201489 
33.00128136095603 1.1136450026581608 
34.00128136095603 1.1182876461988305 
35.00128136095603 1.1238262559808618 
36.00128136095603 1.1317645202020206 
37.00128136095603 1.1066844431153646 
38.00128136095603 1.1246394869750131 
39.00128136095603 1.1180612041467313 
40.00128136095603 1.131201654704944 
41.00128136095603 1.131470627325891 
42.00128136095603 1.108815457203615 
43.00128136095603 1.1065732987772463 
44.00128136095603 1.1272946570972886 
45.00128136095603 1.1135695773524725 
46.00128136095603 1.108730229930888 
47.00128136095603 1.1026064925571506 
48.00128136095603 1.08583831738437 
49.00128136095603 1.084551767676768 
50.00128136095603 1.085034057682084 
51.00128136095603 1.0656821504518874 
52.00128136095603 1.056708532695375 
53.00128136095603 1.0496805223285488 
54.00128136095603 1.0358109051036688 
55.00128136095603 1.014477339181287 
56.00128136095603 1.0270099016480598 
57.00128136095603 0.9933451289207872 
58.00128136095603 1.0012852206273262 
59.00128136095603 0.992484715576821 
60.00128136095603 0.968248272195641 
61.00128136095603 0.9668949362041467 
62.00128136095603 0.952079844497608 
63.00128136095603 0.9502857522594368 
64.00128136095603 0.9420516015417333 
65.00128136095603 0.9315925704412548 
66.00128136095603 0.9247531233386499 
67.00128136095603 0.9231824827219565 
68.00128136095603 0.9139707934609251 
69.00128136095603 0.9027498670919727 
70.00128136095603 0.8908401448697503 
71.00128136095603 0.8827673112706009 
72.00128136095603 0.8723994883040938 
73.00128136095603 0.8612877126528444 
74.00128136095603 0.8573165869218503 
75.00128136095603 0.8494698631047316 
76.00128136095603 0.8437534888357259 
77.00128136095603 0.8380831339712921 
78.00128136095603 0.8346705542264755 
79.00128136095603 0.8331776648059545 
80.00128136095603 0.8315787812333867 
81.00128136095603 0.9072635898458272 
82.00128136095603 0.9044819909622548 
83.00128136095603 1.1353056884635837 
84.00128136095603 1.1340543593833072 
85.00128136095603 1.2110599415204681 
86.00128136095603 1.4448925106326458 
87.00128136095603 1.6071255316321125 
88.00128136095603 1.3044142078681569 
89.00128136095603 1.5435865231260004 
90.00128136095603 1.4743819776714524 
91.00128136095603 1.8145936337054784 
92.00128136095603 1.9791806220095736 
93.00128136095603 1.6810717371079242 
94.00128136095603 1.7094469364699645 
95.00128136095603 2.0414948830409383 
96.00128136095603 1.7875716041998972 
97.00128136095603 2.0543251594896375 
98.00128136095603 2.128335825358856 
99.00128136095603 2.166833964646469 
100.00128136095603 1.961713849016484 
101.00128136095603 2.5496763689526896 
102.00128136095603 2.338863802498675 
103.00128136095603 2.293902179691657 
104.00128136095603 2.6638810805422697 
105.00128136095603 2.307574428495485 
106.00128136095603 2.6331266613503512 
107.00128136095603 2.7937782429558795 
108.00128136095603 2.6301900584795366 
109.00128136095603 2.4700779173312117 
110.00128136095603 2.061085194045724 
111.00128136095603 1.9096002791068611 
112.00128136095603 1.8054605263157908 
113.00128136095603 1.6856178561935165 
114.00128136095603 1.5628517078681572 
115.00128136095603 1.8075990164805968 
116.00128136095603 1.483113370547582 
117.00128136095603 1.4597395002658184 
118.00128136095603 1.1956799906964388 
119.00128136095603 1.4100119617224895 
120.00128136095603 1.1657125531632118 
121.00128136095603 1.1560361842105271 
122.00128136095603 1.1398267211589588 
123.00128136095603 1.0847541201488577 
124.00128136095603 1.0549262360446579 
125.00128136095603 1.0545408027644876 
126.00128136095603 1.0274760765550246 
127.00128136095603 1.0470879851143013 
128.00128136095603 1.0247036150983526 
129.00128136095603 1.0185719032429565 
130.00128136095603 1.0225378787878794 
131.00128136095603 1.0121537745879858 
132.00128136095603 1.0131073896863376 
133.00128136095603 1.0111881977671457 
134.00128136095603 1.0105475810738975 
135.00128136095603 1.0065935672514628 
136.00128136095603 1.0085699096225418 
137.00128136095603 1.005800770866561 
138.00128136095603 1.0061430090377466 
139.00128136095603 1.0050790802764493 
140.00128136095603 1.0030894471026057 
141.00128136095603 1.0031539074960134 
142.00128136095603 1.0024867091972363 
143.00128136095603 1.001618155236577 
144.00128136095603 1.0011775651249342 
145.00128136095603 1.00157961190856 
146.00128136095603 1.0016307814992031 
147.00128136095603 1.0000412014885707 
148.00128136095603 1.0005748272195647 
149.00128136095603 1.0006578947368427 
150.00128136095603 1.0000093035619357 
151.00128136095603 1.0002425571504525 
152.00128136095603 1.0001621477937275 
153.00128136095603 1.0000000000000007 
154.00128136095603 1.0000000000000007 
155.00128136095603 1.0000000000000007 
156.00128136095603 1.0000000000000007 
157.00128136095603 1.0000000000000007 
158.00128136095603 1.0000000000000007 
159.00128136095603 1.0000000000000007 
160.00128136095603 1.0000000000000007 
161.00128136095603 1.0000000000000007 
162.00128136095603 1.0000000000000007 
163.00128136095603 1.0000000000000007 
164.00128136095603 1.0000000000000007 
165.00128136095603 1.0000000000000007 
166.00128136095603 1.0000000000000007 
167.00128136095603 1.0000000000000007 
168.00128136095603 1.0000000000000007 
169.00128136095603 1.0000000000000007 
170.00128136095603 1.0000000000000007 
171.00128136095603 1.0000000000000007 
172.00128136095603 1.0000000000000007 
173.00128136095603 1.0000000000000007 
174.00128136095603 1.0000000000000007 
175.00128136095603 1.0000000000000007 
176.00128136095603 1.0000000000000007 
177.00128136095603 1.0000000000000007 
178.00128136095603 1.0000000000000007 
179.00128136095603 1.0000000000000007 
180.00128136095603 1.0000000000000007 
181.00128136095603 1.0000000000000007 
182.00128136095603 1.0000000000000007 
183.00128136095603 1.0000000000000007 
184.00128136095603 1.0000000000000007 
185.00128136095603 1.0000000000000007 
186.00128136095603 1.0000000000000007 
187.00128136095603 1.0000000000000007 
188.00128136095603 1.0000000000000007 
189.00128136095603 1.0000000000000007 
190.00128136095603 1.0000000000000007 
191.00128136095603 1.0000000000000007 
192.00128136095603 1.0000000000000007 
#####################################################################
# End of data export. Simulation finished at: 2017-05-24T03:45+0000 #
#####################################################################
