#####################################################################
# Alchemist log file - simulation started at: 2017-05-24T01:29+0000 #
#####################################################################
# random = 6.0, targets = 3.1622776601683795, density = 10.026386447354522, gridShift = 1.0, perturbation = 0.5, connfactor = 0.5
#
# The columns have the following meaning: 
# time se[Mean] 
0.0 NaN 
1.0010083797655576 NaN 
2.0010083797655573 1.0 
3.0010083797655573 1.0 
4.001008379765557 1.0 
5.001008379765557 1.0 
6.001008379765557 0.9995092575741625 
7.001008379765557 0.9990185151483251 
8.001008379765558 0.9990185151483251 
9.001008379765558 0.9939270287705337 
10.001008379765558 0.9957059363544674 
11.001008379765558 0.9936405600970979 
12.001008379765558 0.991923905479032 
13.001008379765558 0.9937435060067547 
14.001008379765558 0.9857326309076591 
15.001008379765558 0.981073948834936 
16.00100837976556 0.980622550963794 
17.00100837976556 0.9728943690486739 
18.00100837976556 0.9663355095941055 
19.00100837976556 0.9662091159176395 
20.00100837976556 0.9548870104137799 
21.00100837976556 0.9479322658838981 
22.00100837976556 0.9410944834085354 
23.00100837976556 0.9344097660822872 
24.00100837976556 0.9283036440108207 
25.00100837976556 0.9266899335269853 
26.00100837976556 0.9224373665324177 
27.00100837976556 0.9151077611445159 
28.00100837976556 0.9118824958239677 
29.00100837976556 0.9048161792450855 
30.00100837976556 0.8974251317001996 
31.00100837976556 0.8951694925090123 
32.00100837976556 0.8898012387575501 
33.00100837976556 0.8840497694619696 
34.00100837976556 0.8849851713643369 
35.00100837976556 0.8809589810507399 
36.00100837976556 0.8793485049253007 
37.00100837976556 0.8829599486951193 
38.00100837976556 0.8833585252223386 
39.00100837976556 0.8874146284686858 
40.00100837976556 0.8910721551878124 
41.00100837976556 0.898303127735728 
42.00100837976556 0.9028960563572214 
43.00100837976556 0.9091916270027698 
44.00100837976556 0.9171356717147873 
45.00100837976556 0.9227642531455434 
46.00100837976556 0.9312912061820159 
47.00100837976556 0.9361145495500532 
48.00100837976556 0.9456229874382002 
49.00100837976556 0.9529461258847336 
50.00100837976556 0.9587048711551361 
51.00100837976556 0.9631676359369822 
52.00100837976556 0.9695092895318401 
53.00100837976556 0.9735734777864667 
54.00100837976556 0.977277087454902 
55.00100837976556 0.9798690484320158 
56.00100837976556 0.9817479372450273 
57.00100837976556 0.9838952387456129 
58.00100837976556 0.9852373021834784 
59.00100837976556 0.9863109529337709 
60.00100837976556 0.9868477783089171 
61.00100837976556 0.989263492497075 
62.00100837976556 0.9900687305597942 
63.00100837976556 0.9900687305597942 
64.00100837976555 0.9916792066852333 
65.00100837976555 0.9919476193728065 
66.00100837976555 0.9922160320603796 
67.00100837976555 0.9924844447479527 
68.00100837976555 0.9922160320603796 
69.00100837976555 0.9919476193728065 
70.00100837976555 0.9924844447479527 
71.00100837976555 0.9919476193728065 
72.00100837976555 0.9916792066852333 
73.00100837976555 0.9916792066852333 
74.00100837976555 0.9916792066852333 
75.00100837976555 0.991142381310087 
76.00100837976555 0.9914107939976602 
77.00100837976555 0.9908739686225136 
78.00100837976555 0.9906055559349405 
79.00100837976555 0.9906055559349405 
80.00100837976555 0.9903371432473674 
81.00100837976555 0.9895319051846481 
82.00100837976555 0.9898003178722212 
83.00100837976555 0.9895319051846481 
84.00100837976555 0.9889950798095019 
85.00100837976555 0.9889950798095019 
86.00100837976555 0.9889950798095019 
87.00100837976555 0.9881898417467826 
88.00100837976555 0.9879214290592093 
89.00100837976555 0.9879214290592093 
90.00100837976555 0.9873846036840633 
91.00100837976555 0.9876530163716365 
92.00100837976555 0.9871161909964902 
93.00100837976555 0.9871161909964902 
94.00100837976555 0.9871161909964902 
95.00100837976555 0.9871161909964902 
96.00100837976555 0.9868477783089171 
97.00100837976555 0.9868477783089171 
98.00100837976555 0.9865793656213441 
99.00100837976555 0.9863109529337709 
100.00100837976555 0.9871161909964902 
101.00100837976555 0.9860425402461978 
102.00100837976555 0.9863109529337709 
103.00100837976555 0.9865793656213441 
104.00100837976555 0.9857741275586247 
105.00100837976555 0.9857741275586247 
106.00100837976555 0.9863109529337709 
107.00100837976555 0.9860425402461978 
108.00100837976555 0.9852373021834785 
109.00100837976555 0.9857741275586247 
110.00100837976555 0.9860425402461978 
111.00100837976555 0.9863109529337709 
112.00100837976555 0.9863953035019274 
113.00100837976555 0.98539576266439 
114.00100837976555 0.9843145662614552 
115.00100837976555 0.9829673824958886 
116.00100837976555 0.9817072443012387 
117.00100837976555 0.9807742677238135 
118.00100837976555 0.9786706238475963 
119.00100837976555 0.9749494975489351 
120.00100837976555 0.9735893781252066 
121.00100837976555 0.9679254937561812 
122.00100837976555 0.9648659666667935 
123.00100837976555 0.9614127137000685 
124.00100837976555 0.957124040060055 
125.00100837976555 0.952262698750989 
126.00100837976555 0.9472350816305504 
127.00100837976555 0.9398771796013852 
128.00100837976555 0.9354825953711378 
129.00100837976555 0.9289272364019312 
130.00100837976555 0.9214553405496778 
131.00100837976555 0.9121703111110695 
132.00100837976555 0.903443667069685 
133.00100837976555 0.8936770589247938 
134.00100837976555 0.88496200215248 
135.00100837976555 0.8759165511799684 
136.00100837976555 0.8767048314977928 
137.00100837976555 0.9296905769413186 
138.00100837976555 0.9372312317601914 
139.00100837976555 0.9798547787751904 
140.00100837976555 0.9630614647330775 
141.00100837976555 0.9748937649742483 
142.00100837976555 0.9635579201050496 
143.00100837976555 0.9626931453843414 
144.00100837976555 0.9845556459903454 
145.00100837976555 1.0459982992545627 
146.00100837976555 1.02388685780215 
147.00100837976555 1.0190799807598878 
148.00100837976555 1.1419985888545616 
149.00100837976555 2.387432566062019 
150.00100837976555 3.0779718966563214 
151.00100837976555 2.8631092637717876 
152.00100837976555 3.9297763421504195 
153.00100837976555 3.3854305358722208 
154.00100837976555 3.7543103427111717 
155.00100837976555 4.255833384821335 
156.00100837976555 4.419525180153093 
157.00100837976555 6.225727804460372 
158.00100837976555 6.182562877729609 
159.00100837976555 4.747336797264378 
160.00100837976555 5.873991254048245 
161.00100837976555 6.150469900424131 
162.00100837976555 6.959752112542554 
163.00100837976555 6.837413050770273 
164.00100837976555 8.031767632323605 
165.00100837976555 7.780979667844741 
166.00100837976555 8.246000615812122 
167.00100837976555 9.176288871218025 
168.00100837976555 8.798403286228176 
169.00100837976555 8.450733044209255 
170.00100837976555 8.954726209736151 
171.00100837976555 8.721581246265574 
172.00100837976555 8.826517070139973 
173.00100837976555 9.353402353195362 
174.00100837976555 9.497567684835378 
175.00100837976555 12.224296727159414 
176.00100837976555 12.412205275598664 
177.00100837976555 11.675364636556735 
178.00100837976555 10.83511263870754 
179.00100837976555 11.61163142446817 
180.00100837976555 12.544118525346502 
181.00100837976555 12.5849945945779 
182.00100837976555 12.29831502065992 
183.00100837976555 14.50310759608768 
184.00100837976555 13.966127445029146 
185.00100837976555 13.589316277212811 
186.00100837976555 14.443973181617256 
187.00100837976555 16.22621794688682 
188.00100837976555 17.26690519922194 
189.00100837976555 13.350429644983302 
190.00100837976555 14.1627131604137 
191.00100837976555 15.44490805304117 
192.00100837976555 15.03343257365094 
193.00100837976555 17.445898962600083 
194.00100837976555 15.032075349666302 
195.00100837976555 15.557573006160323 
196.00100837976555 15.788010178573264 
197.00100837976555 13.814317386012892 
198.00100837976555 14.522577915305762 
199.00100837976555 11.983705435742024 
200.00100837976555 11.722854066793467 
201.00100837976555 11.215328696614343 
202.00100837976555 8.93593397558272 
203.00100837976555 11.222012817771311 
204.00100837976555 9.381518377787774 
205.00100837976555 10.080107642379158 
206.00100837976555 9.449866926612746 
207.00100837976555 8.638830320960455 
208.00100837976555 8.941488395613376 
209.00100837976555 9.03038376919789 
210.00100837976555 10.2105658177043 
211.00100837976555 8.74556090127014 
212.00100837976555 8.351925461500766 
213.00100837976555 8.428177920979259 
214.00100837976555 8.221911988262404 
215.00100837976555 7.768290529129317 
216.00100837976555 8.377334166925008 
217.00100837976555 7.057660654254162 
218.00100837976555 8.925012094855292 
219.00100837976555 8.754689482252457 
220.00100837976555 8.40358992112644 
221.00100837976555 8.269691435594424 
222.00100837976555 8.109898446959845 
223.00100837976555 9.905620285615484 
224.00100837976555 10.634482034693134 
225.00100837976555 9.609016648990472 
226.00100837976555 10.324004247455193 
227.00100837976555 10.860764762002734 
228.00100837976555 10.385184674642806 
229.00100837976555 11.625472631964024 
230.00100837976555 10.797798623332769 
231.00100837976555 14.400011036328255 
232.00100837976555 11.874862333680253 
233.00100837976555 11.067149475464241 
234.00100837976555 13.177503848096778 
235.00100837976555 12.298386705434732 
236.00100837976555 15.332178782042678 
237.00100837976555 12.486139089111935 
238.00100837976555 11.352458866845774 
239.00100837976555 13.875068089165751 
240.00100837976555 11.419547556031011 
241.00100837976555 12.301350560813853 
242.00100837976555 11.308409965006375 
243.00100837976555 9.262092342732512 
244.00100837976555 10.176282724227454 
245.00100837976555 7.6652871928617285 
246.00100837976555 8.579100857711564 
247.00100837976555 7.229697301227231 
248.00100837976555 5.821550119876153 
249.00100837976555 5.089450396887408 
250.00100837976555 4.224700526427978 
251.00100837976555 4.713590549066342 
252.00100837976555 4.30510718796353 
253.00100837976555 3.838525331326413 
254.00100837976555 3.2236994649849944 
255.00100837976555 2.552716260867061 
256.00100837976555 2.204566008496831 
257.00100837976555 2.3521058347525376 
258.00100837976555 1.9411073122618296 
259.00100837976555 1.6465304897415196 
260.00100837976555 0.8942149305872099 
261.00100837976555 1.050410266304704 
262.00100837976555 0.631011707830731 
263.00100837976555 0.41423262812394884 
264.00100837976555 0.22023066087750942 
265.00100837976555 0.22020883295303306 
266.00100837976555 0.19686255508440412 
267.00100837976555 0.0032454214490010677 
268.00100837976555 0.002950326636221998 
269.00100837976555 0.0029664966527808306 
270.00100837976555 0.0028581607376044938 
271.00100837976555 0.0027959077717369073 
272.00100837976555 0.0027336548058693286 
273.00100837976555 0.0026956568648399855 
274.00100837976555 0.0026956568648399855 
275.00100837976555 0.002633403898972407 
276.00100837976555 0.002633403898972407 
277.00100837976555 0.002633403898972407 
278.00100837976555 0.002633403898972407 
279.00100837976555 0.002633403898972407 
280.00100837976555 0.002633403898972407 
281.00100837976555 0.002633403898972407 
282.00100837976555 0.002633403898972407 
283.00100837976555 0.002633403898972407 
284.00100837976555 0.002633403898972407 
285.00100837976555 0.002633403898972407 
286.00100837976555 0.002633403898972407 
287.00100837976555 0.002633403898972407 
288.00100837976555 0.002633403898972407 
289.00100837976555 0.002633403898972407 
290.00100837976555 0.002633403898972407 
291.00100837976555 0.002633403898972407 
292.00100837976555 0.002633403898972407 
293.00100837976555 0.002633403898972407 
294.00100837976555 0.002633403898972407 
295.00100837976555 0.002633403898972407 
296.00100837976555 0.002633403898972407 
297.00100837976555 0.002633403898972407 
298.00100837976555 0.002633403898972407 
299.00100837976555 0.002633403898972407 
300.00100837976555 0.002633403898972407 
301.00100837976555 0.002633403898972407 
302.00100837976555 0.002633403898972407 
303.00100837976555 0.002633403898972407 
304.00100837976555 0.002633403898972407 
305.00100837976555 0.002633403898972407 
306.00100837976555 0.002633403898972407 
307.00100837976555 0.002633403898972407 
308.00100837976555 0.002633403898972407 
309.00100837976555 0.002633403898972407 
310.00100837976555 0.002633403898972407 
311.00100837976555 0.002633403898972407 
312.00100837976555 0.002633403898972407 
313.00100837976555 0.002633403898972407 
314.00100837976555 0.002633403898972407 
315.00100837976555 0.002633403898972407 
316.00100837976555 0.002633403898972407 
317.00100837976555 0.002633403898972407 
318.00100837976555 0.002633403898972407 
319.00100837976555 0.002633403898972407 
320.00100837976555 0.002633403898972407 
321.00100837976555 0.002633403898972407 
322.00100837976555 0.002633403898972407 
323.00100837976555 0.002633403898972407 
324.00100837976555 0.002633403898972407 
325.00100837976555 0.002633403898972407 
326.00100837976555 0.002633403898972407 
327.00100837976555 0.002633403898972407 
328.00100837976555 0.002633403898972407 
329.00100837976555 0.002633403898972407 
330.00100837976555 0.002633403898972407 
331.00100837976555 0.002633403898972407 
332.00100837976555 0.002633403898972407 
333.00100837976555 0.002633403898972407 
334.00100837976555 0.002633403898972407 
335.00100837976555 0.002633403898972407 
336.00100837976555 0.002633403898972407 
337.00100837976555 0.002633403898972407 
338.00100837976555 0.002633403898972407 
339.00100837976555 0.002633403898972407 
340.00100837976555 0.002633403898972407 
341.00100837976555 0.002633403898972407 
342.00100837976555 0.002633403898972407 
343.00100837976555 0.002633403898972407 
344.00100837976555 0.002633403898972407 
#####################################################################
# End of data export. Simulation finished at: 2017-05-24T01:36+0000 #
#####################################################################
