#####################################################################
# Alchemist log file - simulation started at: 2017-05-24T08:10+0000 #
#####################################################################
# random = 14.0, targets = 10.0, density = 0.1591589639397027, gridShift = 1.0, perturbation = 0.5, connfactor = 1.0
#
# The columns have the following meaning: 
# time se[Mean] 
0.0 NaN 
1.011133799227012 NaN 
2.0111337992270117 1.1045 
3.0111337992270117 1.2597685185185186 
4.011133799227012 1.2628055555555555 
5.011133799227012 1.3440833333333333 
6.011133799227012 1.3720740740740742 
7.011133799227012 1.3027314814814817 
8.01113379922701 1.3065462962962964 
9.01113379922701 1.223 
10.01113379922701 1.2282962962962964 
11.01113379922701 1.095787037037037 
12.01113379922701 1.0209166666666667 
13.01113379922701 0.9694074074074075 
14.01113379922701 0.8716296296296298 
15.01113379922701 0.9213796296296298 
16.01113379922701 0.8792407407407409 
17.01113379922701 0.9098703703703706 
18.01113379922701 1.0949722222222225 
19.01113379922701 1.1130000000000004 
20.01113379922701 1.2006111111111115 
21.01113379922701 1.2780092592592598 
22.01113379922701 1.121444444444445 
23.01113379922701 1.2562407407407412 
24.01113379922701 1.128203703703704 
25.01113379922701 1.040027777777778 
26.01113379922701 1.1094259259259263 
27.01113379922701 1.1786574074074079 
28.01113379922701 1.1950740740740744 
29.01113379922701 1.2211759259259263 
30.01113379922701 1.1980833333333338 
31.01113379922701 1.127416666666667 
32.01113379922701 1.1350000000000002 
33.01113379922701 1.0320000000000003 
34.01113379922701 1.0000000000000002 
35.01113379922701 1.0000000000000002 
36.01113379922701 1.0000000000000002 
37.01113379922701 1.0000000000000002 
38.01113379922701 1.0000000000000002 
39.01113379922701 1.0000000000000002 
40.01113379922701 1.0000000000000002 
41.01113379922701 1.0000000000000002 
#####################################################################
# End of data export. Simulation finished at: 2017-05-24T08:10+0000 #
#####################################################################
