#####################################################################
# Alchemist log file - simulation started at: 2017-05-23T14:27+0000 #
#####################################################################
# random = 5.0, targets = 31.622776601683793, density = 7.099073319511142, gridShift = 1.0, perturbation = 0.5, connfactor = 2.0
#
# The columns have the following meaning: 
# time se[Mean] 
0.0 NaN 
1.0031365367908396 NaN 
2.00313653679084 1.0188626510263625 
3.00313653679084 1.0337959764775662 
4.00313653679084 1.0507884276891128 
5.00313653679084 1.0675471318227914 
6.00313653679084 1.081420298160001 
7.00313653679084 1.0921166788914598 
8.00313653679084 1.09844770506983 
9.00313653679084 1.10677727668448 
10.00313653679084 1.0860321030708424 
11.00313653679084 1.0838725917110184 
12.00313653679084 1.1029357379664892 
13.00313653679084 1.0899887516126536 
14.00313653679084 1.1392052020668395 
15.00313653679084 1.1843246151069104 
16.00313653679084 1.2271346265883623 
17.00313653679084 1.3414603110566385 
18.00313653679084 1.3681322270621297 
19.00313653679084 1.4910115130908121 
20.00313653679084 1.567778641896987 
21.00313653679084 1.6653749325097797 
22.00313653679084 1.7270313636985175 
23.00313653679084 1.7615748610156232 
24.00313653679084 1.77926714744608 
25.00313653679084 1.765353431067682 
26.00313653679084 1.7840065288870908 
27.00313653679084 1.7243985921081548 
28.00313653679084 1.7110380552807052 
29.00313653679084 1.6793279790745932 
30.00313653679084 1.653372391609053 
31.00313653679084 1.6305096139253856 
32.00313653679084 1.613203018400735 
33.00313653679084 1.6033701082174587 
34.00313653679084 1.5453465412795249 
35.00313653679084 1.5308304890129405 
36.00313653679084 1.519140292397377 
37.00313653679084 1.4924590849607242 
38.00313653679084 1.5004495552461004 
39.00313653679084 1.4444025022406284 
40.00313653679084 1.48024175636467 
41.00313653679084 1.4787320347702613 
42.00313653679084 1.4506072921305626 
43.00313653679084 1.4528125878145641 
44.00313653679084 1.4787228598330777 
45.00313653679084 1.4016860019291422 
46.00313653679084 1.4680109020033207 
47.00313653679084 1.4473559293018055 
48.00313653679084 1.4501534171570407 
49.00313653679084 1.5086086987132539 
50.00313653679084 1.5259758206888732 
51.00313653679084 1.515947314090894 
52.00313653679084 1.5513810945644397 
53.00313653679084 1.6387952035314421 
54.00313653679084 1.6262822869948852 
55.00313653679084 1.7040734591304287 
56.00313653679084 1.7962692029371625 
57.00313653679084 1.7986101239879673 
58.00313653679084 1.959299111761457 
59.00313653679084 2.0717476966453754 
60.00313653679084 2.1756925300551586 
61.00313653679084 2.495780509296404 
62.00313653679084 2.9199246566969146 
63.00313653679084 2.6225104338700023 
64.00313653679083 3.2444830616582014 
65.00313653679083 3.6046223299470164 
66.00313653679083 3.499516887800975 
67.00313653679083 3.955449344088797 
68.00313653679083 5.010251312201207 
69.00313653679083 4.971397206956347 
70.00313653679083 5.384372720781287 
71.00313653679083 6.4489104077294535 
72.00313653679083 7.019225763405525 
73.00313653679083 7.120254437156753 
74.00313653679083 7.641050286204884 
75.00313653679083 9.4176308643434 
76.00313653679083 8.782413764293901 
77.00313653679083 9.803768285254337 
78.00313653679083 11.244167945476107 
79.00313653679083 12.165137356939448 
80.00313653679083 12.039489177507791 
81.00313653679083 12.975654206069224 
82.00313653679083 14.378925291506942 
83.00313653679083 11.853180330259084 
84.00313653679083 15.17327977118311 
85.00313653679083 14.488572886009988 
86.00313653679083 14.833733635912086 
87.00313653679083 15.28466608827384 
88.00313653679083 14.618482461174821 
89.00313653679083 14.479156586914245 
90.00313653679083 12.918232168543977 
91.00313653679083 13.298634749821728 
92.00313653679083 12.325652506696345 
93.00313653679083 12.884236605477529 
94.00313653679083 12.368953323055019 
95.00313653679083 12.225871262636552 
96.00313653679083 12.334942116540201 
97.00313653679083 10.68036377894527 
98.00313653679083 10.605433575150288 
99.00313653679083 9.926664483180677 
100.00313653679083 10.121749728703623 
101.00313653679083 9.745907597781997 
102.00313653679083 8.664798099924798 
103.00313653679083 8.96533005102435 
104.00313653679083 5.782098251330941 
105.00313653679083 4.959300591599573 
106.00313653679083 5.464451638844402 
107.00313653679083 4.623562311049071 
108.00313653679083 5.001889099847151 
109.00313653679083 4.638778226947374 
110.00313653679083 4.412121998122153 
111.00313653679083 4.053751197838783 
112.00313653679083 4.09263556329483 
113.00313653679083 4.012291671232701 
114.00313653679083 3.8975870547923677 
115.00313653679083 3.882952155493386 
116.00313653679083 3.8833891051524585 
117.00313653679083 3.8891507596497963 
118.00313653679083 3.871615338533841 
119.00313653679083 3.8726109038041394 
120.00313653679083 3.835398042865549 
121.00313653679083 3.852557711139286 
122.00313653679083 3.832783304539437 
123.00313653679083 3.8261518343449654 
124.00313653679083 3.8322770277065517 
125.00313653679083 3.8080670784651436 
126.00313653679083 3.790224362727376 
127.00313653679083 3.8038004773979175 
128.00313653679083 3.8037764168731925 
129.00313653679083 3.7865458627786412 
130.00313653679083 3.797052561091303 
131.00313653679083 3.7849448813243005 
132.00313653679083 3.7641076618129916 
133.00313653679083 3.7756678083466544 
134.00313653679083 3.71415126899501 
135.00313653679083 3.693284661787426 
136.00313653679083 3.704643889996524 
137.00313653679083 3.69161217581563 
138.00313653679083 3.698210587390995 
139.00313653679083 3.689867616019742 
140.00313653679083 3.6868654073770255 
141.00313653679083 3.678706884482786 
142.00313653679083 3.6793787614877624 
143.00313653679083 3.6789866283044184 
144.00313653679083 3.675385598923024 
145.00313653679083 3.674994177990392 
146.00313653679083 3.6751754213392007 
147.00313653679083 3.675278052866155 
148.00313653679083 3.6751471281298267 
149.00313653679083 3.675121114122732 
150.00313653679083 3.675121114122732 
151.00313653679083 3.6751469856796843 
152.00313653679083 3.675121042897661 
153.00313653679083 3.675121042897661 
154.00313653679083 3.675121042897661 
155.00313653679083 3.675121042897661 
156.00313653679083 3.675121042897661 
157.00313653679083 3.675121042897661 
158.00313653679083 3.675121042897661 
159.00313653679083 3.675121042897661 
160.00313653679083 3.675121042897661 
161.00313653679083 3.675121042897661 
162.00313653679083 3.675121042897661 
163.00313653679083 3.675121042897661 
164.00313653679083 3.675121042897661 
165.00313653679083 3.675121042897661 
166.00313653679083 3.675121042897661 
167.00313653679083 3.675121042897661 
168.00313653679083 3.675121042897661 
169.00313653679083 3.675121042897661 
170.00313653679083 3.675121042897661 
171.00313653679083 3.675121042897661 
172.00313653679083 3.675121042897661 
173.00313653679083 3.675121042897661 
174.00313653679083 3.675121042897661 
175.00313653679083 3.675121042897661 
176.00313653679083 3.675121042897661 
177.00313653679083 3.675121042897661 
178.00313653679083 3.675121042897661 
179.00313653679083 3.675121042897661 
180.00313653679083 3.675121042897661 
181.00313653679083 3.675121042897661 
182.00313653679083 3.675121042897661 
183.00313653679083 3.675121042897661 
184.00313653679083 3.675121042897661 
185.00313653679083 3.675121042897661 
186.00313653679083 3.675121042897661 
187.00313653679083 3.675121042897661 
188.00313653679083 3.675121042897661 
189.00313653679083 3.675121042897661 
190.00313653679083 3.675121042897661 
191.00313653679083 3.675121042897661 
192.00313653679083 3.675121042897661 
193.00313653679083 3.675121042897661 
194.00313653679083 3.675121042897661 
195.00313653679083 3.675121042897661 
196.00313653679083 3.675121042897661 
197.00313653679083 3.675121042897661 
198.00313653679083 3.675121042897661 
199.00313653679083 3.675121042897661 
200.00313653679083 3.675121042897661 
201.00313653679083 3.675121042897661 
202.00313653679083 3.675121042897661 
203.00313653679083 3.675121042897661 
204.00313653679083 3.675121042897661 
205.00313653679083 3.675121042897661 
206.00313653679083 3.675121042897661 
207.00313653679083 3.675121042897661 
208.00313653679083 3.675121042897661 
209.00313653679083 3.675121042897661 
210.00313653679083 3.675121042897661 
#####################################################################
# End of data export. Simulation finished at: 2017-05-23T14:38+0000 #
#####################################################################
