#####################################################################
# Alchemist log file - simulation started at: 2017-05-24T01:50+0000 #
#####################################################################
# random = 13.0, targets = 31.622776601683793, density = 0.05649405772326896, gridShift = 1.0, perturbation = 0.0, connfactor = 1.0
#
# The columns have the following meaning: 
# time se[Mean] 
0.0 NaN 
1.0170171764237625 NaN 
2.0170171764237628 1.035458575139289 
3.0170171764237628 1.0231562500000002 
4.017017176423763 0.8274279281335831 
5.017017176423763 1.1575715631615529 
6.017017176423763 0.9839822515938679 
7.017017176423763 0.5787634597722798 
8.017017176423764 0.6867997291471265 
9.017017176423764 0.35933805868885854 
10.017017176423764 0.1619702920839736 
11.017017176423764 0.10317719866079528 
12.017017176423764 0.04376854732987346 
13.017017176423764 0.024888351036151397 
14.017017176423764 0.015687380872093648 
15.017017176423764 0.01312451030570762 
16.017017176423764 0.01312451030570762 
17.017017176423764 0.01312451030570762 
18.017017176423764 0.01312451030570762 
19.017017176423764 0.01312451030570762 
20.017017176423764 0.01312451030570762 
21.017017176423764 0.01312451030570762 
#####################################################################
# End of data export. Simulation finished at: 2017-05-24T01:50+0000 #
#####################################################################
