#####################################################################
# Alchemist log file - simulation started at: 2017-05-20T19:38+0000 #
#####################################################################
# random = 1.0, targets = 31.622776601683793, density = 10.026386447354522, gridShift = 0.0, perturbation = 0.5, connfactor = 2.0
#
# The columns have the following meaning: 
# time se[Mean] 
0.0 NaN 
1.0010126131829231 NaN 
2.0010126131829233 1.0197886014728264 
3.0010126131829233 1.0328144286443526 
4.001012613182923 1.0452841030772713 
5.001012613182923 1.064254423845041 
6.001012613182923 1.0630380519957117 
7.001012613182923 1.074558110991145 
8.001012613182922 1.0965388651847865 
9.001012613182922 1.1149049320840252 
10.001012613182922 1.1586226316711128 
11.001012613182922 1.1786292065802513 
12.001012613182922 1.240035684524278 
13.001012613182922 1.2865727678777328 
14.001012613182922 1.3327123036540103 
15.001012613182922 1.3689923073260928 
16.001012613182922 1.400243256450816 
17.001012613182922 1.4219979009504042 
18.001012613182922 1.4460566994621042 
19.001012613182922 1.4801517820492212 
20.001012613182922 1.4879195427746807 
21.001012613182922 1.514793287260799 
22.001012613182922 1.5401714334136505 
23.001012613182922 1.5090057679492022 
24.001012613182922 1.556754910908961 
25.001012613182922 1.5395907086356682 
26.001012613182922 1.5368996951269847 
27.001012613182922 1.5410554335298094 
28.001012613182922 1.5125038955117673 
29.001012613182922 1.533220560524409 
30.001012613182922 1.5372051070433133 
31.001012613182922 1.5687822566658205 
32.00101261318292 1.5663834022406993 
33.00101261318292 1.6324181046884179 
34.00101261318292 1.6799455022560126 
35.00101261318292 1.6974194371794051 
36.00101261318292 1.8113684689943266 
37.00101261318292 1.7789124005806065 
38.00101261318292 1.9021869064629244 
39.00101261318292 1.8966585432648402 
40.00101261318292 2.0166971510251717 
41.00101261318292 2.0831063492192223 
42.00101261318292 2.1731807550154487 
43.00101261318292 2.2650046032809397 
44.00101261318292 2.3489792715799696 
45.00101261318292 2.417835521219513 
46.00101261318292 2.4604843078141196 
47.00101261318292 2.4885178624709923 
48.00101261318292 2.495878310809933 
49.00101261318292 2.491244616748673 
50.00101261318292 2.4133957224239704 
51.00101261318292 2.425179449219916 
52.00101261318292 2.4434398783640994 
53.00101261318292 2.5017422164608454 
54.00101261318292 2.506643576706137 
55.00101261318292 2.5498037533845563 
56.00101261318292 2.6759354957153496 
57.00101261318292 2.6199040097628292 
58.00101261318292 2.8536554217883863 
59.00101261318292 3.0542915651309546 
60.00101261318292 3.1440983523261914 
61.00101261318292 3.6350690357444497 
62.00101261318292 3.774757441307556 
63.00101261318292 4.174424947586023 
64.00101261318292 5.008825747330142 
65.00101261318292 5.590100837528582 
66.00101261318292 6.154990217171051 
67.00101261318292 7.817049030809596 
68.00101261318292 8.652035641424755 
69.00101261318292 10.079329638460852 
70.00101261318292 12.366632278173809 
71.00101261318292 11.973333417735143 
72.00101261318292 15.279239149852552 
73.00101261318292 13.858156326157358 
74.00101261318292 17.803878016423706 
75.00101261318292 17.635488348232364 
76.00101261318292 22.393590581252543 
77.00101261318292 22.64444478890424 
78.00101261318292 28.27353634717394 
79.00101261318292 28.88263413476124 
80.00101261318292 33.52097259615975 
81.00101261318292 38.24614128441018 
82.00101261318292 36.55956401075397 
83.00101261318292 43.005905596365345 
84.00101261318292 36.94144119759033 
85.00101261318292 44.68818840329643 
86.00101261318292 44.10527718130955 
87.00101261318292 47.1124412862427 
88.00101261318292 49.677862934603446 
89.00101261318292 51.49489437089992 
90.00101261318292 53.52832716240035 
91.00101261318292 54.22320402633208 
92.00101261318292 58.05030879701517 
93.00101261318292 54.15095288725912 
94.00101261318292 53.749070894957896 
95.00101261318292 49.82460391139358 
96.00101261318292 48.7739363046204 
97.00101261318292 51.144778667897725 
98.00101261318292 47.192165505932024 
99.00101261318292 43.86568653587271 
100.00101261318292 41.25758744982257 
101.00101261318292 42.465482882578605 
102.00101261318292 39.63184690799289 
103.00101261318292 42.54099463767958 
104.00101261318292 35.7479088772239 
105.00101261318292 32.07068245759 
106.00101261318292 39.407563844510406 
107.00101261318292 33.6219001508709 
108.00101261318292 35.501700758651324 
109.00101261318292 33.659519034955096 
110.00101261318292 25.39865856555066 
111.00101261318292 29.09124635861297 
112.00101261318292 23.68790454122248 
113.00101261318292 24.699840115881692 
114.00101261318292 22.3421947957388 
115.00101261318292 22.908018497580443 
116.00101261318292 23.28532986801766 
117.00101261318292 23.615476883165314 
118.00101261318292 24.276782041686502 
119.00101261318292 24.3825583311342 
120.00101261318292 24.273884502010773 
121.00101261318292 24.523600659598266 
122.00101261318292 24.486724046668424 
123.00101261318292 22.79664251240916 
124.00101261318292 23.06999411011832 
125.00101261318292 23.2704245489085 
126.00101261318292 22.333225950870847 
127.00101261318292 22.39961124267359 
128.00101261318292 21.642046196188655 
129.00101261318292 21.904230909165733 
130.00101261318292 20.918796310651263 
131.00101261318292 21.621353127848046 
132.00101261318292 19.177111392878928 
133.00101261318292 18.15531865059509 
134.00101261318292 19.730512298581413 
135.00101261318292 17.877412451910814 
136.00101261318292 17.911345461479993 
137.00101261318292 17.023755411718692 
138.00101261318292 14.796395799990185 
139.00101261318292 15.36868018974121 
140.00101261318292 14.421354929964998 
141.00101261318292 14.10415064608115 
142.00101261318292 13.636282080772064 
143.00101261318292 13.62862865483653 
144.00101261318292 13.62655829162827 
145.00101261318292 13.610932208561165 
146.00101261318292 13.611343064762353 
147.00101261318292 13.606007357914978 
148.00101261318292 13.60425681700124 
149.00101261318292 13.602035338092657 
150.00101261318292 13.60098021073532 
151.00101261318292 13.600800831932236 
152.00101261318292 13.600765007186823 
153.00101261318292 13.600872022286243 
154.00101261318292 13.600872022286243 
155.00101261318292 13.600872022286243 
156.00101261318292 13.600872022286243 
157.00101261318292 13.600872022286243 
158.00101261318292 13.600872022286243 
159.00101261318292 13.600872022286243 
160.00101261318292 13.600872022286243 
161.00101261318292 13.600872022286243 
162.00101261318292 13.600872022286243 
163.00101261318292 13.600872022286243 
164.00101261318292 13.600872022286243 
165.00101261318292 13.600872022286243 
166.00101261318292 13.600872022286243 
167.00101261318292 13.600872022286243 
168.00101261318292 13.600872022286243 
169.00101261318292 13.600872022286243 
170.00101261318292 13.600872022286243 
171.00101261318292 13.600872022286243 
172.00101261318292 13.600872022286243 
173.00101261318292 13.600872022286243 
174.00101261318292 13.600872022286243 
175.00101261318292 13.600872022286243 
176.00101261318292 13.600872022286243 
177.00101261318292 13.600872022286243 
178.00101261318292 13.600872022286243 
179.00101261318292 13.600872022286243 
180.00101261318292 13.600872022286243 
181.00101261318292 13.600872022286243 
182.00101261318292 13.600872022286243 
183.00101261318292 13.600872022286243 
184.00101261318292 13.600872022286243 
185.00101261318292 13.600872022286243 
186.00101261318292 13.600872022286243 
187.00101261318292 13.600872022286243 
188.00101261318292 13.600872022286243 
189.00101261318292 13.600872022286243 
190.00101261318292 13.600872022286243 
191.00101261318292 13.600872022286243 
192.00101261318292 13.600872022286243 
193.00101261318292 13.600872022286243 
194.00101261318292 13.600872022286243 
195.00101261318292 13.600872022286243 
196.00101261318292 13.600872022286243 
197.00101261318292 13.600872022286243 
198.00101261318292 13.600872022286243 
199.00101261318292 13.600872022286243 
200.00101261318292 13.600872022286243 
201.00101261318292 13.600872022286243 
202.00101261318292 13.600872022286243 
203.00101261318292 13.600872022286243 
204.00101261318292 13.600872022286243 
205.00101261318292 13.600872022286243 
206.00101261318292 13.600872022286243 
207.00101261318292 13.600872022286243 
208.00101261318292 13.600872022286243 
209.00101261318292 13.600872022286243 
210.00101261318292 13.600872022286243 
211.00101261318292 13.600872022286243 
212.00101261318292 13.600872022286243 
213.00101261318292 13.600872022286243 
214.00101261318292 13.600872022286243 
215.00101261318292 13.600872022286243 
216.00101261318292 13.600872022286243 
217.00101261318292 13.600872022286243 
218.00101261318292 13.600872022286243 
219.00101261318292 13.600872022286243 
220.00101261318292 13.600872022286243 
221.00101261318292 13.600872022286243 
222.00101261318292 13.600872022286243 
223.00101261318292 13.600872022286243 
224.00101261318292 13.600872022286243 
225.00101261318292 13.600872022286243 
226.00101261318292 13.600872022286243 
227.00101261318292 13.600872022286243 
228.00101261318292 13.600872022286243 
#####################################################################
# End of data export. Simulation finished at: 2017-05-20T19:44+0000 #
#####################################################################
