#####################################################################
# Alchemist log file - simulation started at: 2017-05-19T19:56+0000 #
#####################################################################
# random = 0.0, targets = 3.1622776601683795, density = 0.1591589639397027, gridShift = 0.0, perturbation = 0.5, connfactor = 1.0
#
# The columns have the following meaning: 
# time se[Mean] 
0.0 NaN 
1.0078686373248142 NaN 
2.0078686373248145 1.1894384383287557 
3.0078686373248145 1.3461400629403844 
4.0078686373248145 1.3016620272362538 
5.0078686373248145 1.387587394862405 
6.0078686373248145 1.4436648376603178 
7.0078686373248145 1.2020012896317638 
8.007868637324815 1.2970114728567923 
9.007868637324815 1.307681027001035 
10.007868637324815 1.0212090744661055 
11.007868637324815 1.2712819548871177 
12.007868637324815 1.3181868790096998 
13.007868637324815 1.0596637021355786 
14.007868637324815 1.3947350617642909 
15.007868637324815 1.238830214695221 
16.007868637324815 1.1033215522624926 
17.007868637324815 1.1311811811080597 
18.007868637324815 1.0129824439740072 
19.007868637324815 1.0000000000000002 
20.007868637324815 1.0000000000000002 
21.007868637324815 1.0000000000000002 
22.007868637324815 1.0000000000000002 
23.007868637324815 1.0000000000000002 
24.007868637324815 1.0000000000000002 
25.007868637324815 1.0000000000000002 
#####################################################################
# End of data export. Simulation finished at: 2017-05-19T19:56+0000 #
#####################################################################
