#####################################################################
# Alchemist log file - simulation started at: 2017-05-23T19:57+0000 #
#####################################################################
# random = 12.0, targets = 100.0, density = 3.5589026259761294, gridShift = 0.0, perturbation = 0.5, connfactor = 0.25
#
# The columns have the following meaning: 
# time se[Mean] 
0.0 NaN 
1.0005590746559656 NaN 
2.000559074655966 1.0 
3.000559074655966 0.9998838611111112 
4.000559074655966 0.9988545902777778 
5.000559074655966 0.9972738541666667 
6.000559074655966 0.9937744583333333 
7.000559074655966 0.9896624375 
8.000559074655966 0.9882382291666667 
9.000559074655966 0.9836116319444445 
10.000559074655966 0.9768062430555555 
11.000559074655966 0.9734064930555556 
12.000559074655966 0.9651041666666667 
13.000559074655966 0.9600605625 
14.000559074655966 0.9542622013888888 
15.000559074655966 0.9487646458333333 
16.000559074655968 0.9452761805555555 
17.000559074655968 0.9458783125 
18.000559074655968 0.9426660625 
19.000559074655968 0.9409174375 
20.000559074655968 0.94151925 
21.000559074655968 0.9412205625 
22.000559074655968 0.9389937500000001 
23.000559074655968 0.938453375 
24.000559074655968 0.9318450000000001 
25.000559074655968 0.92918725 
26.000559074655968 0.9175954374999999 
27.000559074655968 0.9154345069444444 
28.000559074655968 0.9049708611111111 
29.000559074655968 0.8837200763888889 
30.000559074655968 0.8731696874999999 
31.000559074655968 0.8549047916666666 
32.00055907465597 0.8328591875000001 
33.00055907465597 0.8102090625000001 
34.00055907465597 0.788335770833333 
35.00055907465597 0.76483025 
36.00055907465597 0.7368650833333332 
37.00055907465597 0.7250218819444445 
38.00055907465597 0.6912861597222218 
39.00055907465597 0.6923163402777776 
40.00055907465597 0.6545601666666667 
41.00055907465597 0.6344612152777779 
42.00055907465597 0.6425465208333333 
43.00055907465597 0.6126704444444444 
44.00055907465597 0.6128122291666667 
45.00055907465597 0.5796924374999999 
46.00055907465597 0.5840368055555555 
47.00055907465597 0.5463065972222222 
48.00055907465597 0.5682218680555555 
49.00055907465597 0.5373194305555555 
50.00055907465597 0.5174657083333333 
51.00055907465597 0.5260244305555556 
52.00055907465597 0.4894965694444445 
53.00055907465597 0.47009078472222215 
54.00055907465597 0.46232131944444443 
55.00055907465597 0.4368770208333332 
56.00055907465597 0.40265652083333325 
57.00055907465597 0.3915753541666667 
58.00055907465597 0.3716932083333334 
59.00055907465597 0.3589955625000001 
60.00055907465597 0.3585519652777777 
61.00055907465597 0.3374813958333333 
62.00055907465597 0.3399675625 
63.00055907465597 0.3486434375 
64.00055907465597 0.3403887638888889 
65.00055907465597 0.34859571527777783 
66.00055907465597 0.3582717013888888 
67.00055907465597 0.3560918402777777 
68.00055907465597 0.36865821527777776 
69.00055907465597 0.38637064583333325 
70.00055907465597 0.3836738472222222 
71.00055907465597 0.392060138888889 
72.00055907465597 0.40646849999999995 
73.00055907465597 0.4031731249999999 
74.00055907465597 0.408970625 
75.00055907465597 0.420673625 
76.00055907465597 0.414472 
77.00055907465597 0.413431125 
78.00055907465597 0.413199 
79.00055907465597 0.41212075 
80.00055907465597 0.41098325 
81.00055907465597 0.4105395 
82.00055907465597 0.409506 
83.00055907465597 0.4066825 
84.00055907465597 0.40921074999999996 
85.00055907465597 0.40880500000000003 
86.00055907465597 0.40984899999999996 
87.00055907465597 0.41276100000000004 
88.00055907465597 0.4138235 
89.00055907465597 0.41397500000000004 
90.00055907465597 0.41800249999999994 
91.00055907465597 0.4219555 
92.00055907465597 0.4217395 
93.00055907465597 0.4225 
94.00055907465597 0.4225 
95.00055907465597 0.4225 
96.00055907465597 0.4225 
97.00055907465597 0.4225 
98.00055907465597 0.4225 
99.00055907465597 0.4225 
100.00055907465597 0.4225 
101.00055907465597 0.4225 
102.00055907465597 0.4225 
103.00055907465597 0.4225 
104.00055907465597 0.4225 
105.00055907465597 0.4225 
106.00055907465597 0.4225 
107.00055907465597 0.4225 
108.00055907465597 0.4225 
109.00055907465597 0.4225 
110.00055907465597 0.4225 
111.00055907465597 0.4225 
112.00055907465597 0.4225 
113.00055907465597 0.4225 
114.00055907465597 0.4225 
115.00055907465597 0.4225 
116.00055907465597 0.4225 
117.00055907465597 0.4225 
118.00055907465597 0.4225 
119.00055907465597 0.4225 
120.00055907465597 0.4225 
121.00055907465597 0.4225 
122.00055907465597 0.4225 
123.00055907465597 0.4225 
124.00055907465597 0.4225 
125.00055907465597 0.4225 
126.00055907465597 0.4225 
127.00055907465597 0.4225 
128.00055907465597 0.4225 
129.00055907465597 0.4225 
130.00055907465597 0.4225 
131.00055907465597 0.4225 
132.00055907465597 0.4225 
133.00055907465597 0.4225 
134.00055907465597 0.4225 
135.00055907465597 0.4225 
136.00055907465597 0.4225 
#####################################################################
# End of data export. Simulation finished at: 2017-05-23T19:57+0000 #
#####################################################################
