#####################################################################
# Alchemist log file - simulation started at: 2017-05-24T08:11+0000 #
#####################################################################
# random = 14.0, targets = 10.0, density = 1.2632455339402642, gridShift = 0.0, perturbation = 0.0, connfactor = 0.1
#
# The columns have the following meaning: 
# time se[Mean] 
0.0 NaN 
1.0090008223538587 NaN 
2.0090008223538587 1.0 
3.0090008223538587 1.0 
4.009000822353858 1.0 
5.009000822353858 1.0 
6.009000822353858 1.0 
7.009000822353858 1.0 
8.009000822353858 1.0 
9.009000822353858 1.0 
10.009000822353858 1.0 
11.009000822353858 1.0 
12.009000822353858 1.0 
13.009000822353858 1.0 
14.009000822353858 1.0 
15.009000822353858 1.0 
16.00900082235386 1.0 
17.00900082235386 1.0 
18.00900082235386 1.0 
19.00900082235386 1.0 
20.00900082235386 1.0 
21.00900082235386 1.0 
22.00900082235386 1.0 
23.00900082235386 1.0 
24.00900082235386 1.0 
#####################################################################
# End of data export. Simulation finished at: 2017-05-24T08:11+0000 #
#####################################################################
