0.000000000000000000e+00 nan
1.000074361905516129e+00 7.705432431856885644e-01
2.000148723811032259e+00 9.742770286763342558e-01
3.000223085716549054e+00 9.811449154592373212e-01
4.000297447622064517e+00 9.488064980037272944e-01
5.000371809527582201e+00 8.692488207303111780e-01
6.000446171433098108e+00 7.543900153990673596e-01
7.000520533338614904e+00 6.338193615962369742e-01
8.000594895244129034e+00 4.945754055317832520e-01
9.000669257149647606e+00 3.931350747349299235e-01
1.000074361905516440e+01 2.775585608044617292e-01
1.100081798096067764e+01 1.947228800632343215e-01
1.200089234286619622e+01 1.200235818395526954e-01
1.300096670477171479e+01 9.677778452506970164e-02
1.400104106667722981e+01 9.497212113564074132e-02
1.500111542858274838e+01 7.901411337738806218e-02
1.600118979048825807e+01 8.380391508689179203e-02
1.700126415239378375e+01 7.940466098337195522e-02
1.800133851429929521e+01 8.002124927195991555e-02
1.900141287620482089e+01 8.002124927195991555e-02
2.000148723811032880e+01 8.002124927195991555e-02
2.100156160001585803e+01 8.002124927195991555e-02
2.200163596192135529e+01 8.002124927195991555e-02
