#####################################################################
# Alchemist log file - simulation started at: 2017-05-24T11:35+0000 #
#####################################################################
# random = 14.0, targets = 100.0, density = 2.519842099789746, gridShift = 0.0, perturbation = 0.0, connfactor = 0.25
#
# The columns have the following meaning: 
# time se[Mean] 
0.0 NaN 
1.0015837731381736 NaN 
2.0015837731381736 1.0 
3.0015837731381736 0.9999081699346405 
4.001583773138174 0.9994502883506343 
5.001583773138174 0.9983061514802 
6.001583773138174 0.9968874279123414 
7.001583773138174 0.9963802864282968 
8.001583773138174 0.992874740484429 
9.001583773138174 0.9926738946559016 
10.001583773138174 0.9885070549788543 
11.001583773138174 0.9852780853517878 
12.001583773138174 0.9820618704344484 
13.001583773138174 0.9755497597078048 
14.001583773138174 0.9718264705882353 
15.001583773138174 0.9669625913110342 
16.001583773138172 0.963813014225298 
17.001583773138172 0.9584491157247212 
18.001583773138172 0.9572965397923876 
19.001583773138172 0.9517329969242599 
20.001583773138172 0.9525039215686275 
21.001583773138172 0.9437012687427913 
22.001583773138172 0.9471142349096501 
23.001583773138172 0.9399329200307573 
24.001583773138172 0.9426182141484045 
25.001583773138172 0.9391795271049597 
26.001583773138172 0.9416244136870434 
27.001583773138172 0.9433135428681276 
28.001583773138172 0.939392474048443 
29.001583773138172 0.940239340638216 
30.001583773138172 0.9318674932718185 
31.001583773138172 0.9315489523260284 
32.00158377313817 0.921622597078047 
33.00158377313817 0.9242027970011535 
34.00158377313817 0.9146081218762016 
35.00158377313817 0.9140903979238755 
36.00158377313817 0.9073815455594003 
37.00158377313817 0.9025589388696655 
38.00158377313817 0.8947419934640523 
39.00158377313817 0.8885024990388313 
40.00158377313817 0.8806023356401385 
41.00158377313817 0.8695396866589774 
42.00158377313817 0.8644061899269513 
43.00158377313817 0.8539821414840447 
44.00158377313817 0.8441077085736256 
45.00158377313817 0.8272148116109189 
46.00158377313817 0.8158768166089965 
47.00158377313817 0.8065486831987697 
48.00158377313817 0.7959557670126874 
49.00158377313817 0.7891014513648598 
50.00158377313817 0.7771557477893118 
51.00158377313817 0.7732186274509804 
52.00158377313817 0.7759273068050749 
53.00158377313817 0.7760887735486351 
54.00158377313817 0.7785553056516724 
55.00158377313817 0.7683053152633603 
56.00158377313817 0.7648753844675125 
57.00158377313817 0.7634074682814302 
58.00158377313817 0.7576345636293733 
59.00158377313817 0.75731792579777 
60.00158377313817 0.739967829680892 
61.00158377313817 0.7353978950403691 
62.00158377313817 0.7340281141868511 
63.00158377313817 0.726106305267205 
64.00158377313818 0.7109552095347943 
65.00158377313818 0.7040732987312571 
66.00158377313818 0.7038355920799693 
67.00158377313818 0.6989492502883506 
68.00158377313818 0.6911824586697425 
69.00158377313818 0.6812305171088043 
70.00158377313818 0.6760608035371011 
71.00158377313818 0.6713875816993464 
72.00158377313818 0.6662927720107651 
73.00158377313818 0.6646689926951173 
74.00158377313818 0.656385342176086 
75.00158377313818 0.6523447712418301 
76.00158377313818 0.6532236063052671 
77.00158377313818 0.6511670703575547 
78.00158377313818 0.6476030565167243 
79.00158377313818 0.6395289215686274 
80.00158377313818 0.6381754805843907 
81.00158377313818 0.6401094098423683 
82.00158377313818 0.6372132641291811 
83.00158377313818 0.6366609669357939 
84.00158377313818 0.6373189446366782 
85.00158377313818 0.6383089965397925 
86.00158377313818 0.6389310553633218 
87.00158377313818 0.6398087370242215 
88.00158377313818 0.64 
89.00158377313818 0.64 
90.00158377313818 0.64 
91.00158377313818 0.64 
92.00158377313818 0.64 
93.00158377313818 0.64 
94.00158377313818 0.64 
95.00158377313818 0.64 
96.00158377313818 0.64 
97.00158377313818 0.64 
98.00158377313818 0.64 
99.00158377313818 0.64 
100.00158377313818 0.64 
101.00158377313818 0.64 
102.00158377313818 0.64 
103.00158377313818 0.64 
104.00158377313818 0.64 
105.00158377313818 0.64 
106.00158377313818 0.64 
107.00158377313818 0.64 
108.00158377313818 0.64 
109.00158377313818 0.64 
110.00158377313818 0.64 
111.00158377313818 0.64 
112.00158377313818 0.64 
113.00158377313818 0.64 
114.00158377313818 0.64 
115.00158377313818 0.64 
116.00158377313818 0.64 
117.00158377313818 0.64 
118.00158377313818 0.64 
119.00158377313818 0.64 
120.00158377313818 0.64 
121.00158377313818 0.64 
122.00158377313818 0.64 
123.00158377313818 0.64 
124.00158377313818 0.64 
#####################################################################
# End of data export. Simulation finished at: 2017-05-24T11:35+0000 #
#####################################################################
