#####################################################################
# Alchemist log file - simulation started at: 2017-05-25T19:48+0000 #
#####################################################################
# random = 8.0, targets = 100.0, density = 0.3174802103936399, gridShift = 0.0, perturbation = 0.5, connfactor = 1.0
#
# The columns have the following meaning: 
# time se[Mean] 
0.0 NaN 
1.041605243232502 NaN 
2.0416052432325023 1.0572392857142856 
3.0416052432325023 1.1007281887755103 
4.041605243232502 1.149731179138322 
5.041605243232502 1.1632480158730159 
6.041605243232502 1.1640933673469387 
7.041605243232502 1.1325134495464853 
8.041605243232503 1.1942432256235829 
9.041605243232503 1.163032001133787 
10.041605243232503 1.2134448270975058 
11.041605243232503 1.3424453231292517 
12.041605243232503 1.2712814625850342 
13.041605243232503 1.4262802721088437 
14.041605243232503 1.6048051303854878 
15.041605243232503 1.610098767006803 
16.041605243232503 1.6309540674603176 
17.041605243232503 2.420573696145125 
18.041605243232503 1.9218026218820865 
19.041605243232503 2.416462117346939 
20.041605243232503 3.3378306547619054 
21.041605243232503 3.2486692602040823 
22.041605243232503 3.2132070011337874 
23.041605243232503 3.7245779903628122 
24.041605243232503 3.610020904195012 
25.041605243232503 3.314496215986395 
26.041605243232503 3.0922816043083903 
27.041605243232503 3.8337693168934246 
28.041605243232503 3.288353599773243 
29.041605243232503 4.076051459750567 
30.041605243232503 5.117067332766441 
31.041605243232503 5.150006250000001 
32.0416052432325 4.885002040816327 
33.0416052432325 5.251419841269842 
34.0416052432325 4.551229237528346 
35.0416052432325 3.836682823129252 
36.0416052432325 3.150132752267574 
37.0416052432325 2.785725722789116 
38.0416052432325 2.754233205782313 
39.0416052432325 2.7314253543083904 
40.0416052432325 2.7165988520408164 
41.0416052432325 2.7171220663265307 
42.0416052432325 2.717035090702948 
43.0416052432325 2.7190318027210885 
44.0416052432325 2.7211557823129255 
45.0416052432325 2.722051927437642 
46.0416052432325 2.7225 
47.0416052432325 2.7225 
48.0416052432325 2.7225 
49.0416052432325 2.7225 
50.0416052432325 2.7225 
51.0416052432325 2.7225 
52.0416052432325 2.7225 
53.0416052432325 2.7225 
54.0416052432325 2.7225 
55.0416052432325 2.7225 
56.0416052432325 2.7225 
57.0416052432325 2.7225 
58.0416052432325 2.7225 
59.0416052432325 2.7225 
#####################################################################
# End of data export. Simulation finished at: 2017-05-25T19:48+0000 #
#####################################################################
