#####################################################################
# Alchemist log file - simulation started at: 2017-05-23T09:53+0000 #
#####################################################################
# random = 11.0, targets = 31.622776601683793, density = 0.2247883923996312, gridShift = 0.0, perturbation = 0.5, connfactor = 1.5
#
# The columns have the following meaning: 
# time se[Mean] 
0.0 NaN 
1.0028758930102715 NaN 
2.0028758930102715 1.397591175889949 
3.0028758930102715 1.6849351301688804 
4.0028758930102715 2.344091917191444 
5.0028758930102715 3.0329955321370603 
6.0028758930102715 3.6186200405831035 
7.0028758930102715 4.462616918058422 
8.002875893010271 4.6209151553362195 
9.002875893010271 4.293840536480628 
10.002875893010271 4.367613838214705 
11.002875893010271 4.057432895997768 
12.002875893010271 3.8044901614590203 
13.002875893010271 3.726594241243395 
14.002875893010271 3.9030341178192747 
15.002875893010271 5.893191768398184 
16.00287589301027 6.656961456335447 
17.00287589301027 6.540324559853432 
18.00287589301027 5.673271625383455 
19.00287589301027 6.101853544872706 
20.00287589301027 5.332952021593776 
21.00287589301027 5.654241386682063 
22.00287589301027 6.449802396699747 
23.00287589301027 4.985868104839441 
24.00287589301027 3.7707924001382893 
25.00287589301027 3.8707016982847424 
26.00287589301027 3.6618658689370607 
27.00287589301027 3.5751864876584594 
28.00287589301027 3.7398719989690603 
29.00287589301027 3.6205300721455558 
30.00287589301027 3.436629936490925 
31.00287589301027 3.436629936490925 
32.00287589301027 3.436629936490925 
33.00287589301027 3.436629936490925 
34.00287589301027 3.436629936490925 
35.00287589301027 3.436629936490925 
36.00287589301027 3.436629936490925 
37.00287589301027 3.436629936490925 
38.00287589301027 3.436629936490925 
39.00287589301027 3.436629936490925 
40.00287589301027 3.436629936490925 
#####################################################################
# End of data export. Simulation finished at: 2017-05-23T09:53+0000 #
#####################################################################
