#####################################################################
# Alchemist log file - simulation started at: 2017-05-24T01:52+0000 #
#####################################################################
# random = 13.0, targets = 31.622776601683793, density = 0.1591589639397027, gridShift = 0.0, perturbation = 0.0, connfactor = 1.0
#
# The columns have the following meaning: 
# time se[Mean] 
0.0 NaN 
1.0093475742791087 NaN 
2.0093475742791087 1.1208470847019945 
3.0093475742791087 1.1436306172591058 
4.009347574279109 1.2277531329942017 
5.009347574279109 1.3117014859153069 
6.009347574279109 1.2309403184538088 
7.009347574279109 1.160100091348861 
8.009347574279108 1.2157126900786794 
9.009347574279108 0.9862881797536156 
10.009347574279108 0.987473262160291 
11.009347574279108 0.7390189967030655 
12.009347574279108 0.6037267880666645 
13.009347574279108 0.5540244502034336 
14.009347574279108 0.38452576935902766 
15.009347574279108 0.34393474953603714 
16.009347574279108 0.3007087670637088 
17.009347574279108 0.2798331462763212 
18.009347574279108 0.25680441449543195 
19.009347574279108 0.24596088193832064 
20.009347574279108 0.24407114874611857 
21.009347574279108 0.24407114874611857 
22.009347574279108 0.24407114874611857 
23.009347574279108 0.24407114874611857 
24.009347574279108 0.24407114874611857 
25.009347574279108 0.24407114874611857 
26.009347574279108 0.24407114874611857 
27.009347574279108 0.24407114874611857 
28.009347574279108 0.24407114874611857 
29.009347574279108 0.24407114874611857 
#####################################################################
# End of data export. Simulation finished at: 2017-05-24T01:52+0000 #
#####################################################################
