#####################################################################
# Alchemist log file - simulation started at: 2017-05-22T21:52+0000 #
#####################################################################
# random = 10.0, targets = 1.0, density = 1.2632455339402642, gridShift = 1.0, perturbation = 0.5, connfactor = 1.5
#
# The columns have the following meaning: 
# time se[Mean] 
0.0 NaN 
1.0036005446229952 NaN 
2.003600544622995 1.044642857142857 
3.003600544622995 1.0881283068783068 
4.003600544622995 1.1478174603174602 
5.003600544622995 1.1855158730158728 
6.003600544622995 1.2789351851851853 
7.003600544622995 1.5291005291005293 
8.003600544622994 1.421461640211641 
9.003600544622994 2.072255291005291 
10.003600544622994 1.81630291005291 
11.003600544622994 1.642526455026455 
12.003600544622994 1.800595238095238 
13.003600544622994 1.6264880952380958 
14.003600544622994 1.4332010582010584 
15.003600544622994 1.2840608465608465 
16.003600544622994 1.1878306878306877 
17.003600544622994 1.325562169312169 
18.003600544622994 1.485780423280423 
19.003600544622994 1.5967261904761911 
20.003600544622994 1.8301917989418004 
21.003600544622994 1.9770171957671976 
22.003600544622994 2.181547619047618 
23.003600544622994 2.161210317460318 
24.003600544622994 2.2084986772486768 
25.003600544622994 2.1370701058201083 
26.003600544622994 2.1785714285714284 
27.003600544622994 2.0892857142857157 
28.003600544622994 2.071428571428573 
29.003600544622994 1.9285714285714277 
30.003600544622994 1.875 
31.003600544622994 1.8414351851851862 
32.003600544623 1.778604497354497 
33.003600544623 1.718584656084656 
34.003600544623 1.6579034391534397 
35.003600544623 1.53505291005291 
36.003600544623 1.517195767195768 
37.003600544623 1.470072751322751 
38.003600544623 1.3986441798941798 
39.003600544623 1.304398148148148 
40.003600544623 1.2979497354497356 
41.003600544623 1.2972883597883598 
42.003600544623 1.2144510582010586 
43.003600544623 1.4786706349206356 
44.003600544623 1.4500661375661381 
45.003600544623 1.5067791005291018 
46.003600544623 1.7301587301587322 
47.003600544623 1.7500000000000018 
48.003600544623 1.6309523809523823 
49.003600544623 1.7996031746031764 
50.003600544623 1.811177248677251 
51.003600544623 1.8458994708994725 
52.003600544623 1.8472222222222252 
53.003600544623 1.9904100529100557 
54.003600544623 1.8149801587301615 
55.003600544623 1.9500661375661403 
56.003600544623 1.9424603174603206 
57.003600544623 1.8273809523809548 
58.003600544623 1.81365740740741 
59.003600544623 1.7900132275132299 
60.003600544623 1.7339616402116427 
61.003600544623 1.694940476190478 
62.003600544623 1.528439153439155 
63.003600544623 1.3931878306878316 
64.003600544623 1.326554232804234 
65.003600544623 1.218584656084657 
66.003600544623 1.1990740740740746 
67.003600544623 1.1190476190476195 
68.003600544623 1.1155753968253974 
69.003600544623 1.0696097883597888 
70.003600544623 1.088789682539683 
71.003600544623 1.027943121693122 
72.003600544623 1.0552248677248681 
73.003600544623 1.0324074074074079 
74.003600544623 1.0416666666666672 
75.003600544623 1.0231481481481486 
76.003600544623 1.0231481481481486 
77.003600544623 1.00462962962963 
78.003600544623 1.0092592592592597 
79.003600544623 1.0000000000000004 
80.003600544623 1.0000000000000004 
81.003600544623 1.0000000000000004 
82.003600544623 1.0000000000000004 
83.003600544623 1.0000000000000004 
84.003600544623 1.0000000000000004 
85.003600544623 1.0000000000000004 
86.003600544623 1.0000000000000004 
87.003600544623 1.0000000000000004 
88.003600544623 1.0000000000000004 
89.003600544623 1.0000000000000004 
90.003600544623 1.0000000000000004 
91.003600544623 1.0000000000000004 
92.003600544623 1.0000000000000004 
93.003600544623 1.0000000000000004 
94.003600544623 1.0000000000000004 
95.003600544623 1.0000000000000004 
96.003600544623 1.0000000000000004 
97.003600544623 1.0000000000000004 
98.003600544623 1.0000000000000004 
99.003600544623 1.0000000000000004 
#####################################################################
# End of data export. Simulation finished at: 2017-05-22T21:52+0000 #
#####################################################################
