0.000000000000000000e+00 nan
0.000000000000000000e+00 7.072739159272013743e-03
0.000000000000000000e+00 1.906361536591599515e-01
4.440892098500626162e-16 1.946711614715913585e-01
0.000000000000000000e+00 1.986370150095609077e-01
0.000000000000000000e+00 2.022849785073502771e-01
8.881784197001252323e-16 2.015670842667247331e-01
8.881784197001252323e-16 2.043852572677987145e-01
0.000000000000000000e+00 2.039810518414754137e-01
0.000000000000000000e+00 2.043555405421242366e-01
0.000000000000000000e+00 2.026736895572978647e-01
0.000000000000000000e+00 2.020329891904893982e-01
1.776356839400250465e-15 1.999104755667454048e-01
1.776356839400250465e-15 2.002962594776375171e-01
1.776356839400250465e-15 1.985370140696622598e-01
3.552713678800500929e-15 1.987338889451731039e-01
0.000000000000000000e+00 1.969316851743783126e-01
7.105427357601001859e-15 1.978276999087954235e-01
0.000000000000000000e+00 1.970350565116216757e-01
1.065814103640150279e-14 1.994624039327344833e-01
0.000000000000000000e+00 1.995255940235586278e-01
1.065814103640150279e-14 2.024673270067332276e-01
0.000000000000000000e+00 2.037750936549418967e-01
1.065814103640150279e-14 2.055128953314519225e-01
3.552713678800500929e-15 2.062649388424797614e-01
7.105427357601001859e-15 2.060781030191041752e-01
3.552713678800500929e-15 2.075838196557630855e-01
0.000000000000000000e+00 2.088662050266804626e-01
3.552713678800500929e-15 2.083503126488388257e-01
1.065814103640150279e-14 2.064765668807237164e-01
7.105427357601001859e-15 2.060279289477141285e-01
3.552713678800500929e-15 2.051389806533749638e-01
0.000000000000000000e+00 2.020166664789982414e-01
1.421085471520200372e-14 1.996803330836486035e-01
1.421085471520200372e-14 1.958778468026470820e-01
7.105427357601001859e-15 1.940138340177282872e-01
0.000000000000000000e+00 1.917625497574554083e-01
1.421085471520200372e-14 1.905360822429109091e-01
2.131628207280300558e-14 1.906031327345656390e-01
7.105427357601001859e-15 1.891905227202834994e-01
0.000000000000000000e+00 1.908207074144462334e-01
1.421085471520200372e-14 1.897009272499862176e-01
2.131628207280300558e-14 1.925391628087739782e-01
7.105427357601001859e-15 1.930620400635578715e-01
0.000000000000000000e+00 1.959473775121915451e-01
1.421085471520200372e-14 1.986497910427379721e-01
2.131628207280300558e-14 2.021736068318140955e-01
1.421085471520200372e-14 2.048334631693151664e-01
7.105427357601001859e-15 2.048587182780638727e-01
7.105427357601001859e-15 2.111935915780534245e-01
1.421085471520200372e-14 2.125678817037617296e-01
1.421085471520200372e-14 2.147852405362441208e-01
7.105427357601001859e-15 2.200062015129232718e-01
7.105427357601001859e-15 2.238117727082692410e-01
0.000000000000000000e+00 2.298916864930732329e-01
2.131628207280300558e-14 2.336007755903356242e-01
7.105427357601001859e-15 2.383216416323289399e-01
7.105427357601001859e-15 2.404035769988591975e-01
2.131628207280300558e-14 2.457933595846623076e-01
0.000000000000000000e+00 2.465322270626031653e-01
1.421085471520200372e-14 2.504562709776178009e-01
1.421085471520200372e-14 2.542788499539184177e-01
7.105427357601001859e-15 2.577222577106921264e-01
2.131628207280300558e-14 2.639485052194706083e-01
0.000000000000000000e+00 2.668626573177513839e-01
0.000000000000000000e+00 2.697440149421824196e-01
2.842170943040400743e-14 2.753684922653741318e-01
1.421085471520200372e-14 2.800606975862102166e-01
2.842170943040400743e-14 2.859753089406538162e-01
2.842170943040400743e-14 2.891467520082682818e-01
1.421085471520200372e-14 2.947494915926683334e-01
2.842170943040400743e-14 2.984909608198617059e-01
0.000000000000000000e+00 3.023835389143000874e-01
0.000000000000000000e+00 3.019967191524798866e-01
2.842170943040400743e-14 3.043604180496719547e-01
1.421085471520200372e-14 3.104026919160770004e-01
4.263256414560601115e-14 3.038853203133766723e-01
4.263256414560601115e-14 2.980540940363125002e-01
1.421085471520200372e-14 2.969291642776709095e-01
2.842170943040400743e-14 2.860848434454792977e-01
0.000000000000000000e+00 2.817636652926169272e-01
0.000000000000000000e+00 2.738081141529097318e-01
2.842170943040400743e-14 2.758241328411593085e-01
1.421085471520200372e-14 2.682734413759441106e-01
4.263256414560601115e-14 2.675369458056178762e-01
4.263256414560601115e-14 2.614690271405273325e-01
1.421085471520200372e-14 2.609284064495338562e-01
2.842170943040400743e-14 2.524555272293441677e-01
0.000000000000000000e+00 2.541309748810325342e-01
0.000000000000000000e+00 2.559782499309145032e-01
2.842170943040400743e-14 2.483718473806705851e-01
1.421085471520200372e-14 2.642644750969843637e-01
4.263256414560601115e-14 2.681861172714966601e-01
4.263256414560601115e-14 2.626220760003698529e-01
2.842170943040400743e-14 2.717906092404336893e-01
2.842170943040400743e-14 2.712882232439836616e-01
1.421085471520200372e-14 2.733620581832100771e-01
0.000000000000000000e+00 2.730184679974240192e-01
1.421085471520200372e-14 2.756569210980038820e-01
4.263256414560601115e-14 2.730355791536963062e-01
2.842170943040400743e-14 2.781613098424767228e-01
5.684341886080801487e-14 2.919726273021138185e-01
2.842170943040400743e-14 2.882186274569377704e-01
1.421085471520200372e-14 2.936702457271642697e-01
1.421085471520200372e-14 2.989860605211403510e-01
1.421085471520200372e-14 2.943815886504365653e-01
1.421085471520200372e-14 2.976275461167297021e-01
1.421085471520200372e-14 2.963619744718949400e-01
0.000000000000000000e+00 3.005817255844875358e-01
5.684341886080801487e-14 2.945680153624709585e-01
4.263256414560601115e-14 3.204078784029753546e-01
4.263256414560601115e-14 3.121258261800132772e-01
1.421085471520200372e-14 3.085962149354185557e-01
0.000000000000000000e+00 3.325982618582888906e-01
1.421085471520200372e-14 3.132946475466206193e-01
4.263256414560601115e-14 3.347931503172177359e-01
4.263256414560601115e-14 3.589930986042355610e-01
7.105427357601001859e-14 3.544763217017273815e-01
0.000000000000000000e+00 4.038063280583891190e-01
0.000000000000000000e+00 3.943700900552679633e-01
2.842170943040400743e-14 4.902265165731997110e-01
5.684341886080801487e-14 5.064200365366291479e-01
2.842170943040400743e-14 4.133928642129917619e-01
0.000000000000000000e+00 5.021945654151221961e-01
1.421085471520200372e-14 4.777374743073132257e-01
7.105427357601001859e-14 3.835970862060766873e-01
4.263256414560601115e-14 4.591503246111728886e-01
4.263256414560601115e-14 3.926552229212990075e-01
0.000000000000000000e+00 3.467214572043330056e-01
0.000000000000000000e+00 3.581340031136904245e-01
0.000000000000000000e+00 3.603119665241538150e-01
2.842170943040400743e-14 3.571294560297855192e-01
5.684341886080801487e-14 5.222344421007394377e-01
8.526512829121202230e-14 5.942865273894957223e-01
2.842170943040400743e-14 5.506856332667796616e-01
2.842170943040400743e-14 6.417994690123917101e-01
5.684341886080801487e-14 6.231549117066966792e-01
5.684341886080801487e-14 5.944453220273668848e-01
5.684341886080801487e-14 5.238402180221566340e-01
2.842170943040400743e-14 4.594164802658786129e-01
2.842170943040400743e-14 3.773993480320307348e-01
8.526512829121202230e-14 3.259828340468344243e-01
5.684341886080801487e-14 3.674415306807639059e-01
2.842170943040400743e-14 2.395067444481260577e-01
0.000000000000000000e+00 2.830102467532767951e-01
0.000000000000000000e+00 3.163866405739418908e-01
0.000000000000000000e+00 2.229995815555608774e-01
2.842170943040400743e-14 2.276401125510458812e-01
5.684341886080801487e-14 2.309635161727930930e-01
8.526512829121202230e-14 2.515000742322830996e-01
2.842170943040400743e-14 1.848233852427377255e-01
5.684341886080801487e-14 2.272039587431271546e-01
8.526512829121202230e-14 2.708314115830823821e-01
5.684341886080801487e-14 1.905143351222979287e-01
8.526512829121202230e-14 1.832652400006201665e-01
5.684341886080801487e-14 1.629801115719313742e-01
2.842170943040400743e-14 1.715171019550679465e-01
8.526512829121202230e-14 1.391349137944258019e-01
5.684341886080801487e-14 1.651677136835218995e-01
2.842170943040400743e-14 1.576526253988566051e-01
0.000000000000000000e+00 1.485854442324211488e-01
0.000000000000000000e+00 1.473469575165371470e-01
0.000000000000000000e+00 1.464469254956786981e-01
2.842170943040400743e-14 1.455121741273888158e-01
5.684341886080801487e-14 1.312739571558167728e-01
8.526512829121202230e-14 1.278220635993155274e-01
2.842170943040400743e-14 1.514043254077884482e-01
5.684341886080801487e-14 1.108276952706699764e-01
8.526512829121202230e-14 1.502190387147779860e-01
1.136868377216160297e-13 1.222851658500014177e-01
8.526512829121202230e-14 1.209525134008739705e-01
5.684341886080801487e-14 1.249498479733473222e-01
2.842170943040400743e-14 1.208320931153776118e-01
8.526512829121202230e-14 1.132607819439694075e-01
5.684341886080801487e-14 1.035803155871915932e-01
2.842170943040400743e-14 1.088402655906565153e-01
0.000000000000000000e+00 1.056152925871887416e-01
0.000000000000000000e+00 1.036458341138118550e-01
0.000000000000000000e+00 1.036085017024868243e-01
2.842170943040400743e-14 1.040795085939673625e-01
5.684341886080801487e-14 1.037685573944477357e-01
8.526512829121202230e-14 1.037990625900076236e-01
2.842170943040400743e-14 1.042010187627579604e-01
5.684341886080801487e-14 1.042079763652229291e-01
8.526512829121202230e-14 1.042576929836380034e-01
1.136868377216160297e-13 1.043022812225663093e-01
8.526512829121202230e-14 1.043173813553485707e-01
5.684341886080801487e-14 1.043185419689730137e-01
5.684341886080801487e-14 1.043536146542555637e-01
8.526512829121202230e-14 1.043531052139710369e-01
5.684341886080801487e-14 1.043656292216932902e-01
2.842170943040400743e-14 1.043907932856771720e-01
2.842170943040400743e-14 1.043878966863720503e-01
0.000000000000000000e+00 1.044097457564102938e-01
0.000000000000000000e+00 1.044174683265172709e-01
0.000000000000000000e+00 1.044245629527169456e-01
2.842170943040400743e-14 1.044310993283650985e-01
5.684341886080801487e-14 1.044370492416062945e-01
8.526512829121202230e-14 1.044421783837653495e-01
5.684341886080801487e-14 1.044460805186324948e-01
5.684341886080801487e-14 1.044484675282809499e-01
8.526512829121202230e-14 1.044512835273417872e-01
1.136868377216160297e-13 1.044517066500223329e-01
8.526512829121202230e-14 1.044517066500223329e-01
5.684341886080801487e-14 1.044517066500223329e-01
2.842170943040400743e-14 1.044517066500223329e-01
2.842170943040400743e-14 1.044517066500223329e-01
0.000000000000000000e+00 1.044517066500223329e-01
2.842170943040400743e-14 1.044517066500223329e-01
5.684341886080801487e-14 1.044517066500223329e-01
2.842170943040400743e-14 1.044517066500223329e-01
5.684341886080801487e-14 1.044517066500223329e-01
2.842170943040400743e-14 1.044517066500223329e-01
0.000000000000000000e+00 1.044517066500223329e-01
2.842170943040400743e-14 1.044517066500223329e-01
2.842170943040400743e-14 1.044517066500223329e-01
0.000000000000000000e+00 1.044517066500223329e-01
2.842170943040400743e-14 1.044517066500223329e-01
1.136868377216160297e-13 1.044517066500223329e-01
1.136868377216160297e-13 1.044517066500223329e-01
8.526512829121202230e-14 1.044517066500223329e-01
5.684341886080801487e-14 1.044517066500223329e-01
8.526512829121202230e-14 1.044517066500223329e-01
5.684341886080801487e-14 1.044517066500223329e-01
2.842170943040400743e-14 1.044517066500223329e-01
0.000000000000000000e+00 1.044517066500223329e-01
0.000000000000000000e+00 1.044517066500223329e-01
0.000000000000000000e+00 1.044517066500223329e-01
2.842170943040400743e-14 1.044517066500223329e-01
5.684341886080801487e-14 1.044517066500223329e-01
8.526512829121202230e-14 1.044517066500223329e-01
5.684341886080801487e-14 1.044517066500223329e-01
8.526512829121202230e-14 1.044517066500223329e-01
1.136868377216160297e-13 1.044517066500223329e-01
1.421085471520200372e-13 1.044517066500223329e-01
2.842170943040400743e-14 1.044517066500223329e-01
0.000000000000000000e+00 1.044517066500223329e-01
2.842170943040400743e-14 1.044517066500223329e-01
0.000000000000000000e+00 1.044517066500223329e-01
2.842170943040400743e-14 1.044517066500223329e-01
5.684341886080801487e-14 1.044517066500223329e-01
8.526512829121202230e-14 1.044517066500223329e-01
1.136868377216160297e-13 1.044517066500223329e-01
8.526512829121202230e-14 1.044517066500223329e-01
5.684341886080801487e-14 1.044517066500223329e-01
2.842170943040400743e-14 1.044517066500223329e-01
0.000000000000000000e+00 1.044517066500223329e-01
2.842170943040400743e-14 1.044517066500223329e-01
2.842170943040400743e-14 1.044517066500223329e-01
0.000000000000000000e+00 1.044517066500223329e-01
1.421085471520200372e-13 1.044517066500223329e-01
1.136868377216160297e-13 1.044517066500223329e-01
8.526512829121202230e-14 1.044517066500223329e-01
5.684341886080801487e-14 1.044517066500223329e-01
8.526512829121202230e-14 1.044517066500223329e-01
5.684341886080801487e-14 1.044517066500223329e-01
0.000000000000000000e+00 1.044517066500223329e-01
0.000000000000000000e+00 1.044517066500223329e-01
0.000000000000000000e+00 1.044517066500223329e-01
0.000000000000000000e+00 1.044517066500223329e-01
0.000000000000000000e+00 1.044517066500223329e-01
0.000000000000000000e+00 1.044517066500223329e-01
5.684341886080801487e-14 1.044517066500223329e-01
5.684341886080801487e-14 1.044517066500223329e-01
1.136868377216160297e-13 1.044517066500223329e-01
1.136868377216160297e-13 1.044517066500223329e-01
1.705302565824240446e-13 1.044517066500223329e-01
1.705302565824240446e-13 1.044517066500223329e-01
5.684341886080801487e-14 1.044517066500223329e-01
5.684341886080801487e-14 1.044517066500223329e-01
5.684341886080801487e-14 1.044517066500223329e-01
5.684341886080801487e-14 1.044517066500223329e-01
1.136868377216160297e-13 1.044517066500223329e-01
1.136868377216160297e-13 1.044517066500223329e-01
1.136868377216160297e-13 1.044517066500223329e-01
1.136868377216160297e-13 1.044517066500223329e-01
1.136868377216160297e-13 1.044517066500223329e-01
