#####################################################################
# Alchemist log file - simulation started at: 2017-05-26T14:00+0000 #
#####################################################################
# random = 9.0, targets = 100.0, density = 7.099073319511142, gridShift = 0.0, perturbation = 0.5, connfactor = 0.75
#
# The columns have the following meaning: 
# time se[Mean] 
0.0 NaN 
1.0015323036356916 NaN 
2.001532303635692 1.000780963010204 
3.001532303635692 1.0014948979591836 
4.001532303635692 1.0019569798752834 
5.001532303635692 1.0020702717545351 
6.001532303635692 1.000097762542517 
7.001532303635692 0.9975184780683106 
8.001532303635692 0.9944739539044785 
9.001532303635692 0.9916964817176871 
10.001532303635692 0.989253194975907 
11.001532303635692 0.9843922167304422 
12.001532303635692 0.981802382723923 
13.001532303635692 0.976874965454932 
14.001532303635692 0.9758208554776077 
15.001532303635692 0.9699071269132653 
16.001532303635692 0.967670561401644 
17.001532303635692 0.9635538796768708 
18.001532303635692 0.9597865194515306 
19.001532303635692 0.9534829223356008 
20.001532303635692 0.9495693585246598 
21.001532303635692 0.9458015155541383 
22.001532303635692 0.9405844237174036 
23.001532303635692 0.9401049567743763 
24.001532303635692 0.9354571251417233 
25.001532303635692 0.9337030647675737 
26.001532303635692 0.9338408535289116 
27.001532303635692 0.9319216216695011 
28.001532303635692 0.9306402024872449 
29.001532303635692 0.9304934293509071 
30.001532303635692 0.9286990389384921 
31.001532303635692 0.9257195835104876 
32.00153230363569 0.9160005022321429 
33.00153230363569 0.9088729653840704 
34.00153230363569 0.908080507723923 
35.00153230363569 0.892925321534864 
36.00153230363569 0.8862457607001134 
37.00153230363569 0.8806521001629818 
38.00153230363569 0.8739258636267009 
39.00153230363569 0.8614489937641725 
40.00153230363569 0.8552104556405896 
41.00153230363569 0.8461664027069161 
42.00153230363569 0.8336635691255669 
43.00153230363569 0.8270937624007937 
44.00153230363569 0.8280014172335601 
45.00153230363569 0.811763466376134 
46.00153230363569 0.8040392281391723 
47.00153230363569 0.8056122971584468 
48.00153230363569 0.792745569373583 
49.00153230363569 0.7763756811578799 
50.00153230363569 0.7797970176091271 
51.00153230363569 0.7777946720875852 
52.00153230363569 0.7702237156320862 
53.00153230363569 0.764521279761905 
54.00153230363569 0.7645282428075397 
55.00153230363569 0.7543999087655896 
56.00153230363569 0.7516238042091837 
57.00153230363569 0.7532618835034013 
58.00153230363569 0.740084019805839 
59.00153230363569 0.7272992293792518 
60.00153230363569 0.7301442752621883 
61.00153230363569 0.7174092687074831 
62.00153230363569 0.7004379171981293 
63.00153230363569 0.6998456003755671 
64.00153230363568 0.6958458253613947 
65.00153230363568 0.6891551100127551 
66.00153230363568 0.6801394354095807 
67.00153230363568 0.6751982107426305 
68.00153230363568 0.6570794191113947 
69.00153230363568 0.6634492010345806 
70.00153230363568 0.6534386860473357 
71.00153230363568 0.6480376186933107 
72.00153230363568 0.6333177056760205 
73.00153230363568 0.6338112324617348 
74.00153230363568 0.6270445037910998 
75.00153230363568 0.6150371014030612 
76.00153230363568 0.60741331756661 
77.00153230363568 0.597462857851474 
78.00153230363568 0.5956955179988663 
79.00153230363568 0.5916971141581634 
80.00153230363568 0.5827707066680841 
81.00153230363568 0.5743355300453515 
82.00153230363568 0.5730770151289682 
83.00153230363568 0.5581409739937643 
84.00153230363568 0.547477384495465 
85.00153230363568 0.538028840702948 
86.00153230363568 0.5230375699759071 
87.00153230363568 0.5279466136975625 
88.00153230363568 0.5193856735402496 
89.00153230363568 0.5064652884070295 
90.00153230363568 0.4975047565901362 
91.00153230363568 0.4964148561507938 
92.00153230363568 0.4818691246811226 
93.00153230363568 0.4716048265660432 
94.00153230363568 0.4628278238378685 
95.00153230363568 0.4630644123795353 
96.00153230363568 0.4490695888251136 
97.00153230363568 0.476572160218254 
98.00153230363568 0.49004979715844676 
99.00153230363568 0.4627466553287983 
100.00153230363568 0.4918330100269275 
101.00153230363568 0.5024794926303856 
102.00153230363568 0.49945835370606584 
103.00153230363568 0.4911905762825965 
104.00153230363568 0.5223617320365647 
105.00153230363568 0.5265556884212017 
106.00153230363568 0.5344208882511339 
107.00153230363568 0.5661548247945012 
108.00153230363568 0.5642083767361113 
109.00153230363568 0.5339816671981293 
110.00153230363568 0.5550247723568597 
111.00153230363568 0.5667680165816325 
112.00153230363568 0.5608602474844105 
113.00153230363568 0.5477384805484696 
114.00153230363568 0.5963127754747733 
115.00153230363568 0.5749169146825399 
116.00153230363568 0.5780677818523243 
117.00153230363568 0.547846456030329 
118.00153230363568 0.5625425497803289 
119.00153230363568 0.5418261142998868 
120.00153230363568 0.5486338089923469 
121.00153230363568 0.5189537237811795 
122.00153230363568 0.533517375283447 
123.00153230363568 0.5025450804280047 
124.00153230363568 0.5298440573625283 
125.00153230363568 0.5085011045564058 
126.00153230363568 0.4803231336805555 
127.00153230363568 0.4667509291737528 
128.00153230363568 0.47943596673044214 
129.00153230363568 0.4560841243268141 
130.00153230363568 0.45624531958616793 
131.00153230363568 0.4525830729166668 
132.00153230363568 0.452725674071712 
133.00153230363568 0.4488918367346939 
134.00153230363568 0.4487088151927438 
135.00153230363568 0.44870799319727894 
136.00153230363568 0.44876448412698416 
137.00153230363568 0.44880958049886627 
138.00153230363568 0.44877531179138325 
139.00153230363568 0.44886035997732426 
140.00153230363568 0.4488432823129252 
141.00153230363568 0.44888300736961456 
142.00153230363568 0.4488772959183674 
143.00153230363568 0.4488943168934241 
144.00153230363568 0.4488943168934241 
145.00153230363568 0.4489 
146.00153230363568 0.4489 
147.00153230363568 0.4489 
148.00153230363568 0.4489 
149.00153230363568 0.4489 
150.00153230363568 0.4489 
151.00153230363568 0.4489 
152.00153230363568 0.4489 
153.00153230363568 0.4489 
154.00153230363568 0.4489 
155.00153230363568 0.4489 
156.00153230363568 0.4489 
157.00153230363568 0.4489 
158.00153230363568 0.4489 
159.00153230363568 0.4489 
160.00153230363568 0.4489 
161.00153230363568 0.4489 
162.00153230363568 0.4489 
163.00153230363568 0.4489 
164.00153230363568 0.4489 
165.00153230363568 0.4489 
166.00153230363568 0.4489 
167.00153230363568 0.4489 
168.00153230363568 0.4489 
169.00153230363568 0.4489 
170.00153230363568 0.4489 
171.00153230363568 0.4489 
172.00153230363568 0.4489 
173.00153230363568 0.4489 
174.00153230363568 0.4489 
175.00153230363568 0.4489 
176.00153230363568 0.4489 
177.00153230363568 0.4489 
178.00153230363568 0.4489 
179.00153230363568 0.4489 
180.00153230363568 0.4489 
181.00153230363568 0.4489 
182.00153230363568 0.4489 
183.00153230363568 0.4489 
184.00153230363568 0.4489 
185.00153230363568 0.4489 
186.00153230363568 0.4489 
187.00153230363568 0.4489 
188.00153230363568 0.4489 
189.00153230363568 0.4489 
190.00153230363568 0.4489 
191.00153230363568 0.4489 
192.00153230363568 0.4489 
193.00153230363568 0.4489 
194.00153230363568 0.4489 
195.00153230363568 0.4489 
196.00153230363568 0.4489 
197.00153230363568 0.4489 
198.00153230363568 0.4489 
199.00153230363568 0.4489 
200.00153230363568 0.4489 
201.00153230363568 0.4489 
202.00153230363568 0.4489 
203.00153230363568 0.4489 
204.00153230363568 0.4489 
205.00153230363568 0.4489 
206.00153230363568 0.4489 
207.00153230363568 0.4489 
208.00153230363568 0.4489 
#####################################################################
# End of data export. Simulation finished at: 2017-05-26T14:08+0000 #
#####################################################################
