#####################################################################
# Alchemist log file - simulation started at: 2017-05-19T22:54+0000 #
#####################################################################
# random = 0.0, targets = 10.0, density = 2.519842099789746, gridShift = 1.0, perturbation = 0.5, connfactor = 2.0
#
# The columns have the following meaning: 
# time se[Mean] 
0.0 NaN 
1.0011337332612453 NaN 
2.0011337332612453 NaN 
3.0011337332612453 1.076182611476608 
4.001133733261245 1.1174751005116959 
5.001133733261245 1.1713322368421053 
6.001133733261245 1.1985117415935673 
7.001133733261245 1.2836954038742687 
8.001133733261245 1.3054525310672516 
9.001133733261245 1.4026548793859652 
10.001133733261245 1.457492233187135 
11.001133733261245 1.3820762518274852 
12.001133733261245 1.5054235197368426 
13.001133733261245 1.3718085252192984 
14.001133733261245 1.4123341557017546 
15.001133733261245 1.3812995705409357 
16.001133733261245 1.368297240497076 
17.001133733261245 1.4942342836257312 
18.001133733261245 1.7659299616228072 
19.001133733261245 1.9242342836257307 
20.001133733261245 1.9310800438596485 
21.001133733261245 2.2795305646929824 
22.001133733261245 2.334959566885964 
23.001133733261245 2.2903410544590646 
24.001133733261245 2.447372532894737 
25.001133733261245 2.3502437408625734 
26.001133733261245 2.3238221856725145 
27.001133733261245 2.3485752467105265 
28.001133733261245 2.1367105263157895 
29.001133733261245 2.1555459612573102 
30.001133733261245 1.9961976882309944 
31.001133733261245 1.9392616959064328 
32.00113373326124 1.8180898209064327 
33.00113373326124 1.822122624269006 
34.00113373326124 1.7688377192982458 
35.00113373326124 1.884598181652047 
36.00113373326124 1.688643320540936 
37.00113373326124 1.62487733004386 
38.00113373326124 1.6408600603070178 
39.00113373326124 1.6372208516081874 
40.00113373326124 1.772594800804094 
41.00113373326124 1.8491497624269009 
42.00113373326124 1.893411229897661 
43.00113373326124 2.0032488121345033 
44.00113373326124 2.1400758406432754 
45.00113373326124 2.2947969206871353 
46.00113373326124 2.369237253289474 
47.00113373326124 2.553225511695907 
48.00113373326124 2.8478602430555555 
49.00113373326124 2.809041255482457 
50.00113373326124 3.540806149488305 
51.00113373326124 3.8302222679093574 
52.00113373326124 3.8783235105994165 
53.00113373326124 4.345635508040937 
54.00113373326124 4.3724527138157905 
55.00113373326124 4.38408877010234 
56.00113373326124 5.1062922605994165 
57.00113373326124 5.192765899122809 
58.00113373326124 5.489471856725148 
59.00113373326124 5.8921920687134515 
60.00113373326124 6.306549707602341 
61.00113373326124 6.00377261513158 
62.00113373326124 7.1647521472953235 
63.00113373326124 6.984060444078949 
64.00113373326124 7.156329267178364 
65.00113373326124 7.5501295230263175 
66.00113373326124 7.1020129751462004 
67.00113373326124 7.037257629751463 
68.00113373326124 7.141174616228072 
69.00113373326124 6.725425118786553 
70.00113373326124 6.3702549342105295 
71.00113373326124 6.4361309850146196 
72.00113373326124 6.338645604897665 
73.00113373326124 5.917200063961989 
74.00113373326124 5.941972770467836 
75.00113373326124 5.491273985745617 
76.00113373326124 5.835347679093567 
77.00113373326124 5.397645513523394 
78.00113373326124 4.789642726608188 
79.00113373326124 4.6937152777777795 
80.00113373326124 4.554079861111112 
81.00113373326124 4.181088267543863 
82.00113373326124 3.650709064327487 
83.00113373326124 3.7265862573099415 
84.00113373326124 3.6184265350877203 
85.00113373326124 3.240000000000001 
86.00113373326124 3.358905336257311 
87.00113373326124 3.299452668128656 
88.00113373326124 3.240000000000001 
89.00113373326124 3.240000000000001 
90.00113373326124 3.240000000000001 
91.00113373326124 3.240000000000001 
92.00113373326124 3.240000000000001 
93.00113373326124 3.240000000000001 
94.00113373326124 3.240000000000001 
95.00113373326124 3.240000000000001 
96.00113373326124 3.240000000000001 
97.00113373326124 3.240000000000001 
98.00113373326124 3.240000000000001 
99.00113373326124 3.240000000000001 
100.00113373326124 3.240000000000001 
101.00113373326124 3.240000000000001 
102.00113373326124 3.240000000000001 
103.00113373326124 3.240000000000001 
104.00113373326124 3.240000000000001 
105.00113373326124 3.240000000000001 
106.00113373326124 3.240000000000001 
107.00113373326124 3.240000000000001 
108.00113373326124 3.240000000000001 
109.00113373326124 3.240000000000001 
110.00113373326124 3.240000000000001 
111.00113373326124 3.240000000000001 
112.00113373326124 3.240000000000001 
113.00113373326124 3.240000000000001 
114.00113373326124 3.240000000000001 
115.00113373326124 3.240000000000001 
116.00113373326124 3.240000000000001 
117.00113373326124 3.240000000000001 
118.00113373326124 3.240000000000001 
119.00113373326124 3.240000000000001 
120.00113373326124 3.240000000000001 
#####################################################################
# End of data export. Simulation finished at: 2017-05-19T22:56+0000 #
#####################################################################
