#####################################################################
# Alchemist log file - simulation started at: 2017-05-24T19:55+0000 #
#####################################################################
# random = 7.0, targets = 10.0, density = 1.2632455339402642, gridShift = 0.0, perturbation = 0.0, connfactor = 0.5
#
# The columns have the following meaning: 
# time se[Mean] 
0.0 NaN 
1.001616958347866 NaN 
2.0016169583478662 1.0 
3.0016169583478662 0.999423076923077 
4.001616958347866 0.9938905325443786 
5.001616958347866 0.9739792899408284 
6.001616958347866 0.9523668639053255 
7.001616958347866 0.9159615384615385 
8.001616958347867 0.8867899408284025 
9.001616958347867 0.8677662721893491 
10.001616958347867 0.8553698224852072 
11.001616958347867 0.8407692307692307 
12.001616958347867 0.835103550295858 
13.001616958347867 0.8197337278106509 
14.001616958347867 0.8186538461538462 
15.001616958347867 0.8111242603550296 
16.001616958347867 0.8036982248520711 
17.001616958347867 0.7947781065088757 
18.001616958347867 0.7785355029585799 
19.001616958347867 0.7536242603550297 
20.001616958347867 0.7339940828402367 
21.001616958347867 0.7050739644970415 
22.001616958347867 0.6741420118343197 
23.001616958347867 0.6540236686390533 
24.001616958347867 0.6313313609467455 
25.001616958347867 0.599689349112426 
26.001616958347867 0.570103550295858 
27.001616958347867 0.5301331360946747 
28.001616958347867 0.49418639053254426 
29.001616958347867 0.462855029585799 
30.001616958347867 0.4225443786982248 
31.001616958347867 0.3790384615384616 
32.00161695834787 0.3369970414201184 
33.00161695834787 0.30843195266272194 
34.00161695834787 0.27747041420118346 
35.00161695834787 0.24784023668639052 
36.00161695834787 0.23131656804733733 
37.00161695834787 0.2568786982248521 
38.00161695834787 0.24568047337278107 
39.00161695834787 0.2268491124260355 
40.00161695834787 0.234896449704142 
41.00161695834787 0.20476331360946745 
42.00161695834787 0.16178994082840237 
43.00161695834787 0.23562130177514787 
44.00161695834787 0.4835650887573965 
45.00161695834787 0.5555621301775153 
46.00161695834787 0.5444230769230771 
47.00161695834787 0.6790976331360952 
48.00161695834787 0.5871449704142017 
49.00161695834787 0.44541420118343195 
50.00161695834787 0.5192899408284019 
51.00161695834787 0.2501923076923076 
52.00161695834787 0.3260502958579883 
53.00161695834787 0.32400887573964504 
54.00161695834787 0.24165680473372794 
55.00161695834787 0.1643195266272189 
56.00161695834787 0.24005917159763326 
57.00161695834787 0.23988165680473378 
58.00161695834787 0.01 
59.00161695834787 0.01 
60.00161695834787 0.01 
61.00161695834787 0.01 
62.00161695834787 0.01 
63.00161695834787 0.01 
64.00161695834787 0.01 
65.00161695834787 0.01 
66.00161695834787 0.01 
67.00161695834787 0.01 
68.00161695834787 0.01 
69.00161695834787 0.01 
70.00161695834787 0.01 
71.00161695834787 0.01 
72.00161695834787 0.01 
73.00161695834787 0.01 
74.00161695834787 0.01 
75.00161695834787 0.01 
76.00161695834787 0.01 
77.00161695834787 0.01 
78.00161695834787 0.01 
79.00161695834787 0.01 
80.00161695834787 0.01 
81.00161695834787 0.01 
#####################################################################
# End of data export. Simulation finished at: 2017-05-24T19:56+0000 #
#####################################################################
