0.000000000000000000e+00 nan
2.220446049250313081e-16 2.091522886998034569e-02
4.440892098500626162e-16 1.566619088872530097e-01
0.000000000000000000e+00 1.667685207227302402e-01
8.881784197001252323e-16 1.760338981054971330e-01
1.776356839400250465e-15 2.143894455245075048e-01
0.000000000000000000e+00 2.152617195331759659e-01
1.776356839400250465e-15 2.832049692477879854e-01
1.776356839400250465e-15 2.449089501306017103e-01
3.552713678800500929e-15 2.539303748092677782e-01
3.552713678800500929e-15 2.533115001140281430e-01
3.552713678800500929e-15 2.360456127127762149e-01
0.000000000000000000e+00 3.198868664199613354e-01
1.776356839400250465e-15 3.482307313658739023e-01
3.552713678800500929e-15 4.553173344800114375e-01
1.776356839400250465e-15 4.916929898923300124e-01
3.552713678800500929e-15 7.629045962966320982e-01
3.552713678800500929e-15 5.426072043966438940e-01
7.105427357601001859e-15 8.351000438724167640e-01
0.000000000000000000e+00 6.242934219880245106e-01
7.105427357601001859e-15 7.823062642556042334e-01
1.065814103640150279e-14 8.681497794167231108e-01
7.105427357601001859e-15 5.023770562387136485e-01
7.105427357601001859e-15 7.293817622299975101e-01
0.000000000000000000e+00 5.295108270256677629e-01
1.065814103640150279e-14 7.531714837740512980e-01
3.552713678800500929e-15 6.078328840575778491e-01
3.552713678800500929e-15 3.084495282485184009e-01
7.105427357601001859e-15 3.108619793854580649e-01
3.552713678800500929e-15 2.897188631598073827e-01
3.552713678800500929e-15 2.901766800929849177e-01
1.065814103640150279e-14 2.904424085969686820e-01
7.105427357601001859e-15 2.904424085969686820e-01
7.105427357601001859e-15 2.904424085969686820e-01
7.105427357601001859e-15 2.904424085969686820e-01
7.105427357601001859e-15 2.904424085969686820e-01
1.421085471520200372e-14 2.904424085969686820e-01
