#####################################################################
# Alchemist log file - simulation started at: 2017-05-23T19:43+0000 #
#####################################################################
# random = 12.0, targets = 100.0, density = 0.04, gridShift = 1.0, perturbation = 0.0, connfactor = 0.75
#
# The columns have the following meaning: 
# time se[Mean] 
0.0 NaN 
1.0005590746559656 NaN 
2.000559074655966 0.9984124999999999 
3.000559074655966 0.9900731481481482 
4.000559074655966 0.9837231481481481 
5.000559074655966 1.004054861111111 
6.000559074655966 0.8953581018518519 
7.000559074655966 0.8101962962962963 
8.000559074655966 0.6181164351851853 
9.000559074655966 0.4875680555555556 
10.000559074655966 0.2579641203703704 
11.000559074655966 0.14977500000000007 
12.000559074655966 0.05963379629629637 
13.000559074655966 0.05151111111111118 
14.000559074655966 0.05047407407407414 
15.000559074655966 0.04840000000000006 
16.000559074655968 0.04840000000000006 
17.000559074655968 0.04840000000000006 
18.000559074655968 0.04840000000000006 
19.000559074655968 0.04840000000000006 
20.000559074655968 0.04840000000000006 
#####################################################################
# End of data export. Simulation finished at: 2017-05-23T19:43+0000 #
#####################################################################
