#####################################################################
# Alchemist log file - simulation started at: 2017-05-26T03:02+0000 #
#####################################################################
# random = 9.0, targets = 3.1622776601683795, density = 0.11269076455391362, gridShift = 0.0, perturbation = 0.5, connfactor = 1.0
#
# The columns have the following meaning: 
# time se[Mean] 
0.0 NaN 
1.034185494435238 NaN 
2.034185494435238 NaN 
3.034185494435238 0.9958947408975533 
4.034185494435238 0.9718245938470929 
5.034185494435238 0.955403557437306 
6.034185494435238 0.8867369678241515 
7.034185494435238 0.738772233983162 
8.034185494435238 0.9184562255152854 
9.034185494435238 0.7587371219311758 
10.034185494435238 0.8585615616712443 
11.034185494435238 0.9108071148746119 
12.034185494435238 0.9272281512843987 
13.034185494435238 0.9437544467966325 
14.034185494435238 0.9537896359021308 
15.034185494435238 0.9330528221850037 
16.03418549443524 0.8657195659051825 
17.03418549443524 0.7469131445121802 
18.03418549443524 0.6446678995228612 
19.03418549443524 0.4969483336176787 
20.03418549443524 0.3964928015840028 
21.03418549443524 0.3583524304295697 
22.03418549443524 0.36038761953506815 
23.03418549443524 0.23610664606566578 
24.03418549443524 0.2757911769723741 
25.03418549443524 0.19431701016353498 
26.03418549443524 0.16042234631949387 
27.03418549443524 0.16042234631949384 
28.03418549443524 0.14073804657332192 
29.03418549443524 0.1350889359326484 
30.03418549443524 0.1350889359326484 
31.03418549443524 0.1350889359326484 
32.034185494435235 0.1350889359326484 
33.034185494435235 0.1350889359326484 
#####################################################################
# End of data export. Simulation finished at: 2017-05-26T03:02+0000 #
#####################################################################
