#####################################################################
# Alchemist log file - simulation started at: 2017-05-21T11:59+0000 #
#####################################################################
# random = 2.0, targets = 31.622776601683793, density = 7.099073319511142, gridShift = 0.0, perturbation = 0.0, connfactor = 0.75
#
# The columns have the following meaning: 
# time se[Mean] 
0.0 NaN 
1.0021051854459069 NaN 
2.002105185445907 1.0020835607228136 
3.002105185445907 1.0044301243178346 
4.002105185445907 1.007878973398924 
5.002105185445907 1.0099967459054227 
6.002105185445907 1.008741633049653 
7.002105185445907 1.0054366345928967 
8.002105185445906 1.0008029986175067 
9.002105185445906 0.9966126924143643 
10.002105185445906 0.9892605673104574 
11.002105185445906 0.9840953433428645 
12.002105185445906 0.9775586759768952 
13.002105185445906 0.9716139908315138 
14.002105185445906 0.9689916064358068 
15.002105185445906 0.9615944820487673 
16.002105185445906 0.959390139732146 
17.002105185445906 0.9501970722474279 
18.002105185445906 0.9482036341175675 
19.002105185445906 0.9395833349589031 
20.002105185445906 0.9374079316025062 
21.002105185445906 0.9309418625653064 
22.002105185445906 0.9232582633392943 
23.002105185445906 0.9176185049749292 
24.002105185445906 0.9104147779319387 
25.002105185445906 0.9055037144976678 
26.002105185445906 0.8996634052953586 
27.002105185445906 0.89761372613481 
28.002105185445906 0.8874640329162484 
29.002105185445906 0.8857521326952541 
30.002105185445906 0.8774702620477761 
31.002105185445906 0.8709661676850866 
32.002105185445906 0.8659736539512228 
33.002105185445906 0.8599749814334711 
34.002105185445906 0.8538428307923576 
35.002105185445906 0.8500337618348637 
36.002105185445906 0.8409809364738798 
37.002105185445906 0.831041662999908 
38.002105185445906 0.8210787063546178 
39.002105185445906 0.815081051178357 
40.002105185445906 0.8035897504282838 
41.002105185445906 0.7884654683405286 
42.002105185445906 0.7827115253251191 
43.002105185445906 0.7641406781981073 
44.002105185445906 0.749399674127323 
45.002105185445906 0.7307219896342563 
46.002105185445906 0.7163213954426181 
47.002105185445906 0.6987592431072523 
48.002105185445906 0.6770067659830085 
49.002105185445906 0.6618694753905509 
50.002105185445906 0.6374904690288551 
51.002105185445906 0.6118825430128527 
52.002105185445906 0.5908031532516632 
53.002105185445906 0.5714588781153778 
54.002105185445906 0.5425546835049518 
55.002105185445906 0.5208961418721044 
56.002105185445906 0.5011393762565488 
57.002105185445906 0.4819885870149115 
58.002105185445906 0.4576042199897771 
59.002105185445906 0.43692838425120045 
60.002105185445906 0.4164495918811488 
61.002105185445906 0.39454466373609554 
62.002105185445906 0.3794459307813413 
63.002105185445906 0.37386959694942695 
64.00210518544591 0.34552903949266883 
65.00210518544591 0.33189838819496803 
66.00210518544591 0.325276909933491 
67.00210518544591 0.3151533999620704 
68.00210518544591 0.28922611684499505 
69.00210518544591 0.27133497706588017 
70.00210518544591 0.2617473323750495 
71.00210518544591 0.23266690327517975 
72.00210518544591 0.23070002310028825 
73.00210518544591 0.21387970729165978 
74.00210518544591 0.20277175144562024 
75.00210518544591 0.201064728614298 
76.00210518544591 0.19509645138995052 
77.00210518544591 0.18228203942818216 
78.00210518544591 0.18298433849572843 
79.00210518544591 0.17323672578590726 
80.00210518544591 0.16957922575803164 
81.00210518544591 0.16821036278462617 
82.00210518544591 0.16389290800590287 
83.00210518544591 0.16428905369328797 
84.00210518544591 0.15887640086620552 
85.00210518544591 0.16208628330363872 
86.00210518544591 0.160186723343845 
87.00210518544591 0.15645260014100767 
88.00210518544591 0.15866895154446292 
89.00210518544591 0.1565113493318829 
90.00210518544591 0.15772047498246972 
91.00210518544591 0.15825813507210737 
92.00210518544591 0.15863363342965647 
93.00210518544591 0.15886775377777504 
94.00210518544591 0.15912086221963162 
95.00210518544591 0.15927093755471472 
96.00210518544591 0.15932389720579898 
97.00210518544591 0.15933448913601583 
98.00210518544591 0.15933448913601583 
99.00210518544591 0.15933448913601583 
100.00210518544591 0.15933448913601583 
101.00210518544591 0.15933448913601583 
102.00210518544591 0.15933448913601583 
103.00210518544591 0.15933448913601583 
104.00210518544591 0.15933448913601583 
105.00210518544591 0.15933448913601583 
106.00210518544591 0.15933448913601583 
107.00210518544591 0.15933448913601583 
108.00210518544591 0.15933448913601583 
109.00210518544591 0.15933448913601583 
110.00210518544591 0.15933448913601583 
111.00210518544591 0.15933448913601583 
112.00210518544591 0.15933448913601583 
113.00210518544591 0.15933448913601583 
114.00210518544591 0.15933448913601583 
115.00210518544591 0.15933448913601583 
116.00210518544591 0.15933448913601583 
117.00210518544591 0.15933448913601583 
118.00210518544591 0.15933448913601583 
119.00210518544591 0.15933448913601583 
120.00210518544591 0.15933448913601583 
121.00210518544591 0.15933448913601583 
122.00210518544591 0.15933448913601583 
123.00210518544591 0.15933448913601583 
124.00210518544591 0.15933448913601583 
125.00210518544591 0.15933448913601583 
126.00210518544591 0.15933448913601583 
127.00210518544591 0.15933448913601583 
128.0021051854459 0.15933448913601583 
129.0021051854459 0.15933448913601583 
130.0021051854459 0.15933448913601583 
131.0021051854459 0.15933448913601583 
132.0021051854459 0.15933448913601583 
133.0021051854459 0.15933448913601583 
134.0021051854459 0.15933448913601583 
135.0021051854459 0.15933448913601583 
136.0021051854459 0.15933448913601583 
137.0021051854459 0.15933448913601583 
138.0021051854459 0.15933448913601583 
139.0021051854459 0.15933448913601583 
140.0021051854459 0.15933448913601583 
141.0021051854459 0.15933448913601583 
142.0021051854459 0.15933448913601583 
143.0021051854459 0.15933448913601583 
144.0021051854459 0.15933448913601583 
145.0021051854459 0.15933448913601583 
146.0021051854459 0.15933448913601583 
147.0021051854459 0.15933448913601583 
148.0021051854459 0.15933448913601583 
149.0021051854459 0.15933448913601583 
150.0021051854459 0.15933448913601583 
151.0021051854459 0.15933448913601583 
152.0021051854459 0.15933448913601583 
153.0021051854459 0.15933448913601583 
154.0021051854459 0.15933448913601583 
155.0021051854459 0.15933448913601583 
156.0021051854459 0.15933448913601583 
157.0021051854459 0.15933448913601583 
158.0021051854459 0.15933448913601583 
159.0021051854459 0.15933448913601583 
#####################################################################
# End of data export. Simulation finished at: 2017-05-21T12:03+0000 #
#####################################################################
