0.000000000000000000e+00 nan
1.000398595572933091e+00 3.460900164023174499e-32
2.000797191145866183e+00 1.504257658102882589e+00
3.001195786718801273e+00 1.812018863911703859e+00
4.001594382291732366e+00 2.012876935111858945e+00
5.001992977864663459e+00 2.788698602882939248e+00
6.002391573437602545e+00 2.790042819513021133e+00
7.002790169010532750e+00 3.292079730753503686e+00
8.003188764583464732e+00 3.011606314530546058e+00
9.003587360156396713e+00 2.047961476189517516e+00
1.000398595572932692e+01 2.312415836352501142e+00
1.100438455130227311e+01 2.043174407118556690e+00
1.200478314687520509e+01 2.316751001870660964e+00
1.300518174244813885e+01 2.384856616440681698e+00
1.400558033802106550e+01 1.626738581469863387e+00
1.500597893359400281e+01 7.288684055189361688e-01
1.600637752916692946e+01 2.597667229326687255e-01
1.700677612473986855e+01 3.591476929566027598e-01
1.800717472031279343e+01 3.909577088796890587e-01
1.900757331588573251e+01 2.737768994197647965e-01
2.000797191145865384e+01 2.010580327679337143e-01
2.100837050703160003e+01 7.066267292524452959e-02
2.200876910260454622e+01 1.742815382092495133e-02
2.300916769817746754e+01 8.179622310890999630e-05
2.400956629375041018e+01 1.739468082157741254e-32
2.500996488932333151e+01 1.739468082157741254e-32
2.601036348489627770e+01 1.739468082157741254e-32
2.701076208046920257e+01 1.739468082157741254e-32
2.801116067604213100e+01 1.739468082157741254e-32
2.901155927161505943e+01 1.739468082157741254e-32
