#####################################################################
# Alchemist log file - simulation started at: 2017-05-20T12:56+0000 #
#####################################################################
# random = 1.0, targets = 3.1622776601683795, density = 0.4483936332993466, gridShift = 0.0, perturbation = 0.0, connfactor = 0.75
#
# The columns have the following meaning: 
# time se[Mean] 
0.0 NaN 
1.0048855897957667 NaN 
2.0048855897957667 1.0915569415042095 
3.0048855897957667 1.1321870472474145 
4.004885589795767 1.2566524079716894 
5.004885589795767 1.3196629094225 
6.004885589795767 1.2799836869681296 
7.004885589795767 1.139855089407338 
8.004885589795766 0.8975718507814417 
9.004885589795766 0.909393407923189 
10.004885589795766 0.7538608321725915 
11.004885589795766 0.7313325346640686 
12.004885589795766 0.7107093874959987 
13.004885589795766 0.6961077967346173 
14.004885589795766 0.6526502466726957 
15.004885589795766 0.6579362417980464 
16.004885589795766 0.5825845379911397 
17.004885589795766 0.573702970132887 
18.004885589795766 0.49960766094065134 
19.004885589795766 0.4938465212006295 
20.004885589795766 0.46845821224054224 
21.004885589795766 0.4638301166045116 
22.004885589795766 0.438843862348847 
23.004885589795766 0.44106895411604896 
24.004885589795766 0.39423519134905494 
25.004885589795766 0.6196056341684606 
26.004885589795766 0.5455741808258505 
27.004885589795766 0.32880690266123674 
28.004885589795766 0.4928377907762197 
29.004885589795766 0.46204013618010187 
30.004885589795766 0.3853360282413741 
31.004885589795766 0.35655318895011023 
32.00488558979576 0.362762042014189 
33.00488558979576 0.2540995331934841 
34.00488558979576 0.1350889359326484 
35.00488558979576 0.1350889359326484 
36.00488558979576 0.1350889359326484 
37.00488558979576 0.1350889359326484 
38.00488558979576 0.1350889359326484 
39.00488558979576 0.1350889359326484 
40.00488558979576 0.1350889359326484 
41.00488558979576 0.1350889359326484 
42.00488558979576 0.1350889359326484 
43.00488558979576 0.1350889359326484 
44.00488558979576 0.1350889359326484 
45.00488558979576 0.1350889359326484 
46.00488558979576 0.1350889359326484 
#####################################################################
# End of data export. Simulation finished at: 2017-05-20T12:56+0000 #
#####################################################################
