#####################################################################
# Alchemist log file - simulation started at: 2017-05-24T21:13+0000 #
#####################################################################
# random = 16.0, targets = 1.0, density = 0.3174802103936399, gridShift = 1.0, perturbation = 0.0, connfactor = 0.75
#
# The columns have the following meaning: 
# time se[Mean] 
0.0 NaN 
1.0086259768480754 NaN 
2.0086259768480756 1.0 
3.0086259768480756 1.0 
4.008625976848076 0.9841269841269841 
5.008625976848076 0.9841269841269842 
6.008625976848076 0.9047619047619048 
7.008625976848076 0.8095238095238095 
8.008625976848077 0.7619047619047619 
9.008625976848077 0.8095238095238095 
10.008625976848077 0.7936507936507936 
11.008625976848077 0.8571428571428571 
12.008625976848077 0.8253968253968254 
13.008625976848077 0.9365079365079365 
14.008625976848077 0.873015873015873 
15.008625976848077 0.9841269841269842 
16.008625976848077 0.9206349206349207 
17.008625976848077 0.9900793650793651 
18.008625976848077 0.9067460317460317 
19.008625976848077 0.9126984126984127 
20.008625976848077 0.8472222222222222 
21.008625976848077 0.7797619047619047 
22.008625976848077 0.7361111111111113 
23.008625976848077 0.6190476190476192 
24.008625976848077 0.5376984126984128 
25.008625976848077 0.4583333333333334 
26.008625976848077 0.2956349206349207 
27.008625976848077 0.22619047619047616 
28.008625976848077 0.19246031746031755 
29.008625976848077 0.11309523809523808 
30.008625976848077 0.06944444444444448 
31.008625976848077 0.051587301587301584 
32.00862597684808 0.027777777777777783 
33.00862597684808 0.013888888888888895 
34.00862597684808 0.00793650793650794 
35.00862597684808 0.003968253968253967 
36.00862597684808 0.0019841269841269827 
37.00862597684808 0.0 
38.00862597684808 0.0 
39.00862597684808 0.0 
40.00862597684808 0.0 
41.00862597684808 0.0 
42.00862597684808 0.0 
43.00862597684808 0.0 
44.00862597684808 0.0 
45.00862597684808 0.0 
#####################################################################
# End of data export. Simulation finished at: 2017-05-24T21:13+0000 #
#####################################################################
