#####################################################################
# Alchemist log file - simulation started at: 2017-05-22T17:35+0000 #
#####################################################################
# random = 4.0, targets = 10.0, density = 0.894427190999916, gridShift = 0.0, perturbation = 0.0, connfactor = 2.0
#
# The columns have the following meaning: 
# time se[Mean] 
0.0 NaN 
1.0048193674555734 NaN 
2.0048193674555734 1.1940702479338843 
3.0048193674555734 1.288373507805326 
4.004819367455573 1.4247882231404958 
5.004819367455573 1.5759492653810834 
6.004819367455573 1.5326446280991735 
7.004819367455573 2.1639543158861336 
8.004819367455573 1.2429654499540863 
9.004819367455573 1.7444989669421487 
10.004819367455573 1.513814279155188 
11.004819367455573 1.4177846648301191 
12.004819367455573 1.657564279155188 
13.004819367455573 1.4761277548209364 
14.004819367455573 1.862805325987144 
15.004819367455573 1.692565426997245 
16.004819367455575 1.8413286271808995 
17.004819367455575 1.7020598025711657 
18.004819367455575 1.6059113865932042 
19.004819367455575 1.6919501836547286 
20.004819367455575 1.738538223140495 
21.004819367455575 1.5829247015610648 
22.004819367455575 1.465828741965105 
23.004819367455575 1.1882013314967856 
24.004819367455575 0.9097618227731858 
25.004819367455575 0.6111013544536268 
26.004819367455575 0.45406852617079857 
27.004819367455575 0.5471803259871437 
28.004819367455575 0.947122359963268 
29.004819367455575 1.1697761707988974 
30.004819367455575 2.3878259871441676 
31.004819367455575 2.067777203856748 
32.004819367455575 2.9938779843893455 
33.004819367455575 2.689052456382 
34.004819367455575 2.7925172176308517 
35.004819367455575 3.4586690771349833 
36.004819367455575 3.844723943985305 
37.004819367455575 3.835823576675847 
38.004819367455575 3.13222222222222 
39.004819367455575 2.16756714876033 
40.004819367455575 1.3354327364554626 
41.004819367455575 0.23273071625344352 
42.004819367455575 0.09281278696051413 
43.004819367455575 0.08982151056014682 
44.004819367455575 0.0899999999999999 
45.004819367455575 0.0899999999999999 
46.004819367455575 0.0899999999999999 
47.004819367455575 0.0899999999999999 
48.004819367455575 0.0899999999999999 
49.004819367455575 0.0899999999999999 
50.004819367455575 0.0899999999999999 
51.004819367455575 0.0899999999999999 
52.004819367455575 0.0899999999999999 
53.004819367455575 0.0899999999999999 
54.004819367455575 0.0899999999999999 
55.004819367455575 0.0899999999999999 
56.004819367455575 0.0899999999999999 
57.004819367455575 0.0899999999999999 
58.004819367455575 0.0899999999999999 
59.004819367455575 0.0899999999999999 
60.004819367455575 0.0899999999999999 
61.004819367455575 0.0899999999999999 
62.004819367455575 0.0899999999999999 
63.004819367455575 0.0899999999999999 
64.00481936745558 0.0899999999999999 
#####################################################################
# End of data export. Simulation finished at: 2017-05-22T17:35+0000 #
#####################################################################
