#####################################################################
# Alchemist log file - simulation started at: 2017-05-22T01:14+0000 #
#####################################################################
# random = 3.0, targets = 10.0, density = 7.099073319511142, gridShift = 1.0, perturbation = 0.0, connfactor = 0.5
#
# The columns have the following meaning: 
# time se[Mean] 
0.0 NaN 
1.0016359619213666 NaN 
2.001635961921367 1.0 
3.001635961921367 1.0 
4.001635961921367 0.9996314102564102 
5.001635961921367 0.9994134615384616 
6.001635961921367 0.9948557692307692 
7.001635961921367 0.995474358974359 
8.001635961921366 0.985224358974359 
9.001635961921366 0.9818717948717949 
10.001635961921366 0.9764775641025641 
11.001635961921366 0.9668717948717949 
12.001635961921366 0.9634967948717948 
13.001635961921366 0.9544839743589744 
14.001635961921366 0.9513173076923077 
15.001635961921366 0.9458365384615385 
16.001635961921366 0.9377820512820513 
17.001635961921366 0.9313974358974358 
18.001635961921366 0.9231185897435897 
19.001635961921366 0.9151378205128206 
20.001635961921366 0.9082435897435898 
21.001635961921366 0.8957820512820512 
22.001635961921366 0.8935544871794872 
23.001635961921366 0.8833108974358974 
24.001635961921366 0.8767788461538463 
25.001635961921366 0.868048076923077 
26.001635961921366 0.8607275641025643 
27.001635961921366 0.8527179487179486 
28.001635961921366 0.8440352564102563 
29.001635961921366 0.8352916666666669 
30.001635961921366 0.8259903846153848 
31.001635961921366 0.8190641025641028 
32.001635961921366 0.8094551282051284 
33.001635961921366 0.8009839743589742 
34.001635961921366 0.7915737179487174 
35.001635961921366 0.7828525641025643 
36.001635961921366 0.7715352564102561 
37.001635961921366 0.7647435897435899 
38.001635961921366 0.7574294871794874 
39.001635961921366 0.7455929487179489 
40.001635961921366 0.738519230769231 
41.001635961921366 0.7327083333333334 
42.001635961921366 0.7238461538461535 
43.001635961921366 0.7209006410256409 
44.001635961921366 0.7208076923076926 
45.001635961921366 0.7182820512820518 
46.001635961921366 0.7169294871794877 
47.001635961921366 0.7159743589743593 
48.001635961921366 0.7157724358974359 
49.001635961921366 0.7152692307692304 
50.001635961921366 0.7144038461538461 
51.001635961921366 0.7169839743589742 
52.001635961921366 0.7152884615384617 
53.001635961921366 0.7184262820512823 
54.001635961921366 0.7194903846153846 
55.001635961921366 0.7174551282051281 
56.001635961921366 0.7153621794871794 
57.001635961921366 0.7184903846153847 
58.001635961921366 0.7122532051282052 
59.001635961921366 0.7066538461538461 
60.001635961921366 0.708275641025641 
61.001635961921366 0.7070833333333334 
62.001635961921366 0.6996153846153846 
63.001635961921366 0.6982339743589744 
64.00163596192137 0.6948301282051282 
65.00163596192137 0.6879967948717949 
66.00163596192137 0.6833429487179488 
67.00163596192137 0.6788557692307692 
68.00163596192137 0.6743878205128205 
69.00163596192137 0.6687051282051282 
70.00163596192137 0.6646506410256411 
71.00163596192137 0.6588333333333334 
72.00163596192137 0.6498269230769231 
73.00163596192137 0.6449134615384616 
74.00163596192137 0.635150641025641 
75.00163596192137 0.628798076923077 
76.00163596192137 0.617551282051282 
77.00163596192137 0.6114743589743591 
78.00163596192137 0.6006057692307692 
79.00163596192137 0.5870288461538463 
80.00163596192137 0.5733814102564102 
81.00163596192137 0.5589967948717949 
82.00163596192137 0.5450064102564103 
83.00163596192137 0.5305576923076923 
84.00163596192137 0.5156089743589743 
85.00163596192137 0.5009006410256409 
86.00163596192137 0.48533012820512833 
87.00163596192137 0.46956730769230776 
88.00163596192137 0.45544871794871783 
89.00163596192137 0.4390897435897436 
90.00163596192137 0.42398076923076916 
91.00163596192137 0.40896474358974355 
92.00163596192137 0.3941314102564104 
93.00163596192137 0.3810256410256411 
94.00163596192137 0.36676602564102556 
95.00163596192137 0.3534038461538462 
96.00163596192137 0.3489647435897436 
97.00163596192137 0.34414743589743585 
98.00163596192137 0.3864807692307692 
99.00163596192137 0.41958012820512836 
100.00163596192137 0.4747019230769235 
101.00163596192137 0.49058974358974344 
102.00163596192137 0.5211923076923074 
103.00163596192137 0.5204967948717946 
104.00163596192137 0.5894230769230766 
105.00163596192137 0.5494230769230767 
106.00163596192137 0.7107788461538468 
107.00163596192137 0.7173108974358972 
108.00163596192137 0.8076057692307697 
109.00163596192137 0.7647467948717959 
110.00163596192137 0.9017692307692313 
111.00163596192137 0.6557628205128208 
112.00163596192137 0.7776378205128208 
113.00163596192137 0.6916314102564112 
114.00163596192137 0.6639070512820522 
115.00163596192137 0.5761602564102566 
116.00163596192137 0.5998942307692315 
117.00163596192137 0.44205769230769204 
118.00163596192137 0.48667948717948656 
119.00163596192137 0.3494166666666669 
120.00163596192137 0.4375737179487196 
121.00163596192137 0.39131730769230794 
122.00163596192137 0.3678173076923076 
123.00163596192137 0.3504743589743586 
124.00163596192137 0.3161121794871791 
125.00163596192137 0.20088782051282061 
126.00163596192137 0.24048076923076964 
127.00163596192137 0.18659935897435898 
128.00163596192135 0.14893589743589733 
129.00163596192135 0.17791346153846177 
130.00163596192135 0.15559294871794851 
131.00163596192135 0.10289102564102559 
132.00163596192135 0.16571794871794845 
133.00163596192135 0.07700641025641031 
134.00163596192135 0.14317948717948692 
135.00163596192135 0.11766025641025676 
136.00163596192135 0.07841025641025647 
137.00163596192135 0.0885128205128205 
138.00163596192135 0.07885256410256417 
139.00163596192135 0.049737179487179435 
140.00163596192135 0.05983012820512809 
141.00163596192135 0.044423076923076926 
142.00163596192135 0.029346153846153838 
143.00163596192135 0.034567307692307654 
144.00163596192135 0.023833333333333304 
145.00163596192135 0.021977564102564188 
146.00163596192135 0.015951923076923072 
147.00163596192135 0.01874358974358971 
148.00163596192135 0.01760897435897435 
149.00163596192135 0.012358974358974335 
150.00163596192135 0.01614743589743585 
151.00163596192135 0.011182692307692303 
152.00163596192135 0.010749999999999992 
153.00163596192135 0.010477564102564108 
154.00163596192135 0.01018269230769231 
155.00163596192135 0.010153846153846152 
156.00163596192135 0.010115384615384616 
157.00163596192135 0.00998076923076923 
158.00163596192135 0.009971153846153847 
159.00163596192135 0.01 
160.00163596192135 0.009990384615384616 
161.00163596192135 0.01 
162.00163596192135 0.01 
163.00163596192135 0.01 
164.00163596192135 0.01 
165.00163596192135 0.01 
166.00163596192135 0.01 
167.00163596192135 0.01 
168.00163596192135 0.01 
169.00163596192135 0.01 
170.00163596192135 0.01 
171.00163596192135 0.01 
172.00163596192135 0.01 
173.00163596192135 0.01 
174.00163596192135 0.01 
175.00163596192135 0.01 
176.00163596192135 0.01 
177.00163596192135 0.01 
178.00163596192135 0.01 
179.00163596192135 0.01 
180.00163596192135 0.01 
181.00163596192135 0.01 
182.00163596192135 0.01 
183.00163596192135 0.01 
184.00163596192135 0.01 
185.00163596192135 0.01 
186.00163596192135 0.01 
187.00163596192135 0.01 
188.00163596192135 0.01 
189.00163596192135 0.01 
190.00163596192135 0.01 
191.00163596192135 0.01 
192.00163596192135 0.01 
193.00163596192135 0.01 
194.00163596192135 0.01 
195.00163596192135 0.01 
196.00163596192135 0.01 
197.00163596192135 0.01 
198.00163596192135 0.01 
199.00163596192135 0.01 
200.00163596192135 0.01 
201.00163596192135 0.01 
202.00163596192135 0.01 
203.00163596192135 0.01 
204.00163596192135 0.01 
205.00163596192135 0.01 
206.00163596192135 0.01 
207.00163596192135 0.01 
208.00163596192135 0.01 
209.00163596192135 0.01 
210.00163596192135 0.01 
211.00163596192135 0.01 
212.00163596192135 0.01 
213.00163596192135 0.01 
214.00163596192135 0.01 
215.00163596192135 0.01 
216.00163596192135 0.01 
217.00163596192135 0.01 
218.00163596192135 0.01 
#####################################################################
# End of data export. Simulation finished at: 2017-05-22T01:17+0000 #
#####################################################################
