0.000000000000000000e+00 nan
2.220446049250313081e-16 7.838878342602412230e-05
4.440892098500626162e-16 2.093125332610456246e-01
1.332267629550187849e-15 2.002167773038817100e-01
8.881784197001252323e-16 1.998871404359176818e-01
3.552713678800500929e-15 1.991512004867488361e-01
2.664535259100375697e-15 1.974768040669657165e-01
2.664535259100375697e-15 1.957661760315351496e-01
1.776356839400250465e-15 1.950887166016053997e-01
0.000000000000000000e+00 1.938625749434267909e-01
7.105427357601001859e-15 1.928763167730845884e-01
0.000000000000000000e+00 1.918766462299570097e-01
5.329070518200751394e-15 1.908219287811599163e-01
1.776356839400250465e-15 1.895562703898944767e-01
5.329070518200751394e-15 1.885010389690526533e-01
1.776356839400250465e-15 1.874198879496146997e-01
3.552713678800500929e-15 1.864950260251558301e-01
3.552713678800500929e-15 1.855530425327492905e-01
0.000000000000000000e+00 1.846542976461759411e-01
3.552713678800500929e-15 1.834816605795567823e-01
1.421085471520200372e-14 1.826818186261257304e-01
1.065814103640150279e-14 1.816652416719068130e-01
0.000000000000000000e+00 1.813723672588633540e-01
7.105427357601001859e-15 1.806343639723028138e-01
1.065814103640150279e-14 1.799347360874685720e-01
7.105427357601001859e-15 1.792815372373524063e-01
3.552713678800500929e-15 1.789049880658290514e-01
3.552713678800500929e-15 1.783235563572065085e-01
1.065814103640150279e-14 1.777479501095339531e-01
3.552713678800500929e-15 1.774434438743484610e-01
3.552713678800500929e-15 1.772310897971584587e-01
1.421085471520200372e-14 1.775075616744471174e-01
7.105427357601001859e-15 1.768930091984923791e-01
2.131628207280300558e-14 1.770606020930031999e-01
7.105427357601001859e-15 1.774266150565811939e-01
0.000000000000000000e+00 1.770229785978786052e-01
0.000000000000000000e+00 1.765321554469776733e-01
1.421085471520200372e-14 1.774934479982335500e-01
7.105427357601001859e-15 1.768540587717587487e-01
2.131628207280300558e-14 1.764077067052908787e-01
2.842170943040400743e-14 1.777621903064713349e-01
1.421085471520200372e-14 1.878139702253027177e-01
2.131628207280300558e-14 1.819681723378138161e-01
7.105427357601001859e-15 2.005537526161253470e-01
0.000000000000000000e+00 2.309773084748920624e-01
7.105427357601001859e-15 2.099320985962445651e-01
1.421085471520200372e-14 2.563426289942007386e-01
1.421085471520200372e-14 2.677449999613696896e-01
2.131628207280300558e-14 2.507473554304905927e-01
2.131628207280300558e-14 3.299679681200123338e-01
1.421085471520200372e-14 2.878330833693523716e-01
7.105427357601001859e-15 3.076242789272989886e-01
7.105427357601001859e-15 2.746946372825784799e-01
7.105427357601001859e-15 2.984306249905007147e-01
7.105427357601001859e-15 2.811250499429120975e-01
7.105427357601001859e-15 2.819590577719961466e-01
2.131628207280300558e-14 3.074837514275927663e-01
7.105427357601001859e-15 3.217426132487605783e-01
7.105427357601001859e-15 3.202876180727428634e-01
1.421085471520200372e-14 3.438904052978463688e-01
7.105427357601001859e-15 3.392684777222466641e-01
0.000000000000000000e+00 3.389264857390712482e-01
2.842170943040400743e-14 3.794247957809043781e-01
7.105427357601001859e-15 3.632350161304498948e-01
1.421085471520200372e-14 3.476638525464830765e-01
2.842170943040400743e-14 3.923522745350190855e-01
4.263256414560601115e-14 3.830320474327261193e-01
1.421085471520200372e-14 4.071132042382759608e-01
1.421085471520200372e-14 3.679796443653361449e-01
2.842170943040400743e-14 3.680021787021028890e-01
0.000000000000000000e+00 3.991515199690099935e-01
2.842170943040400743e-14 3.733502049465012296e-01
0.000000000000000000e+00 3.673882229271890898e-01
1.421085471520200372e-14 3.898074432531775102e-01
2.842170943040400743e-14 4.045630951052915925e-01
4.263256414560601115e-14 4.388114433531348224e-01
1.421085471520200372e-14 4.684990949972062668e-01
1.421085471520200372e-14 5.004137286445734523e-01
4.263256414560601115e-14 6.853372840096374485e-01
0.000000000000000000e+00 5.640522325281732696e-01
5.684341886080801487e-14 6.968418003633671809e-01
0.000000000000000000e+00 7.218358264249910006e-01
2.842170943040400743e-14 7.510685439790194540e-01
2.842170943040400743e-14 8.005912355866762198e-01
4.263256414560601115e-14 7.799748877462346908e-01
1.421085471520200372e-14 7.083782609976959632e-01
1.421085471520200372e-14 8.438079208648769924e-01
4.263256414560601115e-14 8.166775464624539405e-01
0.000000000000000000e+00 7.522260848897558416e-01
4.263256414560601115e-14 6.918105792373676621e-01
1.421085471520200372e-14 5.818671970840468832e-01
2.842170943040400743e-14 5.867265682228616219e-01
2.842170943040400743e-14 5.480847875389484036e-01
4.263256414560601115e-14 4.968746220197375885e-01
2.842170943040400743e-14 5.694325098139632058e-01
1.421085471520200372e-14 4.682261847375100983e-01
4.263256414560601115e-14 4.784355797933630416e-01
0.000000000000000000e+00 5.670066393159157725e-01
4.263256414560601115e-14 6.042138198461638465e-01
1.421085471520200372e-14 6.800711730533330890e-01
2.842170943040400743e-14 8.013650088435968488e-01
4.263256414560601115e-14 8.200717056058226540e-01
1.421085471520200372e-14 8.804879237315399454e-01
1.421085471520200372e-14 8.880265392496119459e-01
1.421085471520200372e-14 1.108051858147778512e+00
5.684341886080801487e-14 9.223516844667176695e-01
1.421085471520200372e-14 1.182089048978337775e+00
5.684341886080801487e-14 1.447472291476020967e+00
1.421085471520200372e-14 1.604826458804637701e+00
1.421085471520200372e-14 1.590562997421965941e+00
1.421085471520200372e-14 2.059459235106281483e+00
2.842170943040400743e-14 1.716525364241164642e+00
4.263256414560601115e-14 2.303374088533410191e+00
1.421085471520200372e-14 1.962394305543166739e+00
1.421085471520200372e-14 2.185972251634524799e+00
0.000000000000000000e+00 2.267766954472139496e+00
1.421085471520200372e-14 2.291761681985224897e+00
2.842170943040400743e-14 2.469897161066343383e+00
2.842170943040400743e-14 2.723071893531379573e+00
4.263256414560601115e-14 2.963545368058842833e+00
1.421085471520200372e-14 3.217686198952545595e+00
1.421085471520200372e-14 3.355062150765557138e+00
0.000000000000000000e+00 3.263734988306772777e+00
5.684341886080801487e-14 4.186621466273353853e+00
5.684341886080801487e-14 3.690472789743167059e+00
5.684341886080801487e-14 4.853960087272167101e+00
1.421085471520200372e-14 5.099734539378319553e+00
1.421085471520200372e-14 5.104225399659967799e+00
2.842170943040400743e-14 5.350056677590841581e+00
2.842170943040400743e-14 5.808532855219934454e+00
5.684341886080801487e-14 5.166582044786718342e+00
5.684341886080801487e-14 5.967843376812705714e+00
8.526512829121202230e-14 5.627863660777372878e+00
0.000000000000000000e+00 7.358403163374715561e+00
2.842170943040400743e-14 6.002891299270236125e+00
5.684341886080801487e-14 6.608764701659214147e+00
2.842170943040400743e-14 7.269322581126180793e+00
2.842170943040400743e-14 8.198515077093036396e+00
5.684341886080801487e-14 7.538574557222862182e+00
2.842170943040400743e-14 7.854863345459149215e+00
0.000000000000000000e+00 7.836534388443817889e+00
8.526512829121202230e-14 8.245252182084426451e+00
5.684341886080801487e-14 8.622633403831139631e+00
5.684341886080801487e-14 7.242058830643760992e+00
0.000000000000000000e+00 8.310719126086524966e+00
2.842170943040400743e-14 6.923041837065137649e+00
2.842170943040400743e-14 7.660610616122886185e+00
0.000000000000000000e+00 5.691016391342625269e+00
5.684341886080801487e-14 7.034752396785268758e+00
5.684341886080801487e-14 6.326943485301685932e+00
8.526512829121202230e-14 5.604707482353750159e+00
0.000000000000000000e+00 4.970831334809138191e+00
2.842170943040400743e-14 5.299277012343456050e+00
8.526512829121202230e-14 3.986452949729654804e+00
2.842170943040400743e-14 2.796309625364408191e+00
2.842170943040400743e-14 3.601389193889549478e+00
8.526512829121202230e-14 1.984283526238840301e+00
2.842170943040400743e-14 2.557843158860054977e+00
0.000000000000000000e+00 2.253174565954196407e+00
8.526512829121202230e-14 8.797410437661579152e-01
1.136868377216160297e-13 1.656411228314428774e+00
5.684341886080801487e-14 7.182097809821250678e-01
0.000000000000000000e+00 1.193948645284095500e+00
5.684341886080801487e-14 1.456557688711445309e+00
5.684341886080801487e-14 8.576551572831605519e-01
0.000000000000000000e+00 8.028545003445390904e-01
5.684341886080801487e-14 7.322774130140387028e-01
1.136868377216160297e-13 7.457229637620771401e-01
8.526512829121202230e-14 7.181113991676900676e-01
0.000000000000000000e+00 6.559488705030726008e-01
2.842170943040400743e-14 6.340971754159426821e-01
8.526512829121202230e-14 5.569824579127482522e-01
2.842170943040400743e-14 4.376287233548853406e-01
2.842170943040400743e-14 3.136413404137613492e-01
8.526512829121202230e-14 2.923134293688558483e-01
2.842170943040400743e-14 2.210820207968659246e-01
0.000000000000000000e+00 1.913084698284112928e-01
8.526512829121202230e-14 1.782248345090545472e-01
8.526512829121202230e-14 1.308607796709133075e-01
5.684341886080801487e-14 1.261356389543782097e-01
2.842170943040400743e-14 8.480866028540094692e-02
5.684341886080801487e-14 7.117482030015961914e-02
5.684341886080801487e-14 4.625921386123513918e-02
0.000000000000000000e+00 4.954119932771865881e-02
5.684341886080801487e-14 4.241092841071115310e-02
1.136868377216160297e-13 4.006240354167795586e-02
8.526512829121202230e-14 4.006240354167795586e-02
0.000000000000000000e+00 4.006240354167795586e-02
5.684341886080801487e-14 4.006240354167795586e-02
5.684341886080801487e-14 4.006240354167795586e-02
2.842170943040400743e-14 4.006240354167795586e-02
5.684341886080801487e-14 4.006240354167795586e-02
8.526512829121202230e-14 4.006240354167795586e-02
5.684341886080801487e-14 4.006240354167795586e-02
0.000000000000000000e+00 4.006240354167795586e-02
8.526512829121202230e-14 4.006240354167795586e-02
8.526512829121202230e-14 4.006240354167795586e-02
5.684341886080801487e-14 4.006240354167795586e-02
2.842170943040400743e-14 4.006240354167795586e-02
5.684341886080801487e-14 4.006240354167795586e-02
5.684341886080801487e-14 4.006240354167795586e-02
0.000000000000000000e+00 4.006240354167795586e-02
8.526512829121202230e-14 4.006240354167795586e-02
1.136868377216160297e-13 4.006240354167795586e-02
2.842170943040400743e-14 4.006240354167795586e-02
5.684341886080801487e-14 4.006240354167795586e-02
2.842170943040400743e-14 4.006240354167795586e-02
8.526512829121202230e-14 4.006240354167795586e-02
2.842170943040400743e-14 4.006240354167795586e-02
5.684341886080801487e-14 4.006240354167795586e-02
1.136868377216160297e-13 4.006240354167795586e-02
2.842170943040400743e-14 4.006240354167795586e-02
2.842170943040400743e-14 4.006240354167795586e-02
2.842170943040400743e-14 4.006240354167795586e-02
1.136868377216160297e-13 4.006240354167795586e-02
5.684341886080801487e-14 4.006240354167795586e-02
2.842170943040400743e-14 4.006240354167795586e-02
8.526512829121202230e-14 4.006240354167795586e-02
2.842170943040400743e-14 4.006240354167795586e-02
5.684341886080801487e-14 4.006240354167795586e-02
2.842170943040400743e-14 4.006240354167795586e-02
1.136868377216160297e-13 4.006240354167795586e-02
5.684341886080801487e-14 4.006240354167795586e-02
0.000000000000000000e+00 4.006240354167795586e-02
8.526512829121202230e-14 4.006240354167795586e-02
0.000000000000000000e+00 4.006240354167795586e-02
2.842170943040400743e-14 4.006240354167795586e-02
0.000000000000000000e+00 4.006240354167795586e-02
2.842170943040400743e-14 4.006240354167795586e-02
8.526512829121202230e-14 4.006240354167795586e-02
0.000000000000000000e+00 4.006240354167795586e-02
8.526512829121202230e-14 4.006240354167795586e-02
