#####################################################################
# Alchemist log file - simulation started at: 2017-05-23T00:32+0000 #
#####################################################################
# random = 10.0, targets = 10.0, density = 1.2632455339402642, gridShift = 0.0, perturbation = 0.0, connfactor = 0.25
#
# The columns have the following meaning: 
# time se[Mean] 
0.0 NaN 
1.0036005446229952 NaN 
2.003600544622995 1.0 
3.003600544622995 1.0 
4.003600544622995 0.9978698224852071 
5.003600544622995 0.9893491124260355 
6.003600544622995 0.9850887573964497 
7.003600544622995 0.9723076923076923 
8.003600544622994 0.9850887573964496 
9.003600544622994 0.9701775147928995 
10.003600544622994 0.9829585798816569 
11.003600544622994 0.9850887573964496 
12.003600544622994 0.9978698224852071 
13.003600544622994 0.9936094674556213 
14.003600544622994 0.9978698224852071 
15.003600544622994 1.0 
16.003600544622994 1.0 
17.003600544622994 1.0 
18.003600544622994 1.0 
19.003600544622994 1.0 
20.003600544622994 1.0 
21.003600544622994 1.0 
22.003600544622994 1.0 
23.003600544622994 0.9988757396449705 
24.003600544622994 0.994378698224852 
25.003600544622994 0.994378698224852 
26.003600544622994 0.9820118343195267 
27.003600544622994 0.9775147928994082 
28.003600544622994 0.9718934911242604 
29.003600544622994 0.9584023668639053 
30.003600544622994 0.9516568047337279 
31.003600544622994 0.9376923076923076 
32.003600544623 0.917810650887574 
33.003600544623 0.9081656804733729 
34.003600544623 0.8738461538461539 
35.003600544623 0.862603550295858 
36.003600544623 0.8627218934911243 
37.003600544623 0.8437869822485207 
38.003600544623 0.8341420118343197 
39.003600544623 0.8188757396449705 
40.003600544623 0.8225443786982249 
41.003600544623 0.8074556213017752 
42.003600544623 0.7968639053254438 
43.003600544623 0.8061538461538462 
44.003600544623 0.7984615384615386 
45.003600544623 0.7984615384615386 
46.003600544623 0.81 
47.003600544623 0.81 
48.003600544623 0.81 
49.003600544623 0.8081065088757396 
50.003600544623 0.8005325443786983 
51.003600544623 0.8024260355029587 
52.003600544623 0.7910650887573965 
53.003600544623 0.7910650887573965 
54.003600544623 0.8005325443786983 
55.003600544623 0.7967455621301776 
56.003600544623 0.798639053254438 
57.003600544623 0.8005325443786983 
58.003600544623 0.8062130177514794 
59.003600544623 0.804319526627219 
60.003600544623 0.8024260355029587 
61.003600544623 0.8081065088757396 
62.003600544623 0.804319526627219 
63.003600544623 0.804319526627219 
64.003600544623 0.81 
65.003600544623 0.81 
66.003600544623 0.81 
67.003600544623 0.81 
68.003600544623 0.81 
69.003600544623 0.81 
70.003600544623 0.81 
71.003600544623 0.81 
72.003600544623 0.81 
73.003600544623 0.81 
74.003600544623 0.81 
75.003600544623 0.81 
76.003600544623 0.81 
77.003600544623 0.81 
78.003600544623 0.81 
79.003600544623 0.81 
80.003600544623 0.81 
81.003600544623 0.81 
82.003600544623 0.81 
83.003600544623 0.81 
84.003600544623 0.81 
85.003600544623 0.81 
86.003600544623 0.81 
87.003600544623 0.81 
#####################################################################
# End of data export. Simulation finished at: 2017-05-23T00:32+0000 #
#####################################################################
