#####################################################################
# Alchemist log file - simulation started at: 2017-05-24T09:37+0000 #
#####################################################################
# random = 6.0, targets = 100.0, density = 0.04, gridShift = 1.0, perturbation = 0.0, connfactor = 1.5
#
# The columns have the following meaning: 
# time se[Mean] 
0.0 NaN 
1.0115592716150654 NaN 
2.0115592716150656 0.9429354166666667 
3.0115592716150656 1.0866780092592592 
4.011559271615066 1.3940527777777776 
5.011559271615066 1.5175937499999996 
6.011559271615066 1.4558423611111109 
7.011559271615066 1.2559344907407404 
8.011559271615067 0.5154300925925926 
9.011559271615067 0.29075671296296296 
10.011559271615067 0.04354351851851853 
11.011559271615067 0.012553703703703742 
12.011559271615067 0.004575000000000025 
13.011559271615067 6.750000000000084E-4 
14.011559271615067 6.750000000000083E-4 
15.011559271615067 3.2311742677852645E-31 
16.011559271615067 3.2311742677852645E-31 
17.011559271615067 3.2311742677852645E-31 
18.011559271615067 3.2311742677852645E-31 
19.011559271615067 3.2311742677852645E-31 
20.011559271615067 3.2311742677852645E-31 
#####################################################################
# End of data export. Simulation finished at: 2017-05-24T09:37+0000 #
#####################################################################
