#####################################################################
# Alchemist log file - simulation started at: 2017-05-24T04:20+0000 #
#####################################################################
# random = 13.0, targets = 100.0, density = 10.026386447354522, gridShift = 1.0, perturbation = 0.5, connfactor = 2.0
#
# The columns have the following meaning: 
# time se[Mean] 
0.0 NaN 
1.0002602723432414 NaN 
2.000260272343241 1.0187557834101382 
3.000260272343241 1.0275857936507937 
4.000260272343241 1.0391554057859702 
5.000260272343241 1.0478695436507937 
6.000260272343241 1.0502908384536611 
7.000260272343241 1.0666722510240656 
8.00026027234324 1.0798946479774705 
9.00026027234324 1.0998788248847926 
10.00026027234324 1.1136251843317972 
11.00026027234324 1.1301452540962622 
12.00026027234324 1.1446715412186381 
13.00026027234324 1.1566787583205325 
14.00026027234324 1.166776007424475 
15.00026027234324 1.184608252688172 
16.00026027234324 1.1982915668202765 
17.00026027234324 1.2210898527905785 
18.00026027234324 1.2171471985407065 
19.00026027234324 1.2491876363287249 
20.00026027234324 1.25858544546851 
21.00026027234324 1.272148525985663 
22.00026027234324 1.3027759178187404 
23.00026027234324 1.3250218036354326 
24.00026027234324 1.3430751491295443 
25.00026027234324 1.3623605357142856 
26.00026027234324 1.3766492677931388 
27.00026027234324 1.3843983358934973 
28.00026027234324 1.4005724244751665 
29.00026027234324 1.4090102963389657 
30.00026027234324 1.4236572721454175 
31.00026027234324 1.4440870948540707 
32.00026027234324 1.4619813754480286 
33.00026027234324 1.4911519418842805 
34.00026027234324 1.5128435151049666 
35.00026027234324 1.5075987122375831 
36.00026027234324 1.551576931003584 
37.00026027234324 1.5785059991039425 
38.00026027234324 1.5923305363543268 
39.00026027234324 1.6350815834613412 
40.00026027234324 1.6975530645161288 
41.00026027234324 1.670372147977471 
42.00026027234324 1.7185987653609835 
43.00026027234324 1.7371061719150025 
44.00026027234324 1.7753997651049676 
45.00026027234324 1.8957173380696357 
46.00026027234324 1.915450337301587 
47.00026027234324 1.9139609651817724 
48.00026027234324 1.9743743369175621 
49.00026027234324 2.0554025441628268 
50.00026027234324 1.9991314624935992 
51.00026027234324 2.1682022439836164 
52.00026027234324 2.108387312467999 
53.00026027234324 2.1960344585253453 
54.00026027234324 2.193446255120327 
55.00026027234324 2.1618979217869945 
56.00026027234324 2.2097199142345114 
57.00026027234324 2.2866707962109576 
58.00026027234324 2.263543810803892 
59.00026027234324 2.269455302739375 
60.00026027234324 2.2694459069380444 
61.00026027234324 2.244080757168459 
62.00026027234324 2.2513022401433695 
63.00026027234324 2.2044480593958014 
64.00026027234324 2.2185767805939585 
65.00026027234324 2.2181323323092674 
66.00026027234324 2.278903298771122 
67.00026027234324 2.3991503539426517 
68.00026027234324 2.331216177035331 
69.00026027234324 2.4397346639784954 
70.00026027234324 2.457921678827444 
71.00026027234324 2.547220991423451 
72.00026027234324 2.6564163108038907 
73.00026027234324 2.7218013037634416 
74.00026027234324 2.8012555357142865 
75.00026027234324 3.140952414234512 
76.00026027234324 3.171558798003073 
77.00026027234324 3.1263945628520227 
78.00026027234324 3.564571201996928 
79.00026027234324 3.5089774110343055 
80.00026027234324 3.8337823982334878 
81.00026027234324 3.805659829749103 
82.00026027234324 3.7907770090885826 
83.00026027234324 3.90823388888889 
84.00026027234324 4.268528421658987 
85.00026027234324 3.8906367031490023 
86.00026027234324 4.53463100294419 
87.00026027234324 4.3248669694060435 
88.00026027234324 4.631396911162316 
89.00026027234324 4.499442137096776 
90.00026027234324 4.3739105965181775 
91.00026027234324 4.47579673515105 
92.00026027234324 4.914403719278035 
93.00026027234324 4.871260603558629 
94.00026027234324 5.713244363799285 
95.00026027234324 6.935079973118287 
96.00026027234324 6.396627725934463 
97.00026027234324 7.388698232846909 
98.00026027234324 7.218219176267283 
99.00026027234324 7.776063715437794 
100.00026027234324 8.697122535842299 
101.00026027234324 9.200819349718389 
102.00026027234324 7.9581696633384595 
103.00026027234324 9.051300360983111 
104.00026027234324 10.216546933563755 
105.00026027234324 7.942886231438821 
106.00026027234324 11.150062569764476 
107.00026027234324 10.377018475422437 
108.00026027234324 11.737782422555057 
109.00026027234324 10.822392841781882 
110.00026027234324 11.228397350230427 
111.00026027234324 10.942203967613938 
112.00026027234324 12.213227347670262 
113.00026027234324 11.64270136712751 
114.00026027234324 12.981001271761407 
115.00026027234324 11.86795067140298 
116.00026027234324 12.496462597286241 
117.00026027234324 12.868683004992333 
118.00026027234324 10.096981950204823 
119.00026027234324 11.174796866999499 
120.00026027234324 11.44931248591911 
121.00026027234324 11.297984567332318 
122.00026027234324 8.966543632232472 
123.00026027234324 9.77434740719407 
124.00026027234324 9.209827644649266 
125.00026027234324 9.723135231054796 
126.00026027234324 9.275545350102414 
127.00026027234324 11.495170206093196 
128.00026027234324 12.679391455453155 
129.00026027234324 12.350990140809017 
130.00026027234324 12.277177752816185 
131.00026027234324 13.546825300819252 
132.00026027234324 13.354901155913986 
133.00026027234324 14.120939389400919 
134.00026027234324 14.711477828981057 
135.00026027234324 12.882189886072712 
136.00026027234324 13.883809666538658 
137.00026027234324 16.020698341653866 
138.00026027234324 12.17204114503328 
139.00026027234324 15.364129450204807 
140.00026027234324 14.981141191756267 
141.00026027234324 15.074350091525849 
142.00026027234324 13.460731347286218 
143.00026027234324 15.133702814260104 
144.00026027234324 14.259959580773161 
145.00026027234324 16.197062416154626 
146.00026027234324 15.639887745135677 
147.00026027234324 17.592769178187392 
148.00026027234324 16.297719722862254 
149.00026027234324 17.697467437916014 
150.00026027234324 18.277115590117756 
151.00026027234324 15.935238105478744 
152.00026027234324 17.466822558243717 
153.00026027234324 18.120702901305677 
154.00026027234324 17.821116136712742 
155.00026027234324 15.574008863287245 
156.00026027234324 17.135322820660516 
157.00026027234324 15.809007821300561 
158.00026027234324 17.761255823092668 
159.00026027234324 16.630119131464408 
160.00026027234324 18.591801692268298 
161.00026027234324 17.895589970558106 
162.00026027234324 18.593454276753704 
163.00026027234324 17.392968790962616 
164.00026027234324 19.17535517345109 
165.00026027234324 18.32261508512545 
166.00026027234324 18.815557473758314 
167.00026027234324 18.04236081029185 
168.00026027234324 17.03832947132616 
169.00026027234324 17.052420775729637 
170.00026027234324 16.44808316372248 
171.00026027234324 15.25735519585253 
172.00026027234324 14.741811029825914 
173.00026027234324 14.993771548259094 
174.00026027234324 12.257233026113672 
175.00026027234324 11.96723068356375 
176.00026027234324 12.379289479006653 
177.00026027234324 11.734241483614957 
178.00026027234324 11.687777633768567 
179.00026027234324 11.49879195276498 
180.00026027234324 11.129730637480801 
181.00026027234324 11.153646089989763 
182.00026027234324 10.524829743343581 
183.00026027234324 10.814737839221714 
184.00026027234324 10.318341924603171 
185.00026027234324 10.031391723630316 
186.00026027234324 9.976993678315417 
187.00026027234324 9.392260460189458 
188.00026027234324 9.204557855862777 
189.00026027234324 9.403119508448546 
190.00026027234324 8.54264734126984 
191.00026027234324 8.211017964029706 
192.00026027234324 8.28910998783923 
193.00026027234324 7.480880433947768 
194.00026027234324 7.20199066948285 
195.00026027234324 7.44431498207886 
196.00026027234324 6.901326362647208 
197.00026027234324 6.924869624295958 
198.00026027234324 6.566049708141322 
199.00026027234324 6.453006226318486 
200.00026027234324 6.452342158218127 
201.00026027234324 6.452302939068102 
202.00026027234324 6.452178054275476 
203.00026027234324 6.451943635432669 
204.00026027234324 6.451928008192526 
205.00026027234324 6.451865540194574 
206.00026027234324 6.451740573476704 
207.00026027234324 6.451709349718384 
208.00026027234324 6.4516234331797255 
209.00026027234324 6.451600000000002 
210.00026027234324 6.451600000000002 
211.00026027234324 6.451600000000002 
212.00026027234324 6.451600000000002 
213.00026027234324 6.451600000000002 
214.00026027234324 6.451600000000002 
215.00026027234324 6.451600000000002 
216.00026027234324 6.451600000000002 
217.00026027234324 6.451600000000002 
218.00026027234324 6.451600000000002 
219.00026027234324 6.451600000000002 
220.00026027234324 6.451600000000002 
221.00026027234324 6.451600000000002 
222.00026027234324 6.451600000000002 
223.00026027234324 6.451600000000002 
224.00026027234324 6.451600000000002 
225.00026027234324 6.451600000000002 
226.00026027234324 6.451600000000002 
227.00026027234324 6.451600000000002 
228.00026027234324 6.451600000000002 
229.00026027234324 6.451600000000002 
230.00026027234324 6.451600000000002 
231.00026027234324 6.451600000000002 
232.00026027234324 6.451600000000002 
233.00026027234324 6.451600000000002 
234.00026027234324 6.451600000000002 
235.00026027234324 6.451600000000002 
236.00026027234324 6.451600000000002 
237.00026027234324 6.451600000000002 
238.00026027234324 6.451600000000002 
239.00026027234324 6.451600000000002 
240.00026027234324 6.451600000000002 
241.00026027234324 6.451600000000002 
242.00026027234324 6.451600000000002 
243.00026027234324 6.451600000000002 
244.00026027234324 6.451600000000002 
245.00026027234324 6.451600000000002 
246.00026027234324 6.451600000000002 
247.00026027234324 6.451600000000002 
248.00026027234324 6.451600000000002 
249.00026027234324 6.451600000000002 
250.00026027234324 6.451600000000002 
251.00026027234324 6.451600000000002 
252.00026027234324 6.451600000000002 
253.00026027234324 6.451600000000002 
254.00026027234324 6.451600000000002 
255.00026027234324 6.451600000000002 
256.0002602723432 6.451600000000002 
257.0002602723432 6.451600000000002 
258.0002602723432 6.451600000000002 
259.0002602723432 6.451600000000002 
260.0002602723432 6.451600000000002 
261.0002602723432 6.451600000000002 
262.0002602723432 6.451600000000002 
263.0002602723432 6.451600000000002 
264.0002602723432 6.451600000000002 
265.0002602723432 6.451600000000002 
266.0002602723432 6.451600000000002 
267.0002602723432 6.451600000000002 
268.0002602723432 6.451600000000002 
269.0002602723432 6.451600000000002 
270.0002602723432 6.451600000000002 
271.0002602723432 6.451600000000002 
272.0002602723432 6.451600000000002 
273.0002602723432 6.451600000000002 
274.0002602723432 6.451600000000002 
275.0002602723432 6.451600000000002 
276.0002602723432 6.451600000000002 
277.0002602723432 6.451600000000002 
278.0002602723432 6.451600000000002 
279.0002602723432 6.451600000000002 
#####################################################################
# End of data export. Simulation finished at: 2017-05-24T04:24+0000 #
#####################################################################
