#####################################################################
# Alchemist log file - simulation started at: 2017-05-23T12:15+0000 #
#####################################################################
# random = 11.0, targets = 100.0, density = 10.026386447354522, gridShift = 1.0, perturbation = 0.5, connfactor = 0.25
#
# The columns have the following meaning: 
# time se[Mean] 
0.0 NaN 
1.0000311017741008 NaN 
2.000031101774101 1.0 
3.000031101774101 0.9998532718894009 
4.000031101774101 0.9991939170506913 
5.000031101774101 0.9978590783410138 
6.000031101774101 0.9969049769585253 
7.000031101774101 0.9954997235023041 
8.000031101774102 0.994550599078341 
9.000031101774102 0.9942191705069124 
10.000031101774102 0.9930679262672811 
11.000031101774102 0.9926141935483871 
12.000031101774102 0.9911946543778802 
13.000031101774102 0.9893258064516129 
14.000031101774102 0.9875028571428571 
15.000031101774102 0.9854563133640554 
16.000031101774102 0.9831930875576037 
17.000031101774102 0.9807996313364056 
18.000031101774102 0.9771199078341013 
19.000031101774102 0.9752384331797235 
20.000031101774102 0.9722254377880184 
21.000031101774102 0.9699741013824885 
22.000031101774102 0.9683456221198156 
23.000031101774102 0.9654160368663595 
24.000031101774102 0.9626929032258064 
25.000031101774102 0.9605894009216591 
26.000031101774102 0.9594335483870969 
27.000031101774102 0.9545078341013824 
28.000031101774102 0.952949216589862 
29.000031101774102 0.9502675576036866 
30.000031101774102 0.946447741935484 
31.000031101774102 0.9422801843317974 
32.0000311017741 0.9391572350230412 
33.0000311017741 0.9341573271889402 
34.0000311017741 0.9291317050691242 
35.0000311017741 0.925573548387097 
36.0000311017741 0.9215759447004607 
37.0000311017741 0.9150336405529954 
38.0000311017741 0.907462857142857 
39.0000311017741 0.9000588940092165 
40.0000311017741 0.8925978801843315 
41.0000311017741 0.8818823963133638 
42.0000311017741 0.8735428571428574 
43.0000311017741 0.8667889400921658 
44.0000311017741 0.856899907834101 
45.0000311017741 0.8469535483870969 
46.0000311017741 0.8415901382488472 
47.0000311017741 0.8312088479262675 
48.0000311017741 0.820075576036866 
49.0000311017741 0.8133560368663586 
50.0000311017741 0.8055337327188935 
51.0000311017741 0.7938357603686639 
52.0000311017741 0.7843902304147462 
53.0000311017741 0.7803507834101382 
54.0000311017741 0.7677307834101377 
55.0000311017741 0.7611963133640549 
56.0000311017741 0.7566179723502302 
57.0000311017741 0.74649133640553 
58.0000311017741 0.7335050691244243 
59.0000311017741 0.7317164976958522 
60.0000311017741 0.7227838709677418 
61.0000311017741 0.7082962211981564 
62.0000311017741 0.708595668202765 
63.0000311017741 0.7019435023041476 
64.0000311017741 0.6956430414746545 
65.0000311017741 0.6873671889400924 
66.0000311017741 0.6818425806451615 
67.0000311017741 0.6744285714285713 
68.0000311017741 0.6720465437788018 
69.0000311017741 0.6643794470046083 
70.0000311017741 0.6554735483870967 
71.0000311017741 0.6582583410138249 
72.0000311017741 0.657310599078341 
73.0000311017741 0.6604659907834102 
74.0000311017741 0.649147465437788 
75.0000311017741 0.6520341013824885 
76.0000311017741 0.6484646082949309 
77.0000311017741 0.6468360368663595 
78.0000311017741 0.6428103225806452 
79.0000311017741 0.6381760368663595 
80.0000311017741 0.6351217511520737 
81.0000311017741 0.6369905069124424 
82.0000311017741 0.6339630414746543 
83.0000311017741 0.623181935483871 
84.0000311017741 0.6228472811059909 
85.0000311017741 0.6118635023041474 
86.0000311017741 0.6093275576036867 
87.0000311017741 0.5960678341013824 
88.0000311017741 0.5945956682027651 
89.0000311017741 0.5931034101382489 
90.0000311017741 0.5920009216589861 
91.0000311017741 0.5923601843317973 
92.0000311017741 0.5893572350230415 
93.0000311017741 0.5835233179723502 
94.0000311017741 0.5800670967741934 
95.0000311017741 0.5779782488479264 
96.0000311017741 0.57210866359447 
97.0000311017741 0.5664905069124424 
98.0000311017741 0.5653743778801844 
99.0000311017741 0.5623931797235022 
100.0000311017741 0.5522190783410138 
101.0000311017741 0.5507533640552996 
102.0000311017741 0.5472804608294931 
103.0000311017741 0.540338064516129 
104.0000311017741 0.5336381566820275 
105.0000311017741 0.5304463594470047 
106.0000311017741 0.524398064516129 
107.0000311017741 0.513527465437788 
108.0000311017741 0.5155688479262673 
109.0000311017741 0.5314706912442396 
110.0000311017741 0.5223928110599079 
111.0000311017741 0.5556080184331798 
112.0000311017741 0.5488974193548387 
113.0000311017741 0.5679330875576037 
114.0000311017741 0.6053557603686637 
115.0000311017741 0.6111411981566819 
116.0000311017741 0.6014485714285717 
117.0000311017741 0.6628324423963134 
118.0000311017741 0.6505952073732718 
119.0000311017741 0.6596514285714288 
120.0000311017741 0.6941297695852534 
121.0000311017741 0.7272839631336404 
122.0000311017741 0.6995427649769586 
123.0000311017741 0.7182170506912442 
124.0000311017741 0.7713317050691243 
125.0000311017741 0.7046746543778805 
126.0000311017741 0.6853881105990781 
127.0000311017741 0.680787281105991 
128.00003110177408 0.7299591705069125 
129.00003110177408 0.6387689400921657 
130.00003110177408 0.6882138248847925 
131.00003110177408 0.6687905990783412 
132.00003110177408 0.6863202764976959 
133.00003110177408 0.6562158525345623 
134.00003110177408 0.6872662672811056 
135.00003110177408 0.658514838709678 
136.00003110177408 0.6544475576036868 
137.00003110177408 0.713432165898617 
138.00003110177408 0.6379481105990781 
139.00003110177408 0.7359090322580644 
140.00003110177408 0.6183999078341024 
141.00003110177408 0.7297343778801834 
142.00003110177408 0.6884535483870962 
143.00003110177408 0.6144786175115204 
144.00003110177408 0.5743883870967738 
145.00003110177408 0.5332389861751154 
146.00003110177408 0.555559723502304 
147.00003110177408 0.5203504147465434 
148.00003110177408 0.5272435944700459 
149.00003110177408 0.5356054377880191 
150.00003110177408 0.49424175115207386 
151.00003110177408 0.5023748387096778 
152.00003110177408 0.48850331797235 
153.00003110177408 0.4746921658986175 
154.00003110177408 0.4889142857142853 
155.00003110177408 0.4822536405529954 
156.00003110177408 0.4756546543778804 
157.00003110177408 0.46883410138248854 
158.00003110177408 0.46211622119815665 
159.00003110177408 0.46210359447004606 
160.00003110177408 0.46205382488479263 
161.00003110177408 0.4622142857142857 
162.00003110177408 0.4622144700460829 
163.00003110177408 0.46228875576036865 
164.00003110177408 0.462350599078341 
165.00003110177408 0.462301198156682 
166.00003110177408 0.4623258986175115 
167.00003110177408 0.462350599078341 
168.00003110177408 0.4623752995391705 
169.00003110177408 0.4624 
170.00003110177408 0.4624 
171.00003110177408 0.4624 
172.00003110177408 0.4624 
173.00003110177408 0.4624 
174.00003110177408 0.4624 
175.00003110177408 0.4624 
176.00003110177408 0.4624 
177.00003110177408 0.4624 
178.00003110177408 0.4624 
179.00003110177408 0.4624 
180.00003110177408 0.4624 
181.00003110177408 0.4624 
182.00003110177408 0.4624 
183.00003110177408 0.4624 
184.00003110177408 0.4624 
185.00003110177408 0.4624 
186.00003110177408 0.4624 
187.00003110177408 0.4624 
188.00003110177408 0.4624 
189.00003110177408 0.4624 
190.00003110177408 0.4624 
191.00003110177408 0.4624 
192.00003110177408 0.4624 
193.00003110177408 0.4624 
194.00003110177408 0.4624 
195.00003110177408 0.4624 
196.00003110177408 0.4624 
197.00003110177408 0.4624 
198.00003110177408 0.4624 
199.00003110177408 0.4624 
200.00003110177408 0.4624 
201.00003110177408 0.4624 
202.00003110177408 0.4624 
203.00003110177408 0.4624 
204.00003110177408 0.4624 
205.00003110177408 0.4624 
206.00003110177408 0.4624 
207.00003110177408 0.4624 
208.00003110177408 0.4624 
209.00003110177408 0.4624 
210.00003110177408 0.4624 
211.00003110177408 0.4624 
212.00003110177408 0.4624 
213.00003110177408 0.4624 
214.00003110177408 0.4624 
215.00003110177408 0.4624 
216.00003110177408 0.4624 
217.00003110177408 0.4624 
218.00003110177408 0.4624 
219.00003110177408 0.4624 
220.00003110177408 0.4624 
221.00003110177408 0.4624 
222.00003110177408 0.4624 
223.00003110177408 0.4624 
224.00003110177408 0.4624 
225.00003110177408 0.4624 
226.00003110177408 0.4624 
227.00003110177408 0.4624 
228.00003110177408 0.4624 
229.00003110177408 0.4624 
230.00003110177408 0.4624 
231.00003110177408 0.4624 
232.00003110177408 0.4624 
233.00003110177408 0.4624 
234.00003110177408 0.4624 
235.00003110177408 0.4624 
236.00003110177408 0.4624 
237.00003110177408 0.4624 
238.00003110177408 0.4624 
239.00003110177408 0.4624 
#####################################################################
# End of data export. Simulation finished at: 2017-05-23T12:17+0000 #
#####################################################################
