#####################################################################
# Alchemist log file - simulation started at: 2017-05-23T00:54+0000 #
#####################################################################
# random = 4.0, targets = 100.0, density = 2.519842099789746, gridShift = 0.0, perturbation = 0.0, connfactor = 0.75
#
# The columns have the following meaning: 
# time se[Mean] 
0.0 NaN 
1.0022337669741583 NaN 
2.0022337669741583 1.0110934256055364 
3.0022337669741583 1.017740309015763 
4.002233766974158 1.0269592392349096 
5.002233766974158 1.036207170319108 
6.002233766974158 1.04423361207228 
7.002233766974158 1.0570570093233371 
8.002233766974157 1.0529285515186466 
9.002233766974157 1.0519219579008074 
10.002233766974157 1.0400261149557863 
11.002233766974157 1.0354468665897731 
12.002233766974157 1.0212541714725105 
13.002233766974157 1.0151979743367936 
14.002233766974157 1.0096023332372164 
15.002233766974157 1.0035071342752788 
16.002233766974157 1.0000918829296426 
17.002233766974157 0.9961076581122645 
18.002233766974157 0.9947029147443291 
19.002233766974157 0.9898311442714341 
20.002233766974157 0.9869741541714725 
21.002233766974157 0.9815970444059976 
22.002233766974157 0.9812003388119954 
23.002233766974157 0.973717983467897 
24.002233766974157 0.9739991037101114 
25.002233766974157 0.9689781093810073 
26.002233766974157 0.9633463259323336 
27.002233766974157 0.9642526336024605 
28.002233766974157 0.9556625240292195 
29.002233766974157 0.9570703503460207 
30.002233766974157 0.9504540128796616 
31.002233766974157 0.9478565888119953 
32.00223376697416 0.9428189109957708 
33.00223376697416 0.9383926903114186 
34.00223376697416 0.9367801278354478 
35.00223376697416 0.9312923899461745 
36.00223376697416 0.9296075427720107 
37.00223376697416 0.9264956194732794 
38.00223376697416 0.9262022491349481 
39.00223376697416 0.9230664816416763 
40.00223376697416 0.9220146289888503 
41.00223376697416 0.9221235870818916 
42.00223376697416 0.9191105055747789 
43.00223376697416 0.9198895160515186 
44.00223376697416 0.9170348399653979 
45.00223376697416 0.9159939638600538 
46.00223376697416 0.913708196366782 
47.00223376697416 0.9082386702229912 
48.00223376697416 0.909072085255671 
49.00223376697416 0.9051608395809304 
50.00223376697416 0.9025504998077662 
51.00223376697416 0.9030746371587851 
52.00223376697416 0.9003464244521338 
53.00223376697416 0.8986668252595156 
54.00223376697416 0.8972891460015379 
55.00223376697416 0.8921436346597462 
56.00223376697416 0.8931847029988467 
57.00223376697416 0.8945957804690504 
58.00223376697416 0.8801647395232602 
59.00223376697416 0.8798161812764321 
60.00223376697416 0.867540777585544 
61.00223376697416 0.8568625672818146 
62.00223376697416 0.8432681468665897 
63.00223376697416 0.8350170535371011 
64.00223376697416 0.8181475946751249 
65.00223376697416 0.8048562259707804 
66.00223376697416 0.7916088451557093 
67.00223376697416 0.7709701028450595 
68.00223376697416 0.7650625720876585 
69.00223376697416 0.7456153787004998 
70.00223376697416 0.7394037101114955 
71.00223376697416 0.7269431540753557 
72.00223376697416 0.721540921760861 
73.00223376697416 0.7088040345059592 
74.00223376697416 0.6923507064590542 
75.00223376697416 0.6863056276432141 
76.00223376697416 0.6784359741445598 
77.00223376697416 0.6645309472318339 
78.00223376697416 0.6554713427527874 
79.00223376697416 0.6520561875240292 
80.00223376697416 0.6435356305267205 
81.00223376697416 0.6433715277777777 
82.00223376697416 0.6452068867743176 
83.00223376697416 0.6484918949442522 
84.00223376697416 0.6495558535178777 
85.00223376697416 0.6515755959246444 
86.00223376697416 0.6507355127835448 
87.00223376697416 0.6495211961745482 
88.00223376697416 0.6489702542291427 
89.00223376697416 0.6479225225874664 
90.00223376697416 0.6453281598423684 
91.00223376697416 0.643715210495963 
92.00223376697416 0.6422930387351019 
93.00223376697416 0.6413511485966936 
94.00223376697416 0.6408834606881968 
95.00223376697416 0.640647279892349 
96.00223376697416 0.6403834895232603 
97.00223376697416 0.6401938725490196 
98.00223376697416 0.6401061683006536 
99.00223376697416 0.6400646241830066 
100.00223376697416 0.6400230800653595 
101.00223376697416 0.64 
102.00223376697416 0.64 
103.00223376697416 0.64 
104.00223376697416 0.64 
105.00223376697416 0.64 
106.00223376697416 0.64 
107.00223376697416 0.64 
108.00223376697416 0.64 
109.00223376697416 0.64 
110.00223376697416 0.64 
111.00223376697416 0.64 
112.00223376697416 0.64 
113.00223376697416 0.64 
114.00223376697416 0.64 
115.00223376697416 0.64 
116.00223376697416 0.64 
117.00223376697416 0.64 
118.00223376697416 0.64 
119.00223376697416 0.64 
120.00223376697416 0.64 
121.00223376697416 0.64 
122.00223376697416 0.64 
123.00223376697416 0.64 
124.00223376697416 0.64 
125.00223376697416 0.64 
126.00223376697416 0.64 
127.00223376697416 0.64 
128.00223376697414 0.64 
129.00223376697414 0.64 
130.00223376697414 0.64 
131.00223376697414 0.64 
132.00223376697414 0.64 
133.00223376697414 0.64 
134.00223376697414 0.64 
135.00223376697414 0.64 
136.00223376697414 0.64 
137.00223376697414 0.64 
#####################################################################
# End of data export. Simulation finished at: 2017-05-23T00:57+0000 #
#####################################################################
