0.000000000000000000e+00 nan
1.000345039073923692e+00 5.698416524119099824e-01
2.000690078147847384e+00 9.640010830288585630e-01
3.001035117221768633e+00 9.644622004043038599e-01
4.001380156295694768e+00 9.525660202960612999e-01
5.001725195369615129e+00 9.254872943988888823e-01
6.002070234443537267e+00 8.853895205539120683e-01
7.002415273517462069e+00 8.519680784810931273e-01
8.002760312591389535e+00 8.045502604929201107e-01
9.003105351665309897e+00 7.786022047800750245e-01
1.000345039073923026e+01 7.401925505915315506e-01
1.100379542981315240e+01 7.301110551128022763e-01
1.200414046888707453e+01 7.224414430668931741e-01
1.300448550796099845e+01 7.095303464361365497e-01
1.400483054703492414e+01 7.155637887054633328e-01
1.500517558610884450e+01 7.174456843849417176e-01
1.600552062518277907e+01 7.152510323183770558e-01
1.700586566425669943e+01 7.174816611572812919e-01
1.800621070333061979e+01 7.171454883067002184e-01
1.900655574240454015e+01 7.187025005712073256e-01
2.000690078147846052e+01 7.187025005712073256e-01
2.100724582055238443e+01 7.187025005712073256e-01
2.200759085962630479e+01 7.187025005712073256e-01
2.300793589870022871e+01 7.187025005712073256e-01
2.400828093777414907e+01 7.187025005712073256e-01
2.500862597684806943e+01 7.187025005712073256e-01
