#####################################################################
# Alchemist log file - simulation started at: 2017-05-21T14:58+0000 #
#####################################################################
# random = 2.0, targets = 100.0, density = 0.6332893950589894, gridShift = 0.0, perturbation = 0.5, connfactor = 1.0
#
# The columns have the following meaning: 
# time se[Mean] 
0.0 NaN 
1.003288451303821 NaN 
2.003288451303821 1.063041975308642 
3.003288451303821 1.0855730538408779 
4.0032884513038205 1.0927897205075445 
5.0032884513038205 1.1244288237311386 
6.0032884513038205 1.106221579218107 
7.0032884513038205 1.159138434499314 
8.00328845130382 1.2218349194101508 
9.00328845130382 1.348890329218107 
10.00328845130382 1.4653560442386833 
11.00328845130382 1.469114814814815 
12.00328845130382 1.5181539780521263 
13.00328845130382 1.592547925240055 
14.00328845130382 1.567832133058985 
15.00328845130382 1.8372804955418383 
16.00328845130382 1.7165862997256518 
17.00328845130382 1.6625426954732514 
18.00328845130382 1.9603564557613173 
19.00328845130382 2.020557767489712 
20.00328845130382 2.1040215877914954 
21.00328845130382 1.8143683299039781 
22.00328845130382 2.006207073045268 
23.00328845130382 2.0574912037037034 
24.00328845130382 2.1393622685185183 
25.00328845130382 1.9089688014403292 
26.00328845130382 1.8968658436213992 
27.00328845130382 2.1191946759259257 
28.00328845130382 2.149314514746228 
29.00328845130382 2.0814431069958848 
30.00328845130382 1.95398487654321 
31.00328845130382 1.9530643775720167 
32.00328845130382 2.0639831447187933 
33.00328845130382 2.0956720078875173 
34.00328845130382 2.0943198045267493 
35.00328845130382 2.219372033607682 
36.00328845130382 2.375653112139918 
37.00328845130382 2.441850420096022 
38.00328845130382 2.9309702417695473 
39.00328845130382 2.4507106052812073 
40.00328845130382 4.477671510631001 
41.00328845130382 5.001991426611798 
42.00328845130382 3.5250416752400553 
43.00328845130382 6.066126551783265 
44.00328845130382 7.095570867626887 
45.00328845130382 6.658937577160494 
46.00328845130382 4.676202203360769 
47.00328845130382 8.166743552812072 
48.00328845130382 7.669178429355282 
49.00328845130382 8.183258153292181 
50.00328845130382 5.186360339506173 
51.00328845130382 4.190979415294925 
52.00328845130382 3.1816883487654324 
53.00328845130382 2.687399408436214 
54.00328845130382 2.691437662894376 
55.00328845130382 2.692885048010974 
56.00328845130382 2.6954283950617284 
57.00328845130382 2.6923105624142663 
58.00328845130382 2.6912263374485597 
59.00328845130382 2.690142112482853 
60.00328845130382 2.6896 
61.00328845130382 2.6896 
62.00328845130382 2.6896 
63.00328845130382 2.6896 
64.00328845130382 2.6896 
65.00328845130382 2.6896 
66.00328845130382 2.6896 
67.00328845130382 2.6896 
68.00328845130382 2.6896 
69.00328845130382 2.6896 
70.00328845130382 2.6896 
71.00328845130382 2.6896 
72.00328845130382 2.6896 
73.00328845130382 2.6896 
74.00328845130382 2.6896 
75.00328845130382 2.6896 
76.00328845130382 2.6896 
77.00328845130382 2.6896 
78.00328845130382 2.6896 
#####################################################################
# End of data export. Simulation finished at: 2017-05-21T14:59+0000 #
#####################################################################
