#####################################################################
# Alchemist log file - simulation started at: 2017-05-22T23:02+0000 #
#####################################################################
# random = 10.0, targets = 3.1622776601683795, density = 0.6332893950589894, gridShift = 1.0, perturbation = 0.0, connfactor = 1.0
#
# The columns have the following meaning: 
# time se[Mean] 
0.0 NaN 
1.0036005446229952 NaN 
2.003600544622995 1.0 
3.003600544622995 1.0049025307335204 
4.003600544622995 1.0172027155266743 
5.003600544622995 1.0237134356477244 
6.003600544622995 1.017283950617284 
7.003600544622995 1.0310071396127822 
8.003600544622994 0.9282944483647577 
9.003600544622994 0.9470631101756944 
10.003600544622994 0.8470014887993996 
11.003600544622994 0.8110918398568504 
12.003600544622994 0.7778592697134281 
13.003600544622994 0.7090776676500529 
14.003600544622994 0.687586475628304 
15.003600544622994 0.6469237616697553 
16.003600544622994 0.6125183520201601 
17.003600544622994 0.6065761919183642 
18.003600544622994 0.5877945470474824 
19.003600544622994 0.5789251648541414 
20.003600544622994 0.5801629838713005 
21.003600544622994 0.5708647540284522 
22.003600544622994 0.5676938694725847 
23.003600544622994 0.570984959702651 
24.003600544622994 0.6073396904705776 
25.003600544622994 0.6162675499430555 
26.003600544622994 0.6677099752259343 
27.003600544622994 0.6917352825611386 
28.003600544622994 0.7361244366311105 
29.003600544622994 0.7464070696790218 
30.003600544622994 0.790360873867637 
31.003600544622994 0.7861016146083777 
32.003600544623 0.8288598428831008 
33.003600544623 0.8075895555142018 
34.003600544623 0.8362704800026795 
35.003600544623 0.8203445754805069 
36.003600544623 0.8166960979400156 
37.003600544623 0.789883280883013 
38.003600544623 0.760796245152747 
39.003600544623 0.7467709164137895 
40.003600544623 0.6796657557686083 
41.003600544623 0.6536001602804424 
42.003600544623 0.6159231456925756 
43.003600544623 0.5647373873377177 
44.003600544623 0.5247504346089231 
45.003600544623 0.4448707901093957 
46.003600544623 0.41325939241344806 
47.003600544623 0.374438776958977 
48.003600544623 0.30004970850401863 
49.003600544623 0.7112779454034309 
50.003600544623 0.2248841584369017 
51.003600544623 1.5124772433158216 
52.003600544623 1.4589815040125291 
53.003600544623 1.0623181526730474 
54.003600544623 2.332935886102485 
55.003600544623 2.2922341587528408 
56.003600544623 1.4733744442922605 
57.003600544623 1.8950087924334604 
58.003600544623 1.8302102117945154 
59.003600544623 3.9903311880038363 
60.003600544623 2.2640311269015343 
61.003600544623 1.5202461238959606 
62.003600544623 2.2770299163509287 
63.003600544623 0.5078382884134863 
64.003600544623 0.12534635199203736 
65.003600544623 0.027393013954328208 
66.003600544623 0.0029063050028632284 
67.003600544623 0.002815337968232964 
68.003600544623 0.0026334038989724354 
69.003600544623 0.0026334038989724354 
70.003600544623 0.0026334038989724354 
71.003600544623 0.0026334038989724354 
72.003600544623 0.0026334038989724354 
73.003600544623 0.0026334038989724354 
74.003600544623 0.0026334038989724354 
75.003600544623 0.0026334038989724354 
76.003600544623 0.0026334038989724354 
77.003600544623 0.0026334038989724354 
78.003600544623 0.0026334038989724354 
79.003600544623 0.0026334038989724354 
80.003600544623 0.0026334038989724354 
81.003600544623 0.0026334038989724354 
82.003600544623 0.0026334038989724354 
83.003600544623 0.0026334038989724354 
#####################################################################
# End of data export. Simulation finished at: 2017-05-22T23:02+0000 #
#####################################################################
