0.000000000000000000e+00 nan
2.220446049250313081e-16 1.713681653514875780e-04
4.440892098500626162e-16 1.753875801110612864e-01
0.000000000000000000e+00 1.771140831260712978e-01
8.881784197001252323e-16 1.785649131605432094e-01
8.881784197001252323e-16 1.786482460307069198e-01
0.000000000000000000e+00 1.771424147160364782e-01
0.000000000000000000e+00 1.778750028648339032e-01
1.776356839400250465e-15 1.797463302286930742e-01
5.329070518200751394e-15 1.783212865867899177e-01
1.776356839400250465e-15 1.786042115175728584e-01
0.000000000000000000e+00 1.770616103003156971e-01
0.000000000000000000e+00 1.765994565059382237e-01
1.776356839400250465e-15 1.779232204558792441e-01
0.000000000000000000e+00 1.788384377172570761e-01
3.552713678800500929e-15 1.821441730218599786e-01
3.552713678800500929e-15 1.818908285605012609e-01
1.065814103640150279e-14 1.851794330676604095e-01
1.065814103640150279e-14 1.872319537104193687e-01
3.552713678800500929e-15 1.878075147991606353e-01
3.552713678800500929e-15 1.946972027262003635e-01
7.105427357601001859e-15 1.964340765438354341e-01
0.000000000000000000e+00 2.035215700993268650e-01
1.421085471520200372e-14 1.989399898459510985e-01
0.000000000000000000e+00 1.995996025598515689e-01
1.065814103640150279e-14 1.995805113253404650e-01
3.552713678800500929e-15 1.972922578443496722e-01
3.552713678800500929e-15 1.978863794776749840e-01
0.000000000000000000e+00 1.917575695896020505e-01
1.065814103640150279e-14 1.913624494444929602e-01
7.105427357601001859e-15 1.918909060828002666e-01
3.552713678800500929e-15 1.912106184907575168e-01
7.105427357601001859e-15 1.878276973271172379e-01
0.000000000000000000e+00 1.830578455324750886e-01
2.131628207280300558e-14 1.770428961028566173e-01
1.421085471520200372e-14 1.726232842144629076e-01
2.131628207280300558e-14 1.753538846100199111e-01
0.000000000000000000e+00 1.695046492279758954e-01
7.105427357601001859e-15 1.695648734467573304e-01
2.131628207280300558e-14 1.711698425711083438e-01
7.105427357601001859e-15 1.754456165315331773e-01
7.105427357601001859e-15 1.741622975479331648e-01
1.421085471520200372e-14 1.797671842053353841e-01
7.105427357601001859e-15 1.850132858428370775e-01
0.000000000000000000e+00 1.928430419922793626e-01
1.421085471520200372e-14 1.901200728250976024e-01
2.842170943040400743e-14 1.822949778414407751e-01
2.131628207280300558e-14 1.711425364212141309e-01
0.000000000000000000e+00 1.756268975969066670e-01
7.105427357601001859e-15 1.745053487949867477e-01
2.131628207280300558e-14 1.680777727323710946e-01
7.105427357601001859e-15 1.710829482991537698e-01
7.105427357601001859e-15 1.690216395564227148e-01
2.131628207280300558e-14 1.689606213063258311e-01
7.105427357601001859e-15 1.699670935213075662e-01
1.421085471520200372e-14 1.702852830493830349e-01
0.000000000000000000e+00 1.707242807146439334e-01
3.552713678800500929e-14 1.706692255795202728e-01
2.131628207280300558e-14 1.705977850083994218e-01
0.000000000000000000e+00 1.705478785241510142e-01
1.421085471520200372e-14 1.705298459478200301e-01
0.000000000000000000e+00 1.705243107280515480e-01
7.105427357601001859e-15 1.705243107280515480e-01
1.421085471520200372e-14 1.705243107280515480e-01
1.421085471520200372e-14 1.705243107280515480e-01
2.842170943040400743e-14 1.705243107280515480e-01
0.000000000000000000e+00 1.705243107280515480e-01
1.421085471520200372e-14 1.705243107280515480e-01
4.263256414560601115e-14 1.705243107280515480e-01
1.421085471520200372e-14 1.705243107280515480e-01
2.842170943040400743e-14 1.705243107280515480e-01
1.421085471520200372e-14 1.705243107280515480e-01
4.263256414560601115e-14 1.705243107280515480e-01
0.000000000000000000e+00 1.705243107280515480e-01
0.000000000000000000e+00 1.705243107280515480e-01
2.842170943040400743e-14 1.705243107280515480e-01
1.421085471520200372e-14 1.705243107280515480e-01
