#####################################################################
# Alchemist log file - simulation started at: 2017-05-23T23:19+0000 #
#####################################################################
# random = 6.0, targets = 1.0, density = 14.160781367816199, gridShift = 1.0, perturbation = 0.0, connfactor = 0.25
#
# The columns have the following meaning: 
# time se[Mean] 
0.0 NaN 
1.0010083797655576 NaN 
2.0010083797655573 1.0 
3.0010083797655573 1.0 
4.001008379765557 1.0 
5.001008379765557 1.0 
6.001008379765557 1.0 
7.001008379765557 1.0 
8.001008379765558 1.0 
9.001008379765558 1.0 
10.001008379765558 1.0 
11.001008379765558 1.0 
12.001008379765558 1.0 
13.001008379765558 1.0 
14.001008379765558 1.0 
15.001008379765558 1.0 
16.00100837976556 1.0 
17.00100837976556 1.0 
18.00100837976556 1.0 
19.00100837976556 1.0 
20.00100837976556 1.0 
21.00100837976556 1.0 
22.00100837976556 1.0 
23.00100837976556 1.0 
24.00100837976556 1.0 
25.00100837976556 1.0 
26.00100837976556 1.0 
27.00100837976556 1.0 
28.00100837976556 1.0 
29.00100837976556 1.0 
30.00100837976556 1.0 
31.00100837976556 1.0 
32.00100837976556 1.0 
33.00100837976556 1.0 
34.00100837976556 1.0 
35.00100837976556 1.0 
36.00100837976556 1.0 
37.00100837976556 1.0 
38.00100837976556 1.0 
39.00100837976556 1.0 
40.00100837976556 1.0 
41.00100837976556 1.0 
42.00100837976556 1.0 
43.00100837976556 1.0 
44.00100837976556 1.0 
45.00100837976556 1.0 
46.00100837976556 1.0 
47.00100837976556 1.0 
48.00100837976556 1.0 
49.00100837976556 1.0 
50.00100837976556 1.0 
51.00100837976556 1.0 
52.00100837976556 1.0 
53.00100837976556 1.0 
54.00100837976556 1.0 
55.00100837976556 1.0 
56.00100837976556 1.0 
57.00100837976556 1.0 
58.00100837976556 1.0 
59.00100837976556 1.0 
60.00100837976556 1.0 
61.00100837976556 1.0 
62.00100837976556 1.0 
63.00100837976556 1.0 
64.00100837976555 1.0 
65.00100837976555 1.0 
66.00100837976555 1.0 
67.00100837976555 1.0 
68.00100837976555 1.0 
69.00100837976555 1.0 
70.00100837976555 1.0 
71.00100837976555 1.0 
72.00100837976555 1.0 
73.00100837976555 1.0 
74.00100837976555 1.0 
75.00100837976555 1.0 
76.00100837976555 1.0 
77.00100837976555 1.0 
78.00100837976555 1.0 
79.00100837976555 1.0 
80.00100837976555 1.0 
81.00100837976555 1.0 
82.00100837976555 1.0 
83.00100837976555 1.0 
84.00100837976555 1.0 
#####################################################################
# End of data export. Simulation finished at: 2017-05-23T23:21+0000 #
#####################################################################
