#####################################################################
# Alchemist log file - simulation started at: 2017-05-24T16:10+0000 #
#####################################################################
# random = 15.0, targets = 10.0, density = 7.099073319511142, gridShift = 0.0, perturbation = 0.5, connfactor = 0.5
#
# The columns have the following meaning: 
# time se[Mean] 
0.0 NaN 
1.0001976518064393 NaN 
2.000197651806439 1.0 
3.000197651806439 0.9995089285714286 
4.000197651806439 0.9974713010204082 
5.000197651806439 0.9948660714285714 
6.000197651806439 0.9891772959183673 
7.000197651806439 0.9857557397959184 
8.000197651806438 0.982608418367347 
9.000197651806438 0.9784343112244899 
10.000197651806438 0.9702614795918367 
11.000197651806438 0.9637181122448979 
12.000197651806438 0.9534470663265306 
13.000197651806438 0.943734056122449 
14.000197651806438 0.939579081632653 
15.000197651806438 0.9328667091836734 
16.000197651806438 0.9280739795918368 
17.000197651806438 0.9230165816326531 
18.000197651806438 0.9131919642857144 
19.000197651806438 0.9045535714285714 
20.000197651806438 0.8938584183673469 
21.000197651806438 0.8840433673469389 
22.000197651806438 0.8669738520408163 
23.000197651806438 0.8552104591836736 
24.000197651806438 0.8360459183673469 
25.000197651806438 0.8199426020408163 
26.000197651806438 0.7987755102040817 
27.000197651806438 0.7768399234693878 
28.000197651806438 0.7678794642857144 
29.000197651806438 0.7484725765306122 
30.000197651806438 0.7396588010204079 
31.000197651806438 0.7252551020408164 
32.00019765180644 0.7183450255102038 
33.00019765180644 0.7033737244897957 
34.00019765180644 0.6952359693877551 
35.00019765180644 0.6843718112244898 
36.00019765180644 0.6794323979591838 
37.00019765180644 0.676702806122449 
38.00019765180644 0.6749394132653062 
39.00019765180644 0.6751690051020407 
40.00019765180644 0.6755548469387757 
41.00019765180644 0.6712436224489795 
42.00019765180644 0.6711383928571427 
43.00019765180644 0.6691932397959185 
44.00019765180644 0.6666198979591836 
45.00019765180644 0.6583514030612245 
46.00019765180644 0.6555516581632652 
47.00019765180644 0.6513201530612244 
48.00019765180644 0.6441677295918369 
49.00019765180644 0.6429177295918367 
50.00019765180644 0.6375000000000001 
51.00019765180644 0.6375255102040817 
52.00019765180644 0.6269323979591838 
53.00019765180644 0.6295758928571429 
54.00019765180644 0.620216836734694 
55.00019765180644 0.6199936224489797 
56.00019765180644 0.618890306122449 
57.00019765180644 0.614575892857143 
58.00019765180644 0.6175637755102042 
59.00019765180644 0.6129719387755103 
60.00019765180644 0.6112531887755102 
61.00019765180644 0.6092761479591837 
62.00019765180644 0.6076498724489796 
63.00019765180644 0.605184948979592 
64.00019765180645 0.6097002551020408 
65.00019765180645 0.6016613520408163 
66.00019765180645 0.603922193877551 
67.00019765180645 0.6036702806122449 
68.00019765180645 0.6133992346938772 
69.00019765180645 0.6115529336734695 
70.00019765180645 0.6199043367346934 
71.00019765180645 0.6299521683673471 
72.00019765180645 0.6203380102040815 
73.00019765180645 0.6323852040816325 
74.00019765180645 0.6251626275510206 
75.00019765180645 0.6383322704081632 
76.00019765180645 0.6199840561224491 
77.00019765180645 0.6290497448979591 
78.00019765180645 0.6174107142857141 
79.00019765180645 0.6377232142857142 
80.00019765180645 0.7467410714285719 
81.00019765180645 0.7483832908163272 
82.00019765180645 0.933485331632653 
83.00019765180645 1.0417219387755123 
84.00019765180645 1.087605229591837 
85.00019765180645 1.2002264030612246 
86.00019765180645 1.1281473214285733 
87.00019765180645 1.3133386479591835 
88.00019765180645 1.2011383928571415 
89.00019765180645 1.413501275510202 
90.00019765180645 1.3322544642857126 
91.00019765180645 1.437554209183674 
92.00019765180645 1.439496173469389 
93.00019765180645 1.2969323979591827 
94.00019765180645 1.3890465561224505 
95.00019765180645 1.2746779336734695 
96.00019765180645 1.3171492346938785 
97.00019765180645 1.3591677295918367 
98.00019765180645 1.2905165816326536 
99.00019765180645 1.2324489795918365 
100.00019765180645 1.6001020408163262 
101.00019765180645 1.4671045918367345 
102.00019765180645 1.8210267857142854 
103.00019765180645 1.8897735969387766 
104.00019765180645 1.8799904336734692 
105.00019765180645 1.9782174744897962 
106.00019765180645 1.9190114795918372 
107.00019765180645 2.4683832908163272 
108.00019765180645 1.9977295918367344 
109.00019765180645 2.2787978316326525 
110.00019765180645 2.016798469387753 
111.00019765180645 2.056281887755102 
112.00019765180645 2.194323979591835 
113.00019765180645 1.78921237244898 
114.00019765180645 2.044681122448979 
115.00019765180645 1.6378507653061207 
116.00019765180645 1.680883290816327 
117.00019765180645 1.6003890306122484 
118.00019765180645 1.3839253826530613 
119.00019765180645 1.226766581632653 
120.00019765180645 2.260242346938783 
121.00019765180645 2.0860427295918336 
122.00019765180645 2.852334183673459 
123.00019765180645 3.3678985969387822 
124.00019765180645 3.230956632653077 
125.00019765180645 3.63271683673468 
126.00019765180645 3.463236607142847 
127.00019765180645 4.820267857142847 
128.00019765180645 3.6785873724489733 
129.00019765180645 4.55881058673471 
130.00019765180645 4.276342474489797 
131.00019765180645 4.551084183673469 
132.00019765180645 4.782965561224481 
133.00019765180645 3.7341581632653065 
134.00019765180645 4.448906249999993 
135.00019765180645 3.7109024234693795 
136.00019765180645 4.021399872448974 
137.00019765180645 4.197611607142849 
138.00019765180645 3.6233482142857154 
139.00019765180645 3.0064062499999933 
140.00019765180645 4.497324617346932 
141.00019765180645 3.907675382653058 
142.00019765180645 4.000972576530616 
143.00019765180645 3.9192283163265182 
144.00019765180645 4.016600765306124 
145.00019765180645 4.022110969387743 
146.00019765180645 4.288341836734679 
147.00019765180645 5.559237882653058 
148.00019765180645 3.8311128826530405 
149.00019765180645 3.534920280612261 
150.00019765180645 3.3929528061224787 
151.00019765180645 3.4419834183673728 
152.00019765180645 3.9363073979592222 
153.00019765180645 3.096760204081621 
154.00019765180645 3.1406664540816487 
155.00019765180645 2.004926658163266 
156.00019765180645 1.9436383928571592 
157.00019765180645 1.2092857142857216 
158.00019765180645 0.8763201530612308 
159.00019765180645 0.34522321428571734 
160.00019765180645 0.7588679846938726 
161.00019765180645 0.567869897959194 
162.00019765180645 0.012257653061224397 
163.00019765180645 0.14196747448979877 
164.00019765180645 0.0 
165.00019765180645 0.0 
166.00019765180645 0.0 
167.00019765180645 0.0 
168.00019765180645 0.0 
169.00019765180645 0.0 
170.00019765180645 0.0 
171.00019765180645 0.0 
172.00019765180645 0.0 
173.00019765180645 0.0 
174.00019765180645 0.0 
175.00019765180645 0.0 
176.00019765180645 0.0 
177.00019765180645 0.0 
178.00019765180645 0.0 
179.00019765180645 0.0 
180.00019765180645 0.0 
181.00019765180645 0.0 
182.00019765180645 0.0 
183.00019765180645 0.0 
184.00019765180645 0.0 
185.00019765180645 0.0 
186.00019765180645 0.0 
187.00019765180645 0.0 
188.00019765180645 0.0 
189.00019765180645 0.0 
190.00019765180645 0.0 
191.00019765180645 0.0 
192.00019765180645 0.0 
193.00019765180645 0.0 
194.00019765180645 0.0 
195.00019765180645 0.0 
196.00019765180645 0.0 
197.00019765180645 0.0 
198.00019765180645 0.0 
199.00019765180645 0.0 
200.00019765180645 0.0 
201.00019765180645 0.0 
202.00019765180645 0.0 
203.00019765180645 0.0 
204.00019765180645 0.0 
205.00019765180645 0.0 
206.00019765180645 0.0 
207.00019765180645 0.0 
208.00019765180645 0.0 
209.00019765180645 0.0 
210.00019765180645 0.0 
211.00019765180645 0.0 
212.00019765180645 0.0 
213.00019765180645 0.0 
214.00019765180645 0.0 
215.00019765180645 0.0 
216.00019765180645 0.0 
217.00019765180645 0.0 
218.00019765180645 0.0 
219.00019765180645 0.0 
220.00019765180645 0.0 
221.00019765180645 0.0 
222.00019765180645 0.0 
223.00019765180645 0.0 
224.00019765180645 0.0 
225.00019765180645 0.0 
226.00019765180645 0.0 
#####################################################################
# End of data export. Simulation finished at: 2017-05-24T16:11+0000 #
#####################################################################
