#####################################################################
# Alchemist log file - simulation started at: 2017-05-22T12:22+0000 #
#####################################################################
# random = 4.0, targets = 1.0, density = 0.04, gridShift = 0.0, perturbation = 0.5, connfactor = 1.0
#
# The columns have the following meaning: 
# time se[Mean] 
0.0 NaN 
1.1124924963623202 NaN 
2.11249249636232 1.46875 
3.11249249636232 1.390625 
4.11249249636232 2.048611111111111 
5.11249249636232 1.5243055555555556 
6.11249249636232 1.626736111111111 
7.11249249636232 0.8819444444444443 
8.11249249636232 0.34027777777777773 
9.11249249636232 0.5208333333333333 
10.11249249636232 0.041666666666666644 
11.11249249636232 0.01388888888888886 
12.11249249636232 0.020833333333333297 
13.11249249636232 1.232595164407831E-32 
14.11249249636232 1.232595164407831E-32 
#####################################################################
# End of data export. Simulation finished at: 2017-05-22T12:22+0000 #
#####################################################################
