#####################################################################
# Alchemist log file - simulation started at: 2017-05-23T01:24+0000 #
#####################################################################
# random = 4.0, targets = 100.0, density = 5.0264212595847235, gridShift = 0.0, perturbation = 0.0, connfactor = 0.1
#
# The columns have the following meaning: 
# time se[Mean] 
0.0 NaN 
1.0004793365590676 NaN 
2.0004793365590676 1.0 
3.0004793365590676 1.0 
4.000479336559067 0.9999309027777777 
5.000479336559067 0.9995857638888889 
6.000479336559067 0.9992067708333333 
7.000479336559067 0.9981710069444445 
8.000479336559067 0.9972776041666667 
9.000479336559067 0.9970696180555556 
10.000479336559067 0.9963137152777778 
11.000479336559067 0.9954189236111111 
12.000479336559067 0.9946623263888889 
13.000479336559067 0.993321875 
14.000479336559067 0.9925310763888889 
15.000479336559067 0.9912269097222223 
16.000479336559067 0.9903310763888888 
17.000479336559067 0.9870473958333333 
18.000479336559067 0.9864262152777777 
19.000479336559067 0.9832786458333334 
20.000479336559067 0.9829939236111112 
21.000479336559067 0.9802947916666667 
22.000479336559067 0.9790852430555556 
23.000479336559067 0.9774076388888889 
24.000479336559067 0.976034375 
25.000479336559067 0.9759869791666667 
26.000479336559067 0.9735942708333334 
27.000479336559067 0.9746458333333333 
28.000479336559067 0.9726680555555556 
29.000479336559067 0.9723131944444444 
30.000479336559067 0.9711293402777778 
31.000479336559067 0.970596875 
32.00047933655907 0.969721875 
33.00047933655907 0.9682442708333333 
34.00047933655907 0.9671654513888889 
35.00047933655907 0.9664737847222222 
36.00047933655907 0.9673263888888889 
37.00047933655907 0.9645102430555555 
38.00047933655907 0.9632180555555555 
39.00047933655907 0.9622545138888888 
40.00047933655907 0.9608255208333333 
41.00047933655907 0.9588105902777778 
42.00047933655907 0.9588442708333333 
43.00047933655907 0.9550383680555555 
44.00047933655907 0.9558135416666667 
45.00047933655907 0.9535657986111111 
46.00047933655907 0.9524814236111111 
47.00047933655907 0.953104513888889 
48.00047933655907 0.9509197916666666 
49.00047933655907 0.9509072916666667 
50.00047933655907 0.948203125 
51.00047933655907 0.9493310763888888 
52.00047933655907 0.9442288194444445 
53.00047933655907 0.9436892361111111 
54.00047933655907 0.9412324652777778 
55.00047933655907 0.9406937499999999 
56.00047933655907 0.9397953125 
57.00047933655907 0.9361175347222221 
58.00047933655907 0.935437326388889 
59.00047933655907 0.9363286458333333 
60.00047933655907 0.9343189236111111 
61.00047933655907 0.9344951388888889 
62.00047933655907 0.9314102430555555 
63.00047933655907 0.931589236111111 
64.00047933655907 0.9288798611111111 
65.00047933655907 0.9279480902777778 
66.00047933655907 0.9280585069444445 
67.00047933655907 0.9246883680555555 
68.00047933655907 0.9244192708333332 
69.00047933655907 0.9224369791666666 
70.00047933655907 0.9233633680555556 
71.00047933655907 0.9217749999999999 
72.00047933655907 0.920790625 
73.00047933655907 0.9204989583333334 
74.00047933655907 0.9179630208333333 
75.00047933655907 0.9185196180555556 
76.00047933655907 0.9166022569444444 
77.00047933655907 0.9149803819444444 
78.00047933655907 0.9149585069444445 
79.00047933655907 0.912125173611111 
80.00047933655907 0.912393576388889 
81.00047933655907 0.9120217013888888 
82.00047933655907 0.9099822916666667 
83.00047933655907 0.9103248263888889 
84.00047933655907 0.9087182291666667 
85.00047933655907 0.9088677083333333 
86.00047933655907 0.9076553819444445 
87.00047933655907 0.9064996527777778 
88.00047933655907 0.9061300347222222 
89.00047933655907 0.9045166666666666 
90.00047933655907 0.9040144097222222 
91.00047933655907 0.9025239583333332 
92.00047933655907 0.9012746527777779 
93.00047933655907 0.9003475694444444 
94.00047933655907 0.8992868055555555 
95.00047933655907 0.8977352430555555 
96.00047933655907 0.8963494791666667 
97.00047933655907 0.8949626736111111 
98.00047933655907 0.8935776041666667 
99.00047933655907 0.8921248263888888 
100.00047933655907 0.8906420138888889 
101.00047933655907 0.8893895833333334 
102.00047933655907 0.8881699652777778 
103.00047933655907 0.8871479166666667 
104.00047933655907 0.885996701388889 
105.00047933655907 0.8853732638888889 
106.00047933655907 0.8848144097222223 
107.00047933655907 0.8843546875 
108.00047933655907 0.8839609375 
109.00047933655907 0.8836984375000001 
110.00047933655907 0.883665625 
111.00047933655907 0.8836 
112.00047933655907 0.8836 
113.00047933655907 0.8836 
114.00047933655907 0.8836 
115.00047933655907 0.8836 
116.00047933655907 0.8836 
117.00047933655907 0.8836 
118.00047933655907 0.8836 
119.00047933655907 0.8836 
120.00047933655907 0.8836 
121.00047933655907 0.8836 
122.00047933655907 0.8836 
123.00047933655907 0.8836 
124.00047933655907 0.8836 
125.00047933655907 0.8836 
126.00047933655907 0.8836 
127.00047933655907 0.8836 
128.00047933655907 0.8836 
129.00047933655907 0.8836 
130.00047933655907 0.8836 
131.00047933655907 0.8836 
132.00047933655907 0.8836 
133.00047933655907 0.8836 
134.00047933655907 0.8836 
135.00047933655907 0.8836 
136.00047933655907 0.8836 
137.00047933655907 0.8836 
138.00047933655907 0.8836 
139.00047933655907 0.8836 
140.00047933655907 0.8836 
141.00047933655907 0.8836 
142.00047933655907 0.8836 
143.00047933655907 0.8836 
144.00047933655907 0.8836 
145.00047933655907 0.8836 
146.00047933655907 0.8836 
147.00047933655907 0.8836 
148.00047933655907 0.8836 
149.00047933655907 0.8836 
150.00047933655907 0.8836 
151.00047933655907 0.8836 
152.00047933655907 0.8836 
153.00047933655907 0.8836 
154.00047933655907 0.8836 
155.00047933655907 0.8836 
156.00047933655907 0.8836 
157.00047933655907 0.8836 
158.00047933655907 0.8836 
159.00047933655907 0.8836 
160.00047933655907 0.8836 
161.00047933655907 0.8836 
162.00047933655907 0.8836 
#####################################################################
# End of data export. Simulation finished at: 2017-05-23T01:26+0000 #
#####################################################################
