#####################################################################
# Alchemist log file - simulation started at: 2017-05-24T01:20+0000 #
#####################################################################
# random = 6.0, targets = 3.1622776601683795, density = 10.026386447354522, gridShift = 0.0, perturbation = 0.5, connfactor = 0.25
#
# The columns have the following meaning: 
# time se[Mean] 
0.0 NaN 
1.0010083797655576 NaN 
2.0010083797655573 NaN 
3.0010083797655573 1.0 
4.001008379765557 0.9992057749641254 
5.001008379765557 0.9995110601175081 
6.001008379765557 0.994745709902261 
7.001008379765557 0.9923010104898015 
8.001008379765558 0.9909558212665991 
9.001008379765558 0.9874116116648826 
10.001008379765558 0.9868606474775549 
11.001008379765558 0.9852101731009697 
12.001008379765558 0.9867986231727187 
13.001008379765558 0.9867986231727187 
14.001008379765558 0.985331803525243 
15.001008379765558 0.985331803525243 
16.00100837976556 0.9882654428201945 
17.00100837976556 0.9887543827026862 
18.00100837976556 0.9911990821151458 
19.00100837976556 0.9916880219976378 
20.00100837976556 0.9882654428201945 
21.00100837976556 0.990221202350162 
22.00100837976556 0.9833760439952756 
23.00100837976556 0.9804424047003238 
24.00100837976556 0.9701746671679942 
25.00100837976556 0.956973290340713 
26.00100837976556 0.94328297363094 
27.00100837976556 0.9305705366861511 
28.00100837976556 0.9022120235016204 
29.00100837976556 0.8924332258517823 
30.00100837976556 0.8670083519622045 
31.00100837976556 0.8464728768975444 
32.00100837976556 0.8318046804227871 
33.00100837976556 0.8161038344344068 
34.00100837976556 0.8023039782273514 
35.00100837976556 0.7827463829276764 
36.00100837976556 0.7731279066684876 
37.00100837976556 0.7609785248380185 
38.00100837976556 0.7506947085234255 
39.00100837976556 0.7348883108930346 
40.00100837976556 0.7352234627867246 
41.00100837976556 0.7230426445460757 
42.00100837976556 0.7099846618116535 
43.00100837976556 0.7030154548470955 
44.00100837976556 0.698522383705177 
45.00100837976556 0.6969895518975928 
46.00100837976556 0.6829270893588058 
47.00100837976556 0.677873381287965 
48.00100837976556 0.6671980736611672 
49.00100837976556 0.6515229791966438 
50.00100837976556 0.6415605268176975 
51.00100837976556 0.638630154223669 
52.00100837976556 0.6249510799253631 
53.00100837976556 0.6237589575366151 
54.00100837976556 0.6177821394494316 
55.00100837976556 0.611235011691732 
56.00100837976556 0.6048070961729072 
57.00100837976556 0.59030562712947 
58.00100837976556 0.592350011003657 
59.00100837976556 0.5784300940422034 
60.00100837976556 0.5825406254591639 
61.00100837976556 0.5584785892449253 
62.00100837976556 0.5816352912561353 
63.00100837976556 0.605087478317957 
64.00100837976555 0.6845947457555326 
65.00100837976555 0.678596163999764 
66.00100837976555 0.932700321216348 
67.00100837976555 1.0198131174491092 
68.00100837976555 1.3067721256930627 
69.00100837976555 1.0295742666468064 
70.00100837976555 1.6330631127067163 
71.00100837976555 1.4756299007082858 
72.00100837976555 1.5913646649728372 
73.00100837976555 1.5946334561614826 
74.00100837976555 1.7410812390089232 
75.00100837976555 2.1243076102318446 
76.00100837976555 2.072769910213171 
77.00100837976555 2.182766280868289 
78.00100837976555 2.294691811013987 
79.00100837976555 2.0760685681421207 
80.00100837976555 2.0545930557633287 
81.00100837976555 2.483649321290146 
82.00100837976555 2.1820350560139494 
83.00100837976555 2.397007816487742 
84.00100837976555 2.4257764453133106 
85.00100837976555 2.4570791190499195 
86.00100837976555 2.2650028724410043 
87.00100837976555 2.5387644917129437 
88.00100837976555 2.4892832664954527 
89.00100837976555 2.090096709653338 
90.00100837976555 2.7226360089925588 
91.00100837976555 2.3114901310897547 
92.00100837976555 3.4100638904814726 
93.00100837976555 2.415777126360218 
94.00100837976555 3.647840425259467 
95.00100837976555 3.5132360179347555 
96.00100837976555 3.8549483173072647 
97.00100837976555 3.47799123724357 
98.00100837976555 3.6238856377182906 
99.00100837976555 4.064985733433564 
100.00100837976555 4.019709221502403 
101.00100837976555 4.215564962851035 
102.00100837976555 4.273884227249891 
103.00100837976555 3.8599658799583136 
104.00100837976555 3.6839206674994904 
105.00100837976555 4.601320542614187 
106.00100837976555 3.888880193700959 
107.00100837976555 4.354668974719508 
108.00100837976555 4.399509746846966 
109.00100837976555 4.392657333935864 
110.00100837976555 4.052251660181365 
111.00100837976555 4.403513156952037 
112.00100837976555 3.92937455548028 
113.00100837976555 3.1154657535691115 
114.00100837976555 3.249330705606582 
115.00100837976555 2.108589752597216 
116.00100837976555 3.0579189505375433 
117.00100837976555 2.070822890560806 
118.00100837976555 2.1532105972145703 
119.00100837976555 2.3974625627038426 
120.00100837976555 2.483959952259042 
121.00100837976555 1.7765572326343808 
122.00100837976555 1.3385196611945263 
123.00100837976555 0.6371872203720789 
124.00100837976555 0.723968131412063 
125.00100837976555 0.6322712215077764 
126.00100837976555 0.19273624252578386 
127.00100837976555 0.27533093724711244 
128.00100837976555 0.012033649679124457 
129.00100837976555 0.0970923892961024 
130.00100837976555 0.008167227626235712 
131.00100837976555 0.006325843964345945 
132.00100837976555 0.004789745455838794 
133.00100837976555 0.004174338778276574 
134.00100837976555 0.0033752773716050266 
135.00100837976555 0.003375277371605019 
136.00100837976555 0.0027574525086442605 
137.00100837976555 0.0028815011183161115 
138.00100837976555 0.002633403898972407 
139.00100837976555 0.002695428203808334 
140.00100837976555 0.002633403898972407 
141.00100837976555 0.002633403898972407 
142.00100837976555 0.002633403898972407 
143.00100837976555 0.002633403898972407 
144.00100837976555 0.002633403898972407 
145.00100837976555 0.002633403898972407 
146.00100837976555 0.002633403898972407 
147.00100837976555 0.002633403898972407 
148.00100837976555 0.002633403898972407 
149.00100837976555 0.002633403898972407 
150.00100837976555 0.002633403898972407 
151.00100837976555 0.002633403898972407 
152.00100837976555 0.002633403898972407 
153.00100837976555 0.002633403898972407 
154.00100837976555 0.002633403898972407 
155.00100837976555 0.002633403898972407 
156.00100837976555 0.002633403898972407 
157.00100837976555 0.002633403898972407 
158.00100837976555 0.002633403898972407 
159.00100837976555 0.002633403898972407 
160.00100837976555 0.002633403898972407 
161.00100837976555 0.002633403898972407 
162.00100837976555 0.002633403898972407 
163.00100837976555 0.002633403898972407 
164.00100837976555 0.002633403898972407 
165.00100837976555 0.002633403898972407 
166.00100837976555 0.002633403898972407 
167.00100837976555 0.002633403898972407 
168.00100837976555 0.002633403898972407 
169.00100837976555 0.002633403898972407 
170.00100837976555 0.002633403898972407 
171.00100837976555 0.002633403898972407 
172.00100837976555 0.002633403898972407 
173.00100837976555 0.002633403898972407 
174.00100837976555 0.002633403898972407 
175.00100837976555 0.002633403898972407 
176.00100837976555 0.002633403898972407 
177.00100837976555 0.002633403898972407 
178.00100837976555 0.002633403898972407 
179.00100837976555 0.002633403898972407 
180.00100837976555 0.002633403898972407 
181.00100837976555 0.002633403898972407 
182.00100837976555 0.002633403898972407 
183.00100837976555 0.002633403898972407 
184.00100837976555 0.002633403898972407 
185.00100837976555 0.002633403898972407 
186.00100837976555 0.002633403898972407 
187.00100837976555 0.002633403898972407 
188.00100837976555 0.002633403898972407 
189.00100837976555 0.002633403898972407 
190.00100837976555 0.002633403898972407 
191.00100837976555 0.002633403898972407 
192.00100837976555 0.002633403898972407 
193.00100837976555 0.002633403898972407 
194.00100837976555 0.002633403898972407 
195.00100837976555 0.002633403898972407 
196.00100837976555 0.002633403898972407 
197.00100837976555 0.002633403898972407 
198.00100837976555 0.002633403898972407 
199.00100837976555 0.002633403898972407 
200.00100837976555 0.002633403898972407 
201.00100837976555 0.002633403898972407 
202.00100837976555 0.002633403898972407 
203.00100837976555 0.002633403898972407 
204.00100837976555 0.002633403898972407 
205.00100837976555 0.002633403898972407 
206.00100837976555 0.002633403898972407 
207.00100837976555 0.002633403898972407 
208.00100837976555 0.002633403898972407 
209.00100837976555 0.002633403898972407 
210.00100837976555 0.002633403898972407 
211.00100837976555 0.002633403898972407 
#####################################################################
# End of data export. Simulation finished at: 2017-05-24T01:24+0000 #
#####################################################################
