#####################################################################
# Alchemist log file - simulation started at: 2017-05-25T23:10+0000 #
#####################################################################
# random = 19.0, targets = 10.0, density = 1.7841466528270753, gridShift = 1.0, perturbation = 0.5, connfactor = 1.0
#
# The columns have the following meaning: 
# time se[Mean] 
0.0 NaN 
1.0052006744020683 NaN 
2.0052006744020683 NaN 
3.0052006744020683 1.012822730654762 
4.005200674402069 1.0162366691468254 
5.005200674402069 1.0033838665674604 
6.005200674402069 0.9859325396825397 
7.005200674402069 0.9699941096230159 
8.005200674402069 0.9690172371031746 
9.005200674402069 1.000871775793651 
10.005200674402069 0.9509561011904762 
11.005200674402069 0.963519035218254 
12.005200674402069 0.9596189856150794 
13.005200674402069 0.9354467385912699 
14.005200674402069 0.9179182167658732 
15.005200674402069 0.8846788194444446 
16.00520067440207 0.8792113095238095 
17.00520067440207 0.8492671130952381 
18.00520067440207 0.820128968253968 
19.00520067440207 0.8030679563492065 
20.00520067440207 0.7893030753968255 
21.00520067440207 0.7761507936507938 
22.00520067440207 0.7609176587301587 
23.00520067440207 0.747455357142857 
24.00520067440207 0.7529216269841271 
25.00520067440207 0.7480667162698412 
26.00520067440207 0.7509412202380952 
27.00520067440207 0.7459985739087301 
28.00520067440207 0.7391914682539684 
29.00520067440207 0.7324485367063492 
30.00520067440207 0.7299426463293651 
31.00520067440207 0.7474500868055556 
32.00520067440207 0.728392547123016 
33.00520067440207 0.7331194196428572 
34.00520067440207 0.7210208953373016 
35.00520067440207 0.7117441716269841 
36.00520067440207 0.720186011904762 
37.00520067440207 0.6966288442460318 
38.00520067440207 0.7127678571428572 
39.00520067440207 0.7009511408730159 
40.00520067440207 0.7007831101190477 
41.00520067440207 0.6906321304563492 
42.00520067440207 0.6746785094246032 
43.00520067440207 0.6924649677579365 
44.00520067440207 0.6900099206349206 
45.00520067440207 0.6966985987103175 
46.00520067440207 0.6784815228174603 
47.00520067440207 0.6774330357142857 
48.00520067440207 0.6695107886904762 
49.00520067440207 0.6639118303571429 
50.00520067440207 0.6450545634920635 
51.00520067440207 0.6198955233134921 
52.00520067440207 0.614437003968254 
53.00520067440207 0.575643291170635 
54.00520067440207 0.5746884300595237 
55.00520067440207 0.5324655877976191 
56.00520067440207 0.5315987723214286 
57.00520067440207 0.5628506324404762 
58.00520067440207 0.5018266369047619 
59.00520067440207 0.5943914310515873 
60.00520067440207 0.5764871651785715 
61.00520067440207 0.6174882192460319 
62.00520067440207 0.6355989583333336 
63.00520067440207 0.753736049107143 
64.00520067440206 0.7733863467261906 
65.00520067440206 0.5053041294642858 
66.00520067440206 0.7418446180555557 
67.00520067440206 0.6365873015873016 
68.00520067440206 0.6592745535714287 
69.00520067440206 0.8034725322420637 
70.00520067440206 0.8995281498015875 
71.00520067440206 0.7440457589285716 
72.00520067440206 1.1835965401785715 
73.00520067440206 1.1995709325396828 
74.00520067440206 1.43895492311508 
75.00520067440206 1.7920603918650797 
76.00520067440206 2.4887552703373013 
77.00520067440206 2.928490823412698 
78.00520067440206 1.3009343998015872 
79.00520067440206 2.4649048239087294 
80.00520067440206 2.2390522693452386 
81.00520067440206 2.059525049603175 
82.00520067440206 3.1892075892857137 
83.00520067440206 2.3402942088293663 
84.00520067440206 3.0921850198412693 
85.00520067440206 2.7069168526785714 
86.00520067440206 2.828160032242063 
87.00520067440206 2.8297172619047615 
88.00520067440206 3.585772259424604 
89.00520067440206 3.330755518353174 
90.00520067440206 4.596839037698414 
91.00520067440206 4.088900359623017 
92.00520067440206 2.0666629464285706 
93.00520067440206 3.8328707837301565 
94.00520067440206 1.3064843750000006 
95.00520067440206 2.062018849206351 
96.00520067440206 1.5552337549603177 
97.00520067440206 1.5551618303571433 
98.00520067440206 0.7970296999007935 
99.00520067440206 0.03737227182539689 
100.00520067440206 0.038084077380952444 
101.00520067440206 0.03654761904761911 
102.00520067440206 0.03889880952380959 
103.00520067440206 0.03604662698412705 
104.00520067440206 0.038695436507936574 
105.00520067440206 0.03805555555555562 
106.00520067440206 0.038328373015873086 
107.00520067440206 0.039042658730158795 
108.00520067440206 0.03941468253968261 
109.00520067440206 0.0398660714285715 
110.00520067440206 0.039672619047619116 
111.00520067440206 0.03983630952380959 
112.00520067440206 0.04000000000000007 
113.00520067440206 0.04000000000000007 
114.00520067440206 0.04000000000000007 
115.00520067440206 0.04000000000000007 
116.00520067440206 0.04000000000000007 
117.00520067440206 0.04000000000000007 
118.00520067440206 0.04000000000000007 
119.00520067440206 0.04000000000000007 
120.00520067440206 0.04000000000000007 
121.00520067440206 0.04000000000000007 
122.00520067440206 0.04000000000000007 
123.00520067440206 0.04000000000000007 
124.00520067440206 0.04000000000000007 
125.00520067440206 0.04000000000000007 
126.00520067440206 0.04000000000000007 
127.00520067440206 0.04000000000000007 
128.00520067440206 0.04000000000000007 
129.00520067440206 0.04000000000000007 
130.00520067440206 0.04000000000000007 
131.00520067440206 0.04000000000000007 
132.00520067440206 0.04000000000000007 
133.00520067440206 0.04000000000000007 
134.00520067440206 0.04000000000000007 
135.00520067440206 0.04000000000000007 
136.00520067440206 0.04000000000000007 
137.00520067440206 0.04000000000000007 
138.00520067440206 0.04000000000000007 
#####################################################################
# End of data export. Simulation finished at: 2017-05-25T23:10+0000 #
#####################################################################
