#####################################################################
# Alchemist log file - simulation started at: 2017-05-23T15:04+0000 #
#####################################################################
# random = 12.0, targets = 3.1622776601683795, density = 0.894427190999916, gridShift = 0.0, perturbation = 0.0, connfactor = 0.5
#
# The columns have the following meaning: 
# time se[Mean] 
0.0 NaN 
1.0005590746559656 NaN 
2.000559074655966 1.0 
3.000559074655966 1.0 
4.000559074655966 0.995599541057573 
5.000559074655966 0.9867986231727188 
6.000559074655966 0.9603958695181564 
7.000559074655966 0.9295926569211669 
8.000559074655966 0.9031899032666044 
9.000559074655966 0.8767871496120418 
10.000559074655966 0.8591853138423338 
11.000559074655966 0.8459839370150524 
12.000559074655966 0.8063798065332087 
13.000559074655966 0.7799770528786464 
14.000559074655966 0.7975788886483546 
15.000559074655966 0.7519939044636142 
16.000559074655968 0.7436062097192558 
17.000559074655968 0.6945922084761075 
18.000559074655968 0.6563002452172652 
19.000559074655968 0.6377922585692974 
20.000559074655968 0.5764468541170327 
21.000559074655968 0.5732934146731715 
22.000559074655968 0.5657539298783915 
23.000559074655968 0.5086856091527886 
24.000559074655968 0.5117812509492928 
25.000559074655968 0.5071705053980786 
26.000559074655968 0.48880030755738413 
27.000559074655968 0.5189729468906608 
28.000559074655968 0.6168346199493162 
29.000559074655968 0.5729606125365648 
30.000559074655968 0.39606478786291444 
31.000559074655968 0.5071856353962081 
32.00055907465597 0.41095537779359814 
33.00055907465597 0.40300987665407634 
34.00055907465597 0.4606147957359402 
35.00055907465597 0.4011252203773677 
36.00055907465597 0.3057649363929226 
37.00055907465597 0.33525626832955924 
38.00055907465597 0.19571007877639698 
39.00055907465597 0.12748473325740575 
40.00055907465597 0.06817633076195548 
41.00055907465597 0.04251296871403857 
42.00055907465597 0.03379175542645223 
43.00055907465597 0.022236064365400418 
44.00055907465597 0.013261180413178114 
45.00055907465597 0.007106360642913221 
46.00055907465597 0.004721283270038296 
47.00055907465597 0.0029958929065410866 
48.00055907465597 0.0030683907080548225 
49.00055907465597 0.0027783995019998783 
50.00055907465597 0.0027059017004861423 
51.00055907465597 0.002633403898972407 
52.00055907465597 0.002633403898972407 
53.00055907465597 0.002633403898972407 
54.00055907465597 0.002633403898972407 
55.00055907465597 0.002633403898972407 
56.00055907465597 0.002633403898972407 
57.00055907465597 0.002633403898972407 
58.00055907465597 0.002633403898972407 
59.00055907465597 0.002633403898972407 
60.00055907465597 0.002633403898972407 
61.00055907465597 0.002633403898972407 
62.00055907465597 0.002633403898972407 
63.00055907465597 0.002633403898972407 
64.00055907465597 0.002633403898972407 
65.00055907465597 0.002633403898972407 
66.00055907465597 0.002633403898972407 
67.00055907465597 0.002633403898972407 
68.00055907465597 0.002633403898972407 
69.00055907465597 0.002633403898972407 
70.00055907465597 0.002633403898972407 
#####################################################################
# End of data export. Simulation finished at: 2017-05-23T15:04+0000 #
#####################################################################
