0.000000000000000000e+00 nan
1.000137018804326372e+00 4.816497829217539217e-01
2.000274037608652744e+00 9.505806835347155870e-01
3.000411056412978450e+00 9.530612348295567360e-01
4.000548075217305488e+00 9.359447030875565066e-01
5.000685094021632970e+00 9.087369104288025579e-01
6.000822112825956900e+00 8.173124988798405877e-01
7.000959131630282606e+00 7.568378941230310408e-01
8.001096150434610976e+00 6.351279131734195449e-01
9.001233169238931353e+00 5.505446741197634886e-01
1.000137018804326594e+01 4.714375448544300684e-01
1.100150720684758454e+01 4.329014951629139296e-01
1.200164422565191380e+01 3.851078380354062691e-01
1.300178124445624661e+01 3.588500952708579828e-01
1.400191826326056521e+01 3.578824859394979518e-01
1.500205528206489092e+01 3.499271695379548852e-01
1.600219230086922195e+01 3.422877040910773383e-01
1.700232931967354588e+01 3.389576496211270662e-01
1.800246633847786271e+01 3.387499010215967998e-01
1.900260335728219019e+01 3.387782871214778391e-01
2.000274037608653188e+01 3.380974596321461023e-01
2.100287739489084871e+01 3.385951410426331076e-01
2.200301441369516908e+01 3.385951410426331076e-01
2.300315143249950722e+01 3.385951410426331076e-01
2.400328845130382760e+01 3.385951410426331076e-01
