#####################################################################
# Alchemist log file - simulation started at: 2017-05-21T19:53+0000 #
#####################################################################
# random = 3.0, targets = 1.0, density = 1.7841466528270753, gridShift = 1.0, perturbation = 0.5, connfactor = 0.1
#
# The columns have the following meaning: 
# time se[Mean] 
0.0 NaN 
1.0016359619213666 NaN 
2.001635961921367 NaN 
3.001635961921367 1.0 
4.001635961921367 1.0 
5.001635961921367 1.0 
6.001635961921367 1.0 
7.001635961921367 1.0 
8.001635961921366 1.0 
9.001635961921366 1.0 
10.001635961921366 1.0 
11.001635961921366 1.0 
12.001635961921366 1.0 
13.001635961921366 1.0 
14.001635961921366 1.0 
15.001635961921366 1.0 
16.001635961921366 1.0 
17.001635961921366 1.0 
18.001635961921366 1.0 
19.001635961921366 1.0 
20.001635961921366 1.0 
21.001635961921366 1.0 
22.001635961921366 1.0 
23.001635961921366 1.0 
24.001635961921366 1.0 
25.001635961921366 1.0 
26.001635961921366 1.0 
27.001635961921366 1.0 
28.001635961921366 1.0 
29.001635961921366 1.0 
#####################################################################
# End of data export. Simulation finished at: 2017-05-21T19:53+0000 #
#####################################################################
