#####################################################################
# Alchemist log file - simulation started at: 2017-05-23T08:51+0000 #
#####################################################################
# random = 11.0, targets = 10.0, density = 14.160781367816199, gridShift = 0.0, perturbation = 0.0, connfactor = 2.0
#
# The columns have the following meaning: 
# time se[Mean] 
0.0 NaN 
1.0000311017741008 NaN 
2.000031101774101 1.0288395792241944 
3.000031101774101 1.0513377985974137 
4.000031101774101 1.0875521860618012 
5.000031101774101 1.1507126616261227 
6.000031101774101 1.1529476678354875 
7.000031101774101 1.2583346573891456 
8.000031101774102 1.2612801336839787 
9.000031101774102 1.2672834483892166 
10.000031101774102 1.2668323562714607 
11.000031101774102 1.2424861658996265 
12.000031101774102 1.2103726532252173 
13.000031101774102 1.1796681642194455 
14.000031101774102 1.1606100701293012 
15.000031101774102 1.1184897088903498 
16.000031101774102 1.0936748940755352 
17.000031101774102 1.0778611932938853 
18.000031101774102 1.04344003396888 
19.000031101774102 1.0508070805025935 
20.000031101774102 1.0116348436701 
21.000031101774102 1.0343508930528154 
22.000031101774102 1.0192726367886629 
23.000031101774102 1.0250971583022856 
24.000031101774102 1.0312195923734389 
25.000031101774102 1.0196198133537884 
26.000031101774102 1.0618633117831842 
27.000031101774102 1.0237170355760097 
28.000031101774102 1.0688206771860622 
29.000031101774102 1.0513053364014908 
30.000031101774102 1.0760951311271822 
31.000031101774102 1.0596988457885903 
32.0000311017741 1.061819343998831 
33.0000311017741 1.0729022390240337 
34.0000311017741 1.0658256629410479 
35.0000311017741 1.0786889108042952 
36.0000311017741 1.050771285338593 
37.0000311017741 1.0789278800496749 
38.0000311017741 1.073197823069618 
39.0000311017741 1.0789499324274965 
40.0000311017741 1.0671699905033238 
41.0000311017741 1.0582308331507044 
42.0000311017741 1.0565847121776604 
43.0000311017741 1.0579410018993358 
44.0000311017741 1.053129839652276 
45.0000311017741 1.0445961173204763 
46.0000311017741 1.043056468697494 
47.0000311017741 1.0333720048944413 
48.0000311017741 1.0273839853166777 
49.0000311017741 1.0364584703046247 
50.0000311017741 1.0147108992621818 
51.0000311017741 1.0311495543867335 
52.0000311017741 1.0067899864855008 
53.0000311017741 1.0157819234421788 
54.0000311017741 1.0079931423040407 
55.0000311017741 1.0119579589451384 
56.0000311017741 0.9933515505150131 
57.0000311017741 0.991696343779678 
58.0000311017741 0.979564203009716 
59.0000311017741 0.9805601669223454 
60.0000311017741 0.9715150394477311 
61.0000311017741 0.9604862024253032 
62.0000311017741 0.9627651307619265 
63.0000311017741 0.9480721747388425 
64.0000311017741 0.9466184071152008 
65.0000311017741 0.9379707703265389 
66.0000311017741 0.933057701439113 
67.0000311017741 0.9266940609248313 
68.0000311017741 0.9218927149536127 
69.0000311017741 0.9143814376506672 
70.0000311017741 0.9140928847980139 
71.0000311017741 0.9065011596902606 
72.0000311017741 0.9032174099642053 
73.0000311017741 0.8993761870845212 
74.0000311017741 0.8963682518810713 
75.0000311017741 0.8904305920812322 
76.0000311017741 0.8893466469428003 
77.0000311017741 0.8837711848929785 
78.0000311017741 0.8840146741909567 
79.0000311017741 0.8767283037475344 
80.0000311017741 0.8765304258894011 
81.0000311017741 0.872386724742494 
82.0000311017741 0.8703310139528087 
83.0000311017741 0.8659769249032068 
84.0000311017741 0.8637664822119947 
85.0000311017741 0.86313947329973 
86.0000311017741 0.8573744886405139 
87.0000311017741 0.8560583771641467 
88.0000311017741 0.8522195284535026 
89.0000311017741 0.8521341953393236 
90.0000311017741 0.8505691613704434 
91.0000311017741 0.847694407918767 
92.0000311017741 0.8438324110599751 
93.0000311017741 0.8396658357075024 
94.0000311017741 0.8330936335744027 
95.0000311017741 0.8305945467163416 
96.0000311017741 0.8367928172255096 
97.0000311017741 0.8681210278325665 
98.0000311017741 0.8759092610855427 
99.0000311017741 0.8991353002410688 
100.0000311017741 0.8508896741909564 
101.0000311017741 0.8475883921396743 
102.0000311017741 0.8545421049747973 
103.0000311017741 0.8093639966396377 
104.0000311017741 0.8425388998465922 
105.0000311017741 0.840201850025568 
106.0000311017741 0.8177238567462927 
107.0000311017741 0.8340639838556506 
108.0000311017741 0.8096598089707066 
109.0000311017741 0.8292181678720141 
110.0000311017741 0.8025325535101179 
111.0000311017741 0.8151941796332822 
112.0000311017741 0.8072856855869678 
113.0000311017741 0.8172033201840894 
114.0000311017741 0.7959869694645336 
115.0000311017741 0.8096865183724158 
116.0000311017741 0.809525759734093 
117.0000311017741 0.8250267550588064 
118.0000311017741 0.8088669278252613 
119.0000311017741 0.7984834082109724 
120.0000311017741 0.7869010702023523 
121.0000311017741 0.7898501534078457 
122.0000311017741 0.772993872817591 
123.0000311017741 0.763977144057272 
124.0000311017741 0.7838093542260206 
125.0000311017741 0.7585209840017535 
126.0000311017741 0.7642517258382641 
127.0000311017741 0.739357558988969 
128.00003110177408 0.7651650047483379 
129.00003110177408 0.7438801683833737 
130.00003110177408 0.746207310614362 
131.00003110177408 0.7426313098107968 
132.00003110177408 0.7495900905836803 
133.00003110177408 0.7339910238147414 
134.00003110177408 0.7195576740448532 
135.00003110177408 0.7317198115275035 
136.00003110177408 0.7241200051135948 
137.00003110177408 0.7074644787785811 
138.00003110177408 0.7055917159763309 
139.00003110177408 0.68820658923223 
140.00003110177408 0.7006937595879917 
141.00003110177408 0.6778358992621799 
142.00003110177408 0.6860779184016347 
143.00003110177408 0.6744266838337347 
144.00003110177408 0.6489983289502528 
145.00003110177408 0.6574689075169831 
146.00003110177408 0.6422079315508806 
147.00003110177408 0.6536931112572136 
148.00003110177408 0.6292978395061737 
149.00003110177408 0.6087110544963094 
150.00003110177408 0.61914621228724 
151.00003110177408 0.5873204306377388 
152.00003110177408 0.5764244557674046 
153.00003110177408 0.5564325827306599 
154.00003110177408 0.537612681715246 
155.00003110177408 0.5133100938709917 
156.00003110177408 0.4940886843450952 
157.00003110177408 0.4746567042881141 
158.00003110177408 0.4443956370078167 
159.00003110177408 0.4307580904375778 
160.00003110177408 0.395367174373586 
161.00003110177408 0.3738125958799045 
162.00003110177408 0.35064956351815374 
163.00003110177408 0.32054400431003066 
164.00003110177408 0.30570969391482106 
165.00003110177408 0.2850424611001537 
166.00003110177408 0.27002132186427097 
167.00003110177408 0.2561501022718978 
168.00003110177408 0.2379939184746882 
169.00003110177408 0.2393741781722556 
170.00003110177408 0.22147887902695557 
171.00003110177408 0.20972546387610536 
172.00003110177408 0.19988622251442753 
173.00003110177408 0.18704224194608846 
174.00003110177408 0.18181012126524962 
175.00003110177408 0.1730015432098765 
176.00003110177408 0.167149353495507 
177.00003110177408 0.15815874059463783 
178.00003110177408 0.15125561582292346 
179.00003110177408 0.14417022792022752 
180.00003110177408 0.14009998904229684 
181.00003110177408 0.13378921944627045 
182.00003110177408 0.12540689604792193 
183.00003110177408 0.12033261195120154 
184.00003110177408 0.11643632661260878 
185.00003110177408 0.11048013003141204 
186.00003110177408 0.1068662794944845 
187.00003110177408 0.10419004310029943 
188.00003110177408 0.10040534370662567 
189.00003110177408 0.09762783987142959 
190.00003110177408 0.09495658010081089 
191.00003110177408 0.09269705603038934 
192.00003110177408 0.0893676948644896 
193.00003110177408 0.08668543173350847 
194.00003110177408 0.08423268682884046 
195.00003110177408 0.08177441741544285 
196.00003110177408 0.07983042954196808 
197.00003110177408 0.07819818832639355 
198.00003110177408 0.07648321645116499 
199.00003110177408 0.07528147600262987 
200.00003110177408 0.07335588793922114 
201.00003110177408 0.07200288552852664 
202.00003110177408 0.0702786909197165 
203.00003110177408 0.06819581415735262 
204.00003110177408 0.06660187924610997 
205.00003110177408 0.0648627547666008 
206.00003110177408 0.06287913653298258 
207.00003110177408 0.06150216414639474 
208.00003110177408 0.05976641829205922 
209.00003110177408 0.058233161662648726 
210.00003110177408 0.05676332274088672 
211.00003110177408 0.055268052816129745 
212.00003110177408 0.053848117101322056 
213.00003110177408 0.052395947476075524 
214.00003110177408 0.05082096026006265 
215.00003110177408 0.049317609029147384 
216.00003110177408 0.04791278581342679 
217.00003110177408 0.04641062166703187 
218.00003110177408 0.04505159251954125 
219.00003110177408 0.043878798670465236 
220.00003110177408 0.04274924209219077 
221.00003110177408 0.04185299327927521 
222.00003110177408 0.04115622032288693 
223.00003110177408 0.040821188545547435 
224.00003110177408 0.04045456205712609 
225.00003110177408 0.04033169880926284 
226.00003110177408 0.04020162174008322 
227.00003110177408 0.04009277522098028 
228.00003110177408 0.0400358864781941 
229.00003110177408 0.04000223719774995 
230.00003110177408 0.03999999999999993 
231.00003110177408 0.03999999999999993 
232.00003110177408 0.03999999999999993 
233.00003110177408 0.03999999999999993 
234.00003110177408 0.03999999999999993 
235.00003110177408 0.03999999999999993 
236.00003110177408 0.03999999999999993 
237.00003110177408 0.03999999999999993 
238.00003110177408 0.03999999999999993 
239.00003110177408 0.03999999999999993 
240.00003110177408 0.03999999999999993 
241.00003110177408 0.03999999999999993 
242.00003110177408 0.03999999999999993 
243.00003110177408 0.03999999999999993 
244.00003110177408 0.03999999999999993 
245.00003110177408 0.03999999999999993 
246.00003110177408 0.03999999999999993 
247.00003110177408 0.03999999999999993 
248.00003110177408 0.03999999999999993 
249.00003110177408 0.03999999999999993 
250.00003110177408 0.03999999999999993 
251.00003110177408 0.03999999999999993 
252.00003110177408 0.03999999999999993 
253.00003110177408 0.03999999999999993 
254.00003110177408 0.03999999999999993 
255.00003110177408 0.03999999999999993 
256.0000311017741 0.03999999999999993 
257.0000311017741 0.03999999999999993 
258.0000311017741 0.03999999999999993 
259.0000311017741 0.03999999999999993 
260.0000311017741 0.03999999999999993 
261.0000311017741 0.03999999999999993 
262.0000311017741 0.03999999999999993 
263.0000311017741 0.03999999999999993 
264.0000311017741 0.03999999999999993 
265.0000311017741 0.03999999999999993 
266.0000311017741 0.03999999999999993 
267.0000311017741 0.03999999999999993 
268.0000311017741 0.03999999999999993 
269.0000311017741 0.03999999999999993 
270.0000311017741 0.03999999999999993 
271.0000311017741 0.03999999999999993 
272.0000311017741 0.03999999999999993 
273.0000311017741 0.03999999999999993 
274.0000311017741 0.03999999999999993 
275.0000311017741 0.03999999999999993 
276.0000311017741 0.03999999999999993 
277.0000311017741 0.03999999999999993 
278.0000311017741 0.03999999999999993 
279.0000311017741 0.03999999999999993 
280.0000311017741 0.03999999999999993 
281.0000311017741 0.03999999999999993 
282.0000311017741 0.03999999999999993 
283.0000311017741 0.03999999999999993 
284.0000311017741 0.03999999999999993 
285.0000311017741 0.03999999999999993 
286.0000311017741 0.03999999999999993 
287.0000311017741 0.03999999999999993 
288.0000311017741 0.03999999999999993 
289.0000311017741 0.03999999999999993 
290.0000311017741 0.03999999999999993 
291.0000311017741 0.03999999999999993 
292.0000311017741 0.03999999999999993 
293.0000311017741 0.03999999999999993 
294.0000311017741 0.03999999999999993 
295.0000311017741 0.03999999999999993 
296.0000311017741 0.03999999999999993 
297.0000311017741 0.03999999999999993 
298.0000311017741 0.03999999999999993 
299.0000311017741 0.03999999999999993 
300.0000311017741 0.03999999999999993 
301.0000311017741 0.03999999999999993 
302.0000311017741 0.03999999999999993 
303.0000311017741 0.03999999999999993 
304.0000311017741 0.03999999999999993 
305.0000311017741 0.03999999999999993 
306.0000311017741 0.03999999999999993 
307.0000311017741 0.03999999999999993 
308.0000311017741 0.03999999999999993 
309.0000311017741 0.03999999999999993 
310.0000311017741 0.03999999999999993 
311.0000311017741 0.03999999999999993 
312.0000311017741 0.03999999999999993 
313.0000311017741 0.03999999999999993 
314.0000311017741 0.03999999999999993 
315.0000311017741 0.03999999999999993 
316.0000311017741 0.03999999999999993 
317.0000311017741 0.03999999999999993 
318.0000311017741 0.03999999999999993 
319.0000311017741 0.03999999999999993 
#####################################################################
# End of data export. Simulation finished at: 2017-05-23T08:56+0000 #
#####################################################################
