#####################################################################
# Alchemist log file - simulation started at: 2017-05-23T16:10+0000 #
#####################################################################
# random = 12.0, targets = 3.1622776601683795, density = 20.0, gridShift = 1.0, perturbation = 0.0, connfactor = 0.25
#
# The columns have the following meaning: 
# time se[Mean] 
0.0 NaN 
1.000297589316342 NaN 
2.000297589316342 1.0 
3.000297589316342 1.0 
4.000297589316342 0.9995895059021987 
5.000297589316342 0.9981053157150911 
6.000297589316342 0.9973471920339799 
7.000297589316342 0.9942838899701586 
8.000297589316343 0.9948829776114347 
9.000297589316343 0.9937143598325222 
10.000297589316343 0.9937772243470137 
11.000297589316343 0.9934295947637042 
12.000297589316343 0.9949458421259261 
13.000297589316343 0.9944404263385187 
14.000297589316343 0.997472921062963 
15.000297589316343 0.9962093815944447 
16.000297589316343 0.9972202131692595 
17.000297589316343 0.9977256289566667 
18.000297589316343 0.9951985500196298 
19.000297589316343 0.996714797381852 
20.000297589316343 0.9974729210629631 
21.000297589316343 0.9964620894881483 
22.000297589316343 0.9972202131692594 
23.000297589316343 0.9979783368503705 
24.000297589316343 0.9979783368503705 
25.000297589316343 0.9984837526377779 
26.000297589316343 0.9987364605314816 
27.000297589316343 0.9992418763188889 
28.000297589316343 1.0 
29.000297589316343 1.0 
30.000297589316343 1.0 
31.000297589316343 1.0 
32.00029758931635 1.0 
33.00029758931635 1.0 
34.00029758931635 1.0 
35.00029758931635 1.0 
36.00029758931635 1.0 
37.00029758931635 1.0 
38.00029758931635 1.0 
39.00029758931635 1.0 
40.00029758931635 1.0 
41.00029758931635 1.0 
42.00029758931635 1.0 
43.00029758931635 1.0 
44.00029758931635 0.9997472921062963 
45.00029758931635 0.9992418763188889 
46.00029758931635 0.9989891684251853 
47.00029758931635 0.9977256289566668 
48.00029758931635 0.9984837526377779 
49.00029758931635 0.9982310447440742 
50.00029758931635 0.9984837526377779 
51.00029758931635 0.9977256289566668 
52.00029758931635 0.9979783368503704 
53.00029758931635 0.9987364605314816 
54.00029758931635 0.9982310447440742 
55.00029758931635 0.9989891684251853 
56.00029758931635 0.9982310447440742 
57.00029758931635 0.9989891684251853 
58.00029758931635 0.9994945842125926 
59.00029758931635 0.9984837526377779 
60.00029758931635 0.9987364605314816 
61.00029758931635 0.9992418763188889 
62.00029758931635 0.9987364605314816 
63.00029758931635 0.9992418763188889 
64.00029758931635 0.9994945842125926 
65.00029758931635 0.9997472921062963 
66.00029758931635 0.9994945842125926 
67.00029758931635 0.9994945842125926 
68.00029758931635 1.0 
69.00029758931635 0.9994945842125926 
70.00029758931635 0.9997472921062963 
71.00029758931635 1.0 
72.00029758931635 0.9997472921062963 
73.00029758931635 1.0 
74.00029758931635 1.0 
75.00029758931635 0.9995895059021987 
76.00029758931635 1.0 
77.00029758931635 0.9975370354131922 
78.00029758931635 0.9979475295109935 
79.00029758931635 0.9963055531197884 
80.00029758931635 0.9940003747370778 
81.00029758931635 0.9954845649241856 
82.00029758931635 0.9939683175619637 
83.00029758931635 0.9913475667710582 
84.00029758931635 0.9932101938808526 
85.00029758931635 0.9886627016299235 
86.00029758931635 0.9927047780934449 
87.00029758931635 0.9931152721912461 
88.00029758931635 0.9913463169353204 
89.00029758931635 0.9939362603868488 
90.00029758931635 0.9910936090416168 
91.00029758931635 0.9943467544846504 
92.00029758931635 0.9925469918893474 
93.00029758931635 0.9937784741827512 
94.00029758931635 0.99469438406796 
95.00029758931635 0.9929574859871488 
96.00029758931635 0.9941261037660611 
97.00029758931635 0.9928625642975428 
98.00029758931635 0.9936206879786537 
99.00029758931635 0.9955153722635626 
100.00029758931635 0.9931152721912463 
101.00029758931635 0.9941889682805526 
102.00029758931635 0.9937784741827512 
103.00029758931635 0.994599462378354 
104.00029758931635 0.9951997998553673 
105.00029758931635 0.9927047780934452 
106.00029758931635 0.9952626643698589 
107.00029758931635 0.9930832150161317 
108.00029758931635 0.9910936090416167 
109.00029758931635 0.9889770242023811 
110.00029758931635 0.98509148410722 
111.00029758931635 0.9838908091531927 
112.00029758931635 0.9791842808624291 
113.00029758931635 0.9735297855113411 
114.00029758931635 0.9698969533098831 
115.00029758931635 0.9628531894612953 
116.00029758931635 0.9599464237658335 
117.00029758931635 0.9537236481128466 
118.00029758931635 0.9481640744513676 
119.00029758931635 0.9430149948876871 
120.00029758931635 0.9345178481913675 
121.00029758931635 0.9312005883981059 
122.00029758931635 0.9217246673020836 
123.00029758931635 0.9161959009799799 
124.00029758931635 0.9069726877776632 
125.00029758931635 0.8987282489750504 
126.00029758931635 0.8923784944573421 
127.00029758931635 0.8810411960872652 
128.00029758931635 0.873838396198842 
129.00029758931635 0.8644586466281654 
130.00029758931635 0.8526479896457981 
131.00029758931635 0.8461071419131422 
132.00029758931635 0.8344838286385107 
133.00029758931635 0.8267164979553946 
134.00029758931635 0.8187210175392723 
135.00029758931635 0.8052363269905868 
136.00029758931635 0.7991688378702227 
137.00029758931635 0.7883640131197147 
138.00029758931635 0.779930980773625 
139.00029758931635 0.7719367501932347 
140.00029758931635 0.762650672476428 
141.00029758931635 0.7542780049733577 
142.00029758931635 0.7428765922530516 
143.00029758931635 0.734725825304303 
144.00029758931635 0.725469305091137 
145.00029758931635 0.7129633889421518 
146.00029758931635 0.7044649924100903 
147.00029758931635 0.6938833180496548 
148.00029758931635 0.6825127126687235 
149.00029758931635 0.672654605142801 
150.00029758931635 0.6636853496699292 
151.00029758931635 0.6541773713987981 
152.00029758931635 0.6453313452834231 
153.00029758931635 0.6365506833540217 
154.00029758931635 0.6283049947156759 
155.00029758931635 0.6187982662802731 
156.00029758931635 0.6098560686395674 
157.00029758931635 0.6019592594202624 
158.00029758931635 0.592674431539192 
159.00029758931635 0.5850598877172248 
160.00029758931635 0.574225505463086 
161.00029758931635 0.5673382779828524 
162.00029758931635 0.5568194681369033 
163.00029758931635 0.5488906017424837 
164.00029758931635 0.5404871269000346 
165.00029758931635 0.531075320154243 
166.00029758931635 0.5252925961026979 
167.00029758931635 0.5177742238060782 
168.00029758931635 0.506814112522952 
169.00029758931635 0.500652951548719 
170.00029758931635 0.4930409073982327 
171.00029758931635 0.4879534425133068 
172.00029758931635 0.48176397387117254 
173.00029758931635 0.47794004845476473 
174.00029758931635 0.47629807206355973 
175.00029758931635 0.4731706556495096 
176.00029758931635 0.4722226885891861 
177.00029758931635 0.47001243189608205 
178.00029758931635 0.46991626037073847 
179.00029758931635 0.4682742839795332 
180.00029758931635 0.46647452138423035 
181.00029758931635 0.46659900057747594 
182.00029758931635 0.465305903605318 
183.00029758931635 0.46505194587587684 
184.00029758931635 0.46593579858597095 
185.00029758931635 0.46536751828407197 
186.00029758931635 0.4657780123818734 
187.00029758931635 0.4657780123818734 
188.00029758931635 0.46599866310046245 
189.00029758931635 0.4665348862272468 
190.00029758931635 0.46568309069226715 
191.00029758931635 0.46707110935403123 
192.00029758931635 0.4665977507417384 
193.00029758931635 0.46675553694583605 
194.00029758931635 0.46707110935403123 
195.00029758931635 0.4669133231499336 
196.00029758931635 0.46722889555812885 
197.00029758931635 0.4669133231499336 
198.00029758931635 0.46675553694583605 
199.00029758931635 0.46722889555812885 
200.00029758931635 0.4665977507417384 
201.00029758931635 0.46722889555812885 
202.00029758931635 0.46707110935403123 
203.00029758931635 0.46722889555812885 
204.00029758931635 0.46707110935403123 
205.00029758931635 0.46707110935403123 
206.00029758931635 0.46722889555812885 
207.00029758931635 0.4673866817622265 
208.00029758931635 0.46722889555812885 
209.00029758931635 0.4675444679663241 
210.00029758931635 0.4675444679663241 
211.00029758931635 0.4675444679663241 
212.00029758931635 0.4675444679663241 
213.00029758931635 0.4675444679663241 
214.00029758931635 0.4675444679663241 
215.00029758931635 0.4675444679663241 
216.00029758931635 0.4675444679663241 
217.00029758931635 0.4675444679663241 
218.00029758931635 0.4675444679663241 
219.00029758931635 0.4675444679663241 
220.00029758931635 0.4675444679663241 
221.00029758931635 0.4675444679663241 
222.00029758931635 0.4675444679663241 
223.00029758931635 0.4675444679663241 
224.00029758931635 0.4675444679663241 
225.00029758931635 0.4675444679663241 
226.00029758931635 0.4675444679663241 
227.00029758931635 0.4675444679663241 
228.00029758931635 0.4675444679663241 
229.00029758931635 0.4675444679663241 
230.00029758931635 0.4675444679663241 
231.00029758931635 0.4675444679663241 
232.00029758931635 0.4675444679663241 
233.00029758931635 0.4675444679663241 
234.00029758931635 0.4675444679663241 
235.00029758931635 0.4675444679663241 
236.00029758931635 0.4675444679663241 
237.00029758931635 0.4675444679663241 
238.00029758931635 0.4675444679663241 
239.00029758931635 0.4675444679663241 
240.00029758931635 0.4675444679663241 
241.00029758931635 0.4675444679663241 
242.00029758931635 0.4675444679663241 
243.00029758931635 0.4675444679663241 
244.00029758931635 0.4675444679663241 
245.00029758931635 0.4675444679663241 
246.00029758931635 0.4675444679663241 
247.00029758931635 0.4675444679663241 
248.00029758931635 0.4675444679663241 
249.00029758931635 0.4675444679663241 
250.00029758931635 0.4675444679663241 
251.00029758931635 0.4675444679663241 
252.00029758931635 0.4675444679663241 
253.00029758931635 0.4675444679663241 
254.00029758931635 0.4675444679663241 
255.00029758931635 0.4675444679663241 
256.00029758931635 0.4675444679663241 
257.00029758931635 0.4675444679663241 
258.00029758931635 0.4675444679663241 
259.00029758931635 0.4675444679663241 
260.00029758931635 0.4675444679663241 
261.00029758931635 0.4675444679663241 
262.00029758931635 0.4675444679663241 
263.00029758931635 0.4675444679663241 
264.00029758931635 0.4675444679663241 
265.00029758931635 0.4675444679663241 
266.00029758931635 0.4675444679663241 
267.00029758931635 0.4675444679663241 
268.00029758931635 0.4675444679663241 
269.00029758931635 0.4675444679663241 
270.00029758931635 0.4675444679663241 
271.00029758931635 0.4675444679663241 
272.00029758931635 0.4675444679663241 
273.00029758931635 0.4675444679663241 
274.00029758931635 0.4675444679663241 
275.00029758931635 0.4675444679663241 
276.00029758931635 0.4675444679663241 
277.00029758931635 0.4675444679663241 
278.00029758931635 0.4675444679663241 
279.00029758931635 0.4675444679663241 
280.00029758931635 0.4675444679663241 
281.00029758931635 0.4675444679663241 
282.00029758931635 0.4675444679663241 
283.00029758931635 0.4675444679663241 
284.00029758931635 0.4675444679663241 
285.00029758931635 0.4675444679663241 
286.00029758931635 0.4675444679663241 
287.00029758931635 0.4675444679663241 
288.00029758931635 0.4675444679663241 
289.00029758931635 0.4675444679663241 
290.00029758931635 0.4675444679663241 
291.00029758931635 0.4675444679663241 
292.00029758931635 0.4675444679663241 
293.00029758931635 0.4675444679663241 
294.00029758931635 0.4675444679663241 
295.00029758931635 0.4675444679663241 
296.00029758931635 0.4675444679663241 
297.00029758931635 0.4675444679663241 
298.00029758931635 0.4675444679663241 
299.00029758931635 0.4675444679663241 
300.00029758931635 0.4675444679663241 
301.00029758931635 0.4675444679663241 
302.00029758931635 0.4675444679663241 
303.00029758931635 0.4675444679663241 
304.00029758931635 0.4675444679663241 
305.00029758931635 0.4675444679663241 
306.00029758931635 0.4675444679663241 
307.00029758931635 0.4675444679663241 
308.00029758931635 0.4675444679663241 
#####################################################################
# End of data export. Simulation finished at: 2017-05-23T16:16+0000 #
#####################################################################
