#####################################################################
# Alchemist log file - simulation started at: 2017-05-25T02:36+0000 #
#####################################################################
# random = 7.0, targets = 100.0, density = 0.11269076455391362, gridShift = 1.0, perturbation = 0.5, connfactor = 0.75
#
# The columns have the following meaning: 
# time se[Mean] 
0.0 NaN 
1.001616958347866 NaN 
2.0016169583478662 1.07204 
3.0016169583478662 1.104258 
4.001616958347866 1.1767544444444444 
5.001616958347866 1.0890861111111112 
6.001616958347866 1.1435781111111112 
7.001616958347866 0.9831446666666668 
8.001616958347867 0.8536585555555556 
9.001616958347867 1.035440666666667 
10.001616958347867 0.7860952222222225 
11.001616958347867 0.7541363333333336 
12.001616958347867 0.6305484444444447 
13.001616958347867 0.45499955555555577 
14.001616958347867 0.3843230000000002 
15.001616958347867 0.3133161111111113 
16.001616958347867 0.32133600000000023 
17.001616958347867 0.32036800000000026 
18.001616958347867 0.32490000000000024 
19.001616958347867 0.32490000000000024 
20.001616958347867 0.32490000000000024 
21.001616958347867 0.32490000000000024 
22.001616958347867 0.32490000000000024 
23.001616958347867 0.32490000000000024 
24.001616958347867 0.32490000000000024 
25.001616958347867 0.32490000000000024 
26.001616958347867 0.32490000000000024 
#####################################################################
# End of data export. Simulation finished at: 2017-05-25T02:36+0000 #
#####################################################################
