#####################################################################
# Alchemist log file - simulation started at: 2017-05-24T21:15+0000 #
#####################################################################
# random = 16.0, targets = 1.0, density = 0.894427190999916, gridShift = 0.0, perturbation = 0.5, connfactor = 1.0
#
# The columns have the following meaning: 
# time se[Mean] 
0.0 NaN 
1.0066017814354276 NaN 
2.0066017814354273 1.066115702479339 
3.0066017814354273 1.121441689623508 
4.006601781435427 1.1189164370982554 
5.006601781435427 1.0725436179981636 
6.006601781435427 0.9297520661157025 
7.006601781435427 0.9368686868686869 
8.006601781435428 0.8758034894398529 
9.006601781435428 0.8852157943067033 
10.006601781435428 0.8732782369146004 
11.006601781435428 0.8560606060606063 
12.006601781435428 0.8112947658402206 
13.006601781435428 0.7929292929292932 
14.006601781435428 0.7463269054178147 
15.006601781435428 0.7229109274563819 
16.006601781435428 0.694674012855831 
17.006601781435428 0.6815886134067951 
18.006601781435428 0.6751606978879703 
19.006601781435428 0.6687327823691461 
20.006601781435428 0.671717171717172 
21.006601781435428 0.6900826446280994 
22.006601781435428 0.7272727272727272 
23.006601781435428 0.7520661157024792 
24.006601781435428 0.7830578512396694 
25.006601781435428 0.8156565656565655 
26.006601781435428 0.8450413223140497 
27.006601781435428 0.8546831955922863 
28.006601781435428 0.8778696051423325 
29.006601781435428 0.870293847566575 
30.006601781435428 0.8891184573002754 
31.006601781435428 0.8815426997245179 
32.00660178143543 0.8815426997245178 
33.00660178143543 0.857208448117539 
34.00660178143543 0.7956841138659321 
35.00660178143543 0.7853535353535354 
36.00660178143543 0.7261248852157943 
37.00660178143543 0.6905417814508724 
38.00660178143543 0.6340679522497705 
39.00660178143543 0.5814967860422404 
40.00660178143543 0.5332874196510561 
41.00660178143543 0.43732782369146017 
42.00660178143543 0.3767217630853996 
43.00660178143543 0.3080808080808082 
44.00660178143543 0.24012855831037663 
45.00660178143543 0.2079889807162535 
46.00660178143543 0.12488521579430678 
47.00660178143543 0.12213039485766759 
48.00660178143543 0.07506887052341606 
49.00660178143543 2.2066115702479348 
50.00660178143543 0.04315886134067955 
51.00660178143543 12.971763085399456 
52.00660178143543 10.818411386593205 
53.00660178143543 15.124426078971537 
54.00660178143543 25.92286501377411 
55.00660178143543 17.28282828282827 
56.00660178143543 19.440082644628095 
57.00660178143543 19.44008264462809 
58.00660178143543 28.080119375573915 
59.00660178143543 28.080119375573908 
60.00660178143543 19.44008264462809 
61.00660178143543 23.760101010100996 
62.00660178143543 15.120064279155185 
63.00660178143543 8.640036730945814 
64.00660178143542 8.640036730945823 
65.00660178143542 4.930380657631324E-32 
66.00660178143542 6.480027548209364 
67.00660178143542 4.930380657631324E-32 
68.00660178143542 4.930380657631324E-32 
69.00660178143542 4.930380657631324E-32 
70.00660178143542 4.930380657631324E-32 
71.00660178143542 4.930380657631324E-32 
72.00660178143542 4.930380657631324E-32 
73.00660178143542 4.930380657631324E-32 
74.00660178143542 4.930380657631324E-32 
75.00660178143542 4.930380657631324E-32 
76.00660178143542 4.930380657631324E-32 
77.00660178143542 4.930380657631324E-32 
78.00660178143542 4.930380657631324E-32 
79.00660178143542 4.930380657631324E-32 
80.00660178143542 4.930380657631324E-32 
81.00660178143542 4.930380657631324E-32 
82.00660178143542 4.930380657631324E-32 
83.00660178143542 4.930380657631324E-32 
84.00660178143542 4.930380657631324E-32 
85.00660178143542 4.930380657631324E-32 
#####################################################################
# End of data export. Simulation finished at: 2017-05-24T21:15+0000 #
#####################################################################
