#####################################################################
# Alchemist log file - simulation started at: 2017-05-23T05:01+0000 #
#####################################################################
# random = 10.0, targets = 100.0, density = 20.0, gridShift = 0.0, perturbation = 0.0, connfactor = 1.0
#
# The columns have the following meaning: 
# time se[Mean] 
0.0 NaN 
1.0001899309342401 NaN 
2.00018993093424 1.0029475189035917 
3.00018993093424 1.0060226406611006 
4.000189930934241 1.0081172984273261 
5.000189930934241 1.0100607533868935 
6.000189930934241 1.0078752914303717 
7.000189930934241 1.0080957486609956 
8.00018993093424 1.0080359417664357 
9.00018993093424 1.0068367412308339 
10.00018993093424 1.005591558036652 
11.00018993093424 1.0056126992097247 
12.00018993093424 1.0041951559546314 
13.00018993093424 1.0053868600346565 
14.00018993093424 1.0041894756878806 
15.00018993093424 1.0048999415826507 
16.00018993093424 1.0033609824616678 
17.00018993093424 1.0042100133244065 
18.00018993093424 1.001161230899496 
19.00018993093424 1.0001590714266961 
20.00018993093424 0.9974443420499894 
21.00018993093424 0.9941434090133375 
22.00018993093424 0.9911890966314849 
23.00018993093424 0.9872840258086536 
24.00018993093424 0.9852801111898761 
25.00018993093424 0.9808176531978576 
26.00018993093424 0.9782632016645664 
27.00018993093424 0.9743671573067634 
28.00018993093424 0.9709865948592734 
29.00018993093424 0.9664201700666877 
30.00018993093424 0.9623696173991808 
31.00018993093424 0.9587662849847721 
32.00018993093424 0.954261222694812 
33.00018993093424 0.9497521785076665 
34.00018993093424 0.946019182879122 
35.00018993093424 0.9410125528381642 
36.00018993093424 0.9373762599112582 
37.00018993093424 0.9311928084304768 
38.00018993093424 0.9279052838164252 
39.00018993093424 0.9229331111504936 
40.00018993093424 0.9179047587166561 
41.00018993093424 0.9146058417349296 
42.00018993093424 0.9100633815112372 
43.00018993093424 0.9093026209042219 
44.00018993093424 0.9040284827242177 
45.00018993093424 0.90085801728891 
46.00018993093424 0.8979530885712036 
47.00018993093424 0.8946176610743543 
48.00018993093424 0.8924170460512498 
49.00018993093424 0.8889448970148079 
50.00018993093424 0.8873352463374292 
51.00018993093424 0.8827690896739131 
52.00018993093424 0.8821672147395505 
53.00018993093424 0.8784099135554506 
54.00018993093424 0.876992491073304 
55.00018993093424 0.8752195497925856 
56.00018993093424 0.8735218293819577 
57.00018993093424 0.8701545539277463 
58.00018993093424 0.8688114353602185 
59.00018993093424 0.8660396584882378 
60.00018993093424 0.8655986360533503 
61.00018993093424 0.8629294105098719 
62.00018993093424 0.8637722100792901 
63.00018993093424 0.8610739973876287 
64.00018993093424 0.8594061558102289 
65.00018993093424 0.8585178720988238 
66.00018993093424 0.8562203489287965 
67.00018993093424 0.8542308870247848 
68.00018993093424 0.8522109375 
69.00018993093424 0.8503198678061333 
70.00018993093424 0.8468879072805084 
71.00018993093424 0.8468018316136318 
72.00018993093424 0.8418483416692923 
73.00018993093424 0.838685502651754 
74.00018993093424 0.8357581190269899 
75.00018993093424 0.8313616549175594 
76.00018993093424 0.8293527390516694 
77.00018993093424 0.8268821292139261 
78.00018993093424 0.8219728382298888 
79.00018993093424 0.8170117366362114 
80.00018993093424 0.815949111925016 
81.00018993093424 0.8112046280980882 
82.00018993093424 0.8074917086746479 
83.00018993093424 0.8027181228339642 
84.00018993093424 0.7957119538962396 
85.00018993093424 0.7906039073986562 
86.00018993093424 0.7866968047679064 
87.00018993093424 0.7804562188222015 
88.00018993093424 0.7735925531007142 
89.00018993093424 0.7683414805844357 
90.00018993093424 0.7608907769507455 
91.00018993093424 0.7557584462297846 
92.00018993093424 0.7490536113736617 
93.00018993093424 0.7412642574432887 
94.00018993093424 0.735865219688616 
95.00018993093424 0.7291763134057967 
96.00018993093424 0.7216652879515854 
97.00018993093424 0.7148414602368202 
98.00018993093424 0.7086478267433306 
99.00018993093424 0.7012156174516901 
100.00018993093424 0.6964527935307717 
101.00018993093424 0.6910828741992233 
102.00018993093424 0.6871285421261287 
103.00018993093424 0.6781842378176848 
104.00018993093424 0.6730592542270525 
105.00018993093424 0.670797029576245 
106.00018993093424 0.6657729347169697 
107.00018993093424 0.658913627651753 
108.00018993093424 0.648709749789961 
109.00018993093424 0.6406777689167183 
110.00018993093424 0.6265055119066386 
111.00018993093424 0.6181451959934887 
112.00018993093424 0.61419510016278 
113.00018993093424 0.601939372637052 
114.00018993093424 0.5953244699774218 
115.00018993093424 0.5864184831836803 
116.00018993093424 0.5758636722852332 
117.00018993093424 0.5711906039960106 
118.00018993093424 0.5650651681632003 
119.00018993093424 0.5519195481516467 
120.00018993093424 0.5477636489839334 
121.00018993093424 0.5386694631511215 
122.00018993093424 0.5300874527410194 
123.00018993093424 0.5297996281637234 
124.00018993093424 0.5170601472248451 
125.00018993093424 0.5136091163883628 
126.00018993093424 0.5067481838111729 
127.00018993093424 0.5005572004305837 
128.00018993093425 0.49089790911835973 
129.00018993093425 0.4880885357592927 
130.00018993093425 0.47954560425856235 
131.00018993093425 0.4758429341262306 
132.00018993093425 0.46926106024207126 
133.00018993093425 0.4604661665091371 
134.00018993093425 0.4585957230623804 
135.00018993093425 0.44801007403906673 
136.00018993093425 0.4442080261499695 
137.00018993093425 0.43843483938510786 
138.00018993093425 0.43154846375498657 
139.00018993093425 0.42471854652384045 
140.00018993093425 0.41867732487922693 
141.00018993093425 0.41447519363054036 
142.00018993093425 0.4075453010134414 
143.00018993093425 0.40234075069575653 
144.00018993093425 0.3961847927825038 
145.00018993093425 0.39286502507351445 
146.00018993093425 0.38922558548624225 
147.00018993093425 0.38220129076086934 
148.00018993093425 0.38165897132955257 
149.00018993093425 0.37792644074249115 
150.00018993093425 0.37345467240338154 
151.00018993093425 0.3700167057209626 
152.00018993093425 0.36895833759976904 
153.00018993093425 0.36445571636736024 
154.00018993093425 0.3639031725871665 
155.00018993093425 0.3610645337770425 
156.00018993093425 0.3564194391934473 
157.00018993093425 0.3555915570520908 
158.00018993093425 0.35281904930686897 
159.00018993093425 0.3493904254620876 
160.00018993093425 0.34732183889939106 
161.00018993093425 0.3449013006064906 
162.00018993093425 0.33993463393982387 
163.00018993093425 0.33744178875236325 
164.00018993093425 0.33214090297469034 
165.00018993093425 0.33044085440296167 
166.00018993093425 0.3258564288621084 
167.00018993093425 0.32311604311069125 
168.00018993093425 0.31925480138101225 
169.00018993093425 0.3170769868462505 
170.00018993093425 0.31605086477368144 
171.00018993093425 0.31466102972064713 
172.00018993093425 0.32019649791272825 
173.00018993093425 0.3357255401963873 
174.00018993093425 0.3530218983013022 
175.00018993093425 0.3533234315926275 
176.00018993093425 0.3535460604389833 
177.00018993093425 0.3738448113579075 
178.00018993093425 0.39261453115154377 
179.00018993093425 0.39107081790852766 
180.00018993093425 0.3824967122190718 
181.00018993093425 0.37165701763022446 
182.00018993093425 0.3278901143404749 
183.00018993093425 0.32693551709199736 
184.00018993093425 0.3326621061751734 
185.00018993093425 0.3071523560570259 
186.00018993093425 0.30548433922757845 
187.00018993093425 0.310605799726948 
188.00018993093425 0.2937835174464397 
189.00018993093425 0.3057753770872716 
190.00018993093425 0.30533429426591063 
191.00018993093425 0.28119774830655353 
192.00018993093425 0.2925294324984247 
193.00018993093425 0.2787968372584543 
194.00018993093425 0.26632254844045355 
195.00018993093425 0.28404882279195537 
196.00018993093425 0.25966678973692525 
197.00018993093425 0.26746781597878594 
198.00018993093425 0.2572336739918086 
199.00018993093425 0.2521009274574668 
200.00018993093425 0.23093710781611004 
201.00018993093425 0.24482652902488986 
202.00018993093425 0.22681934434730083 
203.00018993093425 0.23224383434415025 
204.00018993093425 0.22887124159840386 
205.00018993093425 0.2267793330576561 
206.00018993093425 0.23309090789750062 
207.00018993093425 0.21528529556553225 
208.00018993093425 0.2175173020373873 
209.00018993093425 0.22353468152698988 
210.00018993093425 0.2160819181894558 
211.00018993093425 0.21045573277672766 
212.00018993093425 0.19996352558548625 
213.00018993093425 0.21168734214188145 
214.00018993093425 0.19534900034131494 
215.00018993093425 0.1912074505093473 
216.00018993093425 0.18021868403434146 
217.00018993093425 0.18591487181001906 
218.00018993093425 0.18553832145295115 
219.00018993093425 0.17555444431316966 
220.00018993093425 0.18080939928586476 
221.00018993093425 0.18054451631747565 
222.00018993093425 0.17827093671235061 
223.00018993093425 0.1682795335801304 
224.00018993093425 0.17350033179741636 
225.00018993093425 0.16458964995536624 
226.00018993093425 0.1701608131169925 
227.00018993093425 0.16991574117832345 
228.00018993093425 0.1597260354311067 
229.00018993093425 0.16552567770688925 
230.00018993093425 0.16513334022526807 
231.00018993093425 0.15471087022159216 
232.00018993093425 0.16083011053350146 
233.00018993093425 0.16018390995851736 
234.00018993093425 0.1509594206180424 
235.00018993093425 0.15708113710354993 
236.00018993093425 0.14875912951585812 
237.00018993093425 0.15467793990233158 
238.00018993093425 0.15511130145977725 
239.00018993093425 0.15432298657057358 
240.00018993093425 0.14515825391199327 
241.00018993093425 0.14330789060859062 
242.00018993093425 0.14275322608170546 
243.00018993093425 0.14246193059493806 
244.00018993093425 0.1424717066398865 
245.00018993093425 0.14257301742018474 
246.00018993093425 0.14222059867937417 
247.00018993093425 0.14202013166876698 
248.00018993093425 0.14178334744538953 
249.00018993093425 0.14137061311961782 
250.00018993093425 0.1411211339529511 
251.00018993093425 0.14083281249999993 
252.00018993093425 0.14048452990443186 
253.00018993093425 0.14028266776937617 
254.00018993093425 0.14005430286441917 
255.00018993093425 0.1398628134189246 
256.00018993093425 0.13963404976633062 
257.00018993093425 0.13933677897237978 
258.00018993093425 0.13909165485192188 
259.00018993093425 0.13875767597406008 
260.00018993093425 0.13852414540012603 
261.00018993093425 0.13824934854809906 
262.00018993093425 0.13797521332178114 
263.00018993093425 0.13772974591734927 
264.00018993093425 0.13750447975740387 
265.00018993093425 0.13731700929426588 
266.00018993093425 0.13717314771056496 
267.00018993093425 0.13709763869197644 
268.00018993093425 0.13703240521949167 
269.00018993093425 0.13699018916719174 
270.00018993093425 0.13695267210144924 
271.00018993093425 0.1369277728549674 
272.00018993093425 0.13691227748897286 
273.00018993093425 0.13690292086746478 
274.00018993093425 0.1369011683469859 
275.00018993093425 0.13689999999999997 
276.00018993093425 0.13689999999999997 
277.00018993093425 0.13689999999999997 
278.00018993093425 0.13689999999999997 
279.00018993093425 0.13689999999999997 
280.00018993093425 0.13689999999999997 
281.00018993093425 0.13689999999999997 
282.00018993093425 0.13689999999999997 
283.00018993093425 0.13689999999999997 
284.00018993093425 0.13689999999999997 
285.00018993093425 0.13689999999999997 
286.00018993093425 0.13689999999999997 
287.00018993093425 0.13689999999999997 
288.00018993093425 0.13689999999999997 
289.00018993093425 0.13689999999999997 
290.00018993093425 0.13689999999999997 
291.00018993093425 0.13689999999999997 
292.00018993093425 0.13689999999999997 
293.00018993093425 0.13689999999999997 
294.00018993093425 0.13689999999999997 
295.00018993093425 0.13689999999999997 
296.00018993093425 0.13689999999999997 
297.00018993093425 0.13689999999999997 
298.00018993093425 0.13689999999999997 
299.00018993093425 0.13689999999999997 
300.00018993093425 0.13689999999999997 
301.00018993093425 0.13689999999999997 
302.00018993093425 0.13689999999999997 
303.00018993093425 0.13689999999999997 
304.00018993093425 0.13689999999999997 
305.00018993093425 0.13689999999999997 
306.00018993093425 0.13689999999999997 
307.00018993093425 0.13689999999999997 
308.00018993093425 0.13689999999999997 
309.00018993093425 0.13689999999999997 
310.00018993093425 0.13689999999999997 
311.00018993093425 0.13689999999999997 
312.00018993093425 0.13689999999999997 
313.00018993093425 0.13689999999999997 
314.00018993093425 0.13689999999999997 
315.00018993093425 0.13689999999999997 
316.00018993093425 0.13689999999999997 
317.00018993093425 0.13689999999999997 
318.00018993093425 0.13689999999999997 
319.00018993093425 0.13689999999999997 
320.00018993093425 0.13689999999999997 
321.00018993093425 0.13689999999999997 
322.00018993093425 0.13689999999999997 
323.00018993093425 0.13689999999999997 
324.00018993093425 0.13689999999999997 
325.00018993093425 0.13689999999999997 
326.00018993093425 0.13689999999999997 
327.00018993093425 0.13689999999999997 
328.00018993093425 0.13689999999999997 
329.00018993093425 0.13689999999999997 
330.00018993093425 0.13689999999999997 
331.00018993093425 0.13689999999999997 
332.00018993093425 0.13689999999999997 
333.00018993093425 0.13689999999999997 
334.00018993093425 0.13689999999999997 
335.00018993093425 0.13689999999999997 
336.00018993093425 0.13689999999999997 
337.00018993093425 0.13689999999999997 
338.00018993093425 0.13689999999999997 
339.00018993093425 0.13689999999999997 
340.00018993093425 0.13689999999999997 
341.00018993093425 0.13689999999999997 
342.00018993093425 0.13689999999999997 
343.00018993093425 0.13689999999999997 
344.00018993093425 0.13689999999999997 
345.00018993093425 0.13689999999999997 
346.00018993093425 0.13689999999999997 
347.00018993093425 0.13689999999999997 
348.00018993093425 0.13689999999999997 
349.00018993093425 0.13689999999999997 
350.00018993093425 0.13689999999999997 
351.00018993093425 0.13689999999999997 
352.00018993093425 0.13689999999999997 
353.00018993093425 0.13689999999999997 
354.00018993093425 0.13689999999999997 
355.00018993093425 0.13689999999999997 
356.00018993093425 0.13689999999999997 
357.00018993093425 0.13689999999999997 
358.00018993093425 0.13689999999999997 
359.00018993093425 0.13689999999999997 
360.00018993093425 0.13689999999999997 
361.00018993093425 0.13689999999999997 
362.00018993093425 0.13689999999999997 
363.00018993093425 0.13689999999999997 
364.00018993093425 0.13689999999999997 
365.00018993093425 0.13689999999999997 
366.00018993093425 0.13689999999999997 
367.00018993093425 0.13689999999999997 
368.00018993093425 0.13689999999999997 
369.00018993093425 0.13689999999999997 
370.00018993093425 0.13689999999999997 
371.00018993093425 0.13689999999999997 
372.00018993093425 0.13689999999999997 
373.00018993093425 0.13689999999999997 
374.00018993093425 0.13689999999999997 
375.00018993093425 0.13689999999999997 
376.00018993093425 0.13689999999999997 
377.00018993093425 0.13689999999999997 
378.00018993093425 0.13689999999999997 
379.00018993093425 0.13689999999999997 
380.00018993093425 0.13689999999999997 
381.00018993093425 0.13689999999999997 
#####################################################################
# End of data export. Simulation finished at: 2017-05-23T05:12+0000 #
#####################################################################
