#####################################################################
# Alchemist log file - simulation started at: 2017-05-25T10:19+0000 #
#####################################################################
# random = 8.0, targets = 3.1622776601683795, density = 0.11269076455391362, gridShift = 0.0, perturbation = 0.5, connfactor = 2.0
#
# The columns have the following meaning: 
# time se[Mean] 
0.0 NaN 
1.0490773234798803 NaN 
2.0490773234798803 1.0236491106406735 
3.0490773234798803 1.1739998458929755 
4.04907732347988 1.7323402438132252 
5.04907732347988 3.92360394919274 
6.04907732347988 3.2869521822350265 
7.04907732347988 8.167290730870985 
8.04907732347988 6.082461132603861 
9.04907732347988 6.6165164569988795 
10.04907732347988 7.483293772455585 
11.04907732347988 5.39823024794891 
12.04907732347988 7.18148240341812 
13.04907732347988 9.039661909626856 
14.04907732347988 5.8633877898617754 
15.04907732347988 18.065420282094344 
16.049077323479878 19.982194401859427 
17.049077323479878 12.272653535130232 
18.049077323479878 21.32494291959388 
19.049077323479878 26.79078087207968 
20.049077323479878 15.080148356325232 
21.049077323479878 9.372019478305537 
22.049077323479878 8.102132418422997 
23.049077323479878 7.986604679171975 
24.049077323479878 8.336429118912044 
25.049077323479878 8.394733192202056 
26.049077323479878 8.394733192202056 
27.049077323479878 8.394733192202056 
28.049077323479878 8.394733192202056 
29.049077323479878 8.394733192202056 
#####################################################################
# End of data export. Simulation finished at: 2017-05-25T10:19+0000 #
#####################################################################
