#####################################################################
# Alchemist log file - simulation started at: 2017-05-25T12:48+0000 #
#####################################################################
# random = 18.0, targets = 1.0, density = 3.5589026259761294, gridShift = 0.0, perturbation = 0.0, connfactor = 0.75
#
# The columns have the following meaning: 
# time se[Mean] 
0.0 NaN 
1.001562157851807 NaN 
2.001562157851807 1.0 
3.001562157851807 1.0 
4.001562157851807 1.0 
5.001562157851807 1.0 
6.001562157851807 1.0 
7.001562157851807 1.0 
8.001562157851808 1.0 
9.001562157851808 1.0 
10.001562157851808 1.0 
11.001562157851808 1.0 
12.001562157851808 0.9977777777777778 
13.001562157851808 0.9933333333333333 
14.001562157851808 0.9863888888888889 
15.001562157851808 0.9688888888888888 
16.001562157851808 0.9619444444444444 
17.001562157851808 0.9461111111111109 
18.001562157851808 0.9275000000000001 
19.001562157851808 0.9069444444444443 
20.001562157851808 0.8925000000000006 
21.001562157851808 0.8613888888888886 
22.001562157851808 0.8519444444444447 
23.001562157851808 0.808333333333333 
24.001562157851808 0.7774999999999995 
25.001562157851808 0.747222222222223 
26.001562157851808 0.7194444444444434 
27.001562157851808 0.6950000000000003 
28.001562157851808 0.6597222222222232 
29.001562157851808 0.6430555555555555 
30.001562157851808 0.6097222222222222 
31.001562157851808 0.5808333333333351 
32.00156215785181 0.5647222222222208 
33.00156215785181 0.5294444444444435 
34.00156215785181 0.5161111111111111 
35.00156215785181 0.47444444444444506 
36.00156215785181 0.4569444444444437 
37.00156215785181 0.4180555555555567 
38.00156215785181 0.38861111111110974 
39.00156215785181 0.35277777777778 
40.00156215785181 0.3261111111111103 
41.00156215785181 0.29361111111111143 
42.00156215785181 0.25861111111111273 
43.00156215785181 0.2350000000000005 
44.00156215785181 0.19611111111111246 
45.00156215785181 0.17250000000000046 
46.00156215785181 0.13999999999999957 
47.00156215785181 0.11249999999999993 
48.00156215785181 0.08499999999999938 
49.00156215785181 0.0625 
50.00156215785181 0.04999999999999967 
51.00156215785181 0.032499999999999855 
52.00156215785181 0.02249999999999999 
53.00156215785181 0.017499999999999946 
54.00156215785181 0.00500000000000005 
55.00156215785181 0.0 
56.00156215785181 0.0 
57.00156215785181 0.0 
58.00156215785181 0.0 
59.00156215785181 0.0 
60.00156215785181 0.0 
61.00156215785181 0.0 
62.00156215785181 0.0 
63.00156215785181 0.0 
64.00156215785181 0.0 
65.00156215785181 0.0 
66.00156215785181 0.0 
67.00156215785181 0.0 
68.00156215785181 0.0 
69.00156215785181 0.0 
70.00156215785181 0.0 
71.00156215785181 0.0 
72.00156215785181 0.0 
73.00156215785181 0.0 
74.00156215785181 0.0 
75.00156215785181 0.0 
76.00156215785181 0.0 
77.00156215785181 0.0 
78.00156215785181 0.0 
79.00156215785181 0.0 
80.00156215785181 0.0 
81.00156215785181 0.0 
82.00156215785181 0.0 
83.00156215785181 0.0 
84.00156215785181 0.0 
85.00156215785181 0.0 
86.00156215785181 0.0 
87.00156215785181 0.0 
88.00156215785181 0.0 
89.00156215785181 0.0 
90.00156215785181 0.0 
91.00156215785181 0.0 
92.00156215785181 0.0 
93.00156215785181 0.0 
94.00156215785181 0.0 
95.00156215785181 0.0 
96.00156215785181 0.0 
97.00156215785181 0.0 
#####################################################################
# End of data export. Simulation finished at: 2017-05-25T12:49+0000 #
#####################################################################
