#####################################################################
# Alchemist log file - simulation started at: 2017-05-23T05:19+0000 #
#####################################################################
# random = 5.0, targets = 1.0, density = 0.05649405772326896, gridShift = 1.0, perturbation = 0.0, connfactor = 0.5
#
# The columns have the following meaning: 
# time se[Mean] 
0.0 NaN 
1.123893470128217 NaN 
2.123893470128217 1.0 
3.123893470128217 1.0 
4.123893470128217 1.0 
5.123893470128217 0.9444444444444444 
6.123893470128217 0.9444444444444444 
7.123893470128217 0.7864583333333334 
8.123893470128216 0.8350694444444444 
9.123893470128216 0.5746527777777778 
10.123893470128216 0.4809027777777778 
11.123893470128216 0.4427083333333333 
12.123893470128216 0.18576388888888884 
13.123893470128216 0.09722222222222224 
14.123893470128216 0.034722222222222224 
15.123893470128216 0.01388888888888889 
16.123893470128216 0.006944444444444444 
17.123893470128216 0.0 
18.123893470128216 0.0 
19.123893470128216 0.0 
20.123893470128216 0.0 
#####################################################################
# End of data export. Simulation finished at: 2017-05-23T05:19+0000 #
#####################################################################
