#####################################################################
# Alchemist log file - simulation started at: 2017-05-24T23:53+0000 #
#####################################################################
# random = 16.0, targets = 10.0, density = 1.2632455339402642, gridShift = 0.0, perturbation = 0.5, connfactor = 1.5
#
# The columns have the following meaning: 
# time se[Mean] 
0.0 NaN 
1.0066017814354276 NaN 
2.0066017814354273 1.0712721893491124 
3.0066017814354273 1.1054967948717949 
4.006601781435427 1.149341305062459 
5.006601781435427 1.1909705785667324 
6.006601781435427 1.1725156147271532 
7.006601781435427 1.26174597304405 
8.006601781435428 1.2885716633793556 
9.006601781435428 1.326650641025641 
10.006601781435428 1.4678073635765942 
11.006601781435428 1.6484615384615384 
12.006601781435428 1.634363083497699 
13.006601781435428 1.6618129520052598 
14.006601781435428 1.7417776134122285 
15.006601781435428 1.665741699539776 
16.006601781435428 1.6624498685075608 
17.006601781435428 1.7290816074950695 
18.006601781435428 1.7620775805391196 
19.006601781435428 1.8489287475345164 
20.006601781435428 1.8780132314266937 
21.006601781435428 1.9225012327416175 
22.006601781435428 2.0273245397764628 
23.006601781435428 1.9533004602235366 
24.006601781435428 2.0892735042735047 
25.006601781435428 2.0914332675871137 
26.006601781435428 2.2357010190664033 
27.006601781435428 2.3519045857988163 
28.006601781435428 2.5090096975673895 
29.006601781435428 2.6997608481262327 
30.006601781435428 2.895453238001315 
31.006601781435428 2.7737212360289276 
32.00660178143543 3.0195488165680477 
33.00660178143543 3.184478139381985 
34.00660178143543 2.9813909434582513 
35.00660178143543 3.2389114891518735 
36.00660178143543 3.3267114562787636 
37.00660178143543 3.514249260355029 
38.00660178143543 3.5534381163708084 
39.00660178143543 3.635457347140039 
40.00660178143543 3.9851923076923073 
41.00660178143543 4.217981591058514 
42.00660178143543 4.88424597304405 
43.00660178143543 5.911326840894149 
44.00660178143543 6.412772846811308 
45.00660178143543 6.029499917817225 
46.00660178143543 7.1256434911242605 
47.00660178143543 7.212601084812623 
48.00660178143543 5.863436883629192 
49.00660178143543 7.104947403024326 
50.00660178143543 7.2532901873767255 
51.00660178143543 7.720276134122288 
52.00660178143543 7.490151627218935 
53.00660178143543 7.540416666666665 
54.00660178143543 7.123127876397109 
55.00660178143543 6.198330456936228 
56.00660178143543 6.036302186061798 
57.00660178143543 4.948643984220908 
58.00660178143543 4.36184623602893 
59.00660178143543 4.793416748849443 
60.00660178143543 4.458858481262329 
61.00660178143543 3.9902798323471402 
62.00660178143543 3.995678418803419 
63.00660178143543 4.001309171597633 
64.00660178143542 3.9985535831689676 
65.00660178143542 3.99689677843524 
66.00660178143542 4.0 
67.00660178143542 4.0 
68.00660178143542 4.0 
69.00660178143542 4.0 
70.00660178143542 4.0 
71.00660178143542 4.0 
72.00660178143542 4.0 
73.00660178143542 4.0 
74.00660178143542 4.0 
75.00660178143542 4.0 
76.00660178143542 4.0 
77.00660178143542 4.0 
78.00660178143542 4.0 
79.00660178143542 4.0 
80.00660178143542 4.0 
81.00660178143542 4.0 
82.00660178143542 4.0 
83.00660178143542 4.0 
84.00660178143542 4.0 
85.00660178143542 4.0 
86.00660178143542 4.0 
87.00660178143542 4.0 
88.00660178143542 4.0 
89.00660178143542 4.0 
#####################################################################
# End of data export. Simulation finished at: 2017-05-24T23:53+0000 #
#####################################################################
