#####################################################################
# Alchemist log file - simulation started at: 2017-05-26T00:35+0000 #
#####################################################################
# random = 19.0, targets = 31.622776601683793, density = 0.3174802103936399, gridShift = 1.0, perturbation = 0.5, connfactor = 0.1
#
# The columns have the following meaning: 
# time se[Mean] 
0.0 NaN 
1.0189000266060093 NaN 
2.0189000266060093 1.0 
3.0189000266060093 1.0 
4.018900026606009 1.0 
5.018900026606009 1.0 
6.018900026606009 0.9988884722642256 
7.018900026606009 0.9933308335853535 
8.018900026606008 0.9899962503780302 
9.018900026606008 0.9844386116991581 
10.018900026606008 0.9855501394349325 
11.018900026606008 0.9822155562276093 
12.018900026606008 0.9799925007560604 
13.018900026606008 0.9777694452845116 
14.018900026606008 0.9777694452845116 
15.018900026606008 0.9722118066056394 
16.01890002660601 0.9666541679267673 
17.01890002660601 0.9622080569836696 
18.01890002660601 0.9555388905690231 
19.01890002660601 0.957761946040572 
20.01890002660601 0.9488697241543765 
21.01890002660601 0.9423077005968729 
22.01890002660601 0.9282864114603768 
23.01890002660601 0.9314067089534144 
24.01890002660601 0.9250589711101964 
25.01890002660601 0.9250589711101964 
26.01890002660601 0.9250589711101964 
27.01890002660601 0.9208271458813845 
28.01890002660601 0.9314067089534144 
29.01890002660601 0.9208271458813845 
30.01890002660601 0.9292907963390084 
31.01890002660601 0.9271748837246024 
32.018900026606005 0.9356385341822263 
33.018900026606005 0.9377544467966323 
34.018900026606005 0.9377544467966323 
35.018900026606005 0.9377544467966323 
36.018900026606005 0.9377544467966323 
37.018900026606005 0.9377544467966323 
38.018900026606005 0.9377544467966323 
39.018900026606005 0.9377544467966323 
40.018900026606005 0.9377544467966323 
41.018900026606005 0.9377544467966323 
42.018900026606005 0.9377544467966323 
43.018900026606005 0.9377544467966323 
#####################################################################
# End of data export. Simulation finished at: 2017-05-26T00:35+0000 #
#####################################################################
