#####################################################################
# Alchemist log file - simulation started at: 2017-05-23T22:06+0000 #
#####################################################################
# random = 6.0, targets = 1.0, density = 0.04, gridShift = 0.0, perturbation = 0.0, connfactor = 0.5
#
# The columns have the following meaning: 
# time se[Mean] 
0.0 NaN 
1.0115592716150654 NaN 
2.0115592716150656 1.0 
3.0115592716150656 0.953125 
4.011559271615066 0.796875 
5.011559271615066 0.65625 
6.011559271615066 0.390625 
7.011559271615066 0.109375 
8.011559271615067 0.03125 
9.011559271615067 0.0 
10.011559271615067 0.0 
#####################################################################
# End of data export. Simulation finished at: 2017-05-23T22:06+0000 #
#####################################################################
