#####################################################################
# Alchemist log file - simulation started at: 2017-05-23T09:52+0000 #
#####################################################################
# random = 11.0, targets = 31.622776601683793, density = 0.05649405772326896, gridShift = 1.0, perturbation = 0.0, connfactor = 0.25
#
# The columns have the following meaning: 
# time se[Mean] 
0.0 NaN 
1.0064109664928056 NaN 
2.0064109664928056 1.0 
3.0064109664928056 1.0 
4.006410966492806 0.9866181602367633 
5.006410966492806 0.9903835073119738 
6.006410966492806 0.952198786559869 
7.006410966492806 0.9384419467966324 
8.006410966492805 0.9326845511838167 
9.006410966492805 0.91933396142058 
10.006410966492805 0.904522573119738 
11.006410966492805 0.8874378862812909 
12.006410966492805 0.8545810126043967 
13.006410966492805 0.8366917772283443 
14.006410966492805 0.8202633403898972 
15.006410966492805 0.7765246269497663 
16.006410966492805 0.7651348357241349 
17.006410966492805 0.7445115032728721 
18.006410966492805 0.7428632047352668 
19.006410966492805 0.7427694547352668 
20.006410966492805 0.7596274401113192 
21.006410966492805 0.7528467459608983 
22.006410966492805 0.7494563988856877 
23.006410966492805 0.7562370930361088 
24.006410966492805 0.7630177871865297 
25.006410966492805 0.7630177871865297 
26.006410966492805 0.7630177871865297 
27.006410966492805 0.7630177871865297 
28.006410966492805 0.7630177871865297 
29.006410966492805 0.7630177871865297 
#####################################################################
# End of data export. Simulation finished at: 2017-05-23T09:52+0000 #
#####################################################################
