#####################################################################
# Alchemist log file - simulation started at: 2017-05-23T23:09+0000 #
#####################################################################
# random = 6.0, targets = 1.0, density = 14.160781367816199, gridShift = 0.0, perturbation = 0.0, connfactor = 2.0
#
# The columns have the following meaning: 
# time se[Mean] 
0.0 NaN 
1.0010083797655576 NaN 
2.0010083797655573 1.071170282708743 
3.0010083797655573 1.1244247205785707 
4.001008379765557 1.183162575790779 
5.001008379765557 1.2185833515961693 
6.001008379765557 1.1962752940317083 
7.001008379765557 1.1766975308641943 
8.001008379765558 1.1031530791146154 
9.001008379765558 1.1153389582876747 
10.001008379765558 1.0454607714223112 
11.001008379765558 1.0368863686171381 
12.001008379765558 1.0480403973993722 
13.001008379765558 1.0161854408649285 
14.001008379765558 1.0926245525604485 
15.001008379765558 1.0090492366133392 
16.00100837976556 1.0950352472788343 
17.00100837976556 1.0013103586821537 
18.00100837976556 1.0600299510555922 
19.00100837976556 1.0202352253634308 
20.00100837976556 1.024622872379282 
21.00100837976556 1.0292114106216668 
22.00100837976556 1.002949448462269 
23.00100837976556 1.0149070421506317 
24.00100837976556 1.0017760610709328 
25.00100837976556 1.0095468989699758 
26.00100837976556 0.999196435093871 
27.00100837976556 1.0 
28.00100837976556 0.9995982175469355 
29.00100837976556 1.0 
30.00100837976556 0.9997991087734678 
31.00100837976556 1.0 
32.00100837976556 1.0 
33.00100837976556 1.0 
34.00100837976556 1.0 
35.00100837976556 1.0 
36.00100837976556 1.0 
37.00100837976556 1.0 
38.00100837976556 1.0 
39.00100837976556 1.0 
40.00100837976556 1.0 
41.00100837976556 1.0 
42.00100837976556 1.0006620279056178 
43.00100837976556 1.0 
44.00100837976556 1.0030224998173718 
45.00100837976556 1.001986083716853 
46.00100837976556 1.001871940974505 
47.00100837976556 1.001123164584703 
48.00100837976556 1.0029083570750237 
49.00100837976556 1.0024472203959383 
50.00100837976556 0.9998584629994887 
51.00100837976556 1.0003469939367375 
52.00100837976556 0.9997717145153042 
53.00100837976556 0.9999726057418366 
54.00100837976556 0.999196435093871 
55.00100837976556 0.9993973263204032 
56.00100837976556 0.9986211556724377 
57.00100837976556 0.9978997735407993 
58.00100837976556 0.9962332895025204 
59.00100837976556 0.9940645773979108 
60.00100837976556 0.9932929724596392 
61.00100837976556 1.103194170501861 
62.00100837976556 0.9911105632259477 
63.00100837976556 1.5588976550514946 
64.00100837976555 1.3368032727007109 
65.00100837976555 1.566668492950555 
66.00100837976555 1.3379492658338912 
67.00100837976555 1.790689604792159 
68.00100837976555 1.565755351011767 
69.00100837976555 1.5543456424866728 
70.00100837976555 1.43639053254439 
71.00100837976555 1.4224468551391551 
72.00100837976555 1.2955657827452756 
73.00100837976555 1.4007779969318483 
74.00100837976555 1.2773531667762403 
75.00100837976555 1.371552889181096 
76.00100837976555 1.365608335159622 
77.00100837976555 1.2323854920008792 
78.00100837976555 1.2181267806267848 
79.00100837976555 1.3194992329607713 
80.00100837976555 0.9563472496164803 
81.00100837976555 1.3935915698736228 
82.00100837976555 1.042401745927388 
83.00100837976555 1.1354874351669253 
84.00100837976555 1.2237289064212167 
85.00100837976555 1.2090912411425225 
86.00100837976555 0.9584840017532334 
87.00100837976555 1.1618087515523414 
88.00100837976555 1.0331881437650672 
89.00100837976555 1.0083826429980287 
90.00100837976555 1.0998246767477555 
91.00100837976555 0.7390833881218459 
92.00100837976555 0.71199046679816 
93.00100837976555 0.8059390751698469 
94.00100837976555 0.5606782818321258 
95.00100837976555 0.6520061728395136 
96.00100837976555 0.6354783037475282 
97.00100837976555 0.6172839506172857 
98.00100837976555 0.48536690043100295 
99.00100837976555 0.5788908978011514 
100.00100837976555 0.5633857476806167 
101.00100837976555 0.5455429541968043 
102.00100837976555 0.4132332529768381 
103.00100837976555 0.5086246256118063 
104.00100837976555 0.49380433194536016 
105.00100837976555 0.3594948498794635 
106.00100837976555 0.4549090510629032 
107.00100837976555 0.43927606107093553 
108.00100837976555 0.30658284023669247 
109.00100837976555 0.40094692819051353 
110.00100837976555 0.38398988238732257 
111.00100837976555 0.2531275111403363 
112.00100837976555 0.34908503177733446 
113.00100837976555 0.33321919059098704 
114.00100837976555 0.2023613850536873 
115.00100837976555 0.2968761414274198 
116.00100837976555 0.168250967930456 
117.00100837976555 0.26666484038278565 
118.00100837976555 0.13987051647308038 
119.00100837976555 0.1230047848637626 
120.00100837976555 0.10939440426620045 
121.00100837976555 0.09793903864416606 
122.00100837976555 0.08608189056906827 
123.00100837976555 0.07597340930674379 
124.00100837976555 0.06670045291840147 
125.00100837976555 0.05943640879538237 
126.00100837976555 0.05243717583461176 
127.00100837976555 0.04573471400394593 
128.00100837976555 0.03756665936153145 
129.00100837976555 0.0313344656293373 
130.00100837976555 0.02585104828694606 
131.00100837976555 0.020207831105266676 
132.00100837976555 0.0164365548980939 
133.00100837976555 0.012226970560303696 
134.00100837976555 0.009117722258747709 
135.00100837976555 0.006688764701585106 
136.00100837976555 0.005246000438308321 
137.00100837976555 0.0032827452699247615 
138.00100837976555 0.0017623639418511046 
139.00100837976555 0.0010272846811308712 
140.00100837976555 4.565709693914864E-4 
141.00100837976555 1.141427423478718E-4 
142.00100837976555 0.0 
143.00100837976555 0.0 
144.00100837976555 0.0 
145.00100837976555 0.0 
146.00100837976555 0.0 
147.00100837976555 0.0 
148.00100837976555 0.0 
149.00100837976555 0.0 
150.00100837976555 0.0 
151.00100837976555 0.0 
152.00100837976555 0.0 
153.00100837976555 0.0 
154.00100837976555 0.0 
155.00100837976555 0.0 
156.00100837976555 0.0 
157.00100837976555 0.0 
158.00100837976555 0.0 
159.00100837976555 0.0 
160.00100837976555 0.0 
161.00100837976555 0.0 
162.00100837976555 0.0 
163.00100837976555 0.0 
164.00100837976555 0.0 
165.00100837976555 0.0 
166.00100837976555 0.0 
167.00100837976555 0.0 
168.00100837976555 0.0 
169.00100837976555 0.0 
170.00100837976555 0.0 
171.00100837976555 0.0 
172.00100837976555 0.0 
173.00100837976555 0.0 
174.00100837976555 0.0 
175.00100837976555 0.0 
176.00100837976555 0.0 
177.00100837976555 0.0 
178.00100837976555 0.0 
179.00100837976555 0.0 
180.00100837976555 0.0 
181.00100837976555 0.0 
182.00100837976555 0.0 
183.00100837976555 0.0 
184.00100837976555 0.0 
185.00100837976555 0.0 
186.00100837976555 0.0 
187.00100837976555 0.0 
188.00100837976555 0.0 
189.00100837976555 0.0 
190.00100837976555 0.0 
191.00100837976555 0.0 
192.00100837976555 0.0 
193.00100837976555 0.0 
194.00100837976555 0.0 
195.00100837976555 0.0 
196.00100837976555 0.0 
197.00100837976555 0.0 
198.00100837976555 0.0 
199.00100837976555 0.0 
200.00100837976555 0.0 
201.00100837976555 0.0 
202.00100837976555 0.0 
203.00100837976555 0.0 
204.00100837976555 0.0 
205.00100837976555 0.0 
206.00100837976555 0.0 
207.00100837976555 0.0 
208.00100837976555 0.0 
209.00100837976555 0.0 
210.00100837976555 0.0 
211.00100837976555 0.0 
212.00100837976555 0.0 
213.00100837976555 0.0 
214.00100837976555 0.0 
215.00100837976555 0.0 
216.00100837976555 0.0 
217.00100837976555 0.0 
218.00100837976555 0.0 
219.00100837976555 0.0 
220.00100837976555 0.0 
221.00100837976555 0.0 
222.00100837976555 0.0 
223.00100837976555 0.0 
224.00100837976555 0.0 
225.00100837976555 0.0 
226.00100837976555 0.0 
227.00100837976555 0.0 
228.00100837976555 0.0 
229.00100837976555 0.0 
230.00100837976555 0.0 
#####################################################################
# End of data export. Simulation finished at: 2017-05-23T23:18+0000 #
#####################################################################
