#####################################################################
# Alchemist log file - simulation started at: 2017-05-22T03:17+0000 #
#####################################################################
# random = 3.0, targets = 31.622776601683793, density = 0.07978946395100113, gridShift = 1.0, perturbation = 0.5, connfactor = 0.25
#
# The columns have the following meaning: 
# time se[Mean] 
0.0 NaN 
1.0016359619213666 NaN 
2.001635961921367 1.0 
3.001635961921367 0.9984313611699158 
4.001635961921367 0.9984313611699158 
5.001635961921367 0.9937254446796632 
6.001635961921367 0.9874508893593265 
7.001635961921367 0.9571442702630578 
8.001635961921366 0.9649164087403138 
9.001635961921366 0.8929868840791851 
10.001635961921366 0.844636497189656 
11.001635961921366 0.7857188699906207 
12.001635961921366 0.7632863615350256 
13.001635961921366 0.7755198238315354 
14.001635961921366 0.785875804803376 
15.001635961921366 0.8079392297492236 
16.001635961921366 0.8140755535684774 
17.001635961921366 0.8178447015598129 
18.001635961921366 0.8192633403898971 
19.001635961921366 0.8192633403898971 
20.001635961921366 0.8192633403898971 
21.001635961921366 0.8192633403898971 
22.001635961921366 0.8192633403898971 
23.001635961921366 0.8192633403898971 
#####################################################################
# End of data export. Simulation finished at: 2017-05-22T03:17+0000 #
#####################################################################
