#####################################################################
# Alchemist log file - simulation started at: 2017-05-24T17:26+0000 #
#####################################################################
# random = 15.0, targets = 31.622776601683793, density = 0.3174802103936399, gridShift = 0.0, perturbation = 0.5, connfactor = 1.5
#
# The columns have the following meaning: 
# time se[Mean] 
0.0 NaN 
1.0090872484315245 NaN 
2.0090872484315243 NaN 
3.0090872484315243 1.300877858747948 
4.009087248431524 NaN 
5.009087248431524 1.5938759835902838 
6.009087248431524 1.2505595129776708 
7.009087248431524 1.497373746235915 
8.009087248431523 1.4143765791719252 
9.009087248431523 1.4093095350963507 
10.009087248431523 1.3244248700580168 
11.009087248431523 1.2608735298903648 
12.009087248431523 1.2120729123990726 
13.009087248431523 1.3796949978057997 
14.009087248431523 1.3063201018507762 
15.009087248431523 1.4673408355359656 
16.009087248431523 1.639445615868125 
17.009087248431523 1.3786801720571487 
18.009087248431523 1.8439914495779695 
19.009087248431523 2.1665717294913867 
20.009087248431523 2.9063317633579424 
21.009087248431523 3.3334588691482234 
22.009087248431523 3.6478534333648263 
23.009087248431523 4.68114307125304 
24.009087248431523 4.530676290756666 
25.009087248431523 4.140666430322355 
26.009087248431523 5.7370622164695115 
27.009087248431523 6.694360122119032 
28.009087248431523 7.8039789865290015 
29.009087248431523 6.290123230200129 
30.009087248431523 5.545182226967313 
31.009087248431523 4.497046327935486 
32.00908724843153 3.4850121218413377 
33.00908724843153 4.857552845440709 
34.00908724843153 4.432550428084556 
35.00908724843153 5.203917569095527 
36.00908724843153 4.291734698066647 
37.00908724843153 3.680056792683123 
38.00908724843153 2.7885808562104297 
39.00908724843153 2.5058829347486578 
40.00908724843153 2.7616919906093265 
41.00908724843153 2.4779467713595444 
42.00908724843153 2.4682431132313325 
43.00908724843153 2.4600847460764093 
44.00908724843153 2.46585234609157 
45.00908724843153 2.4624199576606163 
46.00908724843153 2.4624199576606163 
47.00908724843153 2.4624199576606163 
48.00908724843153 2.4624199576606163 
49.00908724843153 2.4624199576606163 
50.00908724843153 2.4624199576606163 
51.00908724843153 2.4624199576606163 
52.00908724843153 2.4624199576606163 
53.00908724843153 2.4624199576606163 
54.00908724843153 2.4624199576606163 
55.00908724843153 2.4624199576606163 
56.00908724843153 2.4624199576606163 
57.00908724843153 2.4624199576606163 
#####################################################################
# End of data export. Simulation finished at: 2017-05-24T17:26+0000 #
#####################################################################
