#####################################################################
# Alchemist log file - simulation started at: 2017-05-23T16:29+0000 #
#####################################################################
# random = 12.0, targets = 10.0, density = 0.07978946395100113, gridShift = 0.0, perturbation = 0.0, connfactor = 0.5
#
# The columns have the following meaning: 
# time se[Mean] 
0.0 NaN 
1.0242474491697862 NaN 
2.024247449169786 1.0 
3.024247449169786 0.9858506944444445 
4.024247449169787 0.9076605902777778 
5.024247449169787 0.8267708333333333 
6.024247449169787 0.869240451388889 
7.024247449169787 0.7579340277777777 
8.024247449169787 0.7316362847222222 
9.024247449169787 0.6773958333333333 
10.024247449169787 0.5362847222222222 
11.024247449169787 0.45993055555555556 
12.024247449169787 0.3889236111111111 
13.024247449169787 0.36506944444444445 
14.024247449169787 0.3638020833333333 
15.024247449169787 0.36 
16.024247449169785 0.36 
17.024247449169785 0.36 
18.024247449169785 0.36 
19.024247449169785 0.36 
20.024247449169785 0.36 
#####################################################################
# End of data export. Simulation finished at: 2017-05-23T16:29+0000 #
#####################################################################
