#####################################################################
# Alchemist log file - simulation started at: 2017-05-25T06:12+0000 #
#####################################################################
# random = 17.0, targets = 3.1622776601683795, density = 0.6332893950589894, gridShift = 1.0, perturbation = 0.0, connfactor = 2.0
#
# The columns have the following meaning: 
# time se[Mean] 
0.0 NaN 
1.0045647570182237 NaN 
2.0045647570182235 1.2310427092541731 
3.0045647570182235 1.3407274794320014 
4.0045647570182235 1.409639061921103 
5.0045647570182235 1.4553765301421655 
6.0045647570182235 1.3867021292892905 
7.0045647570182235 1.3118321525225236 
8.004564757018223 1.2855098901063367 
9.004564757018223 1.1715886184807214 
10.004564757018223 1.0759681476254395 
11.004564757018223 0.9978168125726269 
12.004564757018223 1.0635185399222717 
13.004564757018223 1.0358577381065217 
14.004564757018223 1.1265984146360022 
15.004564757018223 1.0978752470442572 
16.004564757018223 1.2635087223632375 
17.004564757018223 1.1490253073352041 
18.004564757018223 1.7444701751230474 
19.004564757018223 1.5406788197118986 
20.004564757018223 1.7853960582414672 
21.004564757018223 2.2082386443002044 
22.004564757018223 2.2532223673168277 
23.004564757018223 3.0752493941610504 
24.004564757018223 2.9516204447198606 
25.004564757018223 3.1895638153722623 
26.004564757018223 3.5728515902751434 
27.004564757018223 3.6052167759830374 
28.004564757018223 4.273442672664584 
29.004564757018223 3.2661299542903053 
30.004564757018223 3.5931084070294395 
31.004564757018223 3.7441642919773375 
32.00456475701822 2.708238815530232 
33.00456475701822 2.2647139446061373 
34.00456475701822 1.6055850082326582 
35.00456475701822 1.3596754020976158 
36.00456475701822 0.9133208853672231 
37.00456475701822 0.4805466369541637 
38.00456475701822 0.4292243959417302 
39.00456475701822 0.3730354078747011 
40.00456475701822 0.3404979986378141 
41.00456475701822 0.30486456612634044 
42.00456475701822 0.2606703291855743 
43.00456475701822 0.2356573247218758 
44.00456475701822 0.20209989983102827 
45.00456475701822 0.19423115501862026 
46.00456475701822 0.17354893436452332 
47.00456475701822 0.15850021043316018 
48.00456475701822 0.15284070478302914 
49.00456475701822 0.14323058184894744 
50.00456475701822 0.14395181589414022 
51.00456475701822 0.13952037591339442 
52.00456475701822 0.1350889359326486 
53.00456475701822 0.1350889359326486 
54.00456475701822 0.1350889359326486 
55.00456475701822 0.1350889359326486 
56.00456475701822 0.1350889359326486 
57.00456475701822 0.1350889359326486 
58.00456475701822 0.1350889359326486 
59.00456475701822 0.1350889359326486 
60.00456475701822 0.1350889359326486 
61.00456475701822 0.1350889359326486 
62.00456475701822 0.1350889359326486 
63.00456475701822 0.1350889359326486 
64.00456475701822 0.1350889359326486 
65.00456475701822 0.1350889359326486 
66.00456475701822 0.1350889359326486 
67.00456475701822 0.1350889359326486 
#####################################################################
# End of data export. Simulation finished at: 2017-05-25T06:12+0000 #
#####################################################################
