0.000000000000000000e+00 nan
6.661338147750939243e-16 3.176125328357691513e-02
1.332267629550187849e-15 1.825680155241622693e-01
8.881784197001252323e-16 1.822506907010963406e-01
2.664535259100375697e-15 1.797166764612251610e-01
1.776356839400250465e-15 1.760745017818843572e-01
1.776356839400250465e-15 1.732905695429733384e-01
1.776356839400250465e-15 1.787862295401937140e-01
5.329070518200751394e-15 1.957389099223892370e-01
0.000000000000000000e+00 2.218820196200678996e-01
3.552713678800500929e-15 2.155154095176257667e-01
3.552713678800500929e-15 2.023577314682737660e-01
3.552713678800500929e-15 1.932515940392504628e-01
1.776356839400250465e-15 1.810920390635540611e-01
3.552713678800500929e-15 1.905859802324439412e-01
5.329070518200751394e-15 1.813394104970123266e-01
1.065814103640150279e-14 1.745160652614896335e-01
3.552713678800500929e-15 1.612433113846608312e-01
0.000000000000000000e+00 1.536831850460270710e-01
1.065814103640150279e-14 1.502583580906671767e-01
7.105427357601001859e-15 1.366435587129570806e-01
7.105427357601001859e-15 1.292156016051818901e-01
7.105427357601001859e-15 1.446656463737051590e-01
0.000000000000000000e+00 1.359709862621127363e-01
7.105427357601001859e-15 1.318055300853323009e-01
3.552713678800500929e-15 1.707481629504239429e-01
3.552713678800500929e-15 3.533128520644230330e-01
1.421085471520200372e-14 2.225286209689291972e-01
7.105427357601001859e-15 2.829061625066853769e-01
7.105427357601001859e-15 5.479039543553368974e-01
1.065814103640150279e-14 2.805423781446872433e-01
7.105427357601001859e-15 1.642745973238185220e-01
2.131628207280300558e-14 4.120300768923074175e-01
0.000000000000000000e+00 1.223559774289630087e-01
7.105427357601001859e-15 1.243963607125180004e-01
7.105427357601001859e-15 1.243963607125180004e-01
0.000000000000000000e+00 1.243963607125180004e-01
2.131628207280300558e-14 1.243963607125180004e-01
2.131628207280300558e-14 1.243963607125180004e-01
7.105427357601001859e-15 1.243963607125180004e-01
1.421085471520200372e-14 1.243963607125180004e-01
2.842170943040400743e-14 1.243963607125180004e-01
1.421085471520200372e-14 1.243963607125180004e-01
7.105427357601001859e-15 1.243963607125180004e-01
1.421085471520200372e-14 1.243963607125180004e-01
2.131628207280300558e-14 1.243963607125180004e-01
