0.000000000000000000e+00 nan
2.220446049250313081e-16 1.371682949114667871e-02
4.440892098500626162e-16 1.775574805212715157e-01
8.881784197001252323e-16 1.774137985006404850e-01
8.881784197001252323e-16 1.759082084799458434e-01
8.881784197001252323e-16 1.735249173548303880e-01
1.776356839400250465e-15 1.702624705006921535e-01
2.664535259100375697e-15 1.662401325816394437e-01
1.776356839400250465e-15 1.650102991337047686e-01
1.776356839400250465e-15 1.617269022969208270e-01
1.776356839400250465e-15 1.605925577510372848e-01
3.552713678800500929e-15 1.585986248161936896e-01
3.552713678800500929e-15 1.571445033624593035e-01
0.000000000000000000e+00 1.568270675970357964e-01
5.329070518200751394e-15 1.550996752232228770e-01
0.000000000000000000e+00 1.533151369283018428e-01
3.552713678800500929e-15 1.526973807490959456e-01
3.552713678800500929e-15 1.523866395973882404e-01
3.552713678800500929e-15 1.535192358216616315e-01
7.105427357601001859e-15 1.514203674631560692e-01
3.552713678800500929e-15 1.552947479420213883e-01
3.552713678800500929e-15 1.497493418250215313e-01
7.105427357601001859e-15 1.505126759304275252e-01
3.552713678800500929e-15 1.490037509913588187e-01
7.105427357601001859e-15 1.504938168655418074e-01
7.105427357601001859e-15 1.479664913815112726e-01
0.000000000000000000e+00 1.442378855169911267e-01
3.552713678800500929e-15 1.457880296539306730e-01
1.065814103640150279e-14 1.411843189887087846e-01
1.065814103640150279e-14 1.401407769183491137e-01
0.000000000000000000e+00 1.402604201008294527e-01
0.000000000000000000e+00 1.430170483179986074e-01
7.105427357601001859e-15 1.435930131087314043e-01
7.105427357601001859e-15 1.484556213762535382e-01
7.105427357601001859e-15 1.497119820333323303e-01
7.105427357601001859e-15 1.574476636056265644e-01
7.105427357601001859e-15 1.610608546499097682e-01
7.105427357601001859e-15 1.665717282250039344e-01
1.421085471520200372e-14 1.721658576574844057e-01
1.421085471520200372e-14 1.979675205071746158e-01
7.105427357601001859e-15 1.885130339671578781e-01
0.000000000000000000e+00 2.047876212856737932e-01
7.105427357601001859e-15 2.155014981306566102e-01
2.131628207280300558e-14 1.982883672507736172e-01
1.421085471520200372e-14 2.113379643903040284e-01
0.000000000000000000e+00 2.000859643232280050e-01
7.105427357601001859e-15 1.992916240887524504e-01
2.131628207280300558e-14 2.060142145239272082e-01
1.421085471520200372e-14 1.996494516893700666e-01
0.000000000000000000e+00 1.914364996605558145e-01
1.421085471520200372e-14 2.153536264184887361e-01
2.131628207280300558e-14 1.948076400744672143e-01
0.000000000000000000e+00 1.766410680117028453e-01
1.421085471520200372e-14 2.301405905247075334e-01
7.105427357601001859e-15 1.993307627711161656e-01
2.842170943040400743e-14 2.160574594524779790e-01
2.131628207280300558e-14 2.746577067524331173e-01
0.000000000000000000e+00 2.313679019625712319e-01
2.131628207280300558e-14 2.651495258605326977e-01
3.552713678800500929e-14 3.912329494849832723e-01
0.000000000000000000e+00 2.587402751927695421e-01
2.842170943040400743e-14 5.819071394549674148e-01
0.000000000000000000e+00 5.117820084027371319e-01
3.552713678800500929e-14 6.477739051705988516e-01
1.421085471520200372e-14 5.058035891766611281e-01
0.000000000000000000e+00 7.124152238177933194e-01
1.421085471520200372e-14 5.015958461414270486e-01
4.263256414560601115e-14 7.073172555554586571e-01
1.421085471520200372e-14 9.173824477201453220e-01
2.842170943040400743e-14 4.976787973291738609e-01
1.421085471520200372e-14 5.662963343685855078e-01
4.263256414560601115e-14 3.618223413788284049e-01
1.421085471520200372e-14 3.628988637090810321e-01
0.000000000000000000e+00 1.505048651020240158e-01
1.421085471520200372e-14 2.979024405495365180e-01
4.263256414560601115e-14 1.859939642113691838e-01
2.842170943040400743e-14 1.450680496801632635e-01
2.842170943040400743e-14 1.451184976969956686e-01
2.842170943040400743e-14 1.451166852828715270e-01
4.263256414560601115e-14 1.450749011110328834e-01
1.421085471520200372e-14 1.450662602058693240e-01
0.000000000000000000e+00 1.450662602058693240e-01
0.000000000000000000e+00 1.450662602058693240e-01
2.842170943040400743e-14 1.450662602058693240e-01
1.421085471520200372e-14 1.450662602058693240e-01
4.263256414560601115e-14 1.450662602058693240e-01
4.263256414560601115e-14 1.450662602058693240e-01
1.421085471520200372e-14 1.450662602058693240e-01
2.842170943040400743e-14 1.450662602058693240e-01
0.000000000000000000e+00 1.450662602058693240e-01
0.000000000000000000e+00 1.450662602058693240e-01
2.842170943040400743e-14 1.450662602058693240e-01
1.421085471520200372e-14 1.450662602058693240e-01
4.263256414560601115e-14 1.450662602058693240e-01
4.263256414560601115e-14 1.450662602058693240e-01
2.842170943040400743e-14 1.450662602058693240e-01
2.842170943040400743e-14 1.450662602058693240e-01
0.000000000000000000e+00 1.450662602058693240e-01
0.000000000000000000e+00 1.450662602058693240e-01
