#####################################################################
# Alchemist log file - simulation started at: 2017-05-22T00:34+0000 #
#####################################################################
# random = 3.0, targets = 10.0, density = 0.2247883923996312, gridShift = 1.0, perturbation = 0.0, connfactor = 0.25
#
# The columns have the following meaning: 
# time se[Mean] 
0.0 NaN 
1.0016359619213666 NaN 
2.001635961921367 1.0 
3.001635961921367 0.9954761904761905 
4.001635961921367 0.96625 
5.001635961921367 0.929404761904762 
6.001635961921367 0.8758928571428571 
7.001635961921367 0.8247619047619048 
8.001635961921366 0.7630357142857143 
9.001635961921366 0.7522619047619047 
10.001635961921366 0.7692857142857144 
11.001635961921366 0.7314880952380952 
12.001635961921366 0.8029166666666667 
13.001635961921366 0.7814285714285715 
14.001635961921366 0.7553571428571428 
15.001635961921366 0.7230357142857143 
16.001635961921366 0.7102380952380953 
17.001635961921366 0.6501785714285714 
18.001635961921366 0.6013690476190476 
19.001635961921366 0.5597619047619048 
20.001635961921366 0.5156547619047619 
21.001635961921366 0.4576190476190476 
22.001635961921366 0.4601190476190476 
23.001635961921366 0.4035714285714286 
24.001635961921366 0.409047619047619 
25.001635961921366 0.39119047619047614 
26.001635961921366 0.3580952380952381 
27.001635961921366 0.3414285714285714 
28.001635961921366 0.31023809523809526 
29.001635961921366 0.2838095238095238 
30.001635961921366 0.2702380952380952 
31.001635961921366 0.25976190476190475 
32.001635961921366 0.25523809523809526 
33.001635961921366 0.24619047619047618 
34.001635961921366 0.25 
35.001635961921366 0.25 
36.001635961921366 0.25 
37.001635961921366 0.25 
38.001635961921366 0.25 
39.001635961921366 0.25 
40.001635961921366 0.25 
41.001635961921366 0.25 
42.001635961921366 0.25 
#####################################################################
# End of data export. Simulation finished at: 2017-05-22T00:34+0000 #
#####################################################################
