#####################################################################
# Alchemist log file - simulation started at: 2017-05-25T06:16+0000 #
#####################################################################
# random = 17.0, targets = 3.1622776601683795, density = 3.5589026259761294, gridShift = 0.0, perturbation = 0.0, connfactor = 1.5
#
# The columns have the following meaning: 
# time se[Mean] 
0.0 NaN 
1.0003034458253823 NaN 
2.0003034458253826 1.052918817827315 
3.0003034458253826 1.098003029418169 
4.0003034458253826 1.1503221646348338 
5.0003034458253826 1.0975557540189105 
6.0003034458253826 1.190024199606977 
7.0003034458253826 1.1511453002956058 
8.000303445825383 1.2167002807382041 
9.000303445825383 1.1765514504302423 
10.000303445825383 1.123651903068731 
11.000303445825383 1.0741210477143392 
12.000303445825383 1.1210096418229833 
13.000303445825383 1.1234979474373432 
14.000303445825383 1.1839963653064356 
15.000303445825383 1.147401998118249 
16.00030344582538 1.050260906361794 
17.00030344582538 1.0639714245666874 
18.00030344582538 0.954750747215988 
19.00030344582538 0.907535232448099 
20.00030344582538 0.8993967189414406 
21.00030344582538 0.8602373107628417 
22.00030344582538 0.7810346309748175 
23.00030344582538 0.7441178223675586 
24.00030344582538 0.6976383718197074 
25.00030344582538 0.6686451695077149 
26.00030344582538 0.6258615506203329 
27.00030344582538 0.5738569631504792 
28.00030344582538 0.53267540666019 
29.00030344582538 0.5018344455397739 
30.00030344582538 0.46204944551958305 
31.00030344582538 0.41680114196338647 
32.00030344582538 0.38772127375532944 
33.00030344582538 0.29946876165998415 
34.00030344582538 0.3016014016134985 
35.00030344582538 0.24935098897188313 
36.00030344582538 0.22637326249553155 
37.00030344582538 0.19249464833271704 
38.00030344582538 0.20343686101452765 
39.00030344582538 0.18120812625285423 
40.00030344582538 0.1942590137365712 
41.00030344582538 0.2937929935586497 
42.00030344582538 0.24127562281584972 
43.00030344582538 0.31563276719376665 
44.00030344582538 0.3781429070761946 
45.00030344582538 0.44936910439592825 
46.00030344582538 0.48327145863303067 
47.00030344582538 0.5901620414309807 
48.00030344582538 0.5110046003972092 
49.00030344582538 0.4679185841328707 
50.00030344582538 0.4734650861585624 
51.00030344582538 0.4004822536221613 
52.00030344582538 0.4064653436794229 
53.00030344582538 0.30992781103313666 
54.00030344582538 0.23169033323675076 
55.00030344582538 0.10507462147562324 
56.00030344582538 0.06288050070649132 
57.00030344582538 0.0026233529828472353 
58.00030344582538 0.002618327524784664 
59.00030344582538 0.0026283784409098063 
60.00030344582538 0.0026133020667220923 
61.00030344582538 0.0026233529828472353 
62.00030344582538 0.0026283784409098063 
63.00030344582538 0.0026334038989723777 
64.00030344582538 0.0026334038989723777 
65.00030344582538 0.0026334038989723777 
66.00030344582538 0.0026334038989723777 
67.00030344582538 0.0026334038989723777 
68.00030344582538 0.0026334038989723777 
69.00030344582538 0.0026334038989723777 
70.00030344582538 0.0026334038989723777 
71.00030344582538 0.0026334038989723777 
72.00030344582538 0.0026334038989723777 
73.00030344582538 0.0026334038989723777 
74.00030344582538 0.0026334038989723777 
75.00030344582538 0.0026334038989723777 
76.00030344582538 0.0026334038989723777 
77.00030344582538 0.0026334038989723777 
78.00030344582538 0.0026334038989723777 
79.00030344582538 0.0026334038989723777 
80.00030344582538 0.0026334038989723777 
81.00030344582538 0.0026334038989723777 
82.00030344582538 0.0026334038989723777 
83.00030344582538 0.0026334038989723777 
84.00030344582538 0.0026334038989723777 
85.00030344582538 0.0026334038989723777 
86.00030344582538 0.0026334038989723777 
87.00030344582538 0.0026334038989723777 
88.00030344582538 0.0026334038989723777 
89.00030344582538 0.0026334038989723777 
90.00030344582538 0.0026334038989723777 
91.00030344582538 0.0026334038989723777 
92.00030344582538 0.0026334038989723777 
93.00030344582538 0.0026334038989723777 
94.00030344582538 0.0026334038989723777 
95.00030344582538 0.0026334038989723777 
96.00030344582538 0.0026334038989723777 
97.00030344582538 0.0026334038989723777 
98.00030344582538 0.0026334038989723777 
99.00030344582538 0.0026334038989723777 
100.00030344582538 0.0026334038989723777 
101.00030344582538 0.0026334038989723777 
102.00030344582538 0.0026334038989723777 
103.00030344582538 0.0026334038989723777 
104.00030344582538 0.0026334038989723777 
105.00030344582538 0.0026334038989723777 
106.00030344582538 0.0026334038989723777 
#####################################################################
# End of data export. Simulation finished at: 2017-05-25T06:16+0000 #
#####################################################################
