#####################################################################
# Alchemist log file - simulation started at: 2017-05-25T01:21+0000 #
#####################################################################
# random = 16.0, targets = 31.622776601683793, density = 0.3174802103936399, gridShift = 1.0, perturbation = 0.0, connfactor = 0.25
#
# The columns have the following meaning: 
# time se[Mean] 
0.0 NaN 
1.0086259768480754 NaN 
2.0086259768480756 1.0 
3.0086259768480756 0.9988884722642256 
4.008625976848076 0.9957307111398488 
5.008625976848076 0.9925610452535674 
6.008625976848076 0.983285417296717 
7.008625976848076 0.979540642304453 
8.008625976848077 0.9675174450081666 
9.008625976848077 0.982470986107788 
10.008625976848077 0.9661963570942076 
11.008625976848077 0.9778421007007915 
12.008625976848077 0.9741122066609085 
13.008625976848077 0.9722844620219193 
14.008625976848077 0.9728893330326637 
15.008625976848077 0.9749534235641232 
16.008625976848077 0.9757053547530521 
17.008625976848077 0.9719325672016511 
18.008625976848077 0.977238979035672 
19.008625976848077 0.9669351566763805 
20.008625976848077 0.9719385195826036 
21.008625976848077 0.9669381328668567 
22.008625976848077 0.9571826338992621 
23.008625976848077 0.9549124818808677 
24.008625976848077 0.9462439967811603 
25.008625976848077 0.9450867811866958 
26.008625976848077 0.9252522416478448 
27.008625976848077 0.9198101518967705 
28.008625976848077 0.9126968287570939 
29.008625976848077 0.8949399809191769 
30.008625976848077 0.8927302918357434 
31.008625976848077 0.8761903652451186 
32.00862597684808 0.861844724284773 
33.00862597684808 0.8610099293252291 
34.00862597684808 0.8438825193039987 
35.00862597684808 0.8381696491576462 
36.00862597684808 0.8350108959697775 
37.00862597684808 0.8283360648935929 
38.00862597684808 0.8273517560661618 
39.00862597684808 0.8247579565679957 
40.00862597684808 0.8225277218706432 
41.00862597684808 0.8216624606622597 
42.00862597684808 0.8208051359618127 
43.00862597684808 0.8199488033248579 
44.00862597684808 0.8196060718573774 
45.00862597684808 0.8192633403898971 
46.00862597684808 0.8192633403898971 
47.00862597684808 0.8192633403898971 
48.00862597684808 0.8192633403898971 
49.00862597684808 0.8192633403898971 
50.00862597684808 0.8192633403898971 
51.00862597684808 0.8192633403898971 
52.00862597684808 0.8192633403898971 
53.00862597684808 0.8192633403898971 
54.00862597684808 0.8192633403898971 
55.00862597684808 0.8192633403898971 
56.00862597684808 0.8192633403898971 
#####################################################################
# End of data export. Simulation finished at: 2017-05-25T01:21+0000 #
#####################################################################
