#####################################################################
# Alchemist log file - simulation started at: 2017-05-24T20:45+0000 #
#####################################################################
# random = 7.0, targets = 10.0, density = 10.026386447354522, gridShift = 1.0, perturbation = 0.0, connfactor = 1.0
#
# The columns have the following meaning: 
# time se[Mean] 
0.0 NaN 
1.000984151344496 NaN 
2.000984151344496 1.0036175115207373 
3.000984151344496 1.0068878648233488 
4.000984151344496 1.01055273937532 
5.000984151344496 1.0108297491039426 
6.000984151344496 1.0047493599590374 
7.000984151344496 0.996315156169995 
8.000984151344497 0.9925688684075781 
9.000984151344497 0.9921356886840759 
10.000984151344497 0.9886838197644648 
11.000984151344497 0.9832058371735792 
12.000984151344497 0.9834831029185868 
13.000984151344497 0.9750496671786993 
14.000984151344497 0.9702329749103943 
15.000984151344497 0.9652503840245774 
16.000984151344497 0.956420634920635 
17.000984151344497 0.9536950844854072 
18.000984151344497 0.9444626216077829 
19.000984151344497 0.9406891961085511 
20.000984151344497 0.9366490015360984 
21.000984151344497 0.9358138760880697 
22.000984151344497 0.933784178187404 
23.000984151344497 0.9361958525345622 
24.000984151344497 0.9349761904761904 
25.000984151344497 0.937274193548387 
26.000984151344497 0.9374572452636971 
27.000984151344497 0.9357987711213518 
28.000984151344497 0.9345289298515103 
29.000984151344497 0.931546338965694 
30.000984151344497 0.9301262160778293 
31.000984151344497 0.9246408090117765 
32.0009841513445 0.9206513056835638 
33.0009841513445 0.9179275473630312 
34.0009841513445 0.9155007680491557 
35.0009841513445 0.911469790066565 
36.0009841513445 0.9109385560675882 
37.0009841513445 0.905697644649258 
38.0009841513445 0.9048026113671281 
39.0009841513445 0.8991333845366106 
40.0009841513445 0.8892496159754228 
41.0009841513445 0.8820128008192525 
42.0009841513445 0.8730942140296978 
43.0009841513445 0.8657275985663082 
44.0009841513445 0.8555181771633383 
45.0009841513445 0.8448269329237073 
46.0009841513445 0.8378942652329749 
47.0009841513445 0.8324188428059397 
48.0009841513445 0.8224336917562726 
49.0009841513445 0.8237493599590374 
50.0009841513445 0.8188676395289299 
51.0009841513445 0.8201927803379416 
52.0009841513445 0.8210422427035331 
53.0009841513445 0.8191139272913468 
54.0009841513445 0.8174357398873529 
55.0009841513445 0.8168069636456735 
56.0009841513445 0.8144669738863289 
57.0009841513445 0.8097444956477214 
58.0009841513445 0.807100614439324 
59.0009841513445 0.7994257552483358 
60.0009841513445 0.7963051715309779 
61.0009841513445 0.7912173579109064 
62.0009841513445 0.7876321044546852 
63.0009841513445 0.7822293906810035 
64.0009841513445 0.7802406554019458 
65.0009841513445 0.7745552995391706 
66.0009841513445 0.7684280593958014 
67.0009841513445 0.7632035330261137 
68.0009841513445 0.7549708141321044 
69.0009841513445 0.7463745519713262 
70.0009841513445 0.7423934971838199 
71.0009841513445 0.7380593958013314 
72.0009841513445 0.7265593958013313 
73.0009841513445 0.7201505376344087 
74.0009841513445 0.7124367639528931 
75.0009841513445 0.7006446492575525 
76.0009841513445 0.6981543778801842 
77.0009841513445 0.6861482334869434 
78.0009841513445 0.6818891449052742 
79.0009841513445 0.6680407066052231 
80.0009841513445 0.6616390168970814 
81.0009841513445 0.6535381464413721 
82.0009841513445 0.6484311315924219 
83.0009841513445 0.6436049667178705 
84.0009841513445 0.6352224782386072 
85.0009841513445 0.6278996415770609 
86.0009841513445 0.6186651305683567 
87.0009841513445 0.6096871479774714 
88.0009841513445 0.5998438300051201 
89.0009841513445 0.5916582181259605 
90.0009841513445 0.5793387096774192 
91.0009841513445 0.5695606758832558 
92.0009841513445 0.5533868407578081 
93.0009841513445 0.5422921146953401 
94.0009841513445 0.5285023041474659 
95.0009841513445 0.5125069124423964 
96.0009841513445 0.5000222734254997 
97.0009841513445 0.4867147977470562 
98.0009841513445 0.4737562724014349 
99.0009841513445 0.4604848950332816 
100.0009841513445 0.4515965181771632 
101.0009841513445 0.43910368663594523 
102.0009841513445 0.45177521761392775 
103.0009841513445 0.5219825908858168 
104.0009841513445 0.49683538146441375 
105.0009841513445 0.7453458781362013 
106.0009841513445 0.8262048131080382 
107.0009841513445 0.9507171018945217 
108.0009841513445 0.9718445980542733 
109.0009841513445 1.1595739887352772 
110.0009841513445 1.203695340501796 
111.0009841513445 1.3331758832565255 
112.0009841513445 1.427376856118786 
113.0009841513445 1.2041231438812066 
114.0009841513445 1.500614695340503 
115.0009841513445 1.1058438300051172 
116.0009841513445 1.144276753712241 
117.0009841513445 0.8603223246287766 
118.0009841513445 1.0600217613927274 
119.0009841513445 0.7449298515104974 
120.0009841513445 0.8747150537634406 
121.0009841513445 0.5956569380440347 
122.0009841513445 0.6977409114183304 
123.0009841513445 0.6227962109575015 
124.0009841513445 0.5698236047107008 
125.0009841513445 0.6288164362519197 
126.0009841513445 0.6265819252432155 
127.0009841513445 0.514844086021505 
128.00098415134448 0.5987017409114179 
129.00098415134448 0.5938804403481815 
130.00098415134448 0.4339047619047613 
131.00098415134448 0.586786482334869 
132.00098415134448 0.5506751152073731 
133.00098415134448 0.5576710189452115 
134.00098415134448 0.5171953405017924 
135.00098415134448 0.5548420378904239 
136.00098415134448 0.4975002560163843 
137.00098415134448 0.5350596518177144 
138.00098415134448 0.5839697900665625 
139.00098415134448 0.6968046594982082 
140.00098415134448 0.45698975934459957 
141.00098415134448 0.6106815156170007 
142.00098415134448 0.5313003072196607 
143.00098415134448 0.6173051715309831 
144.00098415134448 0.49142396313363995 
145.00098415134448 0.49930773169482534 
146.00098415134448 0.3983223246287769 
147.00098415134448 0.383891705069127 
148.00098415134448 0.2764457245263672 
149.00098415134448 0.23258858166922436 
150.00098415134448 0.23197900665642734 
151.00098415134448 0.14990271377367947 
152.00098415134448 0.10298899129544276 
153.00098415134448 0.04989656938044135 
154.00098415134448 0.036753200204812535 
155.00098415134448 0.02008192524321593 
156.00098415134448 0.02413594470046058 
157.00098415134448 0.008048899129544127 
158.00098415134448 0.01691935483870979 
159.00098415134448 0.00826113671274957 
160.00098415134448 0.014330005120327538 
161.00098415134448 0.0012977470558115836 
162.00098415134448 0.01353277009728602 
163.00098415134448 0.013419098822324466 
164.00098415134448 6.720430107527002E-4 
165.00098415134448 0.01296850998463919 
166.00098415134448 2.1556579621095516E-4 
167.00098415134448 2.4987199180747353E-4 
168.00098415134448 1.3696876600102217E-4 
169.00098415134448 3.993855606758782E-5 
170.00098415134448 4.582693292370645E-5 
171.00098415134448 4.608294930875595E-6 
172.00098415134448 3.1554436208840473E-32 
173.00098415134448 3.1554436208840473E-32 
174.00098415134448 3.1554436208840473E-32 
175.00098415134448 3.1554436208840473E-32 
176.00098415134448 3.1554436208840473E-32 
177.00098415134448 3.1554436208840473E-32 
178.00098415134448 3.1554436208840473E-32 
179.00098415134448 3.1554436208840473E-32 
180.00098415134448 3.1554436208840473E-32 
181.00098415134448 3.1554436208840473E-32 
182.00098415134448 3.1554436208840473E-32 
183.00098415134448 3.1554436208840473E-32 
184.00098415134448 3.1554436208840473E-32 
185.00098415134448 3.1554436208840473E-32 
186.00098415134448 3.1554436208840473E-32 
187.00098415134448 3.1554436208840473E-32 
188.00098415134448 3.1554436208840473E-32 
189.00098415134448 3.1554436208840473E-32 
190.00098415134448 3.1554436208840473E-32 
191.00098415134448 3.1554436208840473E-32 
192.00098415134448 3.1554436208840473E-32 
193.00098415134448 3.1554436208840473E-32 
194.00098415134448 3.1554436208840473E-32 
195.00098415134448 3.1554436208840473E-32 
196.00098415134448 3.1554436208840473E-32 
197.00098415134448 3.1554436208840473E-32 
198.00098415134448 3.1554436208840473E-32 
199.00098415134448 3.1554436208840473E-32 
200.00098415134448 3.1554436208840473E-32 
201.00098415134448 3.1554436208840473E-32 
202.00098415134448 3.1554436208840473E-32 
203.00098415134448 3.1554436208840473E-32 
204.00098415134448 3.1554436208840473E-32 
205.00098415134448 3.1554436208840473E-32 
206.00098415134448 3.1554436208840473E-32 
207.00098415134448 3.1554436208840473E-32 
208.00098415134448 3.1554436208840473E-32 
209.00098415134448 3.1554436208840473E-32 
210.00098415134448 3.1554436208840473E-32 
211.00098415134448 3.1554436208840473E-32 
212.00098415134448 3.1554436208840473E-32 
213.00098415134448 3.1554436208840473E-32 
214.00098415134448 3.1554436208840473E-32 
215.00098415134448 3.1554436208840473E-32 
216.00098415134448 3.1554436208840473E-32 
217.00098415134448 3.1554436208840473E-32 
218.00098415134448 3.1554436208840473E-32 
219.00098415134448 3.1554436208840473E-32 
220.00098415134448 3.1554436208840473E-32 
221.00098415134448 3.1554436208840473E-32 
222.00098415134448 3.1554436208840473E-32 
223.00098415134448 3.1554436208840473E-32 
224.00098415134448 3.1554436208840473E-32 
225.00098415134448 3.1554436208840473E-32 
226.00098415134448 3.1554436208840473E-32 
227.00098415134448 3.1554436208840473E-32 
228.00098415134448 3.1554436208840473E-32 
229.00098415134448 3.1554436208840473E-32 
230.00098415134448 3.1554436208840473E-32 
231.00098415134448 3.1554436208840473E-32 
232.00098415134448 3.1554436208840473E-32 
233.00098415134448 3.1554436208840473E-32 
234.00098415134448 3.1554436208840473E-32 
235.00098415134448 3.1554436208840473E-32 
236.00098415134448 3.1554436208840473E-32 
237.00098415134448 3.1554436208840473E-32 
238.00098415134448 3.1554436208840473E-32 
239.00098415134448 3.1554436208840473E-32 
240.00098415134448 3.1554436208840473E-32 
241.00098415134448 3.1554436208840473E-32 
242.00098415134448 3.1554436208840473E-32 
#####################################################################
# End of data export. Simulation finished at: 2017-05-24T20:49+0000 #
#####################################################################
