#####################################################################
# Alchemist log file - simulation started at: 2017-05-23T13:13+0000 #
#####################################################################
# random = 5.0, targets = 31.622776601683793, density = 0.04, gridShift = 1.0, perturbation = 0.0, connfactor = 0.1
#
# The columns have the following meaning: 
# time se[Mean] 
0.0 NaN 
1.0628592424154633 NaN 
2.0628592424154633 1.0 
3.0628592424154633 1.0 
4.062859242415463 0.9947712038997194 
5.062859242415463 0.9790848155988774 
6.062859242415463 0.984313611699158 
7.062859242415463 0.9738560194985968 
8.062859242415463 0.9713666214484564 
9.062859242415463 0.9559302331476145 
10.062859242415463 0.9507431037140005 
11.062859242415463 0.9404938448467727 
12.062859242415463 0.937921113463299 
13.062859242415463 0.930202919312878 
14.062859242415463 0.9276301879294044 
15.062859242415463 0.9352233820798254 
16.062859242415463 0.9377544467966323 
17.062859242415463 0.9377544467966323 
18.062859242415463 0.9377544467966323 
19.062859242415463 0.9377544467966323 
20.062859242415463 0.9377544467966323 
#####################################################################
# End of data export. Simulation finished at: 2017-05-23T13:13+0000 #
#####################################################################
