#####################################################################
# Alchemist log file - simulation started at: 2017-05-21T03:00+0000 #
#####################################################################
# random = 2.0, targets = 1.0, density = 0.05649405772326896, gridShift = 1.0, perturbation = 0.5, connfactor = 0.75
#
# The columns have the following meaning: 
# time se[Mean] 
0.0 NaN 
1.003288451303821 NaN 
2.003288451303821 1.0 
3.003288451303821 1.0 
4.0032884513038205 1.0 
5.0032884513038205 0.9652777777777778 
6.0032884513038205 0.9652777777777778 
7.0032884513038205 0.763888888888889 
8.00328845130382 0.7291666666666667 
9.00328845130382 0.4166666666666667 
10.00328845130382 0.3194444444444445 
11.00328845130382 0.4739583333333333 
12.00328845130382 0.05555555555555556 
13.00328845130382 1.5225694444444442 
14.00328845130382 0.29340277777777773 
15.00328845130382 1.4670138888888888 
16.00328845130382 0.5868055555555556 
17.00328845130382 0.0 
18.00328845130382 0.5868055555555556 
19.00328845130382 0.0 
20.00328845130382 0.0 
21.00328845130382 0.0 
22.00328845130382 0.0 
#####################################################################
# End of data export. Simulation finished at: 2017-05-21T03:00+0000 #
#####################################################################
