#####################################################################
# Alchemist log file - simulation started at: 2017-05-23T00:29+0000 #
#####################################################################
# random = 10.0, targets = 10.0, density = 0.04, gridShift = 1.0, perturbation = 0.5, connfactor = 0.75
#
# The columns have the following meaning: 
# time se[Mean] 
0.0 NaN 
1.0042217987811537 NaN 
2.0042217987811535 NaN 
3.0042217987811535 0.9925231481481481 
4.0042217987811535 0.8805092592592593 
5.0042217987811535 0.6863194444444445 
6.0042217987811535 0.5302083333333334 
7.0042217987811535 0.332175925925926 
8.004221798781153 0.3551157407407408 
9.004221798781153 0.28849537037037043 
10.004221798781153 0.24997685185185192 
11.004221798781153 0.22048611111111116 
12.004221798781153 0.17622685185185188 
13.004221798781153 0.13076388888888893 
14.004221798781153 0.08009259259259263 
15.004221798781153 0.07541666666666672 
16.004221798781153 0.08270833333333338 
17.004221798781153 0.09000000000000005 
18.004221798781153 0.09000000000000005 
19.004221798781153 0.09000000000000005 
20.004221798781153 0.09000000000000005 
#####################################################################
# End of data export. Simulation finished at: 2017-05-23T00:29+0000 #
#####################################################################
