#####################################################################
# Alchemist log file - simulation started at: 2017-05-24T11:36+0000 #
#####################################################################
# random = 14.0, targets = 100.0, density = 2.519842099789746, gridShift = 0.0, perturbation = 0.5, connfactor = 0.5
#
# The columns have the following meaning: 
# time se[Mean] 
0.0 NaN 
1.0015837731381736 NaN 
2.0015837731381736 1.0006613321799307 
3.0015837731381736 1.001512187620146 
4.001583773138174 0.9997676470588235 
5.001583773138174 0.9974461649365629 
6.001583773138174 0.9915779051326413 
7.001583773138174 0.9877651984813534 
8.001583773138174 0.9866488826412918 
9.001583773138174 0.9786609909650135 
10.001583773138174 0.9752007569204152 
11.001583773138174 0.9696288590926566 
12.001583773138174 0.9630264561707036 
13.001583773138174 0.9583805651672433 
14.001583773138174 0.9543823865820839 
15.001583773138174 0.948541183679354 
16.001583773138172 0.9403974937524029 
17.001583773138172 0.9371778354479047 
18.001583773138172 0.9297274822183775 
19.001583773138172 0.9237053392925798 
20.001583773138172 0.9190024149365629 
21.001583773138172 0.9107195117262591 
22.001583773138172 0.9048763648596694 
23.001583773138172 0.8943749543444829 
24.001583773138172 0.8860656814686659 
25.001583773138172 0.8786212778738947 
26.001583773138172 0.8708304498269895 
27.001583773138172 0.8719542892156863 
28.001583773138172 0.8687965397923876 
29.001583773138172 0.8663555099000384 
30.001583773138172 0.8625177071318723 
31.001583773138172 0.8610863417916186 
32.00158377313817 0.8602310793925413 
33.00158377313817 0.8534551494617455 
34.00158377313817 0.8679397755670896 
35.00158377313817 0.8581651816608996 
36.00158377313817 0.8693582564398308 
37.00158377313817 0.8631310577662438 
38.00158377313817 0.8626547553825451 
39.00158377313817 0.8647836192810457 
40.00158377313817 0.8592085664167627 
41.00158377313817 0.861263569300269 
42.00158377313817 0.8622335688196847 
43.00158377313817 0.8666817377931564 
44.00158377313817 0.8626656286043829 
45.00158377313817 0.8650142301038062 
46.00158377313817 0.8605742526912726 
47.00158377313817 0.856885450307574 
48.00158377313817 0.8542517277008843 
49.00158377313817 0.8503880815071126 
50.00158377313817 0.844161017397155 
51.00158377313817 0.8411040032679737 
52.00158377313817 0.8377389417531718 
53.00158377313817 0.8327426158208381 
54.00158377313817 0.8270638912918109 
55.00158377313817 0.8229931252402922 
56.00158377313817 0.8168160226835832 
57.00158377313817 0.8096993127643214 
58.00158377313817 0.8029284289696271 
59.00158377313817 0.7941079224336793 
60.00158377313817 0.7871722534602077 
61.00158377313817 0.7743994689542484 
62.00158377313817 0.7692107410611304 
63.00158377313817 0.7511408592848904 
64.00158377313818 0.7350010428681276 
65.00158377313818 0.7299583982122261 
66.00158377313818 0.7223830137447136 
67.00158377313818 0.7123936034217608 
68.00158377313818 0.7023941176470588 
69.00158377313818 0.6968797337562476 
70.00158377313818 0.7379475610342177 
71.00158377313818 0.6689430771818531 
72.00158377313818 0.8957704392541329 
73.00158377313818 1.0970609140715115 
74.00158377313818 0.9781518550557478 
75.00158377313818 1.0174111375432529 
76.00158377313818 1.0647472054017688 
77.00158377313818 1.048298675990004 
78.00158377313818 1.0317904507881586 
79.00158377313818 1.1341752258746638 
80.00158377313818 1.242346621491734 
81.00158377313818 0.9447969891387928 
82.00158377313818 1.2652744136870437 
83.00158377313818 1.047592471645521 
84.00158377313818 1.3192381463860057 
85.00158377313818 1.1551651215878511 
86.00158377313818 1.2603152897923877 
87.00158377313818 1.5339224769319497 
88.00158377313818 1.4606808871587855 
89.00158377313818 1.2976056132256821 
90.00158377313818 1.3449388288158406 
91.00158377313818 1.7938809256055364 
92.00158377313818 1.156796261053441 
93.00158377313818 1.2765543420799694 
94.00158377313818 0.8701193194925031 
95.00158377313818 0.8667684952902733 
96.00158377313818 0.926020155709343 
97.00158377313818 0.863227141003461 
98.00158377313818 0.6370445189350248 
99.00158377313818 0.6354178969627067 
100.00158377313818 0.5246308030565169 
101.00158377313818 0.5254522971933872 
102.00158377313818 0.4712434904844291 
103.00158377313818 0.4713844963475587 
104.00158377313818 0.47207902008842756 
105.00158377313818 0.47216616205305656 
106.00158377313818 0.4740699706843522 
107.00158377313818 0.4734732771049597 
108.00158377313818 0.4749434592464437 
109.00158377313818 0.474935195597847 
110.00158377313818 0.4750155132641292 
111.00158377313818 0.47540687235678586 
112.00158377313818 0.4753554570357555 
113.00158377313818 0.4757499447327951 
114.00158377313818 0.47586871635909267 
115.00158377313818 0.47569749134948097 
116.00158377313818 0.47581626297577856 
117.00158377313818 0.47595795847750866 
118.00158377313818 0.47598174740484434 
119.00158377313818 0.47605259515570936 
120.00158377313818 0.47605259515570936 
121.00158377313818 0.4761 
122.00158377313818 0.4761 
123.00158377313818 0.4761 
124.00158377313818 0.4761 
125.00158377313818 0.4761 
126.00158377313818 0.4761 
127.00158377313818 0.4761 
128.00158377313818 0.4761 
129.00158377313818 0.4761 
130.00158377313818 0.4761 
131.00158377313818 0.4761 
132.00158377313818 0.4761 
133.00158377313818 0.4761 
134.00158377313818 0.4761 
135.00158377313818 0.4761 
136.00158377313818 0.4761 
137.00158377313818 0.4761 
138.00158377313818 0.4761 
139.00158377313818 0.4761 
140.00158377313818 0.4761 
141.00158377313818 0.4761 
142.00158377313818 0.4761 
143.00158377313818 0.4761 
144.00158377313818 0.4761 
145.00158377313818 0.4761 
146.00158377313818 0.4761 
147.00158377313818 0.4761 
148.00158377313818 0.4761 
149.00158377313818 0.4761 
150.00158377313818 0.4761 
151.00158377313818 0.4761 
152.00158377313818 0.4761 
153.00158377313818 0.4761 
154.00158377313818 0.4761 
155.00158377313818 0.4761 
156.00158377313818 0.4761 
#####################################################################
# End of data export. Simulation finished at: 2017-05-24T11:36+0000 #
#####################################################################
