#####################################################################
# Alchemist log file - simulation started at: 2017-05-24T11:48+0000 #
#####################################################################
# random = 6.0, targets = 100.0, density = 7.099073319511142, gridShift = 1.0, perturbation = 0.5, connfactor = 2.0
#
# The columns have the following meaning: 
# time se[Mean] 
0.0 NaN 
1.001281360956031 NaN 
2.001281360956031 1.0234095512820514 
3.001281360956031 1.0342353917378917 
4.001281360956031 1.0507305324074074 
5.001281360956031 1.070716469017094 
6.001281360956031 1.075538823005698 
7.001281360956031 1.093324630519943 
8.001281360956032 1.1049122498219373 
9.001281360956032 1.1178392797364671 
10.001281360956032 1.1243894818376068 
11.001281360956032 1.1342417503561255 
12.001281360956032 1.1499985808404558 
13.001281360956032 1.1536879166666665 
14.001281360956032 1.1860811030982907 
15.001281360956032 1.2086392957621084 
16.001281360956032 1.2145943856837607 
17.001281360956032 1.2612110541310542 
18.001281360956032 1.2776832291666669 
19.001281360956032 1.3048972907763534 
20.001281360956032 1.3360965740740742 
21.001281360956032 1.3706109045584045 
22.001281360956032 1.3850519631410256 
23.001281360956032 1.4160737455484331 
24.001281360956032 1.423365551994302 
25.001281360956032 1.4600900080128205 
26.001281360956032 1.5290285897435896 
27.001281360956032 1.5532363149928778 
28.001281360956032 1.593869451566952 
29.001281360956032 1.673525986467237 
30.001281360956032 1.7103647035256424 
31.001281360956032 1.7661443438390323 
32.00128136095603 1.8830748673433049 
33.00128136095603 1.9475650551994292 
34.00128136095603 1.9275394106125359 
35.00128136095603 2.0632493420584046 
36.00128136095603 2.002208482015671 
37.00128136095603 2.0258197978988606 
38.00128136095603 1.9962333947649582 
39.00128136095603 1.9763486538461528 
40.00128136095603 1.9779925934829057 
41.00128136095603 1.8637942735042738 
42.00128136095603 1.9103408644943025 
43.00128136095603 1.8840877510683764 
44.00128136095603 1.804332893518519 
45.00128136095603 1.779186022970085 
46.00128136095603 1.7457103632478643 
47.00128136095603 1.753489918981482 
48.00128136095603 1.722455490562678 
49.00128136095603 1.738239832621083 
50.00128136095603 1.6832241631054135 
51.00128136095603 1.7233175222578347 
52.00128136095603 1.7079894684829071 
53.00128136095603 1.7154365322293457 
54.00128136095603 1.7163900213675216 
55.00128136095603 1.7386279763176637 
56.00128136095603 1.7796430021367522 
57.00128136095603 1.8165521750356126 
58.00128136095603 1.9491237339743608 
59.00128136095603 2.014122931801995 
60.00128136095603 2.1031448076923085 
61.00128136095603 2.274887238247863 
62.00128136095603 2.284610566239317 
63.00128136095603 2.4404486582977216 
64.00128136095603 2.641026541132482 
65.00128136095603 2.757503511396015 
66.00128136095603 2.8188417218660966 
67.00128136095603 3.0519359757834774 
68.00128136095603 2.8619539547720785 
69.00128136095603 3.039633920940173 
70.00128136095603 2.9568453837250708 
71.00128136095603 3.0437661814458674 
72.00128136095603 3.2103366452991486 
73.00128136095603 3.345872425213674 
74.00128136095603 4.3723912722578335 
75.00128136095603 4.6423863381410255 
76.00128136095603 5.217425146011395 
77.00128136095603 6.553243141025645 
78.00128136095603 6.392949293981487 
79.00128136095603 7.42271127759972 
80.00128136095603 8.819103180199438 
81.00128136095603 9.644537027243594 
82.00128136095603 9.568424324252144 
83.00128136095603 11.623978938746435 
84.00128136095603 9.45643746527778 
85.00128136095603 10.780926107549865 
86.00128136095603 9.46891889957266 
87.00128136095603 9.656711696937332 
88.00128136095603 10.65754494569088 
89.00128136095603 9.030979245014251 
90.00128136095603 9.087633655626783 
91.00128136095603 8.724492818732193 
92.00128136095603 9.01869279558405 
93.00128136095603 9.782928984152427 
94.00128136095603 10.117809939458695 
95.00128136095603 10.648138344907412 
96.00128136095603 9.750055324074081 
97.00128136095603 10.76557170495015 
98.00128136095603 9.604482490206562 
99.00128136095603 10.832397803596876 
100.00128136095603 10.134582731481485 
101.00128136095603 11.364174782763541 
102.00128136095603 9.75075374821938 
103.00128136095603 9.294335150462967 
104.00128136095603 9.333414721331911 
105.00128136095603 7.958036749465813 
106.00128136095603 7.769170380163819 
107.00128136095603 6.17598068999288 
108.00128136095603 6.219047390491454 
109.00128136095603 5.315318165954418 
110.00128136095603 6.06324916933761 
111.00128136095603 5.8891214262820535 
112.00128136095603 5.193453120548434 
113.00128136095603 5.4975164716880345 
114.00128136095603 5.7702729389245055 
115.00128136095603 4.8760250017806275 
116.00128136095603 4.646148247863248 
117.00128136095603 4.914954056267807 
118.00128136095603 4.710625391737892 
119.00128136095603 4.716967927350428 
120.00128136095603 4.742551254451567 
121.00128136095603 4.740723108084046 
122.00128136095603 4.7660519417735046 
123.00128136095603 4.776245538639601 
124.00128136095603 4.817946106659544 
125.00128136095603 4.834034241452992 
126.00128136095603 5.024335796830484 
127.00128136095603 5.865248691239318 
128.00128136095603 6.551848633368945 
129.00128136095603 7.400102881944452 
130.00128136095603 8.600491653311966 
131.00128136095603 9.124002162571221 
132.00128136095603 10.242892247151 
133.00128136095603 11.622886055911668 
134.00128136095603 13.149519602029924 
135.00128136095603 14.044312981659537 
136.00128136095603 15.786243316417353 
137.00128136095603 14.969132923789191 
138.00128136095603 15.791005190527075 
139.00128136095603 14.513469699074065 
140.00128136095603 14.712761289173791 
141.00128136095603 15.043497942485759 
142.00128136095603 14.47099649750713 
143.00128136095603 14.288813257656692 
144.00128136095603 13.533169472044163 
145.00128136095603 13.623601686253563 
146.00128136095603 14.163926324786324 
147.00128136095603 14.738032345975784 
148.00128136095603 15.489918326210828 
149.00128136095603 15.075067365562678 
150.00128136095603 15.602098274572656 
151.00128136095603 14.708644396367518 
152.00128136095603 15.513225838675217 
153.00128136095603 14.975198737535607 
154.00128136095603 16.071870391737882 
155.00128136095603 15.017680667735041 
156.00128136095603 14.47752550302707 
157.00128136095603 13.602169998219365 
158.00128136095603 12.340169538817667 
159.00128136095603 11.576927087784886 
160.00128136095603 9.645552745726507 
161.00128136095603 8.870853852386047 
162.00128136095603 7.46917168803418 
163.00128136095603 7.61902116363961 
164.00128136095603 7.33321208511396 
165.00128136095603 6.9965134633191015 
166.00128136095603 6.78229524394586 
167.00128136095603 6.769578999287744 
168.00128136095603 6.2454634731125385 
169.00128136095603 5.78005195601852 
170.00128136095603 5.466255667735043 
171.00128136095603 5.287488660968661 
172.00128136095603 5.284979299323362 
173.00128136095603 5.1883416132478635 
174.00128136095603 5.189914237891738 
175.00128136095603 5.188942115384616 
176.00128136095603 5.192463254985755 
177.00128136095603 5.191444846866097 
178.00128136095603 5.195953550569801 
179.00128136095603 5.195872624643875 
180.00128136095603 5.197064943019943 
181.00128136095603 5.195294134615385 
182.00128136095603 5.196335032051282 
183.00128136095603 5.197137688746439 
184.00128136095603 5.196065341880343 
185.00128136095603 5.1962224252136755 
186.00128136095603 5.198109063390314 
187.00128136095603 5.198312852564103 
188.00128136095603 5.198001438746439 
189.00128136095603 5.19862441951567 
190.00128136095603 5.198400113960115 
191.00128136095603 5.1984 
192.00128136095603 5.198439031339031 
193.00128136095603 5.1984 
194.00128136095603 5.1984 
195.00128136095603 5.1984 
196.00128136095603 5.1984 
197.00128136095603 5.1984 
198.00128136095603 5.1984 
199.00128136095603 5.1984 
200.00128136095603 5.1984 
201.00128136095603 5.1984 
202.00128136095603 5.1984 
203.00128136095603 5.1984 
204.00128136095603 5.1984 
205.00128136095603 5.1984 
206.00128136095603 5.1984 
207.00128136095603 5.1984 
208.00128136095603 5.1984 
209.00128136095603 5.1984 
210.00128136095603 5.1984 
211.00128136095603 5.1984 
212.00128136095603 5.1984 
213.00128136095603 5.1984 
214.00128136095603 5.1984 
215.00128136095603 5.1984 
216.00128136095603 5.1984 
217.00128136095603 5.1984 
218.00128136095603 5.1984 
219.00128136095603 5.1984 
220.00128136095603 5.1984 
221.00128136095603 5.1984 
222.00128136095603 5.1984 
223.00128136095603 5.1984 
224.00128136095603 5.1984 
225.00128136095603 5.1984 
226.00128136095603 5.1984 
227.00128136095603 5.1984 
228.00128136095603 5.1984 
229.00128136095603 5.1984 
230.00128136095603 5.1984 
231.00128136095603 5.1984 
232.00128136095603 5.1984 
233.00128136095603 5.1984 
234.00128136095603 5.1984 
235.00128136095603 5.1984 
236.00128136095603 5.1984 
237.00128136095603 5.1984 
238.00128136095603 5.1984 
239.00128136095603 5.1984 
240.00128136095603 5.1984 
241.00128136095603 5.1984 
242.00128136095603 5.1984 
243.00128136095603 5.1984 
244.00128136095603 5.1984 
245.00128136095603 5.1984 
246.00128136095603 5.1984 
247.00128136095603 5.1984 
248.00128136095603 5.1984 
249.00128136095603 5.1984 
250.00128136095603 5.1984 
#####################################################################
# End of data export. Simulation finished at: 2017-05-24T12:02+0000 #
#####################################################################
