#####################################################################
# Alchemist log file - simulation started at: 2017-05-20T05:46+0000 #
#####################################################################
# random = 0.0, targets = 100.0, density = 0.6332893950589894, gridShift = 1.0, perturbation = 0.5, connfactor = 0.5
#
# The columns have the following meaning: 
# time se[Mean] 
0.0 NaN 
1.0011337332612453 NaN 
2.0011337332612453 1.0083952777777778 
3.0011337332612453 1.0140534645061727 
4.001133733261245 1.016615972222222 
5.001133733261245 1.0095071450617283 
6.001133733261245 1.0058163657407408 
7.001133733261245 1.0200800540123458 
8.001133733261245 1.027880439814815 
9.001133733261245 1.0254682947530864 
10.001133733261245 1.0238809953703705 
11.001133733261245 1.0244976929012346 
12.001133733261245 1.0178268132716048 
13.001133733261245 1.0134583024691357 
14.001133733261245 1.022762785493827 
15.001133733261245 1.025820663580247 
16.001133733261245 1.0268525540123457 
17.001133733261245 1.0284830787037036 
18.001133733261245 1.0188128086419752 
19.001133733261245 0.9902445833333333 
20.001133733261245 0.9446184490740741 
21.001133733261245 0.9038698919753086 
22.001133733261245 0.8350832021604939 
23.001133733261245 0.7800080709876545 
24.001133733261245 0.7482463348765434 
25.001133733261245 0.7172147067901236 
26.001133733261245 0.7182993981481482 
27.001133733261245 0.7399170370370372 
28.001133733261245 0.7704283333333334 
29.001133733261245 0.7938688734567901 
30.001133733261245 0.8189407175925926 
31.001133733261245 0.8276312345679012 
32.00113373326124 0.8278320987654321 
33.00113373326124 0.8277635802469135 
34.00113373326124 0.8281 
35.00113373326124 0.8281 
36.00113373326124 0.8281 
37.00113373326124 0.8281 
38.00113373326124 0.8281 
39.00113373326124 0.8281 
40.00113373326124 0.8281 
41.00113373326124 0.8281 
42.00113373326124 0.8281 
43.00113373326124 0.8281 
44.00113373326124 0.8281 
45.00113373326124 0.8281 
46.00113373326124 0.8281 
47.00113373326124 0.8281 
48.00113373326124 0.8281 
49.00113373326124 0.8281 
50.00113373326124 0.8281 
51.00113373326124 0.8281 
#####################################################################
# End of data export. Simulation finished at: 2017-05-20T05:46+0000 #
#####################################################################
