#####################################################################
# Alchemist log file - simulation started at: 2017-05-25T03:08+0000 #
#####################################################################
# random = 16.0, targets = 100.0, density = 1.7841466528270753, gridShift = 1.0, perturbation = 0.5, connfactor = 0.75
#
# The columns have the following meaning: 
# time se[Mean] 
0.0 NaN 
1.0066017814354276 NaN 
2.0066017814354273 1.007162251984127 
3.0066017814354273 1.0118403521825396 
4.006601781435427 1.0131873170882937 
5.006601781435427 1.0115948412698412 
6.006601781435427 1.0030336867559524 
7.006601781435427 1.0076822978670634 
8.006601781435428 1.0097166666666666 
9.006601781435428 1.0129174851190477 
10.006601781435428 1.018747092013889 
11.006601781435428 1.0248576295882936 
12.006601781435428 1.0329486142113096 
13.006601781435428 1.035058795262897 
14.006601781435428 1.0449672743055556 
15.006601781435428 1.0638823722718254 
16.006601781435428 1.0693082155257936 
17.006601781435428 1.0741611576140873 
18.006601781435428 1.0742528149801587 
19.006601781435428 1.0786317057291668 
20.006601781435428 1.0765721385168652 
21.006601781435428 1.07345337921627 
22.006601781435428 1.0752977895585318 
23.006601781435428 1.0667591207837301 
24.006601781435428 1.0541034877232143 
25.006601781435428 1.0427377294146827 
26.006601781435428 1.0185999379960318 
27.006601781435428 1.0092964998759921 
28.006601781435428 0.989793343874008 
29.006601781435428 0.9907924014136905 
30.006601781435428 0.9750246031746033 
31.006601781435428 0.9678633370535715 
32.00660178143543 0.9591916697668652 
33.00660178143543 0.9368332465277779 
34.00660178143543 0.9306207496279763 
35.00660178143543 0.9251666945684525 
36.00660178143543 0.9221304067460319 
37.00660178143543 0.9169502852182541 
38.00660178143543 0.930043043154762 
39.00660178143543 0.9329238343253969 
40.00660178143543 0.9626884548611112 
41.00660178143543 0.9626036706349208 
42.00660178143543 0.9750866319444446 
43.00660178143543 1.0380260292658732 
44.00660178143543 1.0466847718253969 
45.00660178143543 1.1285613343253968 
46.00660178143543 1.1085218874007938 
47.00660178143543 1.1436474578373017 
48.00660178143543 1.1851233506944445 
49.00660178143543 1.1523770213293651 
50.00660178143543 1.2324653521825397 
51.00660178143543 1.242533172123016 
52.00660178143543 1.2215479662698414 
53.00660178143543 1.2342425223214286 
54.00660178143543 1.2150474454365081 
55.00660178143543 1.254065811011905 
56.00660178143543 1.221684350198413 
57.00660178143543 1.230398474702381 
58.00660178143543 1.2155909846230162 
59.00660178143543 1.2153479786706352 
60.00660178143543 1.2404292162698414 
61.00660178143543 1.186200967261905 
62.00660178143543 1.1709332217261907 
63.00660178143543 1.1825755952380954 
64.00660178143542 1.1390525421626987 
65.00660178143542 1.1396372147817462 
66.00660178143542 1.1251718253968257 
67.00660178143542 1.1058742931547623 
68.00660178143542 1.1007399801587305 
69.00660178143542 1.1006743303571431 
70.00660178143542 1.1018991319444447 
71.00660178143542 1.0921939856150797 
72.00660178143542 1.090285057043651 
73.00660178143542 1.0920765997023814 
74.00660178143542 1.0856693948412701 
75.00660178143542 1.0855760168650797 
76.00660178143542 1.0846109623015876 
77.00660178143542 1.0815243923611115 
78.00660178143542 1.081663219246032 
79.00660178143542 1.0817395461309527 
80.00660178143542 1.0816464657738099 
81.00660178143542 1.08163097718254 
82.00660178143542 1.0816000000000003 
83.00660178143542 1.0816000000000003 
84.00660178143542 1.0816000000000003 
85.00660178143542 1.0816000000000003 
86.00660178143542 1.0816000000000003 
87.00660178143542 1.0816000000000003 
88.00660178143542 1.0816000000000003 
89.00660178143542 1.0816000000000003 
90.00660178143542 1.0816000000000003 
91.00660178143542 1.0816000000000003 
92.00660178143542 1.0816000000000003 
93.00660178143542 1.0816000000000003 
94.00660178143542 1.0816000000000003 
95.00660178143542 1.0816000000000003 
96.00660178143542 1.0816000000000003 
97.00660178143542 1.0816000000000003 
98.00660178143542 1.0816000000000003 
99.00660178143542 1.0816000000000003 
100.00660178143542 1.0816000000000003 
101.00660178143542 1.0816000000000003 
102.00660178143542 1.0816000000000003 
103.00660178143542 1.0816000000000003 
104.00660178143542 1.0816000000000003 
105.00660178143542 1.0816000000000003 
106.00660178143542 1.0816000000000003 
107.00660178143542 1.0816000000000003 
108.00660178143542 1.0816000000000003 
109.00660178143542 1.0816000000000003 
#####################################################################
# End of data export. Simulation finished at: 2017-05-25T03:08+0000 #
#####################################################################
