#####################################################################
# Alchemist log file - simulation started at: 2017-05-22T16:06+0000 #
#####################################################################
# random = 4.0, targets = 3.1622776601683795, density = 14.160781367816199, gridShift = 1.0, perturbation = 0.0, connfactor = 1.0
#
# The columns have the following meaning: 
# time se[Mean] 
0.0 NaN 
1.000075526147678 NaN 
2.000075526147678 1.0040349682687078 
3.000075526147678 1.0105837420589923 
4.000075526147678 1.0098705403048216 
5.000075526147678 1.0097813905633126 
6.000075526147678 0.9978899840041642 
7.000075526147678 0.9890685570179045 
8.000075526147679 0.9892226844867539 
9.000075526147679 0.9872114865284812 
10.000075526147679 0.9990504838903533 
11.000075526147679 0.9974515813670132 
12.000075526147679 1.002145022515021 
13.000075526147679 1.0033610240772681 
14.000075526147679 1.0046539926145375 
15.000075526147679 1.0044919359708133 
16.00007552614768 1.0033672115828975 
17.00007552614768 1.0007414363892124 
18.00007552614768 1.000068071480155 
19.00007552614768 0.9985583186983237 
20.00007552614768 0.996759069562553 
21.00007552614768 0.9955556378044028 
22.00007552614768 0.9924065650977025 
23.00007552614768 0.988135669511129 
24.00007552614768 0.9872339168734046 
25.00007552614768 0.9817967196585898 
26.00007552614768 0.976900031664142 
27.00007552614768 0.9766360606819738 
28.00007552614768 0.9681619539513717 
29.00007552614768 0.9660335638613207 
30.00007552614768 0.9614803257464297 
31.00007552614768 0.9539787485748791 
32.00007552614768 0.9497500095110134 
33.00007552614768 0.9445145109921979 
34.00007552614768 0.9379754080460337 
35.00007552614768 0.9318176591845547 
36.00007552614768 0.9261079825303151 
37.00007552614768 0.917443584520947 
38.00007552614768 0.9152523441363786 
39.00007552614768 0.903510619209695 
40.00007552614768 0.8988599151408108 
41.00007552614768 0.8872667094597287 
42.00007552614768 0.8794895590959386 
43.00007552614768 0.8684242928311275 
44.00007552614768 0.8609700946419543 
45.00007552614768 0.8508127685204974 
46.00007552614768 0.8428872924299098 
47.00007552614768 0.8323592481138463 
48.00007552614768 0.821330724941334 
49.00007552614768 0.8122530639030084 
50.00007552614768 0.8023198706445736 
51.00007552614768 0.794227116724625 
52.00007552614768 0.7874004513385393 
53.00007552614768 0.7811421427702512 
54.00007552614768 0.773323028128525 
55.00007552614768 0.7722646348255503 
56.00007552614768 0.7695187685401113 
57.00007552614768 0.7711820682343763 
58.00007552614768 0.7697736492345731 
59.00007552614768 0.7732822236893859 
60.00007552614768 0.772658559988367 
61.00007552614768 0.7760418234398183 
62.00007552614768 0.7764276297310534 
63.00007552614768 0.7823527423683835 
64.00007552614768 0.7845497895911377 
65.00007552614768 0.7908616697435651 
66.00007552614768 0.791249217704045 
67.00007552614768 0.7921426604994485 
68.00007552614768 0.7975050168980314 
69.00007552614768 0.7991168902774411 
70.00007552614768 0.8064716784063385 
71.00007552614768 0.8063554717050464 
72.00007552614768 0.80746568855275 
73.00007552614768 0.8139678638060406 
74.00007552614768 0.810163224824215 
75.00007552614768 0.8189132841404688 
76.00007552614768 0.8179187061779724 
77.00007552614768 0.8259575065723045 
78.00007552614768 0.8278811003914421 
79.00007552614768 0.8334186599721625 
80.00007552614768 0.8336843764456746 
81.00007552614768 0.8376976693341848 
82.00007552614768 0.8393246295361902 
83.00007552614768 0.844633803936309 
84.00007552614768 0.8431016131653568 
85.00007552614768 0.8433810567336965 
86.00007552614768 0.8513394119106474 
87.00007552614768 0.8424802831562946 
88.00007552614768 0.8419738154091531 
89.00007552614768 0.8339081553959415 
90.00007552614768 0.823894704068767 
91.00007552614768 0.8162546642593091 
92.00007552614768 0.7989359541510297 
93.00007552614768 0.7857529222199505 
94.00007552614768 0.7690990520010446 
95.00007552614768 0.7553018362423269 
96.00007552614768 0.7510613243821783 
97.00007552614768 0.7290081445911535 
98.00007552614768 0.7174307857935271 
99.00007552614768 0.6933325690080399 
100.00007552614768 0.6787964453449054 
101.00007552614768 0.6544176251522832 
102.00007552614768 0.6365301469819685 
103.00007552614768 0.6212288083232276 
104.00007552614768 0.6038201489175596 
105.00007552614768 0.5860972546017289 
106.00007552614768 0.5749598644281559 
107.00007552614768 0.552909805144639 
108.00007552614768 0.5362174208614291 
109.00007552614768 0.5173686512371166 
110.00007552614768 0.5004829226913825 
111.00007552614768 0.4812007475199599 
112.00007552614768 0.47832092176448093 
113.00007552614768 0.4784104814761928 
114.00007552614768 0.48566652546143846 
115.00007552614768 0.533770057399862 
116.00007552614768 0.5979210317701529 
117.00007552614768 0.6564004361283684 
118.00007552614768 0.7122382056691158 
119.00007552614768 0.8279991424373909 
120.00007552614768 0.7823619314276333 
121.00007552614768 0.8125234294551508 
122.00007552614768 0.8652495975915321 
123.00007552614768 0.8289821081317545 
124.00007552614768 0.9243142471389356 
125.00007552614768 0.7030277909989388 
126.00007552614768 0.9043144625979489 
127.00007552614768 0.8789961956437048 
128.00007552614767 0.6718490645247078 
129.00007552614767 0.6296415054221621 
130.00007552614767 0.6519299289121684 
131.00007552614767 0.40760919763335923 
132.00007552614767 0.49270566852789627 
133.00007552614767 0.5057808494651912 
134.00007552614767 0.4206828711892668 
135.00007552614767 0.4230168532840098 
136.00007552614767 0.4381892614135787 
137.00007552614767 0.4519611733480528 
138.00007552614767 0.33827688721127314 
139.00007552614767 0.3299456838588272 
140.00007552614767 0.35300082208162986 
141.00007552614767 0.2126247915343079 
142.00007552614767 0.432342767098377 
143.00007552614767 0.2641833123290431 
144.00007552614767 0.24393420817761927 
145.00007552614767 0.38959276740951193 
146.00007552614767 0.2456661879371797 
147.00007552614767 0.2678186046542 
148.00007552614767 0.21788570981436378 
149.00007552614767 0.25333158253219124 
150.00007552614767 0.2951587869949032 
151.00007552614767 0.24409032561793587 
152.00007552614767 0.15788482064708476 
153.00007552614767 0.24430208346969964 
154.00007552614767 0.2762556360383092 
155.00007552614767 0.1863914904906377 
156.00007552614767 0.15659534309250603 
157.00007552614767 0.24775923670578281 
158.00007552614767 0.1662127647566382 
159.00007552614767 0.13190340068929915 
160.00007552614767 0.19668748296107275 
161.00007552614767 0.11279428215669798 
162.00007552614767 0.14332218490765922 
163.00007552614767 0.1366877319740307 
164.00007552614767 0.059999078768237055 
165.00007552614767 0.08482290799207225 
166.00007552614767 0.049041699170133714 
167.00007552614767 0.009613444337247515 
168.00007552614767 0.005108542606496587 
169.00007552614767 0.005844373320527714 
170.00007552614767 0.0061305824028470525 
171.00007552614767 0.004780753735785532 
172.00007552614767 0.004675745644526804 
173.00007552614767 0.0056092149817504565 
174.00007552614767 0.004243335720167178 
175.00007552614767 0.0037124935218212874 
176.00007552614767 0.004762574434408266 
177.00007552614767 0.0037066917797689237 
178.00007552614767 0.0042317322360624415 
179.00007552614767 0.004225930494010091 
180.00007552614767 0.0031642460973183135 
181.00007552614767 0.0036950882956641807 
182.00007552614767 0.003164246097318313 
183.00007552614767 0.0026334038989724354 
184.00007552614767 0.0026334038989724354 
185.00007552614767 0.0026334038989724354 
186.00007552614767 0.0026334038989724354 
187.00007552614767 0.0026334038989724354 
188.00007552614767 0.0026334038989724354 
189.00007552614767 0.0026334038989724354 
190.00007552614767 0.0026334038989724354 
191.00007552614767 0.0026334038989724354 
192.00007552614767 0.0026334038989724354 
193.00007552614767 0.0026334038989724354 
194.00007552614767 0.0026334038989724354 
195.00007552614767 0.0026334038989724354 
196.00007552614767 0.0026334038989724354 
197.00007552614767 0.0026334038989724354 
198.00007552614767 0.0026334038989724354 
199.00007552614767 0.0026334038989724354 
200.00007552614767 0.0026334038989724354 
201.00007552614767 0.0026334038989724354 
202.00007552614767 0.0026334038989724354 
203.00007552614767 0.0026334038989724354 
204.00007552614767 0.0026334038989724354 
205.00007552614767 0.0026334038989724354 
206.00007552614767 0.0026334038989724354 
207.00007552614767 0.0026334038989724354 
208.00007552614767 0.0026334038989724354 
209.00007552614767 0.0026334038989724354 
210.00007552614767 0.0026334038989724354 
211.00007552614767 0.0026334038989724354 
212.00007552614767 0.0026334038989724354 
213.00007552614767 0.0026334038989724354 
214.00007552614767 0.0026334038989724354 
215.00007552614767 0.0026334038989724354 
216.00007552614767 0.0026334038989724354 
217.00007552614767 0.0026334038989724354 
218.00007552614767 0.0026334038989724354 
219.00007552614767 0.0026334038989724354 
220.00007552614767 0.0026334038989724354 
221.00007552614767 0.0026334038989724354 
222.00007552614767 0.0026334038989724354 
223.00007552614767 0.0026334038989724354 
224.00007552614767 0.0026334038989724354 
225.00007552614767 0.0026334038989724354 
226.00007552614767 0.0026334038989724354 
227.00007552614767 0.0026334038989724354 
228.00007552614767 0.0026334038989724354 
229.00007552614767 0.0026334038989724354 
230.00007552614767 0.0026334038989724354 
231.00007552614767 0.0026334038989724354 
232.00007552614767 0.0026334038989724354 
233.00007552614767 0.0026334038989724354 
234.00007552614767 0.0026334038989724354 
235.00007552614767 0.0026334038989724354 
236.00007552614767 0.0026334038989724354 
237.00007552614767 0.0026334038989724354 
238.00007552614767 0.0026334038989724354 
239.00007552614767 0.0026334038989724354 
240.00007552614767 0.0026334038989724354 
241.00007552614767 0.0026334038989724354 
242.00007552614767 0.0026334038989724354 
243.00007552614767 0.0026334038989724354 
244.00007552614767 0.0026334038989724354 
245.00007552614767 0.0026334038989724354 
246.00007552614767 0.0026334038989724354 
247.00007552614767 0.0026334038989724354 
248.00007552614767 0.0026334038989724354 
249.00007552614767 0.0026334038989724354 
250.00007552614767 0.0026334038989724354 
251.00007552614767 0.0026334038989724354 
252.00007552614767 0.0026334038989724354 
253.00007552614767 0.0026334038989724354 
254.00007552614767 0.0026334038989724354 
255.00007552614767 0.0026334038989724354 
256.00007552614767 0.0026334038989724354 
257.00007552614767 0.0026334038989724354 
258.00007552614767 0.0026334038989724354 
259.00007552614767 0.0026334038989724354 
260.00007552614767 0.0026334038989724354 
261.00007552614767 0.0026334038989724354 
262.00007552614767 0.0026334038989724354 
263.00007552614767 0.0026334038989724354 
264.00007552614767 0.0026334038989724354 
#####################################################################
# End of data export. Simulation finished at: 2017-05-22T16:14+0000 #
#####################################################################
