#####################################################################
# Alchemist log file - simulation started at: 2017-05-26T00:57+0000 #
#####################################################################
# random = 9.0, targets = 1.0, density = 1.7841466528270753, gridShift = 1.0, perturbation = 0.0, connfactor = 0.5
#
# The columns have the following meaning: 
# time se[Mean] 
0.0 NaN 
1.0078258106860618 NaN 
2.007825810686062 1.0 
3.007825810686062 1.0 
4.007825810686062 1.0 
5.007825810686062 1.0 
6.007825810686062 1.0 
7.007825810686062 1.0 
8.007825810686061 1.0 
9.007825810686061 1.0 
10.007825810686061 1.0 
11.007825810686061 0.9955357142857143 
12.007825810686061 0.9955357142857143 
13.007825810686061 0.9776785714285715 
14.007825810686061 0.9508928571428571 
15.007825810686061 0.9241071428571428 
16.00782581068606 0.8526785714285716 
17.00782581068606 0.8392857142857145 
18.00782581068606 0.7589285714285712 
19.00782581068606 0.71875 
20.00782581068606 0.7053571428571431 
21.00782581068606 0.6785714285714292 
22.00782581068606 0.7053571428571432 
23.00782581068606 0.71875 
24.00782581068606 0.745535714285714 
25.00782581068606 0.7857142857142859 
26.00782581068606 0.8080357142857141 
27.00782581068606 0.8392857142857142 
28.00782581068606 0.8660714285714288 
29.00782581068606 0.8928571428571431 
30.00782581068606 0.9107142857142854 
31.00782581068606 1.0892857142857135 
32.00782581068606 1.4196428571428572 
33.00782581068606 1.90625 
34.00782581068606 2.071428571428569 
35.00782581068606 2.2410714285714306 
36.00782581068606 2.4196428571428554 
37.00782581068606 1.8169642857142847 
38.00782581068606 2.486607142857144 
39.00782581068606 2.5089285714285703 
40.00782581068606 1.7633928571428579 
41.00782581068606 2.53125 
42.00782581068606 1.8214285714285718 
43.00782581068606 1.857142857142858 
44.00782581068606 2.0401785714285725 
45.00782581068606 1.6830357142857162 
46.00782581068606 1.5446428571428554 
47.00782581068606 1.1741071428571437 
48.00782581068606 1.21875 
49.00782581068606 0.9598214285714274 
50.00782581068606 1.4866071428571455 
51.00782581068606 0.8169642857142843 
52.00782581068606 0.549107142857142 
53.00782581068606 0.3125 
54.00782581068606 0.23214285714285682 
55.00782581068606 0.24107142857142916 
56.00782581068606 0.11160714285714306 
57.00782581068606 0.14732142857142905 
58.00782581068606 0.044642857142857324 
59.00782581068606 0.022321428571428614 
60.00782581068606 0.0 
61.00782581068606 0.0 
62.00782581068606 0.0 
63.00782581068606 0.0 
64.00782581068606 0.0 
65.00782581068606 0.0 
66.00782581068606 0.0 
67.00782581068606 0.0 
68.00782581068606 0.0 
69.00782581068606 0.0 
70.00782581068606 0.0 
71.00782581068606 0.0 
72.00782581068606 0.0 
73.00782581068606 0.0 
74.00782581068606 0.0 
75.00782581068606 0.0 
76.00782581068606 0.0 
77.00782581068606 0.0 
78.00782581068606 0.0 
79.00782581068606 0.0 
80.00782581068606 0.0 
81.00782581068606 0.0 
82.00782581068606 0.0 
83.00782581068606 0.0 
84.00782581068606 0.0 
85.00782581068606 0.0 
#####################################################################
# End of data export. Simulation finished at: 2017-05-26T00:57+0000 #
#####################################################################
