#####################################################################
# Alchemist log file - simulation started at: 2017-05-25T02:59+0000 #
#####################################################################
# random = 16.0, targets = 100.0, density = 0.07978946395100113, gridShift = 0.0, perturbation = 0.5, connfactor = 0.1
#
# The columns have the following meaning: 
# time se[Mean] 
0.0 NaN 
1.0066017814354276 NaN 
2.0066017814354273 1.0 
3.0066017814354273 1.0 
4.006601781435427 0.9957015625 
5.006601781435427 0.9957015625 
6.006601781435427 0.9785078125 
7.006601781435427 0.95041875 
8.006601781435428 0.9454421875 
9.006601781435428 0.884365625 
10.006601781435428 0.877059375 
11.006601781435428 0.85335 
12.006601781435428 0.8444203125 
13.006601781435428 0.8727765625 
14.006601781435428 0.86188125 
15.006601781435428 0.8836 
16.006601781435428 0.879 
17.006601781435428 0.8836 
18.006601781435428 0.8836 
19.006601781435428 0.8836 
20.006601781435428 0.8836 
21.006601781435428 0.8836 
22.006601781435428 0.8836 
23.006601781435428 0.8836 
#####################################################################
# End of data export. Simulation finished at: 2017-05-25T02:59+0000 #
#####################################################################
