#####################################################################
# Alchemist log file - simulation started at: 2017-05-24T05:36+0000 #
#####################################################################
# random = 14.0, targets = 1.0, density = 0.11269076455391362, gridShift = 1.0, perturbation = 0.0, connfactor = 2.0
#
# The columns have the following meaning: 
# time se[Mean] 
0.0 NaN 
1.021284317112984 NaN 
2.021284317112984 1.0 
3.021284317112984 1.0144444444444445 
4.021284317112984 1.287777777777778 
5.021284317112984 1.8233333333333335 
6.021284317112984 2.2211111111111115 
7.021284317112984 2.347777777777778 
8.021284317112984 4.30888888888889 
9.021284317112984 3.3744444444444452 
10.021284317112984 4.006666666666668 
11.021284317112984 3.233333333333334 
12.021284317112984 2.5200000000000005 
13.021284317112984 2.2477777777777783 
14.021284317112984 1.0433333333333337 
15.021284317112984 0.8644444444444447 
16.021284317112986 0.6566666666666671 
17.021284317112986 0.5122222222222226 
18.021284317112986 0.386666666666667 
19.021284317112986 0.15555555555555567 
20.021284317112986 0.026666666666666707 
21.021284317112986 0.013333333333333353 
22.021284317112986 0.004444444444444452 
23.021284317112986 5.522026336547083E-32 
24.021284317112986 4.930380657631324E-32 
25.021284317112986 4.930380657631324E-32 
26.021284317112986 4.930380657631324E-32 
27.021284317112986 4.930380657631324E-32 
28.021284317112986 4.930380657631324E-32 
29.021284317112986 4.930380657631324E-32 
#####################################################################
# End of data export. Simulation finished at: 2017-05-24T05:36+0000 #
#####################################################################
