#####################################################################
# Alchemist log file - simulation started at: 2017-05-23T10:17+0000 #
#####################################################################
# random = 5.0, targets = 10.0, density = 0.05649405772326896, gridShift = 1.0, perturbation = 0.5, connfactor = 0.75
#
# The columns have the following meaning: 
# time se[Mean] 
0.0 NaN 
1.1058771900388789 NaN 
2.105877190038879 1.013125 
3.105877190038879 0.9868272569444445 
4.105877190038878 0.8311979166666668 
5.105877190038878 0.7745095486111112 
6.105877190038878 0.5844097222222223 
7.105877190038878 0.5130295138888891 
8.105877190038878 0.42789496527777793 
9.105877190038878 0.2446093750000001 
10.105877190038878 0.10833767361111118 
11.105877190038878 0.0574652777777778 
12.105877190038878 0.07328125 
13.105877190038878 0.0862890625 
14.105877190038878 0.09 
15.105877190038878 0.09 
16.10587719003888 0.09 
17.10587719003888 0.09 
18.10587719003888 0.09 
19.10587719003888 0.09 
#####################################################################
# End of data export. Simulation finished at: 2017-05-23T10:17+0000 #
#####################################################################
