#####################################################################
# Alchemist log file - simulation started at: 2017-05-22T14:48+0000 #
#####################################################################
# random = 4.0, targets = 3.1622776601683795, density = 0.05649405772326896, gridShift = 1.0, perturbation = 0.0, connfactor = 0.75
#
# The columns have the following meaning: 
# time se[Mean] 
0.0 NaN 
1.1124924963623202 NaN 
2.11249249636232 1.0 
3.11249249636232 1.0 
4.11249249636232 1.0 
5.11249249636232 1.0 
6.11249249636232 1.0 
7.11249249636232 0.948538081398919 
8.11249249636232 0.7838270965643906 
9.11249249636232 0.5573289640974957 
10.11249249636232 0.38174448560773394 
11.11249249636232 0.20506347787007695 
12.11249249636232 0.05864566604698187 
13.11249249636232 0.036350414112567606 
14.11249249636232 0.024380391209439033 
15.11249249636232 0.002633403898972407 
16.11249249636232 0.002633403898972407 
17.11249249636232 0.002633403898972407 
18.11249249636232 0.002633403898972407 
#####################################################################
# End of data export. Simulation finished at: 2017-05-22T14:48+0000 #
#####################################################################
