#####################################################################
# Alchemist log file - simulation started at: 2017-05-25T02:07+0000 #
#####################################################################
# random = 16.0, targets = 31.622776601683793, density = 14.160781367816199, gridShift = 1.0, perturbation = 0.5, connfactor = 0.1
#
# The columns have the following meaning: 
# time se[Mean] 
0.0 NaN 
1.000419502192421 NaN 
2.000419502192421 1.0 
3.000419502192421 1.0 
4.000419502192421 1.0 
5.000419502192421 0.9999176646121648 
6.000419502192421 0.9996294907547418 
7.000419502192421 0.9996308135060646 
8.000419502192422 0.998608234914739 
9.000419502192422 0.9987264469912008 
10.000419502192422 0.997705191151198 
11.000419502192422 0.9972895459580541 
12.000419502192422 0.9959004263754385 
13.000419502192422 0.9957264963405091 
14.000419502192422 0.9950664904865052 
15.000419502192422 0.9947384716864872 
16.000419502192422 0.9938832093734777 
17.000419502192422 0.9934688869316566 
18.000419502192422 0.9921726847474583 
19.000419502192422 0.9916773496691245 
20.000419502192422 0.990583017700546 
21.000419502192422 0.9895179486639799 
22.000419502192422 0.988826034375318 
23.000419502192422 0.9882058734639088 
24.000419502192422 0.9867344184934583 
25.000419502192422 0.9858406339891764 
26.000419502192422 0.9858115334600762 
27.000419502192422 0.9850784514774963 
28.000419502192422 0.9845817936478397 
29.000419502192422 0.9849670155605603 
30.000419502192422 0.9843933133483598 
31.000419502192422 0.9842220288160758 
32.00041950219242 0.9841689563602534 
33.00041950219242 0.9839976718279693 
34.00041950219242 0.9834743965689458 
35.00041950219242 0.9831263740961748 
36.00041950219242 0.9826136808477327 
37.00041950219242 0.9819654173527216 
38.00041950219242 0.9815097648140706 
39.00041950219242 0.9811657105952671 
40.00041950219242 0.9823757715405744 
41.00041950219242 0.9818523338786386 
42.00041950219242 0.9812186206481771 
43.00041950219242 0.9822640108178141 
44.00041950219242 0.9811627402867971 
45.00041950219242 0.9810936324121896 
46.00041950219242 0.9822757531768066 
47.00041950219242 0.9816699801270354 
48.00041950219242 0.9821919326347365 
49.00041950219242 0.980787775578834 
50.00041950219242 0.9826991724749748 
51.00041950219242 0.9825741842389872 
52.00041950219242 0.9828211904024927 
53.00041950219242 0.982338920434474 
54.00041950219242 0.9836857119747615 
55.00041950219242 0.9849369406139862 
56.00041950219242 0.9851692341100293 
57.00041950219242 0.9854985756613698 
58.00041950219242 0.9873688048635929 
59.00041950219242 0.9885509256282101 
60.00041950219242 0.9892654890922715 
61.00041950219242 0.9901035556380854 
62.00041950219242 0.9907901789214565 
63.00041950219242 0.9906931308661587 
64.00041950219241 0.9918340839368583 
65.00041950219241 0.9927133181765898 
66.00041950219241 0.9927397732030449 
67.00041950219241 0.9934543366671064 
68.00041950219241 0.9939895166880345 
69.00041950219241 0.994318858239375 
70.00041950219241 0.9944423613211278 
71.00041950219241 0.9947305351785508 
72.00041950219241 0.9950598767298916 
73.00041950219241 0.9952245475055619 
74.00041950219241 0.9953068828933969 
75.00041950219241 0.9954303859751495 
76.00041950219241 0.9956362244447374 
77.00041950219241 0.9956773921386551 
78.00041950219241 0.9955127213629849 
79.00041950219241 0.9958008952204078 
80.00041950219241 0.9954715536690671 
81.00041950219241 0.9955963795021426 
82.00041950219241 0.9951847025629669 
83.00041950219241 0.9944502978290644 
84.00041950219241 0.9938885003787687 
85.00041950219241 0.9927556249841526 
86.00041950219241 0.9910634777085047 
87.00041950219241 0.9893035803038929 
88.00041950219241 0.9865500499093531 
89.00041950219241 0.9832439101442718 
90.00041950219241 0.9791844448570932 
91.00041950219241 0.9764059658250991 
92.00041950219241 0.9719747247704259 
93.00041950219241 0.9674744257858853 
94.00041950219241 0.9635948311505763 
95.00041950219241 0.9585139900900134 
96.00041950219241 0.9539566853900031 
97.00041950219241 0.9483633984229716 
98.00041950219241 0.9440026304637594 
99.00041950219241 0.9375922360996354 
100.00041950219241 0.9327547789891993 
101.00041950219241 0.9270948173025536 
102.00041950219241 0.9215136049755486 
103.00041950219241 0.9168144623129446 
104.00041950219241 0.9110550119407982 
105.00041950219241 0.9051524158051545 
106.00041950219241 0.8997505220261235 
107.00041950219241 0.8931157006852511 
108.00041950219241 0.8881074037817375 
109.00041950219241 0.879775999746414 
110.00041950219241 0.8754674199465616 
111.00041950219241 0.8693362225168951 
112.00041950219241 0.862749005273223 
113.00041950219241 0.8570865254925231 
114.00041950219241 0.852898704573161 
115.00041950219241 0.8475216607329682 
116.00041950219241 0.8424036701771959 
117.00041950219241 0.841161522341503 
118.00041950219241 0.836681368197863 
119.00041950219241 0.8328760812190459 
120.00041950219241 0.8305086622156393 
121.00041950219241 0.8258358408865529 
122.00041950219241 0.8212175771675235 
123.00041950219241 0.8157941245728622 
124.00041950219241 0.8094018527419268 
125.00041950219241 0.8057769758617154 
126.00041950219241 0.8025933199981233 
127.00041950219241 0.7962528340568719 
128.00041950219241 0.7944276908577944 
129.00041950219241 0.7913993627624156 
130.00041950219241 0.7919820183695567 
131.00041950219241 0.7897521913250006 
132.00041950219241 0.7884412018981791 
133.00041950219241 0.7926677607521208 
134.00041950219241 0.7868413292890771 
135.00041950219241 0.7963047455688521 
136.00041950219241 0.7959942398666451 
137.00041950219241 0.7897788035724177 
138.00041950219241 0.8025830707755399 
139.00041950219241 0.800372242578461 
140.00041950219241 0.8057568871614338 
141.00041950219241 0.8128021986763561 
142.00041950219241 0.8174621098228304 
143.00041950219241 0.8167989758439625 
144.00041950219241 0.8291571579252708 
145.00041950219241 0.8285572663746631 
146.00041950219241 0.8311186678396291 
147.00041950219241 0.8448641406019873 
148.00041950219241 0.8305299746147589 
149.00041950219241 0.8372148860412555 
150.00041950219241 0.846234975755466 
151.00041950219241 0.8306526340832847 
152.00041950219241 0.8552388509997322 
153.00041950219241 0.8338929007794124 
154.00041950219241 0.834439632641878 
155.00041950219241 0.8488444989341715 
156.00041950219241 0.8348615024860842 
157.00041950219241 0.8407574211608184 
158.00041950219241 0.8440018070475304 
159.00041950219241 0.840044236677166 
160.00041950219241 0.8337200988987963 
161.00041950219241 0.8512193161011741 
162.00041950219241 0.8357722411045031 
163.00041950219241 0.8285373164608022 
164.00041950219241 0.8310616763022126 
165.00041950219241 0.8164599008118157 
166.00041950219241 0.820768120216091 
167.00041950219241 0.8148275757348006 
168.00041950219241 0.7989448949371943 
169.00041950219241 0.7992532044624808 
170.00041950219241 0.8069848431649241 
171.00041950219241 0.7815236965348344 
172.00041950219241 0.7913163889638265 
173.00041950219241 0.776250231353787 
174.00041950219241 0.7884177398473858 
175.00041950219241 0.7820129894089204 
176.00041950219241 0.7759037829653984 
177.00041950219241 0.7724630812631458 
178.00041950219241 0.757563418148392 
179.00041950219241 0.7771323693090022 
180.00041950219241 0.7548142370427313 
181.00041950219241 0.7559561720061141 
182.00041950219241 0.7497191080100103 
183.00041950219241 0.7411761642479577 
184.00041950219241 0.7385868386551168 
185.00041950219241 0.7336151604661494 
186.00041950219241 0.7263694449483363 
187.00041950219241 0.7244617810259186 
188.00041950219241 0.724730991625617 
189.00041950219241 0.7193926525119774 
190.00041950219241 0.7155083419078665 
191.00041950219241 0.7133066696849116 
192.00041950219241 0.7110411805926402 
193.00041950219241 0.7111418956241061 
194.00041950219241 0.7108976738381341 
195.00041950219241 0.7092775508097369 
196.00041950219241 0.708772233983162 
197.00041950219241 0.708772233983162 
198.00041950219241 0.708772233983162 
199.00041950219241 0.708772233983162 
200.00041950219241 0.708772233983162 
201.00041950219241 0.708772233983162 
202.00041950219241 0.708772233983162 
203.00041950219241 0.708772233983162 
204.00041950219241 0.708772233983162 
205.00041950219241 0.708772233983162 
206.00041950219241 0.708772233983162 
207.00041950219241 0.708772233983162 
208.00041950219241 0.708772233983162 
209.00041950219241 0.708772233983162 
210.00041950219241 0.708772233983162 
211.00041950219241 0.708772233983162 
212.00041950219241 0.708772233983162 
213.00041950219241 0.708772233983162 
214.00041950219241 0.708772233983162 
215.00041950219241 0.708772233983162 
216.00041950219241 0.708772233983162 
217.00041950219241 0.708772233983162 
218.00041950219241 0.708772233983162 
219.00041950219241 0.708772233983162 
220.00041950219241 0.708772233983162 
221.00041950219241 0.708772233983162 
222.00041950219241 0.708772233983162 
223.00041950219241 0.708772233983162 
224.00041950219241 0.708772233983162 
225.00041950219241 0.708772233983162 
226.00041950219241 0.708772233983162 
227.00041950219241 0.708772233983162 
228.00041950219241 0.708772233983162 
229.00041950219241 0.708772233983162 
230.00041950219241 0.708772233983162 
231.00041950219241 0.708772233983162 
232.00041950219241 0.708772233983162 
233.00041950219241 0.708772233983162 
234.00041950219241 0.708772233983162 
235.00041950219241 0.708772233983162 
236.00041950219241 0.708772233983162 
237.00041950219241 0.708772233983162 
238.00041950219241 0.708772233983162 
239.00041950219241 0.708772233983162 
240.00041950219241 0.708772233983162 
241.00041950219241 0.708772233983162 
242.00041950219241 0.708772233983162 
243.00041950219241 0.708772233983162 
244.00041950219241 0.708772233983162 
245.00041950219241 0.708772233983162 
246.00041950219241 0.708772233983162 
247.00041950219241 0.708772233983162 
248.00041950219241 0.708772233983162 
249.00041950219241 0.708772233983162 
250.00041950219241 0.708772233983162 
251.00041950219241 0.708772233983162 
252.00041950219241 0.708772233983162 
253.00041950219241 0.708772233983162 
254.00041950219241 0.708772233983162 
255.00041950219241 0.708772233983162 
256.0004195021924 0.708772233983162 
257.0004195021924 0.708772233983162 
258.0004195021924 0.708772233983162 
259.0004195021924 0.708772233983162 
260.0004195021924 0.708772233983162 
261.0004195021924 0.708772233983162 
262.0004195021924 0.708772233983162 
263.0004195021924 0.708772233983162 
264.0004195021924 0.708772233983162 
265.0004195021924 0.708772233983162 
266.0004195021924 0.708772233983162 
267.0004195021924 0.708772233983162 
268.0004195021924 0.708772233983162 
269.0004195021924 0.708772233983162 
270.0004195021924 0.708772233983162 
271.0004195021924 0.708772233983162 
272.0004195021924 0.708772233983162 
273.0004195021924 0.708772233983162 
274.0004195021924 0.708772233983162 
275.0004195021924 0.708772233983162 
276.0004195021924 0.708772233983162 
277.0004195021924 0.708772233983162 
278.0004195021924 0.708772233983162 
279.0004195021924 0.708772233983162 
#####################################################################
# End of data export. Simulation finished at: 2017-05-25T02:10+0000 #
#####################################################################
