#####################################################################
# Alchemist log file - simulation started at: 2017-05-23T15:02+0000 #
#####################################################################
# random = 12.0, targets = 3.1622776601683795, density = 0.04, gridShift = 0.0, perturbation = 0.0, connfactor = 0.75
#
# The columns have the following meaning: 
# time se[Mean] 
0.0 NaN 
1.1068295401238013 NaN 
2.106829540123801 1.0 
3.106829540123801 1.0 
4.106829540123801 0.9817982646239476 
5.106829540123801 0.8735038825827358 
6.106829540123801 0.7740431238392581 
7.106829540123801 0.5909933675717185 
8.106829540123801 0.4205489451790364 
9.106829540123801 0.24477683894257443 
10.106829540123801 0.11754329568948267 
11.106829540123801 0.04921817970372236 
12.106829540123801 0.002633403898972407 
13.106829540123801 0.002633403898972407 
#####################################################################
# End of data export. Simulation finished at: 2017-05-23T15:02+0000 #
#####################################################################
