#####################################################################
# Alchemist log file - simulation started at: 2017-05-24T17:21+0000 #
#####################################################################
# random = 7.0, targets = 3.1622776601683795, density = 0.3174802103936399, gridShift = 1.0, perturbation = 0.0, connfactor = 1.5
#
# The columns have the following meaning: 
# time se[Mean] 
0.0 NaN 
1.0080802511496205 NaN 
2.0080802511496207 1.7298554389178136 
3.0080802511496207 2.1259548348590136 
4.008080251149621 2.7131621312291263 
5.008080251149621 2.5977591252601298 
6.008080251149621 2.141624281823659 
7.008080251149621 1.9635699226247636 
8.008080251149622 1.3310097528408094 
9.008080251149622 1.5598161003670241 
10.008080251149622 1.1412804976786495 
11.008080251149622 0.6700505797407164 
12.008080251149622 0.4809478783213215 
13.008080251149622 0.5405133159125727 
14.008080251149622 0.4200508893307207 
15.008080251149622 0.6793655953484198 
16.00808025114962 1.547164919131572 
17.00808025114962 1.3820908134588328 
18.00808025114962 2.451654848300087 
19.00808025114962 2.2616173520803895 
20.00808025114962 2.753633681478699 
21.00808025114962 2.1802944083654205 
22.00808025114962 1.9534357503647375 
23.00808025114962 1.5528512718749763 
24.00808025114962 1.195860283945358 
25.00808025114962 0.7467898881368146 
26.00808025114962 0.39830452120026244 
27.00808025114962 0.16096653083896958 
28.00808025114962 0.14186683370843672 
29.00808025114962 0.09553750302796103 
30.00808025114962 0.0678432909750708 
31.00808025114962 0.03422797921843728 
32.00808025114962 0.013932443294134799 
33.00808025114962 0.007504930626666327 
34.00808025114962 0.0049986812567166675 
35.00808025114962 0.003808205066240477 
36.00808025114962 0.003025004288061792 
37.00808025114962 0.0026334038989724497 
38.00808025114962 0.0026334038989724497 
39.00808025114962 0.0026334038989724497 
40.00808025114962 0.0026334038989724497 
41.00808025114962 0.0026334038989724497 
42.00808025114962 0.0026334038989724497 
43.00808025114962 0.0026334038989724497 
44.00808025114962 0.0026334038989724497 
45.00808025114962 0.0026334038989724497 
#####################################################################
# End of data export. Simulation finished at: 2017-05-24T17:22+0000 #
#####################################################################
