#####################################################################
# Alchemist log file - simulation started at: 2017-05-23T04:03+0000 #
#####################################################################
# random = 10.0, targets = 100.0, density = 5.0264212595847235, gridShift = 1.0, perturbation = 0.0, connfactor = 1.0
#
# The columns have the following meaning: 
# time se[Mean] 
0.0 NaN 
1.0007035023519422 NaN 
2.000703502351942 1.0056491695804195 
3.000703502351942 1.0101156177156176 
4.000703502351942 1.0146176427738927 
5.000703502351942 1.0186084935897435 
6.000703502351942 1.017415272921523 
7.000703502351942 1.022198412004662 
8.000703502351943 1.0216921134421135 
9.000703502351943 1.0234621357808857 
10.000703502351943 1.0138375825563326 
11.000703502351943 1.0135420745920747 
12.000703502351943 1.003418011849262 
13.000703502351943 1.0062700271950271 
14.000703502351943 0.9943309343434343 
15.000703502351943 0.9978216297591298 
16.000703502351943 0.9906712801087801 
17.000703502351943 0.989732128982129 
18.000703502351943 0.9897630196192696 
19.000703502351943 0.9854964257964258 
20.000703502351943 0.9820841637529137 
21.000703502351943 0.9755094454156954 
22.000703502351943 0.9590512480574981 
23.000703502351943 0.9542634955322455 
24.000703502351943 0.9418537635975136 
25.000703502351943 0.9364267433954934 
26.000703502351943 0.9293598727661228 
27.000703502351943 0.9286687451437452 
28.000703502351943 0.924602229020979 
29.000703502351943 0.927163476107226 
30.000703502351943 0.9245235722610723 
31.000703502351943 0.9245223096348096 
32.00070350235194 0.9242792637917637 
33.00070350235194 0.9243385392385393 
34.00070350235194 0.9264864024864026 
35.00070350235194 0.9277403943278943 
36.00070350235194 0.9299786907536908 
37.00070350235194 0.930522770979021 
38.00070350235194 0.9318037733100233 
39.00070350235194 0.9307470231157731 
40.00070350235194 0.9330243444055943 
41.00070350235194 0.9290763791763792 
42.00070350235194 0.9338737373737374 
43.00070350235194 0.9240493832556332 
44.00070350235194 0.9261494609557109 
45.00070350235194 0.924499189005439 
46.00070350235194 0.9231615433177933 
47.00070350235194 0.9194680992618492 
48.00070350235194 0.9245772047397047 
49.00070350235194 0.917656959013209 
50.00070350235194 0.9197143113830614 
51.00070350235194 0.9152011217948718 
52.00070350235194 0.9157468337218339 
53.00070350235194 0.9085947601010101 
54.00070350235194 0.9069861790986792 
55.00070350235194 0.9030942647630148 
56.00070350235194 0.8962831245143746 
57.00070350235194 0.8896360528360528 
58.00070350235194 0.885910440947941 
59.00070350235194 0.8759507527195027 
60.00070350235194 0.8673922639860139 
61.00070350235194 0.8615760635198135 
62.00070350235194 0.8557130439005438 
63.00070350235194 0.8452271221833723 
64.00070350235194 0.8360524912587414 
65.00070350235194 0.8258210567210568 
66.00070350235194 0.8224935800310801 
67.00070350235194 0.81095574009324 
68.00070350235194 0.8085537781662783 
69.00070350235194 0.8021362325174826 
70.00070350235194 0.7914258207070708 
71.00070350235194 0.7837243249805752 
72.00070350235194 0.7741188179875682 
73.00070350235194 0.7681832216394718 
74.00070350235194 0.758163451825952 
75.00070350235194 0.7521509663947166 
76.00070350235194 0.7408435314685315 
77.00070350235194 0.728011562742813 
78.00070350235194 0.7235513063325565 
79.00070350235194 0.7104565365190365 
80.00070350235194 0.701705812937063 
81.00070350235194 0.6930024135586638 
82.00070350235194 0.6814950903263406 
83.00070350235194 0.6751495532245534 
84.00070350235194 0.6632428515928517 
85.00070350235194 0.649666826923077 
86.00070350235194 0.6383343725718726 
87.00070350235194 0.6265599893162395 
88.00070350235194 0.61579881993007 
89.00070350235194 0.6028796862859365 
90.00070350235194 0.5921525932400934 
91.00070350235194 0.5832302933177934 
92.00070350235194 0.5709025835275836 
93.00070350235194 0.5649738005050507 
94.00070350235194 0.56118159965035 
95.00070350235194 0.5492952991452994 
96.00070350235194 0.5386793317793318 
97.00070350235194 0.5284823815073816 
98.00070350235194 0.5169357274669775 
99.00070350235194 0.516437975912976 
100.00070350235194 0.505684056915307 
101.00070350235194 0.49692049339549355 
102.00070350235194 0.5126148164335665 
103.00070350235194 0.5088145639083139 
104.00070350235194 0.4836703331390832 
105.00070350235194 0.48310804681429687 
106.00070350235194 0.4628705322455323 
107.00070350235194 0.45294045260295274 
108.00070350235194 0.4420541763791765 
109.00070350235194 0.44155523504273514 
110.00070350235194 0.4342137577700078 
111.00070350235194 0.41127395590520605 
112.00070350235194 0.4208416375291376 
113.00070350235194 0.40412399475524485 
114.00070350235194 0.4133687597125098 
115.00070350235194 0.41148444055944067 
116.00070350235194 0.41744158411033416 
117.00070350235194 0.40213697552447564 
118.00070350235194 0.4120588432400933 
119.00070350235194 0.42058949592074596 
120.00070350235194 0.40833699494949505 
121.00070350235194 0.4068423853923855 
122.00070350235194 0.3949291666666668 
123.00070350235194 0.4013896756021757 
124.00070350235194 0.4044135198135199 
125.00070350235194 0.39142694250194265 
126.00070350235194 0.4043693084693085 
127.00070350235194 0.39344910159285174 
128.00070350235194 0.3933816676379178 
129.00070350235194 0.3923345085470087 
130.00070350235194 0.3999605574980576 
131.00070350235194 0.3986101932789434 
132.00070350235194 0.3868600815850817 
133.00070350235194 0.3874380973193474 
134.00070350235194 0.38478228438228457 
135.00070350235194 0.38597926379176395 
136.00070350235194 0.38402282925407943 
137.00070350235194 0.3788028409090911 
138.00070350235194 0.3824785839160841 
139.00070350235194 0.3761109217171719 
140.00070350235194 0.37642858391608414 
141.00070350235194 0.37560654623154643 
142.00070350235194 0.3753244512432014 
143.00070350235194 0.37473412975912995 
144.00070350235194 0.37412411616161634 
145.00070350235194 0.3742702700077702 
146.00070350235194 0.3733472562160064 
147.00070350235194 0.37345553613053634 
148.00070350235194 0.3732431283993786 
149.00070350235194 0.3730421377233879 
150.00070350235194 0.37287010003885024 
151.00070350235194 0.37273368783993804 
152.00070350235194 0.3725184489121991 
153.00070350235194 0.372396527777778 
154.00070350235194 0.37231431623931643 
155.00070350235194 0.37223544094794114 
156.00070350235194 0.3722069250194252 
157.00070350235194 0.37218554778554797 
158.00070350235194 0.3721427738927741 
159.00070350235194 0.37212138694638713 
160.00070350235194 0.3721142579642582 
161.00070350235194 0.3721000000000002 
162.00070350235194 0.3721000000000002 
163.00070350235194 0.3721000000000002 
164.00070350235194 0.3721000000000002 
165.00070350235194 0.3721000000000002 
166.00070350235194 0.3721000000000002 
167.00070350235194 0.3721000000000002 
168.00070350235194 0.3721000000000002 
169.00070350235194 0.3721000000000002 
170.00070350235194 0.3721000000000002 
171.00070350235194 0.3721000000000002 
172.00070350235194 0.3721000000000002 
173.00070350235194 0.3721000000000002 
174.00070350235194 0.3721000000000002 
175.00070350235194 0.3721000000000002 
176.00070350235194 0.3721000000000002 
177.00070350235194 0.3721000000000002 
178.00070350235194 0.3721000000000002 
179.00070350235194 0.3721000000000002 
180.00070350235194 0.3721000000000002 
181.00070350235194 0.3721000000000002 
182.00070350235194 0.3721000000000002 
183.00070350235194 0.3721000000000002 
184.00070350235194 0.3721000000000002 
185.00070350235194 0.3721000000000002 
186.00070350235194 0.3721000000000002 
187.00070350235194 0.3721000000000002 
188.00070350235194 0.3721000000000002 
189.00070350235194 0.3721000000000002 
190.00070350235194 0.3721000000000002 
191.00070350235194 0.3721000000000002 
192.00070350235194 0.3721000000000002 
193.00070350235194 0.3721000000000002 
194.00070350235194 0.3721000000000002 
195.00070350235194 0.3721000000000002 
196.00070350235194 0.3721000000000002 
197.00070350235194 0.3721000000000002 
198.00070350235194 0.3721000000000002 
199.00070350235194 0.3721000000000002 
200.00070350235194 0.3721000000000002 
201.00070350235194 0.3721000000000002 
202.00070350235194 0.3721000000000002 
203.00070350235194 0.3721000000000002 
204.00070350235194 0.3721000000000002 
205.00070350235194 0.3721000000000002 
206.00070350235194 0.3721000000000002 
207.00070350235194 0.3721000000000002 
208.00070350235194 0.3721000000000002 
#####################################################################
# End of data export. Simulation finished at: 2017-05-23T04:04+0000 #
#####################################################################
