#####################################################################
# Alchemist log file - simulation started at: 2017-05-22T15:52+0000 #
#####################################################################
# random = 4.0, targets = 3.1622776601683795, density = 14.160781367816199, gridShift = 0.0, perturbation = 0.0, connfactor = 0.75
#
# The columns have the following meaning: 
# time se[Mean] 
0.0 NaN 
1.000075526147678 NaN 
2.000075526147678 1.0 
3.000075526147678 1.0 
4.000075526147678 1.0 
5.000075526147678 0.9998686999345386 
6.000075526147678 0.9989495994763088 
7.000075526147678 0.9991247303548318 
8.000075526147679 0.9963385931855482 
9.000075526147679 0.9950984515123136 
10.000075526147679 0.9877471868362621 
11.000075526147679 0.9829186897036783 
12.000075526147679 0.974357081017604 
13.000075526147679 0.9655321027057124 
14.000075526147679 0.9569114758143852 
15.000075526147679 0.947591864398754 
16.00007552614768 0.9437114958927175 
17.00007552614768 0.9411304796388906 
18.00007552614768 0.9426470622191757 
19.00007552614768 0.9436966932479729 
20.00007552614768 0.9428356491263795 
21.00007552614768 0.9435944213508299 
22.00007552614768 0.9440755984258898 
23.00007552614768 0.9387518910683949 
24.00007552614768 0.9382707139933352 
25.00007552614768 0.9333843528978384 
26.00007552614768 0.9275496708020718 
27.00007552614768 0.9196584032194313 
28.00007552614768 0.9146405496847507 
29.00007552614768 0.908455798205661 
30.00007552614768 0.9000975790715339 
31.00007552614768 0.8932563272651372 
32.00007552614768 0.8867505345710434 
33.00007552614768 0.8795455649789206 
34.00007552614768 0.8677087648577988 
35.00007552614768 0.8606035663044163 
36.00007552614768 0.8472055832950542 
37.00007552614768 0.8375931994697955 
38.00007552614768 0.8393927940595868 
39.00007552614768 0.8174356829586455 
40.00007552614768 0.8131574048038966 
41.00007552614768 0.8117238972762378 
42.00007552614768 0.791336423375409 
43.00007552614768 0.7861119301993931 
44.00007552614768 0.774453531310091 
45.00007552614768 0.7460294363474007 
46.00007552614768 0.7414255000082879 
47.00007552614768 0.7172839559500765 
48.00007552614768 0.7069389323308805 
49.00007552614768 0.6982560371449128 
50.00007552614768 0.6845527673019521 
51.00007552614768 0.6674881732556539 
52.00007552614768 0.6609683676756181 
53.00007552614768 0.6491621245806463 
54.00007552614768 0.6417126278556413 
55.00007552614768 0.6327332950273491 
56.00007552614768 0.6200246778561251 
57.00007552614768 0.6091696616311822 
58.00007552614768 0.5882917767165723 
59.00007552614768 0.5843351168979991 
60.00007552614768 0.5681375305587189 
61.00007552614768 0.5563582096530622 
62.00007552614768 0.545620450211776 
63.00007552614768 0.5324029744132374 
64.00007552614768 0.5280683510214552 
65.00007552614768 0.5171131587464175 
66.00007552614768 0.5057398373178067 
67.00007552614768 0.49822652317642113 
68.00007552614768 0.49118592166626773 
69.00007552614768 0.4818899519547 
70.00007552614768 0.4764074553532116 
71.00007552614768 0.4695258354607751 
72.00007552614768 0.46235124065303435 
73.00007552614768 0.4552808414796708 
74.00007552614768 0.4462986129135743 
75.00007552614768 0.43860035683377313 
76.00007552614768 0.43069851882830085 
77.00007552614768 0.42302794430075724 
78.00007552614768 0.41337710599473476 
79.00007552614768 0.40566308540157425 
80.00007552614768 0.3980234627795788 
81.00007552614768 0.38888148310087395 
82.00007552614768 0.3792869697679781 
83.00007552614768 0.3705246647620851 
84.00007552614768 0.363962739468589 
85.00007552614768 0.3525896205456557 
86.00007552614768 0.3440455077364512 
87.00007552614768 0.33727980814356057 
88.00007552614768 0.34272888237695587 
89.00007552614768 0.43724297877419704 
90.00007552614768 0.3684524262133467 
91.00007552614768 0.48923040344123997 
92.00007552614768 0.9362896409925999 
93.00007552614768 0.6490387730297893 
94.00007552614768 0.9581946998701473 
95.00007552614768 1.219043481746697 
96.00007552614768 0.8692733200859128 
97.00007552614768 1.0783675304229026 
98.00007552614768 0.9899488533068499 
99.00007552614768 0.5434116165877283 
100.00007552614768 0.7801421012307364 
101.00007552614768 0.4843029150301731 
102.00007552614768 0.4296437851633783 
103.00007552614768 0.5701796581541078 
104.00007552614768 0.4769073032116152 
105.00007552614768 0.32048511456453493 
106.00007552614768 0.4867446629736546 
107.00007552614768 0.35902397206492814 
108.00007552614768 0.4339629681309251 
109.00007552614768 0.39219238552500824 
110.00007552614768 0.40912226743859564 
111.00007552614768 0.46767659885203344 
112.00007552614768 0.16350993278526374 
113.00007552614768 0.4351793466500547 
114.00007552614768 0.2354209577812235 
115.00007552614768 0.37188517199463345 
116.00007552614768 0.36943796679662705 
117.00007552614768 0.21069984262113756 
118.00007552614768 0.34824521689006815 
119.00007552614768 0.31054225321328044 
120.00007552614768 0.13094317301083402 
121.00007552614768 0.2498143022988968 
122.00007552614768 0.13801189148046034 
123.00007552614768 0.06491401233263461 
124.00007552614768 0.13051223587343158 
125.00007552614768 0.12839415158681067 
126.00007552614768 0.07102269526877328 
127.00007552614768 0.10574459666815807 
128.00007552614767 0.11908975795923257 
129.00007552614767 0.11536280236488779 
130.00007552614767 0.05782370761158432 
131.00007552614767 0.09596537429838928 
132.00007552614767 0.10912193855030491 
133.00007552614767 0.10641654768505891 
134.00007552614767 0.05018122977960217 
135.00007552614767 0.08798282038474492 
136.00007552614767 0.10084929532720707 
137.00007552614767 0.08285290415693797 
138.00007552614767 0.027067811420990417 
139.00007552614767 0.07950563336735825 
140.00007552614767 0.02246598106087951 
141.00007552614767 0.019933989710645438 
142.00007552614767 0.018226906617878198 
143.00007552614767 0.015890427628888208 
144.00007552614767 0.01403243248283188 
145.00007552614767 0.011167675252422673 
146.00007552614767 0.010115938244622294 
147.00007552614767 0.008064546848278786 
148.00007552614767 0.006630441935541124 
149.00007552614767 0.005544290295169198 
150.00007552614767 0.004545030786027029 
151.00007552614767 0.0036326634081145907 
152.00007552614767 0.00311131062073607 
153.00007552614767 0.002720296030202176 
154.00007552614767 0.0026334038989724207 
155.00007552614767 0.0026334038989724207 
156.00007552614767 0.0026334038989724207 
157.00007552614767 0.0026334038989724207 
158.00007552614767 0.0026334038989724207 
159.00007552614767 0.0026334038989724207 
160.00007552614767 0.0026334038989724207 
161.00007552614767 0.0026334038989724207 
162.00007552614767 0.0026334038989724207 
163.00007552614767 0.0026334038989724207 
164.00007552614767 0.0026334038989724207 
165.00007552614767 0.0026334038989724207 
166.00007552614767 0.0026334038989724207 
167.00007552614767 0.0026334038989724207 
168.00007552614767 0.0026334038989724207 
169.00007552614767 0.0026334038989724207 
170.00007552614767 0.0026334038989724207 
171.00007552614767 0.0026334038989724207 
172.00007552614767 0.0026334038989724207 
173.00007552614767 0.0026334038989724207 
174.00007552614767 0.0026334038989724207 
175.00007552614767 0.0026334038989724207 
176.00007552614767 0.0026334038989724207 
177.00007552614767 0.0026334038989724207 
178.00007552614767 0.0026334038989724207 
179.00007552614767 0.0026334038989724207 
180.00007552614767 0.0026334038989724207 
181.00007552614767 0.0026334038989724207 
182.00007552614767 0.0026334038989724207 
183.00007552614767 0.0026334038989724207 
184.00007552614767 0.0026334038989724207 
185.00007552614767 0.0026334038989724207 
186.00007552614767 0.0026334038989724207 
187.00007552614767 0.0026334038989724207 
188.00007552614767 0.0026334038989724207 
189.00007552614767 0.0026334038989724207 
190.00007552614767 0.0026334038989724207 
191.00007552614767 0.0026334038989724207 
192.00007552614767 0.0026334038989724207 
193.00007552614767 0.0026334038989724207 
194.00007552614767 0.0026334038989724207 
195.00007552614767 0.0026334038989724207 
196.00007552614767 0.0026334038989724207 
197.00007552614767 0.0026334038989724207 
198.00007552614767 0.0026334038989724207 
199.00007552614767 0.0026334038989724207 
200.00007552614767 0.0026334038989724207 
201.00007552614767 0.0026334038989724207 
202.00007552614767 0.0026334038989724207 
203.00007552614767 0.0026334038989724207 
204.00007552614767 0.0026334038989724207 
205.00007552614767 0.0026334038989724207 
206.00007552614767 0.0026334038989724207 
207.00007552614767 0.0026334038989724207 
208.00007552614767 0.0026334038989724207 
209.00007552614767 0.0026334038989724207 
210.00007552614767 0.0026334038989724207 
211.00007552614767 0.0026334038989724207 
212.00007552614767 0.0026334038989724207 
213.00007552614767 0.0026334038989724207 
214.00007552614767 0.0026334038989724207 
215.00007552614767 0.0026334038989724207 
216.00007552614767 0.0026334038989724207 
217.00007552614767 0.0026334038989724207 
218.00007552614767 0.0026334038989724207 
219.00007552614767 0.0026334038989724207 
220.00007552614767 0.0026334038989724207 
221.00007552614767 0.0026334038989724207 
222.00007552614767 0.0026334038989724207 
223.00007552614767 0.0026334038989724207 
224.00007552614767 0.0026334038989724207 
225.00007552614767 0.0026334038989724207 
226.00007552614767 0.0026334038989724207 
227.00007552614767 0.0026334038989724207 
228.00007552614767 0.0026334038989724207 
229.00007552614767 0.0026334038989724207 
230.00007552614767 0.0026334038989724207 
231.00007552614767 0.0026334038989724207 
232.00007552614767 0.0026334038989724207 
233.00007552614767 0.0026334038989724207 
234.00007552614767 0.0026334038989724207 
235.00007552614767 0.0026334038989724207 
236.00007552614767 0.0026334038989724207 
237.00007552614767 0.0026334038989724207 
238.00007552614767 0.0026334038989724207 
239.00007552614767 0.0026334038989724207 
240.00007552614767 0.0026334038989724207 
241.00007552614767 0.0026334038989724207 
242.00007552614767 0.0026334038989724207 
#####################################################################
# End of data export. Simulation finished at: 2017-05-22T16:01+0000 #
#####################################################################
