#####################################################################
# Alchemist log file - simulation started at: 2017-05-24T15:58+0000 #
#####################################################################
# random = 15.0, targets = 10.0, density = 1.2632455339402642, gridShift = 0.0, perturbation = 0.0, connfactor = 0.25
#
# The columns have the following meaning: 
# time se[Mean] 
0.0 NaN 
1.0090872484315245 NaN 
2.0090872484315243 1.0 
3.0090872484315243 0.9988757396449705 
4.009087248431524 0.994378698224852 
5.009087248431524 0.9898816568047337 
6.009087248431524 0.980887573964497 
7.009087248431524 0.9718934911242604 
8.009087248431523 0.9741420118343196 
9.009087248431523 0.9707692307692308 
10.009087248431523 0.9775147928994082 
11.009087248431523 0.9763905325443787 
12.009087248431523 0.9685207100591716 
13.009087248431523 0.9561538461538462 
14.009087248431523 0.9359171597633136 
15.009087248431523 0.9134319526627218 
16.009087248431523 0.8898224852071006 
17.009087248431523 0.872189349112426 
18.009087248431523 0.8594082840236686 
19.009087248431523 0.8511242603550295 
20.009087248431523 0.8473964497041421 
21.009087248431523 0.8597633136094676 
22.009087248431523 0.849585798816568 
23.009087248431523 0.8728994082840238 
24.009087248431523 0.8705917159763313 
25.009087248431523 0.8765680473372781 
26.009087248431523 0.8957988165680474 
27.009087248431523 0.8883431952662723 
28.009087248431523 0.9006508875739646 
29.009087248431523 0.8968639053254438 
30.009087248431523 0.8992307692307693 
31.009087248431523 0.8946745562130177 
32.00908724843153 0.8828402366863906 
33.00908724843153 0.8831360946745562 
34.00908724843153 0.8611242603550296 
35.00908724843153 0.8344378698224852 
36.00908724843153 0.8234319526627218 
37.00908724843153 0.7919526627218937 
38.00908724843153 0.7569230769230768 
39.00908724843153 0.745266272189349 
40.00908724843153 0.7114792899408284 
41.00908724843153 0.6676331360946746 
42.00908724843153 0.6799408284023669 
43.00908724843153 0.6340236686390532 
44.00908724843153 0.6216568047337279 
45.00908724843153 0.631715976331361 
46.00908724843153 0.6088165680473373 
47.00908724843153 0.6025443786982249 
48.00908724843153 0.5966863905325445 
49.00908724843153 0.6028994082840237 
50.00908724843153 0.6094674556213018 
51.00908724843153 0.6130177514792899 
52.00908724843153 0.6201183431952663 
53.00908724843153 0.6382248520710059 
54.00908724843153 0.64 
55.00908724843153 0.64 
56.00908724843153 0.64 
57.00908724843153 0.64 
58.00908724843153 0.64 
59.00908724843153 0.64 
60.00908724843153 0.64 
61.00908724843153 0.64 
62.00908724843153 0.64 
63.00908724843153 0.64 
64.00908724843153 0.64 
65.00908724843153 0.64 
66.00908724843153 0.64 
67.00908724843153 0.64 
68.00908724843153 0.64 
69.00908724843153 0.64 
70.00908724843153 0.64 
71.00908724843153 0.64 
72.00908724843153 0.64 
73.00908724843153 0.64 
74.00908724843153 0.64 
75.00908724843153 0.64 
76.00908724843153 0.64 
77.00908724843153 0.64 
#####################################################################
# End of data export. Simulation finished at: 2017-05-24T15:58+0000 #
#####################################################################
