#####################################################################
# Alchemist log file - simulation started at: 2017-05-23T22:39+0000 #
#####################################################################
# random = 6.0, targets = 1.0, density = 7.099073319511142, gridShift = 0.0, perturbation = 0.0, connfactor = 0.25
#
# The columns have the following meaning: 
# time se[Mean] 
0.0 NaN 
1.001281360956031 NaN 
2.001281360956031 1.0 
3.001281360956031 1.0 
4.001281360956031 1.0 
5.001281360956031 1.0 
6.001281360956031 1.0 
7.001281360956031 1.0 
8.001281360956032 1.0 
9.001281360956032 1.0 
10.001281360956032 1.0 
11.001281360956032 1.0 
12.001281360956032 1.0 
13.001281360956032 1.0 
14.001281360956032 1.0 
15.001281360956032 1.0 
16.001281360956032 1.0 
17.001281360956032 1.0 
18.001281360956032 1.0 
19.001281360956032 1.0 
20.001281360956032 1.0 
21.001281360956032 1.0 
22.001281360956032 1.0 
23.001281360956032 1.0 
24.001281360956032 1.0 
25.001281360956032 1.0 
26.001281360956032 1.0 
27.001281360956032 1.0 
28.001281360956032 1.0 
29.001281360956032 1.0 
30.001281360956032 1.0 
31.001281360956032 1.0 
32.00128136095603 1.0 
33.00128136095603 1.0 
34.00128136095603 1.0 
35.00128136095603 1.0 
36.00128136095603 1.0 
37.00128136095603 1.0 
38.00128136095603 1.0 
39.00128136095603 1.0 
40.00128136095603 1.0 
41.00128136095603 1.0 
42.00128136095603 1.0 
43.00128136095603 1.0 
44.00128136095603 1.0 
45.00128136095603 1.0 
46.00128136095603 1.0 
47.00128136095603 1.0 
48.00128136095603 1.0 
49.00128136095603 1.0 
50.00128136095603 1.0 
51.00128136095603 1.0 
52.00128136095603 1.0 
53.00128136095603 1.0 
54.00128136095603 1.0 
55.00128136095603 1.0 
56.00128136095603 1.0 
57.00128136095603 1.0 
58.00128136095603 1.0 
59.00128136095603 1.0 
60.00128136095603 1.0 
61.00128136095603 1.0 
62.00128136095603 1.0 
63.00128136095603 1.0 
#####################################################################
# End of data export. Simulation finished at: 2017-05-23T22:41+0000 #
#####################################################################
