#####################################################################
# Alchemist log file - simulation started at: 2017-05-25T10:51+0000 #
#####################################################################
# random = 17.0, targets = 100.0, density = 3.5589026259761294, gridShift = 1.0, perturbation = 0.0, connfactor = 0.25
#
# The columns have the following meaning: 
# time se[Mean] 
0.0 NaN 
1.0003034458253823 NaN 
2.0003034458253826 1.0 
3.0003034458253826 0.99981004784689 
4.0003034458253826 0.9990967703349283 
5.0003034458253826 0.9977414473684211 
6.0003034458253826 0.9954854066985646 
7.0003034458253826 0.9930623205741627 
8.000303445825383 0.9908123803827751 
9.000303445825383 0.988636423444976 
10.000303445825383 0.9866451555023923 
11.000303445825383 0.9846236244019139 
12.000303445825383 0.9816520933014354 
13.000303445825383 0.9803212918660287 
14.000303445825383 0.9757316985645933 
15.000303445825383 0.9729366626794258 
16.00030344582538 0.970836961722488 
17.00030344582538 0.9673694976076554 
18.00030344582538 0.9636587918660287 
19.00030344582538 0.9573165071770334 
20.00030344582538 0.9539986244019139 
21.00030344582538 0.9471870215311005 
22.00030344582538 0.9426921650717703 
23.00030344582538 0.9374705741626794 
24.00030344582538 0.9334597488038278 
25.00030344582538 0.9286418660287081 
26.00030344582538 0.9237410287081339 
27.00030344582538 0.9220037081339713 
28.00030344582538 0.9159052033492823 
29.00030344582538 0.915134928229665 
30.00030344582538 0.9139771531100478 
31.00030344582538 0.9128706937799044 
32.00030344582538 0.9110934210526315 
33.00030344582538 0.9113183014354066 
34.00030344582538 0.9105098684210526 
35.00030344582538 0.9093416267942583 
36.00030344582538 0.9076887559808613 
37.00030344582538 0.9051586722488038 
38.00030344582538 0.9026906698564593 
39.00030344582538 0.9014288277511961 
40.00030344582538 0.8979927033492823 
41.00030344582538 0.8932551435406697 
42.00030344582538 0.8905756578947369 
43.00030344582538 0.8845006578947368 
44.00030344582538 0.8826776913875599 
45.00030344582538 0.8773036483253589 
46.00030344582538 0.8737708732057416 
47.00030344582538 0.8735716507177033 
48.00030344582538 0.8646926435406698 
49.00030344582538 0.8606683014354067 
50.00030344582538 0.8617763157894737 
51.00030344582538 0.8534131578947368 
52.00030344582538 0.8501129784688995 
53.00030344582538 0.8510599880382775 
54.00030344582538 0.8451683014354067 
55.00030344582538 0.8437587320574162 
56.00030344582538 0.841834509569378 
57.00030344582538 0.8333973086124402 
58.00030344582538 0.8318389952153109 
59.00030344582538 0.823052571770335 
60.00030344582538 0.8242409688995216 
61.00030344582538 0.8154158492822967 
62.00030344582538 0.8165958133971292 
63.00030344582538 0.8144064593301436 
64.00030344582538 0.8028785287081339 
65.00030344582538 0.8000446172248805 
66.00030344582538 0.7918989832535887 
67.00030344582538 0.7861348086124403 
68.00030344582538 0.7813891148325358 
69.00030344582538 0.7791052033492823 
70.00030344582538 0.7729251196172248 
71.00030344582538 0.7641830741626793 
72.00030344582538 0.7516569377990432 
73.00030344582538 0.7446795454545455 
74.00030344582538 0.7357877990430624 
75.00030344582538 0.7274371411483255 
76.00030344582538 0.719474581339713 
77.00030344582538 0.7121718899521531 
78.00030344582538 0.709815490430622 
79.00030344582538 0.6996319377990431 
80.00030344582538 0.6897196770334927 
81.00030344582538 0.685797846889952 
82.00030344582538 0.6718601674641149 
83.00030344582538 0.6580317583732057 
84.00030344582538 0.6525512559808613 
85.00030344582538 0.6407781100478469 
86.00030344582538 0.6404210526315789 
87.00030344582538 0.6273517942583732 
88.00030344582538 0.6180127392344498 
89.00030344582538 0.6122446770334928 
90.00030344582538 0.5972322368421054 
91.00030344582538 0.5903532894736843 
92.00030344582538 0.5869891746411484 
93.00030344582538 0.5819896531100479 
94.00030344582538 0.5802894736842106 
95.00030344582538 0.5741059808612441 
96.00030344582538 0.5698212918660287 
97.00030344582538 0.5672665669856459 
98.00030344582538 0.5629372009569378 
99.00030344582538 0.5546257775119617 
100.00030344582538 0.5595542464114832 
101.00030344582538 0.5557016148325359 
102.00030344582538 0.5556718899521531 
103.00030344582538 0.5556563397129187 
104.00030344582538 0.5530879186602871 
105.00030344582538 0.5525898923444976 
106.00030344582538 0.549966985645933 
107.00030344582538 0.5474484449760766 
108.00030344582538 0.5463936004784689 
109.00030344582538 0.544839533492823 
110.00030344582538 0.5433682416267943 
111.00030344582538 0.5444106459330144 
112.00030344582538 0.5418305622009569 
113.00030344582538 0.5421080741626795 
114.00030344582538 0.5401446172248804 
115.00030344582538 0.5391789473684211 
116.00030344582538 0.5375791267942583 
117.00030344582538 0.5375991028708135 
118.00030344582538 0.5368177033492824 
119.00030344582538 0.5372392344497607 
120.00030344582538 0.5362978468899522 
121.00030344582538 0.5364724880382775 
122.00030344582538 0.5355358851674641 
123.00030344582538 0.5349232057416268 
124.00030344582538 0.5346617224880383 
125.00030344582538 0.5342863636363636 
126.00030344582538 0.5338291866028708 
127.00030344582538 0.5338846889952154 
128.00030344582538 0.533744019138756 
129.00030344582538 0.5336033492822967 
130.00030344582538 0.533533014354067 
131.00030344582538 0.5332868421052632 
132.00030344582538 0.5331813397129187 
133.00030344582538 0.533111004784689 
134.00030344582538 0.5329703349282296 
135.00030344582538 0.5329351674641148 
136.00030344582538 0.5329 
137.00030344582538 0.5329 
138.00030344582538 0.5329 
139.00030344582538 0.5329 
140.00030344582538 0.5329 
141.00030344582538 0.5329 
142.00030344582538 0.5329 
143.00030344582538 0.5329 
144.00030344582538 0.5329 
145.00030344582538 0.5329 
146.00030344582538 0.5329 
147.00030344582538 0.5329 
148.00030344582538 0.5329 
149.00030344582538 0.5329 
150.00030344582538 0.5329 
151.00030344582538 0.5329 
152.00030344582538 0.5329 
153.00030344582538 0.5329 
154.00030344582538 0.5329 
155.00030344582538 0.5329 
156.00030344582538 0.5329 
157.00030344582538 0.5329 
158.00030344582538 0.5329 
159.00030344582538 0.5329 
160.00030344582538 0.5329 
161.00030344582538 0.5329 
162.00030344582538 0.5329 
163.00030344582538 0.5329 
164.00030344582538 0.5329 
165.00030344582538 0.5329 
166.00030344582538 0.5329 
167.00030344582538 0.5329 
168.00030344582538 0.5329 
169.00030344582538 0.5329 
170.00030344582538 0.5329 
171.00030344582538 0.5329 
172.00030344582538 0.5329 
173.00030344582538 0.5329 
174.00030344582538 0.5329 
175.00030344582538 0.5329 
#####################################################################
# End of data export. Simulation finished at: 2017-05-25T10:51+0000 #
#####################################################################
