#####################################################################
# Alchemist log file - simulation started at: 2017-05-25T11:11+0000 #
#####################################################################
# random = 17.0, targets = 100.0, density = 10.026386447354522, gridShift = 0.0, perturbation = 0.5, connfactor = 0.75
#
# The columns have the following meaning: 
# time se[Mean] 
0.0 NaN 
1.0003034458253823 NaN 
2.0003034458253826 1.0007469926538108 
3.0003034458253826 1.0014136554943374 
4.0003034458253826 1.0012624151872258 
5.0003034458253826 1.000695487067646 
6.0003034458253826 0.9974648390470361 
7.0003034458253826 0.9949239082746658 
8.000303445825383 0.9923976941128456 
9.000303445825383 0.991677742704826 
10.000303445825383 0.9884088868482808 
11.000303445825383 0.9863845239006224 
12.000303445825383 0.9837296863840425 
13.000303445825383 0.9809930785123967 
14.000303445825383 0.9783140476737068 
15.000303445825383 0.9764285544842363 
16.00030344582538 0.9741956707223752 
17.00030344582538 0.9720074877563514 
18.00030344582538 0.9703900099479644 
19.00030344582538 0.967580685006632 
20.00030344582538 0.966048649372513 
21.00030344582538 0.9632379986736047 
22.00030344582538 0.9602475863432303 
23.00030344582538 0.9575477725487195 
24.00030344582538 0.9530472853535353 
25.00030344582538 0.9504677392612998 
26.00030344582538 0.9438510547393123 
27.00030344582538 0.9410655845066829 
28.00030344582538 0.934483852413019 
29.00030344582538 0.9274989478114477 
30.00030344582538 0.9271378736863585 
31.00030344582538 0.9218423011682483 
32.00030344582538 0.9168964538057341 
33.00030344582538 0.9141108738904193 
34.00030344582538 0.9083606570758086 
35.00030344582538 0.9049657413784307 
36.00030344582538 0.8983126269003164 
37.00030344582538 0.8940599639067442 
38.00030344582538 0.8917192097745125 
39.00030344582538 0.8841756765891235 
40.00030344582538 0.885194376849301 
41.00030344582538 0.8792819578359352 
42.00030344582538 0.8727518231558004 
43.00030344582538 0.8732124445209671 
44.00030344582538 0.8633780347668607 
45.00030344582538 0.8536807028619526 
46.00030344582538 0.8484257352566061 
47.00030344582538 0.8351955106621775 
48.00030344582538 0.8227291545505565 
49.00030344582538 0.8201780972604839 
50.00030344582538 0.8064712880063253 
51.00030344582538 0.7976405475206616 
52.00030344582538 0.7921506491684525 
53.00030344582538 0.7839532037547188 
54.00030344582538 0.772264256836037 
55.00030344582538 0.7661274582950718 
56.00030344582538 0.7593460163503729 
57.00030344582538 0.7541572836955417 
58.00030344582538 0.7438647848433835 
59.00030344582538 0.7420478044332216 
60.00030344582538 0.7301875835373945 
61.00030344582538 0.7226163809815321 
62.00030344582538 0.7209705731558 
63.00030344582538 0.7043269564330177 
64.00030344582538 0.7017277369656156 
65.00030344582538 0.6906291826089178 
66.00030344582538 0.683531195158657 
67.00030344582538 0.679767183195592 
68.00030344582538 0.6691094575808589 
69.00030344582538 0.6574794370472402 
70.00030344582538 0.6516090469084789 
71.00030344582538 0.6421175830272421 
72.00030344582538 0.6309470219875526 
73.00030344582538 0.623948627053362 
74.00030344582538 0.6158880873125191 
75.00030344582538 0.6162502397714519 
76.00030344582538 0.6074062200285686 
77.00030344582538 0.6061473089480666 
78.00030344582538 0.6055846278440976 
79.00030344582538 0.5968626874808693 
80.00030344582538 0.5954400099479645 
81.00030344582538 0.5914110524436283 
82.00030344582538 0.5867644679114378 
83.00030344582538 0.5829739950005102 
84.00030344582538 0.5778683973574126 
85.00030344582538 0.5730434611264157 
86.00030344582538 0.5657434879093969 
87.00030344582538 0.5628858337159475 
88.00030344582538 0.5635139354402612 
89.00030344582538 0.5488517549229671 
90.00030344582538 0.5563282860167331 
91.00030344582538 0.5516049676053465 
92.00030344582538 0.5334045907305378 
93.00030344582538 0.5352946115192327 
94.00030344582538 0.5264654741863076 
95.00030344582538 0.5264755968778697 
96.00030344582538 0.5206551276655443 
97.00030344582538 0.527363728828691 
98.00030344582538 0.5381629814559739 
99.00030344582538 0.5138182156157535 
100.00030344582538 0.534364416896235 
101.00030344582538 0.5415438475665748 
102.00030344582538 0.49465354300581565 
103.00030344582538 0.5277136574074074 
104.00030344582538 0.5168167852770126 
105.00030344582538 0.5108167183195592 
106.00030344582538 0.521605385292317 
107.00030344582538 0.5053665812162024 
108.00030344582538 0.5213628545556576 
109.00030344582538 0.4956907790021426 
110.00030344582538 0.5050468644781144 
111.00030344582538 0.49346788019079685 
112.00030344582538 0.47596867028874595 
113.00030344582538 0.5025423132843586 
114.00030344582538 0.4856647854810733 
115.00030344582538 0.46984965500969283 
116.00030344582538 0.44827544765840227 
117.00030344582538 0.43531658886848285 
118.00030344582538 0.4300604472757882 
119.00030344582538 0.43090718549127627 
120.00030344582538 0.4164005579787777 
121.00030344582538 0.40413164983164984 
122.00030344582538 0.44035777025303546 
123.00030344582538 0.42620975410672385 
124.00030344582538 0.44395213434853575 
125.00030344582538 0.4197182698194061 
126.00030344582538 0.4079235186460566 
127.00030344582538 0.40965179445974903 
128.00030344582538 0.382464761886542 
129.00030344582538 0.38680553706254456 
130.00030344582538 0.36590120395877984 
131.00030344582538 0.3515327358177738 
132.00030344582538 0.3523936798540967 
133.00030344582538 0.3535784601061116 
134.00030344582538 0.34281499846954405 
135.00030344582538 0.3399295263238446 
136.00030344582538 0.3413637320171412 
137.00030344582538 0.34115508685338236 
138.00030344582538 0.3328155870574432 
139.00030344582538 0.33220762613508836 
140.00030344582538 0.3288402038057342 
141.00030344582538 0.3250287375012754 
142.00030344582538 0.3260888914396491 
143.00030344582538 0.32187040097949193 
144.00030344582538 0.31995772370166314 
145.00030344582538 0.32284340309662285 
146.00030344582538 0.3207508812876238 
147.00030344582538 0.31888679280175497 
148.00030344582538 0.3182665289256199 
149.00030344582538 0.3169748801142741 
150.00030344582538 0.3164599887766555 
151.00030344582538 0.3149034613814917 
152.00030344582538 0.3147455922865014 
153.00030344582538 0.3140527828792981 
154.00030344582538 0.3131288363432303 
155.00030344582538 0.3171166335067851 
156.00030344582538 0.30885387460463226 
157.00030344582538 0.3099640266299358 
158.00030344582538 0.3095483471074381 
159.00030344582538 0.3101594199571473 
160.00030344582538 0.31271718702173257 
161.00030344582538 0.3105107029894909 
162.00030344582538 0.3131235766758495 
163.00030344582538 0.3130931894704623 
164.00030344582538 0.3159598000204062 
165.00030344582538 0.31091013161922254 
166.00030344582538 0.3127674752576268 
167.00030344582538 0.30987822161003975 
168.00030344582538 0.31309382460973384 
169.00030344582538 0.3154965462707888 
170.00030344582538 0.3144643913886339 
171.00030344582538 0.31762955565758605 
172.00030344582538 0.3174573895520865 
173.00030344582538 0.32007800989694946 
174.00030344582538 0.32193730741761056 
175.00030344582538 0.32199305683093565 
176.00030344582538 0.321983851137639 
177.00030344582538 0.3234414345474952 
178.00030344582538 0.32340633608815433 
179.00030344582538 0.32340592796653406 
180.00030344582538 0.32338490970309164 
181.00030344582538 0.3245706254463831 
182.00030344582538 0.3245671258034895 
183.00030344582538 0.32489306193245593 
184.00030344582538 0.32489306193245593 
185.00030344582538 0.3249000000000001 
186.00030344582538 0.3249000000000001 
187.00030344582538 0.3249000000000001 
188.00030344582538 0.3249000000000001 
189.00030344582538 0.3249000000000001 
190.00030344582538 0.3249000000000001 
191.00030344582538 0.3249000000000001 
192.00030344582538 0.3249000000000001 
193.00030344582538 0.3249000000000001 
194.00030344582538 0.3249000000000001 
195.00030344582538 0.3249000000000001 
196.00030344582538 0.3249000000000001 
197.00030344582538 0.3249000000000001 
198.00030344582538 0.3249000000000001 
199.00030344582538 0.3249000000000001 
200.00030344582538 0.3249000000000001 
201.00030344582538 0.3249000000000001 
202.00030344582538 0.3249000000000001 
203.00030344582538 0.3249000000000001 
204.00030344582538 0.3249000000000001 
205.00030344582538 0.3249000000000001 
206.00030344582538 0.3249000000000001 
207.00030344582538 0.3249000000000001 
208.00030344582538 0.3249000000000001 
209.00030344582538 0.3249000000000001 
210.00030344582538 0.3249000000000001 
211.00030344582538 0.3249000000000001 
212.00030344582538 0.3249000000000001 
213.00030344582538 0.3249000000000001 
214.00030344582538 0.3249000000000001 
215.00030344582538 0.3249000000000001 
216.00030344582538 0.3249000000000001 
217.00030344582538 0.3249000000000001 
218.00030344582538 0.3249000000000001 
219.00030344582538 0.3249000000000001 
220.00030344582538 0.3249000000000001 
221.00030344582538 0.3249000000000001 
222.00030344582538 0.3249000000000001 
223.00030344582538 0.3249000000000001 
224.00030344582538 0.3249000000000001 
225.00030344582538 0.3249000000000001 
226.00030344582538 0.3249000000000001 
227.00030344582538 0.3249000000000001 
228.00030344582538 0.3249000000000001 
229.00030344582538 0.3249000000000001 
230.00030344582538 0.3249000000000001 
231.00030344582538 0.3249000000000001 
232.00030344582538 0.3249000000000001 
233.00030344582538 0.3249000000000001 
234.00030344582538 0.3249000000000001 
235.00030344582538 0.3249000000000001 
236.00030344582538 0.3249000000000001 
237.00030344582538 0.3249000000000001 
238.00030344582538 0.3249000000000001 
239.00030344582538 0.3249000000000001 
240.00030344582538 0.3249000000000001 
241.00030344582538 0.3249000000000001 
242.00030344582538 0.3249000000000001 
243.00030344582538 0.3249000000000001 
244.00030344582538 0.3249000000000001 
245.00030344582538 0.3249000000000001 
246.00030344582538 0.3249000000000001 
247.00030344582538 0.3249000000000001 
248.00030344582538 0.3249000000000001 
249.00030344582538 0.3249000000000001 
250.00030344582538 0.3249000000000001 
251.00030344582538 0.3249000000000001 
252.00030344582538 0.3249000000000001 
253.00030344582538 0.3249000000000001 
254.00030344582538 0.3249000000000001 
255.00030344582538 0.3249000000000001 
256.00030344582535 0.3249000000000001 
257.00030344582535 0.3249000000000001 
258.00030344582535 0.3249000000000001 
259.00030344582535 0.3249000000000001 
#####################################################################
# End of data export. Simulation finished at: 2017-05-25T11:13+0000 #
#####################################################################
