#####################################################################
# Alchemist log file - simulation started at: 2017-05-23T15:10+0000 #
#####################################################################
# random = 12.0, targets = 3.1622776601683795, density = 5.0264212595847235, gridShift = 0.0, perturbation = 0.0, connfactor = 0.25
#
# The columns have the following meaning: 
# time se[Mean] 
0.0 NaN 
1.0005590746559656 NaN 
2.000559074655966 1.0 
3.000559074655966 1.0 
4.000559074655966 1.0 
5.000559074655966 1.0 
6.000559074655966 1.0 
7.000559074655966 1.0 
8.000559074655966 1.0 
9.000559074655966 1.0 
10.000559074655966 1.0 
11.000559074655966 1.0 
12.000559074655966 1.0 
13.000559074655966 1.0 
14.000559074655966 1.0 
15.000559074655966 1.0 
16.000559074655968 1.0 
17.000559074655968 1.0 
18.000559074655968 1.0 
19.000559074655968 1.0 
20.000559074655968 1.0 
21.000559074655968 1.0 
22.000559074655968 1.0 
23.000559074655968 1.0 
24.000559074655968 1.0 
25.000559074655968 1.0 
26.000559074655968 1.0 
27.000559074655968 1.0 
28.000559074655968 1.0 
29.000559074655968 1.0 
30.000559074655968 1.0 
31.000559074655968 1.0 
32.00055907465597 1.0 
33.00055907465597 1.0 
34.00055907465597 1.0 
35.00055907465597 1.0 
36.00055907465597 1.0 
37.00055907465597 1.0 
38.00055907465597 1.0 
39.00055907465597 1.0 
40.00055907465597 1.0 
41.00055907465597 1.0 
42.00055907465597 1.0 
43.00055907465597 1.0 
44.00055907465597 1.0 
45.00055907465597 1.0 
46.00055907465597 0.9990755980346637 
47.00055907465597 0.9911032025688598 
48.00055907465597 0.9744685390745765 
49.00055907465597 0.9582983625038458 
50.00055907465597 0.9423535715722381 
51.00055907465597 0.9271032250850746 
52.00055907465597 0.9062029177498705 
53.00055907465597 0.887606757505353 
54.00055907465597 0.87500320844933 
55.00055907465597 0.8558298684616987 
56.00055907465597 0.8438080710305582 
57.00055907465597 0.8234666559113921 
58.00055907465597 0.7993286557566263 
59.00055907465597 0.7890125704888787 
60.00055907465597 0.7771629003402976 
61.00055907465597 0.7471982401731632 
62.00055907465597 0.771546546889305 
63.00055907465597 0.7788032427264843 
64.00055907465597 0.7302591056172438 
65.00055907465597 0.7320820824819669 
66.00055907465597 0.7115061379601397 
67.00055907465597 0.6723461446144376 
68.00055907465597 0.6650636217113091 
69.00055907465597 0.6518783210304026 
70.00055907465597 0.6123985367530925 
71.00055907465597 0.6165926347103735 
72.00055907465597 0.5845126380375224 
73.00055907465597 0.5833948536054469 
74.00055907465597 0.5679008339520845 
75.00055907465597 0.5463639124107686 
76.00055907465597 0.5367955299440292 
77.00055907465597 0.5206116377279913 
78.00055907465597 0.48863061822939446 
79.00055907465597 0.4960761246515438 
80.00055907465597 0.4922612520888687 
81.00055907465597 0.4735873698542775 
82.00055907465597 0.47949929139559333 
83.00055907465597 0.4675444679663241 
84.00055907465597 0.47439450711828335 
85.00055907465597 0.47439450711828335 
86.00055907465597 0.4675444679663241 
87.00055907465597 0.47439450711828335 
88.00055907465597 0.47439450711828335 
89.00055907465597 0.4675444679663241 
90.00055907465597 0.4726492522436342 
91.00055907465597 0.4726492522436342 
92.00055907465597 0.4675444679663241 
93.00055907465597 0.4675444679663241 
94.00055907465597 0.4675444679663241 
95.00055907465597 0.4675444679663241 
96.00055907465597 0.4675444679663241 
97.00055907465597 0.4675444679663241 
98.00055907465597 0.4675444679663241 
99.00055907465597 0.4675444679663241 
100.00055907465597 0.4675444679663241 
101.00055907465597 0.4675444679663241 
102.00055907465597 0.4675444679663241 
103.00055907465597 0.4675444679663241 
104.00055907465597 0.4675444679663241 
105.00055907465597 0.4675444679663241 
106.00055907465597 0.4675444679663241 
107.00055907465597 0.4675444679663241 
108.00055907465597 0.4675444679663241 
109.00055907465597 0.4675444679663241 
110.00055907465597 0.4675444679663241 
111.00055907465597 0.4675444679663241 
112.00055907465597 0.4675444679663241 
113.00055907465597 0.4675444679663241 
114.00055907465597 0.4675444679663241 
115.00055907465597 0.4675444679663241 
116.00055907465597 0.4675444679663241 
117.00055907465597 0.4675444679663241 
118.00055907465597 0.4675444679663241 
119.00055907465597 0.4675444679663241 
120.00055907465597 0.4675444679663241 
121.00055907465597 0.4675444679663241 
122.00055907465597 0.4675444679663241 
123.00055907465597 0.4675444679663241 
124.00055907465597 0.4675444679663241 
125.00055907465597 0.4675444679663241 
126.00055907465597 0.4675444679663241 
127.00055907465597 0.4675444679663241 
128.00055907465597 0.4675444679663241 
129.00055907465597 0.4675444679663241 
130.00055907465597 0.4675444679663241 
131.00055907465597 0.4675444679663241 
132.00055907465597 0.4675444679663241 
133.00055907465597 0.4675444679663241 
134.00055907465597 0.4675444679663241 
135.00055907465597 0.4675444679663241 
136.00055907465597 0.4675444679663241 
137.00055907465597 0.4675444679663241 
138.00055907465597 0.4675444679663241 
139.00055907465597 0.4675444679663241 
140.00055907465597 0.4675444679663241 
141.00055907465597 0.4675444679663241 
142.00055907465597 0.4675444679663241 
143.00055907465597 0.4675444679663241 
144.00055907465597 0.4675444679663241 
#####################################################################
# End of data export. Simulation finished at: 2017-05-23T15:10+0000 #
#####################################################################
