#####################################################################
# Alchemist log file - simulation started at: 2017-05-23T05:22+0000 #
#####################################################################
# random = 5.0, targets = 1.0, density = 0.4483936332993466, gridShift = 0.0, perturbation = 0.5, connfactor = 0.25
#
# The columns have the following meaning: 
# time se[Mean] 
0.0 NaN 
1.0183713707442061 NaN 
2.018371370744206 1.0 
3.018371370744206 1.0 
4.018371370744206 1.0 
5.018371370744206 1.0 
6.018371370744206 1.0 
7.018371370744206 1.0 
8.018371370744205 1.0 
9.018371370744205 1.0 
10.018371370744205 1.0 
11.018371370744205 1.0 
12.018371370744205 1.0 
13.018371370744205 1.0 
14.018371370744205 1.0 
#####################################################################
# End of data export. Simulation finished at: 2017-05-23T05:22+0000 #
#####################################################################
