#####################################################################
# Alchemist log file - simulation started at: 2017-05-24T23:49+0000 #
#####################################################################
# random = 16.0, targets = 10.0, density = 0.04, gridShift = 1.0, perturbation = 0.5, connfactor = 0.75
#
# The columns have the following meaning: 
# time se[Mean] 
0.0 NaN 
1.0623398408578844 NaN 
2.0623398408578844 1.0114583333333333 
3.0623398408578844 1.0404166666666668 
4.062339840857884 0.8284259259259259 
5.062339840857884 0.6750694444444445 
6.062339840857884 0.5509722222222223 
7.062339840857884 0.6055324074074075 
8.062339840857884 0.6280555555555556 
9.062339840857884 0.6536111111111111 
10.062339840857884 0.64 
11.062339840857884 0.64 
12.062339840857884 0.64 
#####################################################################
# End of data export. Simulation finished at: 2017-05-24T23:49+0000 #
#####################################################################
