#####################################################################
# Alchemist log file - simulation started at: 2017-05-20T01:26+0000 #
#####################################################################
# random = 0.0, targets = 31.622776601683793, density = 0.1591589639397027, gridShift = 1.0, perturbation = 0.5, connfactor = 1.0
#
# The columns have the following meaning: 
# time se[Mean] 
0.0 NaN 
1.0011337332612453 NaN 
2.0011337332612453 1.120425625552504 
3.0011337332612453 1.1814445309605517 
4.001133733261245 1.2515586026824377 
5.001133733261245 1.2529493434231784 
6.001133733261245 1.15540829730739 
7.001133733261245 1.064260325030457 
8.001133733261245 1.0578537511523987 
9.001133733261245 1.047425590946061 
10.001133733261245 1.0565514610420095 
11.001133733261245 1.0857593798411531 
12.001133733261245 1.061210522665863 
13.001133733261245 1.1371684459259759 
14.001133733261245 1.1784500865161072 
15.001133733261245 1.1537139516806487 
16.001133733261245 1.1376702547901023 
17.001133733261245 1.0600430353120993 
18.001133733261245 1.1312202547901022 
19.001133733261245 1.1192864960404838 
20.001133733261245 1.1422135820943409 
21.001133733261245 1.1345133543134618 
22.001133733261245 1.2239972593294781 
23.001133733261245 1.1717002540060397 
24.001133733261245 1.2572574553967586 
25.001133733261245 1.298736423447941 
26.001133733261245 1.2881714238399724 
27.001133733261245 1.3727820754690117 
28.001133733261245 1.1182746072300012 
29.001133733261245 1.0664259605323687 
30.001133733261245 1.0646089544248678 
31.001133733261245 1.0642455532033677 
32.00113373326124 1.0642455532033677 
33.00113373326124 1.0642455532033677 
34.00113373326124 1.0642455532033677 
35.00113373326124 1.0642455532033677 
36.00113373326124 1.0642455532033677 
37.00113373326124 1.0642455532033677 
38.00113373326124 1.0642455532033677 
#####################################################################
# End of data export. Simulation finished at: 2017-05-20T01:26+0000 #
#####################################################################
