0.000000000000000000e+00 nan
2.220446049250313081e-16 7.317931329502168347e-03
4.440892098500626162e-16 1.917203094214472159e-01
1.332267629550187849e-15 1.917134612823186701e-01
8.881784197001252323e-16 1.916768204051878810e-01
0.000000000000000000e+00 1.915861156616564809e-01
2.664535259100375697e-15 1.914643685714328414e-01
8.881784197001252323e-16 1.913059644363524769e-01
1.776356839400250465e-15 1.911995810516454175e-01
1.776356839400250465e-15 1.910499867062082080e-01
0.000000000000000000e+00 1.909042585433550487e-01
5.329070518200751394e-15 1.907451063318088558e-01
5.329070518200751394e-15 1.905588189223849926e-01
1.776356839400250465e-15 1.903604520361028840e-01
1.776356839400250465e-15 1.901405103201064539e-01
7.105427357601001859e-15 1.898903154471306143e-01
3.552713678800500929e-15 1.896697922378113299e-01
7.105427357601001859e-15 1.893778929285006851e-01
3.552713678800500929e-15 1.891206121750292346e-01
7.105427357601001859e-15 1.888079386139905613e-01
0.000000000000000000e+00 1.885363180003711003e-01
3.552713678800500929e-15 1.882374309155573633e-01
1.065814103640150279e-14 1.879408023791339921e-01
1.065814103640150279e-14 1.876186003847485628e-01
1.065814103640150279e-14 1.873017093234297381e-01
3.552713678800500929e-15 1.869965211079444578e-01
3.552713678800500929e-15 1.866293408873531401e-01
3.552713678800500929e-15 1.863276911163607996e-01
3.552713678800500929e-15 1.859514076228987733e-01
3.552713678800500929e-15 1.856432314652276816e-01
1.421085471520200372e-14 1.852773098510138439e-01
1.065814103640150279e-14 1.849537963049288358e-01
7.105427357601001859e-15 1.845806680371722963e-01
0.000000000000000000e+00 1.842305143400424228e-01
1.421085471520200372e-14 1.838570420647063219e-01
7.105427357601001859e-15 1.834817041654498992e-01
7.105427357601001859e-15 1.831402335181943342e-01
2.131628207280300558e-14 1.827135916753297451e-01
1.421085471520200372e-14 1.823770959931772240e-01
1.421085471520200372e-14 1.819856439356740407e-01
0.000000000000000000e+00 1.816060431463455971e-01
2.131628207280300558e-14 1.812340436443140579e-01
7.105427357601001859e-15 1.808129961414860765e-01
7.105427357601001859e-15 1.805110740183985263e-01
2.131628207280300558e-14 1.800582228543972929e-01
1.421085471520200372e-14 1.797228893810515205e-01
2.131628207280300558e-14 1.793662946720093743e-01
0.000000000000000000e+00 1.789711347628667182e-01
2.131628207280300558e-14 1.785954436380075561e-01
7.105427357601001859e-15 1.782730014612513569e-01
7.105427357601001859e-15 1.777895401880452142e-01
7.105427357601001859e-15 1.773947121474356847e-01
7.105427357601001859e-15 1.770429681395107868e-01
2.842170943040400743e-14 1.766411196940884942e-01
7.105427357601001859e-15 1.762677013584808827e-01
2.842170943040400743e-14 1.758956161964917719e-01
7.105427357601001859e-15 1.755143285047870705e-01
0.000000000000000000e+00 1.750890185870555005e-01
7.105427357601001859e-15 1.746451129394211987e-01
7.105427357601001859e-15 1.743148700313359445e-01
2.842170943040400743e-14 1.737655130276563875e-01
2.842170943040400743e-14 1.734270151583532371e-01
2.131628207280300558e-14 1.729579575957287396e-01
1.421085471520200372e-14 1.725518305901751204e-01
1.421085471520200372e-14 1.720136236951579911e-01
1.421085471520200372e-14 1.716014227912285306e-01
0.000000000000000000e+00 1.710990913009670100e-01
4.263256414560601115e-14 1.705297469097954988e-01
2.842170943040400743e-14 1.700425162151759928e-01
2.842170943040400743e-14 1.694630992781876178e-01
1.421085471520200372e-14 1.689998913733235242e-01
1.421085471520200372e-14 1.684482299906679414e-01
1.421085471520200372e-14 1.679375989534545588e-01
0.000000000000000000e+00 1.673725113040508139e-01
4.263256414560601115e-14 1.669971967176678285e-01
4.263256414560601115e-14 1.664169136441105701e-01
2.842170943040400743e-14 1.659848191833918907e-01
1.421085471520200372e-14 1.656269475113755218e-01
2.842170943040400743e-14 1.650089494696199699e-01
1.421085471520200372e-14 1.647188738225205673e-01
0.000000000000000000e+00 1.643617203675543093e-01
4.263256414560601115e-14 1.639941649111414101e-01
4.263256414560601115e-14 1.637533217196675273e-01
2.842170943040400743e-14 1.634404332696277884e-01
1.421085471520200372e-14 1.631923632640524813e-01
2.842170943040400743e-14 1.629596822948166379e-01
1.421085471520200372e-14 1.627408911162090410e-01
0.000000000000000000e+00 1.625589547880595120e-01
4.263256414560601115e-14 1.622829302896494907e-01
4.263256414560601115e-14 1.620381153554175946e-01
2.842170943040400743e-14 1.617908747585696805e-01
1.421085471520200372e-14 1.614554524751274645e-01
4.263256414560601115e-14 1.613549054362535262e-01
1.421085471520200372e-14 1.611555434375221141e-01
0.000000000000000000e+00 1.610001971756134242e-01
4.263256414560601115e-14 1.607775322312706701e-01
4.263256414560601115e-14 1.607258346202826149e-01
1.421085471520200372e-14 1.607814880392057777e-01
1.421085471520200372e-14 1.608021563140187571e-01
4.263256414560601115e-14 1.609109083547541619e-01
1.421085471520200372e-14 1.608885666396693004e-01
1.421085471520200372e-14 1.610740897969966945e-01
1.421085471520200372e-14 1.610790388264390360e-01
5.684341886080801487e-14 1.611570941956134984e-01
1.421085471520200372e-14 1.612246617053958164e-01
1.421085471520200372e-14 1.611455752809010378e-01
5.684341886080801487e-14 1.613358644714977530e-01
1.421085471520200372e-14 1.609800090563184294e-01
1.421085471520200372e-14 1.610873402334218052e-01
1.421085471520200372e-14 1.610009072447002587e-01
5.684341886080801487e-14 1.608247439273889079e-01
1.421085471520200372e-14 1.606248279350890040e-01
1.421085471520200372e-14 1.603994584907965926e-01
5.684341886080801487e-14 1.600169090719002207e-01
0.000000000000000000e+00 1.597166038364998264e-01
1.421085471520200372e-14 1.594278322629042455e-01
1.421085471520200372e-14 1.588251017273798749e-01
5.684341886080801487e-14 1.585501067868662350e-01
1.421085471520200372e-14 1.578704471104026841e-01
2.842170943040400743e-14 1.568288904891298463e-01
5.684341886080801487e-14 1.561352395819938788e-01
0.000000000000000000e+00 1.554987590093204475e-01
5.684341886080801487e-14 1.540363669053059492e-01
1.421085471520200372e-14 1.528989512143401897e-01
4.263256414560601115e-14 1.523003383282580114e-01
1.421085471520200372e-14 1.510543815310997351e-01
2.842170943040400743e-14 1.505760568443689495e-01
5.684341886080801487e-14 1.496462881913378784e-01
2.842170943040400743e-14 1.486640765465481739e-01
5.684341886080801487e-14 1.475720125293720209e-01
2.842170943040400743e-14 1.469744535607012681e-01
5.684341886080801487e-14 1.454116551381477440e-01
0.000000000000000000e+00 1.446269672366771453e-01
0.000000000000000000e+00 1.435852290332351733e-01
8.526512829121202230e-14 1.422677599259821457e-01
2.842170943040400743e-14 1.415966108252039724e-01
5.684341886080801487e-14 1.405314342826450846e-01
2.842170943040400743e-14 1.391996923570070488e-01
5.684341886080801487e-14 1.386089475398009641e-01
0.000000000000000000e+00 1.371156326830654804e-01
2.842170943040400743e-14 1.360774269798487868e-01
8.526512829121202230e-14 1.356141147726813989e-01
2.842170943040400743e-14 1.338971181737938498e-01
5.684341886080801487e-14 1.330635365624071587e-01
2.842170943040400743e-14 1.321088672650311269e-01
5.684341886080801487e-14 1.307398289708597283e-01
0.000000000000000000e+00 1.302198553394199321e-01
2.842170943040400743e-14 1.289987495052567490e-01
8.526512829121202230e-14 1.282363246437186743e-01
5.684341886080801487e-14 1.274747556708782648e-01
8.526512829121202230e-14 1.270208565425309521e-01
2.842170943040400743e-14 1.256826508337503256e-01
5.684341886080801487e-14 1.256100307604202104e-01
0.000000000000000000e+00 1.246417002316619893e-01
2.842170943040400743e-14 1.239428621649801970e-01
8.526512829121202230e-14 1.233011201082147013e-01
5.684341886080801487e-14 1.218702001361195442e-01
8.526512829121202230e-14 1.215214534372190819e-01
2.842170943040400743e-14 1.207145236739105565e-01
5.684341886080801487e-14 1.193297363945746425e-01
0.000000000000000000e+00 1.192252104638064358e-01
2.842170943040400743e-14 1.178622333478166057e-01
8.526512829121202230e-14 1.178515269707631347e-01
5.684341886080801487e-14 1.158121741193030713e-01
8.526512829121202230e-14 1.149969595836376479e-01
2.842170943040400743e-14 1.141584871978077592e-01
5.684341886080801487e-14 1.124483705453185461e-01
0.000000000000000000e+00 1.113166949296881675e-01
2.842170943040400743e-14 1.103254358184183187e-01
8.526512829121202230e-14 1.097040054950447624e-01
5.684341886080801487e-14 1.085820338264821550e-01
8.526512829121202230e-14 1.077126270235997108e-01
2.842170943040400743e-14 1.074455913978356741e-01
5.684341886080801487e-14 1.068766302458170753e-01
0.000000000000000000e+00 1.067424251108185368e-01
2.842170943040400743e-14 1.059301461211985540e-01
8.526512829121202230e-14 1.055089514853701643e-01
8.526512829121202230e-14 1.055465601296918104e-01
8.526512829121202230e-14 1.057299822953312318e-01
2.842170943040400743e-14 1.051313361468520224e-01
5.684341886080801487e-14 1.042560468120598965e-01
0.000000000000000000e+00 1.032896243165887656e-01
2.842170943040400743e-14 1.012893391502469459e-01
8.526512829121202230e-14 1.006109974048549072e-01
8.526512829121202230e-14 1.008044211764824866e-01
8.526512829121202230e-14 1.003972404373788818e-01
2.842170943040400743e-14 1.027175481329322820e-01
2.842170943040400743e-14 1.050637093508519776e-01
0.000000000000000000e+00 1.053347380032731567e-01
2.842170943040400743e-14 1.014552647961858151e-01
8.526512829121202230e-14 1.068254612895743888e-01
8.526512829121202230e-14 1.073905459503183002e-01
8.526512829121202230e-14 1.148390830433973359e-01
5.684341886080801487e-14 1.149947274630569310e-01
2.842170943040400743e-14 1.030756260166657973e-01
0.000000000000000000e+00 1.091299960946245234e-01
2.842170943040400743e-14 1.099638007628649938e-01
2.842170943040400743e-14 1.102384121147284568e-01
8.526512829121202230e-14 1.038761973195471422e-01
8.526512829121202230e-14 9.759193920956561741e-02
2.842170943040400743e-14 9.703560228701038626e-02
2.842170943040400743e-14 9.542393024402522073e-02
2.842170943040400743e-14 9.959808875871530021e-02
2.842170943040400743e-14 9.660925631735511887e-02
2.842170943040400743e-14 9.324940871346029669e-02
1.136868377216160297e-13 9.998532076632675458e-02
1.136868377216160297e-13 9.056712546185251289e-02
2.842170943040400743e-14 9.201715130625846839e-02
2.842170943040400743e-14 9.452600623184470585e-02
2.842170943040400743e-14 8.918320547603805770e-02
2.842170943040400743e-14 9.336213306571344850e-02
2.842170943040400743e-14 8.743859667033068717e-02
1.136868377216160297e-13 8.717787083648889657e-02
1.136868377216160297e-13 9.042094261695890478e-02
2.842170943040400743e-14 8.460619889416814976e-02
2.842170943040400743e-14 8.839237289732117253e-02
2.842170943040400743e-14 8.642981838100627368e-02
2.842170943040400743e-14 8.536133159389805436e-02
2.842170943040400743e-14 8.656988512845860406e-02
1.136868377216160297e-13 8.554969730675543449e-02
1.136868377216160297e-13 8.640124785830589904e-02
2.842170943040400743e-14 8.580860258200083412e-02
2.842170943040400743e-14 8.456095842667150919e-02
2.842170943040400743e-14 8.466898143225902451e-02
2.842170943040400743e-14 8.612031563321879968e-02
2.842170943040400743e-14 8.482283990861640144e-02
1.136868377216160297e-13 8.466964599650737833e-02
1.136868377216160297e-13 8.396069426231379806e-02
0.000000000000000000e+00 8.600933849863734437e-02
2.842170943040400743e-14 8.384263999451917193e-02
2.842170943040400743e-14 8.246258456899657752e-02
5.684341886080801487e-14 8.402433716933632724e-02
2.842170943040400743e-14 8.451925429061216133e-02
1.136868377216160297e-13 8.343191724255805131e-02
1.136868377216160297e-13 8.277697979604400902e-02
0.000000000000000000e+00 8.218777683316874638e-02
2.842170943040400743e-14 8.213029168150842718e-02
2.842170943040400743e-14 8.193912195141996035e-02
5.684341886080801487e-14 8.125523375707344176e-02
2.842170943040400743e-14 8.167866525219812102e-02
1.136868377216160297e-13 8.148170769489079812e-02
8.526512829121202230e-14 8.065542253147020557e-02
0.000000000000000000e+00 8.083329008725848031e-02
2.842170943040400743e-14 8.082253926175493597e-02
1.136868377216160297e-13 8.060855542872116808e-02
5.684341886080801487e-14 8.096233916606429548e-02
2.842170943040400743e-14 8.055410629464831995e-02
1.136868377216160297e-13 8.054215646803226936e-02
8.526512829121202230e-14 8.086707462625460086e-02
0.000000000000000000e+00 8.060164513956594168e-02
2.842170943040400743e-14 8.078538618651154302e-02
8.526512829121202230e-14 8.068999013192068581e-02
5.684341886080801487e-14 8.069060866441281343e-02
2.842170943040400743e-14 8.071645306114318130e-02
1.136868377216160297e-13 8.068551328178501236e-02
8.526512829121202230e-14 8.065840764223664028e-02
5.684341886080801487e-14 8.084984117494353750e-02
0.000000000000000000e+00 8.064790903400261002e-02
1.136868377216160297e-13 8.064661172033486813e-02
0.000000000000000000e+00 8.063509720863980268e-02
5.684341886080801487e-14 8.086981349653203643e-02
1.705302565824240446e-13 8.087229404739569583e-02
1.136868377216160297e-13 8.085859055454534816e-02
5.684341886080801487e-14 8.085561016076155127e-02
0.000000000000000000e+00 8.083661667094155234e-02
1.136868377216160297e-13 8.083431991424118446e-02
0.000000000000000000e+00 8.081581431998076381e-02
5.684341886080801487e-14 8.080903049922685821e-02
1.705302565824240446e-13 8.080856962668266086e-02
1.136868377216160297e-13 8.081496527932197083e-02
5.684341886080801487e-14 8.081187571475206832e-02
0.000000000000000000e+00 8.080941821931883484e-02
1.136868377216160297e-13 8.080955140976980866e-02
5.684341886080801487e-14 8.080912648252404351e-02
5.684341886080801487e-14 8.080903335925711251e-02
1.705302565824240446e-13 8.080858415921718385e-02
1.136868377216160297e-13 8.080858415921718385e-02
5.684341886080801487e-14 8.080858415921718385e-02
0.000000000000000000e+00 8.080858415921718385e-02
1.136868377216160297e-13 8.080858415921718385e-02
5.684341886080801487e-14 8.080858415921718385e-02
5.684341886080801487e-14 8.080858415921718385e-02
1.705302565824240446e-13 8.080858415921718385e-02
1.136868377216160297e-13 8.080858415921718385e-02
5.684341886080801487e-14 8.080858415921718385e-02
0.000000000000000000e+00 8.080858415921718385e-02
1.136868377216160297e-13 8.080858415921718385e-02
5.684341886080801487e-14 8.080858415921718385e-02
5.684341886080801487e-14 8.080858415921718385e-02
1.705302565824240446e-13 8.080858415921718385e-02
1.136868377216160297e-13 8.080858415921718385e-02
5.684341886080801487e-14 8.080858415921718385e-02
0.000000000000000000e+00 8.080858415921718385e-02
1.136868377216160297e-13 8.080858415921718385e-02
5.684341886080801487e-14 8.080858415921718385e-02
5.684341886080801487e-14 8.080858415921718385e-02
1.705302565824240446e-13 8.080858415921718385e-02
1.136868377216160297e-13 8.080858415921718385e-02
1.136868377216160297e-13 8.080858415921718385e-02
0.000000000000000000e+00 8.080858415921718385e-02
1.705302565824240446e-13 8.080858415921718385e-02
5.684341886080801487e-14 8.080858415921718385e-02
5.684341886080801487e-14 8.080858415921718385e-02
1.705302565824240446e-13 8.080858415921718385e-02
1.136868377216160297e-13 8.080858415921718385e-02
1.136868377216160297e-13 8.080858415921718385e-02
0.000000000000000000e+00 8.080858415921718385e-02
1.705302565824240446e-13 8.080858415921718385e-02
5.684341886080801487e-14 8.080858415921718385e-02
5.684341886080801487e-14 8.080858415921718385e-02
1.705302565824240446e-13 8.080858415921718385e-02
1.136868377216160297e-13 8.080858415921718385e-02
1.136868377216160297e-13 8.080858415921718385e-02
0.000000000000000000e+00 8.080858415921718385e-02
1.705302565824240446e-13 8.080858415921718385e-02
5.684341886080801487e-14 8.080858415921718385e-02
5.684341886080801487e-14 8.080858415921718385e-02
1.705302565824240446e-13 8.080858415921718385e-02
1.136868377216160297e-13 8.080858415921718385e-02
1.136868377216160297e-13 8.080858415921718385e-02
0.000000000000000000e+00 8.080858415921718385e-02
1.705302565824240446e-13 8.080858415921718385e-02
5.684341886080801487e-14 8.080858415921718385e-02
5.684341886080801487e-14 8.080858415921718385e-02
1.705302565824240446e-13 8.080858415921718385e-02
1.136868377216160297e-13 8.080858415921718385e-02
1.136868377216160297e-13 8.080858415921718385e-02
0.000000000000000000e+00 8.080858415921718385e-02
1.705302565824240446e-13 8.080858415921718385e-02
5.684341886080801487e-14 8.080858415921718385e-02
5.684341886080801487e-14 8.080858415921718385e-02
1.705302565824240446e-13 8.080858415921718385e-02
1.136868377216160297e-13 8.080858415921718385e-02
1.136868377216160297e-13 8.080858415921718385e-02
0.000000000000000000e+00 8.080858415921718385e-02
1.705302565824240446e-13 8.080858415921718385e-02
5.684341886080801487e-14 8.080858415921718385e-02
5.684341886080801487e-14 8.080858415921718385e-02
1.705302565824240446e-13 8.080858415921718385e-02
1.136868377216160297e-13 8.080858415921718385e-02
1.136868377216160297e-13 8.080858415921718385e-02
0.000000000000000000e+00 8.080858415921718385e-02
1.705302565824240446e-13 8.080858415921718385e-02
5.684341886080801487e-14 8.080858415921718385e-02
5.684341886080801487e-14 8.080858415921718385e-02
1.705302565824240446e-13 8.080858415921718385e-02
1.136868377216160297e-13 8.080858415921718385e-02
1.705302565824240446e-13 8.080858415921718385e-02
0.000000000000000000e+00 8.080858415921718385e-02
1.705302565824240446e-13 8.080858415921718385e-02
5.684341886080801487e-14 8.080858415921718385e-02
5.684341886080801487e-14 8.080858415921718385e-02
1.705302565824240446e-13 8.080858415921718385e-02
1.136868377216160297e-13 8.080858415921718385e-02
1.705302565824240446e-13 8.080858415921718385e-02
0.000000000000000000e+00 8.080858415921718385e-02
1.705302565824240446e-13 8.080858415921718385e-02
5.684341886080801487e-14 8.080858415921718385e-02
5.684341886080801487e-14 8.080858415921718385e-02
1.705302565824240446e-13 8.080858415921718385e-02
1.136868377216160297e-13 8.080858415921718385e-02
1.705302565824240446e-13 8.080858415921718385e-02
0.000000000000000000e+00 8.080858415921718385e-02
1.705302565824240446e-13 8.080858415921718385e-02
5.684341886080801487e-14 8.080858415921718385e-02
5.684341886080801487e-14 8.080858415921718385e-02
1.705302565824240446e-13 8.080858415921718385e-02
1.136868377216160297e-13 8.080858415921718385e-02
1.705302565824240446e-13 8.080858415921718385e-02
0.000000000000000000e+00 8.080858415921718385e-02
1.705302565824240446e-13 8.080858415921718385e-02
5.684341886080801487e-14 8.080858415921718385e-02
5.684341886080801487e-14 8.080858415921718385e-02
1.705302565824240446e-13 8.080858415921718385e-02
5.684341886080801487e-14 8.080858415921718385e-02
1.705302565824240446e-13 8.080858415921718385e-02
0.000000000000000000e+00 8.080858415921718385e-02
1.705302565824240446e-13 8.080858415921718385e-02
5.684341886080801487e-14 8.080858415921718385e-02
1.136868377216160297e-13 8.080858415921718385e-02
1.705302565824240446e-13 8.080858415921718385e-02
1.136868377216160297e-13 8.080858415921718385e-02
