#####################################################################
# Alchemist log file - simulation started at: 2017-05-24T15:56+0000 #
#####################################################################
# random = 15.0, targets = 10.0, density = 0.3174802103936399, gridShift = 0.0, perturbation = 0.5, connfactor = 1.0
#
# The columns have the following meaning: 
# time se[Mean] 
0.0 NaN 
1.0090872484315245 NaN 
2.0090872484315243 NaN 
3.0090872484315243 1.2786848072562358 
4.009087248431524 NaN 
5.009087248431524 1.4697859977324264 
6.009087248431524 1.255500283446712 
7.009087248431524 1.2586918934240363 
8.009087248431523 1.2366198979591836 
9.009087248431523 1.2203472222222222 
10.009087248431523 1.216784297052154 
11.009087248431523 1.144454365079365 
12.009087248431523 1.1899475623582767 
13.009087248431523 1.0129790249433106 
14.009087248431523 1.0131320861678004 
15.009087248431523 0.8673937074829932 
16.009087248431523 0.7177678571428571 
17.009087248431523 0.6571286848072562 
18.009087248431523 0.5557879818594104 
19.009087248431523 0.5082993197278911 
20.009087248431523 0.49790816326530607 
21.009087248431523 0.4779818594104308 
22.009087248431523 0.48397392290249425 
23.009087248431523 0.4831122448979591 
24.009087248431523 0.487828798185941 
25.009087248431523 0.4924092970521541 
26.009087248431523 0.49154761904761896 
27.009087248431523 0.4928911564625849 
28.009087248431523 0.4899999999999999 
29.009087248431523 0.4914455782312924 
30.009087248431523 0.4899999999999999 
31.009087248431523 0.4899999999999999 
32.00908724843153 0.4899999999999999 
33.00908724843153 0.4899999999999999 
34.00908724843153 0.4899999999999999 
35.00908724843153 0.4899999999999999 
36.00908724843153 0.4899999999999999 
37.00908724843153 0.4899999999999999 
38.00908724843153 0.4899999999999999 
39.00908724843153 0.4899999999999999 
40.00908724843153 0.4899999999999999 
#####################################################################
# End of data export. Simulation finished at: 2017-05-24T15:56+0000 #
#####################################################################
