#####################################################################
# Alchemist log file - simulation started at: 2017-05-25T01:20+0000 #
#####################################################################
# random = 16.0, targets = 31.622776601683793, density = 0.07978946395100113, gridShift = 0.0, perturbation = 0.0, connfactor = 0.5
#
# The columns have the following meaning: 
# time se[Mean] 
0.0 NaN 
1.0086259768480754 NaN 
2.0086259768480756 1.0281074295264734 
3.0086259768480756 1.049633725038707 
4.008625976848076 1.0555986322500988 
5.008625976848076 1.036143401491425 
6.008625976848076 0.987049676489471 
7.008625976848076 0.9970932988316287 
8.008625976848077 0.9953140165467311 
9.008625976848077 0.9655392839020268 
10.008625976848077 0.899218580431712 
11.008625976848077 0.8202280048765098 
12.008625976848077 0.742139709609916 
13.008625976848077 0.6727408700188133 
14.008625976848077 0.6134925162447982 
15.008625976848077 0.5728876454830166 
16.008625976848077 0.5455715935776326 
17.008625976848077 0.5544048685505565 
18.008625976848077 0.5521550769941486 
19.008625976848077 0.5580355743730593 
20.008625976848077 0.5580355743730593 
21.008625976848077 0.5580355743730593 
22.008625976848077 0.5580355743730593 
23.008625976848077 0.5580355743730593 
24.008625976848077 0.5580355743730593 
25.008625976848077 0.5580355743730593 
#####################################################################
# End of data export. Simulation finished at: 2017-05-25T01:20+0000 #
#####################################################################
