#####################################################################
# Alchemist log file - simulation started at: 2017-05-26T02:18+0000 #
#####################################################################
# random = 19.0, targets = 100.0, density = 0.2247883923996312, gridShift = 0.0, perturbation = 0.0, connfactor = 0.5
#
# The columns have the following meaning: 
# time se[Mean] 
0.0 NaN 
1.0189000266060093 NaN 
2.0189000266060093 1.0256715277777777 
3.0189000266060093 1.041529436728395 
4.018900026606009 1.0543751157407406 
5.018900026606009 1.0827837577160493 
6.018900026606009 1.0805753086419754 
7.018900026606009 1.100531462191358 
8.018900026606008 1.0557163773148148 
9.018900026606008 1.0511073302469136 
10.018900026606008 1.0353489197530863 
11.018900026606008 0.9999351658950617 
12.018900026606008 0.9733331018518518 
13.018900026606008 0.9335707947530865 
14.018900026606008 0.9350616126543211 
15.018900026606008 0.8930517746913581 
16.01890002660601 0.8510467206790123 
17.01890002660601 0.8217418402777777 
18.01890002660601 0.7932045717592593 
19.01890002660601 0.8093678819444444 
20.01890002660601 0.7881904899691358 
21.01890002660601 0.7692433256172839 
22.01890002660601 0.7361774112654321 
23.01890002660601 0.7619029320987655 
24.01890002660601 0.737193113425926 
25.01890002660601 0.7228951581790124 
26.01890002660601 0.7183101080246914 
27.01890002660601 0.7225 
28.01890002660601 0.7225 
29.01890002660601 0.7225 
30.01890002660601 0.7225 
31.01890002660601 0.7225 
32.018900026606005 0.7225 
33.018900026606005 0.7225 
34.018900026606005 0.7225 
35.018900026606005 0.7225 
36.018900026606005 0.7225 
37.018900026606005 0.7225 
38.018900026606005 0.7225 
#####################################################################
# End of data export. Simulation finished at: 2017-05-26T02:18+0000 #
#####################################################################
