#####################################################################
# Alchemist log file - simulation started at: 2017-05-20T15:24+0000 #
#####################################################################
# random = 1.0, targets = 10.0, density = 0.04, gridShift = 1.0, perturbation = 0.0, connfactor = 0.25
#
# The columns have the following meaning: 
# time se[Mean] 
0.0 NaN 
1.016676366669265 NaN 
2.016676366669265 1.0 
3.016676366669265 1.0 
4.016676366669265 0.991875 
5.016676366669265 0.991875 
6.016676366669265 0.959375 
7.016676366669265 0.913125 
8.016676366669266 0.9110416666666666 
9.016676366669266 0.8072916666666666 
10.016676366669266 0.7983333333333333 
11.016676366669266 0.81125 
12.016676366669266 0.7816666666666667 
13.016676366669266 0.81 
14.016676366669266 0.81 
15.016676366669266 0.81 
#####################################################################
# End of data export. Simulation finished at: 2017-05-20T15:24+0000 #
#####################################################################
