0.000000000000000000e+00 nan
1.000313032427442517e+00 1.489240924891691575e-01
2.000626064854885033e+00 9.557147701472398227e-01
3.000939097282327328e+00 9.574706348792517696e-01
4.001252129709770067e+00 9.445943858010837912e-01
5.001565162137212361e+00 9.221227526583253287e-01
6.001878194564654656e+00 8.814807983462398244e-01
7.002191226992098727e+00 8.485986653340784613e-01
8.002504259419540134e+00 8.080247070660649955e-01
9.002817291846982428e+00 7.753287092359278931e-01
1.000313032427442472e+01 7.516841226308920154e-01
1.100344335670186702e+01 7.411540984885779393e-01
1.200375638912930931e+01 7.196624736998434857e-01
1.300406942155675694e+01 7.309007947205451439e-01
1.400438245398419745e+01 7.213021078915511364e-01
1.500469548641164508e+01 7.294521576654898753e-01
1.600500851883908027e+01 7.278338032693768556e-01
1.700532155126653322e+01 7.287142115185353264e-01
1.800563458369396486e+01 7.283253671085259118e-01
1.900594761612142847e+01 7.282370138792636505e-01
2.000626064854884945e+01 7.281486606500013892e-01
2.100657368097631306e+01 7.281486606500013892e-01
2.200688671340373403e+01 7.281486606500013892e-01
2.300719974583119765e+01 7.281486606500013892e-01
2.400751277825861862e+01 7.281486606500013892e-01
2.500782581068608224e+01 7.281486606500013892e-01
