#####################################################################
# Alchemist log file - simulation started at: 2017-05-23T09:54+0000 #
#####################################################################
# random = 11.0, targets = 31.622776601683793, density = 0.4483936332993466, gridShift = 0.0, perturbation = 0.5, connfactor = 0.1
#
# The columns have the following meaning: 
# time se[Mean] 
0.0 NaN 
1.0028758930102715 NaN 
2.0028758930102715 1.0 
3.0028758930102715 0.9990274132311974 
4.0028758930102715 0.9970822396935921 
5.0028758930102715 0.9941644793871843 
6.0028758930102715 0.9922193058495791 
7.0028758930102715 0.9951370661559868 
8.002875893010271 0.9941644793871843 
9.002875893010271 0.9922193058495791 
10.002875893010271 0.9980548264623947 
11.002875893010271 0.9941644793871843 
12.002875893010271 0.9951370661559868 
13.002875893010271 1.0 
14.002875893010271 0.9961096529247895 
15.002875893010271 0.9941644793871843 
16.00287589301027 0.9893952955431712 
17.00287589301027 0.9723574837047241 
18.00287589301027 0.9657368763231057 
19.00287589301027 0.9504879880222638 
20.00287589301027 0.9380006100278298 
21.00287589301027 0.9332001761838167 
22.00287589301027 0.9216228849581852 
23.00287589301027 0.9335165129526193 
24.00287589301027 0.9294386658774088 
25.00287589301027 0.9265209055710009 
26.00287589301027 0.9359030232590271 
27.00287589301027 0.9368131100278297 
28.00287589301027 0.9368131100278297 
29.00287589301027 0.9377544467966323 
30.00287589301027 0.9377544467966323 
31.00287589301027 0.9377544467966323 
32.00287589301027 0.9377544467966323 
33.00287589301027 0.9377544467966323 
34.00287589301027 0.9377544467966323 
35.00287589301027 0.9377544467966323 
36.00287589301027 0.9377544467966323 
37.00287589301027 0.9377544467966323 
38.00287589301027 0.9377544467966323 
39.00287589301027 0.9377544467966323 
40.00287589301027 0.9377544467966323 
41.00287589301027 0.9377544467966323 
42.00287589301027 0.9377544467966323 
43.00287589301027 0.9377544467966323 
44.00287589301027 0.9377544467966323 
#####################################################################
# End of data export. Simulation finished at: 2017-05-23T09:54+0000 #
#####################################################################
