0.000000000000000000e+00 nan
1.000049203350102944e+00 7.940098561789291076e-02
2.000098406700205889e+00 9.600916540988780890e-01
3.000147610050310831e+00 9.631414520265226820e-01
4.000196813400411777e+00 9.622279992733059339e-01
5.000246016750519829e+00 9.568208959228147181e-01
6.000295220100621663e+00 9.419642402741034148e-01
7.000344423450724385e+00 9.280889244557191109e-01
8.000393626800823554e+00 9.199435757149525550e-01
9.000442830150927165e+00 9.080602498648597809e-01
1.000049203350103966e+01 8.993619293144781146e-01
1.100054123685114149e+01 8.864097735039018211e-01
1.200059044020124333e+01 8.774658806417506840e-01
1.300063964355134516e+01 8.618845038247059387e-01
1.400068884690144877e+01 8.494205581121400117e-01
1.500073805025154883e+01 8.354176160689277264e-01
1.600078725360164711e+01 8.204882785367466624e-01
1.700083645695174894e+01 8.073210947652870173e-01
1.800088566030185433e+01 7.920535073677757998e-01
1.900093486365197037e+01 7.771419505176634379e-01
2.000098406700207931e+01 7.634469634770265634e-01
2.100103327035218115e+01 7.496200997979415304e-01
2.200108247370228298e+01 7.354064070023099697e-01
2.300113167705238482e+01 7.177881287567072777e-01
2.400118088040248665e+01 7.020984649064669902e-01
2.500123008375259204e+01 6.848855092963440638e-01
2.600127928710269032e+01 6.645670961253447029e-01
2.700132849045280281e+01 6.465559347562831460e-01
2.800137769380289754e+01 6.260061199986882707e-01
2.900142689715300648e+01 6.093967232667817369e-01
3.000147610050309765e+01 5.890231236241810775e-01
3.100152530385321015e+01 5.717097818713772206e-01
3.200157450720329422e+01 5.528572117851343615e-01
3.300162371055341026e+01 5.327141321119245321e-01
3.400167291390349789e+01 5.190159989589018252e-01
3.500172211725362104e+01 5.033177300363845807e-01
3.600177132060370866e+01 4.867380698825407581e-01
3.700182052395382470e+01 4.774840284284310732e-01
3.800186972730394075e+01 4.640647584081457055e-01
3.900191893065403548e+01 4.413650128265078632e-01
4.000196813400415863e+01 4.317795182543571197e-01
4.100201733735423915e+01 4.192954025421045117e-01
4.200206654070436230e+01 4.005175530350629232e-01
4.300211574405444281e+01 3.929212366088194464e-01
4.400216494740456596e+01 3.802837464422106906e-01
4.500221415075464648e+01 3.699771047121457324e-01
4.600226335410476963e+01 3.622761634925174001e-01
4.700231255745485015e+01 3.547792092812578901e-01
4.800236176080497330e+01 3.475499099466058395e-01
4.900241096415505382e+01 3.376866189765064252e-01
5.000246016750518407e+01 3.382208283416117123e-01
5.100250937085525749e+01 3.415463026180784456e-01
5.200255857420538064e+01 3.513486140476096975e-01
5.300260777755547537e+01 3.068312700756078981e-01
5.400265698090560562e+01 3.330703369751923937e-01
5.500270618425566482e+01 3.249828858874403981e-01
5.600275538760579508e+01 2.713511088950241179e-01
5.700280459095588981e+01 2.924911707289905571e-01
5.800285379430601296e+01 2.685822737535752958e-01
5.900290299765608637e+01 2.472668795734634939e-01
6.000295220100619531e+01 2.409662014996152846e-01
6.100300140435631135e+01 2.360144860155258262e-01
6.200305060770642029e+01 2.346167874890310034e-01
6.300309981105649371e+01 2.292148818045998959e-01
6.400314901440658844e+01 1.942527630817664774e-01
6.500319821775673290e+01 1.997770782446078586e-01
6.600324742110682052e+01 1.857556617976891811e-01
6.700329662445689394e+01 1.812381843900608691e-01
6.800334582780699577e+01 1.570493675194616079e-01
6.900339503115718287e+01 1.619520474210961458e-01
7.000344423450724207e+01 1.574545542185684099e-01
7.100349343785730127e+01 1.522053374530260017e-01
7.200354264120741732e+01 1.374748394144963137e-01
7.300359184455759021e+01 1.458511274953891157e-01
7.400364104790764941e+01 1.352720779196441014e-01
7.500369025125770861e+01 1.316037019469459557e-01
7.600373945460788150e+01 1.280902121961637330e-01
7.700378865795799754e+01 1.092965617568013165e-01
7.800383786130807096e+01 1.105255249946528878e-01
7.900388706465815858e+01 1.072508083589677336e-01
8.000393626800831726e+01 1.008000521088615736e-01
8.100398547135840488e+01 9.481472442125786493e-02
8.200403467470847829e+01 8.373747926712558909e-02
8.300408387805856592e+01 7.949956065575819464e-02
8.400413308140872459e+01 7.785942842031921829e-02
8.500418228475881222e+01 7.611721412643286666e-02
8.600423148810888563e+01 7.532965066903613005e-02
8.700428069145897325e+01 7.400291883912334112e-02
8.800432989480913193e+01 7.305533498495800360e-02
8.900437909815921955e+01 7.218847131113888260e-02
9.000442830150929296e+01 7.159674971551480138e-02
9.100447750485938059e+01 7.049042214166910403e-02
9.200452670820953927e+01 6.992409194704890529e-02
9.300457591155962689e+01 6.936491451069880243e-02
9.400462511490970030e+01 6.888429879762834884e-02
9.500467431825978792e+01 6.862085921310794034e-02
9.600472352160994660e+01 6.852869844285706946e-02
9.700477272496003422e+01 6.832403175802531647e-02
9.800482192831010764e+01 6.820998709958668582e-02
9.900487113166019526e+01 6.806561016522015561e-02
1.000049203350103681e+02 6.793939818788662099e-02
1.010049695383604416e+02 6.790651892951998780e-02
1.020050187417105150e+02 6.786771049062086114e-02
1.030050679450605884e+02 6.784023676919880008e-02
1.040051171484107613e+02 6.783168446956854003e-02
1.050051663517608205e+02 6.783168446956854003e-02
1.060052155551109507e+02 6.783168446956854003e-02
1.070052647584611236e+02 6.783168446956854003e-02
1.080053139618112112e+02 6.783168446956854003e-02
1.090053631651612704e+02 6.783168446956854003e-02
1.100054123685113296e+02 6.783168446956854003e-02
1.110054615718614173e+02 6.783168446956854003e-02
1.120055107752115902e+02 6.783168446956854003e-02
1.130055599785616920e+02 6.783168446956854003e-02
1.140056091819117796e+02 6.783168446956854003e-02
1.150056583852619525e+02 6.783168446956854003e-02
1.160057075886120259e+02 6.783168446956854003e-02
1.170057567919620993e+02 6.783168446956854003e-02
1.180058059953121727e+02 6.783168446956854003e-02
1.190058551986623172e+02 6.783168446956854003e-02
1.200059044020123906e+02 6.783168446956854003e-02
1.210059536053625493e+02 6.783168446956854003e-02
1.220060028087126227e+02 6.783168446956854003e-02
1.230060520120627672e+02 6.783168446956854003e-02
1.240061012154128406e+02 6.783168446956854003e-02
1.250061504187629140e+02 6.783168446956854003e-02
1.260061996221129874e+02 6.783168446956854003e-02
1.270062488254631177e+02 6.783168446956854003e-02
1.280062980288131769e+02 6.783168446956854003e-02
1.290063472321633924e+02 6.783168446956854003e-02
1.300063964355134658e+02 6.783168446956854003e-02
