#####################################################################
# Alchemist log file - simulation started at: 2017-05-23T19:32+0000 #
#####################################################################
# random = 12.0, targets = 31.622776601683793, density = 20.0, gridShift = 1.0, perturbation = 0.5, connfactor = 0.25
#
# The columns have the following meaning: 
# time se[Mean] 
0.0 NaN 
1.000297589316342 NaN 
2.000297589316342 NaN 
3.000297589316342 0.9999409154691947 
4.000297589316342 0.9996454928151682 
5.000297589316342 0.9993510193780379 
6.000297589316342 0.998938376879297 
7.000297589316342 0.9983227353903218 
8.000297589316343 0.9975345863934111 
9.000297589316343 0.9972162659922544 
10.000297589316343 0.9966635059016687 
11.000297589316343 0.9970151654358123 
12.000297589316343 0.9962584571380964 
13.000297589316343 0.995984983014304 
14.000297589316343 0.9946459723605997 
15.000297589316343 0.9930753696681547 
16.000297589316343 0.9913580048655924 
17.000297589316343 0.9886360864977154 
18.000297589316343 0.9863495918340851 
19.000297589316343 0.9838469256853004 
20.000297589316343 0.9791917209968543 
21.000297589316343 0.9773663954352885 
22.000297589316343 0.9747856604177771 
23.000297589316343 0.9697009772936086 
24.000297589316343 0.9693159786264784 
25.000297589316343 0.9683819998524485 
26.000297589316343 0.9644317964667302 
27.000297589316343 0.9634348197526863 
28.000297589316343 0.9597609212575503 
29.000297589316343 0.9563237273944077 
30.000297589316343 0.9539375649566908 
31.000297589316343 0.9508228379871636 
32.00029758931635 0.9505116282707785 
33.00029758931635 0.9481583387995495 
34.00029758931635 0.9455010837222295 
35.00029758931635 0.9441369272627286 
36.00029758931635 0.9393705645397167 
37.00029758931635 0.93618606168638 
38.00029758931635 0.9305493514891703 
39.00029758931635 0.9293853294853175 
40.00029758931635 0.9252524102890565 
41.00029758931635 0.921685040285631 
42.00029758931635 0.9189340627027488 
43.00029758931635 0.9143259861181294 
44.00029758931635 0.9123157963450814 
45.00029758931635 0.9105601132418023 
46.00029758931635 0.9075032547351387 
47.00029758931635 0.9043889939321106 
48.00029758931635 0.89940764202409 
49.00029758931635 0.8975199012306337 
50.00029758931635 0.8937693492501664 
51.00029758931635 0.893401053094495 
52.00029758931635 0.8924843933078438 
53.00029758931635 0.8887954070000975 
54.00029758931635 0.8871543122901965 
55.00029758931635 0.882850334737191 
56.00029758931635 0.8799890317950139 
57.00029758931635 0.8748071484460993 
58.00029758931635 0.8702337452496943 
59.00029758931635 0.8630710793219505 
60.00029758931635 0.8567902408276308 
61.00029758931635 0.8518092080680105 
62.00029758931635 0.8458195514418017 
63.00029758931635 0.8412714847110544 
64.00029758931635 0.8343192764375289 
65.00029758931635 0.8303570676188002 
66.00029758931635 0.8227190178020934 
67.00029758931635 0.8167360781667309 
68.00029758931635 0.8132605997706682 
69.00029758931635 0.808157335876469 
70.00029758931635 0.8055086422807736 
71.00029758931635 0.8024085167821375 
72.00029758931635 0.8022053048838736 
73.00029758931635 0.7981077517429301 
74.00029758931635 0.7926767629894275 
75.00029758931635 0.7879144503924672 
76.00029758931635 0.7819518581810692 
77.00029758931635 0.779935706255599 
78.00029758931635 0.7802071283448563 
79.00029758931635 0.7728265798667039 
80.00029758931635 0.7708049488392106 
81.00029758931635 0.7687335211974341 
82.00029758931635 0.7594518008081655 
83.00029758931635 0.7520997761972685 
84.00029758931635 0.7532536813279335 
85.00029758931635 0.7483720832591528 
86.00029758931635 0.743156828655117 
87.00029758931635 0.7414827547383567 
88.00029758931635 0.736225668700962 
89.00029758931635 0.735036948528251 
90.00029758931635 0.7302907845654409 
91.00029758931635 0.7292168352176669 
92.00029758931635 0.7304912332325079 
93.00029758931635 0.72726334519991 
94.00029758931635 0.7226941729154546 
95.00029758931635 0.7181964385740289 
96.00029758931635 0.7168393623228251 
97.00029758931635 0.7157991997449754 
98.00029758931635 0.7094459522698489 
99.00029758931635 0.7080472204341993 
100.00029758931635 0.7099503278382251 
101.00029758931635 0.7055716627692726 
102.00029758931635 0.697035398864761 
103.00029758931635 0.6981798031708751 
104.00029758931635 0.6933802989846691 
105.00029758931635 0.6861030294253095 
106.00029758931635 0.6862358473181838 
107.00029758931635 0.6831655494655541 
108.00029758931635 0.6767427727824431 
109.00029758931635 0.6765265304703735 
110.00029758931635 0.675567503902613 
111.00029758931635 0.6674678307642568 
112.00029758931635 0.6620656767981 
113.00029758931635 0.6628861127620536 
114.00029758931635 0.6515163754698523 
115.00029758931635 0.6448014730660038 
116.00029758931635 0.6407213266232521 
117.00029758931635 0.6543718624231342 
118.00029758931635 0.6573777481707279 
119.00029758931635 0.7320453795350618 
120.00029758931635 0.8152113666537266 
121.00029758931635 0.8271769526793403 
122.00029758931635 1.0008574330306566 
123.00029758931635 1.1147865340905037 
124.00029758931635 0.9799844619061385 
125.00029758931635 1.2161492368256372 
126.00029758931635 1.2502513408180136 
127.00029758931635 1.2418257148385476 
128.00029758931635 1.4653302857266404 
129.00029758931635 1.5416761930888816 
130.00029758931635 1.5434288745134253 
131.00029758931635 1.6486145752689494 
132.00029758931635 1.7244991162866052 
133.00029758931635 1.6287766022589625 
134.00029758931635 1.7073692912032201 
135.00029758931635 1.5782250141672638 
136.00029758931635 1.7430446009358695 
137.00029758931635 1.892795101773857 
138.00029758931635 1.8057207879902664 
139.00029758931635 1.7352772187464858 
140.00029758931635 1.6384437495046966 
141.00029758931635 1.649258216306281 
142.00029758931635 1.6155662843357943 
143.00029758931635 1.4394473246584962 
144.00029758931635 1.6759055410243904 
145.00029758931635 1.7692380355848734 
146.00029758931635 1.541450984745749 
147.00029758931635 1.4941176698207073 
148.00029758931635 1.7048506591521637 
149.00029758931635 1.6205407569331416 
150.00029758931635 1.6553321452017191 
151.00029758931635 1.8075300517104362 
152.00029758931635 1.6872850446468406 
153.00029758931635 1.6536634684042448 
154.00029758931635 1.7415035597024935 
155.00029758931635 1.6091774825187468 
156.00029758931635 1.5756248494846832 
157.00029758931635 1.6436013545822823 
158.00029758931635 1.8420967036574265 
159.00029758931635 1.7149148462752863 
160.00029758931635 1.848941143050181 
161.00029758931635 1.9082522417393726 
162.00029758931635 1.6989776107047616 
163.00029758931635 1.6844920914130552 
164.00029758931635 1.7033057757637928 
165.00029758931635 1.8505441627803956 
166.00029758931635 1.5919467014210622 
167.00029758931635 1.6575807797396571 
168.00029758931635 1.6012245610622822 
169.00029758931635 1.564119978578387 
170.00029758931635 1.660144716243113 
171.00029758931635 1.535850683860262 
172.00029758931635 1.340134739868848 
173.00029758931635 1.49899100262687 
174.00029758931635 1.1845418291473515 
175.00029758931635 1.0330528591714248 
176.00029758931635 0.965660770208396 
177.00029758931635 0.9016613451155017 
178.00029758931635 0.8185886291468559 
179.00029758931635 0.7304934212855559 
180.00029758931635 0.6284994938242429 
181.00029758931635 0.7192867557755805 
182.00029758931635 0.6619097204300696 
183.00029758931635 0.6420595838766305 
184.00029758931635 0.6101822997072692 
185.00029758931635 0.5968736677128498 
186.00029758931635 0.5449207085331483 
187.00029758931635 0.512716833225879 
188.00029758931635 0.5300529690437477 
189.00029758931635 0.4377448359788855 
190.00029758931635 0.42812177267140045 
191.00029758931635 0.38909044214482974 
192.00029758931635 0.34741793599383325 
193.00029758931635 0.32972216845097 
194.00029758931635 0.32228772093512753 
195.00029758931635 0.3166819906348837 
196.00029758931635 0.31698924080006274 
197.00029758931635 0.31832960588421505 
198.00029758931635 0.3133879609024409 
199.00029758931635 0.3131932968932257 
200.00029758931635 0.31460768236571157 
201.00029758931635 0.3114089585701181 
202.00029758931635 0.3103090270226653 
203.00029758931635 0.31246803959595776 
204.00029758931635 0.31361956567918475 
205.00029758931635 0.3054066338929812 
206.00029758931635 0.31228733955192045 
207.00029758931635 0.30965235751750503 
208.00029758931635 0.30569536302270217 
209.00029758931635 0.3072966462116463 
210.00029758931635 0.3084605282073317 
211.00029758931635 0.3126855008400037 
212.00029758931635 0.30169690689463674 
213.00029758931635 0.3094924043829086 
214.00029758931635 0.3065919562563 
215.00029758931635 0.3078317937059429 
216.00029758931635 0.3093665995900277 
217.00029758931635 0.30538273999586957 
218.00029758931635 0.30409239802660415 
219.00029758931635 0.31065522763000436 
220.00029758931635 0.30157345067272207 
221.00029758931635 0.30554659380167226 
222.00029758931635 0.30451770900355973 
223.00029758931635 0.30668068399209397 
224.00029758931635 0.3053714066909401 
225.00029758931635 0.30468014041603614 
226.00029758931635 0.3026506117432092 
227.00029758931635 0.3080431788196611 
228.00029758931635 0.30314243787523026 
229.00029758931635 0.304965469663419 
230.00029758931635 0.30529829888767074 
231.00029758931635 0.3055584382602077 
232.00029758931635 0.30464826609976364 
233.00029758931635 0.3041403893456607 
234.00029758931635 0.30731912113372334 
235.00029758931635 0.3035128964517037 
236.00029758931635 0.3063584428079955 
237.00029758931635 0.30501253273188794 
238.00029758931635 0.3049437077106355 
239.00029758931635 0.3058795935740498 
240.00029758931635 0.30666442546245104 
241.00029758931635 0.3053801753525213 
242.00029758931635 0.308162881088151 
243.00029758931635 0.3075052104960259 
244.00029758931635 0.30825656982591737 
245.00029758931635 0.30825656982591737 
246.00029758931635 0.3087689443430144 
247.00029758931635 0.30902513160156286 
248.00029758931635 0.30953750611865977 
249.00029758931635 0.3086408507137401 
250.00029758931635 0.30953750611865977 
251.00029758931635 0.30915322523083705 
252.00029758931635 0.30953750611865977 
253.00029758931635 0.3094094124893855 
254.00029758931635 0.30979369337720836 
255.00029758931635 0.30979369337720836 
256.00029758931635 0.3096655997479341 
257.00029758931635 0.31030606789430526 
258.00029758931635 0.3100498806357568 
259.00029758931635 0.3104341615235795 
260.00029758931635 0.3104341615235795 
261.00029758931635 0.31056225515285374 
262.00029758931635 0.31056225515285374 
263.00029758931635 0.31056225515285374 
264.00029758931635 0.31056225515285374 
265.00029758931635 0.31056225515285374 
266.00029758931635 0.31056225515285374 
267.00029758931635 0.31056225515285374 
268.00029758931635 0.31056225515285374 
269.00029758931635 0.31056225515285374 
270.00029758931635 0.31056225515285374 
271.00029758931635 0.31056225515285374 
272.00029758931635 0.31056225515285374 
273.00029758931635 0.31056225515285374 
274.00029758931635 0.31056225515285374 
275.00029758931635 0.31056225515285374 
276.00029758931635 0.31056225515285374 
277.00029758931635 0.31056225515285374 
278.00029758931635 0.31056225515285374 
279.00029758931635 0.31056225515285374 
280.00029758931635 0.31056225515285374 
281.00029758931635 0.31056225515285374 
282.00029758931635 0.31056225515285374 
283.00029758931635 0.31056225515285374 
284.00029758931635 0.31056225515285374 
285.00029758931635 0.31056225515285374 
286.00029758931635 0.31056225515285374 
287.00029758931635 0.31056225515285374 
288.00029758931635 0.31056225515285374 
289.00029758931635 0.31056225515285374 
290.00029758931635 0.31056225515285374 
291.00029758931635 0.31056225515285374 
292.00029758931635 0.31056225515285374 
293.00029758931635 0.31056225515285374 
294.00029758931635 0.31056225515285374 
295.00029758931635 0.31056225515285374 
296.00029758931635 0.31056225515285374 
297.00029758931635 0.31056225515285374 
298.00029758931635 0.31056225515285374 
299.00029758931635 0.31056225515285374 
300.00029758931635 0.31056225515285374 
301.00029758931635 0.31056225515285374 
302.00029758931635 0.31056225515285374 
303.00029758931635 0.31056225515285374 
304.00029758931635 0.31056225515285374 
305.00029758931635 0.31056225515285374 
306.00029758931635 0.31056225515285374 
307.00029758931635 0.31056225515285374 
308.00029758931635 0.31056225515285374 
309.00029758931635 0.31056225515285374 
310.00029758931635 0.31056225515285374 
311.00029758931635 0.31056225515285374 
312.00029758931635 0.31056225515285374 
313.00029758931635 0.31056225515285374 
314.00029758931635 0.31056225515285374 
315.00029758931635 0.31056225515285374 
316.00029758931635 0.31056225515285374 
317.00029758931635 0.31056225515285374 
318.00029758931635 0.31056225515285374 
319.00029758931635 0.31056225515285374 
320.00029758931635 0.31056225515285374 
321.00029758931635 0.31056225515285374 
322.00029758931635 0.31056225515285374 
323.00029758931635 0.31056225515285374 
324.00029758931635 0.31056225515285374 
325.00029758931635 0.31056225515285374 
326.00029758931635 0.31056225515285374 
327.00029758931635 0.31056225515285374 
328.00029758931635 0.31056225515285374 
329.00029758931635 0.31056225515285374 
330.00029758931635 0.31056225515285374 
331.00029758931635 0.31056225515285374 
332.00029758931635 0.31056225515285374 
333.00029758931635 0.31056225515285374 
334.00029758931635 0.31056225515285374 
335.00029758931635 0.31056225515285374 
336.00029758931635 0.31056225515285374 
337.00029758931635 0.31056225515285374 
338.00029758931635 0.31056225515285374 
339.00029758931635 0.31056225515285374 
340.00029758931635 0.31056225515285374 
341.00029758931635 0.31056225515285374 
342.00029758931635 0.31056225515285374 
343.00029758931635 0.31056225515285374 
344.00029758931635 0.31056225515285374 
345.00029758931635 0.31056225515285374 
346.00029758931635 0.31056225515285374 
347.00029758931635 0.31056225515285374 
348.00029758931635 0.31056225515285374 
349.00029758931635 0.31056225515285374 
350.00029758931635 0.31056225515285374 
351.00029758931635 0.31056225515285374 
352.00029758931635 0.31056225515285374 
353.00029758931635 0.31056225515285374 
354.00029758931635 0.31056225515285374 
355.00029758931635 0.31056225515285374 
356.00029758931635 0.31056225515285374 
357.00029758931635 0.31056225515285374 
358.00029758931635 0.31056225515285374 
359.00029758931635 0.31056225515285374 
360.00029758931635 0.31056225515285374 
361.00029758931635 0.31056225515285374 
#####################################################################
# End of data export. Simulation finished at: 2017-05-23T19:41+0000 #
#####################################################################
