#####################################################################
# Alchemist log file - simulation started at: 2017-05-26T14:47+0000 #
#####################################################################
# random = 9.0, targets = 100.0, density = 10.026386447354522, gridShift = 1.0, perturbation = 0.5, connfactor = 1.5
#
# The columns have the following meaning: 
# time se[Mean] 
0.0 NaN 
1.0015323036356916 NaN 
2.001532303635692 1.0088946370967742 
3.001532303635692 1.0143628225806451 
4.001532303635692 1.0219492313108038 
5.001532303635692 1.0293413268049154 
6.001532303635692 1.0271616545058884 
7.001532303635692 1.0295532546082948 
8.001532303635692 1.028618424859191 
9.001532303635692 1.0336500659242192 
10.001532303635692 1.035294709421403 
11.001532303635692 1.0365495116487455 
12.001532303635692 1.041300820532514 
13.001532303635692 1.0419609997439836 
14.001532303635692 1.048456369047619 
15.001532303635692 1.051420852534562 
16.001532303635692 1.0483831931643626 
17.001532303635692 1.0553666564260114 
18.001532303635692 1.056289297235023 
19.001532303635692 1.0557426958525344 
20.001532303635692 1.060724540450589 
21.001532303635692 1.0640147241423452 
22.001532303635692 1.0665307110855096 
23.001532303635692 1.076617073732719 
24.001532303635692 1.0778709318996416 
25.001532303635692 1.0890055894777266 
26.001532303635692 1.1009882424475166 
27.001532303635692 1.0997773175883256 
28.001532303635692 1.1161084427803383 
29.001532303635692 1.1181416257040449 
30.001532303635692 1.1304762199180747 
31.001532303635692 1.138212709293395 
32.00153230363569 1.1493730677163336 
33.00153230363569 1.1575471057347668 
34.00153230363569 1.1678077937788018 
35.00153230363569 1.1783297452636967 
36.00153230363569 1.1907998636712753 
37.00153230363569 1.1970189932155655 
38.00153230363569 1.2131750179211467 
39.00153230363569 1.2206289093701999 
40.00153230363569 1.243762884024578 
41.00153230363569 1.2481065610599076 
42.00153230363569 1.2579398355094722 
43.00153230363569 1.2938351043266767 
44.00153230363569 1.2815402681771635 
45.00153230363569 1.3101927521761394 
46.00153230363569 1.3179518125960066 
47.00153230363569 1.3315638869687663 
48.00153230363569 1.335986590501792 
49.00153230363569 1.3604862045570916 
50.00153230363569 1.3519341033026118 
51.00153230363569 1.3783886712749618 
52.00153230363569 1.3884784312596006 
53.00153230363569 1.399157626728111 
54.00153230363569 1.4009689298515107 
55.00153230363569 1.417910857014849 
56.00153230363569 1.4534878520225294 
57.00153230363569 1.4599144674859192 
58.00153230363569 1.4506855779569894 
59.00153230363569 1.474359385560676 
60.00153230363569 1.4725428206605224 
61.00153230363569 1.5079580517153097 
62.00153230363569 1.5572447183819769 
63.00153230363569 1.604983216845878 
64.00153230363568 1.6177229934715827 
65.00153230363568 1.7123532923707112 
66.00153230363568 1.730734270353303 
67.00153230363568 1.8520476785714286 
68.00153230363568 1.9114297164618534 
69.00153230363568 1.9040306490015357 
70.00153230363568 2.0494367805939584 
71.00153230363568 2.0874999551971327 
72.00153230363568 2.099336520097287 
73.00153230363568 2.1656975569636456 
74.00153230363568 2.1935810765488992 
75.00153230363568 2.2224972836661547 
76.00153230363568 2.2709308602150546 
77.00153230363568 2.2367660349462373 
78.00153230363568 2.2668736085509473 
79.00153230363568 2.3411302892985155 
80.00153230363568 2.358120371223759 
81.00153230363568 2.3833601203277013 
82.00153230363568 2.3890817633128525 
83.00153230363568 2.5226913063236056 
84.00153230363568 2.5844546511776763 
85.00153230363568 2.442913120839734 
86.00153230363568 2.4122527918586796 
87.00153230363568 2.415819884152586 
88.00153230363568 2.459952471198157 
89.00153230363568 2.497501643625193 
90.00153230363568 2.5116230600358427 
91.00153230363568 2.3976583000512037 
92.00153230363568 2.3950042677931394 
93.00153230363568 2.387037268945213 
94.00153230363568 2.425229924475167 
95.00153230363568 2.555698141321045 
96.00153230363568 2.5497508608550956 
97.00153230363568 2.528916786994368 
98.00153230363568 2.6561826715309786 
99.00153230363568 2.6590912602406562 
100.00153230363568 2.665848200204814 
101.00153230363568 2.7968045372503845 
102.00153230363568 2.7092098694316444 
103.00153230363568 2.7109346140553003 
104.00153230363568 2.7848757782898113 
105.00153230363568 2.8299425313620077 
106.00153230363568 2.7687831317204314 
107.00153230363568 2.8142519482846913 
108.00153230363568 2.7369448931131597 
109.00153230363568 2.8126848937532007 
110.00153230363568 2.8459073553507435 
111.00153230363568 2.879597023809525 
112.00153230363568 2.947200931259601 
113.00153230363568 2.921398203405019 
114.00153230363568 3.120923800563237 
115.00153230363568 3.149523231566821 
116.00153230363568 3.0714820756528427 
117.00153230363568 3.147120766769074 
118.00153230363568 3.1945359133384548 
119.00153230363568 3.3285146710189464 
120.00153230363568 3.523815425627241 
121.00153230363568 3.604363016513058 
122.00153230363568 3.6972526344086027 
123.00153230363568 3.7177780760368666 
124.00153230363568 3.793649551971328 
125.00153230363568 4.143411573220687 
126.00153230363568 4.086768440860216 
127.00153230363568 4.08832765873016 
128.00153230363568 4.133215137608808 
129.00153230363568 4.151825959421404 
130.00153230363568 4.233440354582694 
131.00153230363568 4.208088203405019 
132.00153230363568 4.111525311699951 
133.00153230363568 4.182758968253968 
134.00153230363568 4.195575707245264 
135.00153230363568 4.247537996031747 
136.00153230363568 4.258582743855606 
137.00153230363568 4.297633315412186 
138.00153230363568 4.589830164490528 
139.00153230363568 4.27946830389145 
140.00153230363568 4.055517202380953 
141.00153230363568 4.070875874935997 
142.00153230363568 4.033570232974911 
143.00153230363568 4.16053585061444 
144.00153230363568 4.094936998847929 
145.00153230363568 3.9714467997951877 
146.00153230363568 3.7293801344086033 
147.00153230363568 3.8263649923195087 
148.00153230363568 3.542360394265234 
149.00153230363568 3.8402824526369703 
150.00153230363568 3.7278227489759352 
151.00153230363568 3.611917631208398 
152.00153230363568 3.6446281573220687 
153.00153230363568 3.524794961597543 
154.00153230363568 3.5071220506912444 
155.00153230363568 3.456085307859704 
156.00153230363568 3.361898428059398 
157.00153230363568 3.2228062807219677 
158.00153230363568 3.2543906586021523 
159.00153230363568 3.173130879416283 
160.00153230363568 3.1523124603174595 
161.00153230363568 2.850795521633386 
162.00153230363568 2.967637409754225 
163.00153230363568 2.868627540322581 
164.00153230363568 2.7260155619559647 
165.00153230363568 2.769693739119304 
166.00153230363568 2.7343669406042 
167.00153230363568 2.6990479685099853 
168.00153230363568 2.7275582616487446 
169.00153230363568 2.6697624967997955 
170.00153230363568 2.6562689298515116 
171.00153230363568 2.6353433307731704 
172.00153230363568 2.6355520020481324 
173.00153230363568 2.6403845673323096 
174.00153230363568 2.582886922683053 
175.00153230363568 2.6001429979518695 
176.00153230363568 2.588679718381978 
177.00153230363568 2.5657586712749625 
178.00153230363568 2.5714581874039943 
179.00153230363568 2.571487593445982 
180.00153230363568 2.559985322580646 
181.00153230363568 2.5714728341013835 
182.00153230363568 2.559985276497697 
183.00153230363568 2.565733958013314 
184.00153230363568 2.560000000000001 
185.00153230363568 2.560000000000001 
186.00153230363568 2.560000000000001 
187.00153230363568 2.560000000000001 
188.00153230363568 2.560000000000001 
189.00153230363568 2.560000000000001 
190.00153230363568 2.560000000000001 
191.00153230363568 2.560000000000001 
192.00153230363568 2.560000000000001 
193.00153230363568 2.560000000000001 
194.00153230363568 2.560000000000001 
195.00153230363568 2.560000000000001 
196.00153230363568 2.560000000000001 
197.00153230363568 2.560000000000001 
198.00153230363568 2.560000000000001 
199.00153230363568 2.560000000000001 
200.00153230363568 2.560000000000001 
201.00153230363568 2.560000000000001 
202.00153230363568 2.560000000000001 
203.00153230363568 2.560000000000001 
204.00153230363568 2.560000000000001 
205.00153230363568 2.560000000000001 
206.00153230363568 2.560000000000001 
207.00153230363568 2.560000000000001 
208.00153230363568 2.560000000000001 
209.00153230363568 2.560000000000001 
210.00153230363568 2.560000000000001 
211.00153230363568 2.560000000000001 
212.00153230363568 2.560000000000001 
213.00153230363568 2.560000000000001 
214.00153230363568 2.560000000000001 
215.00153230363568 2.560000000000001 
216.00153230363568 2.560000000000001 
217.00153230363568 2.560000000000001 
218.00153230363568 2.560000000000001 
219.00153230363568 2.560000000000001 
220.00153230363568 2.560000000000001 
221.00153230363568 2.560000000000001 
222.00153230363568 2.560000000000001 
223.00153230363568 2.560000000000001 
224.00153230363568 2.560000000000001 
225.00153230363568 2.560000000000001 
226.00153230363568 2.560000000000001 
227.00153230363568 2.560000000000001 
228.00153230363568 2.560000000000001 
229.00153230363568 2.560000000000001 
230.00153230363568 2.560000000000001 
231.00153230363568 2.560000000000001 
232.00153230363568 2.560000000000001 
233.00153230363568 2.560000000000001 
234.00153230363568 2.560000000000001 
235.00153230363568 2.560000000000001 
236.00153230363568 2.560000000000001 
237.00153230363568 2.560000000000001 
238.00153230363568 2.560000000000001 
239.00153230363568 2.560000000000001 
240.00153230363568 2.560000000000001 
241.00153230363568 2.560000000000001 
242.00153230363568 2.560000000000001 
243.00153230363568 2.560000000000001 
244.00153230363568 2.560000000000001 
245.00153230363568 2.560000000000001 
246.00153230363568 2.560000000000001 
247.00153230363568 2.560000000000001 
248.00153230363568 2.560000000000001 
249.00153230363568 2.560000000000001 
250.00153230363568 2.560000000000001 
251.00153230363568 2.560000000000001 
252.00153230363568 2.560000000000001 
253.00153230363568 2.560000000000001 
#####################################################################
# End of data export. Simulation finished at: 2017-05-26T15:05+0000 #
#####################################################################
