#####################################################################
# Alchemist log file - simulation started at: 2017-05-25T20:25+0000 #
#####################################################################
# random = 8.0, targets = 100.0, density = 2.519842099789746, gridShift = 1.0, perturbation = 0.5, connfactor = 0.25
#
# The columns have the following meaning: 
# time se[Mean] 
0.0 NaN 
1.001230439556543 NaN 
2.001230439556543 1.0 
3.001230439556543 0.9997714638157895 
4.001230439556543 0.9986637335526316 
5.001230439556543 0.996964884868421 
6.001230439556543 0.9935782072368421 
7.001230439556543 0.9907444078947368 
8.001230439556544 0.9874596217105263 
9.001230439556544 0.9861584703947368 
10.001230439556544 0.9818308388157895 
11.001230439556544 0.9791419407894737 
12.001230439556544 0.9762527138157895 
13.001230439556544 0.9735680921052632 
14.001230439556544 0.9664702302631579 
15.001230439556544 0.9575856907894736 
16.001230439556544 0.9524935855263158 
17.001230439556544 0.9337110197368421 
18.001230439556544 0.9265966282894736 
19.001230439556544 0.9073214638157895 
20.001230439556544 0.8962027138157894 
21.001230439556544 0.8721981907894737 
22.001230439556544 0.8568796052631579 
23.001230439556544 0.8531669407894737 
24.001230439556544 0.8422957236842106 
25.001230439556544 0.8344376644736843 
26.001230439556544 0.8391836348684211 
27.001230439556544 0.8304446546052632 
28.001230439556544 0.8247626644736843 
29.001230439556544 0.823971052631579 
30.001230439556544 0.8133405427631578 
31.001230439556544 0.8120078125 
32.001230439556544 0.8142198190789472 
33.001230439556544 0.8166915296052631 
34.001230439556544 0.8124152960526316 
35.001230439556544 0.8149107730263158 
36.001230439556544 0.8155329769736842 
37.001230439556544 0.8154273026315789 
38.001230439556544 0.8161994243421054 
39.001230439556544 0.8091731085526316 
40.001230439556544 0.8159180921052631 
41.001230439556544 0.805978947368421 
42.001230439556544 0.8100009046052632 
43.001230439556544 0.7996290296052632 
44.001230439556544 0.7933716282894737 
45.001230439556544 0.7836287006578948 
46.001230439556544 0.7593594572368422 
47.001230439556544 0.7432956414473684 
48.001230439556544 0.7294164473684212 
49.001230439556544 0.7021158717105264 
50.001230439556544 0.6787186677631577 
51.001230439556544 0.6664439967105265 
52.001230439556544 0.6570981907894735 
53.001230439556544 0.6341362664473683 
54.001230439556544 0.6203405427631579 
55.001230439556544 0.605412582236842 
56.001230439556544 0.5873684210526315 
57.001230439556544 0.587646134868421 
58.001230439556544 0.5613189144736842 
59.001230439556544 0.5786467105263158 
60.001230439556544 0.5485494243421053 
61.001230439556544 0.5655043585526316 
62.001230439556544 0.5501607730263157 
63.001230439556544 0.5588263157894737 
64.00123043955654 0.5489309210526315 
65.00123043955654 0.5450699835526316 
66.00123043955654 0.5507735197368421 
67.00123043955654 0.5545392269736843 
68.00123043955654 0.5578337171052632 
69.00123043955654 0.5828616776315789 
70.00123043955654 0.5768272203947369 
71.00123043955654 0.5912325657894737 
72.00123043955654 0.6011166118421053 
73.00123043955654 0.6026827302631579 
74.00123043955654 0.5968266447368421 
75.00123043955654 0.6033754111842106 
76.00123043955654 0.5986387335526316 
77.00123043955654 0.612394490131579 
78.00123043955654 0.6124837171052632 
79.00123043955654 0.6152322368421053 
80.00123043955654 0.616289144736842 
81.00123043955654 0.6161952302631579 
82.00123043955654 0.620203947368421 
83.00123043955654 0.6194564144736842 
84.00123043955654 0.6213761513157895 
85.00123043955654 0.6212297697368421 
86.00123043955654 0.6223478618421052 
87.00123043955654 0.6230951480263158 
88.00123043955654 0.6235045230263158 
89.00123043955654 0.6237114309210526 
90.00123043955654 0.6239704769736842 
91.00123043955654 0.6240481907894737 
92.00123043955654 0.6241 
93.00123043955654 0.6241 
94.00123043955654 0.6241 
95.00123043955654 0.6241 
96.00123043955654 0.6241 
97.00123043955654 0.6241 
98.00123043955654 0.6241 
99.00123043955654 0.6241 
100.00123043955654 0.6241 
101.00123043955654 0.6241 
102.00123043955654 0.6241 
103.00123043955654 0.6241 
104.00123043955654 0.6241 
105.00123043955654 0.6241 
106.00123043955654 0.6241 
107.00123043955654 0.6241 
108.00123043955654 0.6241 
109.00123043955654 0.6241 
110.00123043955654 0.6241 
111.00123043955654 0.6241 
112.00123043955654 0.6241 
113.00123043955654 0.6241 
114.00123043955654 0.6241 
115.00123043955654 0.6241 
116.00123043955654 0.6241 
117.00123043955654 0.6241 
118.00123043955654 0.6241 
119.00123043955654 0.6241 
120.00123043955654 0.6241 
121.00123043955654 0.6241 
122.00123043955654 0.6241 
123.00123043955654 0.6241 
124.00123043955654 0.6241 
#####################################################################
# End of data export. Simulation finished at: 2017-05-25T20:25+0000 #
#####################################################################
