#####################################################################
# Alchemist log file - simulation started at: 2017-05-24T17:25+0000 #
#####################################################################
# random = 15.0, targets = 31.622776601683793, density = 0.1591589639397027, gridShift = 0.0, perturbation = 0.0, connfactor = 2.0
#
# The columns have the following meaning: 
# time se[Mean] 
0.0 NaN 
1.0090872484315245 NaN 
2.0090872484315243 1.431163497092071 
3.0090872484315243 1.5812018257210283 
4.009087248431524 2.2722570197131238 
5.009087248431524 1.881597908423663 
6.009087248431524 3.920699530865325 
7.009087248431524 6.087753849326877 
8.009087248431523 3.4502443310535003 
9.009087248431523 11.677235079383674 
10.009087248431523 8.67797697396694 
11.009087248431523 7.416986269881129 
12.009087248431523 16.617196329961377 
13.009087248431523 8.439909950604056 
14.009087248431523 1.9969403839699875 
15.009087248431523 0.7660353667344032 
16.009087248431523 0.3779102135605113 
17.009087248431523 0.08672822720320116 
18.009087248431523 0.010538889457579702 
19.009087248431523 0.008497848343416846 
20.009087248431523 0.010032646179403911 
21.009087248431523 0.00458429325829888 
22.009087248431523 0.0012271392081436268 
23.009087248431523 3.8785069560481325E-4 
24.009087248431523 3.8785069560481325E-4 
25.009087248431523 3.8785069560481325E-4 
26.009087248431523 3.8785069560481325E-4 
27.009087248431523 3.8785069560481325E-4 
28.009087248431523 3.8785069560481325E-4 
29.009087248431523 3.8785069560481325E-4 
30.009087248431523 3.8785069560481325E-4 
31.009087248431523 3.8785069560481325E-4 
#####################################################################
# End of data export. Simulation finished at: 2017-05-24T17:25+0000 #
#####################################################################
