#####################################################################
# Alchemist log file - simulation started at: 2017-05-20T10:44+0000 #
#####################################################################
# random = 1.0, targets = 1.0, density = 2.519842099789746, gridShift = 0.0, perturbation = 0.5, connfactor = 2.0
#
# The columns have the following meaning: 
# time se[Mean] 
0.0 NaN 
1.0048855897957667 NaN 
2.0048855897957667 1.0 
3.0048855897957667 0.9984861591695502 
4.004885589795767 1.0264081122645135 
5.004885589795767 1.0604815455594006 
6.004885589795767 1.0988802383698575 
7.004885589795767 1.2067474048442899 
8.004885589795766 1.126585928489043 
9.004885589795766 1.294958669742407 
10.004885589795766 1.3156718569780856 
11.004885589795766 1.1774798154555939 
12.004885589795766 1.4031382160707406 
13.004885589795766 1.307862360630525 
14.004885589795766 1.3296328335255685 
15.004885589795766 1.3041618608227612 
16.004885589795766 1.3309784698193008 
17.004885589795766 1.3196126489811604 
18.004885589795766 1.3124759707804694 
19.004885589795766 1.3157439446366774 
20.004885589795766 1.3373702422145328 
21.004885589795766 1.3503460207612463 
22.004885589795766 1.3762975778546709 
23.004885589795766 1.3935986159169542 
24.004885589795766 1.3935986159169542 
25.004885589795766 1.3935986159169542 
26.004885589795766 1.3806228373702432 
27.004885589795766 1.3849480968858123 
28.004885589795766 1.3762975778546709 
29.004885589795766 1.3373702422145328 
30.004885589795766 1.3373702422145328 
31.004885589795766 1.3287197231833918 
32.00488558979576 1.3114186851211083 
33.00488558979576 1.3027681660899642 
34.00488558979576 1.3027681660899642 
35.00488558979576 1.2897923875432535 
36.00488558979576 1.2854671280276806 
37.00488558979576 1.263840830449826 
38.00488558979576 1.2595155709342567 
39.00488558979576 1.237889273356401 
40.00488558979576 1.224913494809688 
41.00488558979576 1.2032871972318349 
42.00488558979576 1.185986159169549 
43.00488558979576 1.1903114186851218 
44.00488558979576 1.1600346020761252 
45.00488558979576 1.1427335640138403 
46.00488558979576 1.1384083044982696 
47.00488558979576 1.108131487889273 
48.00488558979576 1.1038062283737022 
49.00488558979576 1.0735294117647056 
50.00488558979576 1.0605536332179932 
51.00488558979576 1.038927335640138 
52.00488558979576 1.008650519031142 
53.00488558979576 1.004325259515571 
54.00488558979576 1.0 
55.00488558979576 1.0 
56.00488558979576 1.0349865436370629 
57.00488558979576 1.0699730872741258 
58.00488558979576 1.1730103806228378 
59.00488558979576 6.177263552479788 
60.00488558979576 11.06963667820071 
61.00488558979576 26.256175509419545 
62.00488558979576 34.313509227220216 
63.00488558979576 27.404315647827836 
64.00488558979576 76.46333141099566 
65.00488558979576 79.8730296039982 
66.00488558979576 69.11956939638613 
67.00488558979576 89.70186947327953 
68.00488558979576 99.80783833141089 
69.00488558979576 107.30980872741264 
70.00488558979576 101.34688581314875 
71.00488558979576 82.6174307958477 
72.00488558979576 134.30329680891978 
73.00488558979576 111.93901384083041 
74.00488558979576 101.97895040369094 
75.00488558979576 145.2786188004615 
76.00488558979576 137.79551134179167 
77.00488558979576 106.01167820069209 
78.00488558979576 132.45891003460227 
79.00488558979576 139.24238273740872 
80.00488558979576 104.061010188389 
81.00488558979576 119.27957996924263 
82.00488558979576 112.68742791234139 
83.00488558979576 112.48457324106134 
84.00488558979576 72.25189830834272 
85.00488558979576 66.1261774317571 
86.00488558979576 56.799067666282234 
87.00488558979576 29.752018454440655 
88.00488558979576 29.65599769319491 
89.00488558979576 15.759683775470961 
90.00488558979576 13.765474817377942 
91.00488558979576 14.23546232218377 
92.00488558979576 9.889898116109194 
93.00488558979576 9.421232218377549 
94.00488558979576 9.176879084967323 
95.00488558979576 8.872813341022686 
96.00488558979576 9.026408112264518 
97.00488558979576 8.873101691657057 
98.00488558979576 8.956410995770861 
99.00488558979576 8.964292579777013 
100.00488558979576 8.985462322183778 
101.00488558979576 9.00648788927336 
102.00488558979576 8.986567666282202 
103.00488558979576 9.000192233756252 
104.00488558979576 9.003556324490583 
105.00488558979576 9.000000000000004 
106.00488558979576 9.000000000000004 
107.00488558979576 9.000000000000004 
108.00488558979576 9.000000000000004 
109.00488558979576 9.000000000000004 
110.00488558979576 9.000000000000004 
111.00488558979576 9.000000000000004 
112.00488558979576 9.000000000000004 
113.00488558979576 9.000000000000004 
114.00488558979576 9.000000000000004 
115.00488558979576 9.000000000000004 
116.00488558979576 9.000000000000004 
117.00488558979576 9.000000000000004 
118.00488558979576 9.000000000000004 
119.00488558979576 9.000000000000004 
120.00488558979576 9.000000000000004 
121.00488558979576 9.000000000000004 
122.00488558979576 9.000000000000004 
123.00488558979576 9.000000000000004 
124.00488558979576 9.000000000000004 
125.00488558979576 9.000000000000004 
126.00488558979576 9.000000000000004 
127.00488558979576 9.000000000000004 
128.00488558979578 9.000000000000004 
129.00488558979578 9.000000000000004 
130.00488558979578 9.000000000000004 
131.00488558979578 9.000000000000004 
132.00488558979578 9.000000000000004 
133.00488558979578 9.000000000000004 
134.00488558979578 9.000000000000004 
135.00488558979578 9.000000000000004 
136.00488558979578 9.000000000000004 
137.00488558979578 9.000000000000004 
138.00488558979578 9.000000000000004 
139.00488558979578 9.000000000000004 
#####################################################################
# End of data export. Simulation finished at: 2017-05-20T10:45+0000 #
#####################################################################
