#####################################################################
# Alchemist log file - simulation started at: 2017-05-24T01:57+0000 #
#####################################################################
# random = 13.0, targets = 31.622776601683793, density = 2.519842099789746, gridShift = 0.0, perturbation = 0.5, connfactor = 0.1
#
# The columns have the following meaning: 
# time se[Mean] 
0.0 NaN 
1.0019663140528798 NaN 
2.00196631405288 1.0 
3.00196631405288 1.0 
4.00196631405288 1.0 
5.00196631405288 1.0 
6.00196631405288 1.0 
7.00196631405288 1.0 
8.00196631405288 1.0 
9.00196631405288 1.0 
10.00196631405288 0.9997846174629641 
11.00196631405288 0.9987077047777847 
12.00196631405288 0.9987146251930097 
13.00196631405288 0.995733871750632 
14.00196631405288 0.9967969436053615 
15.00196631405288 0.9940246522847949 
16.00196631405288 0.9950946445547493 
17.00196631405288 0.993190803797551 
18.00196631405288 0.9967900231901367 
19.00196631405288 0.9961507959942539 
20.00196631405288 0.9959215726267682 
21.00196631405288 0.9974361708012442 
22.00196631405288 0.9965746406531008 
23.00196631405288 0.9987146251930097 
24.00196631405288 0.9980684775819021 
25.00196631405288 0.9967692619444619 
26.00196631405288 0.9965607998226509 
27.00196631405288 0.9954769667222466 
28.00196631405288 0.9939692889629955 
29.00196631405288 0.9911693159815291 
30.00196631405288 0.9898770207593139 
31.00196631405288 0.987938577925991 
32.00196631405288 0.986215517629704 
33.00196631405288 0.9836309271852736 
34.00196631405288 0.9804001891297355 
35.00196631405288 0.9773848336112332 
36.00196631405288 0.9756617733149462 
37.00196631405288 0.9724310352594081 
38.00196631405288 0.9700618273520135 
39.00196631405288 0.9666157067594395 
40.00196631405288 0.9638157337779731 
41.00196631405288 0.9612311433335426 
42.00196631405288 0.9568041462038746 
43.00196631405288 0.9460844350184353 
44.00196631405288 0.9467538928704082 
45.00196631405288 0.938953501055386 
46.00196631405288 0.9386420823702648 
47.00196631405288 0.9275876422588389 
48.00196631405288 0.9360574919258344 
49.00196631405288 0.9319419134812873 
50.00196631405288 0.9327074074813456 
51.00196631405288 0.9249070156663234 
52.00196631405288 0.9187336479995029 
53.00196631405288 0.9176567353143235 
54.00196631405288 0.9281843742035922 
55.00196631405288 0.9161490575550724 
56.00196631405288 0.9181108106292606 
57.00196631405288 0.9127989731105836 
58.00196631405288 0.9137798496476777 
59.00196631405288 0.9168185154070454 
60.00196631405288 0.9068409879807989 
61.00196631405288 0.913349084573606 
62.00196631405288 0.9052139638325972 
63.00196631405288 0.9166031328700095 
64.00196631405288 0.913349084573606 
65.00196631405288 0.9263652777592201 
66.00196631405288 0.9296193260556236 
67.00196631405288 0.9279923019074219 
68.00196631405288 0.9345003985002288 
69.00196631405288 0.9345003985002288 
70.00196631405288 0.9377544467966323 
71.00196631405288 0.9377544467966323 
72.00196631405288 0.9377544467966323 
73.00196631405288 0.9377544467966323 
74.00196631405288 0.9377544467966323 
75.00196631405288 0.9377544467966323 
76.00196631405288 0.9377544467966323 
77.00196631405288 0.9377544467966323 
78.00196631405288 0.9377544467966323 
79.00196631405288 0.9377544467966323 
80.00196631405288 0.9377544467966323 
81.00196631405288 0.9377544467966323 
82.00196631405288 0.9377544467966323 
83.00196631405288 0.9377544467966323 
84.00196631405288 0.9377544467966323 
85.00196631405288 0.9377544467966323 
86.00196631405288 0.9377544467966323 
87.00196631405288 0.9377544467966323 
88.00196631405288 0.9377544467966323 
89.00196631405288 0.9377544467966323 
90.00196631405288 0.9377544467966323 
91.00196631405288 0.9377544467966323 
92.00196631405288 0.9377544467966323 
93.00196631405288 0.9377544467966323 
94.00196631405288 0.9377544467966323 
95.00196631405288 0.9377544467966323 
96.00196631405288 0.9377544467966323 
97.00196631405288 0.9377544467966323 
98.00196631405288 0.9377544467966323 
99.00196631405288 0.9377544467966323 
100.00196631405288 0.9377544467966323 
101.00196631405288 0.9377544467966323 
102.00196631405288 0.9377544467966323 
103.00196631405288 0.9377544467966323 
104.00196631405288 0.9377544467966323 
105.00196631405288 0.9377544467966323 
106.00196631405288 0.9377544467966323 
#####################################################################
# End of data export. Simulation finished at: 2017-05-24T01:57+0000 #
#####################################################################
