#####################################################################
# Alchemist log file - simulation started at: 2017-05-23T00:21+0000 #
#####################################################################
# random = 4.0, targets = 100.0, density = 0.2247883923996312, gridShift = 1.0, perturbation = 0.0, connfactor = 0.75
#
# The columns have the following meaning: 
# time se[Mean] 
0.0 NaN 
1.0048193674555734 NaN 
2.0048193674555734 1.0098494047619047 
3.0048193674555734 1.0248808862433862 
4.004819367455573 1.0553592592592593 
5.004819367455573 1.0776968915343914 
6.004819367455573 1.0861556878306877 
7.004819367455573 1.1384716931216932 
8.004819367455573 1.0354579365079364 
9.004819367455573 1.0465584656084657 
10.004819367455573 0.9739462962962963 
11.004819367455573 0.9738833994708994 
12.004819367455573 0.9219861772486773 
13.004819367455573 0.9269578042328042 
14.004819367455573 0.8670629629629629 
15.004819367455573 0.8683404761904762 
16.004819367455575 0.8504017195767196 
17.004819367455575 0.8312301587301588 
18.004819367455575 0.8307851851851853 
19.004819367455575 0.85668458994709 
20.004819367455575 0.766590806878307 
21.004819367455575 0.6773890873015874 
22.004819367455575 0.6877548280423281 
23.004819367455575 0.6609489417989419 
24.004819367455575 0.6150386904761906 
25.004819367455575 0.6069527777777779 
26.004819367455575 0.6243302248677249 
27.004819367455575 0.6130517195767197 
28.004819367455575 0.6123216931216932 
29.004819367455575 0.6095541666666667 
30.004819367455575 0.6108726851851852 
31.004819367455575 0.6072647486772488 
32.004819367455575 0.608224007936508 
33.004819367455575 0.6087738095238096 
34.004819367455575 0.6080921296296297 
35.004819367455575 0.6084 
36.004819367455575 0.6084 
37.004819367455575 0.6084 
38.004819367455575 0.6084 
39.004819367455575 0.6084 
40.004819367455575 0.6084 
41.004819367455575 0.6084 
42.004819367455575 0.6084 
43.004819367455575 0.6084 
44.004819367455575 0.6084 
45.004819367455575 0.6084 
#####################################################################
# End of data export. Simulation finished at: 2017-05-23T00:21+0000 #
#####################################################################
