#####################################################################
# Alchemist log file - simulation started at: 2017-05-21T11:10+0000 #
#####################################################################
# random = 2.0, targets = 31.622776601683793, density = 0.1591589639397027, gridShift = 0.0, perturbation = 0.5, connfactor = 0.1
#
# The columns have the following meaning: 
# time se[Mean] 
0.0 NaN 
1.003288451303821 NaN 
2.003288451303821 1.0 
3.003288451303821 1.0 
4.0032884513038205 0.9916356225515285 
5.0032884513038205 0.9461090021169691 
6.0032884513038205 0.9253755140278241 
7.0032884513038205 0.867604871888524 
8.00328845130382 0.8716645161447933 
9.00328845130382 0.8487212059275137 
10.00328845130382 0.8589354055041198 
11.00328845130382 0.805119674428887 
12.00328845130382 0.808164407621089 
13.00328845130382 0.7941854748522807 
14.00328845130382 0.8067244076210889 
15.00328845130382 0.7997349412366848 
16.00328845130382 0.8192633403898971 
17.00328845130382 0.8192633403898971 
18.00328845130382 0.8192633403898971 
19.00328845130382 0.8192633403898971 
20.00328845130382 0.8192633403898971 
21.00328845130382 0.8192633403898971 
22.00328845130382 0.8192633403898971 
23.00328845130382 0.8192633403898971 
24.00328845130382 0.8192633403898971 
25.00328845130382 0.8192633403898971 
#####################################################################
# End of data export. Simulation finished at: 2017-05-21T11:10+0000 #
#####################################################################
