#####################################################################
# Alchemist log file - simulation started at: 2017-05-25T05:06+0000 #
#####################################################################
# random = 17.0, targets = 1.0, density = 0.6332893950589894, gridShift = 1.0, perturbation = 0.0, connfactor = 0.75
#
# The columns have the following meaning: 
# time se[Mean] 
0.0 NaN 
1.0045647570182237 NaN 
2.0045647570182235 1.0 
3.0045647570182235 0.9938271604938271 
4.0045647570182235 0.9583333333333333 
5.0045647570182235 0.9067901234567901 
6.0045647570182235 0.8453703703703704 
7.0045647570182235 0.7777777777777779 
8.004564757018223 0.7308641975308643 
9.004564757018223 0.6561728395061728 
10.004564757018223 0.6070987654320987 
11.004564757018223 0.577469135802469 
12.004564757018223 0.5521604938271606 
13.004564757018223 0.5617283950617282 
14.004564757018223 0.5916666666666666 
15.004564757018223 0.6222222222222222 
16.004564757018223 0.6888888888888888 
17.004564757018223 0.7333333333333333 
18.004564757018223 0.8222222222222223 
19.004564757018223 0.8679012345679011 
20.004564757018223 0.8975308641975308 
21.004564757018223 0.8975308641975308 
22.004564757018223 0.825925925925926 
23.004564757018223 0.7975308641975308 
24.004564757018223 0.7444444444444445 
25.004564757018223 0.7074074074074074 
26.004564757018223 0.7296296296296296 
27.004564757018223 0.6592592592592592 
28.004564757018223 0.6012345679012345 
29.004564757018223 0.5172839506172839 
30.004564757018223 0.5049382716049382 
31.004564757018223 0.3407407407407407 
32.00456475701822 0.23703703703703705 
33.00456475701822 0.19506172839506175 
34.00456475701822 0.12839506172839507 
35.00456475701822 0.0777777777777778 
36.00456475701822 0.032098765432098775 
37.00456475701822 0.03333333333333335 
38.00456475701822 0.01111111111111111 
39.00456475701822 0.007407407407407406 
40.00456475701822 0.002469135802469137 
41.00456475701822 0.0012345679012345703 
42.00456475701822 0.0 
43.00456475701822 0.0 
44.00456475701822 0.0 
45.00456475701822 0.0 
46.00456475701822 0.0 
47.00456475701822 0.0 
48.00456475701822 0.0 
49.00456475701822 0.0 
50.00456475701822 0.0 
51.00456475701822 0.0 
52.00456475701822 0.0 
53.00456475701822 0.0 
54.00456475701822 0.0 
55.00456475701822 0.0 
56.00456475701822 0.0 
#####################################################################
# End of data export. Simulation finished at: 2017-05-25T05:06+0000 #
#####################################################################
