#####################################################################
# Alchemist log file - simulation started at: 2017-05-22T15:06+0000 #
#####################################################################
# random = 4.0, targets = 3.1622776601683795, density = 2.519842099789746, gridShift = 1.0, perturbation = 0.0, connfactor = 1.0
#
# The columns have the following meaning: 
# time se[Mean] 
0.0 NaN 
1.0022337669741583 NaN 
2.0022337669741583 1.0 
3.0022337669741583 1.0 
4.002233766974158 1.0 
5.002233766974158 0.998248501539363 
6.002233766974158 0.9923649674534489 
7.002233766974158 0.9934883897115083 
8.002233766974157 0.9859072192249356 
9.002233766974157 0.9807075484044278 
10.002233766974157 0.9918734714036674 
11.002233766974157 0.9766264873348541 
12.002233766974157 0.9776114044372672 
13.002233766974157 0.9634859176236631 
14.002233766974157 0.9616517010702083 
15.002233766974157 0.9553834325530447 
16.002233766974157 0.954671675756224 
17.002233766974157 0.9481023534020538 
18.002233766974157 0.9467884889312197 
19.002233766974157 0.9435038277541342 
20.002233766974157 0.9467884889312197 
21.002233766974157 0.9454746244603857 
22.002233766974157 0.9559855402270583 
23.002233766974157 0.9533578112853899 
24.002233766974157 0.9671533882291479 
25.002233766974157 0.9664964559937308 
26.002233766974157 0.9783212362312377 
27.002233766974157 0.9772545635374319 
28.002233766974157 0.9792542162765223 
29.002233766974157 0.9702428010229706 
30.002233766974157 0.9631993013080324 
31.002233766974157 0.9591384464317474 
32.00223376697416 0.9547909752398319 
33.00223376697416 0.9565078426590792 
34.00223376697416 0.9367623760608154 
35.00223376697416 0.9263524469041245 
36.00223376697416 0.916408051605288 
37.00223376697416 0.8926286548240909 
38.00223376697416 0.886467147925459 
39.00223376697416 0.8741633714834218 
40.00223376697416 0.8516738019839828 
41.00223376697416 0.8365095423446243 
42.00223376697416 0.8208903173531749 
43.00223376697416 0.7973533061785189 
44.00223376697416 0.7824718255223667 
45.00223376697416 0.7573198833665938 
46.00223376697416 0.7388594188696879 
47.00223376697416 0.6991934308099123 
48.00223376697416 0.6802856946356768 
49.00223376697416 0.6376437992472223 
50.00223376697416 0.628988243382169 
51.00223376697416 0.6018770735471585 
52.00223376697416 0.5813794377654972 
53.00223376697416 0.5647560646530461 
54.00223376697416 0.5315670558403716 
55.00223376697416 0.5224709784812394 
56.00223376697416 0.48700626911960737 
57.00223376697416 0.485160496212414 
58.00223376697416 0.44666504862406337 
59.00223376697416 0.4417798939872379 
60.00223376697416 0.4314796202899913 
61.00223376697416 0.4044165248331343 
62.00223376697416 0.3990639240088794 
63.00223376697416 0.37606457726922005 
64.00223376697416 0.36770144441153463 
65.00223376697416 0.3399025613054182 
66.00223376697416 0.3267466105813387 
67.00223376697416 0.31665316063100535 
68.00223376697416 0.3090335281072552 
69.00223376697416 0.31431884888131845 
70.00223376697416 0.2911175162484212 
71.00223376697416 0.28727116612053755 
72.00223376697416 0.27613598613716256 
73.00223376697416 0.2666148063166656 
74.00223376697416 0.27392861051610873 
75.00223376697416 0.2632464645453376 
76.00223376697416 0.2501136011821848 
77.00223376697416 0.2632455717469251 
78.00223376697416 0.25204983655005875 
79.00223376697416 0.22706426773479715 
80.00223376697416 0.2227139597317064 
81.00223376697416 0.20852594834529822 
82.00223376697416 0.19581629412384743 
83.00223376697416 0.1870597706587246 
84.00223376697416 0.18955482014639682 
85.00223376697416 0.16127975230037467 
86.00223376697416 0.17330656278758197 
87.00223376697416 0.14992242458693533 
88.00223376697416 0.16148178255007523 
89.00223376697416 0.15689189406843146 
90.00223376697416 0.13994531057628434 
91.00223376697416 0.14993108709976094 
92.00223376697416 0.13237083324322454 
93.00223376697416 0.1334778993136954 
94.00223376697416 0.13118197989817337 
95.00223376697416 0.1323544517090859 
96.00223376697416 0.134160768394489 
97.00223376697416 0.13431658590251147 
98.00223376697416 0.13485232533465827 
99.00223376697416 0.13485232533465827 
100.00223376697416 0.13497063063365333 
101.00223376697416 0.1350889359326484 
102.00223376697416 0.1350889359326484 
103.00223376697416 0.1350889359326484 
104.00223376697416 0.1350889359326484 
105.00223376697416 0.1350889359326484 
106.00223376697416 0.1350889359326484 
107.00223376697416 0.1350889359326484 
108.00223376697416 0.1350889359326484 
109.00223376697416 0.1350889359326484 
110.00223376697416 0.1350889359326484 
111.00223376697416 0.1350889359326484 
112.00223376697416 0.1350889359326484 
113.00223376697416 0.1350889359326484 
114.00223376697416 0.1350889359326484 
115.00223376697416 0.1350889359326484 
116.00223376697416 0.1350889359326484 
117.00223376697416 0.1350889359326484 
118.00223376697416 0.1350889359326484 
119.00223376697416 0.1350889359326484 
120.00223376697416 0.1350889359326484 
121.00223376697416 0.1350889359326484 
122.00223376697416 0.1350889359326484 
123.00223376697416 0.1350889359326484 
124.00223376697416 0.1350889359326484 
125.00223376697416 0.1350889359326484 
126.00223376697416 0.1350889359326484 
127.00223376697416 0.1350889359326484 
128.00223376697414 0.1350889359326484 
129.00223376697414 0.1350889359326484 
130.00223376697414 0.1350889359326484 
131.00223376697414 0.1350889359326484 
132.00223376697414 0.1350889359326484 
#####################################################################
# End of data export. Simulation finished at: 2017-05-22T15:08+0000 #
#####################################################################
