#####################################################################
# Alchemist log file - simulation started at: 2017-05-26T03:32+0000 #
#####################################################################
# random = 9.0, targets = 3.1622776601683795, density = 7.099073319511142, gridShift = 0.0, perturbation = 0.0, connfactor = 1.5
#
# The columns have the following meaning: 
# time se[Mean] 
0.0 NaN 
1.0015323036356916 NaN 
2.001532303635692 1.010445747939291 
3.001532303635692 1.019877708593101 
4.001532303635692 1.0384039682374002 
5.001532303635692 1.0593008321506123 
6.001532303635692 1.1003264136198379 
7.001532303635692 1.1721581593649941 
8.001532303635692 1.120602399345655 
9.001532303635692 1.1981918841595607 
10.001532303635692 1.1096005738414478 
11.001532303635692 1.1850332075596233 
12.001532303635692 1.0874031194542564 
13.001532303635692 1.2123145245106872 
14.001532303635692 1.1771743786145772 
15.001532303635692 1.324026226362669 
16.001532303635692 1.4660151939147599 
17.001532303635692 1.6072123767473954 
18.001532303635692 1.7620723816631325 
19.001532303635692 1.933450704097624 
20.001532303635692 2.1025073735403703 
21.001532303635692 2.2767860809049587 
22.001532303635692 2.4038390935716563 
23.001532303635692 2.4478448278534124 
24.001532303635692 2.401242439696419 
25.001532303635692 2.410845500860899 
26.001532303635692 2.3474822369648884 
27.001532303635692 2.3076672294215643 
28.001532303635692 2.190604412015703 
29.001532303635692 2.166815417479349 
30.001532303635692 2.0560080528120874 
31.001532303635692 1.9993311916385925 
32.00153230363569 1.9461794687578797 
33.00153230363569 1.8078293913982022 
34.00153230363569 1.8229609285755153 
35.00153230363569 1.693689485011396 
36.00153230363569 1.7229073784535949 
37.00153230363569 1.6049807950057386 
38.00153230363569 1.5775949693649367 
39.00153230363569 1.499997751399926 
40.00153230363569 1.4415080067798656 
41.00153230363569 1.3865085220646547 
42.00153230363569 1.3057056565889142 
43.00153230363569 1.269372671842914 
44.00153230363569 1.2026949573187427 
45.00153230363569 1.1610946185327935 
46.00153230363569 1.0600657001401528 
47.00153230363569 1.0312083848644922 
48.00153230363569 0.9729309926334412 
49.00153230363569 0.9131872799094285 
50.00153230363569 0.8622173091581153 
51.00153230363569 0.788577119878057 
52.00153230363569 0.725661792155211 
53.00153230363569 0.6593154118415488 
54.00153230363569 0.5958261045268654 
55.00153230363569 0.5460275496281903 
56.00153230363569 0.4955959459364167 
57.00153230363569 0.4560131196631804 
58.00153230363569 0.4284406449625602 
59.00153230363569 0.40602377167507014 
60.00153230363569 0.3852078100311635 
61.00153230363569 0.36086485384853584 
62.00153230363569 0.34130724681146507 
63.00153230363569 0.3220975599316418 
64.00153230363568 0.3013040709678904 
65.00153230363568 0.2822840336089701 
66.00153230363568 0.26303761209527393 
67.00153230363568 0.25041898693577697 
68.00153230363568 0.23531130175584508 
69.00153230363568 0.22025158877839712 
70.00153230363568 0.2102147061000616 
71.00153230363568 0.19831504583264992 
72.00153230363568 0.18938751917286029 
73.00153230363568 0.18201246420708894 
74.00153230363568 0.17475843637324698 
75.00153230363568 0.1683567479482899 
76.00153230363568 0.1613666798650144 
77.00153230363568 0.1567390464476708 
78.00153230363568 0.15239956850834913 
79.00153230363568 0.14799435936651748 
80.00153230363568 0.14441543274605187 
81.00153230363568 0.14161099467797156 
82.00153230363568 0.13831477325397443 
83.00153230363568 0.13575578704969452 
84.00153230363568 0.13436713571994074 
85.00153230363568 0.1336459800334779 
86.00153230363568 0.13325387077384707 
87.00153230363568 0.13489917041254984 
88.00153230363568 0.13408040068260219 
89.00153230363568 0.13578160211057014 
90.00153230363568 0.1362930565782938 
91.00153230363568 0.1374299820002205 
92.00153230363568 0.13704004879258588 
93.00153230363568 0.1389328265956188 
94.00153230363568 0.13746821195050998 
95.00153230363568 0.13733992187161584 
96.00153230363568 0.13697697367446948 
97.00153230363568 0.13726396592745138 
98.00153230363568 0.1364441029340695 
99.00153230363568 0.1377275500961236 
100.00153230363568 0.13657822879467313 
101.00153230363568 0.13552475490888438 
102.00153230363568 0.13619044034382688 
103.00153230363568 0.13610693785597291 
104.00153230363568 0.13543673026244557 
105.00153230363568 0.13613761880550931 
106.00153230363568 0.13629080746100994 
107.00153230363568 0.13568945735852897 
108.00153230363568 0.1359173392867854 
109.00153230363568 0.13575164793420208 
110.00153230363568 0.1359643250433935 
111.00153230363568 0.135886658337249 
112.00153230363568 0.13605719656860302 
113.00153230363568 0.13614819464843053 
114.00153230363568 0.1359279151297066 
115.00153230363568 0.1357488924034403 
116.00153230363568 0.13611178473474364 
117.00153230363568 0.1359825032958472 
118.00153230363568 0.1358474928928003 
119.00153230363568 0.13603136249783734 
120.00153230363568 0.13554194425839936 
121.00153230363568 0.13557835417208625 
122.00153230363568 0.13545667514272233 
123.00153230363568 0.13554194425839936 
124.00153230363568 0.1352728055376853 
125.00153230363568 0.1352728055376853 
126.00153230363568 0.13508893593264829 
127.00153230363568 0.1352728055376853 
128.00153230363568 0.13508893593264829 
129.00153230363568 0.13508893593264829 
130.00153230363568 0.13508893593264829 
131.00153230363568 0.13508893593264829 
132.00153230363568 0.13508893593264829 
133.00153230363568 0.13508893593264829 
134.00153230363568 0.13508893593264829 
135.00153230363568 0.13508893593264829 
136.00153230363568 0.13508893593264829 
137.00153230363568 0.13508893593264829 
138.00153230363568 0.13508893593264829 
139.00153230363568 0.13508893593264829 
140.00153230363568 0.13508893593264829 
141.00153230363568 0.13508893593264829 
142.00153230363568 0.13508893593264829 
143.00153230363568 0.13508893593264829 
144.00153230363568 0.13508893593264829 
145.00153230363568 0.13508893593264829 
146.00153230363568 0.13508893593264829 
147.00153230363568 0.13508893593264829 
148.00153230363568 0.13508893593264829 
149.00153230363568 0.13508893593264829 
150.00153230363568 0.13508893593264829 
151.00153230363568 0.13508893593264829 
152.00153230363568 0.13508893593264829 
153.00153230363568 0.13508893593264829 
154.00153230363568 0.13508893593264829 
155.00153230363568 0.13508893593264829 
156.00153230363568 0.13508893593264829 
157.00153230363568 0.13508893593264829 
158.00153230363568 0.13508893593264829 
159.00153230363568 0.13508893593264829 
160.00153230363568 0.13508893593264829 
161.00153230363568 0.13508893593264829 
162.00153230363568 0.13508893593264829 
163.00153230363568 0.13508893593264829 
164.00153230363568 0.13508893593264829 
165.00153230363568 0.13508893593264829 
166.00153230363568 0.13508893593264829 
167.00153230363568 0.13508893593264829 
168.00153230363568 0.13508893593264829 
169.00153230363568 0.13508893593264829 
170.00153230363568 0.13508893593264829 
171.00153230363568 0.13508893593264829 
172.00153230363568 0.13508893593264829 
173.00153230363568 0.13508893593264829 
174.00153230363568 0.13508893593264829 
175.00153230363568 0.13508893593264829 
176.00153230363568 0.13508893593264829 
177.00153230363568 0.13508893593264829 
178.00153230363568 0.13508893593264829 
179.00153230363568 0.13508893593264829 
180.00153230363568 0.13508893593264829 
181.00153230363568 0.13508893593264829 
182.00153230363568 0.13508893593264829 
183.00153230363568 0.13508893593264829 
184.00153230363568 0.13508893593264829 
185.00153230363568 0.13508893593264829 
186.00153230363568 0.13508893593264829 
187.00153230363568 0.13508893593264829 
188.00153230363568 0.13508893593264829 
189.00153230363568 0.13508893593264829 
190.00153230363568 0.13508893593264829 
#####################################################################
# End of data export. Simulation finished at: 2017-05-26T03:36+0000 #
#####################################################################
