#####################################################################
# Alchemist log file - simulation started at: 2017-05-23T22:13+0000 #
#####################################################################
# random = 6.0, targets = 1.0, density = 0.4483936332993466, gridShift = 0.0, perturbation = 0.5, connfactor = 2.0
#
# The columns have the following meaning: 
# time se[Mean] 
0.0 NaN 
1.0115592716150654 NaN 
2.0115592716150656 1.0 
3.0115592716150656 1.0121527777777777 
4.011559271615066 1.4723307291666665 
5.011559271615066 3.557942708333334 
6.011559271615066 2.3496093749999996 
7.011559271615066 5.98969184027778 
8.011559271615067 6.548611111111109 
9.011559271615067 18.655707465277782 
10.011559271615067 11.49631076388889 
11.011559271615067 28.51475694444444 
12.011559271615067 20.490017361111107 
13.011559271615067 30.61328125 
14.011559271615067 29.174587673611107 
15.011559271615067 28.744249131944443 
16.011559271615067 27.339084201388886 
17.011559271615067 19.791883680555554 
18.011559271615067 20.435112847222218 
19.011559271615067 22.327148437499996 
20.011559271615067 23.71668836805555 
21.011559271615067 23.620117187499996 
22.011559271615067 24.671332465277775 
23.011559271615067 24.221137152777775 
24.011559271615067 25.876193576388886 
25.011559271615067 30.372612847222218 
26.011559271615067 27.829969618055554 
27.011559271615067 35.05859375000001 
28.011559271615067 30.557617187500004 
29.011559271615067 34.59863281250001 
30.011559271615067 33.026150173611114 
31.011559271615067 32.13671875 
32.01155927161507 32.13671875 
33.01155927161507 30.097656250000004 
34.01155927161507 26.01953125 
35.01155927161507 25.0 
36.01155927161507 25.0 
37.01155927161507 25.0 
38.01155927161507 25.0 
39.01155927161507 25.0 
40.01155927161507 25.0 
41.01155927161507 25.0 
42.01155927161507 25.0 
43.01155927161507 25.0 
44.01155927161507 25.0 
45.01155927161507 25.0 
46.01155927161507 25.0 
47.01155927161507 25.0 
#####################################################################
# End of data export. Simulation finished at: 2017-05-23T22:13+0000 #
#####################################################################
