#####################################################################
# Alchemist log file - simulation started at: 2017-05-25T16:47+0000 #
#####################################################################
# random = 18.0, targets = 31.622776601683793, density = 2.519842099789746, gridShift = 0.0, perturbation = 0.5, connfactor = 0.25
#
# The columns have the following meaning: 
# time se[Mean] 
0.0 NaN 
1.001562157851807 NaN 
2.001562157851807 1.0 
3.001562157851807 0.9993538523888924 
4.001562157851807 0.9961507959942539 
5.001562157851807 0.9907731529835819 
6.001562157851807 0.9839280648205735 
7.001562157851807 0.974338366997898 
8.001562157851808 0.9729686573237738 
9.001562157851808 0.9599648919894582 
10.001562157851808 0.9574149036211522 
11.001562157851808 0.9435241275746502 
12.001562157851808 0.941020411789741 
13.001562157851808 0.9259649279833133 
14.001562157851808 0.9198291208335003 
15.001562157851808 0.9156114354907067 
16.001562157851808 0.9037442252623666 
17.001562157851808 0.9034522779384854 
18.001562157851808 0.895218039513792 
19.001562157851808 0.8937155212922804 
20.001562157851808 0.8823496317220544 
21.001562157851808 0.8820922557006186 
22.001562157851808 0.8720774541083404 
23.001562157851808 0.861054943983132 
24.001562157851808 0.8587677681371136 
25.001562157851808 0.8395903273991864 
26.001562157851808 0.8227345868704046 
27.001562157851808 0.8123302965059711 
28.001562157851808 0.7818202434481407 
29.001562157851808 0.7744451374347078 
30.001562157851808 0.7369056136749013 
31.001562157851808 0.7365772887893702 
32.00156215785181 0.7190890140662254 
33.00156215785181 0.6886077760752456 
34.00156215785181 0.6523099530836298 
35.00156215785181 0.6469905155186997 
36.00156215785181 0.6312389385044891 
37.00156215785181 0.6076518230607715 
38.00156215785181 0.6035840011139946 
39.00156215785181 0.6065953518865237 
40.00156215785181 0.5815289575269377 
41.00156215785181 0.5778451758535127 
42.00156215785181 0.5688163394008464 
43.00156215785181 0.572613308559711 
44.00156215785181 0.5489298612290687 
45.00156215785181 0.545433783041868 
46.00156215785181 0.5381872064768254 
47.00156215785181 0.5220698603770174 
48.00156215785181 0.5176267999342273 
49.00156215785181 0.4964981953829273 
50.00156215785181 0.5161672479568957 
51.00156215785181 0.5106878365584475 
52.00156215785181 0.49048004467980144 
53.00156215785181 0.4933873054830693 
54.00156215785181 0.4953237934089685 
55.00156215785181 0.4809113850659127 
56.00156215785181 0.49069621638703104 
57.00156215785181 0.4863100125682773 
58.00156215785181 0.4971963551422756 
59.00156215785181 0.4772009675315668 
60.00156215785181 0.5079716701136597 
61.00156215785181 0.46960814384406147 
62.00156215785181 0.4789137567441815 
63.00156215785181 0.4804937374094089 
64.00156215785181 0.48285163159061784 
65.00156215785181 0.476195380824896 
66.00156215785181 0.477730954103201 
67.00156215785181 0.47419936001736585 
68.00156215785181 0.4643216032998411 
69.00156215785181 0.4556352178616429 
70.00156215785181 0.45967254679725705 
71.00156215785181 0.44950367781287487 
72.00156215785181 0.4507666681994614 
73.00156215785181 0.42967018816942837 
74.00156215785181 0.43663454500838994 
75.00156215785181 0.4470489067012697 
76.00156215785181 0.41500742487657444 
77.00156215785181 0.4178626380851236 
78.00156215785181 0.4154383104352746 
79.00156215785181 0.4148667085461423 
80.00156215785181 0.41713635855048103 
81.00156215785181 0.42031245985456694 
82.00156215785181 0.41923991858942183 
83.00156215785181 0.4194622215416826 
84.00156215785181 0.42422637349781145 
85.00156215785181 0.42436563146737327 
86.00156215785181 0.4249019020999458 
87.00156215785181 0.42529891476295656 
88.00156215785181 0.42529891476295656 
89.00156215785181 0.42529891476295656 
90.00156215785181 0.42529891476295656 
91.00156215785181 0.42529891476295656 
92.00156215785181 0.42529891476295656 
93.00156215785181 0.42529891476295656 
94.00156215785181 0.42529891476295656 
95.00156215785181 0.42529891476295656 
96.00156215785181 0.42529891476295656 
97.00156215785181 0.42529891476295656 
98.00156215785181 0.42529891476295656 
99.00156215785181 0.42529891476295656 
100.00156215785181 0.42529891476295656 
101.00156215785181 0.42529891476295656 
102.00156215785181 0.42529891476295656 
103.00156215785181 0.42529891476295656 
104.00156215785181 0.42529891476295656 
105.00156215785181 0.42529891476295656 
106.00156215785181 0.42529891476295656 
107.00156215785181 0.42529891476295656 
108.00156215785181 0.42529891476295656 
109.00156215785181 0.42529891476295656 
110.00156215785181 0.42529891476295656 
111.00156215785181 0.42529891476295656 
112.00156215785181 0.42529891476295656 
113.00156215785181 0.42529891476295656 
114.00156215785181 0.42529891476295656 
115.00156215785181 0.42529891476295656 
116.00156215785181 0.42529891476295656 
117.00156215785181 0.42529891476295656 
118.00156215785181 0.42529891476295656 
119.00156215785181 0.42529891476295656 
120.00156215785181 0.42529891476295656 
121.00156215785181 0.42529891476295656 
#####################################################################
# End of data export. Simulation finished at: 2017-05-25T16:47+0000 #
#####################################################################
