0.000000000000000000e+00 nan
6.661338147750939243e-16 8.120881425896321615e-03
1.332267629550187849e-15 1.858079952201120988e-01
8.881784197001252323e-16 1.860428396024594311e-01
2.664535259100375697e-15 1.859637740957326146e-01
1.776356839400250465e-15 1.854737583112086308e-01
1.776356839400250465e-15 1.841992787022340428e-01
0.000000000000000000e+00 1.831118380312053429e-01
5.329070518200751394e-15 1.824115654933106123e-01
3.552713678800500929e-15 1.812857668340443207e-01
3.552713678800500929e-15 1.802883124892166733e-01
1.776356839400250465e-15 1.794729427028011748e-01
3.552713678800500929e-15 1.782965609829826048e-01
5.329070518200751394e-15 1.775089606698059819e-01
0.000000000000000000e+00 1.764104138243228481e-01
5.329070518200751394e-15 1.756571268235181948e-01
1.065814103640150279e-14 1.745405845407541345e-01
3.552713678800500929e-15 1.736464782266353701e-01
7.105427357601001859e-15 1.728968132677919933e-01
3.552713678800500929e-15 1.718019696218498482e-01
7.105427357601001859e-15 1.712872573542345567e-01
0.000000000000000000e+00 1.700749998864047319e-01
3.552713678800500929e-15 1.696027361249940468e-01
1.065814103640150279e-14 1.683185031413766131e-01
7.105427357601001859e-15 1.675488902970418414e-01
1.421085471520200372e-14 1.658436893342407903e-01
1.065814103640150279e-14 1.649029571330951627e-01
0.000000000000000000e+00 1.636719965930251153e-01
0.000000000000000000e+00 1.628356632946814653e-01
1.065814103640150279e-14 1.624146686200282630e-01
1.065814103640150279e-14 1.619722637669341048e-01
3.552713678800500929e-15 1.621533653719016144e-01
2.131628207280300558e-14 1.623648061945877075e-01
1.421085471520200372e-14 1.632896384313424765e-01
7.105427357601001859e-15 1.637460768070016781e-01
0.000000000000000000e+00 1.643138177831277580e-01
1.421085471520200372e-14 1.640179983492163485e-01
7.105427357601001859e-15 1.647795042127403187e-01
7.105427357601001859e-15 1.634300460298797053e-01
2.131628207280300558e-14 1.626059069323916306e-01
1.421085471520200372e-14 1.623294042021108663e-01
1.421085471520200372e-14 1.615701640609266965e-01
0.000000000000000000e+00 1.609143601393586975e-01
2.842170943040400743e-14 1.604047834057051314e-01
7.105427357601001859e-15 1.586825640344541044e-01
7.105427357601001859e-15 1.563919199943877292e-01
2.131628207280300558e-14 1.541951895790936444e-01
1.421085471520200372e-14 1.528323938196717302e-01
1.421085471520200372e-14 1.510822793931543839e-01
0.000000000000000000e+00 1.486592341849925780e-01
2.842170943040400743e-14 1.467395976010338055e-01
0.000000000000000000e+00 1.435030867538152066e-01
2.131628207280300558e-14 1.422767620730876204e-01
7.105427357601001859e-15 1.390005783296832942e-01
0.000000000000000000e+00 1.360687971558177112e-01
2.131628207280300558e-14 1.340995260440726589e-01
0.000000000000000000e+00 1.302006994973546328e-01
3.552713678800500929e-14 1.286197240467516767e-01
2.131628207280300558e-14 1.264085652765928602e-01
0.000000000000000000e+00 1.240246917856320796e-01
2.131628207280300558e-14 1.218813038909317553e-01
1.421085471520200372e-14 1.197595040989550830e-01
7.105427357601001859e-15 1.183514819191165413e-01
2.131628207280300558e-14 1.161290848508137463e-01
4.263256414560601115e-14 1.142653426936090511e-01
0.000000000000000000e+00 1.133432670593866737e-01
2.842170943040400743e-14 1.131374594123431693e-01
1.421085471520200372e-14 1.119661638037978552e-01
1.421085471520200372e-14 1.117036264427676562e-01
2.842170943040400743e-14 1.113967324800887448e-01
0.000000000000000000e+00 1.103638314424860017e-01
4.263256414560601115e-14 1.097699499294434861e-01
2.842170943040400743e-14 1.102332285827243991e-01
1.421085471520200372e-14 1.098366586317347654e-01
1.421085471520200372e-14 1.102936728218223278e-01
1.421085471520200372e-14 1.104550291256555516e-01
1.421085471520200372e-14 1.104919874042741140e-01
4.263256414560601115e-14 1.107980099792767736e-01
4.263256414560601115e-14 1.111620131306467057e-01
0.000000000000000000e+00 1.113201168163654303e-01
2.842170943040400743e-14 1.114560137537943668e-01
2.842170943040400743e-14 1.116352754757713311e-01
2.842170943040400743e-14 1.115897158140405770e-01
2.842170943040400743e-14 1.115955178538312192e-01
0.000000000000000000e+00 1.116328259069726409e-01
4.263256414560601115e-14 1.116984285686125622e-01
5.684341886080801487e-14 1.116964593494550878e-01
1.421085471520200372e-14 1.117010772880549369e-01
1.421085471520200372e-14 1.117158338860502892e-01
1.421085471520200372e-14 1.117396667429946255e-01
1.421085471520200372e-14 1.117452768643599076e-01
4.263256414560601115e-14 1.117596563712187074e-01
4.263256414560601115e-14 1.117674231770637849e-01
0.000000000000000000e+00 1.117721126535112519e-01
2.842170943040400743e-14 1.117829746479992725e-01
4.263256414560601115e-14 1.117856310826536026e-01
2.842170943040400743e-14 1.117937403753700987e-01
2.842170943040400743e-14 1.117965064614819537e-01
0.000000000000000000e+00 1.117998206608591810e-01
1.421085471520200372e-14 1.118019589664506069e-01
5.684341886080801487e-14 1.118025253565064214e-01
2.842170943040400743e-14 1.118025266684162244e-01
0.000000000000000000e+00 1.118025266684162244e-01
1.421085471520200372e-14 1.118025266684162244e-01
4.263256414560601115e-14 1.118025266684162244e-01
4.263256414560601115e-14 1.118025266684162244e-01
1.421085471520200372e-14 1.118025266684162244e-01
1.421085471520200372e-14 1.118025266684162244e-01
0.000000000000000000e+00 1.118025266684162244e-01
1.421085471520200372e-14 1.118025266684162244e-01
4.263256414560601115e-14 1.118025266684162244e-01
1.421085471520200372e-14 1.118025266684162244e-01
0.000000000000000000e+00 1.118025266684162244e-01
4.263256414560601115e-14 1.118025266684162244e-01
7.105427357601001859e-14 1.118025266684162244e-01
1.421085471520200372e-14 1.118025266684162244e-01
4.263256414560601115e-14 1.118025266684162244e-01
2.842170943040400743e-14 1.118025266684162244e-01
0.000000000000000000e+00 1.118025266684162244e-01
5.684341886080801487e-14 1.118025266684162244e-01
4.263256414560601115e-14 1.118025266684162244e-01
0.000000000000000000e+00 1.118025266684162244e-01
2.842170943040400743e-14 1.118025266684162244e-01
5.684341886080801487e-14 1.118025266684162244e-01
1.421085471520200372e-14 1.118025266684162244e-01
2.842170943040400743e-14 1.118025266684162244e-01
4.263256414560601115e-14 1.118025266684162244e-01
1.421085471520200372e-14 1.118025266684162244e-01
8.526512829121202230e-14 1.118025266684162244e-01
