#####################################################################
# Alchemist log file - simulation started at: 2017-05-25T10:43+0000 #
#####################################################################
# random = 17.0, targets = 100.0, density = 0.894427190999916, gridShift = 1.0, perturbation = 0.0, connfactor = 1.5
#
# The columns have the following meaning: 
# time se[Mean] 
0.0 NaN 
1.0003034458253823 NaN 
2.0003034458253826 1.0516360416666666 
3.0003034458253826 1.0845578472222221 
4.0003034458253826 1.1273323842592593 
5.0003034458253826 1.1571661111111111 
6.0003034458253826 1.1856212037037037 
7.0003034458253826 1.2496275925925926 
8.000303445825383 1.294107638888889 
9.000303445825383 1.3252589583333334 
10.000303445825383 1.4321805787037039 
11.000303445825383 1.3293543287037037 
12.000303445825383 1.3104368518518519 
13.000303445825383 1.423188888888889 
14.000303445825383 1.3078831944444445 
15.000303445825383 1.306287476851852 
16.00030344582538 1.214915486111111 
17.00030344582538 1.1750919444444445 
18.00030344582538 1.1446998379629632 
19.00030344582538 1.078729513888889 
20.00030344582538 1.015224050925926 
21.00030344582538 0.9640810879629631 
22.00030344582538 0.8991855092592593 
23.00030344582538 0.8105089120370371 
24.00030344582538 0.7350559722222224 
25.00030344582538 0.698177939814815 
26.00030344582538 0.6738332407407409 
27.00030344582538 0.6550452546296298 
28.00030344582538 0.621725902777778 
29.00030344582538 0.5944325462962965 
30.00030344582538 0.5844077314814817 
31.00030344582538 0.5770081481481484 
32.00030344582538 0.5421108101851855 
33.00030344582538 0.5329108101851855 
34.00030344582538 0.516835578703704 
35.00030344582538 0.5154808101851854 
36.00030344582538 0.4929416666666669 
37.00030344582538 0.48211858796296314 
38.00030344582538 0.4755762037037039 
39.00030344582538 0.47535567129629647 
40.00030344582538 0.4745266203703706 
41.00030344582538 0.4720378009259261 
42.00030344582538 0.4728758101851854 
43.00030344582538 0.4759858333333335 
44.00030344582538 0.4759854166666669 
45.00030344582538 0.4761000000000002 
46.00030344582538 0.4761000000000002 
47.00030344582538 0.4761000000000002 
48.00030344582538 0.4761000000000002 
49.00030344582538 0.4761000000000002 
50.00030344582538 0.4761000000000002 
51.00030344582538 0.4761000000000002 
52.00030344582538 0.4761000000000002 
53.00030344582538 0.4761000000000002 
54.00030344582538 0.4761000000000002 
55.00030344582538 0.4761000000000002 
56.00030344582538 0.4761000000000002 
57.00030344582538 0.4761000000000002 
58.00030344582538 0.4761000000000002 
59.00030344582538 0.4761000000000002 
60.00030344582538 0.4761000000000002 
61.00030344582538 0.4761000000000002 
62.00030344582538 0.4761000000000002 
63.00030344582538 0.4761000000000002 
64.00030344582538 0.4761000000000002 
#####################################################################
# End of data export. Simulation finished at: 2017-05-25T10:43+0000 #
#####################################################################
