#####################################################################
# Alchemist log file - simulation started at: 2017-05-22T23:00+0000 #
#####################################################################
# random = 10.0, targets = 3.1622776601683795, density = 0.1591589639397027, gridShift = 1.0, perturbation = 0.5, connfactor = 0.5
#
# The columns have the following meaning: 
# time se[Mean] 
0.0 NaN 
1.0042217987811537 NaN 
2.0042217987811535 1.0 
3.0042217987811535 1.0 
4.0042217987811535 0.9423392623955099 
5.0042217987811535 0.8380996382543189 
6.0042217987811535 0.7915207517176179 
7.0042217987811535 0.530088358031307 
8.004221798781153 0.6880705708447773 
9.004221798781153 0.6237431665736205 
10.004221798781153 0.4834216913646403 
11.004221798781153 0.5662870566386035 
12.004221798781153 0.51529298570078 
13.004221798781153 0.3914335494889934 
14.004221798781153 0.37681373741839785 
15.004221798781153 0.21321764159650858 
16.004221798781153 0.2066096876502662 
17.004221798781153 0.29163933296114886 
18.004221798781153 0.3121660137409434 
19.004221798781153 0.6062015881140026 
20.004221798781153 0.6397104817072673 
21.004221798781153 0.3946808363963846 
22.004221798781153 0.4436867654585612 
23.004221798781153 0.24766304920985507 
24.004221798781153 0.05163933296114896 
25.004221798781153 0.05163933296114896 
26.004221798781153 0.002633403898972407 
27.004221798781153 0.002633403898972407 
28.004221798781153 0.002633403898972407 
29.004221798781153 0.002633403898972407 
30.004221798781153 0.002633403898972407 
31.004221798781153 0.002633403898972407 
#####################################################################
# End of data export. Simulation finished at: 2017-05-22T23:00+0000 #
#####################################################################
