#####################################################################
# Alchemist log file - simulation started at: 2017-05-20T10:30+0000 #
#####################################################################
# random = 1.0, targets = 1.0, density = 0.07978946395100113, gridShift = 1.0, perturbation = 0.5, connfactor = 0.75
#
# The columns have the following meaning: 
# time se[Mean] 
0.0 NaN 
1.016676366669265 NaN 
2.016676366669265 1.0 
3.016676366669265 1.0 
4.016676366669265 0.9680555555555556 
5.016676366669265 0.923611111111111 
6.016676366669265 0.8833333333333333 
7.016676366669265 0.5180555555555555 
8.016676366669266 0.4000000000000001 
9.016676366669266 0.41805555555555546 
10.016676366669266 0.16388888888888886 
11.016676366669266 0.11249999999999998 
12.016676366669266 0.07222222222222222 
13.016676366669266 0.06111111111111108 
14.016676366669266 0.20555555555555544 
15.016676366669266 0.2722222222222221 
16.016676366669266 0.027777777777777766 
17.016676366669266 0.24999999999999986 
18.016676366669266 0.17777777777777778 
19.016676366669266 0.06666666666666664 
20.016676366669266 0.005555555555555555 
21.016676366669266 0.0 
22.016676366669266 0.0 
23.016676366669266 0.0 
24.016676366669266 0.0 
#####################################################################
# End of data export. Simulation finished at: 2017-05-20T10:30+0000 #
#####################################################################
