#####################################################################
# Alchemist log file - simulation started at: 2017-05-25T18:35+0000 #
#####################################################################
# random = 18.0, targets = 100.0, density = 0.3174802103936399, gridShift = 0.0, perturbation = 0.5, connfactor = 0.1
#
# The columns have the following meaning: 
# time se[Mean] 
0.0 NaN 
1.0067713218599703 NaN 
2.0067713218599703 NaN 
3.0067713218599703 0.9991877551020408 
4.00677132185997 0.9953433673469387 
5.00677132185997 0.9943204081632653 
6.00677132185997 0.9866836734693878 
7.00677132185997 0.980848469387755 
8.00677132185997 0.9754224489795918 
9.00677132185997 0.967175 
10.00677132185997 0.9758071428571429 
11.00677132185997 0.9701704081632653 
12.00677132185997 0.971159693877551 
13.00677132185997 0.9751719387755102 
14.00677132185997 0.973159693877551 
15.00677132185997 0.9755535714285715 
16.006771321859972 0.9785438775510203 
17.006771321859972 0.9736979591836734 
18.006771321859972 0.9692336734693877 
19.006771321859972 0.948840306122449 
20.006771321859972 0.9668510204081633 
21.006771321859972 0.9454142857142858 
22.006771321859972 0.9501525510204082 
23.006771321859972 0.933640306122449 
24.006771321859972 0.9242545918367348 
25.006771321859972 0.9138882653061224 
26.006771321859972 0.9120581632653061 
27.006771321859972 0.9148545918367347 
28.006771321859972 0.9240826530612245 
29.006771321859972 0.9300301020408163 
30.006771321859972 0.9332913265306122 
31.006771321859972 0.9348433673469387 
32.00677132185997 0.9377714285714285 
33.00677132185997 0.9399229591836734 
34.00677132185997 0.9409 
35.00677132185997 0.9409 
36.00677132185997 0.9409 
37.00677132185997 0.9409 
38.00677132185997 0.9409 
39.00677132185997 0.9409 
40.00677132185997 0.9409 
41.00677132185997 0.9409 
42.00677132185997 0.9409 
43.00677132185997 0.9409 
44.00677132185997 0.9409 
45.00677132185997 0.9409 
46.00677132185997 0.9409 
47.00677132185997 0.9409 
48.00677132185997 0.9409 
#####################################################################
# End of data export. Simulation finished at: 2017-05-25T18:35+0000 #
#####################################################################
