#####################################################################
# Alchemist log file - simulation started at: 2017-05-26T01:00+0000 #
#####################################################################
# random = 19.0, targets = 31.622776601683793, density = 10.026386447354522, gridShift = 0.0, perturbation = 0.5, connfactor = 1.5
#
# The columns have the following meaning: 
# time se[Mean] 
0.0 NaN 
1.0036597452439835 NaN 
2.0036597452439837 1.0077557761673488 
3.0036597452439837 1.014658703508317 
4.003659745243984 1.0181646218308757 
5.003659745243984 1.023950774746688 
6.003659745243984 1.0149437422955305 
7.003659745243984 1.0117094248413667 
8.003659745243983 1.0172884861295555 
9.003659745243983 1.0159429224590864 
10.003659745243983 1.0203364078218176 
11.003659745243983 1.024198903517699 
12.003659745243983 1.0262063179954164 
13.003659745243983 1.0319688739980888 
14.003659745243983 1.0368028446825668 
15.003659745243983 1.0414792850221792 
16.003659745243983 1.0456270021283598 
17.003659745243983 1.0526104515355204 
18.003659745243983 1.056978264708812 
19.003659745243983 1.0648689451617506 
20.003659745243983 1.066997373974825 
21.003659745243983 1.0755457402002058 
22.003659745243983 1.0752091085598385 
23.003659745243983 1.0854630110622305 
24.003659745243983 1.0879018991922578 
25.003659745243983 1.0866010448888055 
26.003659745243983 1.0950213588724584 
27.003659745243983 1.090621002750392 
28.003659745243983 1.09769633564153 
29.003659745243983 1.0943755912613715 
30.003659745243983 1.0975506994749342 
31.003659745243983 1.0994800863772716 
32.00365974524398 1.1009630992816748 
33.00365974524398 1.1076569445986653 
34.00365974524398 1.1092239674683981 
35.00365974524398 1.1116808102274665 
36.00365974524398 1.119596960033767 
37.00365974524398 1.1305250895248482 
38.00365974524398 1.1373252750106706 
39.00365974524398 1.153431544880441 
40.00365974524398 1.1812011888420269 
41.00365974524398 1.193515245877283 
42.00365974524398 1.2487452182826733 
43.00365974524398 1.2645739373977196 
44.00365974524398 1.3235280544464156 
45.00365974524398 1.374823655445503 
46.00365974524398 1.4167539529248803 
47.00365974524398 1.495687346834134 
48.00365974524398 1.55863342168053 
49.00365974524398 1.6259692803599366 
50.00365974524398 1.6839267748662219 
51.00365974524398 1.7720990031856505 
52.00365974524398 1.8460562256586457 
53.00365974524398 1.9404281682484321 
54.00365974524398 2.0124366201108175 
55.00365974524398 2.1127496865293343 
56.00365974524398 2.2161217739993777 
57.00365974524398 2.2968170146244034 
58.00365974524398 2.3693115556295017 
59.00365974524398 2.4994351436285416 
60.00365974524398 2.5847476309245256 
61.00365974524398 2.7124200350129812 
62.00365974524398 2.7535915336500563 
63.00365974524398 2.9066643877526332 
64.00365974524398 2.9348469506552934 
65.00365974524398 3.0344052700322175 
66.00365974524398 3.0862657273888408 
67.00365974524398 3.134684941826173 
68.00365974524398 3.1720440379545374 
69.00365974524398 3.286285428108004 
70.00365974524398 3.226128332503519 
71.00365974524398 3.3538262689216145 
72.00365974524398 3.398106935395656 
73.00365974524398 3.518813999107154 
74.00365974524398 3.3944692148345834 
75.00365974524398 3.4886957570955777 
76.00365974524398 3.4735619354111322 
77.00365974524398 3.4289432788205114 
78.00365974524398 3.4978595923779934 
79.00365974524398 3.3991580638052623 
80.00365974524398 3.429115445724066 
81.00365974524398 3.3344727234122393 
82.00365974524398 3.334634311859783 
83.00365974524398 3.305258279081234 
84.00365974524398 3.2403321174101896 
85.00365974524398 3.1943567972200655 
86.00365974524398 3.1878943320468247 
87.00365974524398 3.1786599842103307 
88.00365974524398 3.1103148282830406 
89.00365974524398 3.0991142309500046 
90.00365974524398 3.075083819557557 
91.00365974524398 3.1101197681923867 
92.00365974524398 2.918464188133073 
93.00365974524398 3.1033431566816705 
94.00365974524398 2.9809141552906553 
95.00365974524398 2.953364797108385 
96.00365974524398 2.8013142038231047 
97.00365974524398 2.861691285038259 
98.00365974524398 2.7935353669720144 
99.00365974524398 2.7848712261774686 
100.00365974524398 2.6245705282098037 
101.00365974524398 2.7213462407647064 
102.00365974524398 2.7054357968751135 
103.00365974524398 2.718883062381782 
104.00365974524398 2.4954991060977143 
105.00365974524398 2.6200895705074534 
106.00365974524398 2.507442725012642 
107.00365974524398 2.3988826871283324 
108.00365974524398 2.4268987092130327 
109.00365974524398 2.2372455815306442 
110.00365974524398 2.2242804537932037 
111.00365974524398 2.1179929075165442 
112.00365974524398 2.1680090323284995 
113.00365974524398 2.0847809445566705 
114.00365974524398 2.0305423761045467 
115.00365974524398 1.9544362076060375 
116.00365974524398 2.0155648468037435 
117.00365974524398 2.0165261855144783 
118.00365974524398 2.001311211738279 
119.00365974524398 2.048733348186876 
120.00365974524398 2.0271114070694454 
121.00365974524398 2.166762626194316 
122.00365974524398 2.047839952176614 
123.00365974524398 2.2180943171287715 
124.00365974524398 2.112526930867905 
125.00365974524398 2.152300559828463 
126.00365974524398 2.0673638673612547 
127.00365974524398 2.1229534602332047 
128.00365974524397 2.1983177467264423 
129.00365974524397 2.1764910548824212 
130.00365974524397 2.178187172392008 
131.00365974524397 2.206981284731442 
132.00365974524397 2.2977814848200175 
133.00365974524397 2.231847709735126 
134.00365974524397 2.2955009636060564 
135.00365974524397 2.4076325739803197 
136.00365974524397 2.2894006056409695 
137.00365974524397 2.5181677549217922 
138.00365974524397 2.504143587815827 
139.00365974524397 2.670870773910979 
140.00365974524397 2.62458996935579 
141.00365974524397 2.8049078261489417 
142.00365974524397 2.778352937565295 
143.00365974524397 2.9252386675763695 
144.00365974524397 2.6849541678688356 
145.00365974524397 3.0060536658330665 
146.00365974524397 3.0559951200414575 
147.00365974524397 3.578124836048488 
148.00365974524397 3.1317894742901893 
149.00365974524397 3.5316372934831457 
150.00365974524397 3.506118268638089 
151.00365974524397 3.546655079353108 
152.00365974524397 3.7932727133256456 
153.00365974524397 3.4853452436019454 
154.00365974524397 3.699615824770483 
155.00365974524397 3.5951768856494577 
156.00365974524397 5.862144938185064 
157.00365974524397 3.8822634161205554 
158.00365974524397 14.408292849113627 
159.00365974524397 16.43482798890989 
160.00365974524397 20.885875273393896 
161.00365974524397 21.000321109511223 
162.00365974524397 31.550573048621278 
163.00365974524397 27.441746471466956 
164.00365974524397 38.01572348954529 
165.00365974524397 23.674514394305053 
166.00365974524397 38.07825559719514 
167.00365974524397 40.70901485729501 
168.00365974524397 63.546581469739955 
169.00365974524397 40.51979622280926 
170.00365974524397 57.00167611330969 
171.00365974524397 55.10185097805172 
172.00365974524397 55.22430785354176 
173.00365974524397 65.72472665007697 
174.00365974524397 48.820775880587284 
175.00365974524397 57.34274982206215 
176.00365974524397 51.28406436040197 
177.00365974524397 55.2209725589904 
178.00365974524397 59.59495212642093 
179.00365974524397 57.706078528718955 
180.00365974524397 51.080806400303224 
181.00365974524397 59.43356553252072 
182.00365974524397 63.414693336830865 
183.00365974524397 61.50196432034726 
184.00365974524397 65.48833636185854 
185.00365974524397 63.14411648344872 
186.00365974524397 80.12929141734382 
187.00365974524397 58.73557145936516 
188.00365974524397 84.1025116456937 
189.00365974524397 65.02217470308914 
190.00365974524397 69.16903502329566 
191.00365974524397 50.235689955921586 
192.00365974524397 56.54617820405853 
193.00365974524397 62.857454485377446 
194.00365974524397 58.65640603708218 
195.00365974524397 54.46942712826702 
196.00365974524397 56.54590402840716 
197.00365974524397 67.09199622493315 
198.00365974524397 52.371424260637355 
199.00365974524397 58.64979783372773 
200.00365974524397 67.0604924325995 
201.00365974524397 50.19106093121439 
202.00365974524397 45.99790838766473 
203.00365974524397 33.334214632365565 
204.00365974524397 41.73325806638546 
205.00365974524397 29.10748333969986 
206.00365974524397 18.546836398618822 
207.00365974524397 22.766927278675457 
208.00365974524397 8.018358602896818 
209.00365974524397 12.219123087467503 
210.00365974524397 8.008607999533304 
211.00365974524397 3.7974805727339054 
212.00365974524397 3.7974425295077436 
213.00365974524397 3.797498848249649 
214.00365974524397 3.797404371497376 
215.00365974524397 3.797366596101028 
216.00365974524397 3.797366596101028 
217.00365974524397 3.797366596101028 
218.00365974524397 3.797366596101028 
219.00365974524397 3.797366596101028 
220.00365974524397 3.797366596101028 
221.00365974524397 3.797366596101028 
222.00365974524397 3.797366596101028 
223.00365974524397 3.797366596101028 
224.00365974524397 3.797366596101028 
225.00365974524397 3.797366596101028 
226.00365974524397 3.797366596101028 
227.00365974524397 3.797366596101028 
228.00365974524397 3.797366596101028 
229.00365974524397 3.797366596101028 
230.00365974524397 3.797366596101028 
231.00365974524397 3.797366596101028 
232.00365974524397 3.797366596101028 
233.00365974524397 3.797366596101028 
234.00365974524397 3.797366596101028 
235.00365974524397 3.797366596101028 
236.00365974524397 3.797366596101028 
237.00365974524397 3.797366596101028 
238.00365974524397 3.797366596101028 
239.00365974524397 3.797366596101028 
240.00365974524397 3.797366596101028 
241.00365974524397 3.797366596101028 
242.00365974524397 3.797366596101028 
243.00365974524397 3.797366596101028 
244.00365974524397 3.797366596101028 
245.00365974524397 3.797366596101028 
246.00365974524397 3.797366596101028 
247.00365974524397 3.797366596101028 
248.00365974524397 3.797366596101028 
249.00365974524397 3.797366596101028 
250.00365974524397 3.797366596101028 
251.00365974524397 3.797366596101028 
252.00365974524397 3.797366596101028 
253.00365974524397 3.797366596101028 
254.00365974524397 3.797366596101028 
255.00365974524397 3.797366596101028 
256.00365974524397 3.797366596101028 
257.00365974524397 3.797366596101028 
258.00365974524397 3.797366596101028 
259.00365974524397 3.797366596101028 
260.00365974524397 3.797366596101028 
261.00365974524397 3.797366596101028 
262.00365974524397 3.797366596101028 
263.00365974524397 3.797366596101028 
264.00365974524397 3.797366596101028 
265.00365974524397 3.797366596101028 
266.00365974524397 3.797366596101028 
267.00365974524397 3.797366596101028 
268.00365974524397 3.797366596101028 
269.00365974524397 3.797366596101028 
270.00365974524397 3.797366596101028 
271.00365974524397 3.797366596101028 
272.00365974524397 3.797366596101028 
273.00365974524397 3.797366596101028 
274.00365974524397 3.797366596101028 
275.00365974524397 3.797366596101028 
276.00365974524397 3.797366596101028 
277.00365974524397 3.797366596101028 
278.00365974524397 3.797366596101028 
279.00365974524397 3.797366596101028 
280.00365974524397 3.797366596101028 
281.00365974524397 3.797366596101028 
282.00365974524397 3.797366596101028 
283.00365974524397 3.797366596101028 
284.00365974524397 3.797366596101028 
285.00365974524397 3.797366596101028 
286.00365974524397 3.797366596101028 
287.00365974524397 3.797366596101028 
288.00365974524397 3.797366596101028 
#####################################################################
# End of data export. Simulation finished at: 2017-05-26T01:02+0000 #
#####################################################################
