#####################################################################
# Alchemist log file - simulation started at: 2017-05-20T01:28+0000 #
#####################################################################
# random = 0.0, targets = 31.622776601683793, density = 0.3174802103936399, gridShift = 0.0, perturbation = 0.0, connfactor = 0.25
#
# The columns have the following meaning: 
# time se[Mean] 
0.0 NaN 
1.0011337332612453 NaN 
2.0011337332612453 1.0 
3.0011337332612453 0.9975001815019033 
4.001133733261245 0.9876641728156392 
5.001133733261245 0.9693032891819553 
6.001133733261245 0.9485650360297666 
7.001133733261245 0.9391887476600786 
8.001133733261245 0.9284636422640067 
9.001133733261245 0.9012984354751702 
10.001133733261245 0.8923551931808116 
11.001133733261245 0.861979075719218 
12.001133733261245 0.8364926179295546 
13.001133733261245 0.8087939946790172 
14.001133733261245 0.7999225097782751 
15.001133733261245 0.7855489124867245 
16.001133733261245 0.7775968682191348 
17.001133733261245 0.7807046042887171 
18.001133733261245 0.7672365738665887 
19.001133733261245 0.766830141531872 
20.001133733261245 0.7693667778522137 
21.001133733261245 0.763495648092675 
22.001133733261245 0.7627009240128105 
23.001133733261245 0.7645437432827664 
24.001133733261245 0.7675548391487094 
25.001133733261245 0.7671767514851944 
26.001133733261245 0.7645301378405895 
27.001133733261245 0.7630177871865297 
28.001133733261245 0.7630177871865297 
29.001133733261245 0.7630177871865297 
30.001133733261245 0.7630177871865297 
31.001133733261245 0.7630177871865297 
32.00113373326124 0.7630177871865297 
33.00113373326124 0.7630177871865297 
34.00113373326124 0.7630177871865297 
35.00113373326124 0.7630177871865297 
36.00113373326124 0.7630177871865297 
37.00113373326124 0.7630177871865297 
38.00113373326124 0.7630177871865297 
39.00113373326124 0.7630177871865297 
#####################################################################
# End of data export. Simulation finished at: 2017-05-20T01:28+0000 #
#####################################################################
