#####################################################################
# Alchemist log file - simulation started at: 2017-05-26T08:20+0000 #
#####################################################################
# random = 9.0, targets = 31.622776601683793, density = 0.07978946395100113, gridShift = 0.0, perturbation = 0.0, connfactor = 0.5
#
# The columns have the following meaning: 
# time se[Mean] 
0.0 NaN 
1.0274843760556778 NaN 
2.0274843760556776 1.0403097207521048 
3.0274843760556776 1.067418979031286 
4.0274843760556776 1.0606698822868519 
5.0274843760556776 1.044100253478038 
6.0274843760556776 0.901285352147116 
7.0274843760556776 0.7128331609136683 
8.027484376055678 0.5972763833698995 
9.027484376055678 0.5159754144921945 
10.027484376055678 0.5005290958930677 
11.027484376055678 0.47867018501987363 
12.027484376055678 0.4835924185466484 
13.027484376055678 0.4691763660899704 
14.027484376055678 0.45263812624355115 
15.027484376055678 0.4384885436820295 
16.02748437605568 0.42529891476295667 
17.02748437605568 0.42529891476295667 
18.02748437605568 0.42529891476295667 
19.02748437605568 0.42529891476295667 
20.02748437605568 0.42529891476295667 
21.02748437605568 0.42529891476295667 
22.02748437605568 0.42529891476295667 
23.02748437605568 0.42529891476295667 
#####################################################################
# End of data export. Simulation finished at: 2017-05-26T08:20+0000 #
#####################################################################
