#####################################################################
# Alchemist log file - simulation started at: 2017-05-26T13:12+0000 #
#####################################################################
# random = 9.0, targets = 100.0, density = 2.519842099789746, gridShift = 1.0, perturbation = 0.5, connfactor = 0.75
#
# The columns have the following meaning: 
# time se[Mean] 
0.0 NaN 
1.0015323036356916 NaN 
2.001532303635692 1.0050597039473683 
3.001532303635692 1.0086227910270469 
4.001532303635692 1.0122688687865498 
5.001532303635692 1.0136354851973683 
6.001532303635692 1.0037834635416667 
7.001532303635692 1.0033114057931287 
8.001532303635692 1.0014635005482457 
9.001532303635692 0.9964506670321638 
10.001532303635692 0.9942143914473685 
11.001532303635692 0.9867726219846492 
12.001532303635692 0.9848308319627194 
13.001532303635692 0.9780167991593568 
14.001532303635692 0.9716930966739766 
15.001532303635692 0.9769337125365497 
16.001532303635692 0.973951886878655 
17.001532303635692 0.9802047149122807 
18.001532303635692 0.9816659790752924 
19.001532303635692 0.9800269028691521 
20.001532303635692 0.9843581734283626 
21.001532303635692 0.9820954130116959 
22.001532303635692 0.9801000593932748 
23.001532303635692 0.9803562431469298 
24.001532303635692 0.9764277891995614 
25.001532303635692 0.9768992233187135 
26.001532303635692 0.9727509525767544 
27.001532303635692 0.9662459498355264 
28.001532303635692 0.9628247281615497 
29.001532303635692 0.9568364743238305 
30.001532303635692 0.9473458927266082 
31.001532303635692 0.942789761513158 
32.00153230363569 0.9316715300621345 
33.00153230363569 0.9276112390350878 
34.00153230363569 0.9204905861659358 
35.00153230363569 0.9168179550438598 
36.00153230363569 0.8991329769736843 
37.00153230363569 0.9017391470211988 
38.00153230363569 0.9002428933662282 
39.00153230363569 0.8981445837902048 
40.00153230363569 0.8943353641264621 
41.00153230363569 0.8915259434393276 
42.00153230363569 0.8919548177083335 
43.00153230363569 0.8970164953399125 
44.00153230363569 0.8986375411184212 
45.00153230363569 0.8916449104532166 
46.00153230363569 0.9066508954678364 
47.00153230363569 0.9057427814327488 
48.00153230363569 0.9016334110014621 
49.00153230363569 0.9051611088267546 
50.00153230363569 0.9092314830043862 
51.00153230363569 0.9179277891995616 
52.00153230363569 0.9115976197002926 
53.00153230363569 0.9063041346856727 
54.00153230363569 0.9020541849415207 
55.00153230363569 0.8929421029788013 
56.00153230363569 0.8861772980628657 
57.00153230363569 0.8698164565058482 
58.00153230363569 0.8512814510233919 
59.00153230363569 0.8404818781980996 
60.00153230363569 0.8100467470760235 
61.00153230363569 0.7881615885416668 
62.00153230363569 0.7764811540570178 
63.00153230363569 0.7573974232456141 
64.00153230363568 0.7290116525036551 
65.00153230363568 0.7300619997258774 
66.00153230363568 0.7215975740131579 
67.00153230363568 0.7200284311038013 
68.00153230363568 0.7136513683296785 
69.00153230363568 0.7150492073282164 
70.00153230363568 0.7287298336988305 
71.00153230363568 0.734608020376462 
72.00153230363568 0.7383431674890351 
73.00153230363568 0.7358318485014622 
74.00153230363568 0.7457774671052634 
75.00153230363568 0.7618353344298245 
76.00153230363568 0.7656030381944444 
77.00153230363568 0.7769753495065789 
78.00153230363568 0.789849785270468 
79.00153230363568 0.8044812819809942 
80.00153230363568 0.8037409722222223 
81.00153230363568 0.8097195289656434 
82.00153230363568 0.8097292466191521 
83.00153230363568 0.8099753860562866 
84.00153230363568 0.8099015442251463 
85.00153230363568 0.81 
86.00153230363568 0.81 
87.00153230363568 0.81 
88.00153230363568 0.81 
89.00153230363568 0.81 
90.00153230363568 0.81 
91.00153230363568 0.81 
92.00153230363568 0.81 
93.00153230363568 0.81 
94.00153230363568 0.81 
95.00153230363568 0.81 
96.00153230363568 0.81 
97.00153230363568 0.81 
98.00153230363568 0.81 
99.00153230363568 0.81 
100.00153230363568 0.81 
101.00153230363568 0.81 
102.00153230363568 0.81 
103.00153230363568 0.81 
104.00153230363568 0.81 
105.00153230363568 0.81 
106.00153230363568 0.81 
107.00153230363568 0.81 
108.00153230363568 0.81 
109.00153230363568 0.81 
110.00153230363568 0.81 
111.00153230363568 0.81 
112.00153230363568 0.81 
113.00153230363568 0.81 
114.00153230363568 0.81 
115.00153230363568 0.81 
116.00153230363568 0.81 
117.00153230363568 0.81 
#####################################################################
# End of data export. Simulation finished at: 2017-05-26T13:13+0000 #
#####################################################################
