#####################################################################
# Alchemist log file - simulation started at: 2017-05-20T18:16+0000 #
#####################################################################
# random = 1.0, targets = 31.622776601683793, density = 0.11269076455391362, gridShift = 1.0, perturbation = 0.0, connfactor = 1.5
#
# The columns have the following meaning: 
# time se[Mean] 
0.0 NaN 
1.0048855897957667 NaN 
2.0048855897957667 1.2291322821616313 
3.0048855897957667 1.348040722842575 
4.004885589795767 1.6324280400026805 
5.004885589795767 1.6947999195396866 
6.004885589795767 1.550562894128314 
7.004885589795767 1.3421560928209142 
8.004885589795766 1.28200638392086 
9.004885589795766 1.1684787733086208 
10.004885589795766 1.0749316731959242 
11.004885589795766 0.8473504967922406 
12.004885589795766 0.7530171373418784 
13.004885589795766 0.5997827515392683 
14.004885589795766 0.5134883040938486 
15.004885589795766 0.40513330997431846 
16.004885589795766 0.33051163377741927 
17.004885589795766 0.29342925615059806 
18.004885589795766 0.24511737596480462 
19.004885589795766 0.23132114379878133 
20.004885589795766 0.2226924398383216 
21.004885589795766 0.12738209244872964 
22.004885589795766 0.14783541442694909 
23.004885589795766 0.08210512868016683 
24.004885589795766 0.01761836954928562 
25.004885589795766 0.012229104152800456 
26.004885589795766 0.008539297435368182 
27.004885589795766 0.008539297435368182 
28.004885589795766 0.006878957102340021 
29.004885589795766 0.006878957102340021 
30.004885589795766 0.006878957102340021 
31.004885589795766 0.006878957102340021 
32.00488558979576 0.006878957102340021 
33.00488558979576 0.006878957102340021 
34.00488558979576 0.006878957102340021 
35.00488558979576 0.006878957102340021 
36.00488558979576 0.006878957102340021 
#####################################################################
# End of data export. Simulation finished at: 2017-05-20T18:16+0000 #
#####################################################################
