#####################################################################
# Alchemist log file - simulation started at: 2017-05-24T02:24+0000 #
#####################################################################
# random = 13.0, targets = 31.622776601683793, density = 10.026386447354522, gridShift = 1.0, perturbation = 0.5, connfactor = 2.0
#
# The columns have the following meaning: 
# time se[Mean] 
0.0 NaN 
1.0002602723432414 NaN 
2.000260272343241 1.0234042751390922 
3.000260272343241 1.035832258307453 
4.000260272343241 1.0506217875965886 
5.000260272343241 1.0617817646704182 
6.000260272343241 1.0658963946677793 
7.000260272343241 1.0942039988127443 
8.00026027234324 1.1048433301451874 
9.00026027234324 1.1136312319249535 
10.00026027234324 1.1089513037585856 
11.00026027234324 1.1087010015521659 
12.00026027234324 1.0844820032455749 
13.00026027234324 1.0886693784555739 
14.00026027234324 1.0854416660195374 
15.00026027234324 1.09094150265701 
16.00026027234324 1.0979028841304108 
17.00026027234324 1.1119517994382833 
18.00026027234324 1.1189337474845034 
19.00026027234324 1.1277360795173619 
20.00026027234324 1.154964560977162 
21.00026027234324 1.164713502774386 
22.00026027234324 1.1709698724607358 
23.00026027234324 1.1813966390036912 
24.00026027234324 1.1699092511975142 
25.00026027234324 1.1833963396407525 
26.00026027234324 1.1807456599138852 
27.00026027234324 1.1754805704382252 
28.00026027234324 1.1937670935976012 
29.00026027234324 1.237159986063941 
30.00026027234324 1.2676386882927877 
31.00026027234324 1.344181802054251 
32.00026027234324 1.3896821832993418 
33.00026027234324 1.4770200158169258 
34.00026027234324 1.5767774506241083 
35.00026027234324 1.6302151258371138 
36.00026027234324 1.7641166105377488 
37.00026027234324 1.8329620034575647 
38.00026027234324 2.017493936085564 
39.00026027234324 2.0853792227646544 
40.00026027234324 2.1734197329087226 
41.00026027234324 2.3492168615659583 
42.00026027234324 2.3524074065705376 
43.00026027234324 2.5212520681934127 
44.00026027234324 2.6147040534688006 
45.00026027234324 2.616162134844931 
46.00026027234324 2.66670877990428 
47.00026027234324 2.7808887251628374 
48.00026027234324 2.7058152105685513 
49.00026027234324 2.7904900989232213 
50.00026027234324 2.782374050958301 
51.00026027234324 2.8918661275118684 
52.00026027234324 2.8792537454169627 
53.00026027234324 2.846928443631976 
54.00026027234324 3.011983927719133 
55.00026027234324 2.838521346486435 
56.00026027234324 3.0671028102857263 
57.00026027234324 2.959226708788746 
58.00026027234324 2.9351964649727185 
59.00026027234324 2.9455294299799735 
60.00026027234324 2.930329466754646 
61.00026027234324 2.9512156987044977 
62.00026027234324 2.95421246024907 
63.00026027234324 2.906752654501489 
64.00026027234324 2.99508112431262 
65.00026027234324 2.9431409847909853 
66.00026027234324 2.9595208383520966 
67.00026027234324 3.13326661256465 
68.00026027234324 3.0693475097994902 
69.00026027234324 3.175599069357224 
70.00026027234324 3.0372480284569368 
71.00026027234324 3.2235642272418956 
72.00026027234324 3.2298714800777772 
73.00026027234324 3.165567002214041 
74.00026027234324 3.333437193407167 
75.00026027234324 3.2734084972283197 
76.00026027234324 3.3057438395558054 
77.00026027234324 3.176938518420933 
78.00026027234324 3.2298643733762336 
79.00026027234324 3.3551176088208803 
80.00026027234324 3.372446337793719 
81.00026027234324 3.371464396022688 
82.00026027234324 3.4601637230877342 
83.00026027234324 3.602976396228626 
84.00026027234324 3.480934360776152 
85.00026027234324 3.797768941426809 
86.00026027234324 3.7248534815987555 
87.00026027234324 3.6550313529368066 
88.00026027234324 3.592726181373131 
89.00026027234324 3.7185481082499945 
90.00026027234324 3.791304771718362 
91.00026027234324 3.683557875764264 
92.00026027234324 3.952969439310811 
93.00026027234324 3.925982449517232 
94.00026027234324 3.98684831682744 
95.00026027234324 4.446863411389182 
96.00026027234324 4.547112831419278 
97.00026027234324 5.088651753540325 
98.00026027234324 5.809579333004419 
99.00026027234324 6.176748888560093 
100.00026027234324 6.703943425797584 
101.00026027234324 7.537007438805965 
102.00026027234324 7.216298960516591 
103.00026027234324 8.248031450577326 
104.00026027234324 9.018333127738718 
105.00026027234324 9.924263643531724 
106.00026027234324 10.233338777609502 
107.00026027234324 9.487247604917712 
108.00026027234324 12.367572252237144 
109.00026027234324 10.7609924881417 
110.00026027234324 14.063202712517173 
111.00026027234324 13.760841920903262 
112.00026027234324 12.790941340884839 
113.00026027234324 13.895719331359489 
114.00026027234324 13.830997153390676 
115.00026027234324 15.783473373183675 
116.00026027234324 15.133728934090772 
117.00026027234324 14.587962536248806 
118.00026027234324 17.007187843800967 
119.00026027234324 14.490925899496737 
120.00026027234324 18.12878104333971 
121.00026027234324 17.42639789993211 
122.00026027234324 18.073504619378202 
123.00026027234324 16.62257975661543 
124.00026027234324 16.04089471226654 
125.00026027234324 16.57631874057043 
126.00026027234324 14.928938619337833 
127.00026027234324 14.676742240661493 
128.00026027234324 15.672254306747401 
129.00026027234324 13.886700808764092 
130.00026027234324 13.178438221211364 
131.00026027234324 13.646643242736594 
132.00026027234324 13.055435990982824 
133.00026027234324 11.974382630349698 
134.00026027234324 11.486336313508632 
135.00026027234324 11.24121623352114 
136.00026027234324 10.718390434738469 
137.00026027234324 9.953693053947875 
138.00026027234324 10.338644274825404 
139.00026027234324 9.822214260584555 
140.00026027234324 8.853775002358615 
141.00026027234324 7.91929672848116 
142.00026027234324 6.495279541390582 
143.00026027234324 6.329277130619949 
144.00026027234324 6.31792840306333 
145.00026027234324 5.343918120535985 
146.00026027234324 5.296583973463392 
147.00026027234324 5.085493878278821 
148.00026027234324 4.723523452415523 
149.00026027234324 4.864232093341348 
150.00026027234324 4.855939637080268 
151.00026027234324 4.6678739122269635 
152.00026027234324 4.49428165191916 
153.00026027234324 4.3315104694254805 
154.00026027234324 4.316280379383274 
155.00026027234324 4.315567771956003 
156.00026027234324 4.317879591675483 
157.00026027234324 4.310264297714702 
158.00026027234324 4.308096432224541 
159.00026027234324 4.302244627567866 
160.00026027234324 4.298517685490438 
161.00026027234324 4.3031084485046724 
162.00026027234324 4.302616145389944 
163.00026027234324 4.3029503493429795 
164.00026027234324 4.305393185789045 
165.00026027234324 4.304400171129019 
166.00026027234324 4.304254720201355 
167.00026027234324 4.305078359885607 
168.00026027234324 4.305299895126012 
169.00026027234324 4.3059680871258355 
170.00026027234324 4.3061283991215795 
171.00026027234324 4.306128194308472 
172.00026027234324 4.30618824090237 
173.00026027234324 4.306228306100486 
174.00026027234324 4.306288557507493 
175.00026027234324 4.306348808914499 
176.00026027234324 4.306348808914499 
177.00026027234324 4.306348808914499 
178.00026027234324 4.306348808914499 
179.00026027234324 4.306348808914499 
180.00026027234324 4.306348808914499 
181.00026027234324 4.306348808914499 
182.00026027234324 4.306348808914499 
183.00026027234324 4.306348808914499 
184.00026027234324 4.306348808914499 
185.00026027234324 4.306348808914499 
186.00026027234324 4.306348808914499 
187.00026027234324 4.306348808914499 
188.00026027234324 4.306348808914499 
189.00026027234324 4.306348808914499 
190.00026027234324 4.306348808914499 
191.00026027234324 4.306348808914499 
192.00026027234324 4.306348808914499 
193.00026027234324 4.306348808914499 
194.00026027234324 4.306348808914499 
195.00026027234324 4.306348808914499 
196.00026027234324 4.306348808914499 
197.00026027234324 4.306348808914499 
198.00026027234324 4.306348808914499 
199.00026027234324 4.306348808914499 
200.00026027234324 4.306348808914499 
201.00026027234324 4.306348808914499 
202.00026027234324 4.306348808914499 
203.00026027234324 4.306348808914499 
204.00026027234324 4.306348808914499 
205.00026027234324 4.306348808914499 
206.00026027234324 4.306348808914499 
207.00026027234324 4.306348808914499 
208.00026027234324 4.306348808914499 
209.00026027234324 4.306348808914499 
210.00026027234324 4.306348808914499 
211.00026027234324 4.306348808914499 
212.00026027234324 4.306348808914499 
213.00026027234324 4.306348808914499 
214.00026027234324 4.306348808914499 
215.00026027234324 4.306348808914499 
216.00026027234324 4.306348808914499 
217.00026027234324 4.306348808914499 
218.00026027234324 4.306348808914499 
219.00026027234324 4.306348808914499 
220.00026027234324 4.306348808914499 
221.00026027234324 4.306348808914499 
222.00026027234324 4.306348808914499 
223.00026027234324 4.306348808914499 
224.00026027234324 4.306348808914499 
225.00026027234324 4.306348808914499 
226.00026027234324 4.306348808914499 
227.00026027234324 4.306348808914499 
228.00026027234324 4.306348808914499 
229.00026027234324 4.306348808914499 
230.00026027234324 4.306348808914499 
231.00026027234324 4.306348808914499 
232.00026027234324 4.306348808914499 
233.00026027234324 4.306348808914499 
234.00026027234324 4.306348808914499 
235.00026027234324 4.306348808914499 
236.00026027234324 4.306348808914499 
237.00026027234324 4.306348808914499 
238.00026027234324 4.306348808914499 
239.00026027234324 4.306348808914499 
240.00026027234324 4.306348808914499 
241.00026027234324 4.306348808914499 
242.00026027234324 4.306348808914499 
243.00026027234324 4.306348808914499 
244.00026027234324 4.306348808914499 
245.00026027234324 4.306348808914499 
#####################################################################
# End of data export. Simulation finished at: 2017-05-24T02:26+0000 #
#####################################################################
