#####################################################################
# Alchemist log file - simulation started at: 2017-05-24T22:49+0000 #
#####################################################################
# random = 7.0, targets = 31.622776601683793, density = 0.2247883923996312, gridShift = 1.0, perturbation = 0.0, connfactor = 0.25
#
# The columns have the following meaning: 
# time se[Mean] 
0.0 NaN 
1.0047104299125222 NaN 
2.0047104299125222 1.0 
3.0047104299125222 0.997759087385594 
4.004710429912523 0.995046649216664 
5.004710429912523 0.978968100440663 
6.004710429912523 0.9740147496573269 
7.004710429912523 0.9658734668965685 
8.004710429912523 0.9530208968445375 
9.004710429912523 0.955818304139936 
10.004710429912523 0.9487325063506595 
11.004710429912523 0.945292938580102 
12.004710429912523 0.9375765720357591 
13.004710429912523 0.9342590104287071 
14.004710429912523 0.9294815855712969 
15.004710429912523 0.9197521326818735 
16.00471042991252 0.911129439023707 
17.00471042991252 0.8893990254763657 
18.00471042991252 0.8696658958423052 
19.00471042991252 0.8698690747519761 
20.00471042991252 0.8515057906942531 
21.00471042991252 0.8422273254218144 
22.00471042991252 0.8424601296546187 
23.00471042991252 0.8387704912999877 
24.00471042991252 0.8272171760887107 
25.00471042991252 0.8311761309191501 
26.00471042991252 0.8137215064360838 
27.00471042991252 0.8154449102414817 
28.00471042991252 0.8181440503131108 
29.00471042991252 0.8181440503131108 
30.00471042991252 0.8192633403898971 
31.00471042991252 0.8192633403898971 
32.00471042991252 0.8192633403898971 
33.00471042991252 0.8192633403898971 
34.00471042991252 0.8192633403898971 
35.00471042991252 0.8192633403898971 
36.00471042991252 0.8192633403898971 
37.00471042991252 0.8192633403898971 
38.00471042991252 0.8192633403898971 
#####################################################################
# End of data export. Simulation finished at: 2017-05-24T22:49+0000 #
#####################################################################
