#####################################################################
# Alchemist log file - simulation started at: 2017-05-25T16:46+0000 #
#####################################################################
# random = 18.0, targets = 31.622776601683793, density = 2.519842099789746, gridShift = 0.0, perturbation = 0.0, connfactor = 0.75
#
# The columns have the following meaning: 
# time se[Mean] 
0.0 NaN 
1.001562157851807 NaN 
2.001562157851807 1.0097969008337306 
3.001562157851807 1.018602857836344 
4.001562157851807 1.0274320386051539 
5.001562157851807 1.0243736733481645 
6.001562157851807 1.0190333275329144 
7.001562157851807 1.009289397356923 
8.001562157851808 1.01137857581764 
9.001562157851808 0.9951130734014856 
10.001562157851808 0.9837879450301347 
11.001562157851808 0.9696042886493068 
12.001562157851808 0.9582335124542669 
13.001562157851808 0.9452297509666612 
14.001562157851808 0.9344338107368971 
15.001562157851808 0.9217937779298183 
16.001562157851808 0.9027575202160959 
17.001562157851808 0.8848437192009442 
18.001562157851808 0.8622488175726762 
19.001562157851808 0.833589483936575 
20.001562157851808 0.8081602021506842 
21.001562157851808 0.7754047730222745 
22.001562157851808 0.7494240642441936 
23.001562157851808 0.7249640563957969 
24.001562157851808 0.702908253205456 
25.001562157851808 0.6814302298027246 
26.001562157851808 0.6596459074524075 
27.001562157851808 0.6405834715309228 
28.001562157851808 0.6179420187634409 
29.001562157851808 0.6066028644056201 
30.001562157851808 0.5849382340833285 
31.001562157851808 0.5741963717533229 
32.00156215785181 0.5529365522817986 
33.00156215785181 0.5462626201203917 
34.00156215785181 0.539833243199899 
35.00156215785181 0.5324188830787072 
36.00156215785181 0.512797023128861 
37.00156215785181 0.5000907012687161 
38.00156215785181 0.48332399810900734 
39.00156215785181 0.4671205200514852 
40.00156215785181 0.44688600327445066 
41.00156215785181 0.4255845561120498 
42.00156215785181 0.42358878633344743 
43.00156215785181 0.40371452638220506 
44.00156215785181 0.394410044521785 
45.00156215785181 0.3862859607561606 
46.00156215785181 0.37691236065334593 
47.00156215785181 0.3600970627130713 
48.00156215785181 0.35593502627476165 
49.00156215785181 0.3380993631473236 
50.00156215785181 0.3299650125727073 
51.00156215785181 0.3236015372102184 
52.00156215785181 0.3150541610736509 
53.00156215785181 0.3046067101246302 
54.00156215785181 0.29793373790063715 
55.00156215785181 0.2863535227685655 
56.00156215785181 0.2818479859936569 
57.00156215785181 0.27712246984237676 
58.00156215785181 0.2757629433775181 
59.00156215785181 0.2699712604487282 
60.00156215785181 0.26674287028070637 
61.00156215785181 0.2632424129800516 
62.00156215785181 0.26190348122271306 
63.00156215785181 0.2555883272595334 
64.00156215785181 0.25486170674117686 
65.00156215785181 0.25035606179531483 
66.00156215785181 0.2506933237139687 
67.00156215785181 0.2503763725637252 
68.00156215785181 0.25091877031400167 
69.00156215785181 0.24947067865887332 
70.00156215785181 0.24841079856122414 
71.00156215785181 0.24691854889401765 
72.00156215785181 0.24669755762421447 
73.00156215785181 0.2458341654036301 
74.00156215785181 0.24553903150248407 
75.00156215785181 0.24500998245813707 
76.00156215785181 0.24516096027564685 
77.00156215785181 0.24504357017809483 
78.00156215785181 0.24497024325797942 
79.00156215785181 0.24464329979912092 
80.00156215785181 0.24439809220497705 
81.00156215785181 0.24412563932259498 
82.00156215785181 0.24407114874611857 
83.00156215785181 0.24407114874611857 
84.00156215785181 0.24407114874611857 
85.00156215785181 0.24407114874611857 
86.00156215785181 0.24407114874611857 
87.00156215785181 0.24407114874611857 
88.00156215785181 0.24407114874611857 
89.00156215785181 0.24407114874611857 
90.00156215785181 0.24407114874611857 
91.00156215785181 0.24407114874611857 
92.00156215785181 0.24407114874611857 
93.00156215785181 0.24407114874611857 
94.00156215785181 0.24407114874611857 
95.00156215785181 0.24407114874611857 
96.00156215785181 0.24407114874611857 
97.00156215785181 0.24407114874611857 
98.00156215785181 0.24407114874611857 
99.00156215785181 0.24407114874611857 
100.00156215785181 0.24407114874611857 
101.00156215785181 0.24407114874611857 
102.00156215785181 0.24407114874611857 
103.00156215785181 0.24407114874611857 
104.00156215785181 0.24407114874611857 
105.00156215785181 0.24407114874611857 
106.00156215785181 0.24407114874611857 
107.00156215785181 0.24407114874611857 
108.00156215785181 0.24407114874611857 
109.00156215785181 0.24407114874611857 
110.00156215785181 0.24407114874611857 
111.00156215785181 0.24407114874611857 
112.00156215785181 0.24407114874611857 
113.00156215785181 0.24407114874611857 
114.00156215785181 0.24407114874611857 
115.00156215785181 0.24407114874611857 
116.00156215785181 0.24407114874611857 
117.00156215785181 0.24407114874611857 
#####################################################################
# End of data export. Simulation finished at: 2017-05-25T16:47+0000 #
#####################################################################
