0.000000000000000000e+00 nan
1.000071128779189911e+00 7.610080107173924358e-01
2.000142257558379821e+00 1.015463979672170725e+00
3.000213386337569954e+00 1.038476689383132312e+00
4.000284515116759643e+00 1.010912039694787712e+00
5.000355643895947111e+00 9.315233422286869347e-01
6.000426772675139908e+00 8.421896962390044150e-01
7.000497901454329153e+00 6.959714129293984586e-01
8.000569030233519285e+00 6.006944019388589240e-01
9.000640159012705865e+00 4.734536632140985413e-01
1.000071128779189422e+01 3.483494028464822478e-01
1.100078241657109146e+01 2.249125491049404069e-01
1.200085354535027982e+01 1.495076456779285967e-01
1.300092467412946640e+01 1.266752193585002628e-01
1.400099580290865831e+01 1.165771491811745386e-01
1.500106693168784844e+01 9.387954957862643113e-02
1.600113806046703857e+01 8.914965651255959966e-02
1.700120918924623581e+01 9.289317653067392933e-02
1.800128031802541173e+01 9.366391188448569549e-02
1.900135144680461607e+01 9.366391188448569549e-02
2.000142257558378844e+01 9.366391188448569549e-02
2.100149370436298923e+01 9.366391188448569549e-02
2.200156483314218292e+01 9.366391188448569549e-02
2.300163596192135529e+01 9.366391188448569549e-02
