#####################################################################
# Alchemist log file - simulation started at: 2017-05-24T15:04+0000 #
#####################################################################
# random = 7.0, targets = 1.0, density = 0.6332893950589894, gridShift = 0.0, perturbation = 0.0, connfactor = 0.5
#
# The columns have the following meaning: 
# time se[Mean] 
0.0 NaN 
1.0047104299125222 NaN 
2.0047104299125222 1.0 
3.0047104299125222 1.0 
4.004710429912523 0.9876543209876543 
5.004710429912523 0.9753086419753086 
6.004710429912523 0.9876543209876543 
7.004710429912523 0.9043209876543209 
8.004710429912523 0.9135802469135802 
9.004710429912523 0.8179012345679013 
10.004710429912523 0.7006172839506174 
11.004710429912523 0.6327160493827158 
12.004710429912523 0.49691358024691384 
13.004710429912523 0.4012345679012349 
14.004710429912523 0.36419753086419737 
15.004710429912523 0.589506172839506 
16.00471042991252 0.46913580246913567 
17.00471042991252 0.6018518518518519 
18.00471042991252 0.31481481481481477 
19.00471042991252 0.29012345679012347 
20.00471042991252 0.4166666666666666 
21.00471042991252 0.25925925925925913 
22.00471042991252 0.11728395061728389 
23.00471042991252 0.1975308641975305 
24.00471042991252 0.0 
25.00471042991252 0.0 
26.00471042991252 0.0 
27.00471042991252 0.0 
28.00471042991252 0.0 
29.00471042991252 0.0 
30.00471042991252 0.0 
31.00471042991252 0.0 
32.00471042991252 0.0 
33.00471042991252 0.0 
34.00471042991252 0.0 
35.00471042991252 0.0 
36.00471042991252 0.0 
37.00471042991252 0.0 
38.00471042991252 0.0 
39.00471042991252 0.0 
40.00471042991252 0.0 
41.00471042991252 0.0 
#####################################################################
# End of data export. Simulation finished at: 2017-05-24T15:05+0000 #
#####################################################################
