#####################################################################
# Alchemist log file - simulation started at: 2017-05-23T22:07+0000 #
#####################################################################
# random = 6.0, targets = 1.0, density = 0.11269076455391362, gridShift = 0.0, perturbation = 0.0, connfactor = 2.0
#
# The columns have the following meaning: 
# time se[Mean] 
0.0 NaN 
1.0115592716150654 NaN 
2.0115592716150656 1.0 
3.0115592716150656 1.0 
4.011559271615066 1.5 
5.011559271615066 2.439444444444445 
6.011559271615066 2.118333333333333 
7.011559271615066 5.719166666666667 
8.011559271615067 3.179444444444444 
9.011559271615067 4.6130555555555555 
10.011559271615067 2.7719444444444443 
11.011559271615067 2.677222222222222 
12.011559271615067 2.534722222222222 
13.011559271615067 1.793333333333333 
14.011559271615067 0.9686111111111108 
15.011559271615067 0.7494444444444441 
16.011559271615067 0.636111111111111 
17.011559271615067 0.02583333333333333 
18.011559271615067 0.029444444444444457 
19.011559271615067 0.015833333333333328 
20.011559271615067 0.003333333333333345 
21.011559271615067 0.005555555555555575 
22.011559271615067 4.930380657631324E-32 
23.011559271615067 4.930380657631324E-32 
24.011559271615067 4.930380657631324E-32 
25.011559271615067 4.930380657631324E-32 
26.011559271615067 4.930380657631324E-32 
#####################################################################
# End of data export. Simulation finished at: 2017-05-23T22:07+0000 #
#####################################################################
