#####################################################################
# Alchemist log file - simulation started at: 2017-05-24T03:31+0000 #
#####################################################################
# random = 6.0, targets = 10.0, density = 2.519842099789746, gridShift = 1.0, perturbation = 0.0, connfactor = 1.5
#
# The columns have the following meaning: 
# time se[Mean] 
0.0 NaN 
1.0043581642399184 NaN 
2.0043581642399184 1.0308552631578947 
3.0043581642399184 1.0527202119883041 
4.004358164239918 1.0613861476608188 
5.004358164239918 1.0731405336257311 
6.004358164239918 1.0419599780701754 
7.004358164239918 1.0589418859649122 
8.004358164239918 1.0652677266081871 
9.004358164239918 1.0632702850877194 
10.004358164239918 1.0727869152046783 
11.004358164239918 1.042778691520468 
12.004358164239918 1.0414555921052633 
13.004358164239918 1.0586366959064328 
14.004358164239918 1.0633379020467837 
15.004358164239918 1.0843064692982458 
16.004358164239918 1.1220339912280703 
17.004358164239918 1.134016812865497 
18.004358164239918 1.1688824926900587 
19.004358164239918 1.1732108918128656 
20.004358164239918 1.1617900219298247 
21.004358164239918 1.1377677266081874 
22.004358164239918 1.1366118421052633 
23.004358164239918 1.1019618055555556 
24.004358164239918 1.0777202119883043 
25.004358164239918 1.0409448099415206 
26.004358164239918 1.0190131578947368 
27.004358164239918 0.9746966374269008 
28.004358164239918 0.9441438230994156 
29.004358164239918 0.9085288742690062 
30.004358164239918 0.8659822733918129 
31.004358164239918 0.8567799707602339 
32.00435816423992 0.8217397660818714 
33.00435816423992 0.8328389985380119 
34.00435816423992 0.7945084064327487 
35.00435816423992 0.7940679824561405 
36.00435816423992 0.7804943347953217 
37.00435816423992 0.7599762426900586 
38.00435816423992 0.7325420321637428 
39.00435816423992 0.7555208333333335 
40.00435816423992 0.7430308845029242 
41.00435816423992 0.7324387792397662 
42.00435816423992 0.7239555921052634 
43.00435816423992 0.7734868421052633 
44.00435816423992 0.7697496345029242 
45.00435816423992 0.7598574561403509 
46.00435816423992 0.7704395102339183 
47.00435816423992 0.7531039839181288 
48.00435816423992 0.744748720760234 
49.00435816423992 0.7366237207602339 
50.00435816423992 0.7514455409356724 
51.00435816423992 0.7676407163742689 
52.00435816423992 0.7209959795321641 
53.00435816423992 0.774261695906433 
54.00435816423992 0.7038368055555557 
55.00435816423992 0.6491630116959065 
56.00435816423992 0.5908589181286552 
57.00435816423992 0.5200246710526316 
58.00435816423992 0.4558735380116962 
59.00435816423992 0.381140350877193 
60.00435816423992 0.3629733187134502 
61.00435816423992 0.3110964912280703 
62.00435816423992 0.2734292763157896 
63.00435816423992 0.236186038011696 
64.00435816423992 0.22570723684210528 
65.00435816423992 0.19797880116959068 
66.00435816423992 0.18208424707602341 
67.00435816423992 0.1596600877192983 
68.00435816423992 0.1491063596491229 
69.00435816423992 0.13375456871345032 
70.00435816423992 0.12096765350877199 
71.00435816423992 0.10672240497076028 
72.00435816423992 0.09145741959064331 
73.00435816423992 0.08391995614035092 
74.00435816423992 0.07544225146198831 
75.00435816423992 0.06259594298245616 
76.00435816423992 0.05838998538011698 
77.00435816423992 0.04656980994152048 
78.00435816423992 0.043686951754385965 
79.00435816423992 0.03611293859649123 
80.00435816423992 0.03331688596491227 
81.00435816423992 0.02561586257309941 
82.00435816423992 0.024445358187134496 
83.00435816423992 0.024302814327485368 
84.00435816423992 0.01712445175438596 
85.00435816423992 0.013252010233918123 
86.00435816423992 0.013339729532163735 
87.00435816423992 0.008797514619883023 
88.00435816423992 0.008143274853801166 
89.00435816423992 0.005371893274853797 
90.00435816423992 0.0026489400584795305 
91.00435816423992 0.004419773391812858 
92.00435816423992 0.0028371710526315743 
93.00435816423992 0.0030126096491228014 
94.00435816423992 0.0013998538011695896 
95.00435816423992 0.001420869883040933 
96.00435816423992 0.002278874269005841 
97.00435816423992 1.5442251461988266E-4 
98.00435816423992 0.0011668494152046794 
99.00435816423992 8.771929824561362E-5 
100.00435816423992 4.842836257309931E-5 
101.00435816423992 2.375730994152039E-5 
102.00435816423992 1.0051169590643272E-5 
103.00435816423992 2.7412280701754676E-6 
104.00435816423992 9.137426900584896E-7 
105.00435816423992 9.137426900584896E-7 
106.00435816423992 1.262177448353619E-31 
107.00435816423992 1.262177448353619E-31 
108.00435816423992 1.262177448353619E-31 
109.00435816423992 1.262177448353619E-31 
110.00435816423992 1.262177448353619E-31 
111.00435816423992 1.262177448353619E-31 
112.00435816423992 1.262177448353619E-31 
113.00435816423992 1.262177448353619E-31 
114.00435816423992 1.262177448353619E-31 
115.00435816423992 1.262177448353619E-31 
116.00435816423992 1.262177448353619E-31 
117.00435816423992 1.262177448353619E-31 
118.00435816423992 1.262177448353619E-31 
119.00435816423992 1.262177448353619E-31 
120.00435816423992 1.262177448353619E-31 
121.00435816423992 1.262177448353619E-31 
122.00435816423992 1.262177448353619E-31 
123.00435816423992 1.262177448353619E-31 
124.00435816423992 1.262177448353619E-31 
125.00435816423992 1.262177448353619E-31 
126.00435816423992 1.262177448353619E-31 
127.00435816423992 1.262177448353619E-31 
128.00435816423993 1.262177448353619E-31 
129.00435816423993 1.262177448353619E-31 
130.00435816423993 1.262177448353619E-31 
131.00435816423993 1.262177448353619E-31 
132.00435816423993 1.262177448353619E-31 
133.00435816423993 1.262177448353619E-31 
134.00435816423993 1.262177448353619E-31 
135.00435816423993 1.262177448353619E-31 
136.00435816423993 1.262177448353619E-31 
137.00435816423993 1.262177448353619E-31 
#####################################################################
# End of data export. Simulation finished at: 2017-05-24T03:33+0000 #
#####################################################################
