#####################################################################
# Alchemist log file - simulation started at: 2017-05-25T13:02+0000 #
#####################################################################
# random = 8.0, targets = 10.0, density = 1.2632455339402642, gridShift = 0.0, perturbation = 0.0, connfactor = 0.1
#
# The columns have the following meaning: 
# time se[Mean] 
0.0 NaN 
1.041605243232502 NaN 
2.0416052432325023 1.0 
3.0416052432325023 1.0 
4.041605243232502 1.0 
5.041605243232502 1.0 
6.041605243232502 1.0 
7.041605243232502 1.0 
8.041605243232503 1.0 
9.041605243232503 1.0 
10.041605243232503 1.0 
11.041605243232503 1.0 
12.041605243232503 1.0 
13.041605243232503 1.0 
14.041605243232503 1.0 
15.041605243232503 1.0 
16.041605243232503 1.0 
17.041605243232503 0.9988757396449705 
18.041605243232503 0.994378698224852 
19.041605243232503 0.9921301775147929 
20.041605243232503 0.9831360946745562 
21.041605243232503 0.9741420118343196 
22.041605243232503 0.9685207100591715 
23.041605243232503 0.959526627218935 
24.041605243232503 0.9516568047337278 
25.041605243232503 0.9426627218934911 
26.041605243232503 0.9325443786982249 
27.041605243232503 0.9235502958579882 
28.041605243232503 0.9111834319526628 
29.041605243232503 0.9021893491124261 
30.041605243232503 0.8920710059171598 
31.041605243232503 0.8774556213017751 
32.0416052432325 0.8684615384615385 
33.0416052432325 0.8605917159763314 
34.0416052432325 0.8515976331360946 
35.0416052432325 0.8403550295857988 
36.0416052432325 0.8313609467455623 
37.0416052432325 0.8246153846153846 
38.0416052432325 0.8212426035502959 
39.0416052432325 0.8178698224852071 
40.0416052432325 0.815621301775148 
41.0416052432325 0.8122485207100593 
42.0416052432325 0.81 
43.0416052432325 0.81 
44.0416052432325 0.81 
45.0416052432325 0.81 
46.0416052432325 0.81 
47.0416052432325 0.8081065088757396 
48.0416052432325 0.8024260355029587 
49.0416052432325 0.8062130177514794 
50.0416052432325 0.7967455621301776 
51.0416052432325 0.7948520710059173 
52.0416052432325 0.8052071005917161 
53.0416052432325 0.7927218934911243 
54.0416052432325 0.8023076923076924 
55.0416052432325 0.7934911242603551 
56.0416052432325 0.7962721893491125 
57.0416052432325 0.8023076923076924 
58.0416052432325 0.7953846153846155 
59.0416052432325 0.801301775147929 
60.0416052432325 0.8011834319526627 
61.0416052432325 0.8031952662721894 
62.0416052432325 0.8031952662721894 
63.0416052432325 0.8040828402366864 
64.04160524323251 0.8031952662721894 
65.04160524323251 0.8060946745562131 
66.04160524323251 0.8079881656804734 
67.04160524323251 0.8079881656804734 
68.04160524323251 0.8089940828402368 
69.04160524323251 0.8079881656804734 
70.04160524323251 0.8089940828402368 
71.04160524323251 0.81 
72.04160524323251 0.81 
73.04160524323251 0.81 
74.04160524323251 0.81 
75.04160524323251 0.81 
76.04160524323251 0.81 
77.04160524323251 0.81 
78.04160524323251 0.81 
79.04160524323251 0.81 
80.04160524323251 0.81 
81.04160524323251 0.81 
82.04160524323251 0.81 
83.04160524323251 0.81 
84.04160524323251 0.81 
85.04160524323251 0.81 
86.04160524323251 0.81 
87.04160524323251 0.81 
88.04160524323251 0.81 
89.04160524323251 0.81 
90.04160524323251 0.81 
91.04160524323251 0.81 
92.04160524323251 0.81 
93.04160524323251 0.81 
94.04160524323251 0.81 
95.04160524323251 0.81 
#####################################################################
# End of data export. Simulation finished at: 2017-05-25T13:02+0000 #
#####################################################################
