#####################################################################
# Alchemist log file - simulation started at: 2017-05-23T10:00+0000 #
#####################################################################
# random = 11.0, targets = 31.622776601683793, density = 3.5589026259761294, gridShift = 0.0, perturbation = 0.0, connfactor = 0.25
#
# The columns have the following meaning: 
# time se[Mean] 
0.0 NaN 
1.0028758930102715 NaN 
2.0028758930102715 1.0 
3.0028758930102715 1.0 
4.0028758930102715 0.9996887722339831 
5.0028758930102715 0.9976657917548737 
6.0028758930102715 0.9964208806908064 
7.0028758930102715 0.9928417613816127 
8.002875893010271 0.9906631670194949 
9.002875893010271 0.9878621171253433 
10.002875893010271 0.9856100908217212 
11.002875893010271 0.9805807646239476 
12.002875893010271 0.9765735536657287 
13.002875893010271 0.968621631749291 
14.002875893010271 0.9619093028384247 
15.002875893010271 0.9527052879164154 
16.00287589301027 0.9462273228885576 
17.00287589301027 0.9408770869832629 
18.00287589301027 0.935493419136464 
19.00287589301027 0.930207569348161 
20.00287589301027 0.9283492708105556 
21.00287589301027 0.9237396265542861 
22.00287589301027 0.9174804337604116 
23.00287589301027 0.9088923730138897 
24.00287589301027 0.9057338675877045 
25.00287589301027 0.8948603708300393 
26.00287589301027 0.8870059933815679 
27.00287589301027 0.8818488935932647 
28.00287589301027 0.8767986354539871 
29.00287589301027 0.8730926744957682 
30.00287589301027 0.8713265356656841 
31.00287589301027 0.8654275942283556 
32.00287589301027 0.8624403165681872 
33.00287589301027 0.8539297113536989 
34.00287589301027 0.8471914727353117 
35.00287589301027 0.8403532341169244 
36.00287589301027 0.8324947663759741 
37.00287589301027 0.8199051085542416 
38.00287589301027 0.8097643186851563 
39.00287589301027 0.7985436399859871 
40.00287589301027 0.786018368281246 
41.00287589301027 0.7717941841558917 
42.00287589301027 0.7595004805096465 
43.00287589301027 0.7481473462784437 
44.00287589301027 0.7327765206099124 
45.00287589301027 0.7179897185319103 
46.00287589301027 0.7032597803369168 
47.00287589301027 0.68227239527841 
48.00287589301027 0.6661029752477609 
49.00287589301027 0.6548590202449694 
50.00287589301027 0.6366350226600004 
51.00287589301027 0.627057960556932 
52.00287589301027 0.613916403052745 
53.00287589301027 0.5954856972226495 
54.00287589301027 0.5817834610192931 
55.00287589301027 0.5772437346098226 
56.00287589301027 0.550722887467731 
57.00287589301027 0.542280640710066 
58.00287589301027 0.5232244649551698 
59.00287589301027 0.5100126542086478 
60.00287589301027 0.49573167478802305 
61.00287589301027 0.48681306987159634 
62.00287589301027 0.4811379364676973 
63.00287589301027 0.47629164878246266 
64.00287589301027 0.47618133562090975 
65.00287589301027 0.47462042591338865 
66.00287589301027 0.4780591227769022 
67.00287589301027 0.476242074239297 
68.00287589301027 0.48279189448164306 
69.00287589301027 0.47602185868219693 
70.00287589301027 0.47200491453177595 
71.00287589301027 0.47408222799139055 
72.00287589301027 0.47237483916130635 
73.00287589301027 0.4658707285206328 
74.00287589301027 0.4648390560749527 
75.00287589301027 0.4603544717379013 
76.00287589301027 0.4634720587880453 
77.00287589301027 0.4617291962615832 
78.00287589301027 0.4618801794537853 
79.00287589301027 0.46500727924208834 
80.00287589301027 0.46627587360420625 
81.00287589301027 0.4675444679663241 
82.00287589301027 0.4675444679663241 
83.00287589301027 0.4675444679663241 
84.00287589301027 0.4675444679663241 
85.00287589301027 0.4675444679663241 
86.00287589301027 0.4675444679663241 
87.00287589301027 0.4675444679663241 
88.00287589301027 0.4675444679663241 
89.00287589301027 0.4675444679663241 
90.00287589301027 0.4675444679663241 
91.00287589301027 0.4675444679663241 
92.00287589301027 0.4675444679663241 
93.00287589301027 0.4675444679663241 
94.00287589301027 0.4675444679663241 
95.00287589301027 0.4675444679663241 
96.00287589301027 0.4675444679663241 
97.00287589301027 0.4675444679663241 
98.00287589301027 0.4675444679663241 
99.00287589301027 0.4675444679663241 
100.00287589301027 0.4675444679663241 
101.00287589301027 0.4675444679663241 
102.00287589301027 0.4675444679663241 
103.00287589301027 0.4675444679663241 
104.00287589301027 0.4675444679663241 
105.00287589301027 0.4675444679663241 
106.00287589301027 0.4675444679663241 
107.00287589301027 0.4675444679663241 
108.00287589301027 0.4675444679663241 
109.00287589301027 0.4675444679663241 
110.00287589301027 0.4675444679663241 
111.00287589301027 0.4675444679663241 
112.00287589301027 0.4675444679663241 
113.00287589301027 0.4675444679663241 
114.00287589301027 0.4675444679663241 
115.00287589301027 0.4675444679663241 
116.00287589301027 0.4675444679663241 
117.00287589301027 0.4675444679663241 
118.00287589301027 0.4675444679663241 
119.00287589301027 0.4675444679663241 
120.00287589301027 0.4675444679663241 
121.00287589301027 0.4675444679663241 
122.00287589301027 0.4675444679663241 
123.00287589301027 0.4675444679663241 
#####################################################################
# End of data export. Simulation finished at: 2017-05-23T10:00+0000 #
#####################################################################
