#####################################################################
# Alchemist log file - simulation started at: 2017-05-25T15:19+0000 #
#####################################################################
# random = 18.0, targets = 10.0, density = 3.5589026259761294, gridShift = 0.0, perturbation = 0.5, connfactor = 1.0
#
# The columns have the following meaning: 
# time se[Mean] 
0.0 NaN 
1.001562157851807 NaN 
2.001562157851807 NaN 
3.001562157851807 1.0151098958333333 
4.001562157851807 1.0175647569444444 
5.001562157851807 1.0185034722222222 
6.001562157851807 0.9975760416666667 
7.001562157851807 0.99509375 
8.001562157851808 0.9911701388888889 
9.001562157851808 0.9727704861111112 
10.001562157851808 0.9586749999999999 
11.001562157851808 0.9516595486111111 
12.001562157851808 0.9363855902777778 
13.001562157851808 0.9312909722222222 
14.001562157851808 0.9279769097222221 
15.001562157851808 0.9233045138888889 
16.001562157851808 0.9247015625000002 
17.001562157851808 0.9232045138888887 
18.001562157851808 0.9154114583333335 
19.001562157851808 0.9068934027777777 
20.001562157851808 0.8892425347222225 
21.001562157851808 0.9029440972222222 
22.001562157851808 0.8802237847222223 
23.001562157851808 0.8696854166666669 
24.001562157851808 0.8654010416666664 
25.001562157851808 0.8642899305555553 
26.001562157851808 0.856851388888889 
27.001562157851808 0.8598401041666662 
28.001562157851808 0.8572232638888887 
29.001562157851808 0.8451637152777777 
30.001562157851808 0.843867708333333 
31.001562157851808 0.8425956597222223 
32.00156215785181 0.8337029513888893 
33.00156215785181 0.8276500000000001 
34.00156215785181 0.8208864583333336 
35.00156215785181 0.807848784722222 
36.00156215785181 0.8013630208333332 
37.00156215785181 0.7911689236111108 
38.00156215785181 0.7800512152777775 
39.00156215785181 0.7663362847222219 
40.00156215785181 0.7582126736111113 
41.00156215785181 0.7354821180555556 
42.00156215785181 0.7159717013888889 
43.00156215785181 0.6968921875000003 
44.00156215785181 0.6676968749999999 
45.00156215785181 0.6504380208333332 
46.00156215785181 0.6183984375000001 
47.00156215785181 0.5914144097222221 
48.00156215785181 0.5707848958333334 
49.00156215785181 0.550274652777778 
50.00156215785181 0.523866840277778 
51.00156215785181 0.5043921875000001 
52.00156215785181 0.4796378472222224 
53.00156215785181 0.49696111111111113 
54.00156215785181 0.5106204861111111 
55.00156215785181 0.5593461805555553 
56.00156215785181 0.7233331597222219 
57.00156215785181 0.5503118055555555 
58.00156215785181 0.9295055555555557 
59.00156215785181 1.0548666666666655 
60.00156215785181 1.0028555555555552 
61.00156215785181 0.918866840277778 
62.00156215785181 0.9677680555555553 
63.00156215785181 0.8472105902777775 
64.00156215785181 0.8392868055555556 
65.00156215785181 0.9712814236111104 
66.00156215785181 0.9378717013888886 
67.00156215785181 0.9817822916666662 
68.00156215785181 1.0732753472222218 
69.00156215785181 1.0358095486111107 
70.00156215785181 1.0422369791666664 
71.00156215785181 1.1675204861111104 
72.00156215785181 1.3363517361111106 
73.00156215785181 0.9752605902777775 
74.00156215785181 1.3001729166666651 
75.00156215785181 1.1465517361111106 
76.00156215785181 0.728853645833333 
77.00156215785181 0.8008762152777774 
78.00156215785181 0.6783836805555554 
79.00156215785181 0.6291918402777774 
80.00156215785181 0.5339116319444442 
81.00156215785181 0.5665284722222221 
82.00156215785181 0.44343298611111115 
83.00156215785181 0.4757878472222221 
84.00156215785181 0.46146423611111126 
85.00156215785181 0.5121927083333327 
86.00156215785181 0.37191510416666707 
87.00156215785181 0.5322835069444446 
88.00156215785181 0.4546347222222223 
89.00156215785181 0.29588072916666674 
90.00156215785181 0.32987482638888893 
91.00156215785181 0.25179704861111124 
92.00156215785181 0.23907621527777764 
93.00156215785181 0.19352934027777774 
94.00156215785181 0.19382447916666687 
95.00156215785181 0.16365329861111116 
96.00156215785181 0.16548680555555562 
97.00156215785181 0.16390000000000007 
98.00156215785181 0.16300937500000007 
99.00156215785181 0.16278906250000005 
100.00156215785181 0.16180468750000007 
101.00156215785181 0.16114843750000007 
102.00156215785181 0.16065625000000006 
103.00156215785181 0.16032812500000007 
104.00156215785181 0.16000000000000006 
105.00156215785181 0.16000000000000006 
106.00156215785181 0.16000000000000006 
107.00156215785181 0.16000000000000006 
108.00156215785181 0.16000000000000006 
109.00156215785181 0.16000000000000006 
110.00156215785181 0.16000000000000006 
111.00156215785181 0.16000000000000006 
112.00156215785181 0.16000000000000006 
113.00156215785181 0.16000000000000006 
114.00156215785181 0.16000000000000006 
115.00156215785181 0.16000000000000006 
116.00156215785181 0.16000000000000006 
117.00156215785181 0.16000000000000006 
118.00156215785181 0.16000000000000006 
119.00156215785181 0.16000000000000006 
120.00156215785181 0.16000000000000006 
121.00156215785181 0.16000000000000006 
122.00156215785181 0.16000000000000006 
123.00156215785181 0.16000000000000006 
124.00156215785181 0.16000000000000006 
125.00156215785181 0.16000000000000006 
126.00156215785181 0.16000000000000006 
127.00156215785181 0.16000000000000006 
128.00156215785182 0.16000000000000006 
129.00156215785182 0.16000000000000006 
130.00156215785182 0.16000000000000006 
131.00156215785182 0.16000000000000006 
132.00156215785182 0.16000000000000006 
133.00156215785182 0.16000000000000006 
134.00156215785182 0.16000000000000006 
135.00156215785182 0.16000000000000006 
136.00156215785182 0.16000000000000006 
137.00156215785182 0.16000000000000006 
138.00156215785182 0.16000000000000006 
139.00156215785182 0.16000000000000006 
140.00156215785182 0.16000000000000006 
141.00156215785182 0.16000000000000006 
142.00156215785182 0.16000000000000006 
143.00156215785182 0.16000000000000006 
144.00156215785182 0.16000000000000006 
145.00156215785182 0.16000000000000006 
146.00156215785182 0.16000000000000006 
147.00156215785182 0.16000000000000006 
#####################################################################
# End of data export. Simulation finished at: 2017-05-25T15:20+0000 #
#####################################################################
