#####################################################################
# Alchemist log file - simulation started at: 2017-05-23T01:56+0000 #
#####################################################################
# random = 10.0, targets = 31.622776601683793, density = 0.05649405772326896, gridShift = 1.0, perturbation = 0.5, connfactor = 0.5
#
# The columns have the following meaning: 
# time se[Mean] 
0.0 NaN 
1.0042217987811537 NaN 
2.0042217987811535 1.0731904488161834 
3.0042217987811535 1.1177734681058933 
4.0042217987811535 1.0364062259207776 
5.0042217987811535 0.9930796999071407 
6.0042217987811535 0.994017836358705 
7.0042217987811535 0.8843254216650661 
8.004221798781153 0.8140520100819355 
9.004221798781153 0.8357950415582686 
10.004221798781153 0.8388032589058416 
11.004221798781153 0.8251193358092715 
12.004221798781153 0.8878024696146244 
13.004221798781153 0.8362283282032742 
14.004221798781153 0.8458619967192186 
15.004221798781153 0.8339080620240725 
16.004221798781153 0.8290820437015697 
17.004221798781153 0.8290264881460141 
18.004221798781153 0.7966432142756784 
19.004221798781153 0.7248043057179194 
20.004221798781153 0.7200893985065278 
21.004221798781153 0.7594339220828399 
22.004221798781153 0.7893486312363687 
23.004221798781153 0.7594339220828399 
24.004221798781153 0.6996045037757824 
25.004221798781153 0.8192633403898973 
26.004221798781153 0.8192633403898973 
27.004221798781153 0.8192633403898973 
28.004221798781153 0.8192633403898973 
29.004221798781153 0.8192633403898973 
30.004221798781153 0.8192633403898973 
31.004221798781153 0.8192633403898973 
#####################################################################
# End of data export. Simulation finished at: 2017-05-23T01:56+0000 #
#####################################################################
