#####################################################################
# Alchemist log file - simulation started at: 2017-05-21T15:18+0000 #
#####################################################################
# random = 2.0, targets = 100.0, density = 1.7841466528270753, gridShift = 1.0, perturbation = 0.0, connfactor = 0.75
#
# The columns have the following meaning: 
# time se[Mean] 
0.0 NaN 
1.0021051854459069 NaN 
2.002105185445907 1.0058795758928571 
3.002105185445907 1.009651773313492 
4.002105185445907 1.0127264384920636 
5.002105185445907 1.0176592757936507 
6.002105185445907 1.0139453621031747 
7.002105185445907 1.0146011408730158 
8.002105185445906 1.0170252976190477 
9.002105185445906 1.00915 
10.002105185445906 1.005495634920635 
11.002105185445906 1.0032330853174602 
12.002105185445906 0.9957684399801587 
13.002105185445906 0.988479079861111 
14.002105185445906 0.9853690476190476 
15.002105185445906 0.9815136036706349 
16.002105185445906 0.9759127976190476 
17.002105185445906 0.9685516493055556 
18.002105185445906 0.962956498015873 
19.002105185445906 0.960811755952381 
20.002105185445906 0.9531827008928572 
21.002105185445906 0.9458675347222222 
22.002105185445906 0.9420216145833333 
23.002105185445906 0.9343232886904762 
24.002105185445906 0.9333309275793651 
25.002105185445906 0.9293192460317461 
26.002105185445906 0.9288455233134921 
27.002105185445906 0.9272291790674604 
28.002105185445906 0.9272459573412699 
29.002105185445906 0.9242018725198413 
30.002105185445906 0.9241989831349207 
31.002105185445906 0.9246131324404763 
32.002105185445906 0.923873015873016 
33.002105185445906 0.9210018725198413 
34.002105185445906 0.9133541790674604 
35.002105185445906 0.9137489459325397 
36.002105185445906 0.9082869295634921 
37.002105185445906 0.9046116815476191 
38.002105185445906 0.8983663318452382 
39.002105185445906 0.8934068948412699 
40.002105185445906 0.8912778893849207 
41.002105185445906 0.8832949900793652 
42.002105185445906 0.8781146949404762 
43.002105185445906 0.8707437003968255 
44.002105185445906 0.8611023189484128 
45.002105185445906 0.8453587301587303 
46.002105185445906 0.8338168526785715 
47.002105185445906 0.824520672123016 
48.002105185445906 0.8126621651785715 
49.002105185445906 0.8031348338293651 
50.002105185445906 0.7913108382936509 
51.002105185445906 0.7823202504960319 
52.002105185445906 0.7721908730158732 
53.002105185445906 0.7610640252976192 
54.002105185445906 0.7429711433531747 
55.002105185445906 0.7375135044642859 
56.002105185445906 0.7178427331349209 
57.002105185445906 0.7055561011904763 
58.002105185445906 0.6814621651785715 
59.002105185445906 0.6688187127976192 
60.002105185445906 0.669275682043651 
61.002105185445906 0.6493888392857144 
62.002105185445906 0.6497058903769843 
63.002105185445906 0.6309282490079366 
64.00210518544591 0.6356100446428573 
65.00210518544591 0.6362245535714288 
66.00210518544591 0.6274384424603177 
67.00210518544591 0.6318429563492065 
68.00210518544591 0.6291810391865081 
69.00210518544591 0.6362967633928573 
70.00210518544591 0.6289505332341272 
71.00210518544591 0.6497118551587303 
72.00210518544591 0.6385542286706352 
73.00210518544591 0.6582751736111113 
74.00210518544591 0.6490206101190479 
75.00210518544591 0.6543814484126986 
76.00210518544591 0.6496958953373018 
77.00210518544591 0.6544113343253971 
78.00210518544591 0.6556103174603177 
79.00210518544591 0.6551473462301589 
80.00210518544591 0.6561929067460319 
81.00210518544591 0.6566781498015876 
82.00210518544591 0.6569252356150797 
83.00210518544591 0.6564247023809526 
84.00210518544591 0.6565257068452384 
85.00210518544591 0.6563418650793653 
86.00210518544591 0.6562690972222225 
87.00210518544591 0.6562449404761908 
88.00210518544591 0.6561724702380954 
89.00210518544591 0.656124156746032 
90.00210518544591 0.6561000000000002 
91.00210518544591 0.6561000000000002 
92.00210518544591 0.6561000000000002 
93.00210518544591 0.6561000000000002 
94.00210518544591 0.6561000000000002 
95.00210518544591 0.6561000000000002 
96.00210518544591 0.6561000000000002 
97.00210518544591 0.6561000000000002 
98.00210518544591 0.6561000000000002 
99.00210518544591 0.6561000000000002 
100.00210518544591 0.6561000000000002 
101.00210518544591 0.6561000000000002 
102.00210518544591 0.6561000000000002 
103.00210518544591 0.6561000000000002 
104.00210518544591 0.6561000000000002 
105.00210518544591 0.6561000000000002 
106.00210518544591 0.6561000000000002 
107.00210518544591 0.6561000000000002 
108.00210518544591 0.6561000000000002 
109.00210518544591 0.6561000000000002 
110.00210518544591 0.6561000000000002 
111.00210518544591 0.6561000000000002 
112.00210518544591 0.6561000000000002 
113.00210518544591 0.6561000000000002 
114.00210518544591 0.6561000000000002 
115.00210518544591 0.6561000000000002 
116.00210518544591 0.6561000000000002 
117.00210518544591 0.6561000000000002 
118.00210518544591 0.6561000000000002 
#####################################################################
# End of data export. Simulation finished at: 2017-05-21T15:20+0000 #
#####################################################################
