#####################################################################
# Alchemist log file - simulation started at: 2017-05-24T07:46+0000 #
#####################################################################
# random = 6.0, targets = 31.622776601683793, density = 14.160781367816199, gridShift = 0.0, perturbation = 0.0, connfactor = 0.5
#
# The columns have the following meaning: 
# time se[Mean] 
0.0 NaN 
1.0010083797655576 NaN 
2.0010083797655573 1.0 
3.0010083797655573 0.9999178230727109 
4.001008379765557 0.9992288427739082 
5.001008379765557 0.9970706944637032 
6.001008379765557 0.9960766279759 
7.001008379765557 0.9929038963403277 
8.001008379765558 0.9928937249136632 
9.001008379765558 0.9908779074235401 
10.001008379765558 0.9905522140573153 
11.001008379765558 0.9896485427742503 
12.001008379765558 0.9879160354742215 
13.001008379765558 0.9879917127799737 
14.001008379765558 0.9874642738585776 
15.001008379765558 0.9867091879306085 
16.00100837976556 0.9849094254171038 
17.00100837976556 0.9842506950743993 
18.00100837976556 0.9812154076143853 
19.00100837976556 0.9789405887471118 
20.00100837976556 0.9751216274480086 
21.00100837976556 0.9706115556664027 
22.00100837976556 0.9683251352771376 
23.00100837976556 0.9609740954370414 
24.00100837976556 0.9561015241006414 
25.00100837976556 0.9499195402701799 
26.00100837976556 0.9441128661674119 
27.00100837976556 0.93566981771629 
28.00100837976556 0.9323908577159958 
29.00100837976556 0.9198964054142316 
30.00100837976556 0.913698529610486 
31.00100837976556 0.9011605348029462 
32.00100837976556 0.8940872632485912 
33.00100837976556 0.8853592721396905 
34.00100837976556 0.86926423775797 
35.00100837976556 0.8698988163356111 
36.00100837976556 0.8445066408663245 
37.00100837976556 0.8428214134735716 
38.00100837976556 0.8235823630032972 
39.00100837976556 0.8151085423020857 
40.00100837976556 0.8113830855483437 
41.00100837976556 0.7916262683475289 
42.00100837976556 0.7987643596773536 
43.00100837976556 0.7748646087468126 
44.00100837976556 0.7846456447302063 
45.00100837976556 0.7629991803120865 
46.00100837976556 0.7704493744938244 
47.00100837976556 0.7633345963796005 
48.00100837976556 0.7586493378684336 
49.00100837976556 0.7620467558163193 
50.00100837976556 0.748226669126941 
51.00100837976556 0.7575720222477954 
52.00100837976556 0.7400053762791122 
53.00100837976556 0.7543356665267641 
54.00100837976556 0.7382031559413279 
55.00100837976556 0.7430773824729736 
56.00100837976556 0.7338469281991896 
57.00100837976556 0.7348722062584083 
58.00100837976556 0.7298066106129183 
59.00100837976556 0.7296472048478031 
60.00100837976556 0.7267789504790747 
61.00100837976556 0.7242816836497435 
62.00100837976556 0.7323930812310655 
63.00100837976556 0.72056702679149 
64.00100837976555 0.7312864888094024 
65.00100837976555 0.7226989808636275 
66.00100837976555 0.727626128454678 
67.00100837976555 0.7200637487432527 
68.00100837976555 0.723862454006508 
69.00100837976555 0.7180571183795711 
70.00100837976555 0.7163359055421454 
71.00100837976555 0.7127770458059155 
72.00100837976555 0.7037151602429943 
73.00100837976555 0.7101239512534083 
74.00100837976555 0.7004388396715079 
75.00100837976555 0.6990175966526024 
76.00100837976555 0.6942386327328463 
77.00100837976555 0.6964773354239657 
78.00100837976555 0.6849771835860471 
79.00100837976555 0.6877731488715558 
80.00100837976555 0.6857451786040685 
81.00100837976555 0.6796737247454341 
82.00100837976555 0.6777971426422039 
83.00100837976555 0.6745440904151185 
84.00100837976555 0.6714237295194522 
85.00100837976555 0.666024617560289 
86.00100837976555 0.6622958256061104 
87.00100837976555 0.6647819954578704 
88.00100837976555 0.6539809242297895 
89.00100837976555 0.6923764330811334 
90.00100837976555 0.6511371652458585 
91.00100837976555 0.6815217948392162 
92.00100837976555 0.6996274379932216 
93.00100837976555 0.6685578728392552 
94.00100837976555 0.6832923641029722 
95.00100837976555 0.7035375636666876 
96.00100837976555 0.6553745621847092 
97.00100837976555 0.6584239907345119 
98.00100837976555 0.6596664094007346 
99.00100837976555 0.6312640120903239 
100.00100837976555 0.633454725736372 
101.00100837976555 0.6096022484899516 
102.00100837976555 0.6163393564975718 
103.00100837976555 0.602431274019703 
104.00100837976555 0.6010602789160095 
105.00100837976555 0.587798058293258 
106.00100837976555 0.582260789890492 
107.00100837976555 0.5702891904298825 
108.00100837976555 0.5650614444741634 
109.00100837976555 0.5586326419944858 
110.00100837976555 0.5535244611444705 
111.00100837976555 0.5276130340967864 
112.00100837976555 0.5245119462192542 
113.00100837976555 0.5182793288276101 
114.00100837976555 0.5044172765450595 
115.00100837976555 0.49832525801539795 
116.00100837976555 0.47916825282639025 
117.00100837976555 0.47374884941754775 
118.00100837976555 0.46831044823032164 
119.00100837976555 0.43500642758377206 
120.00100837976555 0.4444539437899893 
121.00100837976555 0.4359994811592913 
122.00100837976555 0.4060393390536866 
123.00100837976555 0.40859598678274395 
124.00100837976555 0.39266278990331244 
125.00100837976555 0.37086763103565756 
126.00100837976555 0.36783268813392783 
127.00100837976555 0.35717659974503113 
128.00100837976555 0.34656703067663486 
129.00100837976555 0.322029350218154 
130.00100837976555 0.3173357061990612 
131.00100837976555 0.31643182947473647 
132.00100837976555 0.29280620076795305 
133.00100837976555 0.27291684325774646 
134.00100837976555 0.28099346413597015 
135.00100837976555 0.25860510243107465 
136.00100837976555 0.23511751890575722 
137.00100837976555 0.23134386083728053 
138.00100837976555 0.21763905615596524 
139.00100837976555 0.19907020652295218 
140.00100837976555 0.19008314593154385 
141.00100837976555 0.1752894858511711 
142.00100837976555 0.16470108047864973 
143.00100837976555 0.15555905992553132 
144.00100837976555 0.13876792283653683 
145.00100837976555 0.13671028963678228 
146.00100837976555 0.11492652683651967 
147.00100837976555 0.10807530288291121 
148.00100837976555 0.09961244484162694 
149.00100837976555 0.08711193732695599 
150.00100837976555 0.08003707682431105 
151.00100837976555 0.0727455510124116 
152.00100837976555 0.06748438976495237 
153.00100837976555 0.06271358342693838 
154.00100837976555 0.05820533284190468 
155.00100837976555 0.05746155925942857 
156.00100837976555 0.05458074345982291 
157.00100837976555 0.051531981152366665 
158.00100837976555 0.05178640425620841 
159.00100837976555 0.0483912056531772 
160.00100837976555 0.04703719962357034 
161.00100837976555 0.04724915338438211 
162.00100837976555 0.046902843943481466 
163.00100837976555 0.047176847804744765 
164.00100837976555 0.04755158549857306 
165.00100837976555 0.04762051427545447 
166.00100837976555 0.047278807069925315 
167.00100837976555 0.04703437681714168 
168.00100837976555 0.04609896648271296 
169.00100837976555 0.04519131881212425 
170.00100837976555 0.04405118858479452 
171.00100837976555 0.04259504301863265 
172.00100837976555 0.0412793996209981 
173.00100837976555 0.03887944824316159 
174.00100837976555 0.037704818792149736 
175.00100837976555 0.035791760388626366 
176.00100837976555 0.03389701202009969 
177.00100837976555 0.032046494386008366 
178.00100837976555 0.030446526040887423 
179.00100837976555 0.028536130785599887 
180.00100837976555 0.027040082397844625 
181.00100837976555 0.02561863258052128 
182.00100837976555 0.024217038835017135 
183.00100837976555 0.023507542282571785 
184.00100837976555 0.022672838328456534 
185.00100837976555 0.022055081141147917 
186.00100837976555 0.021603317400461987 
187.00100837976555 0.020897123916844434 
188.00100837976555 0.02041246189380083 
189.00100837976555 0.019821164636277637 
190.00100837976555 0.019339221953793888 
191.00100837976555 0.01878941676478596 
192.00100837976555 0.018276668698071437 
193.00100837976555 0.017786107056868575 
194.00100837976555 0.017404608126571505 
195.00100837976555 0.016942150070643803 
196.00100837976555 0.016523133081013757 
197.00100837976555 0.016249339223065252 
198.00100837976555 0.01585934006183198 
199.00100837976555 0.015615460733798027 
200.00100837976555 0.015336592009035772 
201.00100837976555 0.015012716359859532 
202.00100837976555 0.014821494263268809 
203.00100837976555 0.014538937546256916 
204.00100837976555 0.014346980190096793 
205.00100837976555 0.014133828448920182 
206.00100837976555 0.013943514748249872 
207.00100837976555 0.013777348165276362 
208.00100837976555 0.013635083613476496 
209.00100837976555 0.01348682410453989 
210.00100837976555 0.01338250752934989 
211.00100837976555 0.013279505878551734 
212.00100837976555 0.013181925367269276 
213.00100837976555 0.013151616003286029 
214.00100837976555 0.013127713972112359 
215.00100837976555 0.01312451030570757 
216.00100837976555 0.01312451030570757 
217.00100837976555 0.01312451030570757 
218.00100837976555 0.01312451030570757 
219.00100837976555 0.01312451030570757 
220.00100837976555 0.01312451030570757 
221.00100837976555 0.01312451030570757 
222.00100837976555 0.01312451030570757 
223.00100837976555 0.01312451030570757 
224.00100837976555 0.01312451030570757 
225.00100837976555 0.01312451030570757 
226.00100837976555 0.01312451030570757 
227.00100837976555 0.01312451030570757 
228.00100837976555 0.01312451030570757 
229.00100837976555 0.01312451030570757 
230.00100837976555 0.01312451030570757 
231.00100837976555 0.01312451030570757 
232.00100837976555 0.01312451030570757 
233.00100837976555 0.01312451030570757 
234.00100837976555 0.01312451030570757 
235.00100837976555 0.01312451030570757 
236.00100837976555 0.01312451030570757 
237.00100837976555 0.01312451030570757 
238.00100837976555 0.01312451030570757 
239.00100837976555 0.01312451030570757 
240.00100837976555 0.01312451030570757 
241.00100837976555 0.01312451030570757 
242.00100837976555 0.01312451030570757 
243.00100837976555 0.01312451030570757 
244.00100837976555 0.01312451030570757 
245.00100837976555 0.01312451030570757 
246.00100837976555 0.01312451030570757 
247.00100837976555 0.01312451030570757 
248.00100837976555 0.01312451030570757 
249.00100837976555 0.01312451030570757 
250.00100837976555 0.01312451030570757 
251.00100837976555 0.01312451030570757 
252.00100837976555 0.01312451030570757 
253.00100837976555 0.01312451030570757 
254.00100837976555 0.01312451030570757 
255.00100837976555 0.01312451030570757 
256.00100837976555 0.01312451030570757 
257.00100837976555 0.01312451030570757 
258.00100837976555 0.01312451030570757 
259.00100837976555 0.01312451030570757 
260.00100837976555 0.01312451030570757 
261.00100837976555 0.01312451030570757 
262.00100837976555 0.01312451030570757 
263.00100837976555 0.01312451030570757 
264.00100837976555 0.01312451030570757 
265.00100837976555 0.01312451030570757 
266.00100837976555 0.01312451030570757 
267.00100837976555 0.01312451030570757 
268.00100837976555 0.01312451030570757 
269.00100837976555 0.01312451030570757 
270.00100837976555 0.01312451030570757 
271.00100837976555 0.01312451030570757 
272.00100837976555 0.01312451030570757 
273.00100837976555 0.01312451030570757 
274.00100837976555 0.01312451030570757 
275.00100837976555 0.01312451030570757 
276.00100837976555 0.01312451030570757 
277.00100837976555 0.01312451030570757 
278.00100837976555 0.01312451030570757 
279.00100837976555 0.01312451030570757 
280.00100837976555 0.01312451030570757 
281.00100837976555 0.01312451030570757 
282.00100837976555 0.01312451030570757 
283.00100837976555 0.01312451030570757 
284.00100837976555 0.01312451030570757 
285.00100837976555 0.01312451030570757 
286.00100837976555 0.01312451030570757 
287.00100837976555 0.01312451030570757 
288.00100837976555 0.01312451030570757 
289.00100837976555 0.01312451030570757 
290.00100837976555 0.01312451030570757 
291.00100837976555 0.01312451030570757 
292.00100837976555 0.01312451030570757 
293.00100837976555 0.01312451030570757 
294.00100837976555 0.01312451030570757 
295.00100837976555 0.01312451030570757 
296.00100837976555 0.01312451030570757 
297.00100837976555 0.01312451030570757 
298.00100837976555 0.01312451030570757 
299.00100837976555 0.01312451030570757 
300.00100837976555 0.01312451030570757 
301.00100837976555 0.01312451030570757 
302.00100837976555 0.01312451030570757 
303.00100837976555 0.01312451030570757 
#####################################################################
# End of data export. Simulation finished at: 2017-05-24T08:01+0000 #
#####################################################################
