#####################################################################
# Alchemist log file - simulation started at: 2017-05-23T21:46+0000 #
#####################################################################
# random = 13.0, targets = 1.0, density = 0.04, gridShift = 0.0, perturbation = 0.0, connfactor = 1.5
#
# The columns have the following meaning: 
# time se[Mean] 
0.0 NaN 
1.0170171764237625 1.234375 
2.0170171764237628 1.703125 
3.0170171764237628 2.58203125 
4.017017176423763 2.96484375 
5.017017176423763 3.228298611111111 
6.017017176423763 3.985677083333333 
7.017017176423763 3.938368055555556 
8.017017176423764 2.724826388888889 
9.017017176423764 1.847222222222222 
10.017017176423764 2.036892361111111 
11.017017176423764 3.002604166666667 
12.017017176423764 3.0407986111111116 
13.017017176423764 1.0859375 
14.017017176423764 0.109375 
15.017017176423764 0.03125 
16.017017176423764 0.0 
17.017017176423764 0.0 
#####################################################################
# End of data export. Simulation finished at: 2017-05-23T21:46+0000 #
#####################################################################
