#####################################################################
# Alchemist log file - simulation started at: 2017-05-25T12:54+0000 #
#####################################################################
# random = 18.0, targets = 1.0, density = 7.099073319511142, gridShift = 0.0, perturbation = 0.0, connfactor = 0.25
#
# The columns have the following meaning: 
# time se[Mean] 
0.0 NaN 
1.001562157851807 NaN 
2.001562157851807 1.0 
3.001562157851807 1.0 
4.001562157851807 1.0 
5.001562157851807 1.0 
6.001562157851807 1.0 
7.001562157851807 1.0 
8.001562157851808 1.0 
9.001562157851808 1.0 
10.001562157851808 1.0 
11.001562157851808 1.0 
12.001562157851808 1.0 
13.001562157851808 1.0 
14.001562157851808 1.0 
15.001562157851808 1.0 
16.001562157851808 1.0 
17.001562157851808 1.0 
18.001562157851808 1.0 
19.001562157851808 1.0 
20.001562157851808 1.0 
21.001562157851808 1.0 
22.001562157851808 1.0 
23.001562157851808 1.0 
24.001562157851808 1.0 
25.001562157851808 1.0 
26.001562157851808 1.0 
27.001562157851808 1.0 
28.001562157851808 1.0 
29.001562157851808 1.0 
30.001562157851808 1.0 
31.001562157851808 1.0 
32.00156215785181 1.0 
33.00156215785181 1.0 
34.00156215785181 1.0 
35.00156215785181 1.0 
36.00156215785181 1.0 
37.00156215785181 1.0 
38.00156215785181 1.0 
39.00156215785181 1.0 
40.00156215785181 1.0 
41.00156215785181 1.0 
42.00156215785181 1.0 
43.00156215785181 1.0 
44.00156215785181 1.0 
45.00156215785181 1.0 
46.00156215785181 1.0 
47.00156215785181 1.0 
48.00156215785181 1.0 
49.00156215785181 1.0 
50.00156215785181 1.0 
51.00156215785181 1.0 
52.00156215785181 1.0 
53.00156215785181 1.0 
54.00156215785181 1.0 
55.00156215785181 1.0 
56.00156215785181 1.0 
57.00156215785181 1.0 
58.00156215785181 1.0 
59.00156215785181 1.0 
60.00156215785181 1.0 
61.00156215785181 0.9987244897959183 
62.00156215785181 0.9923469387755102 
63.00156215785181 0.9872448979591836 
64.00156215785181 0.9732142857142856 
65.00156215785181 0.9834183673469387 
66.00156215785181 1.0382653061224492 
67.00156215785181 1.095663265306123 
68.00156215785181 1.1594387755102038 
69.00156215785181 1.1900510204081638 
70.00156215785181 1.1594387755102042 
71.00156215785181 1.1466836734693875 
72.00156215785181 1.1377551020408165 
73.00156215785181 1.067602040816327 
74.00156215785181 1.0561224489795917 
75.00156215785181 1.0076530612244903 
76.00156215785181 0.9706632653061228 
77.00156215785181 0.9043367346938772 
78.00156215785181 0.8877551020408165 
79.00156215785181 0.8686224489795911 
80.00156215785181 0.7640306122448991 
81.00156215785181 0.7257653061224494 
82.00156215785181 0.7257653061224493 
83.00156215785181 0.6568877551020402 
84.00156215785181 0.6186224489795906 
85.00156215785181 0.6313775510204094 
86.00156215785181 0.5586734693877543 
87.00156215785181 0.5459183673469397 
88.00156215785181 0.46938775510204095 
89.00156215785181 0.4783163265306126 
90.00156215785181 0.43112244897959073 
91.00156215785181 0.3826530612244908 
92.00156215785181 0.34948979591836743 
93.00156215785181 0.2933673469387749 
94.00156215785181 0.260204081632653 
95.00156215785181 0.23979591836734693 
96.00156215785181 0.20280612244897953 
97.00156215785181 0.1747448979591836 
98.00156215785181 0.32525510204081765 
99.00156215785181 1.0676020408163276 
100.00156215785181 1.2053571428571352 
101.00156215785181 1.6441326530612315 
102.00156215785181 1.3150510204081534 
103.00156215785181 1.121173469387754 
104.00156215785181 1.1033163265306172 
105.00156215785181 0.9375 
106.00156215785181 0.6186224489795972 
107.00156215785181 0.6173469387755086 
108.00156215785181 0.8533163265306151 
109.00156215785181 0.6441326530612244 
110.00156215785181 1.1887755102040742 
111.00156215785181 1.4336734693877538 
112.00156215785181 0.8073979591836724 
113.00156215785181 0.8801020408163276 
114.00156215785181 1.0344387755102007 
115.00156215785181 0.9528061224489821 
116.00156215785181 0.3265306122449002 
117.00156215785181 0.7895408163265294 
118.00156215785181 0.8711734693877544 
119.00156215785181 0.39030612244898105 
120.00156215785181 0.48086734693877586 
121.00156215785181 0.7895408163265291 
122.00156215785181 0.3903061224489825 
123.00156215785181 0.6262755102040776 
124.00156215785181 0.39923469387755156 
125.00156215785181 0.553571428571428 
126.00156215785181 0.0 
127.00156215785181 0.39923469387755106 
128.00156215785182 0.3992346938775511 
129.00156215785182 0.1632653061224497 
130.00156215785182 0.23596938775510123 
131.00156215785182 0.3992346938775516 
132.00156215785182 0.3176020408163273 
133.00156215785182 0.24489795918367258 
134.00156215785182 0.2359693877551001 
135.00156215785182 0.16326530612244988 
136.00156215785182 0.0 
137.00156215785182 0.08163265306122454 
138.00156215785182 0.08163265306122454 
139.00156215785182 0.0 
140.00156215785182 0.08163265306122454 
141.00156215785182 0.08163265306122454 
142.00156215785182 0.08163265306122455 
143.00156215785182 0.0 
144.00156215785182 0.08163265306122457 
145.00156215785182 0.0 
146.00156215785182 0.0 
147.00156215785182 0.0 
148.00156215785182 0.0 
149.00156215785182 0.0 
150.00156215785182 0.0 
151.00156215785182 0.0 
152.00156215785182 0.0 
153.00156215785182 0.0 
154.00156215785182 0.0 
155.00156215785182 0.0 
156.00156215785182 0.0 
157.00156215785182 0.0 
158.00156215785182 0.0 
159.00156215785182 0.0 
160.00156215785182 0.0 
161.00156215785182 0.0 
162.00156215785182 0.0 
163.00156215785182 0.0 
164.00156215785182 0.0 
165.00156215785182 0.0 
166.00156215785182 0.0 
167.00156215785182 0.0 
168.00156215785182 0.0 
169.00156215785182 0.0 
170.00156215785182 0.0 
171.00156215785182 0.0 
172.00156215785182 0.0 
173.00156215785182 0.0 
174.00156215785182 0.0 
175.00156215785182 0.0 
176.00156215785182 0.0 
177.00156215785182 0.0 
178.00156215785182 0.0 
179.00156215785182 0.0 
180.00156215785182 0.0 
181.00156215785182 0.0 
182.00156215785182 0.0 
183.00156215785182 0.0 
184.00156215785182 0.0 
185.00156215785182 0.0 
186.00156215785182 0.0 
187.00156215785182 0.0 
188.00156215785182 0.0 
189.00156215785182 0.0 
190.00156215785182 0.0 
191.00156215785182 0.0 
192.00156215785182 0.0 
193.00156215785182 0.0 
194.00156215785182 0.0 
195.00156215785182 0.0 
196.00156215785182 0.0 
197.00156215785182 0.0 
198.00156215785182 0.0 
199.00156215785182 0.0 
200.00156215785182 0.0 
201.00156215785182 0.0 
202.00156215785182 0.0 
203.00156215785182 0.0 
#####################################################################
# End of data export. Simulation finished at: 2017-05-25T12:55+0000 #
#####################################################################
