0.000000000000000000e+00 nan
1.000100519018598755e+00 5.431027537909371983e-01
2.000201038037197510e+00 1.061475691542265176e+00
3.000301557055797819e+00 1.202230002911365281e+00
4.000402076074395019e+00 1.291824851395811269e+00
5.000502595092995328e+00 1.555812627754046717e+00
6.000603114111595637e+00 1.743157915798561497e+00
7.000703633130196835e+00 1.728302420640236647e+00
8.000804152148790038e+00 1.817368103573351101e+00
9.000904671167393900e+00 1.604652561886491080e+00
1.000100519018599066e+01 1.410222324005643069e+00
1.100110570920458741e+01 1.317103359696740972e+00
1.200120622822319127e+01 1.176249665841813119e+00
1.300130674724178981e+01 1.095484223771702847e+00
1.400140726626039367e+01 1.176761061686746102e+00
1.500150778527898687e+01 1.137892232054852348e+00
1.600160830429758008e+01 1.060316555394294813e+00
1.700170882331617861e+01 1.092946000180653909e+00
1.800180934233478780e+01 9.911221325546942795e-01
1.900190986135338278e+01 9.208012864676645703e-01
2.000201038037198131e+01 8.320688743041441127e-01
2.100211089939057629e+01 8.240725461652856909e-01
2.200221141840917483e+01 7.548274788414002234e-01
2.300231193742776270e+01 7.647577844474825470e-01
2.400241245644638255e+01 7.871793043617875130e-01
2.500251297546497753e+01 8.053300081470844418e-01
2.600261349448357961e+01 7.687539482644293320e-01
2.700271401350216749e+01 7.904745682379402671e-01
2.800281453252078734e+01 6.902676058405221582e-01
2.900291505153937877e+01 7.417126453769266048e-01
3.000301557055797375e+01 6.653322907288240495e-01
3.100311608957656873e+01 6.947471055492274727e-01
3.200321660859516015e+01 6.946762901488343633e-01
3.300331712761374803e+01 6.937657309333321587e-01
3.400341764663235722e+01 6.806495561395957683e-01
3.500351816565095220e+01 6.797109878478185818e-01
3.600361868466957560e+01 6.550460895855331200e-01
3.700371920368817769e+01 6.428700685030196427e-01
3.800381972270676556e+01 6.428700685030196427e-01
3.900392024172537475e+01 6.428700685030196427e-01
4.000402076074396263e+01 6.428700685030196427e-01
4.100412127976255761e+01 6.428700685030196427e-01
4.200422179878115259e+01 6.428700685030196427e-01
