0.000000000000000000e+00 nan
1.000042117153411958e+00 1.164448938952134527e-01
2.000084234306823916e+00 1.121225050826148317e+00
3.000126351460236762e+00 1.189667443688712911e+00
4.000168468613647832e+00 1.287622817839096712e+00
5.000210585767060678e+00 1.533618775307888038e+00
6.000252702920473524e+00 1.706773022974715781e+00
7.000294820073881041e+00 2.029532062025824146e+00
8.000336937227295664e+00 2.131320492820301116e+00
9.000379054380706734e+00 2.193997012981842243e+00
1.000042117153412136e+01 2.057675871774690801e+00
1.100046328868753420e+01 2.126591116348339749e+00
1.200050540584094705e+01 1.998705892225111747e+00
1.300054752299434568e+01 2.070552472546962619e+00
1.400058964014776208e+01 1.954186615604163402e+00
1.500063175730116960e+01 2.013761346648163642e+00
1.600067387445459133e+01 1.964776551783258718e+00
1.700071599160799352e+01 2.010522367956007361e+00
1.800075810876141347e+01 1.928528835849855350e+00
1.900080022591481921e+01 2.016638882326133420e+00
2.000084234306824271e+01 1.970508060304943632e+00
2.100088446022164490e+01 1.980169502204224496e+00
2.200092657737506840e+01 1.950142624265023272e+00
2.300096869452847059e+01 1.963514571042275669e+00
2.400101081168189410e+01 1.889195301072203348e+00
2.500105292883529273e+01 1.888008554728862753e+00
2.600109504598869137e+01 1.843920202644738993e+00
2.700113716314212198e+01 1.815333379212467513e+00
2.800117928029552417e+01 1.733745718246746836e+00
2.900122139744894056e+01 1.656543904992359817e+00
3.000126351460233920e+01 1.614514236804329483e+00
3.100130563175575560e+01 1.524625169655904111e+00
3.200134774890918266e+01 1.486723950664696092e+00
3.300138986606258840e+01 1.408843859829186806e+00
3.400143198321598703e+01 1.381287965052654609e+00
3.500147410036939988e+01 1.303499699529470535e+00
3.600151621752282693e+01 1.258910391348307067e+00
3.700155833467623978e+01 1.203803159399867262e+00
3.800160045182963842e+01 1.175082944826216558e+00
3.900164256898304416e+01 1.137465259371401638e+00
4.000168468613648542e+01 1.140545388869925736e+00
4.100172680328989117e+01 1.137428461167805160e+00
4.200176892044328980e+01 1.131033877306810709e+00
4.300181103759669554e+01 1.101223165496098666e+00
4.400185315475013681e+01 1.100366683047487193e+00
4.500189527190354255e+01 1.091990044644053581e+00
4.600193738905694119e+01 1.072721847403047768e+00
4.700197950621033982e+01 1.106799121870643221e+00
4.800202162336378819e+01 1.165261758691796601e+00
4.900206374051717972e+01 1.268152307313086036e+00
5.000210585767058546e+01 1.357609611198576927e+00
5.100214797482399121e+01 1.465845126924012476e+00
5.200219009197738274e+01 1.493756373279069294e+00
5.300223220913084532e+01 1.584099557114972523e+00
5.400227432628424395e+01 1.646134655712542472e+00
5.500231644343762838e+01 1.715810393132610079e+00
5.600235856059104833e+01 1.745762954099023823e+00
5.700240067774446118e+01 1.874600694975817383e+00
5.800244279489788113e+01 1.828526951491303176e+00
5.900248491205130108e+01 1.843248313460432053e+00
6.000252702920467840e+01 1.858033998236131135e+00
6.100256914635813388e+01 1.738228712714775304e+00
6.200261126351151120e+01 1.697640186930011064e+00
6.300265338066493115e+01 1.653932920122487271e+00
6.400269549781836531e+01 1.603102923471255492e+00
6.500273761497174974e+01 1.488555771329193034e+00
6.600277973212517679e+01 1.361438542210579694e+00
6.700282184927861806e+01 1.226415099471948489e+00
6.800286396643197406e+01 1.044290415295739072e+00
6.900290608358544375e+01 9.112999083040115300e-01
7.000294820073879976e+01 8.095404725613811747e-01
7.100299031789222681e+01 7.445124025315102978e-01
7.200303243504565387e+01 6.648714964554268692e-01
7.300307455219900987e+01 6.057722411334071078e-01
7.400311666935247956e+01 5.611429951233910529e-01
7.500315878650590662e+01 5.157036752961133841e-01
7.600320090365927683e+01 4.704049979937485193e-01
7.700324302081274652e+01 4.435317105128941395e-01
7.800328513796608831e+01 4.325574561300831178e-01
7.900332725511952958e+01 4.183244393493135149e-01
8.000336937227297085e+01 4.185857767120381712e-01
8.100341148942631264e+01 4.183949232810937335e-01
8.200345360657978233e+01 4.183549150257650506e-01
8.300349572373312412e+01 4.182722076704033509e-01
8.400353784088657960e+01 4.182053792835647710e-01
8.500357995804000666e+01 4.181860020466130479e-01
8.600362207519339108e+01 4.181490805832280833e-01
8.700366419234681814e+01 4.181513578303233669e-01
8.800370630950027362e+01 4.181513578303233669e-01
8.900374842665361541e+01 4.181513578303233669e-01
9.000379054380708510e+01 4.181513578303233669e-01
9.100383266096042689e+01 4.181513578303233669e-01
9.200387477811388237e+01 4.181513578303233669e-01
9.300391689526730943e+01 4.181513578303233669e-01
9.400395901242067964e+01 4.181513578303233669e-01
9.500400112957412091e+01 4.181513578303233669e-01
9.600404324672757639e+01 4.181513578303233669e-01
9.700408536388091818e+01 4.181513578303233669e-01
9.800412748103435945e+01 4.181513578303233669e-01
9.900416959818772966e+01 4.181513578303233669e-01
1.000042117153411709e+02 4.181513578303233669e-01
1.010042538324946122e+02 4.181513578303233669e-01
1.020042959496479824e+02 4.181513578303233669e-01
1.030043380668013953e+02 4.181513578303233669e-01
1.040043801839547655e+02 4.181513578303233669e-01
1.050044223011082209e+02 4.181513578303233669e-01
1.060044644182616906e+02 4.181513578303233669e-01
1.070045065354150324e+02 4.181513578303233669e-01
1.080045486525684879e+02 4.181513578303233669e-01
1.090045907697218865e+02 4.181513578303233669e-01
1.100046328868752568e+02 4.181513578303233669e-01
1.110046750040287264e+02 4.181513578303233669e-01
1.120047171211820967e+02 4.181513578303233669e-01
1.130047592383355521e+02 4.181513578303233669e-01
1.140048013554889224e+02 4.181513578303233669e-01
1.150048434726423210e+02 4.181513578303233669e-01
1.160048855897957623e+02 4.181513578303233669e-01
