#####################################################################
# Alchemist log file - simulation started at: 2017-05-21T08:15+0000 #
#####################################################################
# random = 2.0, targets = 10.0, density = 0.2247883923996312, gridShift = 1.0, perturbation = 0.5, connfactor = 0.5
#
# The columns have the following meaning: 
# time se[Mean] 
0.0 NaN 
1.003288451303821 NaN 
2.003288451303821 0.9954761904761905 
3.003288451303821 0.9888690476190476 
4.0032884513038205 0.9448214285714286 
5.0032884513038205 0.8967261904761905 
6.0032884513038205 0.8234523809523809 
7.0032884513038205 0.7374867724867725 
8.00328845130382 0.6745436507936509 
9.00328845130382 0.6146031746031746 
10.00328845130382 0.47028439153439155 
11.00328845130382 0.3774801587301587 
12.00328845130382 0.2996428571428571 
13.00328845130382 0.19790343915343914 
14.00328845130382 0.3016865079365078 
15.00328845130382 0.24011243386243375 
16.00328845130382 0.1860119047619047 
17.00328845130382 0.2252314814814814 
18.00328845130382 0.14023809523809522 
19.00328845130382 0.034920634920634935 
20.00328845130382 0.032883597883597904 
21.00328845130382 0.01947089947089948 
22.00328845130382 0.008095238095238095 
23.00328845130382 0.008571428571428572 
24.00328845130382 0.008333333333333333 
25.00328845130382 0.009047619047619047 
26.00328845130382 0.01 
27.00328845130382 0.01 
28.00328845130382 0.01 
29.00328845130382 0.01 
30.00328845130382 0.01 
31.00328845130382 0.01 
32.00328845130382 0.01 
33.00328845130382 0.01 
34.00328845130382 0.01 
#####################################################################
# End of data export. Simulation finished at: 2017-05-21T08:15+0000 #
#####################################################################
