#####################################################################
# Alchemist log file - simulation started at: 2017-05-21T03:00+0000 #
#####################################################################
# random = 2.0, targets = 1.0, density = 0.05649405772326896, gridShift = 1.0, perturbation = 0.0, connfactor = 1.5
#
# The columns have the following meaning: 
# time se[Mean] 
0.0 NaN 
1.003288451303821 NaN 
2.003288451303821 0.953125 
3.003288451303821 0.9427083333333334 
4.0032884513038205 1.3090277777777781 
5.0032884513038205 1.0312500000000002 
6.0032884513038205 2.677083333333334 
7.0032884513038205 1.4218750000000002 
8.00328845130382 1.578125 
9.00328845130382 0.527777777777778 
10.00328845130382 0.47222222222222243 
11.00328845130382 0.2968750000000002 
12.00328845130382 0.2638888888888891 
13.00328845130382 0.23437500000000014 
14.00328845130382 0.15451388888888906 
15.00328845130382 0.1562499999999998 
16.00328845130382 0.09895833333333333 
17.00328845130382 0.12499999999999971 
18.00328845130382 0.06770833333333333 
19.00328845130382 0.017361111111111063 
20.00328845130382 0.008680555555555556 
21.00328845130382 0.006944444444444453 
22.00328845130382 1.1093356479670479E-31 
23.00328845130382 1.1093356479670479E-31 
24.00328845130382 1.1093356479670479E-31 
25.00328845130382 1.1093356479670479E-31 
#####################################################################
# End of data export. Simulation finished at: 2017-05-21T03:00+0000 #
#####################################################################
