0.000000000000000000e+00 nan
2.220446049250313081e-16 1.337210399854592280e-03
4.440892098500626162e-16 2.060177251036211521e-01
0.000000000000000000e+00 2.090036229945022861e-01
8.881784197001252323e-16 2.118461784983805829e-01
2.664535259100375697e-15 2.148933896862813830e-01
0.000000000000000000e+00 2.141492923673799509e-01
8.881784197001252323e-16 2.185377172491731468e-01
1.776356839400250465e-15 2.187027543871504498e-01
3.552713678800500929e-15 2.208178728380846279e-01
5.329070518200751394e-15 2.179048491068774629e-01
3.552713678800500929e-15 2.170297732704613014e-01
0.000000000000000000e+00 2.133168243419910626e-01
7.105427357601001859e-15 2.112591712716736236e-01
1.776356839400250465e-15 2.079672623597364489e-01
1.776356839400250465e-15 2.057373180732746387e-01
3.552713678800500929e-15 2.043067940216124201e-01
0.000000000000000000e+00 2.031240032137505147e-01
7.105427357601001859e-15 2.026065894939109713e-01
7.105427357601001859e-15 2.020098962427966938e-01
1.065814103640150279e-14 2.019070164695634106e-01
0.000000000000000000e+00 2.020813067090673765e-01
7.105427357601001859e-15 2.015828124280482636e-01
7.105427357601001859e-15 2.020422908641132387e-01
0.000000000000000000e+00 2.014715689837869028e-01
1.065814103640150279e-14 2.020263443056784236e-01
1.421085471520200372e-14 2.013588618859205870e-01
0.000000000000000000e+00 2.022576042780485361e-01
3.552713678800500929e-15 2.010748868844819126e-01
0.000000000000000000e+00 2.006038214167689404e-01
3.552713678800500929e-15 1.995953412761134194e-01
0.000000000000000000e+00 1.990003320720886704e-01
7.105427357601001859e-15 1.974850940594429782e-01
2.131628207280300558e-14 1.960537040577019774e-01
0.000000000000000000e+00 1.944986846514462353e-01
1.421085471520200372e-14 1.939807357282005706e-01
1.421085471520200372e-14 1.938231986578534682e-01
7.105427357601001859e-15 1.928537827695579465e-01
1.421085471520200372e-14 1.928901839477804581e-01
7.105427357601001859e-15 1.918121264306286433e-01
2.131628207280300558e-14 1.920332532535486136e-01
2.131628207280300558e-14 1.916339052075459737e-01
0.000000000000000000e+00 1.912299427277002473e-01
7.105427357601001859e-15 1.914910818324847552e-01
1.421085471520200372e-14 1.916289720826153120e-01
0.000000000000000000e+00 1.911288433262790243e-01
1.421085471520200372e-14 1.911792525992087877e-01
1.421085471520200372e-14 1.911314217610491362e-01
0.000000000000000000e+00 1.908154431043983523e-01
2.131628207280300558e-14 1.899163555234205658e-01
2.131628207280300558e-14 1.886298040196774661e-01
7.105427357601001859e-15 1.870918809492156387e-01
2.842170943040400743e-14 1.852893311818385458e-01
1.421085471520200372e-14 1.838780718404543491e-01
0.000000000000000000e+00 1.816994356525667154e-01
7.105427357601001859e-15 1.805063762909529523e-01
7.105427357601001859e-15 1.788690082401308556e-01
0.000000000000000000e+00 1.781139290916128604e-01
0.000000000000000000e+00 1.782867693951804278e-01
0.000000000000000000e+00 1.782287112215980573e-01
7.105427357601001859e-15 1.803187953583881287e-01
7.105427357601001859e-15 1.821186703573124954e-01
0.000000000000000000e+00 1.847327505314403095e-01
7.105427357601001859e-15 1.879644211745332416e-01
1.421085471520200372e-14 1.907008143832910896e-01
0.000000000000000000e+00 1.945890337827277383e-01
4.263256414560601115e-14 1.973412857678419063e-01
2.842170943040400743e-14 2.026081787453608007e-01
0.000000000000000000e+00 2.035272726913142649e-01
4.263256414560601115e-14 2.079171072944767940e-01
2.842170943040400743e-14 2.100385669469577721e-01
1.421085471520200372e-14 2.116949486671416136e-01
2.842170943040400743e-14 2.128643055050866706e-01
2.842170943040400743e-14 2.136367569001030864e-01
1.421085471520200372e-14 2.143707196451489216e-01
2.842170943040400743e-14 2.182286605380267530e-01
2.842170943040400743e-14 2.229017127263453191e-01
2.842170943040400743e-14 2.277119021710659330e-01
1.421085471520200372e-14 2.302360460049026059e-01
4.263256414560601115e-14 2.321267985609276885e-01
4.263256414560601115e-14 2.395033917626336883e-01
1.421085471520200372e-14 2.259750999918138659e-01
4.263256414560601115e-14 2.452689108753376146e-01
4.263256414560601115e-14 2.322096514625268948e-01
0.000000000000000000e+00 2.266825392349528512e-01
2.842170943040400743e-14 2.273978829897380649e-01
1.421085471520200372e-14 2.143409189027571382e-01
0.000000000000000000e+00 2.145320856160645717e-01
2.842170943040400743e-14 2.094740196687283618e-01
1.421085471520200372e-14 2.084990882463566009e-01
0.000000000000000000e+00 2.074683220500893877e-01
1.421085471520200372e-14 2.049818030416324932e-01
2.842170943040400743e-14 2.016103018900112509e-01
0.000000000000000000e+00 2.021569535774299653e-01
2.842170943040400743e-14 1.979251496313925163e-01
2.842170943040400743e-14 1.966517719863370428e-01
0.000000000000000000e+00 2.020758980102864699e-01
4.263256414560601115e-14 2.255697483733573872e-01
4.263256414560601115e-14 2.302966539353965836e-01
1.421085471520200372e-14 2.475943571524574227e-01
4.263256414560601115e-14 2.242646756394826579e-01
4.263256414560601115e-14 2.247261770478950760e-01
1.421085471520200372e-14 2.221937061315062134e-01
2.842170943040400743e-14 2.112255646979015467e-01
5.684341886080801487e-14 2.229285679281491905e-01
0.000000000000000000e+00 2.240512315133022514e-01
2.842170943040400743e-14 2.109235915534865280e-01
5.684341886080801487e-14 2.496771400801635343e-01
0.000000000000000000e+00 2.218587815764705706e-01
1.421085471520200372e-14 2.297630123041689287e-01
1.421085471520200372e-14 2.396788649972990959e-01
1.421085471520200372e-14 2.267248713003306992e-01
1.421085471520200372e-14 2.231890653391379875e-01
1.421085471520200372e-14 2.374023906713933763e-01
0.000000000000000000e+00 2.147588794942886237e-01
0.000000000000000000e+00 2.210052774183982882e-01
0.000000000000000000e+00 2.145301784720768656e-01
1.421085471520200372e-14 2.342416375793251182e-01
0.000000000000000000e+00 2.196552388190348981e-01
0.000000000000000000e+00 2.366083183010128932e-01
1.421085471520200372e-14 2.480759012713538714e-01
0.000000000000000000e+00 2.763358718759866273e-01
1.421085471520200372e-14 2.682489017508700724e-01
1.421085471520200372e-14 4.015126681969583555e-01
0.000000000000000000e+00 3.748228731419203652e-01
1.421085471520200372e-14 5.165841198107932186e-01
1.421085471520200372e-14 2.932260280827838073e-01
0.000000000000000000e+00 3.757559520259153296e-01
2.842170943040400743e-14 3.748707271509272299e-01
2.842170943040400743e-14 3.431649593057581882e-01
0.000000000000000000e+00 2.920496291753439944e-01
2.842170943040400743e-14 3.179963875616984570e-01
8.526512829121202230e-14 3.152524659707323651e-01
0.000000000000000000e+00 2.888044528432631153e-01
5.684341886080801487e-14 2.388393716418405754e-01
8.526512829121202230e-14 3.040805880149119456e-01
0.000000000000000000e+00 2.663218376357500694e-01
5.684341886080801487e-14 2.875100699096252987e-01
8.526512829121202230e-14 3.555302002932752559e-01
2.842170943040400743e-14 3.246349790864119234e-01
5.684341886080801487e-14 3.586331416442408715e-01
8.526512829121202230e-14 4.306335913617628242e-01
2.842170943040400743e-14 4.480971068273238989e-01
5.684341886080801487e-14 4.607612555706750435e-01
5.684341886080801487e-14 3.498721133211231127e-01
2.842170943040400743e-14 4.314303103979695297e-01
5.684341886080801487e-14 3.654255142528906042e-01
5.684341886080801487e-14 2.820510061923892087e-01
2.842170943040400743e-14 2.420798859649077872e-01
5.684341886080801487e-14 2.152825194308050361e-01
5.684341886080801487e-14 2.552387051864072887e-01
5.684341886080801487e-14 2.095820954067470765e-01
5.684341886080801487e-14 2.126739106256500533e-01
2.842170943040400743e-14 2.033912890851645172e-01
5.684341886080801487e-14 1.545856846058841494e-01
5.684341886080801487e-14 1.908618423772680539e-01
2.842170943040400743e-14 1.697933462713114849e-01
5.684341886080801487e-14 1.743004214951565378e-01
8.526512829121202230e-14 1.923719316885098563e-01
2.842170943040400743e-14 1.368761132868918928e-01
8.526512829121202230e-14 1.652292359186544046e-01
8.526512829121202230e-14 1.971731939106388110e-01
2.842170943040400743e-14 1.559618013117435031e-01
8.526512829121202230e-14 1.501405775251010988e-01
8.526512829121202230e-14 1.120229111473150935e-01
0.000000000000000000e+00 1.289636973001905829e-01
8.526512829121202230e-14 9.332887903873197943e-02
8.526512829121202230e-14 1.163791062314849384e-01
0.000000000000000000e+00 1.056514957060254167e-01
8.526512829121202230e-14 9.205783306627192408e-02
5.684341886080801487e-14 9.748046944745394904e-02
0.000000000000000000e+00 9.330374235709974762e-02
2.842170943040400743e-14 8.550427205534293085e-02
5.684341886080801487e-14 8.620105912684587757e-02
0.000000000000000000e+00 8.866042131773164969e-02
2.842170943040400743e-14 7.701011662624109022e-02
5.684341886080801487e-14 6.709433279157105134e-02
0.000000000000000000e+00 7.056061217858508594e-02
2.842170943040400743e-14 6.226685114373069901e-02
2.842170943040400743e-14 6.974851673103839300e-02
0.000000000000000000e+00 4.741834930010326715e-02
2.842170943040400743e-14 6.797440814711486201e-02
2.842170943040400743e-14 5.447861886546839089e-02
0.000000000000000000e+00 5.377520935019897835e-02
5.684341886080801487e-14 6.099862105292870595e-02
2.842170943040400743e-14 4.604215343328709603e-02
0.000000000000000000e+00 5.693184853953178054e-02
5.684341886080801487e-14 3.576185195054188554e-02
5.684341886080801487e-14 5.569753461516469689e-02
0.000000000000000000e+00 3.866679258853926437e-02
5.684341886080801487e-14 5.002229620006060085e-02
8.526512829121202230e-14 3.414326651571844562e-02
0.000000000000000000e+00 3.367703019201094550e-02
5.684341886080801487e-14 3.338941635665372554e-02
8.526512829121202230e-14 3.922546530472067333e-02
0.000000000000000000e+00 2.744775671251185531e-02
8.526512829121202230e-14 3.273093376565841539e-02
2.842170943040400743e-14 2.706504064576301799e-02
2.842170943040400743e-14 3.222690023347477006e-02
8.526512829121202230e-14 3.218353364450565746e-02
8.526512829121202230e-14 3.188973516427940497e-02
2.842170943040400743e-14 3.181197997401069566e-02
8.526512829121202230e-14 2.617962977926651183e-02
5.684341886080801487e-14 3.143443095200999099e-02
2.842170943040400743e-14 2.605537648425582803e-02
8.526512829121202230e-14 3.119958089333620468e-02
5.684341886080801487e-14 3.109239421762501066e-02
2.842170943040400743e-14 2.572425611691571412e-02
1.136868377216160297e-13 3.089428984551468096e-02
0.000000000000000000e+00 2.558342263218493784e-02
0.000000000000000000e+00 3.076893506085250779e-02
1.136868377216160297e-13 2.551010062646821494e-02
5.684341886080801487e-14 2.548825356443203474e-02
5.684341886080801487e-14 2.548225026650514924e-02
1.136868377216160297e-13 2.548369156513060826e-02
2.842170943040400743e-14 2.550250370683598486e-02
0.000000000000000000e+00 2.551556165904101878e-02
1.136868377216160297e-13 2.551703026570100591e-02
2.842170943040400743e-14 2.553062950156795990e-02
5.684341886080801487e-14 2.554283481967602881e-02
2.842170943040400743e-14 2.555053164883374153e-02
2.842170943040400743e-14 2.556099821197306207e-02
2.842170943040400743e-14 2.556939982779153284e-02
1.136868377216160297e-13 2.557322937257474130e-02
2.842170943040400743e-14 2.557655463048396152e-02
8.526512829121202230e-14 2.557889513144198310e-02
2.842170943040400743e-14 2.558088955960799091e-02
5.684341886080801487e-14 2.558252484211855776e-02
0.000000000000000000e+00 2.558428466667898166e-02
8.526512829121202230e-14 2.558523039614218897e-02
0.000000000000000000e+00 2.558600165431749660e-02
8.526512829121202230e-14 2.558656731631041292e-02
0.000000000000000000e+00 2.558705450719861788e-02
8.526512829121202230e-14 2.558747777715165983e-02
2.842170943040400743e-14 2.558760879937952565e-02
8.526512829121202230e-14 2.558770730856929632e-02
0.000000000000000000e+00 2.558774019115947831e-02
5.684341886080801487e-14 2.558774019115947831e-02
0.000000000000000000e+00 2.558774019115947831e-02
2.842170943040400743e-14 2.558774019115947831e-02
2.842170943040400743e-14 2.558774019115947831e-02
5.684341886080801487e-14 2.558774019115947831e-02
0.000000000000000000e+00 2.558774019115947831e-02
8.526512829121202230e-14 2.558774019115947831e-02
2.842170943040400743e-14 2.558774019115947831e-02
1.136868377216160297e-13 2.558774019115947831e-02
2.842170943040400743e-14 2.558774019115947831e-02
5.684341886080801487e-14 2.558774019115947831e-02
0.000000000000000000e+00 2.558774019115947831e-02
8.526512829121202230e-14 2.558774019115947831e-02
2.842170943040400743e-14 2.558774019115947831e-02
8.526512829121202230e-14 2.558774019115947831e-02
2.842170943040400743e-14 2.558774019115947831e-02
8.526512829121202230e-14 2.558774019115947831e-02
0.000000000000000000e+00 2.558774019115947831e-02
1.136868377216160297e-13 2.558774019115947831e-02
5.684341886080801487e-14 2.558774019115947831e-02
1.136868377216160297e-13 2.558774019115947831e-02
5.684341886080801487e-14 2.558774019115947831e-02
5.684341886080801487e-14 2.558774019115947831e-02
0.000000000000000000e+00 2.558774019115947831e-02
1.705302565824240446e-13 2.558774019115947831e-02
5.684341886080801487e-14 2.558774019115947831e-02
1.136868377216160297e-13 2.558774019115947831e-02
1.705302565824240446e-13 2.558774019115947831e-02
5.684341886080801487e-14 2.558774019115947831e-02
0.000000000000000000e+00 2.558774019115947831e-02
1.705302565824240446e-13 2.558774019115947831e-02
1.136868377216160297e-13 2.558774019115947831e-02
1.136868377216160297e-13 2.558774019115947831e-02
1.705302565824240446e-13 2.558774019115947831e-02
0.000000000000000000e+00 2.558774019115947831e-02
0.000000000000000000e+00 2.558774019115947831e-02
1.705302565824240446e-13 2.558774019115947831e-02
1.136868377216160297e-13 2.558774019115947831e-02
5.684341886080801487e-14 2.558774019115947831e-02
1.705302565824240446e-13 2.558774019115947831e-02
0.000000000000000000e+00 2.558774019115947831e-02
5.684341886080801487e-14 2.558774019115947831e-02
1.705302565824240446e-13 2.558774019115947831e-02
1.136868377216160297e-13 2.558774019115947831e-02
5.684341886080801487e-14 2.558774019115947831e-02
1.705302565824240446e-13 2.558774019115947831e-02
0.000000000000000000e+00 2.558774019115947831e-02
5.684341886080801487e-14 2.558774019115947831e-02
5.684341886080801487e-14 2.558774019115947831e-02
1.136868377216160297e-13 2.558774019115947831e-02
5.684341886080801487e-14 2.558774019115947831e-02
1.136868377216160297e-13 2.558774019115947831e-02
0.000000000000000000e+00 2.558774019115947831e-02
5.684341886080801487e-14 2.558774019115947831e-02
5.684341886080801487e-14 2.558774019115947831e-02
1.136868377216160297e-13 2.558774019115947831e-02
1.136868377216160297e-13 2.558774019115947831e-02
1.136868377216160297e-13 2.558774019115947831e-02
0.000000000000000000e+00 2.558774019115947831e-02
5.684341886080801487e-14 2.558774019115947831e-02
5.684341886080801487e-14 2.558774019115947831e-02
1.136868377216160297e-13 2.558774019115947831e-02
5.684341886080801487e-14 2.558774019115947831e-02
1.136868377216160297e-13 2.558774019115947831e-02
0.000000000000000000e+00 2.558774019115947831e-02
1.136868377216160297e-13 2.558774019115947831e-02
5.684341886080801487e-14 2.558774019115947831e-02
1.136868377216160297e-13 2.558774019115947831e-02
5.684341886080801487e-14 2.558774019115947831e-02
5.684341886080801487e-14 2.558774019115947831e-02
0.000000000000000000e+00 2.558774019115947831e-02
1.136868377216160297e-13 2.558774019115947831e-02
1.136868377216160297e-13 2.558774019115947831e-02
1.136868377216160297e-13 2.558774019115947831e-02
5.684341886080801487e-14 2.558774019115947831e-02
5.684341886080801487e-14 2.558774019115947831e-02
0.000000000000000000e+00 2.558774019115947831e-02
1.136868377216160297e-13 2.558774019115947831e-02
1.136868377216160297e-13 2.558774019115947831e-02
1.705302565824240446e-13 2.558774019115947831e-02
5.684341886080801487e-14 2.558774019115947831e-02
5.684341886080801487e-14 2.558774019115947831e-02
0.000000000000000000e+00 2.558774019115947831e-02
1.705302565824240446e-13 2.558774019115947831e-02
1.136868377216160297e-13 2.558774019115947831e-02
1.705302565824240446e-13 2.558774019115947831e-02
1.705302565824240446e-13 2.558774019115947831e-02
5.684341886080801487e-14 2.558774019115947831e-02
0.000000000000000000e+00 2.558774019115947831e-02
