0.000000000000000000e+00 nan
1.000031954366780385e+00 1.711750624457233361e-01
2.000063908733560769e+00 9.597375786625081950e-01
3.000095863100341820e+00 9.596507150526332186e-01
4.000127817467121538e+00 9.591576019394206787e-01
5.000159771833906142e+00 9.583059126580582010e-01
6.000191726200683640e+00 9.573118521447078200e-01
7.000223680567469131e+00 9.555025315789098528e-01
8.000255634934243076e+00 9.545954412260809763e-01
9.000287589301025903e+00 9.527373150672017177e-01
1.000031954366781228e+01 9.513046969939874531e-01
1.100035149803459689e+01 9.495740798081429013e-01
1.200038345240136728e+01 9.477069969383610237e-01
1.300041540676815011e+01 9.465694248891981522e-01
1.400044736113493826e+01 9.445739653108976563e-01
1.500047931550170865e+01 9.433637096621901863e-01
1.600051126986848615e+01 9.419748474164815200e-01
1.700054322423528319e+01 9.401328502375242424e-01
1.800057517860205181e+01 9.385249928723514712e-01
1.900060713296882398e+01 9.363582147215248064e-01
2.000063908733562457e+01 9.339917484084817589e-01
2.100067104170239318e+01 9.314234312663437487e-01
2.200070299606919377e+01 9.298872977833494424e-01
2.300073495043596594e+01 9.259702681557797632e-01
2.400076690480273456e+01 9.236360212615757348e-01
2.500079885916953515e+01 9.205110869203489976e-01
2.600083081353630021e+01 9.179315107720651401e-01
2.700086276790307593e+01 9.161099588675302163e-01
2.800089472226987652e+01 9.127935704973776376e-01
2.900092667663663804e+01 9.114577509712599168e-01
3.000095863100341731e+01 9.081061553273205300e-01
3.100099058537022145e+01 9.053518726071998479e-01
3.200102253973697231e+01 9.030199660856911281e-01
3.300105449410376224e+01 8.992658553432136825e-01
3.400108644847056638e+01 8.980686693000902165e-01
3.500111840283731368e+01 8.964372460311245128e-01
3.600115035720410361e+01 8.952481168459157646e-01
3.700118231157090776e+01 8.938078114647436401e-01
3.800121426593764795e+01 8.921855398301284934e-01
3.900124622030444499e+01 8.912072241117559024e-01
4.000127817467124913e+01 8.907180053286449795e-01
4.100131012903798933e+01 8.898887055895585707e-01
4.200134208340478637e+01 8.897787279062568944e-01
4.300137403777159051e+01 8.885949970443156598e-01
4.400140599213838755e+01 8.882198556279669033e-01
4.500143794650512774e+01 8.872820383931184773e-01
4.600146990087193188e+01 8.870922905651889012e-01
4.700150185523872892e+01 8.859486939345466716e-01
4.800153380960546912e+01 8.859421250110460777e-01
4.900156576397227326e+01 8.853936100979289403e-01
5.000159771833907030e+01 8.850150401215038931e-01
5.100162967270581049e+01 8.847024366170536114e-01
5.200166162707260042e+01 8.843124266838050529e-01
5.300169358143941167e+01 8.838682672684097241e-01
5.400172553580615187e+01 8.839718066835401400e-01
5.500175749017294180e+01 8.835875221754345699e-01
5.600178944453975305e+01 8.835260852316964009e-01
5.700182139890649324e+01 8.835529142738663966e-01
5.800185335327327607e+01 8.831110285459579101e-01
5.900188530764010153e+01 8.831906106873014251e-01
6.000191726200683462e+01 8.829443861164176788e-01
6.100194921637361745e+01 8.827226903122220580e-01
6.200198117074044291e+01 8.826953186497934478e-01
6.300201312510717599e+01 8.825885163611729700e-01
6.400204507947394461e+01 8.826091377852034459e-01
6.500207703384079139e+01 8.825477105760490826e-01
6.600210898820752448e+01 8.825546638500476604e-01
6.700214094257428599e+01 8.825084941106962066e-01
6.800217289694113276e+01 8.825160036466148661e-01
6.900220485130786585e+01 8.825006667108233893e-01
7.000223680567462736e+01 8.824929982429275954e-01
7.100226876004147414e+01 8.824929982429275954e-01
7.200230071440820723e+01 8.824929982429275954e-01
7.300233266877496874e+01 8.824929982429275954e-01
7.400236462314181551e+01 8.824929982429275954e-01
7.500239657750854860e+01 8.824929982429275954e-01
7.600242853187529590e+01 8.824929982429275954e-01
7.700246048624215689e+01 8.824929982429275954e-01
7.800249244060888998e+01 8.824929982429275954e-01
7.900252439497563728e+01 8.824929982429275954e-01
8.000255634934249827e+01 8.824929982429275954e-01
8.100258830370923135e+01 8.824929982429275954e-01
8.200262025807597865e+01 8.824929982429275954e-01
8.300265221244283964e+01 8.824929982429275954e-01
8.400268416680957273e+01 8.824929982429275954e-01
8.500271612117643372e+01 8.824929982429275954e-01
8.600274807554318102e+01 8.824929982429275954e-01
8.700278002990991411e+01 8.824929982429275954e-01
8.800281198427677509e+01 8.824929982429275954e-01
8.900284393864352239e+01 8.824929982429275954e-01
9.000287589301025548e+01 8.824929982429275954e-01
