#####################################################################
# Alchemist log file - simulation started at: 2017-05-21T22:06+0000 #
#####################################################################
# random = 3.0, targets = 3.1622776601683795, density = 0.1591589639397027, gridShift = 1.0, perturbation = 0.0, connfactor = 0.25
#
# The columns have the following meaning: 
# time se[Mean] 
0.0 NaN 
1.0016359619213666 NaN 
2.001635961921367 1.0 
3.001635961921367 1.0 
4.001635961921367 1.0 
5.001635961921367 1.0 
6.001635961921367 1.0 
7.001635961921367 1.0 
#####################################################################
# End of data export. Simulation finished at: 2017-05-21T22:06+0000 #
#####################################################################
