0.000000000000000000e+00 nan
1.000290349108189591e+00 1.459179507576936263e+00
2.000580698216379183e+00 1.293514929024353721e+00
3.000871047324566110e+00 1.355405985986118278e+00
4.001161396432758366e+00 1.595935250236785174e+00
5.001451745540946625e+00 1.832348207822622754e+00
6.001742094649132220e+00 1.899072617771968563e+00
7.002032443757324032e+00 2.046827397951661354e+00
8.002322792865516732e+00 1.942502204870985683e+00
9.002613141973704103e+00 1.984021135424240745e+00
1.000290349108189325e+01 2.046678766803031735e+00
1.100319384019008062e+01 2.198548960418273968e+00
1.200348418929826444e+01 2.332337711568988947e+00
1.300377453840645181e+01 1.954286510836966029e+00
1.400406488751464806e+01 2.068034493149935038e+00
1.500435523662283543e+01 2.264454235081675204e+00
1.600464558573103346e+01 2.652510156586420198e+00
1.700493593483922083e+01 2.471221759120306505e+00
1.800522628394740821e+01 2.805595062441526455e+00
1.900551663305560268e+01 2.536621582705327338e+00
2.000580698216378650e+01 2.419287984939415548e+00
2.100609733127197387e+01 2.854188293844362789e+00
2.200638768038016124e+01 2.211739645205364369e+00
2.300667802948834506e+01 2.057802860604522888e+00
2.400696837859652888e+01 1.833588714878163106e+00
2.500725872770472336e+01 1.827568798004579609e+00
2.600754907681290362e+01 1.825780580165441869e+00
2.700783942592111941e+01 1.825780580165441869e+00
2.800812977502929613e+01 1.825780580165441869e+00
2.900842012413749771e+01 1.825780580165441869e+00
3.000871047324567087e+01 1.825780580165441869e+00
3.100900082235386535e+01 1.825780580165441869e+00
