#####################################################################
# Alchemist log file - simulation started at: 2017-05-23T03:45+0000 #
#####################################################################
# random = 10.0, targets = 100.0, density = 0.3174802103936399, gridShift = 1.0, perturbation = 0.5, connfactor = 0.1
#
# The columns have the following meaning: 
# time se[Mean] 
0.0 NaN 
1.0036005446229952 NaN 
2.003600544622995 1.0 
3.003600544622995 1.0 
4.003600544622995 0.9989446428571429 
5.003600544622995 0.9992928571428571 
6.003600544622995 0.9933125 
7.003600544622995 0.9873142857142857 
8.003600544622994 0.9848232142857143 
9.003600544622994 0.9826875 
10.003600544622994 0.9780892857142857 
11.003600544622994 0.9812267857142857 
12.003600544622994 0.9815607142857142 
13.003600544622994 0.9847410714285714 
14.003600544622994 0.9857928571428571 
15.003600544622994 0.9868517857142857 
16.003600544622994 0.9886285714285714 
17.003600544622994 0.9875732142857143 
18.003600544622994 0.9882839285714285 
19.003600544622994 0.9879392857142857 
20.003600544622994 0.9861839285714286 
21.003600544622994 0.9861839285714286 
22.003600544622994 0.9823071428571428 
23.003600544622994 0.9808892857142857 
24.003600544622994 0.9787892857142857 
25.003600544622994 0.9615232142857143 
26.003600544622994 0.9576964285714286 
27.003600544622994 0.9529700892857143 
28.003600544622994 0.9194151785714286 
29.003600544622994 0.9188008928571428 
30.003600544622994 0.8965683035714286 
31.003600544622994 0.8944214285714286 
32.003600544623 0.8867955357142857 
33.003600544623 0.8629415178571429 
34.003600544623 0.8300227678571429 
35.003600544623 0.8323799107142857 
36.003600544623 0.8015638392857143 
37.003600544623 0.8813986607142857 
38.003600544623 0.8409549107142857 
39.003600544623 0.8458504464285714 
40.003600544623 0.8845245535714286 
41.003600544623 0.8706857142857143 
42.003600544623 0.8836544642857143 
43.003600544623 0.8863616071428572 
44.003600544623 0.8811254464285715 
45.003600544623 0.8874941964285714 
46.003600544623 0.883625 
47.003600544623 0.8837808035714286 
48.003600544623 0.8851200892857143 
49.003600544623 0.8832660714285715 
50.003600544623 0.8839375 
51.003600544623 0.8836 
52.003600544623 0.8836 
53.003600544623 0.8836 
54.003600544623 0.8836 
55.003600544623 0.8836 
56.003600544623 0.8836 
57.003600544623 0.8836 
58.003600544623 0.8836 
59.003600544623 0.8836 
60.003600544623 0.8836 
61.003600544623 0.8836 
62.003600544623 0.8836 
63.003600544623 0.8836 
#####################################################################
# End of data export. Simulation finished at: 2017-05-23T03:45+0000 #
#####################################################################
