#####################################################################
# Alchemist log file - simulation started at: 2017-05-20T17:24+0000 #
#####################################################################
# random = 1.0, targets = 10.0, density = 20.0, gridShift = 0.0, perturbation = 0.5, connfactor = 0.5
#
# The columns have the following meaning: 
# time se[Mean] 
0.0 NaN 
1.0000417374280275 NaN 
2.0000417374280275 1.0 
3.0000417374280275 1.0 
4.0000417374280275 0.9998641304347826 
5.0000417374280275 0.9993206521739131 
6.0000417374280275 0.9994565217391305 
7.0000417374280275 0.9980841734929636 
8.000041737428027 0.9972041062801932 
9.000041737428027 0.9945335801302247 
10.000041737428027 0.9907210932577188 
11.000041737428027 0.9875542165511447 
12.000041737428027 0.9825074826717078 
13.000041737428027 0.9792303350136521 
14.000041737428027 0.9771947857592939 
15.000041737428027 0.9732245064062178 
16.000041737428027 0.9710761919764751 
17.000041737428027 0.9699636368410005 
18.000041737428027 0.965259268010922 
19.000041737428027 0.9632091472379747 
20.000041737428027 0.9610975897920606 
21.000041737428027 0.9591482881747527 
22.000041737428027 0.9578947437513126 
23.000041737428027 0.9572763074984252 
24.000041737428027 0.9561520688930898 
25.000041737428027 0.9565707046838904 
26.000041737428027 0.9557902751522789 
27.000041737428027 0.9543865521949166 
28.000041737428027 0.9540036231884055 
29.000041737428027 0.9517484509556807 
30.000041737428027 0.9485968021424077 
31.000041737428027 0.94812618147448 
32.00004173742803 0.9438388731358955 
33.00004173742803 0.9436008716656162 
34.00004173742803 0.941060832808233 
35.00004173742803 0.9373941923965554 
36.00004173742803 0.9356936567947908 
37.00004173742803 0.9330948067632842 
38.00004173742803 0.9282888311279137 
39.00004173742803 0.9251992753623194 
40.00004173742803 0.9248611111111104 
41.00004173742803 0.9178025887418602 
42.00004173742803 0.9156695022054198 
43.00004173742803 0.9131768536021838 
44.00004173742803 0.9080450535601762 
45.00004173742803 0.9054104967443817 
46.00004173742803 0.9002713453056079 
47.00004173742803 0.8943043740810749 
48.00004173742803 0.8897505776097449 
49.00004173742803 0.8856553245116575 
50.00004173742803 0.8816904274312126 
51.00004173742803 0.8754111531190929 
52.00004173742803 0.869487502625499 
53.00004173742803 0.8673834278512912 
54.00004173742803 0.8608843992858641 
55.00004173742803 0.8521422757823991 
56.00004173742803 0.8492386053350128 
57.00004173742803 0.8441497321991174 
58.00004173742803 0.8332791167821889 
59.00004173742803 0.8226407267380803 
60.00004173742803 0.8202582178113839 
61.00004173742803 0.8096245536651966 
62.00004173742803 0.800378465658475 
63.00004173742803 0.7996139203948749 
64.00004173742803 0.7871208779668138 
65.00004173742803 0.7796063064482254 
66.00004173742803 0.7818066057550935 
67.00004173742803 0.7730327137156062 
68.00004173742803 0.7695862213820623 
69.00004173742803 0.7604603812224321 
70.00004173742803 0.760288148498215 
71.00004173742803 0.757114445494644 
72.00004173742803 0.7478461720226843 
73.00004173742803 0.7459102604494855 
74.00004173742803 0.740516304347826 
75.00004173742803 0.7353434152488971 
76.00004173742803 0.7317430686830502 
77.00004173742803 0.7309285076664563 
78.00004173742803 0.7234201060701532 
79.00004173742803 0.7202486347406002 
80.00004173742803 0.7202263180004206 
81.00004173742803 0.7174908107540438 
82.00004173742803 0.7100876916614164 
83.00004173742803 0.7117060491493379 
84.00004173742803 0.7131793478260875 
85.00004173742803 0.7051142091997478 
86.00004173742803 0.7067263967653863 
87.00004173742803 0.7048427326191975 
88.00004173742803 0.7030593625288803 
89.00004173742803 0.7000498844780506 
90.00004173742803 0.7024780770846453 
91.00004173742803 0.7000225792900657 
92.00004173742803 0.6988983406847306 
93.00004173742803 0.6992232461667709 
94.00004173742803 0.7008896502835529 
95.00004173742803 0.7049955366519639 
96.00004173742803 0.7020530088216749 
97.00004173742803 0.7134873188405794 
98.00004173742803 0.7259004148288182 
99.00004173742803 0.7184618515017863 
100.00004173742803 0.7224144087376598 
101.00004173742803 0.7325691818945598 
102.00004173742803 0.7289508506616258 
103.00004173742803 0.736105860113422 
104.00004173742803 0.7466103497164448 
105.00004173742803 0.7413055293005671 
106.00004173742803 0.7429595935727786 
107.00004173742803 0.7521786389413994 
108.00004173742803 0.7503024574669195 
109.00004173742803 0.7461271266540656 
110.00004173742803 0.7440938090737238 
111.00004173742803 0.7452492911153128 
112.00004173742803 0.7460030718336484 
113.00004173742803 0.7305706521739136 
114.00004173742803 0.7310987712665413 
115.00004173742803 0.7458494801512289 
116.00004173742803 0.7344789697542536 
117.00004173742803 0.7309782608695656 
118.00004173742803 0.7394683364839321 
119.00004173742803 0.7234924385633269 
120.00004173742803 0.7285680529300564 
121.00004173742803 0.7344624291115309 
122.00004173742803 0.7132644139886581 
123.00004173742803 0.7162913516068052 
124.00004173742803 0.7274373818525519 
125.00004173742803 0.7204643194706993 
126.00004173742803 0.7185975897920607 
127.00004173742803 0.7146207466918718 
128.00004173742803 0.7165087429111531 
129.00004173742803 0.724678638941399 
130.00004173742803 0.7164851134215501 
131.00004173742803 0.7122518903591687 
132.00004173742803 0.7175744328922498 
133.00004173742803 0.7075437145557658 
134.00004173742803 0.7051772211720224 
135.00004173742803 0.7074870037807189 
136.00004173742803 0.7005871928166351 
137.00004173742803 0.701866729678638 
138.00004173742803 0.6980056710775052 
139.00004173742803 0.6977327504725906 
140.00004173742803 0.6889721172022679 
141.00004173742803 0.6799929111531187 
142.00004173742803 0.6776405954631372 
143.00004173742803 0.6686590264650284 
144.00004173742803 0.6563740548204143 
145.00004173742803 0.6482313327032145 
146.00004173742803 0.6545025992438572 
147.00004173742803 0.6499031190926284 
148.00004173742803 0.6434026465028372 
149.00004173742803 0.6312653591682422 
150.00004173742803 0.6258660207939516 
151.00004173742803 0.6239945652173895 
152.00004173742803 0.6059829867674853 
153.00004173742803 0.5930009451795845 
154.00004173742803 0.5837358223062377 
155.00004173742803 0.5768348298676752 
156.00004173742803 0.5685677903801717 
157.00004173742803 0.5605566057550943 
158.00004173742803 0.5555117097248469 
159.00004173742803 0.547800225792901 
160.00004173742803 0.543865653224113 
161.00004173742803 0.5385937828187357 
162.00004173742803 0.5310992963663093 
163.00004173742803 0.5268620037807189 
164.00004173742803 0.5198916981726516 
165.00004173742803 0.5121298046628852 
166.00004173742803 0.5050728575929413 
167.00004173742803 0.4976384950640614 
168.00004173742803 0.4892674858223049 
169.00004173742803 0.48051131590002194 
170.00004173742803 0.4729469911783253 
171.00004173742803 0.4636172810333971 
172.00004173742803 0.4548569103129605 
173.00004173742803 0.44563996534341416 
174.00004173742803 0.4364072673808026 
175.00004173742803 0.4262422547784106 
176.00004173742803 0.4302907739970602 
177.00004173742803 0.46877835538752266 
178.00004173742803 0.44197253728208424 
179.00004173742803 0.6096502835538748 
180.00004173742803 0.5817867832388155 
181.00004173742803 0.5402424648183151 
182.00004173742803 0.6585081915563947 
183.00004173742803 0.6341473692501586 
184.00004173742803 0.673267564587271 
185.00004173742803 0.813291062801928 
186.00004173742803 0.8851551669817269 
187.00004173742803 0.928534577819788 
188.00004173742803 1.4510135738290126 
189.00004173742803 1.4404862423860405 
190.00004173742803 2.1840998477210674 
191.00004173742803 2.2575240233144487 
192.00004173742803 2.141085906322204 
193.00004173742803 2.820445547153984 
194.00004173742803 2.877545289855062 
195.00004173742803 3.0510872190716425 
196.00004173742803 3.853543241965965 
197.00004173742803 4.004767643352208 
198.00004173742803 3.994088820625886 
199.00004173742803 4.3869679426591315 
200.00004173742803 4.719329578869969 
201.00004173742803 4.6072017433312205 
202.00004173742803 4.704553140096626 
203.00004173742803 4.866024207099374 
204.00004173742803 4.68118318105442 
205.00004173742803 5.085119985297218 
206.00004173742803 4.63088558076036 
207.00004173742803 5.370321229783617 
208.00004173742803 5.641674674438131 
209.00004173742803 5.431131064902335 
210.00004173742803 8.180069050619629 
211.00004173742803 7.21176932367152 
212.00004173742803 13.965439508506531 
213.00004173742803 13.914345725687733 
214.00004173742803 12.409988316530011 
215.00004173742803 16.67803363264017 
216.00004173742803 17.45462717916397 
217.00004173742803 18.921984877126803 
218.00004173742803 23.9800703633691 
219.00004173742803 25.167162360848668 
220.00004173742803 24.70143076559524 
221.00004173742803 28.247210670027172 
222.00004173742803 31.736932892249644 
223.00004173742803 30.51195914723801 
224.00004173742803 29.666185018903697 
225.00004173742803 32.76588321781139 
226.00004173742803 32.42119578344865 
227.00004173742803 32.143480492543645 
228.00004173742803 28.23651596303283 
229.00004173742803 37.07369998424697 
230.00004173742803 37.01220331863062 
231.00004173742803 30.60222826086943 
232.00004173742803 36.82565939403486 
233.00004173742803 31.841205103969745 
234.00004173742803 29.337905770846476 
235.00004173742803 35.40941950220536 
236.00004173742803 29.877682997269375 
237.00004173742803 23.773921051249687 
238.00004173742803 35.22250840159629 
239.00004173742803 31.282283002520376 
240.00004173742803 29.722448802772462 
241.00004173742803 32.142108144297396 
242.00004173742803 27.975934677588626 
243.00004173742803 36.43290248897298 
244.00004173742803 32.70082493173689 
245.00004173742803 31.63468651543795 
246.00004173742803 32.75671182524671 
247.00004173742803 34.915986793740906 
248.00004173742803 27.75646896660354 
249.00004173742803 35.25121271791664 
250.00004173742803 30.121665485192086 
251.00004173742803 32.63340159630283 
252.00004173742803 32.30585512497344 
253.00004173742803 31.064736925015822 
254.00004173742803 31.624778014072422 
255.00004173742803 25.692352840789827 
256.00004173742803 27.691618751312923 
257.00004173742803 24.352123240915972 
258.00004173742803 21.713348429951502 
259.00004173742803 19.73532333018249 
260.00004173742803 22.99835998214689 
261.00004173742803 23.654590290904974 
262.00004173742803 22.983357487922405 
263.00004173742803 20.36900322936365 
264.00004173742803 15.110829920185123 
265.00004173742803 21.002956442973726 
266.00004173742803 11.817901438773779 
267.00004173742803 9.1888316530137 
268.00004173742803 7.876132246377026 
269.00004173742803 4.594425147027786 
270.00004173742803 4.594398760764705 
271.00004173742803 1.9690343415248583 
272.00004173742803 3.938024574669315 
273.00004173742803 2.6253497164460704 
274.00004173742803 7.351396765385517E-6 
275.00004173742803 0.6563400546103683 
276.00004173742803 2.6254988447804423E-6 
277.00004173742803 5.250997689560957E-7 
278.00004173742803 5.250997689560957E-7 
279.00004173742803 0.0 
280.00004173742803 0.0 
281.00004173742803 0.0 
282.00004173742803 0.0 
283.00004173742803 0.0 
284.00004173742803 0.0 
285.00004173742803 0.0 
286.00004173742803 0.0 
287.00004173742803 0.0 
288.00004173742803 0.0 
289.00004173742803 0.0 
290.00004173742803 0.0 
291.00004173742803 0.0 
292.00004173742803 0.0 
293.00004173742803 0.0 
294.00004173742803 0.0 
295.00004173742803 0.0 
296.00004173742803 0.0 
297.00004173742803 0.0 
298.00004173742803 0.0 
299.00004173742803 0.0 
300.00004173742803 0.0 
301.00004173742803 0.0 
302.00004173742803 0.0 
303.00004173742803 0.0 
304.00004173742803 0.0 
305.00004173742803 0.0 
306.00004173742803 0.0 
307.00004173742803 0.0 
308.00004173742803 0.0 
309.00004173742803 0.0 
310.00004173742803 0.0 
311.00004173742803 0.0 
312.00004173742803 0.0 
313.00004173742803 0.0 
314.00004173742803 0.0 
315.00004173742803 0.0 
316.00004173742803 0.0 
317.00004173742803 0.0 
318.00004173742803 0.0 
319.00004173742803 0.0 
320.00004173742803 0.0 
321.00004173742803 0.0 
322.00004173742803 0.0 
323.00004173742803 0.0 
324.00004173742803 0.0 
325.00004173742803 0.0 
326.00004173742803 0.0 
327.00004173742803 0.0 
328.00004173742803 0.0 
329.00004173742803 0.0 
330.00004173742803 0.0 
331.00004173742803 0.0 
332.00004173742803 0.0 
333.00004173742803 0.0 
334.00004173742803 0.0 
335.00004173742803 0.0 
336.00004173742803 0.0 
337.00004173742803 0.0 
338.00004173742803 0.0 
339.00004173742803 0.0 
340.00004173742803 0.0 
341.00004173742803 0.0 
342.00004173742803 0.0 
343.00004173742803 0.0 
344.00004173742803 0.0 
345.00004173742803 0.0 
346.00004173742803 0.0 
347.00004173742803 0.0 
348.00004173742803 0.0 
349.00004173742803 0.0 
350.00004173742803 0.0 
351.00004173742803 0.0 
352.00004173742803 0.0 
353.00004173742803 0.0 
354.00004173742803 0.0 
355.00004173742803 0.0 
356.00004173742803 0.0 
357.00004173742803 0.0 
358.00004173742803 0.0 
359.00004173742803 0.0 
360.00004173742803 0.0 
361.00004173742803 0.0 
362.00004173742803 0.0 
363.00004173742803 0.0 
364.00004173742803 0.0 
365.00004173742803 0.0 
366.00004173742803 0.0 
367.00004173742803 0.0 
368.00004173742803 0.0 
369.00004173742803 0.0 
370.00004173742803 0.0 
371.00004173742803 0.0 
372.00004173742803 0.0 
373.00004173742803 0.0 
374.00004173742803 0.0 
375.00004173742803 0.0 
376.00004173742803 0.0 
377.00004173742803 0.0 
378.00004173742803 0.0 
379.00004173742803 0.0 
380.00004173742803 0.0 
381.00004173742803 0.0 
382.00004173742803 0.0 
383.00004173742803 0.0 
384.00004173742803 0.0 
385.00004173742803 0.0 
#####################################################################
# End of data export. Simulation finished at: 2017-05-20T17:49+0000 #
#####################################################################
