#####################################################################
# Alchemist log file - simulation started at: 2017-05-24T21:15+0000 #
#####################################################################
# random = 16.0, targets = 1.0, density = 1.2632455339402642, gridShift = 0.0, perturbation = 0.0, connfactor = 0.25
#
# The columns have the following meaning: 
# time se[Mean] 
0.0 NaN 
1.0066017814354276 NaN 
2.0066017814354273 1.0 
3.0066017814354273 1.0 
4.006601781435427 1.0 
5.006601781435427 1.0 
6.006601781435427 1.0 
7.006601781435427 1.0 
8.006601781435428 1.0 
9.006601781435428 1.0 
10.006601781435428 1.0 
11.006601781435428 1.0 
12.006601781435428 1.0 
13.006601781435428 1.0 
14.006601781435428 1.0 
15.006601781435428 1.0 
16.006601781435428 1.0 
17.006601781435428 1.0 
18.006601781435428 1.0 
19.006601781435428 1.0 
20.006601781435428 1.0 
21.006601781435428 1.0 
22.006601781435428 1.0 
23.006601781435428 1.0 
24.006601781435428 1.0 
#####################################################################
# End of data export. Simulation finished at: 2017-05-24T21:15+0000 #
#####################################################################
