#####################################################################
# Alchemist log file - simulation started at: 2017-05-21T08:57+0000 #
#####################################################################
# random = 2.0, targets = 10.0, density = 7.099073319511142, gridShift = 1.0, perturbation = 0.5, connfactor = 1.0
#
# The columns have the following meaning: 
# time se[Mean] 
0.0 NaN 
1.0021051854459069 NaN 
2.002105185445907 1.0021410256410257 
3.002105185445907 1.0045434472934474 
4.002105185445907 1.0057232905982907 
5.002105185445907 1.0065819088319088 
6.002105185445907 1.0014116809116809 
7.002105185445907 0.9940819088319088 
8.002105185445906 0.9954839743589744 
9.002105185445906 0.9930584045584046 
10.002105185445906 0.9904857549857551 
11.002105185445906 0.9916100427350427 
12.002105185445906 0.9861381766381766 
13.002105185445906 0.9867240028490029 
14.002105185445906 0.9801331908831908 
15.002105185445906 0.9754889601139602 
16.002105185445906 0.9655231481481482 
17.002105185445906 0.9554925213675213 
18.002105185445906 0.9428447293447295 
19.002105185445906 0.9254864672364673 
20.002105185445906 0.9144091880341879 
21.002105185445906 0.8968504273504271 
22.002105185445906 0.8844533475783478 
23.002105185445906 0.8784569088319093 
24.002105185445906 0.8598215811965815 
25.002105185445906 0.8462307692307695 
26.002105185445906 0.8324960826210828 
27.002105185445906 0.8147624643874641 
28.002105185445906 0.8103760683760687 
29.002105185445906 0.7972503561253563 
30.002105185445906 0.7858700142450145 
31.002105185445906 0.7787247150997154 
32.002105185445906 0.7813447293447293 
33.002105185445906 0.769706552706553 
34.002105185445906 0.7759583333333332 
35.002105185445906 0.7746663105413105 
36.002105185445906 0.7827040598290599 
37.002105185445906 0.7902628205128208 
38.002105185445906 0.8050402421652418 
39.002105185445906 0.8138938746438746 
40.002105185445906 0.8194729344729342 
41.002105185445906 0.8285284900284902 
42.002105185445906 0.8423233618233615 
43.002105185445906 0.8450231481481483 
44.002105185445906 0.8557186609686611 
45.002105185445906 0.8622585470085471 
46.002105185445906 0.8639722222222225 
47.002105185445906 0.8753817663817663 
48.002105185445906 0.8839761396011397 
49.002105185445906 0.8937389601139603 
50.002105185445906 0.9040908119658121 
51.002105185445906 0.9147389601139602 
52.002105185445906 0.9267881054131054 
53.002105185445906 0.9388992165242165 
54.002105185445906 0.9478461538461539 
55.002105185445906 0.9585231481481482 
56.002105185445906 0.9646509971509972 
57.002105185445906 0.9737500000000001 
58.002105185445906 0.9735135327635329 
59.002105185445906 0.9861246438746439 
60.002105185445906 0.9888717948717949 
61.002105185445906 0.9807742165242167 
62.002105185445906 0.9769761396011397 
63.002105185445906 0.9675904558404559 
64.00210518544591 0.9574277065527067 
65.00210518544591 0.945591168091168 
66.00210518544591 0.930519943019943 
67.00210518544591 0.9066246438746438 
68.00210518544591 0.8817542735042737 
69.00210518544591 0.861237891737892 
70.00210518544591 0.8467553418803416 
71.00210518544591 0.8234006410256409 
72.00210518544591 0.8007799145299147 
73.00210518544591 0.7707770655270656 
74.00210518544591 0.7440245726495731 
75.00210518544591 0.7084070512820518 
76.00210518544591 0.7469344729344728 
77.00210518544591 1.0024216524216527 
78.00210518544591 1.1841274928774923 
79.00210518544591 1.080190170940171 
80.00210518544591 1.4116905270655262 
81.00210518544591 1.6675220797720787 
82.00210518544591 1.774700498575499 
83.00210518544591 1.885862535612535 
84.00210518544591 2.2156413817663827 
85.00210518544591 2.3305527065527074 
86.00210518544591 2.3781915954415953 
87.00210518544591 2.728500356125356 
88.00210518544591 2.886259259259258 
89.00210518544591 3.0285502136752167 
90.00210518544591 3.4775762108262094 
91.00210518544591 3.1393547008547 
92.00210518544591 3.83580769230769 
93.00210518544591 3.2403511396011395 
94.00210518544591 3.2494426638176632 
95.00210518544591 3.624056980056979 
96.00210518544591 3.7072489316239308 
97.00210518544591 3.8391239316239316 
98.00210518544591 3.616993233618233 
99.00210518544591 3.6022670940170936 
100.00210518544591 3.5508133903133894 
101.00210518544591 4.1225377492877495 
102.00210518544591 3.9658408119658115 
103.00210518544591 3.92491631054131 
104.00210518544591 3.1196923076923073 
105.00210518544591 2.508721509971506 
106.00210518544591 2.3467475071225077 
107.00210518544591 2.3197909544159567 
108.00210518544591 1.8953906695156684 
109.00210518544591 2.0122674501424505 
110.00210518544591 1.7058721509971513 
111.00210518544591 1.5669330484330464 
112.00210518544591 1.6941139601139532 
113.00210518544591 1.572436253561246 
114.00210518544591 1.5759697293447277 
115.00210518544591 1.2377368233618278 
116.00210518544591 0.9573308404558447 
117.00210518544591 0.6979853988603985 
118.00210518544591 0.6056203703703743 
119.00210518544591 0.43628596866096725 
120.00210518544591 0.37397293447293295 
121.00210518544591 0.3938529202279217 
122.00210518544591 0.32477955840455697 
123.00210518544591 0.30176994301994486 
124.00210518544591 0.228128917378918 
125.00210518544591 0.1840156695156699 
126.00210518544591 0.1824344729344728 
127.00210518544591 0.18443162393162413 
128.0021051854459 0.18282514245014245 
129.0021051854459 0.15999180911680927 
130.0021051854459 0.1599066951566953 
131.0021051854459 0.15993732193732207 
132.0021051854459 0.15998326210826225 
133.0021051854459 0.16000000000000014 
134.0021051854459 0.16000000000000014 
135.0021051854459 0.16000000000000014 
136.0021051854459 0.16000000000000014 
137.0021051854459 0.16000000000000014 
138.0021051854459 0.16000000000000014 
139.0021051854459 0.16000000000000014 
140.0021051854459 0.16000000000000014 
141.0021051854459 0.16000000000000014 
142.0021051854459 0.16000000000000014 
143.0021051854459 0.16000000000000014 
144.0021051854459 0.16000000000000014 
145.0021051854459 0.16000000000000014 
146.0021051854459 0.16000000000000014 
147.0021051854459 0.16000000000000014 
148.0021051854459 0.16000000000000014 
149.0021051854459 0.16000000000000014 
150.0021051854459 0.16000000000000014 
151.0021051854459 0.16000000000000014 
152.0021051854459 0.16000000000000014 
153.0021051854459 0.16000000000000014 
154.0021051854459 0.16000000000000014 
155.0021051854459 0.16000000000000014 
156.0021051854459 0.16000000000000014 
157.0021051854459 0.16000000000000014 
158.0021051854459 0.16000000000000014 
159.0021051854459 0.16000000000000014 
160.0021051854459 0.16000000000000014 
161.0021051854459 0.16000000000000014 
162.0021051854459 0.16000000000000014 
163.0021051854459 0.16000000000000014 
164.0021051854459 0.16000000000000014 
165.0021051854459 0.16000000000000014 
166.0021051854459 0.16000000000000014 
167.0021051854459 0.16000000000000014 
168.0021051854459 0.16000000000000014 
169.0021051854459 0.16000000000000014 
170.0021051854459 0.16000000000000014 
171.0021051854459 0.16000000000000014 
172.0021051854459 0.16000000000000014 
173.0021051854459 0.16000000000000014 
174.0021051854459 0.16000000000000014 
175.0021051854459 0.16000000000000014 
176.0021051854459 0.16000000000000014 
177.0021051854459 0.16000000000000014 
178.0021051854459 0.16000000000000014 
179.0021051854459 0.16000000000000014 
180.0021051854459 0.16000000000000014 
181.0021051854459 0.16000000000000014 
182.0021051854459 0.16000000000000014 
183.0021051854459 0.16000000000000014 
184.0021051854459 0.16000000000000014 
185.0021051854459 0.16000000000000014 
186.0021051854459 0.16000000000000014 
187.0021051854459 0.16000000000000014 
188.0021051854459 0.16000000000000014 
189.0021051854459 0.16000000000000014 
#####################################################################
# End of data export. Simulation finished at: 2017-05-21T09:00+0000 #
#####################################################################
