#####################################################################
# Alchemist log file - simulation started at: 2017-05-24T17:59+0000 #
#####################################################################
# random = 7.0, targets = 3.1622776601683795, density = 10.026386447354522, gridShift = 0.0, perturbation = 0.0, connfactor = 0.1
#
# The columns have the following meaning: 
# time se[Mean] 
0.0 NaN 
1.000984151344496 NaN 
2.000984151344496 1.0 
3.000984151344496 1.0 
4.000984151344496 1.0 
5.000984151344496 1.0 
6.000984151344496 1.0 
7.000984151344496 1.0 
8.000984151344497 1.0 
9.000984151344497 1.0 
10.000984151344497 1.0 
11.000984151344497 1.0 
12.000984151344497 1.0 
13.000984151344497 1.0 
14.000984151344497 1.0 
15.000984151344497 1.0 
16.000984151344497 1.0 
17.000984151344497 1.0 
18.000984151344497 1.0 
19.000984151344497 1.0 
20.000984151344497 1.0 
21.000984151344497 1.0 
22.000984151344497 1.0 
23.000984151344497 1.0 
24.000984151344497 1.0 
25.000984151344497 1.0 
26.000984151344497 1.0 
27.000984151344497 1.0 
28.000984151344497 1.0 
29.000984151344497 1.0 
30.000984151344497 1.0 
31.000984151344497 1.0 
32.0009841513445 1.0 
33.0009841513445 1.0 
34.0009841513445 1.0 
35.0009841513445 1.0 
36.0009841513445 1.0 
37.0009841513445 1.0 
38.0009841513445 1.0 
39.0009841513445 1.0 
40.0009841513445 1.0 
41.0009841513445 1.0 
42.0009841513445 1.0 
43.0009841513445 1.0 
44.0009841513445 1.0 
45.0009841513445 1.0 
46.0009841513445 1.0 
47.0009841513445 1.0 
48.0009841513445 1.0 
49.0009841513445 1.0 
50.0009841513445 1.0 
51.0009841513445 1.0 
52.0009841513445 1.0 
53.0009841513445 1.0 
54.0009841513445 1.0 
55.0009841513445 1.0 
56.0009841513445 1.0 
57.0009841513445 1.0 
58.0009841513445 1.0 
59.0009841513445 1.0 
60.0009841513445 1.0 
61.0009841513445 1.0 
62.0009841513445 1.0 
63.0009841513445 1.0 
64.0009841513445 1.0 
65.0009841513445 1.0 
66.0009841513445 1.0 
67.0009841513445 1.0 
68.0009841513445 1.0 
69.0009841513445 1.0 
70.0009841513445 1.0 
71.0009841513445 1.0 
72.0009841513445 1.0 
73.0009841513445 1.0 
74.0009841513445 1.0 
75.0009841513445 1.0 
#####################################################################
# End of data export. Simulation finished at: 2017-05-24T18:01+0000 #
#####################################################################
