#####################################################################
# Alchemist log file - simulation started at: 2017-05-20T13:35+0000 #
#####################################################################
# random = 1.0, targets = 3.1622776601683795, density = 7.099073319511142, gridShift = 1.0, perturbation = 0.0, connfactor = 2.0
#
# The columns have the following meaning: 
# time se[Mean] 
0.0 NaN 
1.0018431556818637 NaN 
2.001843155681864 1.051277512691967 
3.001843155681864 1.0796066998516234 
4.001843155681864 1.1051299992731005 
5.001843155681864 1.1129490091089074 
6.001843155681864 1.1051828652620344 
7.001843155681864 1.1301877271179377 
8.001843155681865 1.1562242295899872 
9.001843155681865 1.1643187713703362 
10.001843155681865 1.164037244774617 
11.001843155681865 1.167864279402303 
12.001843155681865 1.1690541082811947 
13.001843155681865 1.1228931667865276 
14.001843155681865 1.1047315312906483 
15.001843155681865 1.144103983118699 
16.001843155681865 1.1173769750541909 
17.001843155681865 1.1507717702323197 
18.001843155681865 1.1477390876525015 
19.001843155681865 1.1755131042640183 
20.001843155681865 1.0993420639287839 
21.001843155681865 1.1738172121293242 
22.001843155681865 1.1614510540675926 
23.001843155681865 1.1484933503162689 
24.001843155681865 1.194872100849968 
25.001843155681865 1.1512209028244205 
26.001843155681865 1.172455337450521 
27.001843155681865 1.1528609575760622 
28.001843155681865 1.129205253066061 
29.001843155681865 1.0601645802696582 
30.001843155681865 1.0025915141299242 
31.001843155681865 0.9896139458419388 
32.00184315568187 0.9225199682625438 
33.00184315568187 0.8967447675387737 
34.00184315568187 0.8780155921243114 
35.00184315568187 0.8592403055082699 
36.00184315568187 0.8360217146520467 
37.00184315568187 0.8079969394121669 
38.00184315568187 0.786469378834735 
39.00184315568187 0.7596261870500057 
40.00184315568187 0.7348102863635309 
41.00184315568187 0.7045153069953735 
42.00184315568187 0.6775664079294152 
43.00184315568187 0.6434144132686954 
44.00184315568187 0.6210688922281211 
45.00184315568187 0.5873937304158482 
46.00184315568187 0.560516804208973 
47.00184315568187 0.5340488569988368 
48.00184315568187 0.5047217908114833 
49.00184315568187 0.47734554131817514 
50.00184315568187 0.4527785532522272 
51.00184315568187 0.43298401267812875 
52.00184315568187 0.4109695006543708 
53.00184315568187 0.3889205064206098 
54.00184315568187 0.37219951029492515 
55.00184315568187 0.34994133745328787 
56.00184315568187 0.3368299519236722 
57.00184315568187 0.32292159091452904 
58.00184315568187 0.30864961185270556 
59.00184315568187 0.3010765259556607 
60.00184315568187 0.2926682335511443 
61.00184315568187 0.286382818458567 
62.00184315568187 0.2826135190847106 
63.00184315568187 0.2795875838832548 
64.00184315568187 0.2822030371032649 
65.00184315568187 0.28530356859546324 
66.00184315568187 0.29070354203228566 
67.00184315568187 0.2987264638553392 
68.00184315568187 0.3061612186173084 
69.00184315568187 0.3169049332218314 
70.00184315568187 0.32122341096231466 
71.00184315568187 0.3296913019161428 
72.00184315568187 0.34030793430907746 
73.00184315568187 0.34744242085528265 
74.00184315568187 0.35597441190355134 
75.00184315568187 0.3656246365700529 
76.00184315568187 0.37489661810154123 
77.00184315568187 0.3825975290587026 
78.00184315568187 0.3917735443084158 
79.00184315568187 0.4022615989140493 
80.00184315568187 0.41057054393862086 
81.00184315568187 0.41956249938942985 
82.00184315568187 0.4297236689249493 
83.00184315568187 0.43699572893971844 
84.00184315568187 0.4444372310800493 
85.00184315568187 0.4509299417277086 
86.00184315568187 0.4530858056739372 
87.00184315568187 0.45431424564886175 
88.00184315568187 0.4538407864895954 
89.00184315568187 0.45211939053851186 
90.00184315568187 0.45056930988712884 
91.00184315568187 0.44811767186127216 
92.00184315568187 0.4454418624254364 
93.00184315568187 0.44098280524697797 
94.00184315568187 0.43801909696582186 
95.00184315568187 0.43507000882767094 
96.00184315568187 0.42948447260723843 
97.00184315568187 0.4257481623373346 
98.00184315568187 0.4196408123924843 
99.00184315568187 0.41405864986123286 
100.00184315568187 0.4067790872712529 
101.00184315568187 0.40066911389474286 
102.00184315568187 0.3931657550235449 
103.00184315568187 0.3857384929581309 
104.00184315568187 0.37687586555214403 
105.00184315568187 0.3699284472439174 
106.00184315568187 0.3693571782647049 
107.00184315568187 0.35440705310221005 
108.00184315568187 0.4567916517451397 
109.00184315568187 0.9667989100837718 
110.00184315568187 0.6493120050150993 
111.00184315568187 1.0495636447931647 
112.00184315568187 1.0641899698841994 
113.00184315568187 1.3506254216630225 
114.00184315568187 0.8298988641949191 
115.00184315568187 1.4515465943982402 
116.00184315568187 1.1271309755964252 
117.00184315568187 1.0019731723410963 
118.00184315568187 1.4255922945180242 
119.00184315568187 0.8986380448628678 
120.00184315568187 1.0756755113612668 
121.00184315568187 1.0944235247126683 
122.00184315568187 0.9618492961416986 
123.00184315568187 0.6466719590245156 
124.00184315568187 0.9354293604735802 
125.00184315568187 0.8360333101089084 
126.00184315568187 0.5966180565571986 
127.00184315568187 0.5969157606132345 
128.00184315568185 0.8093468727528067 
129.00184315568185 0.45856519358389136 
130.00184315568185 0.6693262604282885 
131.00184315568185 1.0776432115793504 
132.00184315568185 0.43644539386161496 
133.00184315568185 0.735280372874195 
134.00184315568185 0.4358977728122988 
135.00184315568185 0.6172177269171473 
136.00184315568185 0.5080401938647441 
137.00184315568185 0.3873309318342599 
138.00184315568185 0.4926020140966146 
139.00184315568185 0.47750905131459165 
140.00184315568185 0.36470502193256604 
141.00184315568185 0.3809822484036723 
142.00184315568185 0.45950788942931586 
143.00184315568185 0.14843458729377199 
144.00184315568185 0.5570053055122723 
145.00184315568185 0.3551830344999009 
146.00184315568185 0.23671846537231314 
147.00184315568185 0.3507607152433338 
148.00184315568185 0.34203301070795167 
149.00184315568185 0.23526923261591415 
150.00184315568185 0.3376717831067441 
151.00184315568185 0.024532191299840776 
152.00184315568185 0.12721214197002656 
153.00184315568185 0.017090652114552102 
154.00184315568185 0.01990029361000087 
155.00184315568185 0.01620144929253734 
156.00184315568185 0.01055403411426313 
157.00184315568185 0.011886313135604905 
158.00184315568185 0.012362395726531368 
159.00184315568185 0.008440132726273824 
160.00184315568185 0.012119477757181241 
161.00184315568185 0.0032789335547884027 
162.00184315568185 0.005856533345278727 
163.00184315568185 0.0032958020006933317 
164.00184315568185 0.003298050303592691 
165.00184315568185 0.003082499446114806 
166.00184315568185 0.0033081713711356473 
167.00184315568185 0.002633403898972464 
168.00184315568185 0.0028594509527538597 
169.00184315568185 0.002633403898972464 
170.00184315568185 0.002633403898972464 
171.00184315568185 0.002633403898972464 
172.00184315568185 0.002633403898972464 
173.00184315568185 0.002633403898972464 
174.00184315568185 0.002633403898972464 
175.00184315568185 0.002633403898972464 
176.00184315568185 0.002633403898972464 
177.00184315568185 0.002633403898972464 
178.00184315568185 0.002633403898972464 
179.00184315568185 0.002633403898972464 
180.00184315568185 0.002633403898972464 
181.00184315568185 0.002633403898972464 
182.00184315568185 0.002633403898972464 
183.00184315568185 0.002633403898972464 
184.00184315568185 0.002633403898972464 
185.00184315568185 0.002633403898972464 
186.00184315568185 0.002633403898972464 
187.00184315568185 0.002633403898972464 
188.00184315568185 0.002633403898972464 
189.00184315568185 0.002633403898972464 
190.00184315568185 0.002633403898972464 
191.00184315568185 0.002633403898972464 
192.00184315568185 0.002633403898972464 
193.00184315568185 0.002633403898972464 
194.00184315568185 0.002633403898972464 
195.00184315568185 0.002633403898972464 
196.00184315568185 0.002633403898972464 
197.00184315568185 0.002633403898972464 
198.00184315568185 0.002633403898972464 
199.00184315568185 0.002633403898972464 
200.00184315568185 0.002633403898972464 
201.00184315568185 0.002633403898972464 
202.00184315568185 0.002633403898972464 
203.00184315568185 0.002633403898972464 
204.00184315568185 0.002633403898972464 
205.00184315568185 0.002633403898972464 
206.00184315568185 0.002633403898972464 
207.00184315568185 0.002633403898972464 
208.00184315568185 0.002633403898972464 
209.00184315568185 0.002633403898972464 
210.00184315568185 0.002633403898972464 
211.00184315568185 0.002633403898972464 
212.00184315568185 0.002633403898972464 
213.00184315568185 0.002633403898972464 
214.00184315568185 0.002633403898972464 
215.00184315568185 0.002633403898972464 
216.00184315568185 0.002633403898972464 
217.00184315568185 0.002633403898972464 
218.00184315568185 0.002633403898972464 
219.00184315568185 0.002633403898972464 
220.00184315568185 0.002633403898972464 
221.00184315568185 0.002633403898972464 
222.00184315568185 0.002633403898972464 
223.00184315568185 0.002633403898972464 
224.00184315568185 0.002633403898972464 
225.00184315568185 0.002633403898972464 
#####################################################################
# End of data export. Simulation finished at: 2017-05-20T13:38+0000 #
#####################################################################
