#####################################################################
# Alchemist log file - simulation started at: 2017-05-24T00:44+0000 #
#####################################################################
# random = 13.0, targets = 10.0, density = 10.026386447354522, gridShift = 1.0, perturbation = 0.0, connfactor = 0.25
#
# The columns have the following meaning: 
# time se[Mean] 
0.0 NaN 
1.0002602723432414 NaN 
2.000260272343241 1.0 
3.000260272343241 1.0 
4.000260272343241 0.9996497695852534 
5.000260272343241 0.9984239631336406 
6.000260272343241 0.9971981566820276 
7.000260272343241 0.9930138248847926 
8.00026027234324 0.9914377880184331 
9.00026027234324 0.9880276497695853 
10.00026027234324 0.9852442396313364 
11.00026027234324 0.9839170506912442 
12.00026027234324 0.9798064516129034 
13.00026027234324 0.976958525345622 
14.00026027234324 0.9725437788018433 
15.00026027234324 0.9702857142857143 
16.00026027234324 0.9640460829493087 
17.00026027234324 0.9599447004608294 
18.00026027234324 0.9546728110599078 
19.00026027234324 0.9519078341013826 
20.00026027234324 0.9477419354838711 
21.00026027234324 0.9458248847926267 
22.00026027234324 0.9404055299539171 
23.00026027234324 0.9407188940092166 
24.00026027234324 0.936479262672811 
25.00026027234324 0.935410138248848 
26.00026027234324 0.934073732718894 
27.00026027234324 0.9341935483870969 
28.00026027234324 0.9344331797235024 
29.00026027234324 0.9337695852534562 
30.00026027234324 0.9333640552995393 
31.00026027234324 0.9370875576036866 
32.00026027234324 0.9332718894009215 
33.00026027234324 0.9360368663594469 
34.00026027234324 0.9328755760368663 
35.00026027234324 0.933741935483871 
36.00026027234324 0.9288202764976959 
37.00026027234324 0.9270506912442397 
38.00026027234324 0.9222857142857142 
39.00026027234324 0.9211428571428572 
40.00026027234324 0.9131797235023043 
41.00026027234324 0.9127188940092166 
42.00026027234324 0.9055668202764976 
43.00026027234324 0.8930599078341016 
44.00026027234324 0.8920092165898617 
45.00026027234324 0.882036866359447 
46.00026027234324 0.8726267281105992 
47.00026027234324 0.8654562211981564 
48.00026027234324 0.8554654377880182 
49.00026027234324 0.8438064516129036 
50.00026027234324 0.8412903225806456 
51.00026027234324 0.8308202764976962 
52.00026027234324 0.8171244239631336 
53.00026027234324 0.811917050691244 
54.00026027234324 0.7978525345622118 
55.00026027234324 0.7887557603686641 
56.00026027234324 0.7810322580645159 
57.00026027234324 0.7649585253456218 
58.00026027234324 0.7578064516129029 
59.00026027234324 0.7455391705069123 
60.00026027234324 0.7350875576036863 
61.00026027234324 0.7217235023041474 
62.00026027234324 0.7108018433179724 
63.00026027234324 0.6986635944700463 
64.00026027234324 0.6889400921658986 
65.00026027234324 0.6754562211981565 
66.00026027234324 0.669410138248848 
67.00026027234324 0.6559447004608298 
68.00026027234324 0.6506175115207372 
69.00026027234324 0.6438986175115207 
70.00026027234324 0.6311520737327193 
71.00026027234324 0.6227281105990781 
72.00026027234324 0.616027649769585 
73.00026027234324 0.6044055299539173 
74.00026027234324 0.591161290322581 
75.00026027234324 0.5880092165898623 
76.00026027234324 0.5705069124423959 
77.00026027234324 0.5582949308755761 
78.00026027234324 0.551677419354839 
79.00026027234324 0.5296405529953921 
80.00026027234324 0.5244792626728113 
81.00026027234324 0.5104700460829499 
82.00026027234324 0.49260829493087555 
83.00026027234324 0.4849216589861747 
84.00026027234324 0.46532718894009223 
85.00026027234324 0.45385253456221214 
86.00026027234324 0.44246082949308757 
87.00026027234324 0.42384331797235036 
88.00026027234324 0.4129124423963133 
89.00026027234324 0.400884792626728 
90.00026027234324 0.384921658986175 
91.00026027234324 0.37534562211981587 
92.00026027234324 0.36425806451612924 
93.00026027234324 0.35239631336405525 
94.00026027234324 0.3471797235023041 
95.00026027234324 0.329778801843318 
96.00026027234324 0.32265437788018436 
97.00026027234324 0.31489400921658983 
98.00026027234324 0.3071520737327191 
99.00026027234324 0.3062396313364056 
100.00026027234324 0.30021198156682033 
101.00026027234324 0.2970322580645161 
102.00026027234324 0.28847926267281115 
103.00026027234324 0.2882672811059908 
104.00026027234324 0.2878156682027649 
105.00026027234324 0.2826728110599078 
106.00026027234324 0.2763225806451613 
107.00026027234324 0.2766635944700461 
108.00026027234324 0.2653917050691244 
109.00026027234324 0.26694930875576034 
110.00026027234324 0.2701658986175115 
111.00026027234324 0.26151152073732714 
112.00026027234324 0.2638156682027649 
113.00026027234324 0.26223041474654374 
114.00026027234324 0.25811059907834105 
115.00026027234324 0.26409216589861756 
116.00026027234324 0.2574654377880184 
117.00026027234324 0.25699539170506913 
118.00026027234324 0.25579723502304147 
119.00026027234324 0.25302304147465443 
120.00026027234324 0.25670046082949305 
121.00026027234324 0.2556958525345622 
122.00026027234324 0.2554009216589861 
123.00026027234324 0.2543041474654378 
124.00026027234324 0.2556958525345622 
125.00026027234324 0.2535023041474654 
126.00026027234324 0.2535023041474654 
127.00026027234324 0.2537972350230414 
128.00026027234324 0.2537972350230414 
129.00026027234324 0.2537972350230414 
130.00026027234324 0.2516036866359447 
131.00026027234324 0.2516036866359447 
132.00026027234324 0.25080184331797234 
133.00026027234324 0.25080184331797234 
134.00026027234324 0.2509493087557603 
135.00026027234324 0.2509493087557603 
136.00026027234324 0.249852534562212 
137.00026027234324 0.2509493087557603 
138.00026027234324 0.25 
139.00026027234324 0.249852534562212 
140.00026027234324 0.25 
141.00026027234324 0.25 
142.00026027234324 0.25 
143.00026027234324 0.25 
144.00026027234324 0.25 
145.00026027234324 0.25 
146.00026027234324 0.25 
147.00026027234324 0.25 
148.00026027234324 0.25 
149.00026027234324 0.25 
150.00026027234324 0.25 
151.00026027234324 0.25 
152.00026027234324 0.25 
153.00026027234324 0.25 
154.00026027234324 0.25 
155.00026027234324 0.25 
156.00026027234324 0.25 
157.00026027234324 0.25 
158.00026027234324 0.25 
159.00026027234324 0.25 
160.00026027234324 0.25 
161.00026027234324 0.25 
162.00026027234324 0.25 
163.00026027234324 0.25 
164.00026027234324 0.25 
165.00026027234324 0.25 
166.00026027234324 0.25 
167.00026027234324 0.25 
168.00026027234324 0.25 
169.00026027234324 0.25 
170.00026027234324 0.25 
171.00026027234324 0.25 
172.00026027234324 0.25 
173.00026027234324 0.25 
174.00026027234324 0.25 
175.00026027234324 0.25 
176.00026027234324 0.25 
177.00026027234324 0.25 
178.00026027234324 0.25 
179.00026027234324 0.25 
180.00026027234324 0.25 
181.00026027234324 0.25 
182.00026027234324 0.25 
183.00026027234324 0.25 
184.00026027234324 0.25 
185.00026027234324 0.25 
186.00026027234324 0.25 
187.00026027234324 0.25 
188.00026027234324 0.25 
189.00026027234324 0.25 
190.00026027234324 0.25 
191.00026027234324 0.25 
192.00026027234324 0.25 
193.00026027234324 0.25 
194.00026027234324 0.25 
195.00026027234324 0.25 
196.00026027234324 0.25 
197.00026027234324 0.25 
198.00026027234324 0.25 
199.00026027234324 0.25 
200.00026027234324 0.25 
201.00026027234324 0.25 
202.00026027234324 0.25 
203.00026027234324 0.25 
204.00026027234324 0.25 
205.00026027234324 0.25 
206.00026027234324 0.25 
207.00026027234324 0.25 
208.00026027234324 0.25 
209.00026027234324 0.25 
210.00026027234324 0.25 
#####################################################################
# End of data export. Simulation finished at: 2017-05-24T00:46+0000 #
#####################################################################
