#####################################################################
# Alchemist log file - simulation started at: 2017-05-23T17:48+0000 #
#####################################################################
# random = 5.0, targets = 100.0, density = 2.519842099789746, gridShift = 0.0, perturbation = 0.5, connfactor = 0.1
#
# The columns have the following meaning: 
# time se[Mean] 
0.0 NaN 
1.0031365367908396 NaN 
2.00313653679084 1.0 
3.00313653679084 1.0 
4.00313653679084 0.9997259515570934 
5.00313653679084 0.9991089965397923 
6.00313653679084 0.9983543252595156 
7.00313653679084 0.9965709342560554 
8.00313653679084 0.9965695501730104 
9.00313653679084 0.9944439446366782 
10.00313653679084 0.992901124567474 
11.00313653679084 0.9911586505190312 
12.00313653679084 0.9893695501730104 
13.00313653679084 0.9877073529411765 
14.00313653679084 0.9882847750865051 
15.00313653679084 0.9857503460207613 
16.00313653679084 0.9857935121107266 
17.00313653679084 0.9860436851211073 
18.00313653679084 0.9851266435986159 
19.00313653679084 0.9861665224913495 
20.00313653679084 0.9846282006920415 
21.00313653679084 0.9849624567474048 
22.00313653679084 0.9829493944636678 
23.00313653679084 0.981058044982699 
24.00313653679084 0.9781892733564014 
25.00313653679084 0.9726023356401384 
26.00313653679084 0.9663874567474049 
27.00313653679084 0.9577006055363322 
28.00313653679084 0.9524632352941177 
29.00313653679084 0.9402769896193772 
30.00313653679084 0.9418687716262976 
31.00313653679084 0.9267683391003461 
32.00313653679084 0.9195430795847751 
33.00313653679084 0.9137262110726644 
34.00313653679084 0.9053587370242214 
35.00313653679084 0.8994221453287197 
36.00313653679084 0.8940104671280277 
37.00313653679084 0.8984890138408305 
38.00313653679084 0.8854942906574395 
39.00313653679084 0.8890256920415225 
40.00313653679084 0.8823430795847751 
41.00313653679084 0.8704613321799308 
42.00313653679084 0.8791302768166089 
43.00313653679084 0.8654637543252596 
44.00313653679084 0.8578063148788927 
45.00313653679084 0.8622762975778546 
46.00313653679084 0.8594871972318339 
47.00313653679084 0.8520273356401384 
48.00313653679084 0.8564786332179931 
49.00313653679084 0.8596471453287198 
50.00313653679084 0.8456308823529411 
51.00313653679084 0.8503687716262976 
52.00313653679084 0.8513967128027682 
53.00313653679084 0.8426332179930796 
54.00313653679084 0.8449683391003461 
55.00313653679084 0.840753633217993 
56.00313653679084 0.8449688581314879 
57.00313653679084 0.8425501730103806 
58.00313653679084 0.8458401384083045 
59.00313653679084 0.8432695501730104 
60.00313653679084 0.8433107266435986 
61.00313653679084 0.8451328719723183 
62.00313653679084 0.8385640138408305 
63.00313653679084 0.8374273356401384 
64.00313653679083 0.8385356401384083 
65.00313653679083 0.8413785467128028 
66.00313653679083 0.8367865051903114 
67.00313653679083 0.8395107266435986 
68.00313653679083 0.8393141868512111 
69.00313653679083 0.827387197231834 
70.00313653679083 0.8219138408304498 
71.00313653679083 0.8221705882352941 
72.00313653679083 0.811363321799308 
73.00313653679083 0.8190290657439446 
74.00313653679083 0.8075093425605536 
75.00313653679083 0.8064086505190311 
76.00313653679083 0.8088076124567475 
77.00313653679083 0.8037273356401384 
78.00313653679083 0.8061764705882353 
79.00313653679083 0.8114017301038063 
80.00313653679083 0.820680276816609 
81.00313653679083 0.8126515570934256 
82.00313653679083 0.8226190311418685 
83.00313653679083 0.8283750865051903 
84.00313653679083 0.814861937716263 
85.00313653679083 0.8190276816608998 
86.00313653679083 0.8226878892733565 
87.00313653679083 0.8231276816608997 
88.00313653679083 0.8249567474048444 
89.00313653679083 0.827663321799308 
90.00313653679083 0.8363709342560554 
91.00313653679083 0.8408467128027682 
92.00313653679083 0.8460221453287198 
93.00313653679083 0.8464 
94.00313653679083 0.8464 
95.00313653679083 0.8464 
96.00313653679083 0.8464 
97.00313653679083 0.8464 
98.00313653679083 0.8464 
99.00313653679083 0.8464 
100.00313653679083 0.8464 
101.00313653679083 0.8464 
102.00313653679083 0.8464 
103.00313653679083 0.8464 
104.00313653679083 0.8464 
105.00313653679083 0.8464 
106.00313653679083 0.8464 
107.00313653679083 0.8464 
108.00313653679083 0.8464 
109.00313653679083 0.8464 
110.00313653679083 0.8464 
111.00313653679083 0.8464 
112.00313653679083 0.8464 
113.00313653679083 0.8464 
114.00313653679083 0.8464 
115.00313653679083 0.8464 
116.00313653679083 0.8464 
117.00313653679083 0.8464 
118.00313653679083 0.8464 
119.00313653679083 0.8464 
120.00313653679083 0.8464 
121.00313653679083 0.8464 
122.00313653679083 0.8464 
123.00313653679083 0.8464 
124.00313653679083 0.8464 
125.00313653679083 0.8464 
126.00313653679083 0.8464 
127.00313653679083 0.8464 
128.00313653679083 0.8464 
#####################################################################
# End of data export. Simulation finished at: 2017-05-23T17:51+0000 #
#####################################################################
