#####################################################################
# Alchemist log file - simulation started at: 2017-05-24T21:01+0000 #
#####################################################################
# random = 7.0, targets = 10.0, density = 14.160781367816199, gridShift = 0.0, perturbation = 0.5, connfactor = 0.25
#
# The columns have the following meaning: 
# time se[Mean] 
0.0 NaN 
1.000984151344496 NaN 
2.000984151344496 NaN 
3.000984151344496 0.9995266272189349 
4.000984151344496 0.9979815910585141 
5.000984151344496 0.9969953977646285 
6.000984151344496 0.9933070348454964 
7.000984151344496 0.9930046022353715 
8.000984151344497 0.9924523339907956 
9.000984151344497 0.9911439842209073 
10.000984151344497 0.9886324786324786 
11.000984151344497 0.9881854043392505 
12.000984151344497 0.9886719263642341 
13.000984151344497 0.9869625246548325 
14.000984151344497 0.987061143984221 
15.000984151344497 0.9898553583168969 
16.000984151344497 0.9921893491124262 
17.000984151344497 0.9935239973701512 
18.000984151344497 0.9950230111768573 
19.000984151344497 0.9964299802761342 
20.000984151344497 0.9960289283366207 
21.000984151344497 0.9948454963839579 
22.000984151344497 0.9898224852071005 
23.000984151344497 0.9877777777777779 
24.000984151344497 0.9809072978303743 
25.000984151344497 0.9751019066403678 
26.000984151344497 0.9671663379355688 
27.000984151344497 0.9628205128205131 
28.000984151344497 0.9581459566074955 
29.000984151344497 0.9515581854043388 
30.000984151344497 0.9423076923076921 
31.000984151344497 0.9402695595003285 
32.0009841513445 0.9352859960552267 
33.0009841513445 0.9363050624589081 
34.0009841513445 0.9320381328073634 
35.0009841513445 0.9332281393819857 
36.0009841513445 0.9271005917159764 
37.0009841513445 0.9245364891518743 
38.0009841513445 0.9264628533859309 
39.0009841513445 0.920197238658777 
40.0009841513445 0.9215384615384612 
41.0009841513445 0.9132018408941488 
42.0009841513445 0.9138132807363579 
43.0009841513445 0.9099868507560813 
44.0009841513445 0.9059237343852731 
45.0009841513445 0.9067521367521365 
46.0009841513445 0.9069033530571996 
47.0009841513445 0.903044049967127 
48.0009841513445 0.9005851413543717 
49.0009841513445 0.8983431952662724 
50.0009841513445 0.8991321499013807 
51.0009841513445 0.8950756081525311 
52.0009841513445 0.8947205785667316 
53.0009841513445 0.8935174227481928 
54.0009841513445 0.8927350427350432 
55.0009841513445 0.8892702169625253 
56.0009841513445 0.8915187376725835 
57.0009841513445 0.8843195266272198 
58.0009841513445 0.8826429980276135 
59.0009841513445 0.8819723865877719 
60.0009841513445 0.875463510848126 
61.0009841513445 0.877889546351085 
62.0009841513445 0.8720907297830376 
63.0009841513445 0.8692307692307694 
64.0009841513445 0.871775147928994 
65.0009841513445 0.8711439842209071 
66.0009841513445 0.870223537146614 
67.0009841513445 0.8710190664036821 
68.0009841513445 0.8690598290598293 
69.0009841513445 0.8782511505588427 
70.0009841513445 0.8723274161735695 
71.0009841513445 0.8666863905325444 
72.0009841513445 0.8803221564760024 
73.0009841513445 0.8710716633793556 
74.0009841513445 0.8760157790927025 
75.0009841513445 0.8788297172912554 
76.0009841513445 0.8671334648257725 
77.0009841513445 0.8827087442472057 
78.0009841513445 0.8771137409598949 
79.0009841513445 0.8721499013806709 
80.0009841513445 0.8859368836291907 
81.0009841513445 0.8804536489151871 
82.0009841513445 0.8840696909927673 
83.0009841513445 0.8889414858645618 
84.0009841513445 0.8884286653517429 
85.0009841513445 0.8961735700197244 
86.0009841513445 0.8963445101906629 
87.0009841513445 0.9028402366863914 
88.0009841513445 0.9068244575936892 
89.0009841513445 0.9083563445101913 
90.0009841513445 0.9250164365548976 
91.0009841513445 0.9199605522682449 
92.0009841513445 0.9309533201840902 
93.0009841513445 0.9353385930309013 
94.0009841513445 0.9338132807363569 
95.0009841513445 0.9426035502958587 
96.0009841513445 0.9402761341222885 
97.0009841513445 0.9485798816568046 
98.0009841513445 0.9492899408284027 
99.0009841513445 0.9532084155161072 
100.0009841513445 0.9614792899408287 
101.0009841513445 0.9638067061143992 
102.0009841513445 0.9624194608809992 
103.0009841513445 0.9684812623274165 
104.0009841513445 0.9761406969099281 
105.0009841513445 0.9729388560157785 
106.0009841513445 0.9795134779750166 
107.0009841513445 0.9824128862590402 
108.0009841513445 0.9816962524654833 
109.0009841513445 0.9810716633793558 
110.0009841513445 0.9808875739644971 
111.0009841513445 0.9781393819855356 
112.0009841513445 0.9756410256410256 
113.0009841513445 0.9731426692965157 
114.0009841513445 0.9708941485864561 
115.0009841513445 0.9681591058514132 
116.0009841513445 0.9639776462853387 
117.0009841513445 0.9619395134779749 
118.0009841513445 0.956949375410914 
119.0009841513445 0.9518671926364227 
120.0009841513445 0.9474227481919782 
121.0009841513445 0.940525969756739 
122.0009841513445 0.9364299802761336 
123.0009841513445 0.9292176199868508 
124.0009841513445 0.9211900065746209 
125.0009841513445 1.0598948060486515 
126.0009841513445 1.7347994740302435 
127.0009841513445 1.3248191978961241 
128.00098415134448 2.5544181459566038 
129.00098415134448 2.275161078237998 
130.00098415134448 3.0974556213017364 
131.00098415134448 3.3624128862590745 
132.00098415134448 3.4921630506245425 
133.00098415134448 4.044253780407672 
134.00098415134448 4.853004602235417 
135.00098415134448 4.429947403024304 
136.00098415134448 4.417159763313632 
137.00098415134448 4.264865220249865 
138.00098415134448 4.54485864562789 
139.00098415134448 5.6173438527284265 
140.00098415134448 4.0985075608152455 
141.00098415134448 5.337278106508917 
142.00098415134448 5.999901380670623 
143.00098415134448 5.174648257725198 
144.00098415134448 6.264654832347181 
145.00098415134448 5.004089414858639 
146.00098415134448 5.7233793556870145 
147.00098415134448 7.341045364891497 
148.00098415134448 5.83592373438525 
149.00098415134448 6.793517422748159 
150.00098415134448 6.493214990138077 
151.00098415134448 5.533892176199864 
152.00098415134448 6.226936226167013 
153.00098415134448 5.955535831689682 
154.00098415134448 6.486383957922417 
155.00098415134448 6.640460223537157 
156.00098415134448 6.087199211045355 
157.00098415134448 7.0728665351742315 
158.00098415134448 5.672248520710052 
159.00098415134448 6.371827744904661 
160.00098415134448 5.416771860618003 
161.00098415134448 4.4607495069033805 
162.00098415134448 5.279408284023645 
163.00098415134448 4.701190006574654 
164.00098415134448 5.385792241946069 
165.00098415134448 4.729329388560193 
166.00098415134448 4.8721499013806735 
167.00098415134448 5.781058514135497 
168.00098415134448 3.610736357659463 
169.00098415134448 4.703865877712013 
170.00098415134448 4.136916502301077 
171.00098415134448 4.429644970414132 
172.00098415134448 4.132307692307649 
173.00098415134448 4.824990138067011 
174.00098415134448 3.062333990795534 
175.00098415134448 2.6171400394477105 
176.00098415134448 2.4774161735700173 
177.00098415134448 2.4721959237344473 
178.00098415134448 1.7271663379355526 
179.00098415134448 1.0367258382643008 
180.00098415134448 0.9016765285996048 
181.00098415134448 0.6295923734385256 
182.00098415134448 0.6441420118343185 
183.00098415134448 0.61406311637081 
184.00098415134448 0.6432281393819873 
185.00098415134448 0.6197698882314289 
186.00098415134448 0.5958053911900082 
187.00098415134448 0.5856804733727823 
188.00098415134448 0.5464234056541762 
189.00098415134448 0.5760880999342515 
190.00098415134448 0.5548520710059189 
191.00098415134448 0.5882840236686335 
192.00098415134448 0.5328139381985528 
193.00098415134448 0.530322156476004 
194.00098415134448 0.5541683103221554 
195.00098415134448 0.4883168967784367 
196.00098415134448 0.5079289940828392 
197.00098415134448 0.47815253122945206 
198.00098415134448 0.483537146614071 
199.00098415134448 0.4707166337935544 
200.00098415134448 0.4893622616699529 
201.00098415134448 0.4341091387245222 
202.00098415134448 0.4213017751479301 
203.00098415134448 0.4170940170940162 
204.00098415134448 0.41617357001972294 
205.00098415134448 0.3942143326758716 
206.00098415134448 0.3729914529914528 
207.00098415134448 0.3684155161078237 
208.00098415134448 0.36 
209.00098415134448 0.36 
210.00098415134448 0.36 
211.00098415134448 0.36 
212.00098415134448 0.36 
213.00098415134448 0.36 
214.00098415134448 0.36 
215.00098415134448 0.36 
216.00098415134448 0.36 
217.00098415134448 0.36 
218.00098415134448 0.36 
219.00098415134448 0.36 
220.00098415134448 0.36 
221.00098415134448 0.36 
222.00098415134448 0.36 
223.00098415134448 0.36 
224.00098415134448 0.36 
225.00098415134448 0.36 
226.00098415134448 0.36 
227.00098415134448 0.36 
228.00098415134448 0.36 
229.00098415134448 0.36 
230.00098415134448 0.36 
231.00098415134448 0.36 
232.00098415134448 0.36 
233.00098415134448 0.36 
234.00098415134448 0.36 
235.00098415134448 0.36 
236.00098415134448 0.36 
237.00098415134448 0.36 
238.00098415134448 0.36 
239.00098415134448 0.36 
240.00098415134448 0.36 
241.00098415134448 0.36 
242.00098415134448 0.36 
243.00098415134448 0.36 
244.00098415134448 0.36 
245.00098415134448 0.36 
246.00098415134448 0.36 
247.00098415134448 0.36 
248.00098415134448 0.36 
249.00098415134448 0.36 
250.00098415134448 0.36 
251.00098415134448 0.36 
252.00098415134448 0.36 
253.00098415134448 0.36 
254.00098415134448 0.36 
255.00098415134448 0.36 
256.0009841513445 0.36 
257.0009841513445 0.36 
258.0009841513445 0.36 
259.0009841513445 0.36 
260.0009841513445 0.36 
261.0009841513445 0.36 
262.0009841513445 0.36 
263.0009841513445 0.36 
264.0009841513445 0.36 
265.0009841513445 0.36 
266.0009841513445 0.36 
267.0009841513445 0.36 
268.0009841513445 0.36 
269.0009841513445 0.36 
270.0009841513445 0.36 
271.0009841513445 0.36 
272.0009841513445 0.36 
273.0009841513445 0.36 
274.0009841513445 0.36 
275.0009841513445 0.36 
276.0009841513445 0.36 
277.0009841513445 0.36 
278.0009841513445 0.36 
279.0009841513445 0.36 
280.0009841513445 0.36 
281.0009841513445 0.36 
282.0009841513445 0.36 
283.0009841513445 0.36 
284.0009841513445 0.36 
285.0009841513445 0.36 
286.0009841513445 0.36 
287.0009841513445 0.36 
288.0009841513445 0.36 
289.0009841513445 0.36 
290.0009841513445 0.36 
291.0009841513445 0.36 
292.0009841513445 0.36 
293.0009841513445 0.36 
294.0009841513445 0.36 
295.0009841513445 0.36 
296.0009841513445 0.36 
297.0009841513445 0.36 
298.0009841513445 0.36 
#####################################################################
# End of data export. Simulation finished at: 2017-05-24T21:09+0000 #
#####################################################################
