#####################################################################
# Alchemist log file - simulation started at: 2017-05-24T03:08+0000 #
#####################################################################
# random = 6.0, targets = 10.0, density = 0.1591589639397027, gridShift = 1.0, perturbation = 0.5, connfactor = 0.5
#
# The columns have the following meaning: 
# time se[Mean] 
0.0 NaN 
1.0115592716150654 NaN 
2.0115592716150656 0.99675 
3.0115592716150656 1.0 
4.011559271615066 0.99075 
5.011559271615066 0.95975 
6.011559271615066 0.97775 
7.011559271615066 0.92225 
8.011559271615067 0.9185 
9.011559271615067 0.9115 
10.011559271615067 0.8571666666666666 
11.011559271615067 0.9056666666666666 
12.011559271615067 0.8703333333333333 
13.011559271615067 0.84475 
14.011559271615067 0.85125 
15.011559271615067 0.8206666666666667 
16.011559271615067 0.75375 
17.011559271615067 0.6974166666666667 
18.011559271615067 0.7181759259259259 
19.011559271615067 0.6988518518518518 
20.011559271615067 0.6449259259259259 
21.011559271615067 0.6398425925925926 
22.011559271615067 0.57275 
23.011559271615067 0.43988888888888894 
24.011559271615067 0.40813888888888894 
25.011559271615067 0.4305555555555556 
26.011559271615067 0.39433333333333337 
27.011559271615067 0.37516666666666665 
28.011559271615067 0.3561851851851851 
29.011559271615067 0.37443518518518515 
30.011559271615067 0.40146296296296285 
31.011559271615067 0.4099814814814814 
32.01155927161507 0.4324999999999999 
33.01155927161507 0.39624999999999994 
34.01155927161507 0.3720833333333333 
35.01155927161507 0.3720833333333333 
36.01155927161507 0.36 
37.01155927161507 0.36 
38.01155927161507 0.36 
39.01155927161507 0.36 
40.01155927161507 0.36 
41.01155927161507 0.36 
42.01155927161507 0.36 
43.01155927161507 0.36 
#####################################################################
# End of data export. Simulation finished at: 2017-05-24T03:08+0000 #
#####################################################################
