#####################################################################
# Alchemist log file - simulation started at: 2017-05-25T16:43+0000 #
#####################################################################
# random = 18.0, targets = 31.622776601683793, density = 0.6332893950589894, gridShift = 0.0, perturbation = 0.0, connfactor = 0.75
#
# The columns have the following meaning: 
# time se[Mean] 
0.0 NaN 
1.0067713218599703 NaN 
2.0067713218599703 1.0270228248014137 
3.0067713218599703 1.0541221288004918 
4.00677132185997 1.0668260149554538 
5.00677132185997 1.0745186255935266 
6.00677132185997 1.083257486778959 
7.00677132185997 1.1031525867587142 
8.00677132185997 1.1135360615144596 
9.00677132185997 1.1705075457268355 
10.00677132185997 1.2025357888732944 
11.00677132185997 1.2283344072191116 
12.00677132185997 1.2577324516154205 
13.00677132185997 1.1958166100630754 
14.00677132185997 1.2152247622706687 
15.00677132185997 1.1441277345534278 
16.006771321859972 1.108718314174065 
17.006771321859972 1.063775281901045 
18.006771321859972 0.9875929364356006 
19.006771321859972 0.9480176565860575 
20.006771321859972 0.8825864242904861 
21.006771321859972 0.8728941018707135 
22.006771321859972 0.847836290873839 
23.006771321859972 0.8198415344466984 
24.006771321859972 0.7790374097251338 
25.006771321859972 0.7286721696442573 
26.006771321859972 0.7199286605296203 
27.006771321859972 0.7008076439915218 
28.006771321859972 0.6926701453258161 
29.006771321859972 0.6927542353503092 
30.006771321859972 0.684974555687243 
31.006771321859972 0.7021150692266143 
32.00677132185997 0.7023416650659174 
33.00677132185997 0.7080072180182232 
34.00677132185997 0.7101515777726862 
35.00677132185997 0.708772233983162 
36.00677132185997 0.7086628466994789 
37.00677132185997 0.708772233983162 
38.00677132185997 0.708772233983162 
39.00677132185997 0.708772233983162 
40.00677132185997 0.708772233983162 
41.00677132185997 0.708772233983162 
42.00677132185997 0.708772233983162 
43.00677132185997 0.708772233983162 
44.00677132185997 0.708772233983162 
45.00677132185997 0.708772233983162 
46.00677132185997 0.708772233983162 
47.00677132185997 0.708772233983162 
48.00677132185997 0.708772233983162 
49.00677132185997 0.708772233983162 
50.00677132185997 0.708772233983162 
51.00677132185997 0.708772233983162 
52.00677132185997 0.708772233983162 
53.00677132185997 0.708772233983162 
54.00677132185997 0.708772233983162 
55.00677132185997 0.708772233983162 
#####################################################################
# End of data export. Simulation finished at: 2017-05-25T16:43+0000 #
#####################################################################
