#####################################################################
# Alchemist log file - simulation started at: 2017-05-22T22:08+0000 #
#####################################################################
# random = 10.0, targets = 1.0, density = 10.026386447354522, gridShift = 1.0, perturbation = 0.0, connfactor = 1.0
#
# The columns have the following meaning: 
# time se[Mean] 
0.0 NaN 
1.0007035023519422 NaN 
2.000703502351942 1.0 
3.000703502351942 1.0 
4.000703502351942 0.9983870967741935 
5.000703502351942 0.9948028673835125 
6.000703502351942 0.9945468509984637 
7.000703502351942 0.9844854070660519 
8.000703502351943 0.9925499231950846 
9.000703502351943 0.9914490527393754 
10.000703502351943 1.0009984639016898 
11.000703502351943 1.0070916538658472 
12.000703502351943 1.0093958013312851 
13.000703502351943 1.006989247311828 
14.000703502351943 1.0039938556067587 
15.000703502351943 1.0016641065028162 
16.000703502351943 1.0003328213005633 
17.000703502351943 1.0 
18.000703502351943 1.0 
19.000703502351943 1.0 
20.000703502351943 1.0 
21.000703502351943 1.0 
22.000703502351943 1.0 
23.000703502351943 1.0 
24.000703502351943 1.0 
25.000703502351943 1.0 
26.000703502351943 1.0 
27.000703502351943 1.0 
28.000703502351943 1.0 
29.000703502351943 1.0 
30.000703502351943 1.0 
31.000703502351943 1.0 
32.00070350235194 1.0 
33.00070350235194 1.0 
34.00070350235194 1.0 
35.00070350235194 1.0 
36.00070350235194 1.0 
37.00070350235194 1.0 
38.00070350235194 1.0 
39.00070350235194 1.0 
40.00070350235194 1.0 
41.00070350235194 1.0 
42.00070350235194 1.0 
43.00070350235194 1.0 
44.00070350235194 1.0 
45.00070350235194 1.0 
46.00070350235194 1.0 
47.00070350235194 1.0 
48.00070350235194 1.0 
49.00070350235194 1.0 
50.00070350235194 1.0 
51.00070350235194 1.0 
52.00070350235194 1.0 
53.00070350235194 1.0 
54.00070350235194 1.0 
55.00070350235194 1.0 
56.00070350235194 1.0 
57.00070350235194 1.0 
58.00070350235194 1.0 
59.00070350235194 1.0 
60.00070350235194 1.0 
61.00070350235194 1.0 
62.00070350235194 1.0 
63.00070350235194 1.0 
64.00070350235194 1.0 
65.00070350235194 1.0 
66.00070350235194 1.0 
67.00070350235194 1.0 
68.00070350235194 1.0 
69.00070350235194 1.0 
70.00070350235194 1.0 
71.00070350235194 1.0 
72.00070350235194 1.0 
73.00070350235194 1.0 
74.00070350235194 1.0 
75.00070350235194 1.0 
76.00070350235194 1.0 
77.00070350235194 0.9994879672299027 
78.00070350235194 0.9974398361495135 
79.00070350235194 0.9961085509472606 
80.00070350235194 0.9923195084485408 
81.00070350235194 0.9889400921658987 
82.00070350235194 0.9891449052739376 
83.00070350235194 0.9835125448028675 
84.00070350235194 0.9833077316948284 
85.00070350235194 0.9845366103430622 
86.00070350235194 0.9907834101382489 
87.00070350235194 1.0197644649257551 
88.00070350235194 1.0495647721454175 
89.00070350235194 1.1298515104966733 
90.00070350235194 1.1875064004096243 
91.00070350235194 1.1943676395289284 
92.00070350235194 1.3053763440860182 
93.00070350235194 1.2813108038914514 
94.00070350235194 1.3150025601638486 
95.00070350235194 1.3405017921146936 
96.00070350235194 1.3232974910394277 
97.00070350235194 1.3812596006144375 
98.00070350235194 1.3956989247311795 
99.00070350235194 1.48069636456733 
100.00070350235194 1.5475678443420355 
101.00070350235194 1.5693804403481832 
102.00070350235194 1.644444444444443 
103.00070350235194 1.6272401433691739 
104.00070350235194 1.7482846902201814 
105.00070350235194 1.7112135176651366 
106.00070350235194 1.6462877624167902 
107.00070350235194 1.6935995903737828 
108.00070350235194 1.673835125448032 
109.00070350235194 1.6776241679467425 
110.00070350235194 1.6472094214029656 
111.00070350235194 1.5855606758832597 
112.00070350235194 1.5562724014336906 
113.00070350235194 1.4186379928315407 
114.00070350235194 1.4116743471582183 
115.00070350235194 1.4402457757296498 
116.00070350235194 1.3831029185867894 
117.00070350235194 1.400307219662059 
118.00070350235194 1.39774705581157 
119.00070350235194 1.3925243215565783 
120.00070350235194 1.3988735279057867 
121.00070350235194 1.300870455709166 
122.00070350235194 1.238709677419355 
123.00070350235194 1.1710189452124937 
124.00070350235194 1.223655913978495 
125.00070350235194 1.0644137224782388 
126.00070350235194 1.095033282130055 
127.00070350235194 0.9451100870455709 
128.00070350235194 0.8587813620071693 
129.00070350235194 0.791807475678445 
130.00070350235194 0.8014336917562714 
131.00070350235194 0.8187403993855606 
132.00070350235194 0.6701484895033246 
133.00070350235194 0.6436251920122879 
134.00070350235194 0.7074244751664106 
135.00070350235194 0.46779313876087886 
136.00070350235194 0.524423963133638 
137.00070350235194 0.4901177675371248 
138.00070350235194 0.3734767025089598 
139.00070350235194 0.3499231950844842 
140.00070350235194 0.3740911418330768 
141.00070350235194 0.2590885816692253 
142.00070350235194 0.2837685611879177 
143.00070350235194 0.23174603174603323 
144.00070350235194 0.24311315924219332 
145.00070350235194 0.2461853558627733 
146.00070350235194 0.19723502304147664 
147.00070350235194 0.1900665642601125 
148.00070350235194 0.1658986175115205 
149.00070350235194 0.11131592421915053 
150.00070350235194 0.16948284690220372 
151.00070350235194 0.12114695340501892 
152.00070350235194 0.08059395801331296 
153.00070350235194 0.09165386584741378 
154.00070350235194 0.06984126984126998 
155.00070350235194 0.0033794162826421103 
156.00070350235194 0.05560675883256508 
157.00070350235194 0.054889912954428764 
158.00070350235194 0.021198156682027586 
159.00070350235194 0.05345622119815702 
160.00070350235194 0.05335381464413678 
161.00070350235194 1.0240655401945897E-4 
162.00070350235194 0.020481310803891584 
163.00070350235194 0.020481310803891588 
164.00070350235194 0.0 
165.00070350235194 0.020071684587813627 
166.00070350235194 0.020071684587813627 
167.00070350235194 0.0 
168.00070350235194 0.0 
169.00070350235194 0.0 
170.00070350235194 0.0 
171.00070350235194 0.0 
172.00070350235194 0.0 
173.00070350235194 0.0 
174.00070350235194 0.0 
175.00070350235194 0.0 
176.00070350235194 0.0 
177.00070350235194 0.0 
178.00070350235194 0.0 
179.00070350235194 0.0 
180.00070350235194 0.0 
181.00070350235194 0.0 
182.00070350235194 0.0 
183.00070350235194 0.0 
184.00070350235194 0.0 
185.00070350235194 0.0 
186.00070350235194 0.0 
187.00070350235194 0.0 
188.00070350235194 0.0 
189.00070350235194 0.0 
190.00070350235194 0.0 
191.00070350235194 0.0 
192.00070350235194 0.0 
193.00070350235194 0.0 
194.00070350235194 0.0 
195.00070350235194 0.0 
196.00070350235194 0.0 
197.00070350235194 0.0 
198.00070350235194 0.0 
199.00070350235194 0.0 
200.00070350235194 0.0 
201.00070350235194 0.0 
202.00070350235194 0.0 
203.00070350235194 0.0 
204.00070350235194 0.0 
205.00070350235194 0.0 
206.00070350235194 0.0 
207.00070350235194 0.0 
208.00070350235194 0.0 
209.00070350235194 0.0 
210.00070350235194 0.0 
211.00070350235194 0.0 
212.00070350235194 0.0 
213.00070350235194 0.0 
214.00070350235194 0.0 
215.00070350235194 0.0 
216.00070350235194 0.0 
217.00070350235194 0.0 
218.00070350235194 0.0 
219.00070350235194 0.0 
220.00070350235194 0.0 
221.00070350235194 0.0 
222.00070350235194 0.0 
223.00070350235194 0.0 
224.00070350235194 0.0 
225.00070350235194 0.0 
226.00070350235194 0.0 
227.00070350235194 0.0 
228.00070350235194 0.0 
229.00070350235194 0.0 
230.00070350235194 0.0 
231.00070350235194 0.0 
232.00070350235194 0.0 
233.00070350235194 0.0 
234.00070350235194 0.0 
235.00070350235194 0.0 
236.00070350235194 0.0 
237.00070350235194 0.0 
#####################################################################
# End of data export. Simulation finished at: 2017-05-22T22:10+0000 #
#####################################################################
