#####################################################################
# Alchemist log file - simulation started at: 2017-05-20T20:34+0000 #
#####################################################################
# random = 1.0, targets = 31.622776601683793, density = 20.0, gridShift = 0.0, perturbation = 0.0, connfactor = 0.5
#
# The columns have the following meaning: 
# time se[Mean] 
0.0 NaN 
1.0000417374280275 NaN 
2.0000417374280275 1.0 
3.0000417374280275 0.9999261040250432 
4.0000417374280275 0.9994348557063862 
5.0000417374280275 0.9986171041270203 
6.0000417374280275 0.9969416236363922 
7.0000417374280275 0.9953750418328098 
8.000041737428027 0.9941509587913964 
9.000041737428027 0.9930234145509651 
10.000041737428027 0.9908352783011188 
11.000041737428027 0.9884384254917021 
12.000041737428027 0.9860501165795148 
13.000041737428027 0.9821101124421953 
14.000041737428027 0.9797210220938499 
15.000041737428027 0.9756959974809741 
16.000041737428027 0.9733705450216049 
17.000041737428027 0.9685726462191225 
18.000041737428027 0.9648463727346991 
19.000041737428027 0.9609307153777138 
20.000041737428027 0.9558967064377341 
21.000041737428027 0.9517023104669882 
22.000041737428027 0.9481551359046914 
23.000041737428027 0.9431656021236027 
24.000041737428027 0.9387423776626695 
25.000041737428027 0.9342681568165869 
26.000041737428027 0.9316674606410087 
27.000041737428027 0.9253481642605965 
28.000041737428027 0.9250712993759932 
29.000041737428027 0.9203544330928369 
30.000041737428027 0.918947574029907 
31.000041737428027 0.9164982659461188 
32.00004173742803 0.912960130714351 
33.00004173742803 0.9113724669465851 
34.00004173742803 0.9104027240201624 
35.00004173742803 0.9095055194237982 
36.00004173742803 0.9082230073976374 
37.00004173742803 0.90760951183182 
38.00004173742803 0.9073344897909694 
39.00004173742803 0.905438301825553 
40.00004173742803 0.9059616613960889 
41.00004173742803 0.9047554040908246 
42.00004173742803 0.9049107574774109 
43.00004173742803 0.9032448885051024 
44.00004173742803 0.9052821277113628 
45.00004173742803 0.903529430872316 
46.00004173742803 0.9045877717756862 
47.00004173742803 0.9038909368451132 
48.00004173742803 0.9055040002126928 
49.00004173742803 0.9058213833674327 
50.00004173742803 0.9048062201025353 
51.00004173742803 0.90600763126092 
52.00004173742803 0.905071326163795 
53.00004173742803 0.9079612906045087 
54.00004173742803 0.9073217508816902 
55.00004173742803 0.9107138041492748 
56.00004173742803 0.9097018888884421 
57.00004173742803 0.9121792559403784 
58.00004173742803 0.9120533191668371 
59.00004173742803 0.9125354431765039 
60.00004173742803 0.914148742838978 
61.00004173742803 0.9132199949755052 
62.00004173742803 0.9142768020635623 
63.00004173742803 0.9133085971554741 
64.00004173742803 0.9136115621185361 
65.00004173742803 0.9134084813659723 
66.00004173742803 0.9124352541405875 
67.00004173742803 0.9115947001947917 
68.00004173742803 0.9096733615335235 
69.00004173742803 0.9096564042224666 
70.00004173742803 0.9073003767011532 
71.00004173742803 0.9062520720263313 
72.00004173742803 0.9045292643901222 
73.00004173742803 0.9029699602129013 
74.00004173742803 0.9030619739582875 
75.00004173742803 0.9015556599622572 
76.00004173742803 0.8982007554296061 
77.00004173742803 0.897667527394895 
78.00004173742803 0.8941607146652458 
79.00004173742803 0.8928425095007211 
80.00004173742803 0.8906962601286457 
81.00004173742803 0.8860880756064197 
82.00004173742803 0.8858387424608941 
83.00004173742803 0.8850171396221957 
84.00004173742803 0.8806598792644471 
85.00004173742803 0.8789618195470001 
86.00004173742803 0.8733068586800647 
87.00004173742803 0.8716262540815943 
88.00004173742803 0.8678990871360236 
89.00004173742803 0.8622756514419324 
90.00004173742803 0.8574885105438255 
91.00004173742803 0.8518352680686629 
92.00004173742803 0.8502668741246572 
93.00004173742803 0.8439365559445593 
94.00004173742803 0.8360651745274704 
95.00004173742803 0.8310940532975236 
96.00004173742803 0.8226435299023511 
97.00004173742803 0.81539813825942 
98.00004173742803 0.8092111291935917 
99.00004173742803 0.7960117790106023 
100.00004173742803 0.7878368246182766 
101.00004173742803 0.7784803557107302 
102.00004173742803 0.7661051187776313 
103.00004173742803 0.7541429317336898 
104.00004173742803 0.7402457469450134 
105.00004173742803 0.727890493492601 
106.00004173742803 0.7147136698999593 
107.00004173742803 0.6984186562445466 
108.00004173742803 0.684125589105486 
109.00004173742803 0.6681071267620627 
110.00004173742803 0.6531763747684578 
111.00004173742803 0.6394505612264341 
112.00004173742803 0.6259005120984386 
113.00004173742803 0.6187016861930167 
114.00004173742803 0.6078937119127167 
115.00004173742803 0.6164863530122424 
116.00004173742803 0.6053711023774081 
117.00004173742803 0.6157415475346197 
118.00004173742803 0.6067872456788298 
119.00004173742803 0.602295748632545 
120.00004173742803 0.5993100079929664 
121.00004173742803 0.5695549177488742 
122.00004173742803 0.564899301032375 
123.00004173742803 0.6209470875569149 
124.00004173742803 0.5805703300251088 
125.00004173742803 0.643458739041296 
126.00004173742803 0.6033077655383784 
127.00004173742803 0.608375205179977 
128.00004173742803 0.6372328786604523 
129.00004173742803 0.5351672782383915 
130.00004173742803 0.4993006979998722 
131.00004173742803 0.5328160053538772 
132.00004173742803 0.42979262675186447 
133.00004173742803 0.5083137440019075 
134.00004173742803 0.4497096063740427 
135.00004173742803 0.3612585246324829 
136.00004173742803 0.4111565529079843 
137.00004173742803 0.3603641373445551 
138.00004173742803 0.3157608977756671 
139.00004173742803 0.32274414419137415 
140.00004173742803 0.2675532525917442 
141.00004173742803 0.2927937550188289 
142.00004173742803 0.24519825402297904 
143.00004173742803 0.23807096480802098 
144.00004173742803 0.24708089760354535 
145.00004173742803 0.1930261615796561 
146.00004173742803 0.21096919459089497 
147.00004173742803 0.19113557794747915 
148.00004173742803 0.16314008679279204 
149.00004173742803 0.1688290890260466 
150.00004173742803 0.15723430642103514 
151.00004173742803 0.13908233957340044 
152.00004173742803 0.15155481487386743 
153.00004173742803 0.12582000200380214 
154.00004173742803 0.14157993726785462 
155.00004173742803 0.14099788162043986 
156.00004173742803 0.12187884872251162 
157.00004173742803 0.11359311449688557 
158.00004173742803 0.11110374630487858 
159.00004173742803 0.09938594752211366 
160.00004173742803 0.0881698086778907 
161.00004173742803 0.08607831081169413 
162.00004173742803 0.078440678221804 
163.00004173742803 0.09242214123593505 
164.00004173742803 0.07859501862850232 
165.00004173742803 0.07961020573544159 
166.00004173742803 0.07027042446327911 
167.00004173742803 0.06073186813016632 
168.00004173742803 0.06730368543411791 
169.00004173742803 0.04165605097388468 
170.00004173742803 0.06467395020445635 
171.00004173742803 0.04061636206738358 
172.00004173742803 0.051310634473521126 
173.00004173742803 0.05173875950787768 
174.00004173742803 0.03887970841962063 
175.00004173742803 0.05014935376887221 
176.00004173742803 0.03785518197881218 
177.00004173742803 0.036740532721002216 
178.00004173742803 0.036888932113874034 
179.00004173742803 0.035391141189704475 
180.00004173742803 0.03578716922757323 
181.00004173742803 0.034715078269177045 
182.00004173742803 0.034542717491759495 
183.00004173742803 0.0343984884160337 
184.00004173742803 0.03365035776009501 
185.00004173742803 0.03374686695018874 
186.00004173742803 0.03327517902531857 
187.00004173742803 0.03314650594687664 
188.00004173742803 0.033046189894619944 
189.00004173742803 0.03292179113941351 
190.00004173742803 0.03279653675025205 
191.00004173742803 0.03265121831003497 
192.00004173742803 0.032537560465044406 
193.00004173742803 0.03238524272357552 
194.00004173742803 0.03224032121876546 
195.00004173742803 0.03216893658069762 
196.00004173742803 0.03202383890547087 
197.00004173742803 0.031949172639166835 
198.00004173742803 0.03187146103952262 
199.00004173742803 0.0317849169830962 
200.00004173742803 0.03174656739723729 
201.00004173742803 0.03168222665499492 
202.00004173742803 0.0316378200266268 
203.00004173742803 0.03162116754098876 
204.00004173742803 0.03161561671244274 
205.00004173742803 0.03161561671244274 
206.00004173742803 0.03161561671244274 
207.00004173742803 0.03161561671244274 
208.00004173742803 0.03161561671244274 
209.00004173742803 0.03161561671244274 
210.00004173742803 0.03161561671244274 
211.00004173742803 0.03161561671244274 
212.00004173742803 0.03161561671244274 
213.00004173742803 0.03161561671244274 
214.00004173742803 0.03161561671244274 
215.00004173742803 0.03161561671244274 
216.00004173742803 0.03161561671244274 
217.00004173742803 0.03161561671244274 
218.00004173742803 0.03161561671244274 
219.00004173742803 0.03161561671244274 
220.00004173742803 0.03161561671244274 
221.00004173742803 0.03161561671244274 
222.00004173742803 0.03161561671244274 
223.00004173742803 0.03161561671244274 
224.00004173742803 0.03161561671244274 
225.00004173742803 0.03161561671244274 
226.00004173742803 0.03161561671244274 
227.00004173742803 0.03161561671244274 
228.00004173742803 0.03161561671244274 
229.00004173742803 0.03161561671244274 
230.00004173742803 0.03161561671244274 
231.00004173742803 0.03161561671244274 
232.00004173742803 0.03161561671244274 
233.00004173742803 0.03161561671244274 
234.00004173742803 0.03161561671244274 
235.00004173742803 0.03161561671244274 
236.00004173742803 0.03161561671244274 
237.00004173742803 0.03161561671244274 
238.00004173742803 0.03161561671244274 
239.00004173742803 0.03161561671244274 
240.00004173742803 0.03161561671244274 
241.00004173742803 0.03161561671244274 
242.00004173742803 0.03161561671244274 
243.00004173742803 0.03161561671244274 
244.00004173742803 0.03161561671244274 
245.00004173742803 0.03161561671244274 
246.00004173742803 0.03161561671244274 
247.00004173742803 0.03161561671244274 
248.00004173742803 0.03161561671244274 
249.00004173742803 0.03161561671244274 
250.00004173742803 0.03161561671244274 
251.00004173742803 0.03161561671244274 
252.00004173742803 0.03161561671244274 
253.00004173742803 0.03161561671244274 
254.00004173742803 0.03161561671244274 
255.00004173742803 0.03161561671244274 
256.00004173742803 0.03161561671244274 
257.00004173742803 0.03161561671244274 
258.00004173742803 0.03161561671244274 
259.00004173742803 0.03161561671244274 
260.00004173742803 0.03161561671244274 
261.00004173742803 0.03161561671244274 
262.00004173742803 0.03161561671244274 
263.00004173742803 0.03161561671244274 
264.00004173742803 0.03161561671244274 
265.00004173742803 0.03161561671244274 
266.00004173742803 0.03161561671244274 
267.00004173742803 0.03161561671244274 
268.00004173742803 0.03161561671244274 
269.00004173742803 0.03161561671244274 
270.00004173742803 0.03161561671244274 
271.00004173742803 0.03161561671244274 
272.00004173742803 0.03161561671244274 
273.00004173742803 0.03161561671244274 
274.00004173742803 0.03161561671244274 
275.00004173742803 0.03161561671244274 
276.00004173742803 0.03161561671244274 
277.00004173742803 0.03161561671244274 
278.00004173742803 0.03161561671244274 
279.00004173742803 0.03161561671244274 
280.00004173742803 0.03161561671244274 
281.00004173742803 0.03161561671244274 
282.00004173742803 0.03161561671244274 
283.00004173742803 0.03161561671244274 
284.00004173742803 0.03161561671244274 
285.00004173742803 0.03161561671244274 
286.00004173742803 0.03161561671244274 
287.00004173742803 0.03161561671244274 
288.00004173742803 0.03161561671244274 
289.00004173742803 0.03161561671244274 
290.00004173742803 0.03161561671244274 
291.00004173742803 0.03161561671244274 
292.00004173742803 0.03161561671244274 
293.00004173742803 0.03161561671244274 
294.00004173742803 0.03161561671244274 
295.00004173742803 0.03161561671244274 
296.00004173742803 0.03161561671244274 
297.00004173742803 0.03161561671244274 
298.00004173742803 0.03161561671244274 
299.00004173742803 0.03161561671244274 
300.00004173742803 0.03161561671244274 
301.00004173742803 0.03161561671244274 
302.00004173742803 0.03161561671244274 
303.00004173742803 0.03161561671244274 
304.00004173742803 0.03161561671244274 
305.00004173742803 0.03161561671244274 
306.00004173742803 0.03161561671244274 
307.00004173742803 0.03161561671244274 
308.00004173742803 0.03161561671244274 
309.00004173742803 0.03161561671244274 
310.00004173742803 0.03161561671244274 
311.00004173742803 0.03161561671244274 
312.00004173742803 0.03161561671244274 
#####################################################################
# End of data export. Simulation finished at: 2017-05-20T20:52+0000 #
#####################################################################
