#####################################################################
# Alchemist log file - simulation started at: 2017-05-26T02:32+0000 #
#####################################################################
# random = 19.0, targets = 100.0, density = 5.0264212595847235, gridShift = 0.0, perturbation = 0.0, connfactor = 1.0
#
# The columns have the following meaning: 
# time se[Mean] 
0.0 NaN 
1.0036597452439835 NaN 
2.0036597452439837 1.009824826388889 
3.0036597452439837 1.01631668595679 
4.003659745243984 1.0236218207465277 
5.003659745243984 1.0325819685570987 
6.003659745243984 1.0422065923996915 
7.003659745243984 1.049125220630787 
8.003659745243983 1.0578669897762345 
9.003659745243983 1.0559669885706018 
10.003659745243983 1.044686127989969 
11.003659745243983 1.0427623143325617 
12.003659745243983 1.0392033046392746 
13.003659745243983 1.0344961962287809 
14.003659745243983 1.0337912049093363 
15.003659745243983 1.0214855119116513 
16.003659745243983 1.0259880075713734 
17.003659745243983 1.0191291799286266 
18.003659745243983 1.0219204921392748 
19.003659745243983 1.0156695300443672 
20.003659745243983 1.0177921645929784 
21.003659745243983 1.0136926058545526 
22.003659745243983 1.0132730227623457 
23.003659745243983 1.009602446228781 
24.003659745243983 1.0056096752025463 
25.003659745243983 1.0049800069926698 
26.003659745243983 0.9992786349826389 
27.003659745243983 0.9988251374421296 
28.003659745243983 0.9944067925347223 
29.003659745243983 0.9907145218460649 
30.003659745243983 0.9841395857445988 
31.003659745243983 0.9800056278935185 
32.00365974524398 0.9745856216242283 
33.00365974524398 0.9684980143229167 
34.00365974524398 0.964956071566358 
35.00365974524398 0.9568256679205247 
36.00365974524398 0.951517650462963 
37.00365974524398 0.9473676878375772 
38.00365974524398 0.941125335165895 
39.00365974524398 0.9356359338831018 
40.00365974524398 0.9309764696662808 
41.00365974524398 0.925540586419753 
42.00365974524398 0.9184858856577931 
43.00365974524398 0.9156931037808641 
44.00365974524398 0.9098759428047838 
45.00365974524398 0.9023072337962962 
46.00365974524398 0.8959117296006942 
47.00365974524398 0.8908382776331019 
48.00365974524398 0.883650326726466 
49.00365974524398 0.8789837854456017 
50.00365974524398 0.8768607421875 
51.00365974524398 0.8710831223476079 
52.00365974524398 0.8684663797260801 
53.00365974524398 0.8661000735435955 
54.00365974524398 0.8638200774016203 
55.00365974524398 0.8613262972608023 
56.00365974524398 0.8617669958043981 
57.00365974524398 0.8540457839023918 
58.00365974524398 0.8518051106770832 
59.00365974524398 0.8457378496334875 
60.00365974524398 0.8389671211902006 
61.00365974524398 0.8307245659722221 
62.00365974524398 0.8187726261091819 
63.00365974524398 0.8095229757426697 
64.00365974524398 0.8019059124228395 
65.00365974524398 0.7899666341145832 
66.00365974524398 0.7817164110725308 
67.00365974524398 0.7718757113233025 
68.00365974524398 0.7595093653549381 
69.00365974524398 0.7493355733989198 
70.00365974524398 0.7402113775559414 
71.00365974524398 0.7370322976948303 
72.00365974524398 0.7229467218846449 
73.00365974524398 0.7218185824170523 
74.00365974524398 0.7072109700520832 
75.00365974524398 0.7076622697241512 
76.00365974524398 0.7058327534239968 
77.00365974524398 0.6996031647858795 
78.00365974524398 0.6970121539834103 
79.00365974524398 0.6922499228395061 
80.00365974524398 0.688964236111111 
81.00365974524398 0.6898722788869597 
82.00365974524398 0.6872151475694444 
83.00365974524398 0.6862046899112653 
84.00365974524398 0.6864096330054011 
85.00365974524398 0.6843630943769289 
86.00365974524398 0.687609637827932 
87.00365974524398 0.6880909891010801 
88.00365974524398 0.6873834044656635 
89.00365974524398 0.685594386574074 
90.00365974524398 0.6864311861014659 
91.00365974524398 0.6855573471257715 
92.00365974524398 0.6871880413290894 
93.00365974524398 0.6883425889756943 
94.00365974524398 0.6886750494309413 
95.00365974524398 0.6890851140528549 
96.00365974524398 0.6890033769772376 
97.00365974524398 0.6889625048225309 
98.00365974524398 0.6889048080632716 
99.00365974524398 0.6889 
100.00365974524398 0.6889 
101.00365974524398 0.6889 
102.00365974524398 0.6889 
103.00365974524398 0.6889 
104.00365974524398 0.6889 
105.00365974524398 0.6889 
106.00365974524398 0.6889 
107.00365974524398 0.6889 
108.00365974524398 0.6889 
109.00365974524398 0.6889 
110.00365974524398 0.6889 
111.00365974524398 0.6889 
112.00365974524398 0.6889 
113.00365974524398 0.6889 
114.00365974524398 0.6889 
115.00365974524398 0.6889 
116.00365974524398 0.6889 
117.00365974524398 0.6889 
118.00365974524398 0.6889 
119.00365974524398 0.6889 
120.00365974524398 0.6889 
121.00365974524398 0.6889 
122.00365974524398 0.6889 
123.00365974524398 0.6889 
124.00365974524398 0.6889 
125.00365974524398 0.6889 
126.00365974524398 0.6889 
127.00365974524398 0.6889 
128.00365974524397 0.6889 
129.00365974524397 0.6889 
130.00365974524397 0.6889 
131.00365974524397 0.6889 
132.00365974524397 0.6889 
133.00365974524397 0.6889 
134.00365974524397 0.6889 
135.00365974524397 0.6889 
136.00365974524397 0.6889 
137.00365974524397 0.6889 
138.00365974524397 0.6889 
139.00365974524397 0.6889 
140.00365974524397 0.6889 
141.00365974524397 0.6889 
142.00365974524397 0.6889 
143.00365974524397 0.6889 
144.00365974524397 0.6889 
145.00365974524397 0.6889 
146.00365974524397 0.6889 
147.00365974524397 0.6889 
148.00365974524397 0.6889 
149.00365974524397 0.6889 
150.00365974524397 0.6889 
151.00365974524397 0.6889 
#####################################################################
# End of data export. Simulation finished at: 2017-05-26T02:33+0000 #
#####################################################################
