#####################################################################
# Alchemist log file - simulation started at: 2017-05-24T01:19+0000 #
#####################################################################
# random = 13.0, targets = 10.0, density = 20.0, gridShift = 0.0, perturbation = 0.5, connfactor = 0.75
#
# The columns have the following meaning: 
# time se[Mean] 
0.0 NaN 
1.0002602723432414 NaN 
2.000260272343241 NaN 
3.000260272343241 1.0001785667401806 
4.000260272343241 0.9992411323776518 
5.000260272343241 0.9985406492858644 
6.000260272343241 0.9954063944024365 
7.000260272343241 0.9951644875026255 
8.00026027234324 0.9941917401806345 
9.00026027234324 0.993216629909683 
10.00026027234324 0.9908144953791219 
11.00026027234324 0.9901168018798573 
12.00026027234324 0.9881079014387734 
13.00026027234324 0.9880127271056502 
14.00026027234324 0.9872023668872087 
15.00026027234324 0.9855465632220121 
16.00026027234324 0.983370123135896 
17.00026027234324 0.9798585184310016 
18.00026027234324 0.9758640516698176 
19.00026027234324 0.9719148747637048 
20.00026027234324 0.9662785522999366 
21.00026027234324 0.9621319706994326 
22.00026027234324 0.9564617464818318 
23.00026027234324 0.9510334948015131 
24.00026027234324 0.9458858104914932 
25.00026027234324 0.9393288240390675 
26.00026027234324 0.9336655245746686 
27.00026027234324 0.9264392000105022 
28.00026027234324 0.9225731857802983 
29.00026027234324 0.914813458307077 
30.00026027234324 0.9086985730413785 
31.00026027234324 0.9052277620247837 
32.00026027234324 0.8994897671182521 
33.00026027234324 0.8944787072043695 
34.00026027234324 0.8909197122453265 
35.00026027234324 0.8843903591682424 
36.00026027234324 0.8811147539907568 
37.00026027234324 0.8769517630224725 
38.00026027234324 0.8701222169712235 
39.00026027234324 0.870333897815584 
40.00026027234324 0.8686462927956297 
41.00026027234324 0.8670981674018051 
42.00026027234324 0.8705659262759922 
43.00026027234324 0.8662776005566055 
44.00026027234324 0.8723373175278318 
45.00026027234324 0.8729953988132749 
46.00026027234324 0.8747607514177709 
47.00026027234324 0.8764451730203754 
48.00026027234324 0.8828581836798988 
49.00026027234324 0.8807937539382482 
50.00026027234324 0.8865476987502624 
51.00026027234324 0.8883125262549878 
52.00026027234324 0.8924319667611849 
53.00026027234324 0.8972440795001062 
54.00026027234324 0.9001204447595039 
55.00026027234324 0.9066856030770842 
56.00026027234324 0.9113307997269486 
57.00026027234324 0.9154399023314427 
58.00026027234324 0.9199914343100184 
59.00026027234324 0.920371114261709 
60.00026027234324 0.9280193893089681 
61.00026027234324 0.9253029497479528 
62.00026027234324 0.9284076677693756 
63.00026027234324 0.9305399666561659 
64.00026027234324 0.9340083490863271 
65.00026027234324 0.9353195560281443 
66.00026027234324 0.9374831639886574 
67.00026027234324 0.938287813747113 
68.00026027234324 0.9406208320205837 
69.00026027234324 0.9423455222117199 
70.00026027234324 0.9429905088216756 
71.00026027234324 0.9430536192501575 
72.00026027234324 0.9437874133585388 
73.00026027234324 0.9441169134635582 
74.00026027234324 0.944593178954001 
75.00026027234324 0.9449656059651339 
76.00026027234324 0.9460039907582444 
77.00026027234324 0.9466270216341109 
78.00026027234324 0.9473538909892888 
79.00026027234324 0.9483922757823993 
80.00026027234324 0.9488076296996428 
81.00026027234324 0.9498460144927545 
82.00026027234324 0.953663883637892 
83.00026027234324 0.9573779143037189 
84.00026027234324 0.9627869670237355 
85.00026027234324 0.9714946964923319 
86.00026027234324 0.97233708779668 
87.00026027234324 0.9801219544213421 
88.00026027234324 0.9859924385633253 
89.00026027234324 0.988529851921864 
90.00026027234324 0.9830067212770425 
91.00026027234324 1.0027043950850671 
92.00026027234324 0.9961655902121392 
93.00026027234324 0.9967315164881345 
94.00026027234324 1.002117202268428 
95.00026027234324 1.0095211090107137 
96.00026027234324 1.0150917611846266 
97.00026027234324 1.025136919764758 
98.00026027234324 1.009534236504937 
99.00026027234324 1.0340296156269708 
100.00026027234324 1.0181147605545033 
101.00026027234324 1.027941215080867 
102.00026027234324 1.0362906952320934 
103.00026027234324 1.01288043478261 
104.00026027234324 1.0398898603234632 
105.00026027234324 1.026996560596512 
106.00026027234324 1.0297883847931113 
107.00026027234324 1.0353888363789112 
108.00026027234324 1.0453101042323059 
109.00026027234324 1.0336068446754878 
110.00026027234324 1.0447550409577815 
111.00026027234324 1.0443172390254138 
112.00026027234324 1.0432178442028976 
113.00026027234324 1.036846217968914 
114.00026027234324 1.0471143798571718 
115.00026027234324 1.0358688760239456 
116.00026027234324 1.0472370891094307 
117.00026027234324 1.030736879069524 
118.00026027234324 1.0351173269796252 
119.00026027234324 1.034776438773367 
120.00026027234324 1.046506806605755 
121.00026027234324 1.0330604127284186 
122.00026027234324 1.0259350385948318 
123.00026027234324 1.0279645820205832 
124.00026027234324 1.0286766173072885 
125.00026027234324 1.0283401924490667 
126.00026027234324 1.038713505566058 
127.00026027234324 1.014470994801514 
128.00026027234324 1.0109409787859707 
129.00026027234324 1.0176050199537923 
130.00026027234324 1.0053226409892884 
131.00026027234324 1.005545348928795 
132.00026027234324 1.022069451008193 
133.00026027234324 1.0286683141671935 
134.00026027234324 1.040212304400335 
135.00026027234324 1.0605542428061332 
136.00026027234324 1.048422830025205 
137.00026027234324 1.091455970384373 
138.00026027234324 1.1032899141461878 
139.00026027234324 1.1112918767065747 
140.00026027234324 1.0378741007666452 
141.00026027234324 1.1599854941188843 
142.00026027234324 1.116091715238396 
143.00026027234324 1.1349453568052903 
144.00026027234324 1.155508920132325 
145.00026027234324 1.214460492806129 
146.00026027234324 1.2530302523104386 
147.00026027234324 1.2955301866729647 
148.00026027234324 1.1809961470804462 
149.00026027234324 1.3641265949905474 
150.00026027234324 1.225253360638518 
151.00026027234324 1.279894619040121 
152.00026027234324 1.3291406742281036 
153.00026027234324 1.2007780665826462 
154.00026027234324 1.369857927693766 
155.00026027234324 1.2858921445074534 
156.00026027234324 1.2659155770846444 
157.00026027234324 1.333598935360218 
158.00026027234324 1.3441651241860966 
159.00026027234324 1.2936100937303083 
160.00026027234324 1.3526900532976311 
161.00026027234324 1.303826139466498 
162.00026027234324 1.3513608288699868 
163.00026027234324 1.2748833950325553 
164.00026027234324 1.347181067527829 
165.00026027234324 1.301140877704263 
166.00026027234324 1.3929866362108831 
167.00026027234324 1.2751125026255006 
168.00026027234324 1.340725458149549 
169.00026027234324 1.345384996586851 
170.00026027234324 1.418576848351186 
171.00026027234324 1.348505730151229 
172.00026027234324 1.3478775139151424 
173.00026027234324 1.3552482737345084 
174.00026027234324 1.4011943066057555 
175.00026027234324 1.392017400493594 
176.00026027234324 1.492902685885319 
177.00026027234324 1.3903871954421323 
178.00026027234324 1.4152996678743985 
179.00026027234324 1.4549647526780125 
180.00026027234324 1.419481759346776 
181.00026027234324 1.4599944536336908 
182.00026027234324 1.5026404313694612 
183.00026027234324 1.5257512208569544 
184.00026027234324 1.5288229560491426 
185.00026027234324 1.4153395426381092 
186.00026027234324 1.3350382338269275 
187.00026027234324 1.487816110060918 
188.00026027234324 1.388243245904226 
189.00026027234324 1.4873165432682278 
190.00026027234324 1.5093673532346241 
191.00026027234324 1.6209742898025636 
192.00026027234324 1.7181610677903831 
193.00026027234324 1.6708112463243032 
194.00026027234324 1.8854274640306676 
195.00026027234324 1.8374976370510312 
196.00026027234324 2.088988001470288 
197.00026027234324 1.9491254463347911 
198.00026027234324 2.1063888888888873 
199.00026027234324 2.0045033868935103 
200.00026027234324 1.8619289540012691 
201.00026027234324 1.9230025204788808 
202.00026027234324 2.0468262641777026 
203.00026027234324 2.063007016645659 
204.00026027234324 2.343632180739347 
205.00026027234324 2.0417514046418828 
206.00026027234324 2.3296140188510908 
207.00026027234324 2.0136417638101203 
208.00026027234324 2.073125000000003 
209.00026027234324 2.229545329237557 
210.00026027234324 1.8063135370720445 
211.00026027234324 2.0961350687880573 
212.00026027234324 1.9802147986242562 
213.00026027234324 1.9461503295001221 
214.00026027234324 2.0242136630959884 
215.00026027234324 2.1482838426801063 
216.00026027234324 1.9849987857067872 
217.00026027234324 2.135669174018071 
218.00026027234324 2.1673972117202336 
219.00026027234324 2.1640593165826556 
220.00026027234324 2.0720080471539415 
221.00026027234324 2.2588291259714475 
222.00026027234324 2.127465638783858 
223.00026027234324 2.3308960499369924 
224.00026027234324 2.1295288870510323 
225.00026027234324 2.184342870457878 
226.00026027234324 2.248836674280614 
227.00026027234324 2.5331709134110514 
228.00026027234324 2.4179136473429983 
229.00026027234324 2.326916811069109 
230.00026027234324 2.393571662990956 
231.00026027234324 2.5012792086746467 
232.00026027234324 2.6134639847195915 
233.00026027234324 2.9043277410207855 
234.00026027234324 2.6174545132325178 
235.00026027234324 2.5218320730938797 
236.00026027234324 2.729702366887205 
237.00026027234324 2.6959328069208026 
238.00026027234324 2.7628338649968573 
239.00026027234324 2.8692502559861293 
240.00026027234324 2.891327091209817 
241.00026027234324 2.8440762182314443 
242.00026027234324 2.6469791338479305 
243.00026027234324 2.322298952425967 
244.00026027234324 2.6417235087166375 
245.00026027234324 2.4721001693446754 
246.00026027234324 2.543813733984436 
247.00026027234324 2.44833815768748 
248.00026027234324 2.4733721578975016 
249.00026027234324 2.3678289750052395 
250.00026027234324 2.2259147237975 
251.00026027234324 2.50335220410626 
252.00026027234324 1.9431204381957372 
253.00026027234324 2.4517724086326447 
254.00026027234324 2.5383999881852484 
255.00026027234324 2.0662306041272815 
256.0002602723432 1.8259171195652053 
257.0002602723432 1.4661334278512894 
258.0002602723432 1.3480101672442795 
259.0002602723432 1.2193280035706773 
260.0002602723432 1.082689265647971 
261.0002602723432 1.0103223128019276 
262.0002602723432 1.0309307065217352 
263.0002602723432 0.9707387169187122 
264.0002602723432 0.830120280665828 
265.0002602723432 0.7145561594202914 
266.0002602723432 0.7335340855387505 
267.0002602723432 0.8017657464293194 
268.0002602723432 0.5533549936988039 
269.0002602723432 1.011260501995378 
270.0002602723432 1.2269562591892593 
271.0002602723432 1.799645984299553 
272.0002602723432 2.5247161179373325 
273.0002602723432 2.5665461562696765 
274.0002602723432 3.3361087481621516 
275.0002602723432 3.888316727053172 
276.0002602723432 4.19646417506836 
277.0002602723432 3.323199498529717 
278.0002602723432 5.544632036336859 
279.0002602723432 4.7479378019324185 
280.0002602723432 4.713101370510484 
281.0002602723432 5.322789264335259 
282.0002602723432 6.117384346775938 
283.0002602723432 6.719042579027636 
284.0002602723432 7.858261525939871 
285.0002602723432 5.9374112909576695 
286.0002602723432 8.710324872663305 
287.0002602723432 6.741961838374236 
288.0002602723432 7.8918193394245915 
289.0002602723432 8.767467312539285 
290.0002602723432 5.9764119932787825 
291.0002602723432 9.105603208359609 
292.0002602723432 7.353377802719962 
293.0002602723432 7.641691805818019 
294.0002602723432 8.249283928008705 
295.0002602723432 9.361865449748084 
296.0002602723432 7.980145354179671 
297.0002602723432 9.401860231568962 
298.0002602723432 9.393109115732042 
299.0002602723432 9.365288575141847 
300.0002602723432 8.768001142091906 
301.0002602723432 10.12594573750262 
302.0002602723432 9.078461359220654 
303.0002602723432 10.709441293845877 
304.0002602723432 9.047111163621027 
305.0002602723432 9.859057249002227 
306.0002602723432 10.137970751942913 
307.0002602723432 11.800637471119519 
308.0002602723432 10.639112647027945 
309.0002602723432 10.416233984457033 
310.0002602723432 10.866670440821235 
311.0002602723432 11.548034289014945 
312.0002602723432 12.063186371035474 
313.0002602723432 13.636822424385505 
314.0002602723432 11.337443453318606 
315.0002602723432 11.274249632430118 
316.0002602723432 12.658198251417701 
317.0002602723432 12.06020203213609 
318.0002602723432 12.591875557918552 
319.0002602723432 13.144393115942032 
320.0002602723432 13.136150198225044 
321.0002602723432 12.844505848298937 
322.0002602723432 11.674013665721464 
323.0002602723432 9.990056546681492 
324.0002602723432 12.51401277961547 
325.0002602723432 10.83413578423671 
326.0002602723432 11.644312053665061 
327.0002602723432 10.827420217653637 
328.0002602723432 11.094057741283137 
329.0002602723432 10.246477433837793 
330.0002602723432 9.376114983721793 
331.0002602723432 11.348215382798147 
332.0002602723432 7.124356687145501 
333.0002602723432 11.329513363789133 
334.0002602723432 10.774853792533408 
335.0002602723432 7.956159945389525 
336.0002602723432 6.832422810334265 
337.0002602723432 5.1468171077506195 
338.0002602723432 4.865882823986602 
339.0002602723432 4.02307997269481 
340.0002602723432 3.1802771214030385 
341.0002602723432 2.899342837639194 
342.0002602723432 2.8993428376391757 
343.0002602723432 2.8993428376391766 
344.0002602723432 1.4946714188195076 
345.0002602723432 1.4946714188195078 
346.0002602723432 1.4946714188195962 
347.0002602723432 1.7756057025835381 
348.0002602723432 0.6518685675278262 
349.0002602723432 1.4946714188195993 
350.0002602723432 1.2137371350556807 
351.0002602723432 1.2137371350556752 
352.0002602723432 0.3709342837639181 
353.0002602723432 0.651868567527827 
354.0002602723432 0.3709342837639181 
355.0002602723432 0.09 
356.0002602723432 0.3709342837639184 
357.0002602723432 0.09 
358.0002602723432 0.09 
359.0002602723432 0.09 
360.0002602723432 0.09 
361.0002602723432 0.09 
362.0002602723432 0.09 
363.0002602723432 0.09 
364.0002602723432 0.09 
365.0002602723432 0.09 
366.0002602723432 0.09 
367.0002602723432 0.09 
368.0002602723432 0.09 
369.0002602723432 0.09 
370.0002602723432 0.09 
371.0002602723432 0.09 
372.0002602723432 0.09 
373.0002602723432 0.09 
374.0002602723432 0.09 
375.0002602723432 0.09 
376.0002602723432 0.09 
377.0002602723432 0.09 
378.0002602723432 0.09 
379.0002602723432 0.09 
380.0002602723432 0.09 
381.0002602723432 0.09 
382.0002602723432 0.09 
383.0002602723432 0.09 
384.0002602723432 0.09 
385.0002602723432 0.09 
386.0002602723432 0.09 
387.0002602723432 0.09 
388.0002602723432 0.09 
389.0002602723432 0.09 
390.0002602723432 0.09 
391.0002602723432 0.09 
392.0002602723432 0.09 
393.0002602723432 0.09 
394.0002602723432 0.09 
395.0002602723432 0.09 
396.0002602723432 0.09 
397.0002602723432 0.09 
398.0002602723432 0.09 
399.0002602723432 0.09 
400.0002602723432 0.09 
401.0002602723432 0.09 
402.0002602723432 0.09 
403.0002602723432 0.09 
404.0002602723432 0.09 
405.0002602723432 0.09 
406.0002602723432 0.09 
407.0002602723432 0.09 
408.0002602723432 0.09 
409.0002602723432 0.09 
410.0002602723432 0.09 
411.0002602723432 0.09 
412.0002602723432 0.09 
413.0002602723432 0.09 
414.0002602723432 0.09 
415.0002602723432 0.09 
416.0002602723432 0.09 
417.0002602723432 0.09 
418.0002602723432 0.09 
419.0002602723432 0.09 
420.0002602723432 0.09 
421.0002602723432 0.09 
422.0002602723432 0.09 
423.0002602723432 0.09 
424.0002602723432 0.09 
425.0002602723432 0.09 
426.0002602723432 0.09 
427.0002602723432 0.09 
428.0002602723432 0.09 
429.0002602723432 0.09 
430.0002602723432 0.09 
431.0002602723432 0.09 
432.0002602723432 0.09 
433.0002602723432 0.09 
434.0002602723432 0.09 
435.0002602723432 0.09 
436.0002602723432 0.09 
437.0002602723432 0.09 
438.0002602723432 0.09 
439.0002602723432 0.09 
440.0002602723432 0.09 
441.0002602723432 0.09 
442.0002602723432 0.09 
443.0002602723432 0.09 
444.0002602723432 0.09 
445.0002602723432 0.09 
446.0002602723432 0.09 
447.0002602723432 0.09 
448.0002602723432 0.09 
449.0002602723432 0.09 
450.0002602723432 0.09 
451.0002602723432 0.09 
452.0002602723432 0.09 
453.0002602723432 0.09 
454.0002602723432 0.09 
455.0002602723432 0.09 
456.0002602723432 0.09 
457.0002602723432 0.09 
458.0002602723432 0.09 
459.0002602723432 0.09 
460.0002602723432 0.09 
461.0002602723432 0.09 
462.0002602723432 0.09 
463.0002602723432 0.09 
#####################################################################
# End of data export. Simulation finished at: 2017-05-24T01:29+0000 #
#####################################################################
