#####################################################################
# Alchemist log file - simulation started at: 2017-05-23T03:44+0000 #
#####################################################################
# random = 10.0, targets = 100.0, density = 0.1591589639397027, gridShift = 1.0, perturbation = 0.0, connfactor = 0.1
#
# The columns have the following meaning: 
# time se[Mean] 
0.0 NaN 
1.0036005446229952 NaN 
2.003600544622995 1.0 
3.003600544622995 1.0001112037037037 
4.003600544622995 0.9971553703703704 
5.003600544622995 0.9962735185185185 
6.003600544622995 0.9873259259259259 
7.003600544622995 0.9801676851851852 
8.003600544622994 0.9761943518518519 
9.003600544622994 0.978175 
10.003600544622994 0.9758508333333333 
11.003600544622994 0.9745308333333333 
12.003600544622994 0.9755033333333333 
13.003600544622994 0.97616 
14.003600544622994 0.9794433333333333 
15.003600544622994 0.9794433333333333 
16.003600544622994 0.9801 
17.003600544622994 0.9801 
18.003600544622994 0.9801 
19.003600544622994 0.9801 
20.003600544622994 0.9801 
21.003600544622994 0.9801 
22.003600544622994 0.9801 
23.003600544622994 0.9801 
24.003600544622994 0.9801 
25.003600544622994 0.9801 
26.003600544622994 0.9801 
#####################################################################
# End of data export. Simulation finished at: 2017-05-23T03:44+0000 #
#####################################################################
