#####################################################################
# Alchemist log file - simulation started at: 2017-05-19T17:40+0000 #
#####################################################################
# random = 0.0, targets = 1.0, density = 2.519842099789746, gridShift = 0.0, perturbation = 0.0, connfactor = 0.5
#
# The columns have the following meaning: 
# time se[Mean] 
0.0 NaN 
1.0011337332612453 NaN 
2.0011337332612453 1.0 
3.0011337332612453 1.0 
4.001133733261245 1.0 
5.001133733261245 0.9965397923875432 
6.001133733261245 0.9757785467128027 
7.001133733261245 0.9792387543252594 
8.001133733261245 0.9411764705882351 
9.001133733261245 0.9723183391003462 
10.001133733261245 0.9480968858131489 
11.001133733261245 0.9584775086505188 
12.001133733261245 0.9688581314878895 
13.001133733261245 0.9653979238754327 
14.001133733261245 0.9896193771626297 
15.001133733261245 0.9792387543252594 
16.001133733261245 0.9619377162629758 
17.001133733261245 0.9550173010380624 
18.001133733261245 0.9307958477508652 
19.001133733261245 0.9377162629757785 
20.001133733261245 0.9273356401384083 
21.001133733261245 0.903114186851211 
22.001133733261245 0.8961937716262978 
23.001133733261245 0.899653979238754 
24.001133733261245 0.878892733564014 
25.001133733261245 0.8546712802768166 
26.001133733261245 0.8339100346020762 
27.001133733261245 0.7993079584775084 
28.001133733261245 0.768166089965398 
29.001133733261245 0.726643598615917 
30.001133733261245 0.6851211072664357 
31.001133733261245 0.6332179930795849 
32.00113373326124 0.5778546712802766 
33.00113373326124 0.5397923875432526 
34.00113373326124 0.4775086505190313 
35.00113373326124 0.4186851211072664 
36.00113373326124 0.3667820069204153 
37.00113373326124 0.3114186851211073 
38.00113373326124 0.25605536332179935 
39.00113373326124 0.22491349480968856 
40.00113373326124 0.19723183391003457 
41.00113373326124 0.14878892733564014 
42.00113373326124 0.12802768166089967 
43.00113373326124 0.07958477508650513 
44.00113373326124 0.051903114186851194 
45.00113373326124 0.024221453287197235 
46.00113373326124 0.010380622837370231 
47.00113373326124 0.0 
48.00113373326124 0.0 
49.00113373326124 0.0 
50.00113373326124 0.0 
51.00113373326124 0.0 
52.00113373326124 0.0 
53.00113373326124 0.0 
54.00113373326124 0.0 
55.00113373326124 0.0 
56.00113373326124 0.0 
57.00113373326124 0.0 
58.00113373326124 0.0 
59.00113373326124 0.0 
60.00113373326124 0.0 
61.00113373326124 0.0 
62.00113373326124 0.0 
63.00113373326124 0.0 
64.00113373326124 0.0 
65.00113373326124 0.0 
66.00113373326124 0.0 
67.00113373326124 0.0 
68.00113373326124 0.0 
69.00113373326124 0.0 
70.00113373326124 0.0 
71.00113373326124 0.0 
72.00113373326124 0.0 
73.00113373326124 0.0 
74.00113373326124 0.0 
75.00113373326124 0.0 
76.00113373326124 0.0 
77.00113373326124 0.0 
78.00113373326124 0.0 
79.00113373326124 0.0 
80.00113373326124 0.0 
81.00113373326124 0.0 
82.00113373326124 0.0 
#####################################################################
# End of data export. Simulation finished at: 2017-05-19T17:41+0000 #
#####################################################################
