#####################################################################
# Alchemist log file - simulation started at: 2017-05-19T20:33+0000 #
#####################################################################
# random = 0.0, targets = 3.1622776601683795, density = 7.099073319511142, gridShift = 1.0, perturbation = 0.0, connfactor = 1.0
#
# The columns have the following meaning: 
# time se[Mean] 
0.0 NaN 
1.0011337332612453 NaN 
2.0011337332612453 1.0099448857081672 
3.0011337332612453 1.0232725847011008 
4.001133733261245 1.0337831470323668 
5.001133733261245 1.0432905612456405 
6.001133733261245 1.0215721811426244 
7.001133733261245 1.0020209163789893 
8.001133733261245 0.9944920586307303 
9.001133733261245 0.9934428017808224 
10.001133733261245 0.9872274839035251 
11.001133733261245 0.9879423580474358 
12.001133733261245 0.9820370567943478 
13.001133733261245 0.9807632534057006 
14.001133733261245 0.9696499112793372 
15.001133733261245 0.9594313791490859 
16.001133733261245 0.952597898727845 
17.001133733261245 0.9252535154218713 
18.001133733261245 0.9209132777436133 
19.001133733261245 0.899500427537663 
20.001133733261245 0.8769513523509563 
21.001133733261245 0.8709433250894139 
22.001133733261245 0.8486000498820757 
23.001133733261245 0.8348277618264531 
24.001133733261245 0.8248959932765857 
25.001133733261245 0.8156206182986067 
26.001133733261245 0.7991035489781511 
27.001133733261245 0.7971853388503054 
28.001133733261245 0.7827604109800643 
29.001133733261245 0.7736421112268689 
30.001133733261245 0.7689884931138754 
31.001133733261245 0.7618573728478594 
32.00113373326124 0.756238094796289 
33.00113373326124 0.7436249022274972 
34.00113373326124 0.741142520930923 
35.00113373326124 0.7320793305302329 
36.00113373326124 0.729999933579221 
37.00113373326124 0.7238753351203773 
38.00113373326124 0.7189293215562645 
39.00113373326124 0.7142318454839188 
40.00113373326124 0.7024452339307705 
41.00113373326124 0.6941932566148602 
42.00113373326124 0.6808145796251152 
43.00113373326124 0.6744256981452182 
44.00113373326124 0.6627781630453388 
45.00113373326124 0.6496304048439343 
46.00113373326124 0.6365714904171808 
47.00113373326124 0.6276083877753019 
48.00113373326124 0.6106103567203691 
49.00113373326124 0.604452769157573 
50.00113373326124 0.5920018912678925 
51.00113373326124 0.5799363790203487 
52.00113373326124 0.5694891739349922 
53.00113373326124 0.5577512970150835 
54.00113373326124 0.5413159464924927 
55.00113373326124 0.5284755839533014 
56.00113373326124 0.5130096446568926 
57.00113373326124 0.49567461487329456 
58.00113373326124 0.4838568972689878 
59.00113373326124 0.4657890093879474 
60.00113373326124 0.45782157204616025 
61.00113373326124 0.4394650177746315 
62.00113373326124 0.42969298986549287 
63.00113373326124 0.4136160327592373 
64.00113373326124 0.40746743346871095 
65.00113373326124 0.39655471360898337 
66.00113373326124 0.39588972418123264 
67.00113373326124 0.38820947247220305 
68.00113373326124 0.3650066147969488 
69.00113373326124 0.43325981134636665 
70.00113373326124 0.5109165830626404 
71.00113373326124 0.5274164606713719 
72.00113373326124 0.8185288774542248 
73.00113373326124 0.9216999257444138 
74.00113373326124 0.7630858926324611 
75.00113373326124 1.1899769134642313 
76.00113373326124 1.0313020329334928 
77.00113373326124 0.6419366813855893 
78.00113373326124 1.1764469240126234 
79.00113373326124 0.7340499535295867 
80.00113373326124 1.2248354803029982 
81.00113373326124 0.8839612011324963 
82.00113373326124 1.0310006420612576 
83.00113373326124 0.8555064717909167 
84.00113373326124 0.9658548256386186 
85.00113373326124 1.1201512868564285 
86.00113373326124 0.6977640178582254 
87.00113373326124 1.0542074263702486 
88.00113373326124 0.9123959970469714 
89.00113373326124 0.5053045194160471 
90.00113373326124 0.6201508326984273 
91.00113373326124 0.6215000221499601 
92.00113373326124 0.7126239098659053 
93.00113373326124 0.3762424099476862 
94.00113373326124 0.3323587852097662 
95.00113373326124 0.15783293041529278 
96.00113373326124 0.13055483129539766 
97.00113373326124 0.06865759874217615 
98.00113373326124 0.06695758019111551 
99.00113373326124 0.052134500195249435 
100.00113373326124 0.043028562403504333 
101.00113373326124 0.03482230881209482 
102.00113373326124 0.015570515083088293 
103.00113373326124 0.01897770926762595 
104.00113373326124 0.01591765463660769 
105.00113373326124 0.016378746895095844 
106.00113373326124 0.010406702358598304 
107.00113373326124 0.007588435371321167 
108.00113373326124 0.003917710892914632 
109.00113373326124 0.003861478623791794 
110.00113373326124 0.002696383546457224 
111.00113373326124 0.0026446503527969875 
112.00113373326124 0.0026446503527969875 
113.00113373326124 0.0026334038989724207 
114.00113373326124 0.0026446503527969875 
115.00113373326124 0.0026446503527969875 
116.00113373326124 0.0026334038989724207 
117.00113373326124 0.0026446503527969875 
118.00113373326124 0.0026446503527969875 
119.00113373326124 0.0026334038989724207 
120.00113373326124 0.0026446503527969875 
121.00113373326124 0.0026334038989724207 
122.00113373326124 0.0026334038989724207 
123.00113373326124 0.0026334038989724207 
124.00113373326124 0.0026334038989724207 
125.00113373326124 0.0026334038989724207 
126.00113373326124 0.0026334038989724207 
127.00113373326124 0.0026334038989724207 
128.00113373326124 0.0026334038989724207 
129.00113373326124 0.0026334038989724207 
130.00113373326124 0.0026334038989724207 
131.00113373326124 0.0026334038989724207 
132.00113373326124 0.0026334038989724207 
133.00113373326124 0.0026334038989724207 
134.00113373326124 0.0026334038989724207 
135.00113373326124 0.0026334038989724207 
136.00113373326124 0.0026334038989724207 
137.00113373326124 0.0026334038989724207 
138.00113373326124 0.0026334038989724207 
139.00113373326124 0.0026334038989724207 
140.00113373326124 0.0026334038989724207 
141.00113373326124 0.0026334038989724207 
142.00113373326124 0.0026334038989724207 
143.00113373326124 0.0026334038989724207 
144.00113373326124 0.0026334038989724207 
145.00113373326124 0.0026334038989724207 
146.00113373326124 0.0026334038989724207 
147.00113373326124 0.0026334038989724207 
148.00113373326124 0.0026334038989724207 
149.00113373326124 0.0026334038989724207 
150.00113373326124 0.0026334038989724207 
151.00113373326124 0.0026334038989724207 
152.00113373326124 0.0026334038989724207 
153.00113373326124 0.0026334038989724207 
154.00113373326124 0.0026334038989724207 
155.00113373326124 0.0026334038989724207 
156.00113373326124 0.0026334038989724207 
157.00113373326124 0.0026334038989724207 
158.00113373326124 0.0026334038989724207 
159.00113373326124 0.0026334038989724207 
160.00113373326124 0.0026334038989724207 
161.00113373326124 0.0026334038989724207 
162.00113373326124 0.0026334038989724207 
163.00113373326124 0.0026334038989724207 
164.00113373326124 0.0026334038989724207 
165.00113373326124 0.0026334038989724207 
166.00113373326124 0.0026334038989724207 
167.00113373326124 0.0026334038989724207 
168.00113373326124 0.0026334038989724207 
169.00113373326124 0.0026334038989724207 
170.00113373326124 0.0026334038989724207 
171.00113373326124 0.0026334038989724207 
172.00113373326124 0.0026334038989724207 
173.00113373326124 0.0026334038989724207 
174.00113373326124 0.0026334038989724207 
175.00113373326124 0.0026334038989724207 
176.00113373326124 0.0026334038989724207 
177.00113373326124 0.0026334038989724207 
#####################################################################
# End of data export. Simulation finished at: 2017-05-19T20:37+0000 #
#####################################################################
