#####################################################################
# Alchemist log file - simulation started at: 2017-05-23T13:43+0000 #
#####################################################################
# random = 12.0, targets = 1.0, density = 0.3174802103936399, gridShift = 0.0, perturbation = 0.0, connfactor = 0.5
#
# The columns have the following meaning: 
# time se[Mean] 
0.0 NaN 
1.0242474491697862 NaN 
2.024247449169786 1.0 
3.024247449169786 1.0 
4.024247449169787 1.0 
5.024247449169787 1.0 
6.024247449169787 1.0 
7.024247449169787 0.9795918367346939 
8.024247449169787 0.9183673469387755 
9.024247449169787 0.8979591836734693 
10.024247449169787 0.9387755102040817 
11.024247449169787 0.9591836734693877 
12.024247449169787 0.9795918367346939 
13.024247449169787 0.8571428571428571 
14.024247449169787 0.7959183673469387 
15.024247449169787 0.653061224489796 
16.024247449169785 0.5714285714285716 
17.024247449169785 0.46938775510204095 
18.024247449169785 0.306122448979592 
19.024247449169785 0.24489795918367338 
20.024247449169785 0.2244897959183674 
21.024247449169785 0.4081632653061227 
22.024247449169785 0.5102040816326533 
23.024247449169785 0.4897959183673468 
24.024247449169785 0.4285714285714285 
25.024247449169785 0.326530612244898 
26.024247449169785 0.44897959183673464 
27.024247449169785 0.22448979591836735 
28.024247449169785 0.26530612244897955 
29.024247449169785 0.2244897959183675 
30.024247449169785 0.1428571428571428 
31.024247449169785 0.040816326530612214 
32.024247449169785 0.0 
33.024247449169785 0.0 
34.024247449169785 0.0 
35.024247449169785 0.0 
36.024247449169785 0.0 
37.024247449169785 0.0 
38.024247449169785 0.0 
39.024247449169785 0.0 
40.024247449169785 0.0 
41.024247449169785 0.0 
42.024247449169785 0.0 
#####################################################################
# End of data export. Simulation finished at: 2017-05-23T13:43+0000 #
#####################################################################
