#####################################################################
# Alchemist log file - simulation started at: 2017-05-23T08:25+0000 #
#####################################################################
# random = 11.0, targets = 10.0, density = 2.519842099789746, gridShift = 1.0, perturbation = 0.5, connfactor = 0.75
#
# The columns have the following meaning: 
# time se[Mean] 
0.0 NaN 
1.0028758930102715 NaN 
2.0028758930102715 1.0 
3.0028758930102715 0.9997843567251462 
4.0028758930102715 0.9981076388888889 
5.0028758930102715 0.9936111111111111 
6.0028758930102715 0.9915515350877193 
7.0028758930102715 0.9863505116959065 
8.002875893010271 0.9941767178362573 
9.002875893010271 0.9830902777777778 
10.002875893010271 1.0009183114035087 
11.002875893010271 0.9798876096491228 
12.002875893010271 0.9657154605263158 
13.002875893010271 0.9684685672514619 
14.002875893010271 0.9597213084795322 
15.002875893010271 0.9359914108187135 
16.00287589301027 0.9244124634502925 
17.00287589301027 0.9175676169590643 
18.00287589301027 0.8843603801169592 
19.00287589301027 0.8732775950292397 
20.00287589301027 0.8539711257309942 
21.00287589301027 0.8311376096491229 
22.00287589301027 0.8342589546783626 
23.00287589301027 0.7949936038011696 
24.00287589301027 0.7806524122807016 
25.00287589301027 0.7544407894736842 
26.00287589301027 0.7478636695906432 
27.00287589301027 0.7155317982456139 
28.00287589301027 0.6951644736842107 
29.00287589301027 0.6638578216374268 
30.00287589301027 0.6433278508771934 
31.00287589301027 0.6159822733918131 
32.00287589301027 0.5890204678362577 
33.00287589301027 0.5687116228070174 
34.00287589301027 0.5433991228070177 
35.00287589301027 0.5422496345029241 
36.00287589301027 0.524015899122807 
37.00287589301027 0.5075529970760234 
38.00287589301027 0.48926717836257316 
39.00287589301027 0.48418220029239767 
40.00287589301027 0.4655052997076024 
41.00287589301027 0.45452668128654977 
42.00287589301027 0.4512436038011697 
43.00287589301027 0.44309484649122816 
44.00287589301027 0.4300868055555556 
45.00287589301027 0.4170952119883042 
46.00287589301027 0.4228472222222223 
47.00287589301027 0.40626005116959063 
48.00287589301027 0.4131103801169591 
49.00287589301027 0.39820906432748543 
50.00287589301027 0.39079678362573106 
51.00287589301027 0.38768274853801177 
52.00287589301027 0.3903033625730995 
53.00287589301027 0.38585434941520474 
54.00287589301027 0.37993146929824567 
55.00287589301027 0.37969755116959075 
56.00287589301027 0.37072002923976616 
57.00287589301027 0.37753837719298255 
58.00287589301027 0.3732035818713451 
59.00287589301027 0.3750539108187136 
60.00287589301027 0.37181560672514635 
61.00287589301027 0.3634950657894739 
62.00287589301027 0.36162280701754407 
63.00287589301027 0.3586595394736844 
64.00287589301027 0.3591858552631581 
65.00287589301027 0.35150584795321654 
66.00287589301027 0.35064144736842123 
67.00287589301027 0.3479513888888891 
68.00287589301027 0.34523026315789496 
69.00287589301027 0.3494627192982458 
70.00287589301027 0.3454358552631581 
71.00287589301027 0.3463925438596493 
72.00287589301027 0.34438048245614056 
73.00287589301027 0.3473994883040938 
74.00287589301027 0.34692434210526335 
75.00287589301027 0.34896472953216395 
76.00287589301027 0.35011239035087743 
77.00287589301027 0.3492991593567253 
78.00287589301027 0.3526736111111113 
79.00287589301027 0.352763157894737 
80.00287589301027 0.3562372076023394 
81.00287589301027 0.3568941885964914 
82.00287589301027 0.3583077485380119 
83.00287589301027 0.358496893274854 
84.00287589301027 0.3591538742690061 
85.00287589301027 0.359621710526316 
86.00287589301027 0.3598108552631581 
87.00287589301027 0.3600000000000002 
88.00287589301027 0.3600000000000002 
89.00287589301027 0.3600000000000002 
90.00287589301027 0.3600000000000002 
91.00287589301027 0.3600000000000002 
92.00287589301027 0.3600000000000002 
93.00287589301027 0.3600000000000002 
94.00287589301027 0.3600000000000002 
95.00287589301027 0.3600000000000002 
96.00287589301027 0.3600000000000002 
97.00287589301027 0.3600000000000002 
98.00287589301027 0.3600000000000002 
99.00287589301027 0.3600000000000002 
100.00287589301027 0.3600000000000002 
101.00287589301027 0.3600000000000002 
102.00287589301027 0.3600000000000002 
103.00287589301027 0.3600000000000002 
104.00287589301027 0.3600000000000002 
105.00287589301027 0.3600000000000002 
106.00287589301027 0.3600000000000002 
107.00287589301027 0.3600000000000002 
108.00287589301027 0.3600000000000002 
109.00287589301027 0.3600000000000002 
110.00287589301027 0.3600000000000002 
111.00287589301027 0.3600000000000002 
112.00287589301027 0.3600000000000002 
113.00287589301027 0.3600000000000002 
114.00287589301027 0.3600000000000002 
115.00287589301027 0.3600000000000002 
116.00287589301027 0.3600000000000002 
117.00287589301027 0.3600000000000002 
118.00287589301027 0.3600000000000002 
#####################################################################
# End of data export. Simulation finished at: 2017-05-23T08:26+0000 #
#####################################################################
