#####################################################################
# Alchemist log file - simulation started at: 2017-05-24T15:56+0000 #
#####################################################################
# random = 15.0, targets = 10.0, density = 0.11269076455391362, gridShift = 0.0, perturbation = 0.0, connfactor = 0.1
#
# The columns have the following meaning: 
# time se[Mean] 
0.0 NaN 
1.0284742536538987 NaN 
2.028474253653899 1.0 
3.028474253653899 1.0 
4.028474253653899 1.0 
5.028474253653899 0.9924 
6.028474253653899 0.9772 
7.028474253653899 0.9848 
8.028474253653899 0.9468 
9.028474253653899 0.9468 
10.028474253653899 0.9164 
11.028474253653899 0.9012 
12.028474253653899 0.8556 
13.028474253653899 0.8176000000000001 
14.028474253653899 0.81 
15.028474253653899 0.81 
16.028474253653897 0.81 
17.028474253653897 0.81 
18.028474253653897 0.81 
19.028474253653897 0.81 
#####################################################################
# End of data export. Simulation finished at: 2017-05-24T15:56+0000 #
#####################################################################
