#####################################################################
# Alchemist log file - simulation started at: 2017-05-25T16:00+0000 #
#####################################################################
# random = 8.0, targets = 31.622776601683793, density = 0.894427190999916, gridShift = 0.0, perturbation = 0.0, connfactor = 0.25
#
# The columns have the following meaning: 
# time se[Mean] 
0.0 NaN 
1.041605243232502 NaN 
2.0416052432325023 1.0 
3.0416052432325023 1.0 
4.041605243232502 0.9987201331982776 
5.041605243232502 0.9941522821335642 
6.041605243232502 0.9829960658486544 
7.041605243232502 0.9725350423720508 
8.041605243232503 0.9615358508805294 
9.041605243232503 0.9475575410483452 
10.041605243232503 0.9414340151108211 
11.041605243232503 0.9226916099725735 
12.041605243232503 0.9214365365592807 
13.041605243232503 0.9173520830681768 
14.041605243232503 0.9109755130826771 
15.041605243232503 0.9078703249337776 
16.041605243232503 0.9077556738874827 
17.041605243232503 0.9099197647090955 
18.041605243232503 0.9054386905038864 
19.041605243232503 0.9042610780542439 
20.041605243232503 0.9083268997536402 
21.041605243232503 0.907331105485816 
22.041605243232503 0.9057878273072201 
23.041605243232503 0.9047589751881561 
24.041605243232503 0.9017715923846833 
25.041605243232503 0.8997138881465555 
26.041605243232503 0.8992986356407425 
27.041605243232503 0.8932050867560971 
28.041605243232503 0.8874121393309697 
29.041605243232503 0.8771309046708673 
30.041605243232503 0.8661245001495799 
31.041605243232503 0.8577139678813381 
32.0416052432325 0.8479760849006024 
33.0416052432325 0.8359677245147686 
34.0416052432325 0.8284683125209349 
35.0416052432325 0.8186157784939042 
36.0416052432325 0.8032647369045421 
37.0416052432325 0.7915817713666562 
38.0416052432325 0.78107018318092 
39.0416052432325 0.7621709002508255 
40.0416052432325 0.7433945328298357 
41.0416052432325 0.7270860119891087 
42.0416052432325 0.7094326335779947 
43.0416052432325 0.6989159352285803 
44.0416052432325 0.7039857035473458 
45.0416052432325 0.6885263930107233 
46.0416052432325 0.7437325598561292 
47.0416052432325 0.755197235949019 
48.0416052432325 0.6897458609818464 
49.0416052432325 0.6751882078222363 
50.0416052432325 0.7094512417410267 
51.0416052432325 0.6682928939337641 
52.0416052432325 0.6290672319894367 
53.0416052432325 0.6238051660486904 
54.0416052432325 0.6056385600126298 
55.0416052432325 0.5591316285179232 
56.0416052432325 0.6010613930520627 
57.0416052432325 0.5746434945185015 
58.0416052432325 0.550438148649598 
59.0416052432325 0.5458518127947185 
60.0416052432325 0.5198161089157306 
61.0416052432325 0.5152297730608512 
62.0416052432325 0.5133187997879848 
63.0416052432325 0.5117900211696916 
64.04160524323251 0.5117900211696916 
65.04160524323251 0.5117900211696916 
66.04160524323251 0.5117900211696916 
67.04160524323251 0.5117900211696916 
68.04160524323251 0.5117900211696916 
69.04160524323251 0.5117900211696916 
70.04160524323251 0.5117900211696916 
71.04160524323251 0.5117900211696916 
72.04160524323251 0.5117900211696916 
73.04160524323251 0.5117900211696916 
74.04160524323251 0.5117900211696916 
75.04160524323251 0.5117900211696916 
76.04160524323251 0.5117900211696916 
77.04160524323251 0.5117900211696916 
78.04160524323251 0.5117900211696916 
79.04160524323251 0.5117900211696916 
80.04160524323251 0.5117900211696916 
81.04160524323251 0.5117900211696916 
82.04160524323251 0.5117900211696916 
83.04160524323251 0.5117900211696916 
#####################################################################
# End of data export. Simulation finished at: 2017-05-25T16:00+0000 #
#####################################################################
