#####################################################################
# Alchemist log file - simulation started at: 2017-05-23T08:55+0000 #
#####################################################################
# random = 5.0, targets = 3.1622776601683795, density = 14.160781367816199, gridShift = 1.0, perturbation = 0.0, connfactor = 1.0
#
# The columns have the following meaning: 
# time se[Mean] 
0.0 NaN 
1.0001017936699181 NaN 
2.000101793669918 1.0 
3.000101793669918 0.9998642440773 
4.000101793669918 0.9987567313967363 
5.000101793669918 0.9980297987256382 
6.000101793669918 0.9915442648155474 
7.000101793669918 0.9882455130244476 
8.000101793669918 0.9871832518934394 
9.000101793669918 0.9810962837753869 
10.000101793669918 0.9893066130426257 
11.000101793669918 0.982693445903515 
12.000101793669918 0.9893530257050118 
13.000101793669918 0.9865740919105354 
14.000101793669918 0.9899316326493127 
15.000101793669918 0.9877398155304278 
16.00010179366992 0.9890745548268275 
17.00010179366992 0.988295798611 
18.00010179366992 0.9859976238653534 
19.00010179366992 0.9908047750806818 
20.00010179366992 0.9829785104354318 
21.00010179366992 0.9863824638365957 
22.00010179366992 0.9810073581294734 
23.00010179366992 0.9853130616202952 
24.00010179366992 0.980701249735091 
25.00010179366992 0.9800826111528385 
26.00010179366992 0.9756864198513004 
27.00010179366992 0.9730422858517962 
28.00010179366992 0.9690322789608721 
29.00010179366992 0.9652402174273416 
30.00010179366992 0.9618571615090561 
31.00010179366992 0.9583921058527848 
32.00010179366992 0.9541904543254917 
33.00010179366992 0.9494612465974421 
34.00010179366992 0.9453849009773777 
35.00010179366992 0.939228704088438 
36.00010179366992 0.9357508800131327 
37.00010179366992 0.9294353319216412 
38.00010179366992 0.9277961927752498 
39.00010179366992 0.9242170259996836 
40.00010179366992 0.9222611132660726 
41.00010179366992 0.9184854651580472 
42.00010179366992 0.9147757496310575 
43.00010179366992 0.9106657368350476 
44.00010179366992 0.9024304538342233 
45.00010179366992 0.8981403947898183 
46.00010179366992 0.887779618110853 
47.00010179366992 0.8816810299462666 
48.00010179366992 0.8720663315597698 
49.00010179366992 0.8598173546184615 
50.00010179366992 0.8478959819472884 
51.00010179366992 0.8372219354041217 
52.00010179366992 0.8203402541908643 
53.00010179366992 0.8155872614862536 
54.00010179366992 0.808781317900703 
55.00010179366992 0.7954159518944569 
56.00010179366992 0.7947745341506597 
57.00010179366992 0.7725972057431397 
58.00010179366992 0.7650480853731635 
59.00010179366992 0.7531234419928008 
60.00010179366992 0.7373413404631319 
61.00010179366992 0.7183175331467628 
62.00010179366992 0.6982782949761734 
63.00010179366992 0.6838330601757268 
64.00010179366993 0.6564287391585838 
65.00010179366993 0.6525411787099326 
66.00010179366993 0.6244507141724345 
67.00010179366993 0.6023805505917535 
68.00010179366993 0.577122385173737 
69.00010179366993 0.5508669885874032 
70.00010179366993 0.5308106940072779 
71.00010179366993 0.5698758275662396 
72.00010179366993 0.762603282381418 
73.00010179366993 0.7912776425725986 
74.00010179366993 1.0477828187084997 
75.00010179366993 0.973671088731521 
76.00010179366993 1.0602807906502485 
77.00010179366993 1.1471684109194713 
78.00010179366993 1.0194020749578145 
79.00010179366993 0.994821376564752 
80.00010179366993 0.9097731045929964 
81.00010179366993 0.9013682826907298 
82.00010179366993 0.70535896318181 
83.00010179366993 1.1339914444552632 
84.00010179366993 0.9292030314391654 
85.00010179366993 0.9860916559677226 
86.00010179366993 0.8439343620672016 
87.00010179366993 0.6640444446828648 
88.00010179366993 0.7038867442641275 
89.00010179366993 0.8509790734592837 
90.00010179366993 0.6797924220613681 
91.00010179366993 0.6021861808006972 
92.00010179366993 0.5899186540828288 
93.00010179366993 0.6274795908478571 
94.00010179366993 0.6230045113976077 
95.00010179366993 0.7202892312756272 
96.00010179366993 0.7681361230138837 
97.00010179366993 0.702621827169562 
98.00010179366993 0.42113025085938904 
99.00010179366993 0.6933455764764468 
100.00010179366993 0.4112164031112999 
101.00010179366993 0.5189222380404253 
102.00010179366993 0.23770351928907285 
103.00010179366993 0.4023913234743706 
104.00010179366993 0.28909417914996816 
105.00010179366993 0.2320131996114675 
106.00010179366993 0.3973577362808543 
107.00010179366993 0.11817806053712519 
108.00010179366993 0.39537226485735183 
109.00010179366993 0.1722236838064045 
110.00010179366993 0.11594157242509949 
111.00010179366993 0.004200197589071628 
112.00010179366993 0.00380318122150705 
113.00010179366993 0.003557197295944093 
114.00010179366993 0.0032845268857798313 
115.00010179366993 0.0031226650348936693 
116.00010179366993 0.002942044600248118 
117.00010179366993 0.0028567626867740184 
118.00010179366993 0.0027567835363804475 
119.00010179366993 0.002735511756221418 
120.00010179366993 0.002678076166145916 
121.00010179366993 0.002655836791961688 
122.00010179366993 0.00265042208751941 
123.00010179366993 0.0026334038989724207 
124.00010179366993 0.0026334038989724207 
125.00010179366993 0.0026334038989724207 
126.00010179366993 0.0026334038989724207 
127.00010179366993 0.0026334038989724207 
128.00010179366993 0.0026334038989724207 
129.00010179366993 0.0026334038989724207 
130.00010179366993 0.0026334038989724207 
131.00010179366993 0.0026334038989724207 
132.00010179366993 0.0026334038989724207 
133.00010179366993 0.0026334038989724207 
134.00010179366993 0.0026334038989724207 
135.00010179366993 0.0026334038989724207 
136.00010179366993 0.0026334038989724207 
137.00010179366993 0.0026334038989724207 
138.00010179366993 0.0026334038989724207 
139.00010179366993 0.0026334038989724207 
140.00010179366993 0.0026334038989724207 
141.00010179366993 0.0026334038989724207 
142.00010179366993 0.0026334038989724207 
143.00010179366993 0.0026334038989724207 
144.00010179366993 0.0026334038989724207 
145.00010179366993 0.0026334038989724207 
146.00010179366993 0.0026334038989724207 
147.00010179366993 0.0026334038989724207 
148.00010179366993 0.0026334038989724207 
149.00010179366993 0.0026334038989724207 
150.00010179366993 0.0026334038989724207 
151.00010179366993 0.0026334038989724207 
152.00010179366993 0.0026334038989724207 
153.00010179366993 0.0026334038989724207 
154.00010179366993 0.0026334038989724207 
155.00010179366993 0.0026334038989724207 
156.00010179366993 0.0026334038989724207 
157.00010179366993 0.0026334038989724207 
158.00010179366993 0.0026334038989724207 
159.00010179366993 0.0026334038989724207 
160.00010179366993 0.0026334038989724207 
161.00010179366993 0.0026334038989724207 
162.00010179366993 0.0026334038989724207 
163.00010179366993 0.0026334038989724207 
164.00010179366993 0.0026334038989724207 
165.00010179366993 0.0026334038989724207 
166.00010179366993 0.0026334038989724207 
167.00010179366993 0.0026334038989724207 
168.00010179366993 0.0026334038989724207 
169.00010179366993 0.0026334038989724207 
170.00010179366993 0.0026334038989724207 
171.00010179366993 0.0026334038989724207 
172.00010179366993 0.0026334038989724207 
173.00010179366993 0.0026334038989724207 
174.00010179366993 0.0026334038989724207 
175.00010179366993 0.0026334038989724207 
176.00010179366993 0.0026334038989724207 
177.00010179366993 0.0026334038989724207 
178.00010179366993 0.0026334038989724207 
179.00010179366993 0.0026334038989724207 
180.00010179366993 0.0026334038989724207 
181.00010179366993 0.0026334038989724207 
182.00010179366993 0.0026334038989724207 
183.00010179366993 0.0026334038989724207 
184.00010179366993 0.0026334038989724207 
185.00010179366993 0.0026334038989724207 
186.00010179366993 0.0026334038989724207 
187.00010179366993 0.0026334038989724207 
188.00010179366993 0.0026334038989724207 
189.00010179366993 0.0026334038989724207 
190.00010179366993 0.0026334038989724207 
191.00010179366993 0.0026334038989724207 
192.00010179366993 0.0026334038989724207 
193.00010179366993 0.0026334038989724207 
194.00010179366993 0.0026334038989724207 
195.00010179366993 0.0026334038989724207 
196.00010179366993 0.0026334038989724207 
197.00010179366993 0.0026334038989724207 
198.00010179366993 0.0026334038989724207 
199.00010179366993 0.0026334038989724207 
200.00010179366993 0.0026334038989724207 
201.00010179366993 0.0026334038989724207 
202.00010179366993 0.0026334038989724207 
203.00010179366993 0.0026334038989724207 
204.00010179366993 0.0026334038989724207 
205.00010179366993 0.0026334038989724207 
206.00010179366993 0.0026334038989724207 
#####################################################################
# End of data export. Simulation finished at: 2017-05-23T09:06+0000 #
#####################################################################
