#####################################################################
# Alchemist log file - simulation started at: 2017-05-26T08:42+0000 #
#####################################################################
# random = 9.0, targets = 31.622776601683793, density = 0.894427190999916, gridShift = 1.0, perturbation = 0.0, connfactor = 1.5
#
# The columns have the following meaning: 
# time se[Mean] 
0.0 NaN 
1.0078258106860618 NaN 
2.007825810686062 1.0942312003714376 
3.007825810686062 1.1548395639854083 
4.007825810686062 1.2253056744476207 
5.007825810686062 1.275400507876915 
6.007825810686062 1.3258041440236314 
7.007825810686062 1.5021112317942387 
8.007825810686061 1.5019984911711073 
9.007825810686061 1.479602743678061 
10.007825810686061 1.2519463582431416 
11.007825810686061 1.286216990730506 
12.007825810686061 1.211871917658159 
13.007825810686061 1.2836498920912645 
14.007825810686061 1.5425662347953257 
15.007825810686061 1.8166107538937035 
16.00782581068606 2.068664194905827 
17.00782581068606 1.8035832810854813 
18.00782581068606 1.8710274505706794 
19.00782581068606 2.096248419693808 
20.00782581068606 1.8682191332901614 
21.00782581068606 1.803587384115474 
22.00782581068606 1.7986301291252624 
23.00782581068606 1.4808840931548974 
24.00782581068606 1.2667195129815103 
25.00782581068606 0.8993338919373666 
26.00782581068606 0.7386411763972318 
27.00782581068606 0.6147395743947082 
28.00782581068606 0.518684953011197 
29.00782581068606 0.41913663906294507 
30.00782581068606 0.3672031142450038 
31.00782581068606 0.32105248450185864 
32.00782581068606 0.2856368187193094 
33.00782581068606 0.25029989641762634 
34.00782581068606 0.23480971522706678 
35.00782581068606 0.21514775216814294 
36.00782581068606 0.2027348965393296 
37.00782581068606 0.19718187813842047 
38.00782581068606 0.18917075837569866 
39.00782581068606 0.1897971193495988 
40.00782581068606 0.18717786179362889 
41.00782581068606 0.1872156163742546 
42.00782581068606 0.18816942643202964 
43.00782581068606 0.18943097259111497 
44.00782581068606 0.18766814710777505 
45.00782581068606 0.18833365476175282 
46.00782581068606 0.1871641641190199 
47.00782581068606 0.18650535707579224 
48.00782581068606 0.18630897591928738 
49.00782581068606 0.18588740033793966 
50.00782581068606 0.18569425992217553 
51.00782581068606 0.18565618739457826 
52.00782581068606 0.185618114866981 
53.00782581068606 0.18558004233938372 
54.00782581068606 0.18558004233938372 
55.00782581068606 0.18558004233938372 
56.00782581068606 0.18558004233938372 
57.00782581068606 0.18558004233938372 
58.00782581068606 0.18558004233938372 
59.00782581068606 0.18558004233938372 
60.00782581068606 0.18558004233938372 
61.00782581068606 0.18558004233938372 
62.00782581068606 0.18558004233938372 
63.00782581068606 0.18558004233938372 
64.00782581068606 0.18558004233938372 
65.00782581068606 0.18558004233938372 
66.00782581068606 0.18558004233938372 
67.00782581068606 0.18558004233938372 
68.00782581068606 0.18558004233938372 
69.00782581068606 0.18558004233938372 
70.00782581068606 0.18558004233938372 
#####################################################################
# End of data export. Simulation finished at: 2017-05-26T08:43+0000 #
#####################################################################
