#####################################################################
# Alchemist log file - simulation started at: 2017-05-22T15:44+0000 #
#####################################################################
# random = 4.0, targets = 3.1622776601683795, density = 10.026386447354522, gridShift = 1.0, perturbation = 0.0, connfactor = 2.0
#
# The columns have the following meaning: 
# time se[Mean] 
0.0 NaN 
1.0004793365590676 NaN 
2.0004793365590676 1.0135095694697298 
3.0004793365590676 1.0265181558582195 
4.000479336559067 1.044381079034198 
5.000479336559067 1.0561249462559748 
6.000479336559067 1.0522219134850193 
7.000479336559067 1.0456172354326814 
8.000479336559067 1.0416702771349666 
9.000479336559067 1.038884283060854 
10.000479336559067 1.0419920576238053 
11.000479336559067 1.0395631416505198 
12.000479336559067 1.0799215415090417 
13.000479336559067 1.140362938220349 
14.000479336559067 1.1800211997975063 
15.000479336559067 1.2615653334041335 
16.000479336559067 1.2650897404801689 
17.000479336559067 1.2537304318653217 
18.000479336559067 1.2051725120407975 
19.000479336559067 1.1733302940848407 
20.000479336559067 1.1134383976061548 
21.000479336559067 1.062995129128957 
22.000479336559067 1.0139572415633535 
23.000479336559067 0.9516305121782123 
24.000479336559067 0.9217154251825516 
25.000479336559067 0.8807938034803339 
26.000479336559067 0.8482913435813292 
27.000479336559067 0.8302907162393419 
28.000479336559067 0.8023879233564423 
29.000479336559067 0.789334607734017 
30.000479336559067 0.7740245777599812 
31.000479336559067 0.762180466733014 
32.00047933655907 0.7494378730334356 
33.00047933655907 0.7422799334624272 
34.00047933655907 0.732595518463143 
35.00047933655907 0.7384154397635652 
36.00047933655907 0.7484437364048302 
37.00047933655907 0.7530646937651957 
38.00047933655907 0.7789428122116467 
39.00047933655907 0.8056552743955381 
40.00047933655907 0.825583572053459 
41.00047933655907 0.8332602827891776 
42.00047933655907 0.8840053862491947 
43.00047933655907 0.917517098938061 
44.00047933655907 0.9497018394943463 
45.00047933655907 0.9753444246419793 
46.00047933655907 1.0266093868551132 
47.00047933655907 1.0486011836782323 
48.00047933655907 1.0704959657282789 
49.00047933655907 1.1171345912280872 
50.00047933655907 1.0897874780870935 
51.00047933655907 1.1702399156101246 
52.00047933655907 1.1880810303913256 
53.00047933655907 1.1954960721603634 
54.00047933655907 1.208786003343735 
55.00047933655907 1.1525877668610207 
56.00047933655907 1.0982449465685393 
57.00047933655907 1.066725862816793 
58.00047933655907 0.9626439361906384 
59.00047933655907 0.9827827261696298 
60.00047933655907 0.9781172986005873 
61.00047933655907 1.0036655657533324 
62.00047933655907 1.0056447321046402 
63.00047933655907 0.9904721312925159 
64.00047933655907 0.9653504960372598 
65.00047933655907 0.9809198264666846 
66.00047933655907 0.9462865065368986 
67.00047933655907 0.9513852777666463 
68.00047933655907 0.9352834971716768 
69.00047933655907 0.9320808759107584 
70.00047933655907 0.9479261558032666 
71.00047933655907 0.9711330865830015 
72.00047933655907 0.9535396849881225 
73.00047933655907 0.9634717670126378 
74.00047933655907 0.9814158223772137 
75.00047933655907 0.9409385993508391 
76.00047933655907 1.0024501250219577 
77.00047933655907 0.9918173742375714 
78.00047933655907 0.9963855315591346 
79.00047933655907 1.000492037926167 
80.00047933655907 0.9268669009521013 
81.00047933655907 0.8680748015441311 
82.00047933655907 0.871435335053189 
83.00047933655907 0.8030067753611339 
84.00047933655907 0.8712003233557436 
85.00047933655907 0.8979138660263352 
86.00047933655907 0.9290190246957446 
87.00047933655907 0.9891567004549293 
88.00047933655907 0.9595755312253716 
89.00047933655907 0.9183326577373946 
90.00047933655907 0.8861667822004277 
91.00047933655907 0.8827302368304714 
92.00047933655907 0.8691020943410166 
93.00047933655907 0.8397491522532028 
94.00047933655907 0.8337583883727565 
95.00047933655907 0.8443197331242801 
96.00047933655907 0.7810519474797135 
97.00047933655907 0.7700419016352354 
98.00047933655907 0.7354209797833999 
99.00047933655907 0.7085120751564069 
100.00047933655907 0.654793686470743 
101.00047933655907 0.6280020100252335 
102.00047933655907 0.5779139390058405 
103.00047933655907 0.5438902041994371 
104.00047933655907 0.4972661750349384 
105.00047933655907 0.44177103796331746 
106.00047933655907 0.38595359525063233 
107.00047933655907 0.3382755805114842 
108.00047933655907 0.29277046891142483 
109.00047933655907 0.25124681839102686 
110.00047933655907 0.22719694259048046 
111.00047933655907 0.19572502582559786 
112.00047933655907 0.17062198768726866 
113.00047933655907 0.14552541116402778 
114.00047933655907 0.13187545850436794 
115.00047933655907 0.11759893279417924 
116.00047933655907 0.10935845730827543 
117.00047933655907 0.10061430906465181 
118.00047933655907 0.09323135540517835 
119.00047933655907 0.08496690522481454 
120.00047933655907 0.07621763665349011 
121.00047933655907 0.06961001345026546 
122.00047933655907 0.06208504255511088 
123.00047933655907 0.05617378036836558 
124.00047933655907 0.052859067232504074 
125.00047933655907 0.04693755728865056 
126.00047933655907 0.04416748130754277 
127.00047933655907 0.04219078999312031 
128.00047933655907 0.03787787375625486 
129.00047933655907 0.03182214770376896 
130.00047933655907 0.03184319145075509 
131.00047933655907 0.027294188356021744 
132.00047933655907 0.02746452353808596 
133.00047933655907 0.02241884865635827 
134.00047933655907 0.022001417762378937 
135.00047933655907 0.018161716668566235 
136.00047933655907 0.016184737922059628 
137.00047933655907 0.015308899309080803 
138.00047933655907 0.01238249718906551 
139.00047933655907 0.010908387493102228 
140.00047933655907 0.012048341702821475 
141.00047933655907 0.015218369231640591 
142.00047933655907 0.029095551991390387 
143.00047933655907 0.024032623055549828 
144.00047933655907 0.03475891475904462 
145.00047933655907 0.05319857917817958 
146.00047933655907 0.04852479514761313 
147.00047933655907 0.03788501498567705 
148.00047933655907 0.055237819767686845 
149.00047933655907 0.048086872290270526 
150.00047933655907 0.06412456366201229 
151.00047933655907 0.04777291423359914 
152.00047933655907 0.054984230483005506 
153.00047933655907 0.04327672360565509 
154.00047933655907 0.039276665409067435 
155.00047933655907 0.04182658860415195 
156.00047933655907 0.031409677536117765 
157.00047933655907 0.026158639538154504 
158.00047933655907 0.037814941363069156 
159.00047933655907 0.037897945317559266 
160.00047933655907 0.02998945546736469 
161.00047933655907 0.026131689510556437 
162.00047933655907 0.022273923553748305 
163.00047933655907 0.018338004292332243 
164.00047933655907 0.014402085030916577 
165.00047933655907 0.022195770249140472 
166.00047933655907 0.010505242421804414 
167.00047933655907 0.014323931726308607 
168.00047933655907 0.018298927640028433 
169.00047933655907 0.014323931726308603 
170.00047933655907 0.010427089117196645 
171.00047933655907 0.010427089117196513 
172.00047933655907 0.010427089117196512 
173.00047933655907 0.0026334038989724497 
174.00047933655907 0.010427089117196512 
175.00047933655907 0.0026334038989724497 
176.00047933655907 0.0026334038989724497 
177.00047933655907 0.0026334038989724497 
178.00047933655907 0.0026334038989724497 
179.00047933655907 0.0026334038989724497 
180.00047933655907 0.0026334038989724497 
181.00047933655907 0.0026334038989724497 
182.00047933655907 0.0026334038989724497 
183.00047933655907 0.0026334038989724497 
184.00047933655907 0.0026334038989724497 
185.00047933655907 0.0026334038989724497 
186.00047933655907 0.0026334038989724497 
187.00047933655907 0.0026334038989724497 
188.00047933655907 0.0026334038989724497 
189.00047933655907 0.0026334038989724497 
190.00047933655907 0.0026334038989724497 
191.00047933655907 0.0026334038989724497 
192.00047933655907 0.0026334038989724497 
193.00047933655907 0.0026334038989724497 
194.00047933655907 0.0026334038989724497 
195.00047933655907 0.0026334038989724497 
196.00047933655907 0.0026334038989724497 
197.00047933655907 0.0026334038989724497 
198.00047933655907 0.0026334038989724497 
199.00047933655907 0.0026334038989724497 
200.00047933655907 0.0026334038989724497 
201.00047933655907 0.0026334038989724497 
202.00047933655907 0.0026334038989724497 
203.00047933655907 0.0026334038989724497 
204.00047933655907 0.0026334038989724497 
205.00047933655907 0.0026334038989724497 
206.00047933655907 0.0026334038989724497 
207.00047933655907 0.0026334038989724497 
208.00047933655907 0.0026334038989724497 
209.00047933655907 0.0026334038989724497 
210.00047933655907 0.0026334038989724497 
211.00047933655907 0.0026334038989724497 
212.00047933655907 0.0026334038989724497 
213.00047933655907 0.0026334038989724497 
214.00047933655907 0.0026334038989724497 
215.00047933655907 0.0026334038989724497 
216.00047933655907 0.0026334038989724497 
217.00047933655907 0.0026334038989724497 
218.00047933655907 0.0026334038989724497 
219.00047933655907 0.0026334038989724497 
220.00047933655907 0.0026334038989724497 
221.00047933655907 0.0026334038989724497 
222.00047933655907 0.0026334038989724497 
223.00047933655907 0.0026334038989724497 
224.00047933655907 0.0026334038989724497 
225.00047933655907 0.0026334038989724497 
226.00047933655907 0.0026334038989724497 
227.00047933655907 0.0026334038989724497 
228.00047933655907 0.0026334038989724497 
229.00047933655907 0.0026334038989724497 
230.00047933655907 0.0026334038989724497 
231.00047933655907 0.0026334038989724497 
232.00047933655907 0.0026334038989724497 
233.00047933655907 0.0026334038989724497 
234.00047933655907 0.0026334038989724497 
235.00047933655907 0.0026334038989724497 
236.00047933655907 0.0026334038989724497 
237.00047933655907 0.0026334038989724497 
238.00047933655907 0.0026334038989724497 
239.00047933655907 0.0026334038989724497 
240.00047933655907 0.0026334038989724497 
241.00047933655907 0.0026334038989724497 
242.00047933655907 0.0026334038989724497 
243.00047933655907 0.0026334038989724497 
244.00047933655907 0.0026334038989724497 
#####################################################################
# End of data export. Simulation finished at: 2017-05-22T15:52+0000 #
#####################################################################
