#####################################################################
# Alchemist log file - simulation started at: 2017-05-24T03:08+0000 #
#####################################################################
# random = 6.0, targets = 10.0, density = 0.11269076455391362, gridShift = 1.0, perturbation = 0.5, connfactor = 1.5
#
# The columns have the following meaning: 
# time se[Mean] 
0.0 NaN 
1.0115592716150654 NaN 
2.0115592716150656 1.0614 
3.0115592716150656 1.1859 
4.011559271615066 1.7404000000000002 
5.011559271615066 3.4481111111111113 
6.011559271615066 3.174955555555556 
7.011559271615066 3.6989444444444444 
8.011559271615067 2.728766666666667 
9.011559271615067 1.9364888888888891 
10.011559271615067 1.2409444444444444 
11.011559271615067 0.7003 
12.011559271615067 0.14527777777777784 
13.011559271615067 0.04102222222222225 
14.011559271615067 0.030011111111111145 
15.011559271615067 0.02086666666666671 
16.011559271615067 0.012111111111111144 
17.011559271615067 0.010677777777777812 
18.011559271615067 0.010488888888888924 
19.011559271615067 0.009288888888888923 
20.011559271615067 0.009644444444444478 
21.011559271615067 0.010000000000000035 
22.011559271615067 0.010000000000000035 
23.011559271615067 0.010000000000000035 
24.011559271615067 0.010000000000000035 
25.011559271615067 0.010000000000000035 
26.011559271615067 0.010000000000000035 
27.011559271615067 0.010000000000000035 
#####################################################################
# End of data export. Simulation finished at: 2017-05-24T03:08+0000 #
#####################################################################
