#####################################################################
# Alchemist log file - simulation started at: 2017-05-21T15:03+0000 #
#####################################################################
# random = 2.0, targets = 100.0, density = 0.894427190999916, gridShift = 0.0, perturbation = 0.0, connfactor = 0.1
#
# The columns have the following meaning: 
# time se[Mean] 
0.0 NaN 
1.003288451303821 NaN 
2.003288451303821 1.0 
3.003288451303821 0.9996710743801653 
4.0032884513038205 0.9981092975206611 
5.0032884513038205 0.9933452479338843 
6.0032884513038205 0.9885845041322314 
7.0032884513038205 0.9845590909090909 
8.00328845130382 0.9807101239669421 
9.00328845130382 0.9770413223140496 
10.00328845130382 0.9733033057851239 
11.00328845130382 0.9680489669421487 
12.00328845130382 0.9647264462809917 
13.00328845130382 0.9590657024793389 
14.00328845130382 0.9508361570247934 
15.00328845130382 0.9429723140495868 
16.00328845130382 0.9345747933884297 
17.00328845130382 0.9231099173553718 
18.00328845130382 0.9064394628099174 
19.00328845130382 0.8918020661157026 
20.00328845130382 0.8774324380165289 
21.00328845130382 0.8658446280991735 
22.00328845130382 0.8617900826446281 
23.00328845130382 0.8557754132231405 
24.00328845130382 0.8519572314049587 
25.00328845130382 0.852630785123967 
26.00328845130382 0.8575369834710744 
27.00328845130382 0.8549576446280992 
28.00328845130382 0.8540431818181818 
29.00328845130382 0.8538340909090909 
30.00328845130382 0.8527572314049587 
31.00328845130382 0.8506113636363637 
32.00328845130382 0.8483146694214876 
33.00328845130382 0.8475485537190083 
34.00328845130382 0.8467061983471075 
35.00328845130382 0.8464 
36.00328845130382 0.846324173553719 
37.00328845130382 0.846324173553719 
38.00328845130382 0.8464 
39.00328845130382 0.8464 
40.00328845130382 0.8464 
41.00328845130382 0.8464 
42.00328845130382 0.8464 
43.00328845130382 0.8464 
44.00328845130382 0.8464 
45.00328845130382 0.8464 
46.00328845130382 0.8464 
47.00328845130382 0.8464 
48.00328845130382 0.8464 
49.00328845130382 0.8464 
50.00328845130382 0.8464 
51.00328845130382 0.8464 
52.00328845130382 0.8464 
53.00328845130382 0.8464 
54.00328845130382 0.8464 
55.00328845130382 0.8464 
56.00328845130382 0.8464 
57.00328845130382 0.8464 
58.00328845130382 0.8464 
59.00328845130382 0.8464 
#####################################################################
# End of data export. Simulation finished at: 2017-05-21T15:05+0000 #
#####################################################################
