#####################################################################
# Alchemist log file - simulation started at: 2017-05-25T07:29+0000 #
#####################################################################
# random = 17.0, targets = 10.0, density = 0.4483936332993466, gridShift = 1.0, perturbation = 0.0, connfactor = 0.25
#
# The columns have the following meaning: 
# time se[Mean] 
0.0 NaN 
1.0045647570182237 NaN 
2.0045647570182235 1.0 
3.0045647570182235 1.0 
4.0045647570182235 0.9973611111111111 
5.0045647570182235 0.9841666666666666 
6.0045647570182235 0.9894444444444445 
7.0045647570182235 0.9736111111111111 
8.004564757018223 0.9709722222222222 
9.004564757018223 0.9604166666666667 
10.004564757018223 0.9577777777777778 
11.004564757018223 0.9445833333333334 
12.004564757018223 0.9287500000000001 
13.004564757018223 0.9208333333333333 
14.004564757018223 0.8970833333333335 
15.004564757018223 0.8891666666666668 
16.004564757018223 0.8759722222222223 
17.004564757018223 0.8601388888888889 
18.004564757018223 0.8556944444444444 
19.004564757018223 0.8459722222222222 
20.004564757018223 0.8354166666666667 
21.004564757018223 0.8223611111111111 
22.004564757018223 0.8227777777777778 
23.004564757018223 0.8086111111111112 
24.004564757018223 0.7873611111111112 
25.004564757018223 0.8061111111111111 
26.004564757018223 0.773888888888889 
27.004564757018223 0.7780555555555556 
28.004564757018223 0.7854166666666668 
29.004564757018223 0.7691666666666667 
30.004564757018223 0.7783333333333334 
31.004564757018223 0.7715277777777778 
32.00456475701822 0.7493055555555556 
33.00456475701822 0.7519444444444445 
34.00456475701822 0.7230555555555556 
35.00456475701822 0.6900000000000001 
36.00456475701822 0.6798611111111111 
37.00456475701822 0.6152777777777777 
38.00456475701822 0.5970833333333333 
39.00456475701822 0.5505555555555556 
40.00456475701822 0.48583333333333334 
41.00456475701822 0.47930555555555554 
42.00456475701822 0.4270833333333333 
43.00456475701822 0.41847222222222225 
44.00456475701822 0.4195833333333333 
45.00456475701822 0.3933333333333333 
46.00456475701822 0.3998611111111111 
47.00456475701822 0.4031944444444444 
48.00456475701822 0.4079166666666666 
49.00456475701822 0.4494444444444444 
50.00456475701822 0.47333333333333333 
51.00456475701822 0.4748611111111111 
52.00456475701822 0.48819444444444443 
53.00456475701822 0.48333333333333334 
54.00456475701822 0.49 
55.00456475701822 0.49 
56.00456475701822 0.49 
57.00456475701822 0.49 
58.00456475701822 0.49 
59.00456475701822 0.49 
60.00456475701822 0.49 
61.00456475701822 0.49 
62.00456475701822 0.49 
63.00456475701822 0.49 
64.00456475701822 0.49 
65.00456475701822 0.49 
66.00456475701822 0.49 
#####################################################################
# End of data export. Simulation finished at: 2017-05-25T07:29+0000 #
#####################################################################
