#####################################################################
# Alchemist log file - simulation started at: 2017-05-26T03:02+0000 #
#####################################################################
# random = 9.0, targets = 3.1622776601683795, density = 0.11269076455391362, gridShift = 0.0, perturbation = 0.0, connfactor = 0.5
#
# The columns have the following meaning: 
# time se[Mean] 
0.0 NaN 
1.034185494435238 NaN 
2.034185494435238 1.0 
3.034185494435238 1.0 
4.034185494435238 0.9883508893593265 
5.034185494435238 0.9650526680779794 
6.034185494435238 0.9417544467966324 
7.034185494435238 0.8485615616712443 
8.034185494435238 0.8485615616712443 
9.034185494435238 0.8718597829525914 
10.034185494435238 0.8951580042339383 
11.034185494435238 0.9301053361559589 
12.034185494435238 0.9417544467966324 
13.034185494435238 0.9268071148746119 
14.034185494435238 0.9288071148746119 
15.034185494435238 0.8809124510305708 
16.03418549443524 0.7066320169357534 
17.03418549443524 0.8654042509189154 
18.03418549443524 0.7882113657935272 
19.03418549443524 0.7129138379937896 
20.03418549443524 1.4816511910855017 
21.03418549443524 1.2050896294142575 
22.03418549443524 0.840142297492237 
23.03418549443524 1.8136518845671112 
24.03418549443524 0.13508893593264829 
25.03418549443524 0.13508893593264829 
26.03418549443524 0.13508893593264829 
27.03418549443524 0.13508893593264829 
28.03418549443524 0.13508893593264829 
29.03418549443524 0.13508893593264829 
#####################################################################
# End of data export. Simulation finished at: 2017-05-26T03:02+0000 #
#####################################################################
