#####################################################################
# Alchemist log file - simulation started at: 2017-05-24T14:38+0000 #
#####################################################################
# random = 15.0, targets = 3.1622776601683795, density = 0.07978946395100113, gridShift = 1.0, perturbation = 0.0, connfactor = 2.0
#
# The columns have the following meaning: 
# time se[Mean] 
0.0 NaN 
1.033500917323147 NaN 
2.0335009173231473 1.0 
3.0335009173231473 1.0410672210461283 
4.033500917323147 1.716008412008814 
5.033500917323147 2.1398970119470317 
6.033500917323147 3.57910699077734 
7.033500917323147 3.2810369015170138 
8.033500917323147 3.548302917487329 
9.033500917323147 3.414618945218584 
10.033500917323147 1.9773682334881615 
11.033500917323147 1.1770326098419714 
12.033500917323147 1.2069456002471273 
13.033500917323147 1.2798548555860731 
14.033500917323147 0.3671655321564924 
15.033500917323147 0.1969465634160289 
16.033500917323146 0.06415386666591973 
17.033500917323146 0.005937477188983873 
18.033500917323146 0.0026334038989724497 
19.033500917323146 0.0026334038989724497 
20.033500917323146 0.0026334038989724497 
21.033500917323146 0.0026334038989724497 
22.033500917323146 0.0026334038989724497 
#####################################################################
# End of data export. Simulation finished at: 2017-05-24T14:38+0000 #
#####################################################################
