#####################################################################
# Alchemist log file - simulation started at: 2017-05-24T14:39+0000 #
#####################################################################
# random = 15.0, targets = 3.1622776601683795, density = 0.4483936332993466, gridShift = 0.0, perturbation = 0.5, connfactor = 0.25
#
# The columns have the following meaning: 
# time se[Mean] 
0.0 NaN 
1.0090872484315245 NaN 
2.0090872484315243 1.0 
3.0090872484315243 1.0 
4.009087248431524 1.0 
5.009087248431524 1.0 
6.009087248431524 1.0 
7.009087248431524 1.0 
8.009087248431523 1.0 
9.009087248431523 1.0 
10.009087248431523 1.0 
11.009087248431523 1.0 
12.009087248431523 0.9916803823119739 
13.009087248431523 1.0 
14.009087248431523 0.9750411469359215 
15.009087248431523 0.9584019115598691 
16.009087248431523 0.9500822938718428 
17.009087248431523 0.9584019115598691 
18.009087248431523 0.9334430584957905 
19.009087248431523 0.8752057346796073 
20.009087248431523 0.8585664993035549 
21.009087248431523 0.8086487931753977 
22.009087248431523 0.7836899401113191 
23.009087248431523 0.7254526162951358 
24.009087248431523 0.7254526162951359 
25.009087248431523 0.6620206747909264 
26.009087248431523 0.6172975863507955 
27.009087248431523 0.518517556406455 
28.009087248431523 0.4831694679663241 
29.009087248431523 0.46653023259027177 
30.009087248431523 0.4550856149022455 
31.009087248431523 0.4550856149022455 
32.00908724843153 0.436376761838167 
33.00908724843153 0.4415713795261932 
34.00908724843153 0.4311821441501408 
35.00908724843153 0.436376761838167 
36.00908724843153 0.4155982910860622 
37.00908724843153 0.45196061490224554 
38.00908724843153 0.45715523259027174 
39.00908724843153 0.45715523259027174 
40.00908724843153 0.4675444679663241 
41.00908724843153 0.4623498502782979 
42.00908724843153 0.4675444679663241 
43.00908724843153 0.4675444679663241 
44.00908724843153 0.4675444679663241 
45.00908724843153 0.4675444679663241 
46.00908724843153 0.4675444679663241 
47.00908724843153 0.4675444679663241 
48.00908724843153 0.4675444679663241 
49.00908724843153 0.4675444679663241 
50.00908724843153 0.4675444679663241 
51.00908724843153 0.4675444679663241 
#####################################################################
# End of data export. Simulation finished at: 2017-05-24T14:39+0000 #
#####################################################################
