#####################################################################
# Alchemist log file - simulation started at: 2017-05-26T02:15+0000 #
#####################################################################
# random = 19.0, targets = 100.0, density = 0.04, gridShift = 1.0, perturbation = 0.0, connfactor = 0.5
#
# The columns have the following meaning: 
# time se[Mean] 
0.0 NaN 
1.0189000266060093 NaN 
2.0189000266060093 0.9941895833333333 
3.0189000266060093 0.9983416666666667 
4.018900026606009 0.9780187499999999 
5.018900026606009 0.8806467592592593 
6.018900026606009 0.6860495370370371 
7.018900026606009 0.5636645833333334 
8.018900026606008 0.3263104166666667 
9.018900026606008 0.3510143518518519 
10.018900026606008 0.33595740740740754 
11.018900026606008 0.3578724537037038 
12.018900026606008 0.3600000000000001 
13.018900026606008 0.3600000000000001 
14.018900026606008 0.3600000000000001 
15.018900026606008 0.3600000000000001 
16.01890002660601 0.3600000000000001 
#####################################################################
# End of data export. Simulation finished at: 2017-05-26T02:15+0000 #
#####################################################################
