#####################################################################
# Alchemist log file - simulation started at: 2017-05-21T15:05+0000 #
#####################################################################
# random = 2.0, targets = 100.0, density = 0.894427190999916, gridShift = 0.0, perturbation = 0.0, connfactor = 1.0
#
# The columns have the following meaning: 
# time se[Mean] 
0.0 NaN 
1.003288451303821 NaN 
2.003288451303821 1.0782382231404959 
3.003288451303821 1.0999726469237832 
4.0032884513038205 1.15873084825528 
5.0032884513038205 1.2958983413682277 
6.0032884513038205 1.3576283057851237 
7.0032884513038205 1.4277194444444443 
8.00328845130382 1.559827479338843 
9.00328845130382 1.6705609905876948 
10.00328845130382 1.8162212580348946 
11.00328845130382 1.844867917814509 
12.00328845130382 1.8697100665748394 
13.00328845130382 2.0157056129476585 
14.00328845130382 1.6594190886134068 
15.00328845130382 1.6025960743801653 
16.00328845130382 1.3019057334710744 
17.00328845130382 1.2942295684113865 
18.00328845130382 1.2227052972910928 
19.00328845130382 1.1182362431129476 
20.00328845130382 1.107154356060606 
21.00328845130382 1.1188648186409549 
22.00328845130382 1.0559278753443526 
23.00328845130382 1.0376613865932047 
24.00328845130382 0.9615397153351698 
25.00328845130382 0.9206540691000917 
26.00328845130382 0.8723906508264463 
27.00328845130382 0.8138725723140495 
28.00328845130382 0.7941318927915518 
29.00328845130382 0.7712144915059688 
30.00328845130382 0.7698928891184573 
31.00328845130382 0.7667883608815427 
32.00328845130382 0.7603811179981634 
33.00328845130382 0.7622514864554637 
34.00328845130382 0.7607274563820019 
35.00328845130382 0.7610604051882461 
36.00328845130382 0.7603307392102847 
37.00328845130382 0.7582607380624427 
38.00328845130382 0.7577075814967861 
39.00328845130382 0.7577293904958677 
40.00328845130382 0.7574047520661157 
41.00328845130382 0.7569 
42.00328845130382 0.7569 
43.00328845130382 0.7569 
44.00328845130382 0.7569 
45.00328845130382 0.7569 
46.00328845130382 0.7569 
47.00328845130382 0.7569 
48.00328845130382 0.7569 
49.00328845130382 0.7569 
50.00328845130382 0.7569 
51.00328845130382 0.7569 
52.00328845130382 0.7569 
53.00328845130382 0.7569 
54.00328845130382 0.7569 
55.00328845130382 0.7569 
56.00328845130382 0.7569 
57.00328845130382 0.7569 
58.00328845130382 0.7569 
59.00328845130382 0.7569 
60.00328845130382 0.7569 
61.00328845130382 0.7569 
62.00328845130382 0.7569 
63.00328845130382 0.7569 
64.00328845130382 0.7569 
#####################################################################
# End of data export. Simulation finished at: 2017-05-21T15:05+0000 #
#####################################################################
