#####################################################################
# Alchemist log file - simulation started at: 2017-05-24T19:45+0000 #
#####################################################################
# random = 7.0, targets = 10.0, density = 0.07978946395100113, gridShift = 1.0, perturbation = 0.0, connfactor = 2.0
#
# The columns have the following meaning: 
# time se[Mean] 
0.0 NaN 
1.0407271777208422 NaN 
2.040727177720842 2.438625 
3.040727177720842 3.6614861111111114 
4.040727177720842 5.470416666666667 
5.040727177720842 5.8052777777777775 
6.040727177720842 4.845833333333333 
7.040727177720842 4.748236111111112 
8.040727177720843 3.4043055555555553 
9.040727177720843 2.261375 
10.040727177720843 1.1581944444444445 
11.040727177720843 0.5048472222222224 
12.040727177720843 0.17231944444444464 
13.040727177720843 0.09704166666666679 
14.040727177720843 0.04287500000000008 
15.040727177720843 0.023291666666666717 
16.040727177720843 0.006930555555555575 
17.040727177720843 0.002541666666666672 
18.040727177720843 1.249999999999988E-4 
19.040727177720843 5.555555555555457E-5 
20.040727177720843 1.262177448353619E-31 
21.040727177720843 1.262177448353619E-31 
22.040727177720843 1.262177448353619E-31 
23.040727177720843 1.262177448353619E-31 
24.040727177720843 1.262177448353619E-31 
25.040727177720843 1.262177448353619E-31 
#####################################################################
# End of data export. Simulation finished at: 2017-05-24T19:45+0000 #
#####################################################################
