#####################################################################
# Alchemist log file - simulation started at: 2017-05-24T01:49+0000 #
#####################################################################
# random = 13.0, targets = 10.0, density = 20.0, gridShift = 1.0, perturbation = 0.5, connfactor = 2.0
#
# The columns have the following meaning: 
# time se[Mean] 
0.0 NaN 
1.0002602723432414 NaN 
2.000260272343241 1.0035975320360702 
3.000260272343241 1.0057262827611664 
4.000260272343241 1.00843896667194 
5.000260272343241 1.0135002373042241 
6.000260272343241 1.015361724147023 
7.000260272343241 1.021905882508042 
8.00026027234324 1.0254811013552707 
9.00026027234324 1.0266307414438642 
10.00026027234324 1.024970435848758 
11.00026027234324 1.021027856879186 
12.00026027234324 1.0206639244845226 
13.00026027234324 1.019172170806307 
14.00026027234324 1.01812378051996 
15.00026027234324 1.0210427872699466 
16.00026027234324 1.0238333201497656 
17.00026027234324 1.0199130543690347 
18.00026027234324 1.0238125889890841 
19.00026027234324 1.0225020434530403 
20.00026027234324 1.023467871644782 
21.00026027234324 1.0198836879713125 
22.00026027234324 1.0279288944259872 
23.00026027234324 1.0184014923798974 
24.00026027234324 1.0211022781205505 
25.00026027234324 1.0145938142698943 
26.00026027234324 1.010359351104783 
27.00026027234324 1.0072089727363813 
28.00026027234324 1.0026698373147709 
29.00026027234324 0.9963500962400466 
30.00026027234324 0.9954472855033486 
31.00026027234324 0.9866303129779044 
32.00026027234324 0.9804190726678268 
33.00026027234324 0.9811325673680328 
34.00026027234324 0.9681593431946423 
35.00026027234324 0.9554273453567469 
36.00026027234324 0.9544973105521278 
37.00026027234324 0.9423374466065498 
38.00026027234324 0.9298482241733902 
39.00026027234324 0.9248247244634291 
40.00026027234324 0.9096218952697357 
41.00026027234324 0.900495833992512 
42.00026027234324 0.8890584625322995 
43.00026027234324 0.8796085139482152 
44.00026027234324 0.8712539880293205 
45.00026027234324 0.8644923337552076 
46.00026027234324 0.8588300901756052 
47.00026027234324 0.8491583610188265 
48.00026027234324 0.8443663977218796 
49.00026027234324 0.8386292714760324 
50.00026027234324 0.8322046880767812 
51.00026027234324 0.8310942361440703 
52.00026027234324 0.828342034488214 
53.00026027234324 0.8242878236565944 
54.00026027234324 0.8207426303854873 
55.00026027234324 0.8176364499288088 
56.00026027234324 0.8137068238147973 
57.00026027234324 0.8119843906554871 
58.00026027234324 0.8096585455887781 
59.00026027234324 0.8084544903232612 
60.00026027234324 0.8068737805199602 
61.00026027234324 0.8060566629752677 
62.00026027234324 0.8056525866160419 
63.00026027234324 0.8068762853978804 
64.00026027234324 0.8068892052945211 
65.00026027234324 0.8075499657227232 
66.00026027234324 0.8079858144808312 
67.00026027234324 0.8082577914886885 
68.00026027234324 0.8080717713441966 
69.00026027234324 0.8084121710699781 
70.00026027234324 0.8086145388387915 
71.00026027234324 0.8084232452670992 
72.00026027234324 0.8085610135527082 
73.00026027234324 0.8092182144175499 
74.00026027234324 0.8090298212308181 
75.00026027234324 0.8091877603754681 
76.00026027234324 0.8096949322364605 
77.00026027234324 0.8097946000105468 
78.00026027234324 0.809704556241101 
79.00026027234324 0.8099462110425565 
80.00026027234324 0.8115036188894162 
81.00026027234324 0.8112783117122818 
82.00026027234324 0.8113477561567263 
83.00026027234324 0.812000145019248 
84.00026027234324 0.8124863220481991 
85.00026027234324 0.8124413331223962 
86.00026027234324 0.8134620379159414 
87.00026027234324 0.8151907662289722 
88.00026027234324 0.8154139310763064 
89.00026027234324 0.8163920529452092 
90.00026027234324 0.8175890879607658 
91.00026027234324 0.8178549675684228 
92.00026027234324 0.8191573392923063 
93.00026027234324 0.8190330182460582 
94.00026027234324 0.8197249907715025 
95.00026027234324 0.8200125573485207 
96.00026027234324 0.820188459104572 
97.00026027234324 0.8207732821810897 
98.00026027234324 0.82140487396509 
99.00026027234324 0.8213193785266044 
100.00026027234324 0.8219623081790854 
101.00026027234324 0.8229573709328692 
102.00026027234324 0.8225210277909614 
103.00026027234324 0.8227512458471761 
104.00026027234324 0.8231343932922006 
105.00026027234324 0.8230616859146759 
106.00026027234324 0.8236171755523914 
107.00026027234324 0.8232460251542478 
108.00026027234324 0.822062338501292 
109.00026027234324 0.8232065733270053 
110.00026027234324 0.8222734074249856 
111.00026027234324 0.8289057638559298 
112.00026027234324 0.8248491140642304 
113.00026027234324 0.8366539115646258 
114.00026027234324 0.8319584849443655 
115.00026027234324 0.8445567684438119 
116.00026027234324 0.8434890312714233 
117.00026027234324 0.8568926659811211 
118.00026027234324 0.854031106628698 
119.00026027234324 0.8612229077677582 
120.00026027234324 0.855293894689659 
121.00026027234324 0.8611468056214735 
122.00026027234324 0.8682902889838098 
123.00026027234324 0.861657899593946 
124.00026027234324 0.8552714496651376 
125.00026027234324 0.8632936178347308 
126.00026027234324 0.8629795852449506 
127.00026027234324 0.8611107156040709 
128.00026027234324 0.8664552351948535 
129.00026027234324 0.8632560117070085 
130.00026027234324 0.8688234983916049 
131.00026027234324 0.8601388229710489 
132.00026027234324 0.8609378460686601 
133.00026027234324 0.8645554500870115 
134.00026027234324 0.8705031838316724 
135.00026027234324 0.8509706731529822 
136.00026027234324 0.861354776406687 
137.00026027234324 0.848520375204345 
138.00026027234324 0.85140724700733 
139.00026027234324 0.8687581738121606 
140.00026027234324 0.8473410391288296 
141.00026027234324 0.8718722644096399 
142.00026027234324 0.8812130860095976 
143.00026027234324 0.9498343814269893 
144.00026027234324 1.0516587565258666 
145.00026027234324 1.0744411155935234 
146.00026027234324 1.300877761957498 
147.00026027234324 1.282432368296152 
148.00026027234324 1.5199830920740414 
149.00026027234324 1.5531878197015319 
150.00026027234324 1.8166234575225473 
151.00026027234324 1.7602738886252132 
152.00026027234324 1.8764093563781996 
153.00026027234324 1.7842790895428058 
154.00026027234324 1.9419577268892216 
155.00026027234324 2.043577954437587 
156.00026027234324 2.0236474977588026 
157.00026027234324 1.8410628592522373 
158.00026027234324 2.1718103016400403 
159.00026027234324 2.123158453303811 
160.00026027234324 2.2480896350788404 
161.00026027234324 2.3166313676633425 
162.00026027234324 2.400135032695249 
163.00026027234324 2.366508397932827 
164.00026027234324 2.321297361968057 
165.00026027234324 2.4071667523598497 
166.00026027234324 2.5406817552602425 
167.00026027234324 2.5195659310235623 
168.00026027234324 2.343481252966296 
169.00026027234324 2.5795704463956137 
170.00026027234324 2.383575976902389 
171.00026027234324 2.491994212413645 
172.00026027234324 2.658913509202138 
173.00026027234324 2.471590432684693 
174.00026027234324 2.4685465775457462 
175.00026027234324 2.6391180852185796 
176.00026027234324 2.7946096345514926 
177.00026027234324 3.0394635276591204 
178.00026027234324 2.7008092403628083 
179.00026027234324 3.172853945841903 
180.00026027234324 2.892623068607285 
181.00026027234324 3.472428512102523 
182.00026027234324 3.261778397405471 
183.00026027234324 3.608120352792281 
184.00026027234324 3.385003526604443 
185.00026027234324 3.4715156488952172 
186.00026027234324 3.771983863312769 
187.00026027234324 3.7172081817222993 
188.00026027234324 3.3015010480936544 
189.00026027234324 3.6410784158624683 
190.00026027234324 3.644728055951063 
191.00026027234324 3.871066286979908 
192.00026027234324 3.7060370853767863 
193.00026027234324 4.041057388071506 
194.00026027234324 4.202724713916575 
195.00026027234324 4.000091625797604 
196.00026027234324 4.053563386594944 
197.00026027234324 4.022308838263985 
198.00026027234324 4.03487235010283 
199.00026027234324 4.118058060433471 
200.00026027234324 3.9479286307546206 
201.00026027234324 3.6077237581078916 
202.00026027234324 3.658371433844851 
203.00026027234324 3.5937076148288702 
204.00026027234324 3.2416496598639424 
205.00026027234324 3.245911182302377 
206.00026027234324 3.084813287718195 
207.00026027234324 3.24805539076096 
208.00026027234324 3.1717686745240754 
209.00026027234324 3.1674785107841537 
210.00026027234324 2.805528463323318 
211.00026027234324 2.9690826543795907 
212.00026027234324 3.039952934662238 
213.00026027234324 2.5887303235247567 
214.00026027234324 3.014363101829886 
215.00026027234324 2.6791693363391813 
216.00026027234324 2.711200166112959 
217.00026027234324 2.9847062041871038 
218.00026027234324 2.748297803617574 
219.00026027234324 2.5387581738121607 
220.00026027234324 2.19808666877604 
221.00026027234324 2.648033374202399 
222.00026027234324 2.423882890365447 
223.00026027234324 2.1547356694615853 
224.00026027234324 2.3764312081421717 
225.00026027234324 2.1888739914570468 
226.00026027234324 2.2244365672625643 
227.00026027234324 2.263794395665244 
228.00026027234324 2.067480158730159 
229.00026027234324 2.1424628552971603 
230.00026027234324 1.9791211833570674 
231.00026027234324 1.8357918380530582 
232.00026027234324 1.9516999551758714 
233.00026027234324 1.8569821494489305 
234.00026027234324 1.6098788430100726 
235.00026027234324 1.5991420463534305 
236.00026027234324 1.4855971497125995 
237.00026027234324 1.3438761997046937 
238.00026027234324 1.608620702156834 
239.00026027234324 1.3426682552866154 
240.00026027234324 1.337424524073197 
241.00026027234324 1.2964154537784156 
242.00026027234324 1.4470799056056605 
243.00026027234324 1.3906515648895306 
244.00026027234324 1.265063380003165 
245.00026027234324 1.4639695723250599 
246.00026027234324 1.2221415717449804 
247.00026027234324 1.5433305977429788 
248.00026027234324 1.2963203013763707 
249.00026027234324 1.4850504930654518 
250.00026027234324 1.4402825238622603 
251.00026027234324 1.2233828046722632 
252.00026027234324 1.422259432842908 
253.00026027234324 1.381423825344094 
254.00026027234324 1.200925980857467 
255.00026027234324 1.2419458946369253 
256.0002602723432 1.3057488925802958 
257.0002602723432 1.2458651716500593 
258.0002602723432 1.2800651268259327 
259.0002602723432 1.3036208669514349 
260.0002602723432 1.3393919738438154 
261.0002602723432 1.3404827493012756 
262.0002602723432 1.2761306557506815 
263.0002602723432 1.2031479723672533 
264.0002602723432 1.2600503612297704 
265.0002602723432 1.3800390233613016 
266.0002602723432 1.1462930443495212 
267.0002602723432 1.083757580551621 
268.0002602723432 1.0440428729631384 
269.0002602723432 0.9767874281495551 
270.0002602723432 0.8217577651215606 
271.0002602723432 0.8334492168960577 
272.0002602723432 0.6950767283657727 
273.0002602723432 0.8721543268470314 
274.0002602723432 0.7701319675157033 
275.0002602723432 0.734243395032428 
276.0002602723432 0.5859827031587865 
277.0002602723432 0.80366160417656 
278.0002602723432 0.693209144122777 
279.0002602723432 0.5912871117439209 
280.0002602723432 0.7423087064283062 
281.0002602723432 0.6127595844539458 
282.0002602723432 0.6464691768180083 
283.0002602723432 0.6639913252122521 
284.0002602723432 0.5681593102357212 
285.0002602723432 0.5867077993988337 
286.0002602723432 0.45589661445974056 
287.0002602723432 0.49317750355956175 
288.0002602723432 0.5107327427094909 
289.0002602723432 0.45351750777830463 
290.0002602723432 0.43480198280862936 
291.0002602723432 0.397430258925276 
292.0002602723432 0.39739123556399336 
293.0002602723432 0.3973522122027133 
294.0002602723432 0.39733270052207054 
295.0002602723432 0.37866635026103573 
296.0002602723432 0.36000000000000054 
297.0002602723432 0.36000000000000054 
298.0002602723432 0.36000000000000054 
299.0002602723432 0.36000000000000054 
300.0002602723432 0.36000000000000054 
301.0002602723432 0.36000000000000054 
302.0002602723432 0.36000000000000054 
303.0002602723432 0.36000000000000054 
304.0002602723432 0.36000000000000054 
305.0002602723432 0.36000000000000054 
306.0002602723432 0.36000000000000054 
307.0002602723432 0.36000000000000054 
308.0002602723432 0.36000000000000054 
309.0002602723432 0.36000000000000054 
310.0002602723432 0.36000000000000054 
311.0002602723432 0.36000000000000054 
312.0002602723432 0.36000000000000054 
313.0002602723432 0.36000000000000054 
314.0002602723432 0.36000000000000054 
315.0002602723432 0.36000000000000054 
316.0002602723432 0.36000000000000054 
317.0002602723432 0.36000000000000054 
318.0002602723432 0.36000000000000054 
319.0002602723432 0.36000000000000054 
320.0002602723432 0.36000000000000054 
321.0002602723432 0.36000000000000054 
322.0002602723432 0.36000000000000054 
323.0002602723432 0.36000000000000054 
324.0002602723432 0.36000000000000054 
325.0002602723432 0.36000000000000054 
326.0002602723432 0.36000000000000054 
327.0002602723432 0.36000000000000054 
328.0002602723432 0.36000000000000054 
329.0002602723432 0.36000000000000054 
330.0002602723432 0.36000000000000054 
331.0002602723432 0.36000000000000054 
332.0002602723432 0.36000000000000054 
333.0002602723432 0.36000000000000054 
334.0002602723432 0.36000000000000054 
335.0002602723432 0.36000000000000054 
336.0002602723432 0.36000000000000054 
337.0002602723432 0.36000000000000054 
338.0002602723432 0.36000000000000054 
339.0002602723432 0.36000000000000054 
340.0002602723432 0.36000000000000054 
341.0002602723432 0.36000000000000054 
342.0002602723432 0.36000000000000054 
343.0002602723432 0.36000000000000054 
344.0002602723432 0.36000000000000054 
345.0002602723432 0.36000000000000054 
346.0002602723432 0.36000000000000054 
347.0002602723432 0.36000000000000054 
348.0002602723432 0.36000000000000054 
349.0002602723432 0.36000000000000054 
350.0002602723432 0.36000000000000054 
351.0002602723432 0.36000000000000054 
352.0002602723432 0.36000000000000054 
353.0002602723432 0.36000000000000054 
354.0002602723432 0.36000000000000054 
355.0002602723432 0.36000000000000054 
356.0002602723432 0.36000000000000054 
357.0002602723432 0.36000000000000054 
358.0002602723432 0.36000000000000054 
359.0002602723432 0.36000000000000054 
360.0002602723432 0.36000000000000054 
361.0002602723432 0.36000000000000054 
362.0002602723432 0.36000000000000054 
363.0002602723432 0.36000000000000054 
364.0002602723432 0.36000000000000054 
365.0002602723432 0.36000000000000054 
366.0002602723432 0.36000000000000054 
367.0002602723432 0.36000000000000054 
368.0002602723432 0.36000000000000054 
369.0002602723432 0.36000000000000054 
370.0002602723432 0.36000000000000054 
371.0002602723432 0.36000000000000054 
372.0002602723432 0.36000000000000054 
373.0002602723432 0.36000000000000054 
374.0002602723432 0.36000000000000054 
375.0002602723432 0.36000000000000054 
376.0002602723432 0.36000000000000054 
377.0002602723432 0.36000000000000054 
378.0002602723432 0.36000000000000054 
379.0002602723432 0.36000000000000054 
380.0002602723432 0.36000000000000054 
381.0002602723432 0.36000000000000054 
382.0002602723432 0.36000000000000054 
383.0002602723432 0.36000000000000054 
384.0002602723432 0.36000000000000054 
385.0002602723432 0.36000000000000054 
386.0002602723432 0.36000000000000054 
387.0002602723432 0.36000000000000054 
388.0002602723432 0.36000000000000054 
389.0002602723432 0.36000000000000054 
390.0002602723432 0.36000000000000054 
391.0002602723432 0.36000000000000054 
392.0002602723432 0.36000000000000054 
393.0002602723432 0.36000000000000054 
394.0002602723432 0.36000000000000054 
395.0002602723432 0.36000000000000054 
396.0002602723432 0.36000000000000054 
#####################################################################
# End of data export. Simulation finished at: 2017-05-24T01:55+0000 #
#####################################################################
