#####################################################################
# Alchemist log file - simulation started at: 2017-05-20T06:01+0000 #
#####################################################################
# random = 0.0, targets = 100.0, density = 1.7841466528270753, gridShift = 1.0, perturbation = 0.5, connfactor = 2.0
#
# The columns have the following meaning: 
# time se[Mean] 
0.0 NaN 
1.0011337332612453 NaN 
2.0011337332612453 1.0802676339285715 
3.0011337332612453 1.1202405009920635 
4.001133733261245 1.1787944723462302 
5.001133733261245 1.2741240358382937 
6.001133733261245 1.3681958426339287 
7.001133733261245 1.5203740482390873 
8.001133733261245 1.502696949404762 
9.001133733261245 1.7242812158978174 
10.001133733261245 1.7567208302331347 
11.001133733261245 1.917930236235119 
12.001133733261245 1.956942299107143 
13.001133733261245 2.0695428850446427 
14.001133733261245 2.196269366939484 
15.001133733261245 2.3364488002232147 
16.001133733261245 2.37285417906746 
17.001133733261245 2.6499891555059527 
18.001133733261245 2.7915323350694448 
19.001133733261245 3.1065908513144858 
20.001133733261245 3.7141892857142857 
21.001133733261245 3.8500962177579368 
22.001133733261245 4.6360657366071445 
23.001133733261245 4.176918229166666 
24.001133733261245 4.771685813492065 
25.001133733261245 5.138345238095237 
26.001133733261245 4.764575545634922 
27.001133733261245 4.502668191964285 
28.001133733261245 4.5540945312500005 
29.001133733261245 4.279681758432539 
30.001133733261245 4.842799342757936 
31.001133733261245 4.621777566964287 
32.00113373326124 5.094205629960318 
33.00113373326124 4.932310565476191 
34.00113373326124 5.532757204861112 
35.00113373326124 5.639301302083335 
36.00113373326124 6.63670973462302 
37.00113373326124 6.997883792162698 
38.00113373326124 9.466687735615084 
39.00113373326124 13.627374640376992 
40.00113373326124 15.147965935019842 
41.00113373326124 19.727336383928577 
42.00113373326124 17.22888836805556 
43.00113373326124 20.551466716269854 
44.00113373326124 24.8630613467262 
45.00113373326124 22.46918707837302 
46.00113373326124 24.47293147321429 
47.00113373326124 27.397020027281755 
48.00113373326124 27.214424218750004 
49.00113373326124 37.68445684833831 
50.00113373326124 34.988320526413695 
51.00113373326124 49.960468315972236 
52.00113373326124 66.71597639198907 
53.00113373326124 62.447174435763905 
54.00113373326124 78.31205915178575 
55.00113373326124 61.84685343191965 
56.00113373326124 73.50790902467759 
57.00113373326124 86.85191021515377 
58.00113373326124 70.45357390252977 
59.00113373326124 72.34922809399802 
60.00113373326124 67.3378333860367 
61.00113373326124 57.40055442398314 
62.00113373326124 70.92984530009923 
63.00113373326124 63.95581379588294 
64.00113373326124 75.97790047743055 
65.00113373326124 68.04388658234124 
66.00113373326124 43.22585288938491 
67.00113373326124 33.82453276599703 
68.00113373326124 27.17042541852679 
69.00113373326124 26.989134136284726 
70.00113373326124 20.853792351810522 
71.00113373326124 20.85739560081846 
72.00113373326124 20.76955806361607 
73.00113373326124 17.708588293650795 
74.00113373326124 17.711589186507936 
75.00113373326124 17.71771922123016 
76.00113373326124 17.720284089781746 
77.00113373326124 17.72103498263889 
78.00113373326124 17.722598214285714 
79.00113373326124 17.72334910714286 
80.00113373326124 17.72334910714286 
81.00113373326124 17.72372455357143 
82.00113373326124 17.7241 
83.00113373326124 17.7241 
84.00113373326124 17.7241 
85.00113373326124 17.7241 
86.00113373326124 17.7241 
87.00113373326124 17.7241 
88.00113373326124 17.7241 
89.00113373326124 17.7241 
90.00113373326124 17.7241 
91.00113373326124 17.7241 
92.00113373326124 17.7241 
93.00113373326124 17.7241 
94.00113373326124 17.7241 
95.00113373326124 17.7241 
96.00113373326124 17.7241 
97.00113373326124 17.7241 
98.00113373326124 17.7241 
99.00113373326124 17.7241 
100.00113373326124 17.7241 
101.00113373326124 17.7241 
102.00113373326124 17.7241 
103.00113373326124 17.7241 
104.00113373326124 17.7241 
105.00113373326124 17.7241 
106.00113373326124 17.7241 
107.00113373326124 17.7241 
108.00113373326124 17.7241 
109.00113373326124 17.7241 
#####################################################################
# End of data export. Simulation finished at: 2017-05-20T06:09+0000 #
#####################################################################
