#####################################################################
# Alchemist log file - simulation started at: 2017-05-20T10:34+0000 #
#####################################################################
# random = 1.0, targets = 1.0, density = 0.894427190999916, gridShift = 0.0, perturbation = 0.5, connfactor = 0.75
#
# The columns have the following meaning: 
# time se[Mean] 
0.0 NaN 
1.0048855897957667 NaN 
2.0048855897957667 1.06198347107438 
3.0048855897957667 1.1756198347107436 
4.004885589795767 1.134297520661157 
5.004885589795767 1.1503673094582185 
6.004885589795767 1.0550964187327823 
7.004885589795767 0.9586776859504132 
8.004885589795766 0.9081726354453626 
9.004885589795766 0.8898071625344353 
10.004885589795766 0.8643250688705235 
11.004885589795766 0.8363177226813591 
12.004885589795766 0.816574839302112 
13.004885589795766 0.7764003673094584 
14.004885589795766 0.7555096418732784 
15.004885589795766 0.7086776859504131 
16.004885589795766 0.6646005509641876 
17.004885589795766 0.6097337006427918 
18.004885589795766 0.5778236914600554 
19.004885589795766 0.527089072543618 
20.004885589795766 0.4974747474747473 
21.004885589795766 0.46372819100091844 
22.004885589795766 0.4058769513314971 
23.004885589795766 0.35261707988980734 
24.004885589795766 0.2908631772268135 
25.004885589795766 0.2300275482093663 
26.004885589795766 0.6450872359963268 
27.004885589795766 1.0528007346189163 
28.004885589795766 2.7979797979798007 
29.004885589795766 4.110881542699724 
30.004885589795766 4.079889807162534 
31.004885589795766 4.055555555555557 
32.00488558979576 3.6000918273645555 
33.00488558979576 4.036271808999082 
34.00488558979576 3.1623048668503224 
35.00488558979576 5.395775941230487 
36.00488558979576 4.058310376492195 
37.00488558979576 5.833333333333332 
38.00488558979576 4.937327823691459 
39.00488558979576 2.2766299357208437 
40.00488558979576 1.820018365472912 
41.00488558979576 1.4051882460973366 
42.00488558979576 0.9430670339761249 
43.00488558979576 0.5202020202020196 
44.00488558979576 0.5084940312213042 
45.00488558979576 0.029384756657483933 
46.00488558979576 0.023415977961432497 
47.00488558979576 0.017447199265381068 
48.00488558979576 0.01170798898071623 
49.00488558979576 0.005739210284664818 
50.00488558979576 0.005739210284664818 
51.00488558979576 4.930380657631324E-32 
52.00488558979576 4.930380657631324E-32 
53.00488558979576 4.930380657631324E-32 
54.00488558979576 4.930380657631324E-32 
55.00488558979576 4.930380657631324E-32 
56.00488558979576 4.930380657631324E-32 
57.00488558979576 4.930380657631324E-32 
58.00488558979576 4.930380657631324E-32 
59.00488558979576 4.930380657631324E-32 
60.00488558979576 4.930380657631324E-32 
61.00488558979576 4.930380657631324E-32 
62.00488558979576 4.930380657631324E-32 
63.00488558979576 4.930380657631324E-32 
64.00488558979576 4.930380657631324E-32 
65.00488558979576 4.930380657631324E-32 
66.00488558979576 4.930380657631324E-32 
67.00488558979576 4.930380657631324E-32 
68.00488558979576 4.930380657631324E-32 
69.00488558979576 4.930380657631324E-32 
70.00488558979576 4.930380657631324E-32 
#####################################################################
# End of data export. Simulation finished at: 2017-05-20T10:36+0000 #
#####################################################################
