#####################################################################
# Alchemist log file - simulation started at: 2017-05-23T01:57+0000 #
#####################################################################
# random = 10.0, targets = 31.622776601683793, density = 0.4483936332993466, gridShift = 0.0, perturbation = 0.5, connfactor = 0.5
#
# The columns have the following meaning: 
# time se[Mean] 
0.0 NaN 
1.0036005446229952 NaN 
2.003600544622995 1.0040700345752105 
3.003600544622995 1.0106312033116724 
4.003600544622995 1.006595040273428 
5.003600544622995 0.9948808711849055 
6.003600544622995 0.9912431861773594 
7.003600544622995 0.9480930778652868 
8.003600544622994 0.9473429766533936 
9.003600544622994 0.9188673903594714 
10.003600544622994 0.8992926254787185 
11.003600544622994 0.8921290898777986 
12.003600544622994 0.8793626841331514 
13.003600544622994 0.8859511213483162 
14.003600544622994 0.8806203171400583 
15.003600544622994 0.8748794261629976 
16.003600544622994 0.8448542335499195 
17.003600544622994 0.858445598717927 
18.003600544622994 0.8460809493727108 
19.003600544622994 0.8379756545554101 
20.003600544622994 0.8384940949458659 
21.003600544622994 0.8285209414364023 
22.003600544622994 0.7888815131256836 
23.003600544622994 0.7819527923426413 
24.003600544622994 0.7543247467264294 
25.003600544622994 0.7164290859238335 
26.003600544622994 0.6977837104677946 
27.003600544622994 0.653246907025533 
28.003600544622994 0.6507880963535264 
29.003600544622994 0.6306339247696422 
30.003600544622994 0.6160786128576893 
31.003600544622994 0.587324904849317 
32.003600544623 0.596273035060558 
33.003600544623 0.5739583982603059 
34.003600544623 0.5506415083983945 
35.003600544623 0.5569200027703102 
36.003600544623 0.5315534544783447 
37.003600544623 0.5498322089453388 
38.003600544623 0.5498322089453388 
39.003600544623 0.5592403620505202 
40.003600544623 0.5216077496297947 
41.003600544623 0.5592403620505202 
42.003600544623 0.5404240558401574 
43.003600544623 0.5780566682608829 
44.003600544623 0.5592403620505202 
45.003600544623 0.5874648213660643 
46.003600544623 0.6062811275764269 
47.003600544623 0.6062811275764269 
48.003600544623 0.6062811275764269 
49.003600544623 0.6062811275764269 
50.003600544623 0.6062811275764269 
51.003600544623 0.6062811275764269 
52.003600544623 0.6062811275764269 
53.003600544623 0.6062811275764269 
54.003600544623 0.6062811275764269 
55.003600544623 0.6062811275764269 
56.003600544623 0.6062811275764269 
57.003600544623 0.6062811275764269 
58.003600544623 0.6062811275764269 
59.003600544623 0.6062811275764269 
60.003600544623 0.6062811275764269 
#####################################################################
# End of data export. Simulation finished at: 2017-05-23T01:58+0000 #
#####################################################################
