#####################################################################
# Alchemist log file - simulation started at: 2017-05-26T07:56+0000 #
#####################################################################
# random = 9.0, targets = 10.0, density = 20.0, gridShift = 1.0, perturbation = 0.0, connfactor = 1.0
#
# The columns have the following meaning: 
# time se[Mean] 
0.0 NaN 
1.0003374459614243 NaN 
2.0003374459614243 1.0021428571428572 
3.0003374459614243 1.0041752359858673 
4.000337445961424 1.0061463112376732 
5.000337445961424 1.0059912724779834 
6.000337445961424 1.000092944154406 
7.000337445961424 0.9979453409270684 
8.000337445961424 0.9977089595528134 
9.000337445961424 0.9953132415757 
10.000337445961424 0.9965122870853768 
11.000337445961424 0.9932319516954068 
12.000337445961424 0.9931176501608396 
13.000337445961424 0.990079233243685 
14.000337445961424 0.9890979802773824 
15.000337445961424 0.9864395137900122 
16.000337445961424 0.9846770025839793 
17.000337445961424 0.9815406317565787 
18.000337445961424 0.9793437219849181 
19.000337445961424 0.976062068238148 
20.000337445961424 0.973548752834467 
21.000337445961424 0.9714018087855297 
22.000337445961424 0.968015477508833 
23.000337445961424 0.9658169857090119 
24.000337445961424 0.9629500870115493 
25.000337445961424 0.9616161736012241 
26.000337445961424 0.9596627643305379 
27.000337445961424 0.9579543057533086 
28.000337445961424 0.9558599641406947 
29.000337445961424 0.9546593366028581 
30.000337445961424 0.9540688445921002 
31.000337445961424 0.9518060169804358 
32.00033744596142 0.9512304224015184 
33.00033744596142 0.9491339714180247 
34.00033744596142 0.948062806517956 
35.00033744596142 0.944008200179296 
36.00033744596142 0.9429266202605068 
37.00033744596142 0.9393646838580393 
38.00033744596142 0.9370924959130945 
39.00033744596142 0.9356202868744398 
40.00033744596142 0.9310542899330277 
41.00033744596142 0.9303749406739438 
42.00033744596142 0.9270794441807738 
43.00033744596142 0.9249622949955174 
44.00033744596142 0.9202471919000161 
45.00033744596142 0.9193402942572372 
46.00033744596142 0.9129561514528294 
47.00033744596142 0.9106699889258021 
48.00033744596142 0.9036795338290357 
49.00033744596142 0.8986328639983131 
50.00033744596142 0.8962072193218369 
51.00033744596142 0.8860239677266248 
52.00033744596142 0.8806119812265989 
53.00033744596142 0.8741139323946636 
54.00033744596142 0.8631693297474021 
55.00033744596142 0.8571367927015762 
56.00033744596142 0.8476641354216101 
57.00033744596142 0.835931023572219 
58.00033744596142 0.8276781100036906 
59.00033744596142 0.8173425881980702 
60.00033744596142 0.8058221273005316 
61.00033744596142 0.7969857090122876 
62.00033744596142 0.7836965406317563 
63.00033744596142 0.7729047355376256 
64.00033744596142 0.7619528819279658 
65.00033744596142 0.7465224384327368 
66.00033744596142 0.7383554817275754 
67.00033744596142 0.7231790855877238 
68.00033744596142 0.7117669936191523 
69.00033744596142 0.6984935136845437 
70.00033744596142 0.6861001687496714 
71.00033744596142 0.6692136001687501 
72.00033744596142 0.6593172230132365 
73.00033744596142 0.642780018984337 
74.00033744596142 0.6319381163318046 
75.00033744596142 0.616843326477878 
76.00033744596142 0.6014399092970536 
77.00033744596142 0.5876792965248109 
78.00033744596142 0.5755044033117117 
79.00033744596142 0.563191741813005 
80.00033744596142 0.5532936507936507 
81.00033744596142 0.5422670463534264 
82.00033744596142 0.530574935400518 
83.00033744596142 0.5198386331276708 
84.00033744596142 0.5107477719770068 
85.00033744596142 0.5008105257606933 
86.00033744596142 0.49241285661551354 
87.00033744596142 0.4845186679322879 
88.00033744596142 0.47632929916152605 
89.00033744596142 0.4724605811316792 
90.00033744596142 0.4630406581237138 
91.00033744596142 0.46001397458208015 
92.00033744596142 0.4543064124874762 
93.00033744596142 0.4484761113747807 
94.00033744596142 0.44623688234984027 
95.00033744596142 0.4344423350735628 
96.00033744596142 0.4284264093234185 
97.00033744596142 0.4226422506987285 
98.00033744596142 0.41563966671940084 
99.00033744596142 0.40837103833781513 
100.00033744596142 0.4041380583241042 
101.00033744596142 0.39168696936138786 
102.00033744596142 0.4001390866424087 
103.00033744596142 0.4514668037757739 
104.00033744596142 0.3934439434688603 
105.00033744596142 0.47016308073617064 
106.00033744596142 0.4632816537467698 
107.00033744596142 0.42899106154089545 
108.00033744596142 0.5078389495333014 
109.00033744596142 0.4302615619891368 
110.00033744596142 0.44764238253440913 
111.00033744596142 0.47328204925381023 
112.00033744596142 0.4465720086484206 
113.00033744596142 0.43671439118282984 
114.00033744596142 0.4573855666297529 
115.00033744596142 0.3766315983757844 
116.00033744596142 0.42274943310657587 
117.00033744596142 0.4621540631756575 
118.00033744596142 0.3442887465063546 
119.00033744596142 0.40870445077255696 
120.00033744596142 0.4121288825607764 
121.00033744596142 0.3292118863049097 
122.00033744596142 0.4026189157833674 
123.00033744596142 0.36082252280757293 
124.00033744596142 0.3754150187206667 
125.00033744596142 0.33648236038601487 
126.00033744596142 0.3562681274060016 
127.00033744596142 0.3131467858461215 
128.0003374459614 0.3419721299372463 
129.0003374459614 0.2607170542635659 
130.0003374459614 0.2959726836471023 
131.0003374459614 0.2891694352159471 
132.0003374459614 0.2592466909244318 
133.0003374459614 0.2936982544955969 
134.0003374459614 0.2700184569952012 
135.0003374459614 0.2618116859146765 
136.0003374459614 0.2641417497231446 
137.0003374459614 0.268059510625956 
138.0003374459614 0.2670338290354899 
139.0003374459614 0.19855982703158775 
140.0003374459614 0.24161749195802334 
141.0003374459614 0.17595145810262092 
142.0003374459614 0.20300704002531242 
143.0003374459614 0.17925763328587263 
144.0003374459614 0.16153364446553808 
145.0003374459614 0.17495412118335704 
146.0003374459614 0.1527156831724936 
147.0003374459614 0.1804400674998681 
148.0003374459614 0.15605929968886798 
149.0003374459614 0.16245095712703714 
150.0003374459614 0.16525734324737618 
151.0003374459614 0.16568950060644397 
152.0003374459614 0.15120656014343692 
153.0003374459614 0.14137979222696825 
154.0003374459614 0.1404947793070719 
155.0003374459614 0.12014277804144917 
156.0003374459614 0.11380069081896328 
157.0003374459614 0.11173878078363132 
158.0003374459614 0.0999893213099195 
159.0003374459614 0.10665453778410594 
160.0003374459614 0.09550994041027276 
161.0003374459614 0.10250527342720044 
162.0003374459614 0.09538917892738495 
163.0003374459614 0.09341467594789853 
164.0003374459614 0.0964664082687339 
165.0003374459614 0.09497231450719829 
166.0003374459614 0.08793070716658762 
167.0003374459614 0.09245042978431686 
168.0003374459614 0.08818343616516373 
169.0003374459614 0.08480910193534778 
170.0003374459614 0.08235339872383067 
171.0003374459614 0.08066537467700263 
172.0003374459614 0.0776272214312082 
173.0003374459614 0.0803868058851448 
174.0003374459614 0.07583069661973312 
175.0003374459614 0.07573551125876714 
176.0003374459614 0.07542886146706751 
177.0003374459614 0.0743990929705216 
178.0003374459614 0.07772082476401414 
179.0003374459614 0.07541435954226658 
180.0003374459614 0.07751028318304068 
181.0003374459614 0.07881980699256451 
182.0003374459614 0.07866938248167488 
183.0003374459614 0.07848573537942315 
184.0003374459614 0.07471708063070194 
185.0003374459614 0.07495333016927697 
186.0003374459614 0.07438393186732062 
187.0003374459614 0.07407306333386071 
188.0003374459614 0.07167273110794706 
189.0003374459614 0.07166112956810633 
190.0003374459614 0.06366015398407428 
191.0003374459614 0.06736631862047146 
192.0003374459614 0.06461925855613568 
193.0003374459614 0.057953646574909104 
194.0003374459614 0.05718913146654013 
195.0003374459614 0.057912777514106416 
196.0003374459614 0.04912091968570376 
197.0003374459614 0.05288482834994466 
198.0003374459614 0.05116872330327479 
199.0003374459614 0.0477015767547329 
200.0003374459614 0.04474437061646368 
201.0003374459614 0.044441016716764245 
202.0003374459614 0.04158703791594159 
203.0003374459614 0.039858012972630925 
204.0003374459614 0.034082159995781236 
205.0003374459614 0.0408155355165322 
206.0003374459614 0.03240349628223385 
207.0003374459614 0.041235168485999125 
208.0003374459614 0.04072245952644635 
209.0003374459614 0.034972446342878334 
210.0003374459614 0.04395731160681326 
211.0003374459614 0.035056821178083605 
212.0003374459614 0.0376034910088066 
213.0003374459614 0.038595950007910156 
214.0003374459614 0.03181643199915624 
215.0003374459614 0.033640510467753015 
216.0003374459614 0.030655487001002044 
217.0003374459614 0.025363734641143304 
218.0003374459614 0.028086536940357683 
219.0003374459614 0.027420766756314992 
220.0003374459614 0.020001713863840153 
221.0003374459614 0.020492406264831526 
222.0003374459614 0.02271265095185362 
223.0003374459614 0.014776143015345702 
224.0003374459614 0.0185247587407056 
225.0003374459614 0.0179382218003481 
226.0003374459614 0.018089173653957746 
227.0003374459614 0.0124434424932764 
228.0003374459614 0.01585798660549496 
229.0003374459614 0.011084480303749396 
230.0003374459614 0.012460976638717529 
231.0003374459614 0.006851763961398533 
232.0003374459614 0.008423772609819113 
233.0003374459614 0.00706916099773243 
234.0003374459614 0.007738490745135257 
235.0003374459614 0.009415704266202687 
236.0003374459614 0.0070318515002900095 
237.0003374459614 0.008783552180562123 
238.0003374459614 0.007458208089437367 
239.0003374459614 0.00823867531508726 
240.0003374459614 0.007998470706111841 
241.0003374459614 0.0035291093181458273 
242.0003374459614 0.0064852607709750265 
243.0003374459614 0.0020753572746928174 
244.0003374459614 0.003965353583293801 
245.0003374459614 0.003798976955123119 
246.0003374459614 0.0015158466487370206 
247.0003374459614 0.0034838896799029634 
248.0003374459614 0.0012379370352792328 
249.0003374459614 0.003157728207562085 
250.0003374459614 0.0020207773031693456 
251.0003374459614 0.0018677160786795433 
252.0003374459614 0.002804013078099449 
253.0003374459614 0.002725702684174427 
254.0003374459614 0.0015758318831408649 
255.0003374459614 0.002548911037283121 
256.0003374459614 0.0014429415176923578 
257.0003374459614 0.0013764963349681108 
258.0003374459614 2.6578073089701145E-4 
259.0003374459614 2.1831988609397523E-4 
260.0003374459614 1.6136687233032999E-4 
261.0003374459614 1.328903654485065E-4 
262.0003374459614 1.0441385856668157E-4 
263.0003374459614 6.644518272425344E-5 
264.0003374459614 5.220692928334032E-5 
265.0003374459614 2.8476506881822275E-5 
266.0003374459614 1.4238253440911205E-5 
267.0003374459614 4.746084480303596E-6 
268.0003374459614 3.1554436208840473E-32 
269.0003374459614 3.1554436208840473E-32 
270.0003374459614 3.1554436208840473E-32 
271.0003374459614 3.1554436208840473E-32 
272.0003374459614 3.1554436208840473E-32 
273.0003374459614 3.1554436208840473E-32 
274.0003374459614 3.1554436208840473E-32 
275.0003374459614 3.1554436208840473E-32 
276.0003374459614 3.1554436208840473E-32 
277.0003374459614 3.1554436208840473E-32 
278.0003374459614 3.1554436208840473E-32 
279.0003374459614 3.1554436208840473E-32 
280.0003374459614 3.1554436208840473E-32 
281.0003374459614 3.1554436208840473E-32 
282.0003374459614 3.1554436208840473E-32 
283.0003374459614 3.1554436208840473E-32 
284.0003374459614 3.1554436208840473E-32 
285.0003374459614 3.1554436208840473E-32 
286.0003374459614 3.1554436208840473E-32 
287.0003374459614 3.1554436208840473E-32 
288.0003374459614 3.1554436208840473E-32 
289.0003374459614 3.1554436208840473E-32 
290.0003374459614 3.1554436208840473E-32 
291.0003374459614 3.1554436208840473E-32 
292.0003374459614 3.1554436208840473E-32 
293.0003374459614 3.1554436208840473E-32 
294.0003374459614 3.1554436208840473E-32 
295.0003374459614 3.1554436208840473E-32 
296.0003374459614 3.1554436208840473E-32 
297.0003374459614 3.1554436208840473E-32 
298.0003374459614 3.1554436208840473E-32 
299.0003374459614 3.1554436208840473E-32 
300.0003374459614 3.1554436208840473E-32 
301.0003374459614 3.1554436208840473E-32 
302.0003374459614 3.1554436208840473E-32 
303.0003374459614 3.1554436208840473E-32 
304.0003374459614 3.1554436208840473E-32 
305.0003374459614 3.1554436208840473E-32 
306.0003374459614 3.1554436208840473E-32 
307.0003374459614 3.1554436208840473E-32 
308.0003374459614 3.1554436208840473E-32 
309.0003374459614 3.1554436208840473E-32 
310.0003374459614 3.1554436208840473E-32 
311.0003374459614 3.1554436208840473E-32 
312.0003374459614 3.1554436208840473E-32 
313.0003374459614 3.1554436208840473E-32 
314.0003374459614 3.1554436208840473E-32 
315.0003374459614 3.1554436208840473E-32 
316.0003374459614 3.1554436208840473E-32 
317.0003374459614 3.1554436208840473E-32 
318.0003374459614 3.1554436208840473E-32 
319.0003374459614 3.1554436208840473E-32 
320.0003374459614 3.1554436208840473E-32 
321.0003374459614 3.1554436208840473E-32 
322.0003374459614 3.1554436208840473E-32 
323.0003374459614 3.1554436208840473E-32 
324.0003374459614 3.1554436208840473E-32 
325.0003374459614 3.1554436208840473E-32 
326.0003374459614 3.1554436208840473E-32 
327.0003374459614 3.1554436208840473E-32 
328.0003374459614 3.1554436208840473E-32 
329.0003374459614 3.1554436208840473E-32 
330.0003374459614 3.1554436208840473E-32 
331.0003374459614 3.1554436208840473E-32 
332.0003374459614 3.1554436208840473E-32 
333.0003374459614 3.1554436208840473E-32 
334.0003374459614 3.1554436208840473E-32 
335.0003374459614 3.1554436208840473E-32 
336.0003374459614 3.1554436208840473E-32 
337.0003374459614 3.1554436208840473E-32 
338.0003374459614 3.1554436208840473E-32 
339.0003374459614 3.1554436208840473E-32 
340.0003374459614 3.1554436208840473E-32 
341.0003374459614 3.1554436208840473E-32 
342.0003374459614 3.1554436208840473E-32 
343.0003374459614 3.1554436208840473E-32 
344.0003374459614 3.1554436208840473E-32 
345.0003374459614 3.1554436208840473E-32 
346.0003374459614 3.1554436208840473E-32 
347.0003374459614 3.1554436208840473E-32 
348.0003374459614 3.1554436208840473E-32 
349.0003374459614 3.1554436208840473E-32 
350.0003374459614 3.1554436208840473E-32 
351.0003374459614 3.1554436208840473E-32 
352.0003374459614 3.1554436208840473E-32 
353.0003374459614 3.1554436208840473E-32 
354.0003374459614 3.1554436208840473E-32 
355.0003374459614 3.1554436208840473E-32 
356.0003374459614 3.1554436208840473E-32 
357.0003374459614 3.1554436208840473E-32 
358.0003374459614 3.1554436208840473E-32 
359.0003374459614 3.1554436208840473E-32 
360.0003374459614 3.1554436208840473E-32 
361.0003374459614 3.1554436208840473E-32 
362.0003374459614 3.1554436208840473E-32 
363.0003374459614 3.1554436208840473E-32 
364.0003374459614 3.1554436208840473E-32 
365.0003374459614 3.1554436208840473E-32 
366.0003374459614 3.1554436208840473E-32 
367.0003374459614 3.1554436208840473E-32 
#####################################################################
# End of data export. Simulation finished at: 2017-05-26T08:18+0000 #
#####################################################################
