0.000000000000000000e+00 nan
1.000290349108189591e+00 1.553466712197844324e-01
2.000580698216379183e+00 9.596700902536913214e-01
3.000871047324566110e+00 9.595307666740627850e-01
4.001161396432758366e+00 9.495605954168312435e-01
5.001451745540946625e+00 9.364626950013292817e-01
6.001742094649132220e+00 9.095730912801310852e-01
7.002032443757324032e+00 8.941017960583981239e-01
8.002322792865516732e+00 8.730049529518880691e-01
9.002613141973704103e+00 8.581897719708599936e-01
1.000290349108189325e+01 8.360423982872995374e-01
1.100319384019008062e+01 8.202135128971330680e-01
1.200348418929826444e+01 8.089087401015017109e-01
1.300377453840645181e+01 7.975902211540774056e-01
1.400406488751464806e+01 7.948458206950458349e-01
1.500435523662283543e+01 7.854583063998297199e-01
1.600464558573103346e+01 7.788352392983117767e-01
1.700493593483922083e+01 7.749222074343206090e-01
1.800522628394740821e+01 7.752554579618607944e-01
1.900551663305560268e+01 7.723426786180431769e-01
2.000580698216378650e+01 7.760553150411507728e-01
2.100609733127197387e+01 7.784424647297829569e-01
2.200638768038016124e+01 7.796467221223515320e-01
2.300667802948834506e+01 7.807544614490754542e-01
2.400696837859652888e+01 7.806100485706661818e-01
2.500725872770472336e+01 7.805463681700225420e-01
2.600754907681290362e+01 7.805463681700225420e-01
2.700783942592111941e+01 7.805463681700225420e-01
2.800812977502929613e+01 7.805463681700225420e-01
2.900842012413749771e+01 7.805463681700225420e-01
3.000871047324567087e+01 7.805463681700225420e-01
3.100900082235386535e+01 7.805463681700225420e-01
