#####################################################################
# Alchemist log file - simulation started at: 2017-05-25T10:42+0000 #
#####################################################################
# random = 17.0, targets = 100.0, density = 0.894427190999916, gridShift = 0.0, perturbation = 0.5, connfactor = 1.5
#
# The columns have the following meaning: 
# time se[Mean] 
0.0 NaN 
1.0003034458253823 NaN 
2.0003034458253826 1.066430785123967 
3.0003034458253826 1.1247045569329661 
4.0003034458253826 1.2012683712121213 
5.0003034458253826 1.3950629591368229 
6.0003034458253826 1.490411753902663 
7.0003034458253826 1.8386390208907255 
8.000303445825383 1.824530176767677 
9.000303445825383 1.9878073576675852 
10.000303445825383 2.4894995351239673 
11.000303445825383 2.327009222910928 
12.000303445825383 2.64129959251607 
13.000303445825383 3.0905815197428836 
14.000303445825383 3.137808195592287 
15.000303445825383 3.143213177226814 
16.00030344582538 3.2828223312672185 
17.00030344582538 3.320593227731865 
18.00030344582538 3.6318602272727283 
19.00030344582538 3.6818087867309455 
20.00030344582538 3.758093807392102 
21.00030344582538 3.886673370064279 
22.00030344582538 4.350400103305787 
23.00030344582538 4.805307994719928 
24.00030344582538 4.598488751147844 
25.00030344582538 5.049547021349863 
26.00030344582538 5.467172015610653 
27.00030344582538 5.0878598484848485 
28.00030344582538 5.97965201446281 
29.00030344582538 6.076631663223141 
30.00030344582538 5.715185766758494 
31.00030344582538 5.9811828168044086 
32.00030344582538 5.325806548438935 
33.00030344582538 6.019315478650138 
34.00030344582538 7.138809372130396 
35.00030344582538 6.38003868801653 
36.00030344582538 6.728233126721763 
37.00030344582538 6.309802255509643 
38.00030344582538 6.467859412304867 
39.00030344582538 6.661773691460056 
40.00030344582538 6.883861340679523 
41.00030344582538 7.156049931129478 
42.00030344582538 7.796323249540864 
43.00030344582538 8.002685319100094 
44.00030344582538 9.916572084481174 
45.00030344582538 8.958126153581269 
46.00030344582538 14.729906611570247 
47.00030344582538 18.532867906336083 
48.00030344582538 15.543496200642787 
49.00030344582538 21.312317418503206 
50.00030344582538 24.76265660009182 
51.00030344582538 21.20452951675849 
52.00030344582538 30.64300008608814 
53.00030344582538 28.035964916207522 
54.00030344582538 22.48736636822773 
55.00030344582538 22.933174678604214 
56.00030344582538 13.472224839302111 
57.00030344582538 20.664483155417816 
58.00030344582538 28.41409531680438 
59.00030344582538 15.803272870752977 
60.00030344582538 18.8667424185032 
61.00030344582538 8.175665656565657 
62.00030344582538 8.177946900826447 
63.00030344582538 8.1796 
64.00030344582538 8.1796 
65.00030344582538 8.1796 
66.00030344582538 8.1796 
67.00030344582538 8.1796 
68.00030344582538 8.1796 
69.00030344582538 8.1796 
70.00030344582538 8.1796 
71.00030344582538 8.1796 
72.00030344582538 8.1796 
73.00030344582538 8.1796 
74.00030344582538 8.1796 
75.00030344582538 8.1796 
76.00030344582538 8.1796 
77.00030344582538 8.1796 
78.00030344582538 8.1796 
79.00030344582538 8.1796 
80.00030344582538 8.1796 
81.00030344582538 8.1796 
82.00030344582538 8.1796 
83.00030344582538 8.1796 
84.00030344582538 8.1796 
85.00030344582538 8.1796 
#####################################################################
# End of data export. Simulation finished at: 2017-05-25T10:42+0000 #
#####################################################################
