0.000000000000000000e+00 nan
1.000002920330399059e+00 1.045855998709274010e-01
2.000005840660798118e+00 9.716884363633743193e-01
3.000008760991199619e+00 9.824734134749502079e-01
4.000011681321596235e+00 9.957571387118975270e-01
5.000014601651997737e+00 1.011011000277840077e+00
6.000017521982399238e+00 1.007113359481963011e+00
7.000020442312799851e+00 1.027646392128954922e+00
8.000023362643192471e+00 1.027478679127370231e+00
9.000026282973598413e+00 1.034502693125331607e+00
1.000002920330399547e+01 1.021383437413372786e+00
1.100003212363439076e+01 1.020779360834786820e+00
1.200003504396479848e+01 1.012107903560185429e+00
1.300003796429519021e+01 1.007862911001567996e+00
1.400004088462559970e+01 1.010375079810104104e+00
1.500004380495599499e+01 1.009056783006073266e+00
1.600004672528638494e+01 1.012939736915565270e+00
1.700004964561679444e+01 1.018825702998003679e+00
1.800005256594719683e+01 1.024046875303377568e+00
1.900005548627758856e+01 1.028979628315164430e+00
2.000005840660799095e+01 1.032360367376434773e+00
2.100006132693839334e+01 1.034752066579713192e+00
2.200006424726878151e+01 1.027906026144759677e+00
2.300006716759918746e+01 1.030913526338806285e+00
2.400007008792959695e+01 1.027921563787069337e+00
2.500007300825997447e+01 1.029589735007132356e+00
2.600007592859038041e+01 1.023299839111133647e+00
2.700007884892078991e+01 1.024070448631424712e+00
2.800008176925119940e+01 1.017598760496412957e+00
2.900008468958158403e+01 1.016405583529257139e+00
3.000008760991198997e+01 1.003906908366029471e+00
3.100009053024238170e+01 1.003393133954065597e+00
3.200009345057276988e+01 9.947792391746584917e-01
3.300009637090318648e+01 9.897390428465069334e-01
3.400009929123358887e+01 9.864725633890869538e-01
3.500010221156400547e+01 9.780223803128719195e-01
3.600010513189439365e+01 9.738563520809808693e-01
3.700010805222476051e+01 9.662172734375715777e-01
3.800011097255517711e+01 9.618313325211874654e-01
3.900011389288557240e+01 9.556519098671685253e-01
4.000011681321598189e+01 9.455391148980918370e-01
4.100011973354639139e+01 9.404529793197863308e-01
4.200012265387678667e+01 9.310536874715759081e-01
4.300012557420720327e+01 9.214719290493913473e-01
4.400012849453756303e+01 9.156797683870803173e-01
4.500013141486795831e+01 9.045191292701264540e-01
4.600013433519837491e+01 9.030940052866742729e-01
4.700013725552877730e+01 8.974144625014744969e-01
4.800014017585919390e+01 8.941654855858622852e-01
4.900014309618958919e+01 8.897874806747299026e-01
5.000014601651994894e+01 8.865642096579807729e-01
5.100014893685035844e+01 8.809289280449988935e-01
5.200015185718076083e+01 8.788122460653173817e-01
5.300015477751117032e+01 8.767067451277505974e-01
5.400015769784157982e+01 8.736149689992562806e-01
5.500016061817199642e+01 8.715520601466741901e-01
5.600016353850239881e+01 8.665083717533800245e-01
5.700016645883276567e+01 8.654496388964229014e-01
5.800016937916316806e+01 8.619883708703938163e-01
5.900017229949358466e+01 8.573361287477564430e-01
6.000017521982397994e+01 8.528066900222753821e-01
6.100017814015436102e+01 8.498932719890800458e-01
6.200018106048476341e+01 8.464056039423987210e-01
6.300018398081513027e+01 8.392193719371877636e-01
6.400018690114553976e+01 8.316353688797391008e-01
6.500018982147595636e+01 8.208888726758097887e-01
6.600019274180637296e+01 8.149796405307619951e-01
6.700019566213676114e+01 8.029425808241703599e-01
6.800019858246717774e+01 7.905533531203613462e-01
6.900020150279759434e+01 7.802062856907944211e-01
7.000020442312801094e+01 7.715428427181670878e-01
7.100020734345838491e+01 7.656423770338698365e-01
7.200021026378878730e+01 7.633108177503307168e-01
7.300021318411918969e+01 7.628126446214911205e-01
7.400021610444952103e+01 7.615908006725102819e-01
7.500021902477993763e+01 7.540043399978316740e-01
7.600022194511035423e+01 7.546865832825805365e-01
7.700022486544072819e+01 7.539417148438068983e-01
7.800022778577114480e+01 7.510141595055010999e-01
7.900023070610156140e+01 7.490943169932403611e-01
8.000023362643196378e+01 7.392709977393336906e-01
8.100023654676236617e+01 7.460658030235657323e-01
8.200023946709278277e+01 7.395276756982838151e-01
8.300024238742319938e+01 7.487088878136124448e-01
8.400024530775357334e+01 7.458906958918373187e-01
8.500024822808398994e+01 7.413598833520986808e-01
8.600025114841440654e+01 7.341874027713771733e-01
8.700025406874470946e+01 7.184180673846024545e-01
8.800025698907512606e+01 7.143716169604292787e-01
8.900025990940554266e+01 7.192805398442373432e-01
9.000026282973591663e+01 7.071885473314289960e-01
9.100026575006633323e+01 7.083104948899717757e-01
9.200026867039674983e+01 7.145042112156894110e-01
9.300027159072715222e+01 7.152209013392851755e-01
9.400027451105755461e+01 7.174259846767477855e-01
9.500027743138797121e+01 7.197991349730021859e-01
9.600028035171838781e+01 7.196459086877742273e-01
9.700028327204877598e+01 7.209528973466868829e-01
9.800028619237917837e+01 7.013136623779495649e-01
9.900028911270959497e+01 7.083104064829357505e-01
1.000002920330398979e+02 6.816286500970490936e-01
1.010002949533703145e+02 6.855390277305182245e-01
1.020002978737007169e+02 6.735152068611385268e-01
1.030003007940311335e+02 6.602514428266590407e-01
1.040003037143615217e+02 6.548429758160533298e-01
1.050003066346919667e+02 6.532042593775879702e-01
1.060003095550223406e+02 6.459822896630379452e-01
1.070003124753527146e+02 6.208609533849197559e-01
1.080003153956831596e+02 6.242185691253822055e-01
1.090003183160135478e+02 6.103481426081884820e-01
1.100003212363439928e+02 5.914774333650851812e-01
1.110003241566743384e+02 5.914050570464500778e-01
1.120003270770047976e+02 5.778709105618474728e-01
1.130003299973350863e+02 5.755250761012565830e-01
1.140003329176655313e+02 5.663542426659963214e-01
1.150003358379959053e+02 5.619325587398806832e-01
1.160003387583263361e+02 5.677604425478690597e-01
1.170003416786567101e+02 5.576924731143549918e-01
1.180003445989871693e+02 5.609876995890593632e-01
1.190003475193175433e+02 5.762389393366279533e-01
1.200003504396479599e+02 5.676570990316143206e-01
1.210003533599783481e+02 5.918473492187389384e-01
1.220003562803087220e+02 5.894914391898326000e-01
1.230003592006391813e+02 6.046157355448578130e-01
1.240003621209695268e+02 6.108783882182152736e-01
1.250003650412999860e+02 6.152967775657872673e-01
1.260003679616302605e+02 6.135018725721049782e-01
1.270003708819607340e+02 5.873617463810283379e-01
1.280003738022910795e+02 6.062676210241594310e-01
1.290003767226215530e+02 5.888324118098080540e-01
1.300003796429519127e+02 5.559274721080118553e-01
1.310003825632823862e+02 5.749207876542228313e-01
1.320003854836127459e+02 5.476747762321946267e-01
1.330003884039431910e+02 5.416852274786494448e-01
1.340003913242735223e+02 5.349281926388753661e-01
1.350003942446038820e+02 5.265945505136291338e-01
1.360003971649343555e+02 5.302721267860173171e-01
1.370004000852647152e+02 5.003286130077913008e-01
1.380004030055951887e+02 4.938329987447154235e-01
1.390004059259254348e+02 4.751403876073252985e-01
1.400004088462560219e+02 4.659582521259892363e-01
1.410004117665862680e+02 4.238836378963430906e-01
1.420004146869167698e+02 4.116459467714584375e-01
1.430004176072471012e+02 3.981017562703197954e-01
1.440004205275775746e+02 3.735498535703554168e-01
1.450004234479079344e+02 3.714968095890806565e-01
1.460004263682383794e+02 3.495672196383221575e-01
1.470004292885687391e+02 3.318937329726459051e-01
1.480004322088990421e+02 3.359048022739822836e-01
1.490004351292295439e+02 3.591319429104651295e-01
1.500004380495598753e+02 3.350547094742086229e-01
1.510004409698903771e+02 4.380581657409875485e-01
1.520004438902207085e+02 3.823073493051702965e-01
1.530004468105512103e+02 4.339522440833608607e-01
1.540004497308814564e+02 5.226445340592272837e-01
1.550004526512119583e+02 4.017433339304259943e-01
1.560004555715422896e+02 5.115207206146931140e-01
1.570004584918727915e+02 4.977968233884469962e-01
1.580004614122031228e+02 4.986756810362761860e-01
1.590004643325336247e+02 5.673994043008524502e-01
1.600004672528639276e+02 4.566515865223472193e-01
1.610004701731942305e+02 4.791135431125305155e-01
1.620004730935247323e+02 5.433798528420639151e-01
1.630004760138550637e+02 3.725060454727531778e-01
1.640004789341855655e+02 4.892396024110720054e-01
1.650004818545158969e+02 5.062456882938755065e-01
1.660004847748463988e+02 5.551429183669290834e-01
1.670004876951766448e+02 5.115849500688389728e-01
1.680004906155071467e+02 5.785441087696469031e-01
1.690004935358374780e+02 4.466888714445696462e-01
1.700004964561679799e+02 5.378357268205694597e-01
1.710004993764983112e+02 4.925996077305674903e-01
1.720005022968288131e+02 3.782065201072735139e-01
1.730005052171591160e+02 4.635477764334856032e-01
1.740005081374894189e+02 4.409461718284626297e-01
1.750005110578199208e+02 3.378704245249686267e-01
1.760005139781502521e+02 4.340156427888073321e-01
1.770005168984807540e+02 4.063448017419046265e-01
1.780005198188110853e+02 4.256306361261895099e-01
1.790005227391415872e+02 3.644967433523572109e-01
1.800005256594718333e+02 3.703817929533819719e-01
1.810005285798023351e+02 3.050388360231047202e-01
1.820005315001326665e+02 2.287055509720533897e-01
1.830005344204631683e+02 2.774298549342569808e-01
1.840005373407934997e+02 2.771667121997581362e-01
1.850005402611240015e+02 2.192153688056107663e-01
1.860005431814543044e+02 2.387763928344762698e-01
1.870005461017846073e+02 2.439816275545367563e-01
1.880005490221151092e+02 1.729332647726168626e-01
1.890005519424454405e+02 2.462847453715980295e-01
1.900005548627759424e+02 2.463113479520690763e-01
1.910005577831062453e+02 2.093534258820368699e-01
1.920005607034367756e+02 2.201093866823452261e-01
1.930005636237670217e+02 2.587583714191952766e-01
1.940005665440975520e+02 1.545406106500155641e-01
1.950005694644278549e+02 2.623587070420601575e-01
1.960005723847583567e+02 9.589722528206684471e-02
1.970005753050886881e+02 1.635591271987336948e-01
1.980005782254191899e+02 1.380877706080876066e-01
1.990005811457494929e+02 1.548884809949393204e-01
2.000005840660797958e+02 1.288263294240749035e-01
2.010005869864102976e+02 1.315637308685453366e-01
2.020005899067406290e+02 1.262256518813673345e-01
2.030005928270711308e+02 9.238204965364270327e-02
2.040005957474014338e+02 1.113565324998828238e-01
2.050005986677319072e+02 7.619717181676553819e-02
2.060006015880622670e+02 9.948649220966999940e-02
2.070006045083927404e+02 9.028345782089036708e-02
2.080006074287230433e+02 9.257482388452865918e-02
2.090006103490535452e+02 6.076896471679979483e-02
2.100006132693839334e+02 7.961377235634181648e-02
2.110006161897144068e+02 6.084584142749558527e-02
2.120006191100446813e+02 7.566579586664469448e-02
2.130006220303749842e+02 5.496162929090661620e-02
2.140006249507054292e+02 6.001606800103467115e-02
2.150006278710358174e+02 5.646167765138152689e-02
2.160006307913663193e+02 5.526270590630234097e-02
2.170006337116966222e+02 4.642727984815280678e-02
2.180006366320270956e+02 6.249203440222333289e-02
2.190006395523574554e+02 6.226992763841205508e-02
2.200006424726879857e+02 4.572533582451276946e-02
2.210006453930182317e+02 4.552781887681261325e-02
2.220006483133486768e+02 3.720227446965393425e-02
2.230006512336791218e+02 4.516840492819739622e-02
2.240006541540095952e+02 3.683172070877339249e-02
2.250006570743398981e+02 3.668039898111178504e-02
2.260006599946701726e+02 3.654164714697898803e-02
2.270006629150006177e+02 3.644133192114890757e-02
2.280006658353310627e+02 3.634069603546576099e-02
2.290006687556615077e+02 3.624892302423433216e-02
2.300006716759918106e+02 3.613665282124683270e-02
2.310006745963222556e+02 3.606280978159127210e-02
2.320006775166526722e+02 3.599729449938655207e-02
2.330006804369831741e+02 3.593062991109624571e-02
2.340006833573134202e+02 3.588356833475728896e-02
2.350006862776438652e+02 3.584163219486993790e-02
2.360006891979743386e+02 3.580047527558447712e-02
2.370006921183047837e+02 3.577322955214476408e-02
2.380006950386350866e+02 3.574116703382209520e-02
2.390006979589653326e+02 3.571689170982766948e-02
2.400007008792959198e+02 3.570013688476434549e-02
2.410007037996262795e+02 3.568139701611831860e-02
2.420007067199566961e+02 3.566948793154866432e-02
2.430007096402869990e+02 3.565991535575351035e-02
2.440007125606174441e+02 3.565180430421509977e-02
2.450007154809479175e+02 3.564603829529991441e-02
2.460007184012783625e+02 3.564311390916275607e-02
2.470007213216086086e+02 3.563812037846142422e-02
2.480007242419390536e+02 3.563596847053812633e-02
2.490007271622695271e+02 3.563330157713891222e-02
2.500007300825999721e+02 3.563158189133238535e-02
2.510007330029302750e+02 3.563106690585647607e-02
2.520007359232605211e+02 3.562977944216671328e-02
2.530007388435911935e+02 3.562926445669081094e-02
2.540007417639214680e+02 3.562874947121490860e-02
2.550007446842518846e+02 3.562849197847695742e-02
2.560007476045821591e+02 3.562849197847695742e-02
2.570007505249125757e+02 3.562849197847695742e-02
2.580007534452431059e+02 3.562849197847695742e-02
2.590007563655735225e+02 3.562849197847695742e-02
2.600007592859038255e+02 3.562849197847695742e-02
2.610007622062341852e+02 3.562849197847695742e-02
2.620007651265647723e+02 3.562849197847695742e-02
2.630007680468951889e+02 3.562849197847695742e-02
2.640007709672254919e+02 3.562849197847695742e-02
2.650007738875556811e+02 3.562849197847695742e-02
2.660007768078863819e+02 3.562849197847695742e-02
2.670007797282168553e+02 3.562849197847695742e-02
2.680007826485470446e+02 3.562849197847695742e-02
2.690007855688773475e+02 3.562849197847695742e-02
2.700007884892077641e+02 3.562849197847695742e-02
2.710007914095382944e+02 3.562849197847695742e-02
2.720007943298687110e+02 3.562849197847695742e-02
2.730007972501990139e+02 3.562849197847695742e-02
2.740008001705294305e+02 3.562849197847695742e-02
2.750008030908599608e+02 3.562849197847695742e-02
2.760008060111903774e+02 3.562849197847695742e-02
2.770008089315206803e+02 3.562849197847695742e-02
2.780008118518508695e+02 3.562849197847695742e-02
2.790008147721815703e+02 3.562849197847695742e-02
2.800008176925120438e+02 3.562849197847695742e-02
2.810008206128422330e+02 3.562849197847695742e-02
2.820008235331725359e+02 3.562849197847695742e-02
2.830008264535029525e+02 3.562849197847695742e-02
2.840008293738335396e+02 3.562849197847695742e-02
2.850008322941638994e+02 3.562849197847695742e-02
2.860008352144942023e+02 3.562849197847695742e-02
2.870008381348246189e+02 3.562849197847695742e-02
2.880008410551551492e+02 3.562849197847695742e-02
2.890008439754855658e+02 3.562849197847695742e-02
2.900008468958158687e+02 3.562849197847695742e-02
2.910008498161460579e+02 3.562849197847695742e-02
2.920008527364767588e+02 3.562849197847695742e-02
2.930008556568072322e+02 3.562849197847695742e-02
2.940008585771374783e+02 3.562849197847695742e-02
2.950008614974677243e+02 3.562849197847695742e-02
2.960008644177980841e+02 3.562849197847695742e-02
2.970008673381287281e+02 3.562849197847695742e-02
2.980008702584590878e+02 3.562849197847695742e-02
2.990008731787893907e+02 3.562849197847695742e-02
3.000008760991197505e+02 3.562849197847695742e-02
3.010008790194503945e+02 3.562849197847695742e-02
3.020008819397807542e+02 3.562849197847695742e-02
3.030008848601110572e+02 3.562849197847695742e-02
3.040008877804414169e+02 3.562849197847695742e-02
3.050008907007719472e+02 3.562849197847695742e-02
3.060008936211024206e+02 3.562849197847695742e-02
3.070008965414326667e+02 3.562849197847695742e-02
3.080008994617629128e+02 3.562849197847695742e-02
3.090009023820932725e+02 3.562849197847695742e-02
3.100009053024239165e+02 3.562849197847695742e-02
3.110009082227542763e+02 3.562849197847695742e-02
3.120009111430845792e+02 3.562849197847695742e-02
3.130009140634149389e+02 3.562849197847695742e-02
3.140009169837455829e+02 3.562849197847695742e-02
3.150009199040759427e+02 3.562849197847695742e-02
3.160009228244062456e+02 3.562849197847695742e-02
3.170009257447366053e+02 3.562849197847695742e-02
3.180009286650672493e+02 3.562849197847695742e-02
3.190009315853976091e+02 3.562849197847695742e-02
3.200009345057278551e+02 3.562849197847695742e-02
3.210009374260581012e+02 3.562849197847695742e-02
3.220009403463884610e+02 3.562849197847695742e-02
3.230009432667191049e+02 3.562849197847695742e-02
3.240009461870494647e+02 3.562849197847695742e-02
3.250009491073797676e+02 3.562849197847695742e-02
3.260009520277101274e+02 3.562849197847695742e-02
3.270009549480407713e+02 3.562849197847695742e-02
3.280009578683711311e+02 3.562849197847695742e-02
3.290009607887014340e+02 3.562849197847695742e-02
3.300009637090317938e+02 3.562849197847695742e-02
3.310009666293624377e+02 3.562849197847695742e-02
3.320009695496927975e+02 3.562849197847695742e-02
3.330009724700230436e+02 3.562849197847695742e-02
3.340009753903532896e+02 3.562849197847695742e-02
3.350009783106836494e+02 3.562849197847695742e-02
3.360009812310142934e+02 3.562849197847695742e-02
3.370009841513446531e+02 3.562849197847695742e-02
