#####################################################################
# Alchemist log file - simulation started at: 2017-05-19T20:26+0000 #
#####################################################################
# random = 0.0, targets = 3.1622776601683795, density = 5.0264212595847235, gridShift = 1.0, perturbation = 0.5, connfactor = 1.0
#
# The columns have the following meaning: 
# time se[Mean] 
0.0 NaN 
1.0011337332612453 NaN 
2.0011337332612453 1.0 
3.0011337332612453 0.99733366368203 
4.001133733261245 0.9894675639965054 
5.001133733261245 0.9872111992433366 
6.001133733261245 0.9904291024580438 
7.001133733261245 0.9939276487436995 
8.001133733261245 1.009261641951983 
9.001133733261245 1.0110789009789365 
10.001133733261245 1.0071545388835872 
11.001133733261245 0.9965234397975874 
12.001133733261245 0.9941459210748982 
13.001133733261245 0.9853070358004657 
14.001133733261245 0.9762054012245766 
15.001133733261245 0.966966260262779 
16.001133733261245 0.947202353018047 
17.001133733261245 0.9435550599545603 
18.001133733261245 0.9182555471838106 
19.001133733261245 0.8964535677234488 
20.001133733261245 0.876291945648829 
21.001133733261245 0.8485070837796257 
22.001133733261245 0.8291664279130457 
23.001133733261245 0.806574669298381 
24.001133733261245 0.78828037984287 
25.001133733261245 0.7783813199661818 
26.001133733261245 0.7641729447029408 
27.001133733261245 0.7616349272712799 
28.001133733261245 0.7549598720349675 
29.001133733261245 0.7503822376668494 
30.001133733261245 0.7429961028583077 
31.001133733261245 0.7354515424394572 
32.00113373326124 0.7348938438075401 
33.00113373326124 0.7340472871676603 
34.00113373326124 0.7359601669835932 
35.00113373326124 0.7223892231159526 
36.00113373326124 0.7201011530343809 
37.00113373326124 0.7080622616824561 
38.00113373326124 0.705449078295125 
39.00113373326124 0.6882339308056517 
40.00113373326124 0.6773497982956312 
41.00113373326124 0.6607536869962168 
42.00113373326124 0.6425248610898334 
43.00113373326124 0.6320875040265889 
44.00113373326124 0.6204938467683357 
45.00113373326124 0.6091051752924838 
46.00113373326124 0.5939460106267488 
47.00113373326124 0.5839334462947587 
48.00113373326124 0.5646827640794103 
49.00113373326124 0.5548312234665049 
50.00113373326124 0.5476511311960366 
51.00113373326124 0.5375235513651537 
52.00113373326124 0.5243932747831727 
53.00113373326124 0.5212663615626858 
54.00113373326124 0.5101097672414975 
55.00113373326124 0.508367650596148 
56.00113373326124 0.4997030789573228 
57.00113373326124 0.48850814613650184 
58.00113373326124 0.48468959856955157 
59.00113373326124 0.48151361126128417 
60.00113373326124 0.4769543586278129 
61.00113373326124 0.4716313985015854 
62.00113373326124 0.4728014967846099 
63.00113373326124 0.46778831389074543 
64.00113373326124 0.46575942243926843 
65.00113373326124 0.46613974156799004 
66.00113373326124 0.4643920013589571 
67.00113373326124 0.4605432965521554 
68.00113373326124 0.4591677009475113 
69.00113373326124 0.46027543522623293 
70.00113373326124 0.46000962005718626 
71.00113373326124 0.46201959466073333 
72.00113373326124 0.46006329463021445 
73.00113373326124 0.46304093943048025 
74.00113373326124 0.4594232920676267 
75.00113373326124 0.46020795919746427 
76.00113373326124 0.45580513316555427 
77.00113373326124 0.45608066084431337 
78.00113373326124 0.4508359157027286 
79.00113373326124 0.4561675618925071 
80.00113373326124 0.4523168142965534 
81.00113373326124 0.45115438236636574 
82.00113373326124 0.45199681301525946 
83.00113373326124 0.4487870910603313 
84.00113373326124 0.44554618541939 
85.00113373326124 0.45041316576062485 
86.00113373326124 0.4449797939884743 
87.00113373326124 0.4456325749283648 
88.00113373326124 0.44595257620965867 
89.00113373326124 0.44080955665044563 
90.00113373326124 0.44150629965365173 
91.00113373326124 0.4430761454525459 
92.00113373326124 0.4356077504937386 
93.00113373326124 0.44201339294785447 
94.00113373326124 0.43685708347211993 
95.00113373326124 0.4337761784718256 
96.00113373326124 0.43108837434527836 
97.00113373326124 0.46259576595583013 
98.00113373326124 0.48840194467464987 
99.00113373326124 0.5842143688867517 
100.00113373326124 0.5403802779365396 
101.00113373326124 0.6684479704779527 
102.00113373326124 0.6672017336766716 
103.00113373326124 0.7538353213035112 
104.00113373326124 0.6220380755483459 
105.00113373326124 0.6902276038634044 
106.00113373326124 0.6952704627674133 
107.00113373326124 0.7917633045081205 
108.00113373326124 0.7968358326868276 
109.00113373326124 1.0088027990722923 
110.00113373326124 0.898845403518308 
111.00113373326124 0.9592168764217383 
112.00113373326124 1.0814591564406484 
113.00113373326124 1.0508407219738476 
114.00113373326124 1.1992842536522843 
115.00113373326124 1.1898473423407243 
116.00113373326124 1.0984960427928707 
117.00113373326124 1.276050039178363 
118.00113373326124 1.2467260002893368 
119.00113373326124 1.4894580276726404 
120.00113373326124 1.8869580257939071 
121.00113373326124 2.3953712164966836 
122.00113373326124 2.0090376834893275 
123.00113373326124 3.2380074045437293 
124.00113373326124 2.792805300148622 
125.00113373326124 3.7195195683934243 
126.00113373326124 2.6683228128197167 
127.00113373326124 3.352298380097304 
128.00113373326124 3.2449582770830174 
129.00113373326124 3.7970006605144184 
130.00113373326124 3.5124368841088485 
131.00113373326124 4.497970023611801 
132.00113373326124 3.3071011186635313 
133.00113373326124 3.7490060986194647 
134.00113373326124 3.833525340803483 
135.00113373326124 3.2867165900952324 
136.00113373326124 4.74194327680362 
137.00113373326124 4.721481058260791 
138.00113373326124 3.708499302819169 
139.00113373326124 4.944120379919645 
140.00113373326124 4.301961858368193 
141.00113373326124 4.248582275083075 
142.00113373326124 4.988427677969844 
143.00113373326124 4.464560336225907 
144.00113373326124 4.519280037052502 
145.00113373326124 5.513241063818914 
146.00113373326124 3.567625645838105 
147.00113373326124 5.268895225205684 
148.00113373326124 5.204979716071057 
149.00113373326124 5.774029605849467 
150.00113373326124 4.276283658395623 
151.00113373326124 5.6610715226563135 
152.00113373326124 4.761475180628854 
153.00113373326124 3.7064490307651874 
154.00113373326124 3.233636812218061 
155.00113373326124 2.7683870478592785 
156.00113373326124 2.3430991758847948 
157.00113373326124 1.9161601940977995 
158.00113373326124 2.340504926184017 
159.00113373326124 2.127427762119989 
160.00113373326124 1.2773197599903328 
161.00113373326124 1.701516253470205 
162.00113373326124 1.0648856643564872 
163.00113373326124 0.4277183362479283 
164.00113373326124 0.6396059770095033 
165.00113373326124 0.42757111398458403 
166.00113373326124 0.003050530277391425 
167.00113373326124 0.0028026088778364015 
168.00113373326124 0.0028665041320726533 
169.00113373326124 0.002782668951469034 
170.00113373326124 0.0026635645065477788 
171.00113373326124 0.002677365962288171 
172.00113373326124 0.0026620298888910356 
173.00113373326124 0.0026334038989724207 
174.00113373326124 0.0026334038989724207 
175.00113373326124 0.0026334038989724207 
176.00113373326124 0.0026334038989724207 
177.00113373326124 0.0026334038989724207 
178.00113373326124 0.0026334038989724207 
179.00113373326124 0.0026334038989724207 
180.00113373326124 0.0026334038989724207 
181.00113373326124 0.0026334038989724207 
182.00113373326124 0.0026334038989724207 
183.00113373326124 0.0026334038989724207 
184.00113373326124 0.0026334038989724207 
185.00113373326124 0.0026334038989724207 
186.00113373326124 0.0026334038989724207 
187.00113373326124 0.0026334038989724207 
188.00113373326124 0.0026334038989724207 
189.00113373326124 0.0026334038989724207 
190.00113373326124 0.0026334038989724207 
191.00113373326124 0.0026334038989724207 
192.00113373326124 0.0026334038989724207 
193.00113373326124 0.0026334038989724207 
194.00113373326124 0.0026334038989724207 
195.00113373326124 0.0026334038989724207 
196.00113373326124 0.0026334038989724207 
197.00113373326124 0.0026334038989724207 
198.00113373326124 0.0026334038989724207 
199.00113373326124 0.0026334038989724207 
200.00113373326124 0.0026334038989724207 
201.00113373326124 0.0026334038989724207 
202.00113373326124 0.0026334038989724207 
203.00113373326124 0.0026334038989724207 
204.00113373326124 0.0026334038989724207 
205.00113373326124 0.0026334038989724207 
206.00113373326124 0.0026334038989724207 
207.00113373326124 0.0026334038989724207 
208.00113373326124 0.0026334038989724207 
209.00113373326124 0.0026334038989724207 
210.00113373326124 0.0026334038989724207 
211.00113373326124 0.0026334038989724207 
212.00113373326124 0.0026334038989724207 
213.00113373326124 0.0026334038989724207 
214.00113373326124 0.0026334038989724207 
215.00113373326124 0.0026334038989724207 
216.00113373326124 0.0026334038989724207 
217.00113373326124 0.0026334038989724207 
218.00113373326124 0.0026334038989724207 
219.00113373326124 0.0026334038989724207 
#####################################################################
# End of data export. Simulation finished at: 2017-05-19T20:29+0000 #
#####################################################################
