#####################################################################
# Alchemist log file - simulation started at: 2017-05-20T05:26+0000 #
#####################################################################
# random = 0.0, targets = 100.0, density = 0.07978946395100113, gridShift = 1.0, perturbation = 0.0, connfactor = 1.0
#
# The columns have the following meaning: 
# time se[Mean] 
0.0 NaN 
1.0011337332612453 NaN 
2.0011337332612453 0.98618125 
3.0011337332612453 1.0357859722222222 
4.001133733261245 1.0461481944444444 
5.001133733261245 1.1628627777777776 
6.001133733261245 1.061642222222222 
7.001133733261245 0.9354744444444443 
8.001133733261245 0.617885 
9.001133733261245 0.40778277777777794 
10.001133733261245 0.23607361111111133 
11.001133733261245 0.13063152777777795 
12.001133733261245 0.10151444444444463 
13.001133733261245 0.0915558333333335 
14.001133733261245 0.08743986111111128 
15.001133733261245 0.08988013888888906 
16.001133733261245 0.08680041666666684 
17.001133733261245 0.08353000000000017 
18.001133733261245 0.08410000000000017 
19.001133733261245 0.08410000000000017 
20.001133733261245 0.08410000000000017 
21.001133733261245 0.08410000000000017 
22.001133733261245 0.08410000000000017 
23.001133733261245 0.08410000000000017 
24.001133733261245 0.08410000000000017 
#####################################################################
# End of data export. Simulation finished at: 2017-05-20T05:26+0000 #
#####################################################################
