#####################################################################
# Alchemist log file - simulation started at: 2017-05-25T09:40+0000 #
#####################################################################
# random = 8.0, targets = 1.0, density = 20.0, gridShift = 0.0, perturbation = 0.5, connfactor = 1.0
#
# The columns have the following meaning: 
# time se[Mean] 
0.0 NaN 
1.0009270308328329 NaN 
2.000927030832833 1.0 
3.000927030832833 0.9997932419659735 
4.000927030832833 0.999333779668137 
5.000927030832833 0.9983623450955681 
6.000927030832833 0.9954907057340894 
7.000927030832833 0.9929275624868723 
8.000927030832834 0.9944011237135054 
9.000927030832834 0.9922580602814535 
10.000927030832834 0.9925173282923755 
11.000927030832834 0.990994538962403 
12.000927030832834 0.9885265700483092 
13.000927030832834 0.9863211510186939 
14.000927030832834 0.9843388993908843 
15.000927030832834 0.9797180214240708 
16.000927030832834 0.9767544896030248 
17.000927030832834 0.9733643142197019 
18.000927030832834 0.9687500000000002 
19.000927030832834 0.9686909262759923 
20.000927030832834 0.9682183364839321 
21.000927030832834 0.9681920814954843 
22.000927030832834 0.9700168031926062 
23.000927030832834 0.9762654904431847 
24.000927030832834 0.9781328764965339 
25.000927030832834 0.9871120825456837 
26.000927030832834 0.9941878019323671 
27.000927030832834 1.0027042638101238 
28.000927030832834 1.013862633900441 
29.000927030832834 1.0178533921445072 
30.000927030832834 1.0253590369670238 
31.000927030832834 1.0305673703003575 
32.000927030832834 1.0351948120142827 
33.000927030832834 1.0373444391934465 
34.000927030832834 1.0384373030875869 
35.000927030832834 1.0418832703213614 
36.000927030832834 1.0428382955261506 
37.000927030832834 1.0456016330602809 
38.000927030832834 1.047137549884478 
39.000927030832834 1.0469668924595668 
40.000927030832834 1.0479908370090307 
41.000927030832834 1.0471375498844777 
42.000927030832834 1.0473082073093891 
43.000927030832834 1.0476495221592108 
44.000927030832834 1.0478201795841195 
45.000927030832834 1.048673466708675 
46.000927030832834 1.0480925750892671 
47.000927030832834 1.0482632325141785 
48.000927030832834 1.0474788647342999 
49.000927030832834 1.0486045473640004 
50.000927030832834 1.046829053770215 
51.000927030832834 1.0468979731148926 
52.000927030832834 1.0462153434152484 
53.000927030832834 1.046418819575718 
54.000927030832834 1.0453948750262543 
55.000927030832834 1.0442002730518796 
56.000927030832834 1.0428350136525941 
57.000927030832834 1.0409577819785751 
58.000927030832834 1.0390805503045581 
59.000927030832834 1.0373739760554506 
60.000927030832834 1.0353260869565208 
61.000927030832834 1.0337901701323258 
62.000927030832834 1.0312303087586636 
63.000927030832834 1.029182419659736 
64.00092703083283 1.0273051879857165 
65.00092703083283 1.025427956311699 
66.00092703083283 1.0232881747532034 
67.00092703083283 1.0219655797101443 
68.00092703083283 1.0196059126233983 
69.00092703083283 1.0170919974795218 
70.00092703083283 1.3890529825666913 
71.00092703083283 1.7549818840579543 
72.00092703083283 2.4970791325351707 
73.00092703083283 4.354800068262961 
74.00092703083283 3.9756484982146905 
75.00092703083283 5.828384268010989 
76.00092703083283 7.312312933207312 
77.00092703083283 8.793553743961303 
78.00092703083283 8.40639112056284 
79.00092703083283 11.757216839949699 
80.00092703083283 12.876358695652264 
81.00092703083283 12.14038214135684 
82.00092703083283 14.399315401176242 
83.00092703083283 16.64124527410198 
84.00092703083283 16.6571196964923 
85.00092703083283 14.096277042638226 
86.00092703083283 15.976564140936782 
87.00092703083283 16.35913214135682 
88.00092703083283 20.12423532346149 
89.00092703083283 15.323018404746838 
90.00092703083283 20.522310176433525 
91.00092703083283 18.30742622348251 
92.00092703083283 19.465927588741938 
93.00092703083283 19.107543714555817 
94.00092703083283 20.516038516068058 
95.00092703083283 17.523908448855234 
96.00092703083283 24.982953948750332 
97.00092703083283 19.437962744171358 
98.00092703083283 23.848850031505897 
99.00092703083283 19.387096985927354 
100.00092703083283 23.112994906532165 
101.00092703083283 22.335522342995077 
102.00092703083283 24.171874999999982 
103.00092703083283 24.16978444654472 
104.00092703083283 24.123158868935043 
105.00092703083283 17.48286862003774 
106.00092703083283 20.815919712245307 
107.00092703083283 18.186955208989723 
108.00092703083283 15.918606253938238 
109.00092703083283 17.021591446124734 
110.00092703083283 12.573481148918253 
111.00092703083283 14.824508375341262 
112.00092703083283 8.121068315479922 
113.00092703083283 9.956137759924374 
114.00092703083283 9.44926551669815 
115.00092703083283 7.543255093467754 
116.00092703083283 7.160293268221061 
117.00092703083283 7.8322207781978905 
118.00092703083283 4.830737371350572 
119.00092703083283 5.150355755093434 
120.00092703083283 6.98398445704677 
121.00092703083283 5.786235165931612 
122.00092703083283 5.379827636000823 
123.00092703083283 5.398035470489437 
124.00092703083283 3.846949826717043 
125.00092703083283 4.570458543373271 
126.00092703083283 4.193594439193426 
127.00092703083283 2.283498083385807 
128.00092703083283 0.7240863264020159 
129.00092703083283 0.7408960827557145 
130.00092703083283 0.3585381222432239 
131.00092703083283 0.28830274627178976 
132.00092703083283 0.2709678901491293 
133.00092703083283 0.24175593362738995 
134.00092703083283 0.20313484562066836 
135.00092703083283 0.17578371140517104 
136.00092703083283 0.12787492123503322 
137.00092703083283 0.061640149128333606 
138.00092703083283 0.030052116152068587 
139.00092703083283 0.018811699222852696 
140.00092703083283 0.011867254778407462 
141.00092703083283 0.007613946649863469 
142.00092703083283 0.00661625708884662 
143.00092703083283 0.004253308128544505 
144.00092703083283 0.0023629489603024575 
145.00092703083283 9.451795841210278E-4 
146.00092703083283 4.7258979206051514E-4 
147.00092703083283 0.0 
148.00092703083283 0.0 
149.00092703083283 0.0 
150.00092703083283 0.0 
151.00092703083283 0.0 
152.00092703083283 0.0 
153.00092703083283 0.0 
154.00092703083283 0.0 
155.00092703083283 0.0 
156.00092703083283 0.0 
157.00092703083283 0.0 
158.00092703083283 0.0 
159.00092703083283 0.0 
160.00092703083283 0.0 
161.00092703083283 0.0 
162.00092703083283 0.0 
163.00092703083283 0.0 
164.00092703083283 0.0 
165.00092703083283 0.0 
166.00092703083283 0.0 
167.00092703083283 0.0 
168.00092703083283 0.0 
169.00092703083283 0.0 
170.00092703083283 0.0 
171.00092703083283 0.0 
172.00092703083283 0.0 
173.00092703083283 0.0 
174.00092703083283 0.0 
175.00092703083283 0.0 
176.00092703083283 0.0 
177.00092703083283 0.0 
178.00092703083283 0.0 
179.00092703083283 0.0 
180.00092703083283 0.0 
181.00092703083283 0.0 
182.00092703083283 0.0 
183.00092703083283 0.0 
184.00092703083283 0.0 
185.00092703083283 0.0 
186.00092703083283 0.0 
187.00092703083283 0.0 
188.00092703083283 0.0 
189.00092703083283 0.0 
190.00092703083283 0.0 
191.00092703083283 0.0 
192.00092703083283 0.0 
193.00092703083283 0.0 
194.00092703083283 0.0 
195.00092703083283 0.0 
196.00092703083283 0.0 
197.00092703083283 0.0 
198.00092703083283 0.0 
199.00092703083283 0.0 
200.00092703083283 0.0 
201.00092703083283 0.0 
202.00092703083283 0.0 
203.00092703083283 0.0 
204.00092703083283 0.0 
205.00092703083283 0.0 
206.00092703083283 0.0 
207.00092703083283 0.0 
208.00092703083283 0.0 
209.00092703083283 0.0 
210.00092703083283 0.0 
211.00092703083283 0.0 
212.00092703083283 0.0 
213.00092703083283 0.0 
214.00092703083283 0.0 
215.00092703083283 0.0 
216.00092703083283 0.0 
217.00092703083283 0.0 
218.00092703083283 0.0 
219.00092703083283 0.0 
220.00092703083283 0.0 
221.00092703083283 0.0 
222.00092703083283 0.0 
223.00092703083283 0.0 
224.00092703083283 0.0 
225.00092703083283 0.0 
226.00092703083283 0.0 
227.00092703083283 0.0 
228.00092703083283 0.0 
229.00092703083283 0.0 
230.00092703083283 0.0 
231.00092703083283 0.0 
232.00092703083283 0.0 
233.00092703083283 0.0 
234.00092703083283 0.0 
235.00092703083283 0.0 
236.00092703083283 0.0 
237.00092703083283 0.0 
238.00092703083283 0.0 
239.00092703083283 0.0 
240.00092703083283 0.0 
241.00092703083283 0.0 
242.00092703083283 0.0 
243.00092703083283 0.0 
244.00092703083283 0.0 
245.00092703083283 0.0 
246.00092703083283 0.0 
247.00092703083283 0.0 
248.00092703083283 0.0 
249.00092703083283 0.0 
250.00092703083283 0.0 
251.00092703083283 0.0 
252.00092703083283 0.0 
#####################################################################
# End of data export. Simulation finished at: 2017-05-25T10:00+0000 #
#####################################################################
