#####################################################################
# Alchemist log file - simulation started at: 2017-05-23T04:17+0000 #
#####################################################################
# random = 10.0, targets = 100.0, density = 10.026386447354522, gridShift = 0.0, perturbation = 0.5, connfactor = 0.25
#
# The columns have the following meaning: 
# time se[Mean] 
0.0 NaN 
1.0001899309342401 NaN 
2.00018993093424 1.0 
3.00018993093424 0.9999088154269973 
4.000189930934241 0.9995075298438935 
5.000189930934241 0.9985967860422406 
6.000189930934241 0.9973408631772268 
7.000189930934241 0.9958742194674013 
8.00018993093424 0.995020041322314 
9.00018993093424 0.9933786271808999 
10.00018993093424 0.9924130165289257 
11.00018993093424 0.9906016988062443 
12.00018993093424 0.9890665977961433 
13.00018993093424 0.9870275022956841 
14.00018993093424 0.9855855601469238 
15.00018993093424 0.9841088383838383 
16.00018993093424 0.9822785583103765 
17.00018993093424 0.9810947428833793 
18.00018993093424 0.9790529384756658 
19.00018993093424 0.9769306473829201 
20.00018993093424 0.975303489439853 
21.00018993093424 0.9734145087235996 
22.00018993093424 0.9717909550045913 
23.00018993093424 0.9702854912764003 
24.00018993093424 0.968683448117539 
25.00018993093424 0.9671511019283746 
26.00018993093424 0.9665035583103765 
27.00018993093424 0.9650002066115703 
28.00018993093424 0.9634996556473829 
29.00018993093424 0.9629367309458219 
30.00018993093424 0.9611051423324151 
31.00018993093424 0.960995202020202 
32.00018993093424 0.9593895546372819 
33.00018993093424 0.9584441000918273 
34.00018993093424 0.957648668503214 
35.00018993093424 0.9557039485766758 
36.00018993093424 0.954238567493113 
37.00018993093424 0.951970523415978 
38.00018993093424 0.9511591827364555 
39.00018993093424 0.9465740817263544 
40.00018993093424 0.9469099173553719 
41.00018993093424 0.942004315886134 
42.00018993093424 0.9391534205693296 
43.00018993093424 0.9353071625344352 
44.00018993093424 0.9309124885215794 
45.00018993093424 0.9293782598714417 
46.00018993093424 0.9219841138659319 
47.00018993093424 0.91807520661157 
48.00018993093424 0.9180333792470156 
49.00018993093424 0.9088923324150595 
50.00018993093424 0.907283631772268 
51.00018993093424 0.8957441000918273 
52.00018993093424 0.895270064279155 
53.00018993093424 0.8864388429752066 
54.00018993093424 0.8809943985307622 
55.00018993093424 0.8706442148760332 
56.00018993093424 0.8656238751147842 
57.00018993093424 0.8558123507805326 
58.00018993093424 0.8535874885215795 
59.00018993093424 0.8425384297520662 
60.00018993093424 0.8410299127640037 
61.00018993093424 0.8361044077134987 
62.00018993093424 0.8298424701561065 
63.00018993093424 0.8366886363636363 
64.00018993093424 0.8087448806244262 
65.00018993093424 0.820851974288338 
66.00018993093424 0.8110651974288339 
67.00018993093424 0.7831999540863178 
68.00018993093424 0.7898573002754821 
69.00018993093424 0.7668250459136821 
70.00018993093424 0.7744260560146924 
71.00018993093424 0.737020018365473 
72.00018993093424 0.7333903122130394 
73.00018993093424 0.7142738292011019 
74.00018993093424 0.7049612947658402 
75.00018993093424 0.6800941000918274 
76.00018993093424 0.6675393021120294 
77.00018993093424 0.6486675160697887 
78.00018993093424 0.6250238292011017 
79.00018993093424 0.6032174471992654 
80.00018993093424 0.5926177915518827 
81.00018993093424 0.5726611799816345 
82.00018993093424 0.5230442837465566 
83.00018993093424 0.5332596877869603 
84.00018993093424 0.5063880624426077 
85.00018993093424 0.48427219926538106 
86.00018993093424 0.46829804866850316 
87.00018993093424 0.44373783287419627 
88.00018993093424 0.4465572084481174 
89.00018993093424 0.41898363177226816 
90.00018993093424 0.41377245179063354 
91.00018993093424 0.4229949494949495 
92.00018993093424 0.41266570247933887 
93.00018993093424 0.39615752984389346 
94.00018993093424 0.40789511019283753 
95.00018993093424 0.41018096877869603 
96.00018993093424 0.4260264233241507 
97.00018993093424 0.4077166896235079 
98.00018993093424 0.4223219467401286 
99.00018993093424 0.42595528007346195 
100.00018993093424 0.43631225895316805 
101.00018993093424 0.4327963957759411 
102.00018993093424 0.43823859044995406 
103.00018993093424 0.44284655647382937 
104.00018993093424 0.44023640955004584 
105.00018993093424 0.43839859963269046 
106.00018993093424 0.45013172635445364 
107.00018993093424 0.4433892332415059 
108.00018993093424 0.41212325528007343 
109.00018993093424 0.4411876262626263 
110.00018993093424 0.41626276400367307 
111.00018993093424 0.41543624885215796 
112.00018993093424 0.40316342975206604 
113.00018993093424 0.3912252295684115 
114.00018993093424 0.3932926078971534 
115.00018993093424 0.36684591368227737 
116.00018993093424 0.3837173783287419 
117.00018993093424 0.37111666666666665 
118.00018993093424 0.37558280532598715 
119.00018993093424 0.37624403122130395 
120.00018993093424 0.3686714876033058 
121.00018993093424 0.37925039026629936 
122.00018993093424 0.3774032598714417 
123.00018993093424 0.3823213269054178 
124.00018993093424 0.385333448117539 
125.00018993093424 0.3873997474747475 
126.00018993093424 0.39307102846648295 
127.00018993093424 0.3902924471992654 
128.00018993093425 0.393101170798898 
129.00018993093425 0.3928002066115702 
130.00018993093425 0.39540642791551883 
131.00018993093425 0.3958131313131313 
132.00018993093425 0.396005142332415 
133.00018993093425 0.39627676767676767 
134.00018993093425 0.39627548209366387 
135.00018993093425 0.3965032139577594 
136.00018993093425 0.396500826446281 
137.00018993093425 0.39687979797979794 
138.00018993093425 0.39679779614325067 
139.00018993093425 0.3969127640036731 
140.00018993093425 0.3968313131313131 
141.00018993093425 0.39688852157943066 
142.00018993093425 0.3969 
143.00018993093425 0.3969 
144.00018993093425 0.3969 
145.00018993093425 0.3969 
146.00018993093425 0.3969 
147.00018993093425 0.3969 
148.00018993093425 0.3969 
149.00018993093425 0.3969 
150.00018993093425 0.3969 
151.00018993093425 0.3969 
152.00018993093425 0.3969 
153.00018993093425 0.3969 
154.00018993093425 0.3969 
155.00018993093425 0.3969 
156.00018993093425 0.3969 
157.00018993093425 0.3969 
158.00018993093425 0.3969 
159.00018993093425 0.3969 
160.00018993093425 0.3969 
161.00018993093425 0.3969 
162.00018993093425 0.3969 
163.00018993093425 0.3969 
164.00018993093425 0.3969 
165.00018993093425 0.3969 
166.00018993093425 0.3969 
167.00018993093425 0.3969 
168.00018993093425 0.3969 
169.00018993093425 0.3969 
170.00018993093425 0.3969 
171.00018993093425 0.3969 
172.00018993093425 0.3969 
173.00018993093425 0.3969 
174.00018993093425 0.3969 
175.00018993093425 0.3969 
176.00018993093425 0.3969 
177.00018993093425 0.3969 
178.00018993093425 0.3969 
179.00018993093425 0.3969 
180.00018993093425 0.3969 
181.00018993093425 0.3969 
182.00018993093425 0.3969 
183.00018993093425 0.3969 
184.00018993093425 0.3969 
185.00018993093425 0.3969 
186.00018993093425 0.3969 
187.00018993093425 0.3969 
188.00018993093425 0.3969 
189.00018993093425 0.3969 
190.00018993093425 0.3969 
191.00018993093425 0.3969 
192.00018993093425 0.3969 
193.00018993093425 0.3969 
194.00018993093425 0.3969 
195.00018993093425 0.3969 
196.00018993093425 0.3969 
197.00018993093425 0.3969 
198.00018993093425 0.3969 
199.00018993093425 0.3969 
200.00018993093425 0.3969 
201.00018993093425 0.3969 
202.00018993093425 0.3969 
203.00018993093425 0.3969 
204.00018993093425 0.3969 
205.00018993093425 0.3969 
206.00018993093425 0.3969 
207.00018993093425 0.3969 
208.00018993093425 0.3969 
209.00018993093425 0.3969 
210.00018993093425 0.3969 
211.00018993093425 0.3969 
212.00018993093425 0.3969 
213.00018993093425 0.3969 
214.00018993093425 0.3969 
215.00018993093425 0.3969 
216.00018993093425 0.3969 
217.00018993093425 0.3969 
#####################################################################
# End of data export. Simulation finished at: 2017-05-23T04:18+0000 #
#####################################################################
