#####################################################################
# Alchemist log file - simulation started at: 2017-05-24T16:17+0000 #
#####################################################################
# random = 15.0, targets = 10.0, density = 10.026386447354522, gridShift = 0.0, perturbation = 0.5, connfactor = 0.5
#
# The columns have the following meaning: 
# time se[Mean] 
0.0 NaN 
1.0001976518064393 NaN 
2.000197651806439 NaN 
3.000197651806439 0.9996510560146924 
4.000197651806439 0.9978974084277115 
5.000197651806439 0.9949869911233548 
6.000197651806439 0.9903242016120803 
7.000197651806439 0.98463447607387 
8.000197651806438 0.9828747066625855 
9.000197651806438 0.9765875931027447 
10.000197651806438 0.9773441485562698 
11.000197651806438 0.9743985307621672 
12.000197651806438 0.9726124885215793 
13.000197651806438 0.9715840220385674 
14.000197651806438 0.9715243342516069 
15.000197651806438 0.969912764003673 
16.000197651806438 0.9717699724517905 
17.000197651806438 0.9717011019283748 
18.000197651806438 0.9736088154269973 
19.000197651806438 0.9752433425160697 
20.000197651806438 0.9746831955922867 
21.000197651806438 0.9779086317722682 
22.000197651806438 0.9768434343434342 
23.000197651806438 0.9765656565656565 
24.000197651806438 0.9792722681359044 
25.000197651806438 0.977277318640955 
26.000197651806438 0.9786822773186409 
27.000197651806438 0.9781055504540354 
28.000197651806438 0.9746877869605142 
29.000197651806438 0.9727691051933478 
30.000197651806438 0.9721339659218449 
31.000197651806438 0.9684970921334559 
32.00019765180644 0.9630501989592898 
33.00019765180644 0.9611636567697175 
34.00019765180644 0.9547018161412099 
35.00019765180644 0.9522255382103867 
36.00019765180644 0.9376698806244265 
37.00019765180644 0.9291944699520452 
38.00019765180644 0.9305657585960617 
39.00019765180644 0.9121056524844404 
40.00019765180644 0.9054601571268237 
41.00019765180644 0.8918610345883073 
42.00019765180644 0.8837478318538926 
43.00019765180644 0.8666967656361596 
44.00019765180644 0.8482221201918173 
45.00019765180644 0.8393962350780535 
46.00019765180644 0.8167240587695135 
47.00019765180644 0.8037654320987656 
48.00019765180644 0.7829244464850527 
49.00019765180644 0.7640608101214161 
50.00019765180644 0.7497214569941847 
51.00019765180644 0.7286873788388941 
52.00019765180644 0.7044401081522296 
53.00019765180644 0.6874127640036738 
54.00019765180644 0.6600686154474034 
55.00019765180644 0.6439041934496477 
56.00019765180644 0.6215363228242009 
57.00019765180644 0.6016824813794511 
58.00019765180644 0.5773375165799423 
59.00019765180644 0.5644235282114064 
60.00019765180644 0.5481448321599839 
61.00019765180644 0.5316176920722381 
62.00019765180644 0.514592643607795 
63.00019765180644 0.5036914600550961 
64.00019765180645 0.48185720844811525 
65.00019765180645 0.47206382001836544 
66.00019765180645 0.46113177226813606 
67.00019765180645 0.4520408631772266 
68.00019765180645 0.4511294765840241 
69.00019765180645 0.4413039485766748 
70.00019765180645 0.4413108356290186 
71.00019765180645 0.4365036730945823 
72.00019765180645 0.4287511478420583 
73.00019765180645 0.4309573002754811 
74.00019765180645 0.42127640036730957 
75.00019765180645 0.42418503213957665 
76.00019765180645 0.41346418732782414 
77.00019765180645 0.4198943985307621 
78.00019765180645 0.4208103764921943 
79.00019765180645 0.410904499540862 
80.00019765180645 0.4174977043158869 
81.00019765180645 0.4106152433425162 
82.00019765180645 0.4145454545454551 
83.00019765180645 0.41527089072543677 
84.00019765180645 0.4187029384756657 
85.00019765180645 0.4166919191919177 
86.00019765180645 0.41658861340679687 
87.00019765180645 0.41851698806244364 
88.00019765180645 0.42201561065197496 
89.00019765180645 0.4244605142332417 
90.00019765180645 0.4341735537190077 
91.00019765180645 0.42759412304866856 
92.00019765180645 0.43475206611570233 
93.00019765180645 0.4381175390266311 
94.00019765180645 0.4462626262626261 
95.00019765180645 0.45344582185491283 
96.00019765180645 0.45055325987143996 
97.00019765180645 0.45192148760330586 
98.00019765180645 0.4636179981634539 
99.00019765180645 0.46211662075298404 
100.00019765180645 0.46673324150596895 
101.00019765180645 0.4726744719926541 
102.00019765180645 0.47905188246097397 
103.00019765180645 0.4818709825528013 
104.00019765180645 0.486345270890724 
105.00019765180645 0.4928489439853071 
106.00019765180645 0.4965518824609742 
107.00019765180645 0.5032920110192831 
108.00019765180645 0.5084136822773196 
109.00019765180645 0.5097658402203846 
110.00019765180645 0.522224517906337 
111.00019765180645 0.5226652892561988 
112.00019765180645 0.5254384756657484 
113.00019765180645 0.5305211202938478 
114.00019765180645 0.5294949494949504 
115.00019765180645 0.5338636363636368 
116.00019765180645 0.5431083562901741 
117.00019765180645 0.5440289256198348 
118.00019765180645 0.5500619834710739 
119.00019765180645 0.5561157024793384 
120.00019765180645 0.5602089072543611 
121.00019765180645 0.5636294765840231 
122.00019765180645 0.5677892561983473 
123.00019765180645 0.5706818181818175 
124.00019765180645 0.5753971533516989 
125.00019765180645 0.577194674012856 
126.00019765180645 0.5771923783287424 
127.00019765180645 0.5805624426078969 
128.00019765180645 0.5813246097337009 
129.00019765180645 0.5823875114784203 
130.00019765180645 0.5812373737373735 
131.00019765180645 0.5830853994490363 
132.00019765180645 0.5798921028466488 
133.00019765180645 0.5785376492194674 
134.00019765180645 0.5755165289256201 
135.00019765180645 0.572977502295684 
136.00019765180645 0.5721808999081726 
137.00019765180645 0.5675413223140494 
138.00019765180645 0.5650964187327824 
139.00019765180645 0.5604912764003677 
140.00019765180645 0.5550849403122132 
141.00019765180645 0.5528650137741047 
142.00019765180645 0.5456955922865016 
143.00019765180645 0.5453719008264472 
144.00019765180645 0.5367332415059684 
145.00019765180645 0.5311088154269976 
146.00019765180645 0.5238039485766756 
147.00019765180645 0.5181427915518817 
148.00019765180645 0.5095156106519751 
149.00019765180645 0.5027915518824603 
150.00019765180645 0.493129017447199 
151.00019765180645 0.4827754820936646 
152.00019765180645 0.4716965105601473 
153.00019765180645 0.4610537190082637 
154.00019765180645 0.4477203856749322 
155.00019765180645 0.43633149678604255 
156.00019765180645 0.42704086317722645 
157.00019765180645 0.7311662075298445 
158.00019765180645 0.39942148760330487 
159.00019765180645 1.9937419651055988 
160.00019765180645 2.2963200183654497 
161.00019765180645 1.9665426997245312 
162.00019765180645 2.5977295684114012 
163.00019765180645 0.973797061524331 
164.00019765180645 3.242679063360896 
165.00019765180645 3.2469421487603265 
166.00019765180645 2.2632483930211196 
167.00019765180645 3.87278236914599 
168.00019765180645 4.850020661157019 
169.00019765180645 4.819008264462814 
170.00019765180645 10.593948831751925 
171.00019765180645 12.549674012855913 
172.00019765180645 12.833497602285584 
173.00019765180645 13.268222375267761 
174.00019765180645 9.769845423936385 
175.00019765180645 17.889056983981366 
176.00019765180645 19.498688654218878 
177.00019765180645 12.602020202020267 
178.00019765180645 19.608223905724014 
179.00019765180645 19.920170390776445 
180.00019765180645 27.21615830017319 
181.00019765180645 20.993703448627578 
182.00019765180645 24.544410519334818 
183.00019765180645 31.803845270890506 
184.00019765180645 22.771480206101305 
185.00019765180645 36.24130267319644 
186.00019765180645 32.18144602591576 
187.00019765180645 39.342211253953685 
188.00019765180645 26.56866799306184 
189.00019765180645 29.523959544944372 
190.00019765180645 35.15881083562898 
191.00019765180645 42.83834047546165 
192.00019765180645 37.23486506478937 
193.00019765180645 37.57311651872259 
194.00019765180645 41.38228522599734 
195.00019765180645 42.15726201408015 
196.00019765180645 42.350748393021114 
197.00019765180645 48.152030660136695 
198.00019765180645 53.45977604326093 
199.00019765180645 43.818808029792855 
200.00019765180645 53.97827849199059 
201.00019765180645 46.967820885623915 
202.00019765180645 44.0092266095296 
203.00019765180645 62.688383583307804 
204.00019765180645 43.14485001530456 
205.00019765180645 56.54038108356276 
206.00019765180645 49.12100397918577 
207.00019765180645 50.42671258034899 
208.00019765180645 52.56833282318143 
209.00019765180645 60.322635445362586 
210.00019765180645 37.32005713702681 
211.00019765180645 49.17942913988369 
212.00019765180645 38.272494388327736 
213.00019765180645 37.777480359146985 
214.00019765180645 45.75028772574231 
215.00019765180645 30.829473523109893 
216.00019765180645 43.43696765636146 
217.00019765180645 22.699135802469108 
218.00019765180645 27.807548209366384 
219.00019765180645 25.320103050709065 
220.00019765180645 18.258657279869396 
221.00019765180645 16.35244975002546 
222.00019765180645 9.924775022956824 
223.00019765180645 9.165492296704384 
224.00019765180645 12.299260279563333 
225.00019765180645 6.556230996836999 
226.00019765180645 6.495958575655575 
227.00019765180645 6.795588205285224 
228.00019765180645 6.3155310682583625 
229.00019765180645 4.013114988266521 
230.00019765180645 4.703896541169234 
231.00019765180645 3.532264054688282 
232.00019765180645 0.7488429752066059 
233.00019765180645 0.5311560044893415 
234.00019765180645 0.48479542903785683 
235.00019765180645 0.26666156514641276 
236.00019765180645 0.2659391898785809 
237.00019765180645 0.35241607999184316 
238.00019765180645 0.17719416386082906 
239.00019765180645 0.1763116008570543 
240.00019765180645 0.17623915926946185 
241.00019765180645 0.17647995102540603 
242.00019765180645 0.08828690949902977 
243.00019765180645 0.1319263340475451 
244.00019765180645 0.08819814304662942 
245.00019765180645 7.274767880828619E-4 
246.00019765180645 3.9587797163555293E-4 
247.00019765180645 5.499438832772095E-4 
248.00019765180645 3.4486276910519775E-4 
249.00019765180645 0.0 
250.00019765180645 0.0 
251.00019765180645 0.0 
252.00019765180645 0.0 
253.00019765180645 0.0 
254.00019765180645 0.0 
255.00019765180645 0.0 
256.00019765180645 0.0 
257.00019765180645 0.0 
258.00019765180645 0.0 
259.00019765180645 0.0 
260.00019765180645 0.0 
261.00019765180645 0.0 
262.00019765180645 0.0 
263.00019765180645 0.0 
264.00019765180645 0.0 
265.00019765180645 0.0 
266.00019765180645 0.0 
267.00019765180645 0.0 
268.00019765180645 0.0 
269.00019765180645 0.0 
270.00019765180645 0.0 
271.00019765180645 0.0 
272.00019765180645 0.0 
273.00019765180645 0.0 
274.00019765180645 0.0 
275.00019765180645 0.0 
276.00019765180645 0.0 
277.00019765180645 0.0 
278.00019765180645 0.0 
279.00019765180645 0.0 
280.00019765180645 0.0 
281.00019765180645 0.0 
282.00019765180645 0.0 
283.00019765180645 0.0 
284.00019765180645 0.0 
285.00019765180645 0.0 
286.00019765180645 0.0 
287.00019765180645 0.0 
288.00019765180645 0.0 
289.00019765180645 0.0 
290.00019765180645 0.0 
291.00019765180645 0.0 
292.00019765180645 0.0 
293.00019765180645 0.0 
294.00019765180645 0.0 
295.00019765180645 0.0 
296.00019765180645 0.0 
297.00019765180645 0.0 
298.00019765180645 0.0 
299.00019765180645 0.0 
300.00019765180645 0.0 
301.00019765180645 0.0 
302.00019765180645 0.0 
303.00019765180645 0.0 
304.00019765180645 0.0 
305.00019765180645 0.0 
306.00019765180645 0.0 
307.00019765180645 0.0 
308.00019765180645 0.0 
309.00019765180645 0.0 
310.00019765180645 0.0 
311.00019765180645 0.0 
312.00019765180645 0.0 
313.00019765180645 0.0 
314.00019765180645 0.0 
315.00019765180645 0.0 
316.00019765180645 0.0 
317.00019765180645 0.0 
318.00019765180645 0.0 
319.00019765180645 0.0 
320.00019765180645 0.0 
321.00019765180645 0.0 
322.00019765180645 0.0 
#####################################################################
# End of data export. Simulation finished at: 2017-05-24T16:19+0000 #
#####################################################################
