#####################################################################
# Alchemist log file - simulation started at: 2017-05-20T14:04+0000 #
#####################################################################
# random = 1.0, targets = 3.1622776601683795, density = 14.160781367816199, gridShift = 0.0, perturbation = 0.5, connfactor = 0.75
#
# The columns have the following meaning: 
# time se[Mean] 
0.0 NaN 
1.0000417374280275 NaN 
2.0000417374280275 1.0015704104944891 
3.0000417374280275 1.0022434435635559 
4.0000417374280275 1.003511868906801 
5.0000417374280275 1.0056086089088894 
6.0000417374280275 1.0000604847382693 
7.0000417374280275 0.9965054345963466 
8.000041737428027 0.9946321020785829 
9.000041737428027 0.9927422618156455 
10.000041737428027 0.9883027381523972 
11.000041737428027 0.9893513611188886 
12.000041737428027 0.9823336093543086 
13.000041737428027 0.9803371463218544 
14.000041737428027 0.9749975070738616 
15.000041737428027 0.9687839922569477 
16.000041737428027 0.9577730995901388 
17.000041737428027 0.9519977467238064 
18.000041737428027 0.9398805595013167 
19.000041737428027 0.9261412487145965 
20.000041737428027 0.9211814502500568 
21.000041737428027 0.9101423701000996 
22.000041737428027 0.8999001954992167 
23.000041737428027 0.8895100219804711 
24.000041737428027 0.8780346998176816 
25.000041737428027 0.8711721334560171 
26.000041737428027 0.8595246609409225 
27.000041737428027 0.8515156942350404 
28.000041737428027 0.842075163336042 
29.000041737428027 0.8327921487882374 
30.000041737428027 0.8264141722354807 
31.000041737428027 0.816288040384088 
32.00004173742803 0.807395562025497 
33.00004173742803 0.8015788067477363 
34.00004173742803 0.7932580027030075 
35.00004173742803 0.7862211948746661 
36.00004173742803 0.7795755478168929 
37.00004173742803 0.7702348616798992 
38.00004173742803 0.7637053997521663 
39.00004173742803 0.7563460129855277 
40.00004173742803 0.7490358396967214 
41.00004173742803 0.7439093947280957 
42.00004173742803 0.7373307193225305 
43.00004173742803 0.7303035475779772 
44.00004173742803 0.7209761738226182 
45.00004173742803 0.7369855358718436 
46.00004173742803 0.8124815561194646 
47.00004173742803 0.7881432679349233 
48.00004173742803 0.8853151468336637 
49.00004173742803 0.9593150134439062 
50.00004173742803 1.077809579900779 
51.00004173742803 1.0083099058669116 
52.00004173742803 1.1454369801389568 
53.00004173742803 1.280889478344691 
54.00004173742803 1.1265114006217225 
55.00004173742803 1.3420137791208961 
56.00004173742803 1.2712567111703195 
57.00004173742803 1.4257278911096085 
58.00004173742803 1.3301524248203618 
59.00004173742803 1.4033032817318813 
60.00004173742803 1.534229900136585 
61.00004173742803 1.2319720161454368 
62.00004173742803 1.4246028522476561 
63.00004173742803 1.597327566166909 
64.00004173742803 1.6449303192783404 
65.00004173742803 1.527773577618663 
66.00004173742803 1.388776675350196 
67.00004173742803 1.5392979820105883 
68.00004173742803 1.3561828316751874 
69.00004173742803 1.5271505630508677 
70.00004173742803 1.3068352902879117 
71.00004173742803 1.2687478391290457 
72.00004173742803 1.1684859474346945 
73.00004173742803 1.0755568123444368 
74.00004173742803 1.0174873460356546 
75.00004173742803 0.773912175655297 
76.00004173742803 0.6770365486909301 
77.00004173742803 0.5215042408932321 
78.00004173742803 0.40589799018221556 
79.00004173742803 0.3205868296708997 
80.00004173742803 0.31302248683295525 
81.00004173742803 0.30643850375237397 
82.00004173742803 0.2999132639146025 
83.00004173742803 0.29189915944383454 
84.00004173742803 0.2884527507290275 
85.00004173742803 0.28236662237880983 
86.00004173742803 0.2746139837272333 
87.00004173742803 0.26460904378866623 
88.00004173742803 0.2632200862424913 
89.00004173742803 0.255394127605834 
90.00004173742803 0.24510011148609331 
91.00004173742803 0.24190565242364898 
92.00004173742803 0.23726428199772312 
93.00004173742803 0.2293849102568697 
94.00004173742803 0.22300962946922787 
95.00004173742803 0.21813569640950084 
96.00004173742803 0.21054864114055374 
97.00004173742803 0.20270027636440463 
98.00004173742803 0.19503098232862273 
99.00004173742803 0.18610220072876701 
100.00004173742803 0.1816452299153263 
101.00004173742803 0.176207473469355 
102.00004173742803 0.17141601554418268 
103.00004173742803 0.16791156662386966 
104.00004173742803 0.16224017968996185 
105.00004173742803 0.15745375827683727 
106.00004173742803 0.15131125369382828 
107.00004173742803 0.1469600412346422 
108.00004173742803 0.14284773214316637 
109.00004173742803 0.14013945567206942 
110.00004173742803 0.13798237711174557 
111.00004173742803 0.13638059990169524 
112.00004173742803 0.1359517316816613 
113.00004173742803 0.1346967187063958 
114.00004173742803 0.13420311612855848 
115.00004173742803 0.13424059860874948 
116.00004173742803 0.1336806090988399 
117.00004173742803 0.13359525595739694 
118.00004173742803 0.13393666852316868 
119.00004173742803 0.13380863881100427 
120.00004173742803 0.13385131538172573 
121.00004173742803 0.13415005137677596 
122.00004173742803 0.13415005137677596 
123.00004173742803 0.1344061108011048 
124.00004173742803 0.1345341405132692 
125.00004173742803 0.13470484679615508 
126.00004173742803 0.13470484679615508 
127.00004173742803 0.13487555307904095 
128.00004173742803 0.1348328765083195 
129.00004173742803 0.13504625936192682 
130.00004173742803 0.1349182296497624 
131.00004173742803 0.13508893593264829 
132.00004173742803 0.13508893593264829 
133.00004173742803 0.13508893593264829 
134.00004173742803 0.5575772514086723 
135.00004173742803 2.2474705345053945 
136.00004173742803 1.8246609867071601 
137.00004173742803 3.936755957431038 
138.00004173742803 5.626105395212572 
139.00004173742803 8.160148872146216 
140.00004173742803 6.891239824970609 
141.00004173742803 9.847370799328779 
142.00004173742803 12.803130366018152 
143.00004173742803 9.843498135903515 
144.00004173742803 14.48871095379444 
145.00004173742803 13.21875573451789 
146.00004173742803 16.596134502997415 
147.00004173742803 14.902898562280757 
148.00004173742803 16.589982071570077 
149.00004173742803 19.544117601089948 
150.00004173742803 13.625664580424838 
151.00004173742803 17.847382709302124 
152.00004173742803 21.646436037610176 
153.00004173742803 22.909893365447086 
154.00004173742803 21.215089330319774 
155.00004173742803 18.675956311576847 
156.00004173742803 23.31962928739798 
157.00004173742803 19.090330197219174 
158.00004173742803 24.578426155216157 
159.00004173742803 22.88359442967127 
160.00004173742803 22.879064304050097 
161.00004173742803 22.029229401099244 
162.00004173742803 19.48998853288778 
163.00004173742803 20.75323997664665 
164.00004173742803 20.748984944050154 
165.00004173742803 15.674786503963238 
166.00004173742803 13.13615234927965 
167.00004173742803 14.40073254554133 
168.00004173742803 13.130301531854302 
169.00004173742803 10.592248131644466 
170.00004173742803 13.96958306551142 
171.00004173742803 14.81189755929013 
172.00004173742803 11.428944809171654 
173.00004173742803 12.693719366086066 
174.00004173742803 12.268847469187905 
175.00004173742803 9.308948218146377 
176.00004173742803 9.306648843222174 
177.00004173742803 6.769792129754542 
178.00004173742803 5.500721021715324 
179.00004173742803 3.8093242323855203 
180.00004173742803 3.808339770455097 
181.00004173742803 2.1173997419353805 
182.00004173742803 2.539205220881502 
183.00004173742803 0.4261194474933262 
184.00004173742803 1.6933214090430488 
185.00004173742803 0.002969633772662165 
186.00004173742803 0.0028537122066204343 
187.00004173742803 0.002718183718728131 
188.00004173742803 0.0027475941015039727 
189.00004173742803 0.0026564735478433123 
190.00004173742803 0.002633403898972407 
191.00004173742803 0.002633403898972407 
192.00004173742803 0.002633403898972407 
193.00004173742803 0.002633403898972407 
194.00004173742803 0.002633403898972407 
195.00004173742803 0.002633403898972407 
196.00004173742803 0.002633403898972407 
197.00004173742803 0.002633403898972407 
198.00004173742803 0.002633403898972407 
199.00004173742803 0.002633403898972407 
200.00004173742803 0.002633403898972407 
201.00004173742803 0.002633403898972407 
202.00004173742803 0.002633403898972407 
203.00004173742803 0.002633403898972407 
204.00004173742803 0.002633403898972407 
205.00004173742803 0.002633403898972407 
206.00004173742803 0.002633403898972407 
207.00004173742803 0.002633403898972407 
208.00004173742803 0.002633403898972407 
209.00004173742803 0.002633403898972407 
210.00004173742803 0.002633403898972407 
211.00004173742803 0.002633403898972407 
212.00004173742803 0.002633403898972407 
213.00004173742803 0.002633403898972407 
214.00004173742803 0.002633403898972407 
215.00004173742803 0.002633403898972407 
216.00004173742803 0.002633403898972407 
217.00004173742803 0.002633403898972407 
218.00004173742803 0.002633403898972407 
219.00004173742803 0.002633403898972407 
220.00004173742803 0.002633403898972407 
221.00004173742803 0.002633403898972407 
222.00004173742803 0.002633403898972407 
223.00004173742803 0.002633403898972407 
224.00004173742803 0.002633403898972407 
225.00004173742803 0.002633403898972407 
226.00004173742803 0.002633403898972407 
227.00004173742803 0.002633403898972407 
228.00004173742803 0.002633403898972407 
229.00004173742803 0.002633403898972407 
230.00004173742803 0.002633403898972407 
231.00004173742803 0.002633403898972407 
232.00004173742803 0.002633403898972407 
233.00004173742803 0.002633403898972407 
234.00004173742803 0.002633403898972407 
235.00004173742803 0.002633403898972407 
236.00004173742803 0.002633403898972407 
237.00004173742803 0.002633403898972407 
238.00004173742803 0.002633403898972407 
239.00004173742803 0.002633403898972407 
240.00004173742803 0.002633403898972407 
241.00004173742803 0.002633403898972407 
242.00004173742803 0.002633403898972407 
243.00004173742803 0.002633403898972407 
244.00004173742803 0.002633403898972407 
245.00004173742803 0.002633403898972407 
246.00004173742803 0.002633403898972407 
247.00004173742803 0.002633403898972407 
248.00004173742803 0.002633403898972407 
249.00004173742803 0.002633403898972407 
250.00004173742803 0.002633403898972407 
251.00004173742803 0.002633403898972407 
252.00004173742803 0.002633403898972407 
253.00004173742803 0.002633403898972407 
254.00004173742803 0.002633403898972407 
255.00004173742803 0.002633403898972407 
256.00004173742803 0.002633403898972407 
257.00004173742803 0.002633403898972407 
258.00004173742803 0.002633403898972407 
259.00004173742803 0.002633403898972407 
260.00004173742803 0.002633403898972407 
261.00004173742803 0.002633403898972407 
262.00004173742803 0.002633403898972407 
263.00004173742803 0.002633403898972407 
264.00004173742803 0.002633403898972407 
265.00004173742803 0.002633403898972407 
266.00004173742803 0.002633403898972407 
267.00004173742803 0.002633403898972407 
268.00004173742803 0.002633403898972407 
269.00004173742803 0.002633403898972407 
270.00004173742803 0.002633403898972407 
271.00004173742803 0.002633403898972407 
272.00004173742803 0.002633403898972407 
273.00004173742803 0.002633403898972407 
274.00004173742803 0.002633403898972407 
275.00004173742803 0.002633403898972407 
276.00004173742803 0.002633403898972407 
277.00004173742803 0.002633403898972407 
278.00004173742803 0.002633403898972407 
279.00004173742803 0.002633403898972407 
#####################################################################
# End of data export. Simulation finished at: 2017-05-20T14:13+0000 #
#####################################################################
