0.000000000000000000e+00 nan
4.440892098500626162e-16 6.314174529331759156e-02
8.881784197001252323e-16 1.858931900848804220e-01
1.332267629550187849e-15 1.948008568889923742e-01
1.776356839400250465e-15 2.028820274019558501e-01
3.552713678800500929e-15 2.133191623698454387e-01
2.664535259100375697e-15 2.152496704839994279e-01
1.776356839400250465e-15 2.619471846775240365e-01
3.552713678800500929e-15 2.830783251445387338e-01
3.552713678800500929e-15 3.010679793604382204e-01
7.105427357601001859e-15 2.950732334393251777e-01
1.776356839400250465e-15 2.813183010745987644e-01
5.329070518200751394e-15 2.704529154004379765e-01
7.105427357601001859e-15 2.651846965155774671e-01
3.552713678800500929e-15 2.611150918910443708e-01
5.329070518200751394e-15 2.454249685032336425e-01
7.105427357601001859e-15 2.625003968035422575e-01
7.105427357601001859e-15 2.441828394917499312e-01
7.105427357601001859e-15 2.467846488759428136e-01
7.105427357601001859e-15 2.368840798512415191e-01
1.421085471520200372e-14 2.398839145762167169e-01
7.105427357601001859e-15 2.338595042053889794e-01
3.552713678800500929e-15 2.241611883163648344e-01
1.065814103640150279e-14 2.345272158100553117e-01
1.065814103640150279e-14 2.314944383362020630e-01
3.552713678800500929e-15 2.463983770852067046e-01
1.421085471520200372e-14 2.410837658218370205e-01
3.552713678800500929e-15 2.496954570531384199e-01
7.105427357601001859e-15 2.424200312199552565e-01
0.000000000000000000e+00 2.503905434495223292e-01
1.065814103640150279e-14 2.648903913413827027e-01
0.000000000000000000e+00 2.682065983330979009e-01
1.421085471520200372e-14 2.753316184956310919e-01
7.105427357601001859e-15 2.709451025497867094e-01
1.421085471520200372e-14 2.849550844015880657e-01
7.105427357601001859e-15 2.917277120509331745e-01
1.421085471520200372e-14 3.033080247834664123e-01
0.000000000000000000e+00 3.112570103151442447e-01
1.421085471520200372e-14 3.267378508318764530e-01
7.105427357601001859e-15 3.736507101397229524e-01
2.842170943040400743e-14 3.831890259845672775e-01
1.421085471520200372e-14 4.371524573027188998e-01
1.421085471520200372e-14 4.648613896249370603e-01
0.000000000000000000e+00 4.796347750924924713e-01
7.105427357601001859e-15 4.552074972991999036e-01
7.105427357601001859e-15 3.966407901414420456e-01
2.131628207280300558e-14 3.483882433321419669e-01
1.421085471520200372e-14 3.048133547378456543e-01
2.131628207280300558e-14 2.781521408968716247e-01
0.000000000000000000e+00 2.753046492685611302e-01
7.105427357601001859e-15 2.783736640226060488e-01
7.105427357601001859e-15 2.746666820266349673e-01
2.842170943040400743e-14 2.644228502680235904e-01
2.842170943040400743e-14 2.631319332231245589e-01
7.105427357601001859e-15 2.608305096993825956e-01
0.000000000000000000e+00 2.569557664903230343e-01
1.421085471520200372e-14 2.549918388823403381e-01
2.131628207280300558e-14 2.483399270672221604e-01
0.000000000000000000e+00 2.396287765521220581e-01
7.105427357601001859e-15 2.292721321915596744e-01
2.131628207280300558e-14 2.232493572637641310e-01
1.421085471520200372e-14 2.150918191374466548e-01
0.000000000000000000e+00 2.393600394771172868e-01
7.105427357601001859e-15 2.397379124753973856e-01
2.842170943040400743e-14 2.590255498148895108e-01
4.263256414560601115e-14 2.420426690403668091e-01
1.421085471520200372e-14 2.534118812427550438e-01
0.000000000000000000e+00 2.893870515719293435e-01
2.842170943040400743e-14 2.540360730367586251e-01
0.000000000000000000e+00 2.748607287822286693e-01
1.421085471520200372e-14 2.622680516505458415e-01
4.263256414560601115e-14 2.498039108018859367e-01
2.842170943040400743e-14 2.548945893630999993e-01
2.842170943040400743e-14 2.600620349204751380e-01
0.000000000000000000e+00 2.935594617252472172e-01
4.263256414560601115e-14 3.063599805504710338e-01
2.842170943040400743e-14 3.364272597019894451e-01
4.263256414560601115e-14 3.750910624087209211e-01
1.421085471520200372e-14 3.829921571601307972e-01
1.421085471520200372e-14 3.773662671149032311e-01
5.684341886080801487e-14 3.826852875877288507e-01
0.000000000000000000e+00 3.904602130597672471e-01
2.842170943040400743e-14 3.539897193720995539e-01
4.263256414560601115e-14 3.321490497707693668e-01
2.842170943040400743e-14 3.398451935166257876e-01
2.842170943040400743e-14 3.036760502503560999e-01
0.000000000000000000e+00 2.889224948936576776e-01
4.263256414560601115e-14 2.637607331547643930e-01
1.421085471520200372e-14 2.605092726067440023e-01
1.421085471520200372e-14 2.733880048049552869e-01
1.421085471520200372e-14 3.759246217978404192e-01
1.421085471520200372e-14 6.634018757184472204e-01
4.263256414560601115e-14 8.132484247645089814e-01
0.000000000000000000e+00 8.100233566895901349e-01
2.842170943040400743e-14 9.679701737575843179e-01
2.842170943040400743e-14 9.653078086626475374e-01
4.263256414560601115e-14 4.970013159187060547e-01
2.842170943040400743e-14 8.046083686436323879e-01
0.000000000000000000e+00 2.183887950635652331e-01
5.684341886080801487e-14 4.919401378788984536e-01
1.421085471520200372e-14 3.453942895210386776e-01
1.421085471520200372e-14 2.152915983031096769e-01
1.421085471520200372e-14 4.898130297438845204e-01
1.421085471520200372e-14 3.432861347831811516e-01
5.684341886080801487e-14 3.422602385257675350e-01
1.421085471520200372e-14 2.151705155135945069e-01
5.684341886080801487e-14 4.910729321744539133e-01
2.842170943040400743e-14 2.142282307836685662e-01
1.421085471520200372e-14 3.437874353542972328e-01
1.421085471520200372e-14 3.427189151986104187e-01
0.000000000000000000e+00 3.431728480690410810e-01
5.684341886080801487e-14 3.431382153984458006e-01
2.842170943040400743e-14 2.152041997970782217e-01
2.842170943040400743e-14 2.151652760946490828e-01
4.263256414560601115e-14 1.633304094089784997e-01
1.421085471520200372e-14 2.151584164133491794e-01
0.000000000000000000e+00 2.151448006038705896e-01
0.000000000000000000e+00 2.151368026530593169e-01
1.421085471520200372e-14 1.633574069239207283e-01
2.842170943040400743e-14 1.633603236081368204e-01
4.263256414560601115e-14 1.633614463677737494e-01
2.842170943040400743e-14 1.633645929261008101e-01
2.842170943040400743e-14 1.633650427750361345e-01
7.105427357601001859e-14 1.633650427750361345e-01
0.000000000000000000e+00 1.633650427750361345e-01
1.421085471520200372e-14 1.633650427750361345e-01
1.421085471520200372e-14 1.633650427750361345e-01
2.842170943040400743e-14 1.633650427750361345e-01
5.684341886080801487e-14 1.633650427750361345e-01
5.684341886080801487e-14 1.633650427750361345e-01
8.526512829121202230e-14 1.633650427750361345e-01
0.000000000000000000e+00 1.633650427750361345e-01
2.842170943040400743e-14 1.633650427750361345e-01
2.842170943040400743e-14 1.633650427750361345e-01
0.000000000000000000e+00 1.633650427750361345e-01
8.526512829121202230e-14 1.633650427750361345e-01
5.684341886080801487e-14 1.633650427750361345e-01
5.684341886080801487e-14 1.633650427750361345e-01
0.000000000000000000e+00 1.633650427750361345e-01
2.842170943040400743e-14 1.633650427750361345e-01
2.842170943040400743e-14 1.633650427750361345e-01
0.000000000000000000e+00 1.633650427750361345e-01
8.526512829121202230e-14 1.633650427750361345e-01
5.684341886080801487e-14 1.633650427750361345e-01
5.684341886080801487e-14 1.633650427750361345e-01
2.842170943040400743e-14 1.633650427750361345e-01
5.684341886080801487e-14 1.633650427750361345e-01
2.842170943040400743e-14 1.633650427750361345e-01
0.000000000000000000e+00 1.633650427750361345e-01
2.842170943040400743e-14 1.633650427750361345e-01
8.526512829121202230e-14 1.633650427750361345e-01
2.842170943040400743e-14 1.633650427750361345e-01
5.684341886080801487e-14 1.633650427750361345e-01
8.526512829121202230e-14 1.633650427750361345e-01
8.526512829121202230e-14 1.633650427750361345e-01
0.000000000000000000e+00 1.633650427750361345e-01
2.842170943040400743e-14 1.633650427750361345e-01
5.684341886080801487e-14 1.633650427750361345e-01
2.842170943040400743e-14 1.633650427750361345e-01
5.684341886080801487e-14 1.633650427750361345e-01
1.136868377216160297e-13 1.633650427750361345e-01
8.526512829121202230e-14 1.633650427750361345e-01
0.000000000000000000e+00 1.633650427750361345e-01
5.684341886080801487e-14 1.633650427750361345e-01
5.684341886080801487e-14 1.633650427750361345e-01
0.000000000000000000e+00 1.633650427750361345e-01
