0.000000000000000000e+00 nan
1.000010827648651235e+00 1.604383002944181347e-01
2.000021655297302470e+00 9.429687272760708394e-01
3.000032482945953927e+00 9.592692563893435720e-01
4.000043310594604939e+00 9.591631872164252393e-01
5.000054138243256396e+00 9.589884585683264850e-01
6.000064965891907853e+00 9.587057111087563532e-01
7.000075793540557534e+00 9.583751277802288193e-01
8.000086621189209879e+00 9.581049705791329085e-01
9.000097448837861336e+00 9.577894054905723431e-01
1.000010827648651279e+01 9.574175815907080000e-01
1.100011910413516425e+01 9.571445936636948648e-01
1.200012993178381571e+01 9.567824779828200121e-01
1.300014075943246183e+01 9.564890111962417452e-01
1.400015158708111507e+01 9.562639743164305095e-01
1.500016241472976120e+01 9.559149552142286455e-01
1.600017324237841976e+01 9.556435963472591499e-01
1.700018407002706056e+01 9.554008207761390814e-01
1.800019489767572267e+01 9.549041286190411704e-01
1.900020572532435281e+01 9.545775757266443673e-01
2.000021655297302559e+01 9.541166428119776111e-01
2.100022738062165573e+01 9.535357193631955885e-01
2.200023820827032850e+01 9.530843937187051251e-01
2.300024903591895864e+01 9.524509397926287368e-01
2.400025986356763141e+01 9.518812972596751854e-01
2.500027069121626155e+01 9.513016809352051739e-01
2.600028151886492367e+01 9.506845073353420439e-01
2.700029234651356447e+01 9.501121150019119499e-01
2.800030317416223014e+01 9.493656261872795987e-01
2.900031400181087804e+01 9.486533561424491667e-01
3.000032482945952239e+01 9.480797591367483568e-01
3.100033565710817030e+01 9.474653496398279806e-01
3.200034648475683952e+01 9.469854254047317399e-01
3.300035731240549097e+01 9.464593700322214698e-01
3.400036814005412111e+01 9.456453708687603266e-01
3.500037896770277968e+01 9.452493282020689724e-01
3.600038979535144534e+01 9.444443129276991478e-01
3.700040062300010391e+01 9.437471330873455910e-01
3.800041145064870562e+01 9.430732673567391311e-01
3.900042227829737840e+01 9.423459472417904381e-01
4.000043310594605117e+01 9.417266382762762289e-01
4.100044393359465289e+01 9.410490965176362410e-01
4.200045476124331145e+01 9.401682613060015070e-01
4.300046558889198423e+01 9.392871620834242208e-01
4.400047641654065700e+01 9.383093788911380795e-01
4.500048724418931556e+01 9.374575037564909508e-01
4.600049807183791728e+01 9.366977461503942504e-01
4.700050889948659005e+01 9.358335341289872877e-01
4.800051972713526283e+01 9.348342819119479508e-01
4.900053055478386455e+01 9.337007472500503669e-01
5.000054138243252311e+01 9.324151241579504701e-01
5.100055221008118878e+01 9.313514494987772396e-01
5.200056303772984734e+01 9.302921612600697499e-01
5.300057386537847037e+01 9.290972621154643951e-01
5.400058469302712894e+01 9.277777572068022227e-01
5.500059552067578039e+01 9.271461620259838776e-01
5.600060634832446027e+01 9.254134410112592191e-01
5.700061717597306910e+01 9.251314157070983368e-01
5.800062800362175608e+01 9.240375890687267946e-01
5.900063883127040043e+01 9.217021895613265459e-01
6.000064965891904478e+01 9.208490433503772055e-01
6.100066048656770334e+01 9.192707789546248343e-01
6.200067131421634059e+01 9.174745474230552311e-01
6.300068214186498494e+01 9.154764238711979862e-01
6.400069296951367903e+01 9.140230337892727430e-01
6.500070379716227364e+01 9.121584586614784884e-01
6.600071462481098195e+01 9.102568611106666152e-01
6.700072545245960498e+01 9.091503283496158438e-01
6.800073628010824223e+01 9.071707102738557627e-01
6.900074710775692211e+01 9.053477050378564428e-01
7.000075793540555935e+01 9.037927711268728403e-01
7.100076876305418239e+01 9.019281896358972705e-01
7.200077959070289069e+01 9.000582870032299843e-01
7.300079041835148530e+01 8.983378148569681754e-01
7.400080124600020781e+01 8.972163587773755999e-01
7.500081207364881664e+01 8.949394281697841125e-01
7.600082290129741125e+01 8.928655761577402039e-01
7.700083372894613376e+01 8.905782366731478383e-01
7.800084455659475680e+01 8.898420726721938401e-01
7.900085538424337983e+01 8.851538027132321851e-01
8.000086621189210234e+01 8.854093805249084737e-01
8.100087703954069696e+01 8.828472720389499706e-01
8.200088786718930578e+01 8.813712055455062977e-01
8.300089869483802829e+01 8.785000900530963719e-01
8.400090952248662290e+01 8.767304532265892680e-01
8.500092035013534542e+01 8.738483895975895921e-01
8.600093117778396845e+01 8.729222513878597267e-01
8.700094200543259149e+01 8.706030719176276467e-01
8.800095283308131400e+01 8.690643039862944175e-01
8.900096366072990861e+01 8.672927520512114796e-01
9.000097448837863112e+01 8.652817760248847634e-01
9.100098531602723995e+01 8.646924417909133131e-01
9.200099614367583456e+01 8.616940042130696309e-01
9.300100697132455707e+01 8.616679307874448579e-01
9.400101779897318011e+01 8.586459571208380215e-01
9.500102862662180314e+01 8.563854904357196540e-01
9.600103945427052565e+01 8.541556685504713142e-01
9.700105028191912027e+01 8.515270296648410620e-01
9.800106110956772909e+01 8.489249499617788075e-01
9.900107193721645160e+01 8.476579975385164500e-01
1.000010827648650462e+02 8.462586691247608872e-01
1.010010935925137687e+02 8.428017306419548493e-01
1.020011044201623776e+02 8.420585484442280055e-01
1.030011152478110006e+02 8.398481750314765737e-01
1.040011260754596947e+02 8.399167663075030044e-01
1.050011369031083603e+02 8.383505382726302857e-01
1.060011477307569407e+02 8.372937500238326614e-01
1.070011585584056633e+02 8.357240140432725672e-01
1.080011693860542579e+02 8.339104517604998268e-01
1.090011802137029520e+02 8.323247428828501882e-01
1.100011910413515608e+02 8.315858913554723397e-01
1.110012018690002549e+02 8.289075428673555734e-01
1.120012126966489205e+02 8.286724825461851962e-01
1.130012235242975436e+02 8.276846702063586081e-01
1.140012343519461382e+02 8.261863994708474879e-01
1.150012451795948323e+02 8.261878053550865131e-01
1.160012560072435122e+02 8.242366298860333007e-01
1.170012668348922062e+02 8.241836919212762735e-01
1.180012776625408009e+02 8.226721489794247555e-01
1.190012884901893955e+02 8.213410859363154959e-01
1.200012993178380896e+02 8.197309767388190060e-01
1.210013101454867979e+02 8.197760378074441245e-01
1.220013209731354067e+02 8.172201297555384825e-01
1.230013318007840866e+02 8.171790141411411357e-01
1.240013426284326812e+02 8.170491914385183962e-01
1.250013534560812758e+02 8.153423235777602640e-01
1.260013642837299699e+02 8.142363090169418838e-01
1.270013751113786498e+02 8.137773928454972161e-01
1.280013859390273581e+02 8.146931749222511288e-01
1.290013967666759527e+02 8.126435101534238425e-01
1.300014075943245473e+02 8.114351590299091477e-01
1.310014184219732272e+02 8.118471588025643060e-01
1.320014292496219639e+02 8.111271189983795260e-01
1.330014400772706438e+02 8.100654306967229878e-01
1.340014509049192100e+02 8.104770562426287794e-01
1.350014617325678330e+02 8.072802197770269084e-01
1.360014725602164845e+02 8.083742421394076727e-01
1.370014833878651075e+02 8.061416339826125155e-01
1.380014942155138442e+02 8.051733215016333434e-01
1.390015050431624957e+02 8.040554767683322224e-01
1.400015158708111187e+02 8.041666245839939053e-01
1.410015266984596849e+02 8.016465275261966950e-01
1.420015375261083648e+02 8.026059790605348798e-01
1.430015483537571015e+02 8.012252679440845515e-01
1.440015591814057814e+02 7.996522195239724740e-01
1.450015700090543760e+02 7.993825568507325618e-01
1.460015808367029706e+02 7.986721832920320452e-01
1.470015916643516221e+02 7.986313158680430346e-01
1.480016024920004156e+02 7.979822947954360313e-01
1.490016133196490671e+02 7.979950622433019669e-01
1.500016241472976333e+02 7.979630900185423759e-01
1.510016349749462563e+02 7.980716272195483851e-01
1.520016458025948225e+02 7.981975474194765718e-01
1.530016566302434740e+02 7.989604643277076201e-01
1.540016674578922675e+02 7.999213010658987599e-01
1.550016782855409190e+02 8.012799095893247125e-01
1.560016891131895136e+02 7.999881999862026305e-01
1.570016999408381082e+02 8.010100626777966193e-01
1.580017107684867597e+02 8.016626650172701263e-01
1.590017215961355532e+02 8.020369395782253052e-01
1.600017324237842047e+02 8.031216680395224516e-01
1.610017432514327709e+02 8.021772684724388647e-01
1.620017540790813939e+02 8.029207822527859584e-01
1.630017649067300454e+02 8.025060694277527107e-01
1.640017757343786116e+02 8.030787368638526713e-01
1.650017865620274051e+02 8.034258453236259312e-01
1.660017973896760566e+02 8.046508457468160014e-01
1.670018082173246796e+02 8.050058771480379516e-01
1.680018190449732458e+02 8.051914362150154325e-01
1.690018298726218973e+02 8.048680921868811566e-01
1.700018407002706908e+02 8.053700230133304938e-01
1.710018515279193423e+02 8.064354967999627366e-01
1.720018623555679369e+02 8.060100257835248749e-01
1.730018731832165315e+02 8.067831127621348797e-01
1.740018840108651830e+02 8.063160787422145592e-01
1.750018948385139765e+02 8.071033674970530258e-01
1.760019056661626280e+02 8.077300959735754793e-01
1.770019164938111942e+02 8.079556505716450898e-01
1.780019273214598172e+02 8.086865606813031793e-01
1.790019381491084687e+02 8.084426280007928067e-01
1.800019489767572622e+02 8.089980942538541608e-01
1.810019598044058284e+02 8.085677551902292759e-01
1.820019706320544799e+02 8.090173859104758947e-01
1.830019814597031029e+02 8.088868793626545761e-01
1.840019922873516691e+02 8.087164085299225480e-01
1.850020031150003206e+02 8.090817970417873983e-01
1.860020139426491141e+02 8.091457817425001808e-01
1.870020247702977656e+02 8.093303468642034648e-01
1.880020355979463602e+02 8.093586989278168664e-01
1.890020464255949548e+02 8.093176749505084366e-01
1.900020572532436063e+02 8.090785975906389371e-01
1.910020680808923998e+02 8.090452943946694342e-01
1.920020789085410513e+02 8.097056839633512970e-01
1.930020897361896175e+02 8.089295103915460361e-01
1.940021005638382405e+02 8.094266813440224029e-01
1.950021113914868067e+02 8.097780931385796244e-01
1.960021222191354582e+02 8.093274770984169031e-01
1.970021330467842517e+02 8.094859933568044896e-01
1.980021438744329032e+02 8.094756986219134864e-01
1.990021547020814978e+02 8.094422874425103442e-01
2.000021655297300924e+02 8.099118503343696318e-01
2.010021763573787439e+02 8.092381480161872087e-01
2.020021871850275375e+02 8.097736591115253235e-01
2.030021980126761321e+02 8.099678105898280300e-01
2.040022088403247551e+02 8.099612936344002811e-01
2.050022196679734350e+02 8.104572013330160196e-01
2.060022304956220012e+02 8.102885003222759508e-01
2.070022413232708232e+02 8.107499033194827120e-01
2.080022521509193894e+02 8.100864897670355669e-01
2.090022629785680408e+02 8.113759671128942808e-01
2.100022738062167207e+02 8.108581126595332256e-01
2.110022846338652300e+02 8.112591952796536221e-01
2.120022954615138815e+02 8.107080463283961036e-01
2.130023062891626751e+02 8.112023109418466937e-01
2.140023171168113265e+02 8.113001683811750242e-01
2.150023279444598927e+02 8.113105928302782877e-01
2.160023387721085157e+02 8.115321411605048718e-01
2.170023495997572240e+02 8.114939424070957141e-01
2.180023604274059039e+02 8.120727376414371701e-01
2.190023712550546122e+02 8.120399087310649078e-01
2.200023820827031216e+02 8.116804545551243866e-01
2.210023929103518014e+02 8.125313790751640397e-01
2.220024037380005097e+02 8.127032875636107656e-01
2.230024145656490191e+02 8.127550365159007528e-01
2.240024253932978411e+02 8.134470926315969797e-01
2.250024362209464073e+02 8.127834650245456816e-01
2.260024470485950872e+02 8.130782957510589437e-01
2.270024578762437102e+02 8.138731392183941038e-01
2.280024687038922764e+02 8.134821584548597162e-01
2.290024795315411268e+02 8.141709087854238636e-01
2.300024903591896646e+02 8.143608966838318253e-01
2.310025011868383444e+02 8.147965973155318897e-01
2.320025120144870243e+02 8.146258929009881911e-01
2.330025228421355621e+02 8.149691528278913966e-01
2.340025336697844125e+02 8.148818482529281981e-01
2.350025444974328934e+02 8.151801156754630018e-01
2.360025553250816017e+02 8.150428294017568742e-01
2.370025661527303100e+02 8.151570098994459501e-01
2.380025769803787909e+02 8.152324276760094524e-01
2.390025878080274992e+02 8.152624193660124030e-01
2.400025986356761791e+02 8.155839627487503352e-01
2.410026094633248874e+02 8.150601358243600991e-01
2.420026202909735957e+02 8.150486942106268673e-01
2.430026311186220767e+02 8.153533108124072504e-01
2.440026419462708134e+02 8.148374694536658636e-01
2.450026527739194364e+02 8.154870494003908510e-01
2.460026636015681731e+02 8.150379726069112429e-01
2.470026744292166541e+02 8.150213338299606702e-01
2.480026852568653624e+02 8.149954396515119992e-01
2.490026960845140707e+02 8.146992144392086743e-01
2.500027069121625516e+02 8.145628183597058980e-01
2.510027177398114020e+02 8.144997192999877678e-01
2.520027285674599398e+02 8.145170257225909927e-01
2.530027393951086481e+02 8.144081863901228013e-01
2.540027502227572995e+02 8.143493419350537055e-01
2.550027610504058373e+02 8.145122998386576940e-01
2.560027718780547161e+02 8.144240266105083892e-01
2.570027827057031686e+02 8.143245081349945735e-01
2.580027935333519054e+02 8.143384894204257485e-01
2.590028043610006421e+02 8.143040729415879087e-01
2.600028151886490946e+02 8.143103304831946776e-01
2.610028260162980018e+02 8.143071362569351823e-01
2.620028368439464543e+02 8.143087333700649300e-01
2.630028476715951342e+02 8.143111290397597735e-01
2.640028584992439278e+02 8.143111290397597735e-01
2.650028693268923803e+02 8.143119275963246473e-01
2.660028801545412875e+02 8.143119275963246473e-01
2.670028909821896832e+02 8.143119275963246473e-01
2.680029018098384199e+02 8.143119275963246473e-01
2.690029126374869293e+02 8.143119275963246473e-01
2.700029234651356660e+02 8.143119275963246473e-01
2.710029342927844027e+02 8.143119275963246473e-01
2.720029451204329689e+02 8.143119275963246473e-01
2.730029559480817056e+02 8.143119275963246473e-01
2.740029667757302150e+02 8.143119275963246473e-01
2.750029776033789517e+02 8.143119275963246473e-01
2.760029884310276884e+02 8.143119275963246473e-01
2.770029992586760841e+02 8.143119275963246473e-01
2.780030100863249913e+02 8.143119275963246473e-01
2.790030209139734438e+02 8.143119275963246473e-01
2.800030317416222374e+02 8.143119275963246473e-01
2.810030425692709173e+02 8.143119275963246473e-01
2.820030533969193698e+02 8.143119275963246473e-01
2.830030642245682770e+02 8.143119275963246473e-01
2.840030750522167295e+02 8.143119275963246473e-01
2.850030858798654663e+02 8.143119275963246473e-01
2.860030967075142030e+02 8.143119275963246473e-01
2.870031075351626555e+02 8.143119275963246473e-01
2.880031183628115627e+02 8.143119275963246473e-01
2.890031291904600153e+02 8.143119275963246473e-01
2.900031400181087520e+02 8.143119275963246473e-01
2.910031508457574887e+02 8.143119275963246473e-01
2.920031616734059412e+02 8.143119275963246473e-01
2.930031725010548485e+02 8.143119275963246473e-01
2.940031833287032441e+02 8.143119275963246473e-01
2.950031941563519808e+02 8.143119275963246473e-01
2.960032049840008312e+02 8.143119275963246473e-01
2.970032158116492269e+02 8.143119275963246473e-01
2.980032266392981342e+02 8.143119275963246473e-01
2.990032374669465298e+02 8.143119275963246473e-01
3.000032482945952665e+02 8.143119275963246473e-01
3.010032591222440033e+02 8.143119275963246473e-01
3.020032699498925126e+02 8.143119275963246473e-01
3.030032807775412493e+02 8.143119275963246473e-01
3.040032916051896450e+02 8.143119275963246473e-01
3.050033024328385522e+02 8.143119275963246473e-01
3.060033132604869479e+02 8.143119275963246473e-01
3.070033240881357983e+02 8.143119275963246473e-01
3.080033349157845350e+02 8.143119275963246473e-01
3.090033457434329307e+02 8.143119275963246473e-01
3.100033565710818380e+02 8.143119275963246473e-01
3.110033673987302336e+02 8.143119275963246473e-01
3.120033782263790272e+02 8.143119275963246473e-01
3.130033890540278207e+02 8.143119275963246473e-01
3.140033998816762164e+02 8.143119275963246473e-01
3.150034107093251237e+02 8.143119275963246473e-01
3.160034215369735193e+02 8.143119275963246473e-01
3.170034323646223129e+02 8.143119275963246473e-01
3.180034431922711065e+02 8.143119275963246473e-01
3.190034540199195021e+02 8.143119275963246473e-01
3.200034648475684094e+02 8.143119275963246473e-01
3.210034756752168050e+02 8.143119275963246473e-01
3.220034865028655418e+02 8.143119275963246473e-01
3.230034973305143922e+02 8.143119275963246473e-01
3.240035081581627878e+02 8.143119275963246473e-01
3.250035189858116951e+02 8.143119275963246473e-01
3.260035298134600907e+02 8.143119275963246473e-01
3.270035406411088275e+02 8.143119275963246473e-01
3.280035514687572231e+02 8.143119275963246473e-01
3.290035622964060735e+02 8.143119275963246473e-01
3.300035731240548103e+02 8.143119275963246473e-01
3.310035839517033764e+02 8.143119275963246473e-01
3.320035947793521132e+02 8.143119275963246473e-01
3.330036056070005088e+02 8.143119275963246473e-01
3.340036164346493592e+02 8.143119275963246473e-01
3.350036272622980960e+02 8.143119275963246473e-01
3.360036380899464916e+02 8.143119275963246473e-01
3.370036489175953989e+02 8.143119275963246473e-01
3.380036597452437945e+02 8.143119275963246473e-01
