#####################################################################
# Alchemist log file - simulation started at: 2017-05-23T21:47+0000 #
#####################################################################
# random = 13.0, targets = 1.0, density = 0.1591589639397027, gridShift = 1.0, perturbation = 0.5, connfactor = 0.75
#
# The columns have the following meaning: 
# time se[Mean] 
0.0 NaN 
1.0170171764237625 NaN 
2.0170171764237628 1.0 
3.0170171764237628 1.0 
4.017017176423763 0.975 
5.017017176423763 0.9 
6.017017176423763 0.8 
7.017017176423763 0.7 
8.017017176423764 0.6 
9.017017176423764 0.5 
10.017017176423764 0.3416666666666666 
11.017017176423764 0.275 
12.017017176423764 0.23333333333333334 
13.017017176423764 0.2833333333333333 
14.017017176423764 0.25833333333333336 
15.017017176423764 0.23333333333333328 
16.017017176423764 0.375 
17.017017176423764 0.1833333333333334 
18.017017176423764 0.06666666666666667 
19.017017176423764 0.0 
20.017017176423764 0.0 
21.017017176423764 0.0 
22.017017176423764 0.0 
23.017017176423764 0.0 
24.017017176423764 0.0 
#####################################################################
# End of data export. Simulation finished at: 2017-05-23T21:47+0000 #
#####################################################################
