#####################################################################
# Alchemist log file - simulation started at: 2017-05-20T12:54+0000 #
#####################################################################
# random = 1.0, targets = 3.1622776601683795, density = 0.05649405772326896, gridShift = 1.0, perturbation = 0.0, connfactor = 0.5
#
# The columns have the following meaning: 
# time se[Mean] 
0.0 NaN 
1.016676366669265 NaN 
2.016676366669265 1.0 
3.016676366669265 1.0 
4.016676366669265 0.9667215292478952 
5.016676366669265 0.7440244333022558 
6.016676366669265 0.613651873413575 
7.016676366669265 0.3885972516245718 
8.016676366669266 0.17894854069899271 
9.016676366669266 0.20016555091258792 
10.016676366669266 0.13284113525174193 
11.016676366669266 0.14062620396112765 
12.016676366669266 0.13508893593264829 
13.016676366669266 0.13508893593264829 
14.016676366669266 0.13508893593264829 
15.016676366669266 0.13508893593264829 
#####################################################################
# End of data export. Simulation finished at: 2017-05-20T12:54+0000 #
#####################################################################
