#####################################################################
# Alchemist log file - simulation started at: 2017-05-24T12:56+0000 #
#####################################################################
# random = 14.0, targets = 100.0, density = 20.0, gridShift = 0.0, perturbation = 0.5, connfactor = 1.0
#
# The columns have the following meaning: 
# time se[Mean] 
0.0 NaN 
1.000243821151474 NaN 
2.000243821151474 1.0009734995274102 
3.000243821151474 1.0018225221854653 
4.000243821151474 1.0027809835118673 
5.000243821151474 1.0030025605177484 
6.000243821151474 1.0012547747978366 
7.000243821151474 1.000508201073829 
8.000243821151475 0.999184664789435 
9.000243821151475 0.9986838823907792 
10.000243821151475 0.9978083047810334 
11.000243821151475 0.9983035417979416 
12.000243821151475 0.9975137021502836 
13.000243821151475 0.9975936078948751 
14.000243821151475 0.9979697867438564 
15.000243821151475 0.9976990709015963 
16.000243821151475 0.9982582220778198 
17.000243821151475 0.9981797222878597 
18.000243821151475 0.9985139404143037 
19.000243821151475 0.9987022073881537 
20.000243821151475 0.9991933279510606 
21.000243821151475 0.9995655541115311 
22.000243821151475 1.0001660565663726 
23.000243821151475 1.00082735802615 
24.000243821151475 1.0022656699616677 
25.000243821151475 1.0022851682288385 
26.000243821151475 1.0027568643667295 
27.000243821151475 1.0034786497715815 
28.000243821151475 1.0027816001759084 
29.000243821151475 1.002585870877967 
30.000243821151475 1.0016628971067003 
31.000243821151475 0.999137145557656 
32.00024382115147 0.9982356729809914 
33.00024382115147 0.9956533527620247 
34.00024382115147 0.9928299428297627 
35.00024382115147 0.9918438353287125 
36.00024382115147 0.9872224171655113 
37.00024382115147 0.9854851892328292 
38.00024382115147 0.9824092768719805 
39.00024382115147 0.976965737568263 
40.00024382115147 0.9750478365889519 
41.00024382115147 0.971481654326822 
42.00024382115147 0.9644786107172861 
43.00024382115147 0.964325376430897 
44.00024382115147 0.9595981313011971 
45.00024382115147 0.9564907749816217 
46.00024382115147 0.9534578581180426 
47.00024382115147 0.9505329089870826 
48.00024382115147 0.945296991178324 
49.00024382115147 0.9424300425987183 
50.00024382115147 0.940825085985087 
51.00024382115147 0.9355057262129807 
52.00024382115147 0.9353939777620249 
53.00024382115147 0.9291422495274105 
54.00024382115147 0.9288811384162987 
55.00024382115147 0.9260841570835958 
56.00024382115147 0.9208701247768325 
57.00024382115147 0.9181176817501573 
58.00024382115147 0.9144266258401593 
59.00024382115147 0.9136327169974796 
60.00024382115147 0.9057736685438981 
61.00024382115147 0.9074931100346566 
62.00024382115147 0.9038720216997485 
63.00024382115147 0.9006337855755091 
64.00024382115147 0.9017618921970174 
65.00024382115147 0.8965992527173908 
66.00024382115147 0.8970261854127287 
67.00024382115147 0.8998857691398869 
68.00024382115147 0.8960335955550304 
69.00024382115147 0.8925577786967022 
70.00024382115147 0.900407449852972 
71.00024382115147 0.8972082900126023 
72.00024382115147 0.8953369693210458 
73.00024382115147 0.8980986567291532 
74.00024382115147 0.8964780436095359 
75.00024382115147 0.897344075233669 
76.00024382115147 0.894358154471225 
77.00024382115147 0.893563396936043 
78.00024382115147 0.8925841199984242 
79.00024382115147 0.8922943269533715 
80.00024382115147 0.890493420828082 
81.00024382115147 0.8883364757272627 
82.00024382115147 0.8874609588321781 
83.00024382115147 0.8811218037833438 
84.00024382115147 0.8822895731595253 
85.00024382115147 0.8785631051774835 
86.00024382115147 0.8751136089450744 
87.00024382115147 0.8731274394166141 
88.00024382115147 0.8716727689823561 
89.00024382115147 0.8685433968704053 
90.00024382115147 0.863744624619303 
91.00024382115147 0.8631766120562905 
92.00024382115147 0.8612081150887418 
93.00024382115147 0.8580474115863261 
94.00024382115147 0.8572756074747956 
95.00024382115147 0.8516760977867047 
96.00024382115147 0.8561226941556396 
97.00024382115147 0.853011184625079 
98.00024382115147 0.8499186331653017 
99.00024382115147 0.8503782772789331 
100.00024382115147 0.8477408104258558 
101.00024382115147 0.8472215412334597 
102.00024382115147 0.8462548053192608 
103.00024382115147 0.8423488195100818 
104.00024382115147 0.8457260039251209 
105.00024382115147 0.8448745592443816 
106.00024382115147 0.8412681582781981 
107.00024382115147 0.8439415393299726 
108.00024382115147 0.843273956036022 
109.00024382115147 0.8428317199642933 
110.00024382115147 0.8395689649627183 
111.00024382115147 0.839387152121403 
112.00024382115147 0.84099279563117 
113.00024382115147 0.8390108137733668 
114.00024382115147 0.840232075063012 
115.00024382115147 0.8378086812119304 
116.00024382115147 0.8409557826612055 
117.00024382115147 0.8373998037439613 
118.00024382115147 0.8314068029956942 
119.00024382115147 0.8331586306710776 
120.00024382115147 0.830641400178534 
121.00024382115147 0.829308652331443 
122.00024382115147 0.8262535496744382 
123.00024382115147 0.8241223242884899 
124.00024382115147 0.8259197289828818 
125.00024382115147 0.826849590093993 
126.00024382115147 0.8202833720594414 
127.00024382115147 0.8149844324327874 
128.00024382115146 0.8183811328371141 
129.00024382115146 0.812584859404537 
130.00024382115146 0.8101699262234825 
131.00024382115146 0.8063896417506827 
132.00024382115146 0.8054802998976056 
133.00024382115146 0.8086579903775468 
134.00024382115146 0.806904067225898 
135.00024382115146 0.803315983052405 
136.00024382115146 0.8046128304846673 
137.00024382115146 0.8042602634031717 
138.00024382115146 0.7989336191845202 
139.00024382115146 0.797489262694287 
140.00024382115146 0.7930333766540645 
141.00024382115146 0.7954956219806765 
142.00024382115146 0.7923176049543165 
143.00024382115146 0.7877977594649235 
144.00024382115146 0.7903942964319473 
145.00024382115146 0.8011690699826719 
146.00024382115146 0.8574737942396555 
147.00024382115146 0.815184859404537 
148.00024382115146 0.8892261552194918 
149.00024382115146 0.9256703180791857 
150.00024382115146 0.9536061003465665 
151.00024382115146 0.9510280527987817 
152.00024382115146 0.9369165317816631 
153.00024382115146 1.0333084619827768 
154.00024382115146 1.012741176354758 
155.00024382115146 1.0486649312119303 
156.00024382115146 1.0456813829158793 
157.00024382115146 1.075070836943395 
158.00024382115146 1.18364889039855 
159.00024382115146 1.136411172810334 
160.00024382115146 1.0450013770741455 
161.00024382115146 1.1142090264650293 
162.00024382115146 1.155114570205839 
163.00024382115146 1.033636278486663 
164.00024382115146 1.0253748910417981 
165.00024382115146 1.061624181500735 
166.00024382115146 1.0809932741283348 
167.00024382115146 1.0552152275651132 
168.00024382115146 1.019554931343205 
169.00024382115146 1.0730656122006936 
170.00024382115146 1.1007700210696287 
171.00024382115146 1.083563735953581 
172.00024382115146 1.0300986757640205 
173.00024382115146 1.1008912249264864 
174.00024382115146 1.06696681271004 
175.00024382115146 1.049766892459568 
176.00024382115146 1.0933374842470072 
177.00024382115146 1.067737764519009 
178.00024382115146 1.0831793422469025 
179.00024382115146 1.0908784676275993 
180.00024382115146 1.075372155272002 
181.00024382115146 1.0221758844649231 
182.00024382115146 1.0683160381878807 
183.00024382115146 1.0956419866493392 
184.00024382115146 1.0911215399207108 
185.00024382115146 1.1153362312276838 
186.00024382115146 1.078996955405902 
187.00024382115146 1.1003380388836388 
188.00024382115146 1.1233257206994338 
189.00024382115146 1.0820812568919345 
190.00024382115146 1.1280462045132313 
191.00024382115146 1.1523219130697322 
192.00024382115146 1.1159698947174965 
193.00024382115146 1.1830121130671083 
194.00024382115146 1.2253599749264859 
195.00024382115146 1.052795557655955 
196.00024382115146 1.1854829188327032 
197.00024382115146 1.026942573776518 
198.00024382115146 1.0834371107697967 
199.00024382115146 1.057534100635372 
200.00024382115146 0.9527610067475308 
201.00024382115146 0.8614064091708677 
202.00024382115146 0.867461678218862 
203.00024382115146 0.8499591232802982 
204.00024382115146 0.8359438786494438 
205.00024382115146 0.7884012464555772 
206.00024382115146 0.8034412643089687 
207.00024382115146 0.7955932383559134 
208.00024382115146 0.787544870103445 
209.00024382115146 0.7777705002231673 
210.00024382115146 0.7266839710013656 
211.00024382115146 0.7448180939534755 
212.00024382115146 0.6780005900808658 
213.00024382115146 0.6914285457361902 
214.00024382115146 0.6812592804820418 
215.00024382115146 0.6644264715921028 
216.00024382115146 0.6540771345305609 
217.00024382115146 0.6539318102158163 
218.00024382115146 0.6527586283737663 
219.00024382115146 0.6564940194418193 
220.00024382115146 0.6506282513521323 
221.00024382115146 0.6508554147631803 
222.00024382115146 0.6505397257666459 
223.00024382115146 0.6494266478287125 
224.00024382115146 0.6465241591839951 
225.00024382115146 0.6382224014125186 
226.00024382115146 0.642049743357488 
227.00024382115146 0.6382593553087588 
228.00024382115146 0.638295259661836 
229.00024382115146 0.6408444451008194 
230.00024382115146 0.6388927716734931 
231.00024382115146 0.6437500055791852 
232.00024382115146 0.6484766780219493 
233.00024382115146 0.6487486590264652 
234.00024382115146 0.6499949885790801 
235.00024382115146 0.6502729005854864 
236.00024382115146 0.6499301167690613 
237.00024382115146 0.652128135830183 
238.00024382115146 0.6525203029825668 
239.00024382115146 0.6464947092916405 
240.00024382115146 0.651799417467444 
241.00024382115146 0.6469874455208992 
242.00024382115146 0.6491703249711197 
243.00024382115146 0.6494438573172654 
244.00024382115146 0.6470395124448647 
245.00024382115146 0.6450579726554296 
246.00024382115146 0.645018048335434 
247.00024382115146 0.6443172872689562 
248.00024382115146 0.6442395748004625 
249.00024382115146 0.6424529861767487 
250.00024382115146 0.6426654379332076 
251.00024382115146 0.6426507810859067 
252.00024382115146 0.6421690237082548 
253.00024382115146 0.6416924543163204 
254.00024382115146 0.641165282372401 
255.00024382115146 0.641032053730834 
256.00024382115146 0.6400055046865156 
257.00024382115146 0.6400989790091369 
258.00024382115146 0.6398596040747745 
259.00024382115146 0.6399147106700276 
260.00024382115146 0.6399548204158793 
261.00024382115146 0.6399698724007564 
262.00024382115146 0.6399811554820418 
263.00024382115146 0.6399962310964086 
264.00024382115146 0.6399962310964086 
265.00024382115146 0.6400000000000002 
266.00024382115146 0.6400000000000002 
267.00024382115146 0.6400000000000002 
268.00024382115146 0.6400000000000002 
269.00024382115146 0.6400000000000002 
270.00024382115146 0.6400000000000002 
271.00024382115146 0.6400000000000002 
272.00024382115146 0.6400000000000002 
273.00024382115146 0.6400000000000002 
274.00024382115146 0.6400000000000002 
275.00024382115146 0.6400000000000002 
276.00024382115146 0.6400000000000002 
277.00024382115146 0.6400000000000002 
278.00024382115146 0.6400000000000002 
279.00024382115146 0.6400000000000002 
280.00024382115146 0.6400000000000002 
281.00024382115146 0.6400000000000002 
282.00024382115146 0.6400000000000002 
283.00024382115146 0.6400000000000002 
284.00024382115146 0.6400000000000002 
285.00024382115146 0.6400000000000002 
286.00024382115146 0.6400000000000002 
287.00024382115146 0.6400000000000002 
288.00024382115146 0.6400000000000002 
289.00024382115146 0.6400000000000002 
290.00024382115146 0.6400000000000002 
291.00024382115146 0.6400000000000002 
292.00024382115146 0.6400000000000002 
293.00024382115146 0.6400000000000002 
294.00024382115146 0.6400000000000002 
295.00024382115146 0.6400000000000002 
296.00024382115146 0.6400000000000002 
297.00024382115146 0.6400000000000002 
298.00024382115146 0.6400000000000002 
299.00024382115146 0.6400000000000002 
300.00024382115146 0.6400000000000002 
301.00024382115146 0.6400000000000002 
302.00024382115146 0.6400000000000002 
303.00024382115146 0.6400000000000002 
304.00024382115146 0.6400000000000002 
305.00024382115146 0.6400000000000002 
306.00024382115146 0.6400000000000002 
307.00024382115146 0.6400000000000002 
308.00024382115146 0.6400000000000002 
309.00024382115146 0.6400000000000002 
310.00024382115146 0.6400000000000002 
311.00024382115146 0.6400000000000002 
312.00024382115146 0.6400000000000002 
313.00024382115146 0.6400000000000002 
314.00024382115146 0.6400000000000002 
315.00024382115146 0.6400000000000002 
316.00024382115146 0.6400000000000002 
317.00024382115146 0.6400000000000002 
318.00024382115146 0.6400000000000002 
319.00024382115146 0.6400000000000002 
320.00024382115146 0.6400000000000002 
321.00024382115146 0.6400000000000002 
322.00024382115146 0.6400000000000002 
323.00024382115146 0.6400000000000002 
324.00024382115146 0.6400000000000002 
325.00024382115146 0.6400000000000002 
326.00024382115146 0.6400000000000002 
327.00024382115146 0.6400000000000002 
328.00024382115146 0.6400000000000002 
329.00024382115146 0.6400000000000002 
330.00024382115146 0.6400000000000002 
331.00024382115146 0.6400000000000002 
332.00024382115146 0.6400000000000002 
333.00024382115146 0.6400000000000002 
334.00024382115146 0.6400000000000002 
335.00024382115146 0.6400000000000002 
336.00024382115146 0.6400000000000002 
337.00024382115146 0.6400000000000002 
338.00024382115146 0.6400000000000002 
339.00024382115146 0.6400000000000002 
340.00024382115146 0.6400000000000002 
341.00024382115146 0.6400000000000002 
342.00024382115146 0.6400000000000002 
343.00024382115146 0.6400000000000002 
344.00024382115146 0.6400000000000002 
345.00024382115146 0.6400000000000002 
346.00024382115146 0.6400000000000002 
347.00024382115146 0.6400000000000002 
348.00024382115146 0.6400000000000002 
349.00024382115146 0.6400000000000002 
350.00024382115146 0.6400000000000002 
351.00024382115146 0.6400000000000002 
352.00024382115146 0.6400000000000002 
353.00024382115146 0.6400000000000002 
354.00024382115146 0.6400000000000002 
355.00024382115146 0.6400000000000002 
356.00024382115146 0.6400000000000002 
357.00024382115146 0.6400000000000002 
358.00024382115146 0.6400000000000002 
359.00024382115146 0.6400000000000002 
360.00024382115146 0.6400000000000002 
361.00024382115146 0.6400000000000002 
362.00024382115146 0.6400000000000002 
363.00024382115146 0.6400000000000002 
364.00024382115146 0.6400000000000002 
365.00024382115146 0.6400000000000002 
366.00024382115146 0.6400000000000002 
367.00024382115146 0.6400000000000002 
368.00024382115146 0.6400000000000002 
369.00024382115146 0.6400000000000002 
370.00024382115146 0.6400000000000002 
371.00024382115146 0.6400000000000002 
#####################################################################
# End of data export. Simulation finished at: 2017-05-24T13:04+0000 #
#####################################################################
