#####################################################################
# Alchemist log file - simulation started at: 2017-05-24T06:44+0000 #
#####################################################################
# random = 14.0, targets = 3.1622776601683795, density = 0.894427190999916, gridShift = 0.0, perturbation = 0.0, connfactor = 1.5
#
# The columns have the following meaning: 
# time se[Mean] 
0.0 NaN 
1.0090008223538587 NaN 
2.0090008223538587 1.0 
3.0090008223538587 1.004385054950622 
4.009000822353858 1.0961075585738567 
5.009000822353858 1.4497684030275786 
6.009000822353858 1.8320156334427187 
7.009000822353858 1.7977175161952854 
8.009000822353858 1.6269537614126746 
9.009000822353858 1.7069061112621375 
10.009000822353858 1.4320086017685827 
11.009000822353858 1.5080392255142767 
12.009000822353858 1.4614963659180527 
13.009000822353858 1.3307762824241733 
14.009000822353858 1.2915479091292958 
15.009000822353858 1.2833058224943885 
16.00900082235386 1.0978427331199778 
17.00900082235386 1.0371766435332699 
18.00900082235386 0.8801323178095436 
19.00900082235386 0.8748779176673273 
20.00900082235386 0.8550136239527618 
21.00900082235386 0.8373779335874745 
22.00900082235386 0.8094252789427672 
23.00900082235386 0.9371485679483431 
24.00900082235386 0.9887301240410705 
25.00900082235386 1.0737241214781226 
26.00900082235386 1.0400836031881011 
27.00900082235386 1.0724623900949104 
28.00900082235386 1.1361567424203967 
29.00900082235386 1.100452292000745 
30.00900082235386 1.1143590826675729 
31.00900082235386 1.3542574919004335 
32.009000822353855 1.3921078740608623 
33.009000822353855 1.407484940721303 
34.009000822353855 1.2010613764280293 
35.009000822353855 1.0260856378827505 
36.009000822353855 0.7506867889526379 
37.009000822353855 0.563238609006745 
38.009000822353855 0.49834150438746627 
39.009000822353855 0.4612965128667485 
40.009000822353855 0.38011429369856875 
41.009000822353855 0.315586336056778 
42.009000822353855 0.2704453989162909 
43.009000822353855 0.1785716514542772 
44.009000822353855 0.07828949547054664 
45.009000822353855 0.06027445248048963 
46.009000822353855 0.045990791054878834 
47.009000822353855 0.03516841429668199 
48.009000822353855 0.03429817422567339 
49.009000822353855 0.011795868151539685 
50.009000822353855 0.008507276778206027 
51.009000822353855 0.007500504753064743 
52.009000822353855 0.005957277652986673 
53.009000822353855 0.005007599437554016 
54.009000822353855 0.0033456625605468716 
55.009000822353855 0.0028708234528305415 
56.009000822353855 0.0026334038989723777 
57.009000822353855 0.0026334038989723777 
58.009000822353855 0.0026334038989723777 
59.009000822353855 0.0026334038989723777 
60.009000822353855 0.0026334038989723777 
61.009000822353855 0.0026334038989723777 
62.009000822353855 0.0026334038989723777 
63.009000822353855 0.0026334038989723777 
64.00900082235385 0.0026334038989723777 
65.00900082235385 0.0026334038989723777 
66.00900082235385 0.0026334038989723777 
67.00900082235385 0.0026334038989723777 
68.00900082235385 0.0026334038989723777 
69.00900082235385 0.0026334038989723777 
70.00900082235385 0.0026334038989723777 
71.00900082235385 0.0026334038989723777 
72.00900082235385 0.0026334038989723777 
73.00900082235385 0.0026334038989723777 
74.00900082235385 0.0026334038989723777 
#####################################################################
# End of data export. Simulation finished at: 2017-05-24T06:44+0000 #
#####################################################################
