#####################################################################
# Alchemist log file - simulation started at: 2017-05-24T01:52+0000 #
#####################################################################
# random = 13.0, targets = 31.622776601683793, density = 0.1591589639397027, gridShift = 0.0, perturbation = 0.5, connfactor = 1.5
#
# The columns have the following meaning: 
# time se[Mean] 
0.0 NaN 
1.0093475742791087 NaN 
2.0093475742791087 1.161950394919274 
3.0093475742791087 1.1838449348289084 
4.009347574279109 1.5103450594121026 
5.009347574279109 1.946090582442853 
6.009347574279109 2.19571064473445 
7.009347574279109 3.090636106771178 
8.009347574279108 3.41480733711232 
9.009347574279108 3.360040190767516 
10.009347574279108 3.4338246921503943 
11.009347574279108 3.3052580871265373 
12.009347574279108 2.626880257053961 
13.009347574279108 2.864939805317734 
14.009347574279108 3.67591283984577 
15.009347574279108 4.871780492634527 
16.009347574279108 3.5358306478569053 
17.009347574279108 4.662930059188497 
18.009347574279108 5.939001474579548 
19.009347574279108 4.800130921903488 
20.009347574279108 9.892978260779946 
21.009347574279108 3.925868244295276 
22.009347574279108 7.468007588225068 
23.009347574279108 4.088690832967555 
24.009347574279108 3.8983016742698933 
25.009347574279108 4.172390986547273 
26.009347574279108 2.8574066747972005 
27.009347574279108 2.914870851257753 
28.009347574279108 2.9411234802209294 
29.009347574279108 2.88968444428158 
30.009347574279108 2.9369996802679728 
31.009347574279108 2.8906665479225584 
32.009347574279104 2.8841418147303566 
33.009347574279104 2.8841418147303566 
34.009347574279104 2.875402170474087 
35.009347574279104 2.875402170474087 
36.009347574279104 2.875402170474087 
37.009347574279104 2.875402170474087 
38.009347574279104 2.875402170474087 
39.009347574279104 2.875402170474087 
40.009347574279104 2.875402170474087 
41.009347574279104 2.875402170474087 
42.009347574279104 2.875402170474087 
43.009347574279104 2.875402170474087 
44.009347574279104 2.875402170474087 
#####################################################################
# End of data export. Simulation finished at: 2017-05-24T01:52+0000 #
#####################################################################
