#####################################################################
# Alchemist log file - simulation started at: 2017-05-21T05:43+0000 #
#####################################################################
# random = 2.0, targets = 3.1622776601683795, density = 3.5589026259761294, gridShift = 0.0, perturbation = 0.5, connfactor = 1.0
#
# The columns have the following meaning: 
# time se[Mean] 
0.0 NaN 
1.0021051854459069 NaN 
2.002105185445907 1.0231798047910945 
3.002105185445907 1.0355556168941626 
4.002105185445907 1.0503696604983142 
5.002105185445907 1.050300767087604 
6.002105185445907 1.0339753996641992 
7.002105185445907 0.9891994891658851 
8.002105185445906 0.981854832013298 
9.002105185445906 0.9801287718183119 
10.002105185445906 0.9772017835344975 
11.002105185445906 0.9860972414856003 
12.002105185445906 0.9790431537480553 
13.002105185445906 0.9818465148003617 
14.002105185445906 0.9912777922253112 
15.002105185445906 1.0008216437635382 
16.002105185445906 1.0152755784586842 
17.002105185445906 1.0181103699783391 
18.002105185445906 1.0245036382420372 
19.002105185445906 1.0255344322578215 
20.002105185445906 1.0199492798034695 
21.002105185445906 1.0244895737016442 
22.002105185445906 1.0083560050510634 
23.002105185445906 0.9977005912333542 
24.002105185445906 0.9990029452677103 
25.002105185445906 0.9820176751547345 
26.002105185445906 0.9846592145310884 
27.002105185445906 0.9524785122190959 
28.002105185445906 0.9531714888455298 
29.002105185445906 0.9345991424759758 
30.002105185445906 0.9318461310538135 
31.002105185445906 0.936978065866569 
32.002105185445906 0.9305770314236693 
33.002105185445906 0.9391736027467936 
34.002105185445906 0.9481772458046754 
35.002105185445906 0.9601423238517266 
36.002105185445906 0.96286445102443 
37.002105185445906 0.9783889177839561 
38.002105185445906 0.9891944588919781 
39.002105185445906 0.99202851891055 
40.002105185445906 0.996921055673165 
41.002105185445906 0.9951250048158445 
42.002105185445906 0.992857463237385 
43.002105185445906 0.9882880236087851 
44.002105185445906 0.980786570238308 
45.002105185445906 0.9678443347446463 
46.002105185445906 0.9497844142618153 
47.002105185445906 0.9351638177158464 
48.002105185445906 0.9204401517548367 
49.002105185445906 0.9046316894583264 
50.002105185445906 0.9558283813803098 
51.002105185445906 1.2267934426987257 
52.002105185445906 1.2761524219125655 
53.002105185445906 1.4005106937045455 
54.002105185445906 1.598655545366524 
55.002105185445906 1.3456942378704138 
56.002105185445906 1.393746198526533 
57.002105185445906 1.7416754644503234 
58.002105185445906 2.1609183613366487 
59.002105185445906 1.616745669290918 
60.002105185445906 1.6702537639612778 
61.002105185445906 2.3143132659729173 
62.002105185445906 2.0061596507454773 
63.002105185445906 1.916128937331678 
64.00210518544591 2.049667023546443 
65.00210518544591 1.9584513703864348 
66.00210518544591 2.0116195530295564 
67.00210518544591 1.9198644277061288 
68.00210518544591 1.4558372273224127 
69.00210518544591 1.6633497591577135 
70.00210518544591 1.2096514934691434 
71.00210518544591 1.5020156509806957 
72.00210518544591 1.4282948580497306 
73.00210518544591 1.5765025176721141 
74.00210518544591 1.7217043349175174 
75.00210518544591 1.4258657654963434 
76.00210518544591 1.5756830732276759 
77.00210518544591 1.2808496194982255 
78.00210518544591 0.8374459320331183 
79.00210518544591 0.6894853464063998 
80.00210518544591 0.8374459320331177 
81.00210518544591 0.6155050535930418 
82.00210518544591 0.5415247607796824 
83.00210518544591 0.4675444679663244 
84.00210518544591 0.4675444679663244 
85.00210518544591 0.4675444679663244 
86.00210518544591 0.4675444679663244 
87.00210518544591 0.4675444679663244 
88.00210518544591 0.4675444679663244 
89.00210518544591 0.4675444679663244 
90.00210518544591 0.46638292180723906 
91.00210518544591 0.4617367371708977 
92.00210518544591 0.4605751910118123 
93.00210518544591 0.45825209869364175 
94.00210518544591 0.4547674602163857 
95.00210518544591 0.4582520986936417 
96.00210518544591 0.45709055253455644 
97.00210518544591 0.45128282173912976 
98.00210518544591 0.44431354478461765 
99.00210518544591 0.452444367898215 
100.00210518544591 0.45128282173912965 
101.00210518544591 0.44082890630736177 
102.00210518544591 0.445475090943703 
103.00210518544591 0.44663663710278845 
104.00210518544591 0.44431354478461776 
105.00210518544591 0.4454750909437031 
106.00210518544591 0.4443135447846177 
107.00210518544591 0.4454750909437031 
108.00210518544591 0.452444367898215 
109.00210518544591 0.44895972942095913 
110.00210518544591 0.455929006375471 
111.00210518544591 0.4512828217391298 
112.00210518544591 0.45244436789821507 
113.00210518544591 0.4501212755800444 
114.00210518544591 0.4477981832618738 
115.00210518544591 0.452444367898215 
116.00210518544591 0.4501212755800445 
117.00210518544591 0.4547674602163858 
118.00210518544591 0.4617367371708977 
119.00210518544591 0.4640598294890683 
120.00210518544591 0.46173673717089775 
121.00210518544591 0.46522137564815375 
122.00210518544591 0.46638292180723906 
123.00210518544591 0.4675444679663244 
124.00210518544591 0.4675444679663244 
125.00210518544591 0.4675444679663244 
126.00210518544591 0.4675444679663244 
127.00210518544591 0.4675444679663244 
128.0021051854459 0.4675444679663244 
129.0021051854459 0.4675444679663244 
130.0021051854459 0.4675444679663244 
131.0021051854459 0.4675444679663244 
132.0021051854459 0.4675444679663244 
133.0021051854459 0.4675444679663244 
134.0021051854459 0.4675444679663244 
135.0021051854459 0.4675444679663244 
136.0021051854459 0.4675444679663244 
137.0021051854459 0.4675444679663244 
138.0021051854459 0.4675444679663244 
139.0021051854459 0.4675444679663244 
140.0021051854459 0.4675444679663244 
141.0021051854459 0.4675444679663244 
142.0021051854459 0.4675444679663244 
143.0021051854459 0.4675444679663244 
144.0021051854459 0.4675444679663244 
145.0021051854459 0.4675444679663244 
146.0021051854459 0.4675444679663244 
147.0021051854459 0.4675444679663244 
148.0021051854459 0.4675444679663244 
149.0021051854459 0.4675444679663244 
150.0021051854459 0.4675444679663244 
151.0021051854459 0.4675444679663244 
152.0021051854459 0.4675444679663244 
153.0021051854459 0.4675444679663244 
154.0021051854459 0.4675444679663244 
155.0021051854459 0.4675444679663244 
156.0021051854459 0.4675444679663244 
157.0021051854459 0.4675444679663244 
158.0021051854459 0.4675444679663244 
159.0021051854459 0.4675444679663244 
160.0021051854459 0.4675444679663244 
161.0021051854459 0.4675444679663244 
162.0021051854459 0.4675444679663244 
163.0021051854459 0.4675444679663244 
164.0021051854459 0.4675444679663244 
#####################################################################
# End of data export. Simulation finished at: 2017-05-21T05:45+0000 #
#####################################################################
