#####################################################################
# Alchemist log file - simulation started at: 2017-05-23T12:53+0000 #
#####################################################################
# random = 11.0, targets = 100.0, density = 20.0, gridShift = 0.0, perturbation = 0.0, connfactor = 1.0
#
# The columns have the following meaning: 
# time se[Mean] 
0.0 NaN 
1.0000311017741008 NaN 
2.000031101774101 1.0031996337429112 
3.000031101774101 1.006142406400966 
4.000031101774101 1.0087921047967865 
5.000031101774101 1.0107619273130646 
6.000031101774101 1.0103143903591683 
7.000031101774101 1.0124647395505146 
8.000031101774102 1.0132324455865365 
9.000031101774102 1.0138203738710354 
10.000031101774102 1.009951151937618 
11.000031101774102 1.0072376470279354 
12.000031101774102 1.0036579119407687 
13.000031101774102 1.0005397320022054 
14.000031101774102 0.9978204119407688 
15.000031101774102 0.9962560107514178 
16.000031101774102 0.994223095200588 
17.000031101774102 0.9921416180949381 
18.000031101774102 0.9912908376654064 
19.000031101774102 0.9896974447332493 
20.000031101774102 0.9888751506379962 
21.000031101774102 0.9881774627179164 
22.000031101774102 0.9857509215500945 
23.000031101774102 0.9849844416220332 
24.000031101774102 0.9823425718073934 
25.000031101774102 0.9795505070494644 
26.000031101774102 0.9769055263468809 
27.000031101774102 0.9736607336956522 
28.000031101774102 0.9696720702714766 
29.000031101774102 0.9662979813195757 
30.000031101774102 0.9636611797022684 
31.000031101774102 0.9599368764440244 
32.0000311017741 0.9585515884268011 
33.0000311017741 0.9556537951585801 
34.0000311017741 0.9524708523682 
35.0000311017741 0.9492431024863474 
36.0000311017741 0.9463383299858223 
37.0000311017741 0.9432070488080235 
38.0000311017741 0.9395306815795001 
39.0000311017741 0.9361105459724848 
40.0000311017741 0.9312157037649653 
41.0000311017741 0.9282088469465448 
42.0000311017741 0.9236648783737661 
43.0000311017741 0.9207984893536021 
44.0000311017741 0.9156709767512077 
45.0000311017741 0.9122791564928587 
46.0000311017741 0.9077761975556606 
47.0000311017741 0.9033066599060071 
48.0000311017741 0.897930384241756 
49.0000311017741 0.8933059099978996 
50.0000311017741 0.8883513097957362 
51.0000311017741 0.8812504647132956 
52.0000311017741 0.8770248378754463 
53.0000311017741 0.8700433522369251 
54.0000311017741 0.8646154953659945 
55.0000311017741 0.8587499491309599 
56.0000311017741 0.852968347642302 
57.0000311017741 0.8463307603444654 
58.0000311017741 0.8414456620195337 
59.0000311017741 0.8339017019796261 
60.0000311017741 0.825719722747322 
61.0000311017741 0.8228292661074353 
62.0000311017741 0.8129778775467339 
63.0000311017741 0.8082885777672757 
64.0000311017741 0.7998884514151441 
65.0000311017741 0.7924429721959674 
66.0000311017741 0.7898700013783866 
67.0000311017741 0.7838874054820414 
68.0000311017741 0.779832738657845 
69.0000311017741 0.7710852174569418 
70.0000311017741 0.7688925908422605 
71.0000311017741 0.7593205596250786 
72.0000311017741 0.7538717089371982 
73.0000311017741 0.749441864563642 
74.0000311017741 0.7400409059283767 
75.0000311017741 0.7382707447227478 
76.0000311017741 0.7286398468677797 
77.0000311017741 0.7268075522474274 
78.0000311017741 0.7206901041666669 
79.0000311017741 0.7148712803245123 
80.0000311017741 0.7142997617359801 
81.0000311017741 0.7082934037623394 
82.0000311017741 0.7083741211142619 
83.0000311017741 0.7005164914146184 
84.0000311017741 0.7004461359220757 
85.0000311017741 0.6959769340080864 
86.0000311017741 0.6922460545316111 
87.0000311017741 0.6877834347432262 
88.0000311017741 0.6851428573303926 
89.0000311017741 0.6808745014834068 
90.0000311017741 0.6754286989996852 
91.0000311017741 0.6699465770058812 
92.0000311017741 0.6660941946938671 
93.0000311017741 0.6603372128360638 
94.0000311017741 0.6576427930056716 
95.0000311017741 0.6536361652620246 
96.0000311017741 0.6519053251680322 
97.0000311017741 0.6486483147579285 
98.0000311017741 0.6462671776543788 
99.0000311017741 0.6414199465710985 
100.0000311017741 0.6373133227657005 
101.0000311017741 0.6354606037334593 
102.0000311017741 0.6285099581889312 
103.0000311017741 0.6262117783160053 
104.0000311017741 0.6254443118567533 
105.0000311017741 0.6198000456180424 
106.0000311017741 0.6171665534420296 
107.0000311017741 0.6130520587192813 
108.0000311017741 0.6095126345568163 
109.0000311017741 0.6042763885607016 
110.0000311017741 0.5994291676512282 
111.0000311017741 0.5940498680686824 
112.0000311017741 0.5891468018142206 
113.0000311017741 0.5878913342128755 
114.0000311017741 0.591944115272527 
115.0000311017741 0.5787040468782814 
116.0000311017741 0.5885015910523 
117.0000311017741 0.5887190312565642 
118.0000311017741 0.5712332214214451 
119.0000311017741 0.5786809372374505 
120.0000311017741 0.5642508838085484 
121.0000311017741 0.5621418685018905 
122.0000311017741 0.5509264453371148 
123.0000311017741 0.5408879811226633 
124.0000311017741 0.5278769934099976 
125.0000311017741 0.5256832690086124 
126.0000311017741 0.52002306139729 
127.0000311017741 0.5100310393037184 
128.00003110177408 0.5071694155639572 
129.00003110177408 0.49648911894822445 
130.00003110177408 0.48795094911783216 
131.00003110177408 0.4805577846040749 
132.00003110177408 0.4708781561777987 
133.00003110177408 0.46402373155586984 
134.00003110177408 0.4533799490653234 
135.00003110177408 0.4491366368672545 
136.00003110177408 0.44388175967496396 
137.00003110177408 0.43574334501680334 
138.00003110177408 0.4282832138731358 
139.00003110177408 0.4240909056001891 
140.00003110177408 0.41315434881064955 
141.00003110177408 0.41174123313117 
142.00003110177408 0.4057085246665615 
143.00003110177408 0.393212308994959 
144.00003110177408 0.39603095299044316 
145.00003110177408 0.3873548424044319 
146.00003110177408 0.38274682577189795 
147.00003110177408 0.3777913210853817 
148.00003110177408 0.37129685662150785 
149.00003110177408 0.36518841728365886 
150.00003110177408 0.3585795155298258 
151.00003110177408 0.3535705228680953 
152.00003110177408 0.34795726442711705 
153.00003110177408 0.3415202235612273 
154.00003110177408 0.3370611403197858 
155.00003110177408 0.32966937224322623 
156.00003110177408 0.32284695967233773 
157.00003110177408 0.3171954890647975 
158.00003110177408 0.3097299638337543 
159.00003110177408 0.3012674480807604 
160.00003110177408 0.29849364366729614 
161.00003110177408 0.2899739222327246 
162.00003110177408 0.2815213525257298 
163.00003110177408 0.2789063996534343 
164.00003110177408 0.26976832762287256 
165.00003110177408 0.2653585568289229 
166.00003110177408 0.2589179682577187 
167.00003110177408 0.25176833714030633 
168.00003110177408 0.24741109043530773 
169.00003110177408 0.24217607579815117 
170.00003110177408 0.23525658540747726 
171.00003110177408 0.2313674234667082 
172.00003110177408 0.22729014026727593 
173.00003110177408 0.22206190827819847 
174.00003110177408 0.21759403191293863 
175.00003110177408 0.21372826119775215 
176.00003110177408 0.21095198389256412 
177.00003110177408 0.20697376634372994 
178.00003110177408 0.20320900841472359 
179.00003110177408 0.20067868160575547 
180.00003110177408 0.19775258742911164 
181.00003110177408 0.19477243554400359 
182.00003110177408 0.19317723856595234 
183.00003110177408 0.19081441628596968 
184.00003110177408 0.18961732730781355 
185.00003110177408 0.18766453443341755 
186.00003110177408 0.18548102092522548 
187.00003110177408 0.18339099289802543 
188.00003110177408 0.18160561495746666 
189.00003110177408 0.1787483656269697 
190.00003110177408 0.17689816674543163 
191.00003110177408 0.17523258145610188 
192.00003110177408 0.17268108754725928 
193.00003110177408 0.17096910050409564 
194.00003110177408 0.16891301689508545 
195.00003110177408 0.1669303074459149 
196.00003110177408 0.1650412662780929 
197.00003110177408 0.16321687637838703 
198.00003110177408 0.1614926837192817 
199.00003110177408 0.15972641153381645 
200.00003110177408 0.1587569628229365 
201.00003110177408 0.15753275244171405 
202.00003110177408 0.1562670102788282 
203.00003110177408 0.15581325647185465 
204.00003110177408 0.1554205714398236 
205.00003110177408 0.15481422002993075 
206.00003110177408 0.1542548588137998 
207.00003110177408 0.15385055201113212 
208.00003110177408 0.15313375964870837 
209.00003110177408 0.15265896443761826 
210.00003110177408 0.15200856700273063 
211.00003110177408 0.15144272178901508 
212.00003110177408 0.15085259268010937 
213.00003110177408 0.1502545575378073 
214.00003110177408 0.14982138928271385 
215.00003110177408 0.14933770380434794 
216.00003110177408 0.14861022205156493 
217.00003110177408 0.14806891343730316 
218.00003110177408 0.14747263048729273 
219.00003110177408 0.1470104836168873 
220.00003110177408 0.14657187959462303 
221.00003110177408 0.146227775152279 
222.00003110177408 0.14596510186935524 
223.00003110177408 0.14559083930634334 
224.00003110177408 0.14534265319785772 
225.00003110177408 0.14503994269848786 
226.00003110177408 0.14477326421707634 
227.00003110177408 0.14460685649023325 
228.00003110177408 0.14452571019743762 
229.00003110177408 0.1444807843021425 
230.00003110177408 0.14446492793005683 
231.00003110177408 0.14444992976790602 
232.00003110177408 0.14443719544213413 
233.00003110177408 0.14441890260712045 
234.00003110177408 0.1444069040773998 
235.00003110177408 0.14440299963243028 
236.00003110177408 0.1444000000000001 
237.00003110177408 0.1444000000000001 
238.00003110177408 0.1444000000000001 
239.00003110177408 0.1444000000000001 
240.00003110177408 0.1444000000000001 
241.00003110177408 0.1444000000000001 
242.00003110177408 0.1444000000000001 
243.00003110177408 0.1444000000000001 
244.00003110177408 0.1444000000000001 
245.00003110177408 0.1444000000000001 
246.00003110177408 0.1444000000000001 
247.00003110177408 0.1444000000000001 
248.00003110177408 0.1444000000000001 
249.00003110177408 0.1444000000000001 
250.00003110177408 0.1444000000000001 
251.00003110177408 0.1444000000000001 
252.00003110177408 0.1444000000000001 
253.00003110177408 0.1444000000000001 
254.00003110177408 0.1444000000000001 
255.00003110177408 0.1444000000000001 
256.0000311017741 0.1444000000000001 
257.0000311017741 0.1444000000000001 
258.0000311017741 0.1444000000000001 
259.0000311017741 0.1444000000000001 
260.0000311017741 0.1444000000000001 
261.0000311017741 0.1444000000000001 
262.0000311017741 0.1444000000000001 
263.0000311017741 0.1444000000000001 
264.0000311017741 0.1444000000000001 
265.0000311017741 0.1444000000000001 
266.0000311017741 0.1444000000000001 
267.0000311017741 0.1444000000000001 
268.0000311017741 0.1444000000000001 
269.0000311017741 0.1444000000000001 
270.0000311017741 0.1444000000000001 
271.0000311017741 0.1444000000000001 
272.0000311017741 0.1444000000000001 
273.0000311017741 0.1444000000000001 
274.0000311017741 0.1444000000000001 
275.0000311017741 0.1444000000000001 
276.0000311017741 0.1444000000000001 
277.0000311017741 0.1444000000000001 
278.0000311017741 0.1444000000000001 
279.0000311017741 0.1444000000000001 
280.0000311017741 0.1444000000000001 
281.0000311017741 0.1444000000000001 
282.0000311017741 0.1444000000000001 
283.0000311017741 0.1444000000000001 
284.0000311017741 0.1444000000000001 
285.0000311017741 0.1444000000000001 
286.0000311017741 0.1444000000000001 
287.0000311017741 0.1444000000000001 
288.0000311017741 0.1444000000000001 
289.0000311017741 0.1444000000000001 
290.0000311017741 0.1444000000000001 
291.0000311017741 0.1444000000000001 
292.0000311017741 0.1444000000000001 
293.0000311017741 0.1444000000000001 
294.0000311017741 0.1444000000000001 
295.0000311017741 0.1444000000000001 
296.0000311017741 0.1444000000000001 
297.0000311017741 0.1444000000000001 
298.0000311017741 0.1444000000000001 
299.0000311017741 0.1444000000000001 
300.0000311017741 0.1444000000000001 
301.0000311017741 0.1444000000000001 
302.0000311017741 0.1444000000000001 
303.0000311017741 0.1444000000000001 
304.0000311017741 0.1444000000000001 
305.0000311017741 0.1444000000000001 
306.0000311017741 0.1444000000000001 
307.0000311017741 0.1444000000000001 
308.0000311017741 0.1444000000000001 
309.0000311017741 0.1444000000000001 
310.0000311017741 0.1444000000000001 
311.0000311017741 0.1444000000000001 
312.0000311017741 0.1444000000000001 
313.0000311017741 0.1444000000000001 
314.0000311017741 0.1444000000000001 
315.0000311017741 0.1444000000000001 
316.0000311017741 0.1444000000000001 
317.0000311017741 0.1444000000000001 
318.0000311017741 0.1444000000000001 
319.0000311017741 0.1444000000000001 
320.0000311017741 0.1444000000000001 
321.0000311017741 0.1444000000000001 
322.0000311017741 0.1444000000000001 
323.0000311017741 0.1444000000000001 
324.0000311017741 0.1444000000000001 
325.0000311017741 0.1444000000000001 
326.0000311017741 0.1444000000000001 
327.0000311017741 0.1444000000000001 
328.0000311017741 0.1444000000000001 
329.0000311017741 0.1444000000000001 
330.0000311017741 0.1444000000000001 
331.0000311017741 0.1444000000000001 
332.0000311017741 0.1444000000000001 
333.0000311017741 0.1444000000000001 
334.0000311017741 0.1444000000000001 
335.0000311017741 0.1444000000000001 
336.0000311017741 0.1444000000000001 
337.0000311017741 0.1444000000000001 
338.0000311017741 0.1444000000000001 
339.0000311017741 0.1444000000000001 
340.0000311017741 0.1444000000000001 
341.0000311017741 0.1444000000000001 
342.0000311017741 0.1444000000000001 
343.0000311017741 0.1444000000000001 
#####################################################################
# End of data export. Simulation finished at: 2017-05-23T13:03+0000 #
#####################################################################
