#####################################################################
# Alchemist log file - simulation started at: 2017-05-26T00:37+0000 #
#####################################################################
# random = 19.0, targets = 31.622776601683793, density = 1.2632455339402642, gridShift = 1.0, perturbation = 0.5, connfactor = 0.25
#
# The columns have the following meaning: 
# time se[Mean] 
0.0 NaN 
1.0052006744020683 NaN 
2.0052006744020683 1.0 
3.0052006744020683 0.9996294907547418 
4.005200674402069 0.9985179630189674 
5.005200674402069 0.9955538890569023 
6.005200674402069 0.9937013428306116 
7.005200674402069 0.9885380229208072 
8.005200674402069 0.9874741142326517 
9.005200674402069 0.984115721501519 
10.005200674402069 0.9776132217535392 
11.005200674402069 0.9739557483485768 
12.005200674402069 0.9639029180527774 
13.005200674402069 0.9604373824645017 
14.005200674402069 0.9458417415041561 
15.005200674402069 0.943858242896913 
16.00520067440207 0.9273505319007528 
17.00520067440207 0.9209053370539534 
18.00520067440207 0.911422420765317 
19.00520067440207 0.8965627090727784 
20.00520067440207 0.8998615250563322 
21.00520067440207 0.8900253052592721 
22.00520067440207 0.8845919092982673 
23.00520067440207 0.8873045216341218 
24.00520067440207 0.8767548263429641 
25.00520067440207 0.8828048922005078 
26.00520067440207 0.8801161423265179 
27.00520067440207 0.8773901636025481 
28.00520067440207 0.884989204257811 
29.00520067440207 0.8681856005305181 
30.00520067440207 0.8843872564994877 
31.00520067440207 0.8739901042047485 
32.00520067440207 0.8691556798115908 
33.00520067440207 0.8795378982158938 
34.00520067440207 0.8692530309390619 
35.00520067440207 0.8759450907812197 
36.00520067440207 0.8656899854091497 
37.00520067440207 0.8636640628531072 
38.00520067440207 0.8623583254542475 
39.00520067440207 0.8555961927907614 
40.00520067440207 0.8524729191072475 
41.00520067440207 0.8431641364304959 
42.00520067440207 0.835181871547882 
43.00520067440207 0.8286682243201302 
44.00520067440207 0.8124656522548622 
45.00520067440207 0.8069444851438373 
46.00520067440207 0.7955175709443362 
47.00520067440207 0.7831882196245268 
48.00520067440207 0.7767898865432136 
49.00520067440207 0.7650229822853492 
50.00520067440207 0.7591893681123792 
51.00520067440207 0.7494223050403495 
52.00520067440207 0.7349979273775226 
53.00520067440207 0.7308426567315429 
54.00520067440207 0.7163906669848815 
55.00520067440207 0.7014158690474857 
56.00520067440207 0.6880961021951002 
57.00520067440207 0.6862956819205313 
58.00520067440207 0.6697424693989579 
59.00520067440207 0.6579964971811221 
60.00520067440207 0.6655572870139965 
61.00520067440207 0.6504527219721952 
62.00520067440207 0.6589044604984993 
63.00520067440207 0.6445729064197073 
64.00520067440206 0.6222214898524662 
65.00520067440206 0.6451281000991854 
66.00520067440206 0.6166847535943433 
67.00520067440206 0.5945863455162997 
68.00520067440206 0.5961729843278281 
69.00520067440206 0.5706963147296991 
70.00520067440206 0.5876174811310534 
71.00520067440206 0.5595172668586313 
72.00520067440206 0.5386462183839644 
73.00520067440206 0.5933609643913857 
74.00520067440206 0.5663106571623421 
75.00520067440206 0.5670336112477534 
76.00520067440206 0.5661067957549476 
77.00520067440206 0.5657578403364611 
78.00520067440206 0.5721133080046423 
79.00520067440206 0.5212766099545554 
80.00520067440206 0.5224506009016354 
81.00520067440206 0.5135723510409378 
82.00520067440206 0.5159941347390623 
83.00520067440206 0.5141691225292445 
84.00520067440206 0.5037326193723466 
85.00520067440206 0.5061924995686671 
86.00520067440206 0.5040989303618872 
87.00520067440206 0.5071789169383584 
88.00520067440206 0.5094420715742531 
89.00520067440206 0.5110356362910601 
90.00520067440206 0.5117900211696916 
91.00520067440206 0.5117900211696916 
92.00520067440206 0.5117900211696916 
93.00520067440206 0.5117900211696916 
94.00520067440206 0.5117900211696916 
95.00520067440206 0.5117900211696916 
96.00520067440206 0.5117900211696916 
97.00520067440206 0.5117900211696916 
98.00520067440206 0.5117900211696916 
99.00520067440206 0.5117900211696916 
100.00520067440206 0.5117900211696916 
101.00520067440206 0.5117900211696916 
102.00520067440206 0.5117900211696916 
103.00520067440206 0.5117900211696916 
104.00520067440206 0.5117900211696916 
105.00520067440206 0.5117900211696916 
106.00520067440206 0.5117900211696916 
107.00520067440206 0.5117900211696916 
108.00520067440206 0.5117900211696916 
109.00520067440206 0.5117900211696916 
110.00520067440206 0.5117900211696916 
111.00520067440206 0.5117900211696916 
#####################################################################
# End of data export. Simulation finished at: 2017-05-26T00:37+0000 #
#####################################################################
