#####################################################################
# Alchemist log file - simulation started at: 2017-05-24T15:56+0000 #
#####################################################################
# random = 15.0, targets = 10.0, density = 0.3174802103936399, gridShift = 1.0, perturbation = 0.0, connfactor = 1.0
#
# The columns have the following meaning: 
# time se[Mean] 
0.0 NaN 
1.0090872484315245 NaN 
2.0090872484315243 1.0657142857142856 
3.0090872484315243 1.12875 
4.009087248431524 1.166031746031746 
5.009087248431524 1.167906746031746 
6.009087248431524 1.0668799603174604 
7.009087248431524 1.0661607142857144 
8.009087248431523 1.1630902777777778 
9.009087248431523 1.313015873015873 
10.009087248431523 1.3508134920634922 
11.009087248431523 1.3774107142857144 
12.009087248431523 1.4479712301587304 
13.009087248431523 1.4156845238095241 
14.009087248431523 1.3247966269841274 
15.009087248431523 1.104920634920635 
16.009087248431523 1.2107936507936514 
17.009087248431523 0.9320734126984129 
18.009087248431523 0.778655753968254 
19.009087248431523 0.7048710317460318 
20.009087248431523 0.6616567460317461 
21.009087248431523 0.5789484126984128 
22.009087248431523 0.5250644841269841 
23.009087248431523 0.45562500000000017 
24.009087248431523 0.3955505952380953 
25.009087248431523 0.3150843253968255 
26.009087248431523 0.2536309523809525 
27.009087248431523 0.22836805555555567 
28.009087248431523 0.1833333333333335 
29.009087248431523 0.16294146825396838 
30.009087248431523 0.15482638888888903 
31.009087248431523 0.14620039682539696 
32.00908724843153 0.15633928571428585 
33.00908724843153 0.14474702380952392 
34.00908724843153 0.15716269841269856 
35.00908724843153 0.15716269841269856 
36.00908724843153 0.16000000000000014 
37.00908724843153 0.16000000000000014 
38.00908724843153 0.16000000000000014 
39.00908724843153 0.16000000000000014 
40.00908724843153 0.16000000000000014 
41.00908724843153 0.16000000000000014 
42.00908724843153 0.16000000000000014 
43.00908724843153 0.16000000000000014 
44.00908724843153 0.16000000000000014 
45.00908724843153 0.16000000000000014 
#####################################################################
# End of data export. Simulation finished at: 2017-05-24T15:56+0000 #
#####################################################################
