#####################################################################
# Alchemist log file - simulation started at: 2017-05-23T11:41+0000 #
#####################################################################
# random = 5.0, targets = 10.0, density = 14.160781367816199, gridShift = 0.0, perturbation = 0.5, connfactor = 2.0
#
# The columns have the following meaning: 
# time se[Mean] 
0.0 NaN 
1.0001017936699181 NaN 
2.000101793669918 NaN 
3.000101793669918 1.0203913269778653 
4.000101793669918 1.0291977134925852 
5.000101793669918 1.037907398275988 
6.000101793669918 1.0292745087296369 
7.000101793669918 1.0379592647381108 
8.000101793669918 1.0417499908685806 
9.000101793669918 1.0518933084958724 
10.000101793669918 1.0738036470889039 
11.000101793669918 1.0943235901088464 
12.000101793669918 1.1210692435532184 
13.000101793669918 1.1322202133099566 
14.000101793669918 1.1366980330922636 
15.000101793669918 1.1591841076776974 
16.00010179366992 1.159511286434364 
17.00010179366992 1.1643962762071742 
18.00010179366992 1.1575752428957562 
19.00010179366992 1.1500549254876185 
20.00010179366992 1.1375853331141785 
21.00010179366992 1.1211302870918252 
22.00010179366992 1.1145848400175316 
23.00010179366992 1.1063285758638326 
24.00010179366992 1.1066817791657535 
25.00010179366992 1.0981311180509905 
26.00010179366992 1.0899298250420044 
27.00010179366992 1.0987537438819484 
28.00010179366992 1.096870799547081 
29.00010179366992 1.0947695229746515 
30.00010179366992 1.0916704562057127 
31.00010179366992 1.093823005698006 
32.00010179366992 1.0976557820147566 
33.00010179366992 1.0989004857915112 
34.00010179366992 1.0989681496091754 
35.00010179366992 1.0990173679596758 
36.00010179366992 1.0995701384323182 
37.00010179366992 1.1010505241434734 
38.00010179366992 1.1034167945065383 
39.00010179366992 1.1000185824384539 
40.00010179366992 1.1060043191613707 
41.00010179366992 1.1111707392797139 
42.00010179366992 1.1190870406896045 
43.00010179366992 1.1349490466798162 
44.00010179366992 1.1453344382350792 
45.00010179366992 1.1606650412740158 
46.00010179366992 1.178694526627219 
47.00010179366992 1.1940597834027322 
48.00010179366992 1.207398002045438 
49.00010179366992 1.2248964953612387 
50.00010179366992 1.23537082694134 
51.00010179366992 1.25586232558989 
52.00010179366992 1.27669346738257 
53.00010179366992 1.292066120607787 
54.00010179366992 1.3093249598217545 
55.00010179366992 1.3309758291328808 
56.00010179366992 1.3439561417926804 
57.00010179366992 1.3656543575133326 
58.00010179366992 1.3826062897216742 
59.00010179366992 1.3960808404558405 
60.00010179366992 1.4151751406238593 
61.00010179366992 1.4303500529622328 
62.00010179366992 1.4438963309956891 
63.00010179366992 1.45569823398349 
64.00010179366993 1.4734200361604208 
65.00010179366993 1.4778094638030532 
66.00010179366993 1.4979337880780197 
67.00010179366993 1.4968202114836724 
68.00010179366993 1.512830603038936 
69.00010179366993 1.5164129958360728 
70.00010179366993 1.5259544159544174 
71.00010179366993 1.531656256848564 
72.00010179366993 1.5359035082913273 
73.00010179366993 1.5409404905398483 
74.00010179366993 1.5458609102198835 
75.00010179366993 1.546076594345824 
76.00010179366993 1.5494165936153108 
77.00010179366993 1.5484628625173507 
78.00010179366993 1.5523187869822481 
79.00010179366993 1.5549037548396525 
80.00010179366993 1.559540917890277 
81.00010179366993 1.5646481207538905 
82.00010179366993 1.6999718295711896 
83.00010179366993 2.100104098181025 
84.00010179366993 1.8453667178026163 
85.00010179366993 3.0395151672875955 
86.00010179366993 3.585128387756589 
87.00010179366993 2.934841387245232 
88.00010179366993 3.3668569654467135 
89.00010179366993 3.3930857348966224 
90.00010179366993 4.33146627766821 
91.00010179366993 4.112250575279423 
92.00010179366993 3.7352661808751493 
93.00010179366993 5.112763304478049 
94.00010179366993 4.748727810650874 
95.00010179366993 4.406155855066111 
96.00010179366993 5.531749169040837 
97.00010179366993 5.55205771970196 
98.00010179366993 6.409288160201613 
99.00010179366993 6.226696161151293 
100.00010179366993 6.417128807801887 
101.00010179366993 6.636018609832712 
102.00010179366993 7.091220916429271 
103.00010179366993 6.003340775440126 
104.00010179366993 7.266313417707653 
105.00010179366993 6.81408827343123 
106.00010179366993 6.2290001552341305 
107.00010179366993 7.1277551318577 
108.00010179366993 6.935469857184606 
109.00010179366993 7.396134624516035 
110.00010179366993 8.036276892030099 
111.00010179366993 7.830568385199799 
112.00010179366993 8.351752136752134 
113.00010179366993 8.82837451603477 
114.00010179366993 7.988266034772446 
115.00010179366993 11.312845304624153 
116.00010179366993 10.813043821681642 
117.00010179366993 14.348423049528819 
118.00010179366993 18.72656763642339 
119.00010179366993 15.154523385565037 
120.00010179366993 16.8653743425378 
121.00010179366993 16.502267559719474 
122.00010179366993 20.465597240485042 
123.00010179366993 19.59942727737599 
124.00010179366993 18.727861330265164 
125.00010179366993 23.841076776974216 
126.00010179366993 21.576990786397836 
127.00010179366993 20.596403133903124 
128.00010179366993 25.26298200197236 
129.00010179366993 24.894852390605582 
130.00010179366993 29.770725445613245 
131.00010179366993 27.822715090583664 
132.00010179366993 28.878136094674527 
133.00010179366993 28.77043392504928 
134.00010179366993 31.901828018847187 
135.00010179366993 24.7588269322083 
136.00010179366993 30.033868754109136 
137.00010179366993 28.357221993936697 
138.00010179366993 27.95936112024252 
139.00010179366993 29.921760674629258 
140.00010179366993 37.98367868361455 
141.00010179366993 44.20701356928921 
142.00010179366993 41.73500593542257 
143.00010179366993 43.793201521294456 
144.00010179366993 45.840732796405874 
145.00010179366993 55.87926190737088 
146.00010179366993 47.74381483307767 
147.00010179366993 50.14082082328879 
148.00010179366993 67.691742640076 
149.00010179366993 55.58150723208417 
150.00010179366993 58.91581849477678 
151.00010179366993 66.12070133866604 
152.00010179366993 64.89970496383955 
153.00010179366993 71.94163995726497 
154.00010179366993 67.18857791840168 
155.00010179366993 68.30639546351082 
156.00010179366993 77.60070357586385 
157.00010179366993 74.62306665023011 
158.00010179366993 63.613437842428205 
159.00010179366993 77.73659110417128 
160.00010179366993 73.08826215391923 
161.00010179366993 67.91159923113452 
162.00010179366993 79.26933806340857 
163.00010179366993 74.3110838994813 
164.00010179366993 80.72367927715685 
165.00010179366993 81.07174104207762 
166.00010179366993 80.90014884213603 
167.00010179366993 80.40146349258535 
168.00010179366993 76.24725596281685 
169.00010179366993 63.65762099130692 
170.00010179366993 71.08163434144205 
171.00010179366993 76.20529932792759 
172.00010179366993 58.53622004894456 
173.00010179366993 72.05741352545841 
174.00010179366993 66.80853267221863 
175.00010179366993 66.2319451293008 
176.00010179366993 62.245203584995245 
177.00010179366993 53.77916310541311 
178.00010179366993 60.35972158302287 
179.00010179366993 68.62446864270576 
180.00010179366993 53.215577197019535 
181.00010179366993 57.43649695923731 
182.00010179366993 57.77878049894078 
183.00010179366993 55.95801464679676 
184.00010179366993 50.29027978669008 
185.00010179366993 58.31660516655712 
186.00010179366993 53.87437970268105 
187.00010179366993 60.581884633647476 
188.00010179366993 48.91556687851561 
189.00010179366993 57.82328717400838 
190.00010179366993 48.02433788078021 
191.00010179366993 43.19833479436048 
192.00010179366993 41.44717076667394 
193.00010179366993 50.75356024910525 
194.00010179366993 56.76223313426839 
195.00010179366993 47.580233536050876 
196.00010179366993 45.94333041127914 
197.00010179366993 49.68104280809422 
198.00010179366993 56.325016664840525 
199.00010179366993 47.177734997077984 
200.00010179366993 43.27634204470745 
201.00010179366993 56.417794488275256 
202.00010179366993 51.77368069252683 
203.00010179366993 45.898970706406644 
204.00010179366993 58.16085981444978 
205.00010179366993 58.18912954744719 
206.00010179366993 68.35993457338016 
207.00010179366993 64.18375168931253 
208.00010179366993 65.9149314686977 
209.00010179366993 67.62159786142165 
210.00010179366993 72.75109714003948 
211.00010179366993 57.56926971473452 
212.00010179366993 72.79236736613339 
213.00010179366993 66.07605120899983 
214.00010179366993 57.65221003177734 
215.00010179366993 67.80035292935924 
216.00010179366993 64.46812340200157 
217.00010179366993 69.5668383373514 
218.00010179366993 76.34021563846878 
219.00010179366993 73.00528069983206 
220.00010179366993 78.10048081488776 
221.00010179366993 83.19158932354445 
222.00010179366993 62.92948170063543 
223.00010179366993 79.84665840273219 
224.00010179366993 88.31932920593142 
225.00010179366993 59.62145883556128 
226.00010179366993 81.59495269924744 
227.00010179366993 74.84210885565084 
228.00010179366993 71.47356600189916 
229.00010179366993 64.72501369712917 
230.00010179366993 59.64171506318934 
231.00010179366993 63.03939006684195 
232.00010179366993 73.18410749506909 
233.00010179366993 59.65461127547661 
234.00010179366993 57.95140847578353 
235.00010179366993 61.35020956607492 
236.00010179366993 59.63243265578194 
237.00010179366993 52.85485476477474 
238.00010179366993 68.0776479746512 
239.00010179366993 59.60459022755519 
240.00010179366993 66.37040671341965 
241.00010179366993 52.83995794981381 
242.00010179366993 68.0513468843596 
243.00010179366993 47.76133994448112 
244.00010179366993 32.54379657023895 
245.00010179366993 37.6126999780847 
246.00010179366993 22.3950799912338 
247.00010179366993 24.08592665643951 
248.00010179366993 20.704233326028135 
249.00010179366993 15.631693330411357 
250.00010179366993 15.631693330411345 
251.00010179366993 15.631693330411345 
252.00010179366993 12.250000000000005 
253.00010179366993 12.250000000000005 
254.00010179366993 12.250000000000005 
255.00010179366993 12.250000000000005 
256.00010179366996 12.250000000000005 
257.00010179366996 12.250000000000005 
258.00010179366996 12.250000000000005 
259.00010179366996 12.250000000000005 
260.00010179366996 12.250000000000005 
261.00010179366996 12.250000000000005 
262.00010179366996 12.250000000000005 
263.00010179366996 12.250000000000005 
264.00010179366996 12.250000000000005 
265.00010179366996 12.250000000000005 
266.00010179366996 12.250000000000005 
267.00010179366996 12.250000000000005 
268.00010179366996 12.250000000000005 
269.00010179366996 12.250000000000005 
270.00010179366996 12.250000000000005 
271.00010179366996 12.250000000000005 
272.00010179366996 12.250000000000005 
273.00010179366996 12.250000000000005 
274.00010179366996 12.250000000000005 
275.00010179366996 12.250000000000005 
276.00010179366996 12.250000000000005 
277.00010179366996 12.250000000000005 
278.00010179366996 12.250000000000005 
279.00010179366996 12.250000000000005 
280.00010179366996 12.250000000000005 
281.00010179366996 12.250000000000005 
282.00010179366996 12.250000000000005 
283.00010179366996 12.250000000000005 
284.00010179366996 12.250000000000005 
285.00010179366996 12.250000000000005 
286.00010179366996 12.250000000000005 
287.00010179366996 12.250000000000005 
288.00010179366996 12.250000000000005 
289.00010179366996 12.250000000000005 
290.00010179366996 12.250000000000005 
291.00010179366996 12.250000000000005 
292.00010179366996 12.250000000000005 
293.00010179366996 12.250000000000005 
294.00010179366996 12.250000000000005 
295.00010179366996 12.250000000000005 
296.00010179366996 12.250000000000005 
297.00010179366996 12.250000000000005 
298.00010179366996 12.250000000000005 
299.00010179366996 12.250000000000005 
300.00010179366996 12.250000000000005 
301.00010179366996 12.250000000000005 
302.00010179366996 12.250000000000005 
303.00010179366996 12.250000000000005 
304.00010179366996 12.250000000000005 
305.00010179366996 12.250000000000005 
306.00010179366996 12.250000000000005 
307.00010179366996 12.250000000000005 
308.00010179366996 12.250000000000005 
309.00010179366996 12.250000000000005 
310.00010179366996 12.250000000000005 
311.00010179366996 12.250000000000005 
312.00010179366996 12.250000000000005 
313.00010179366996 12.250000000000005 
314.00010179366996 12.250000000000005 
315.00010179366996 12.250000000000005 
316.00010179366996 12.250000000000005 
317.00010179366996 12.250000000000005 
318.00010179366996 12.250000000000005 
319.00010179366996 12.250000000000005 
320.00010179366996 12.250000000000005 
321.00010179366996 12.250000000000005 
322.00010179366996 12.250000000000005 
323.00010179366996 12.250000000000005 
324.00010179366996 12.250000000000005 
325.00010179366996 12.250000000000005 
326.00010179366996 12.250000000000005 
327.00010179366996 12.250000000000005 
328.00010179366996 12.250000000000005 
329.00010179366996 12.250000000000005 
330.00010179366996 12.250000000000005 
331.00010179366996 12.250000000000005 
332.00010179366996 12.250000000000005 
333.00010179366996 12.250000000000005 
334.00010179366996 12.250000000000005 
335.00010179366996 12.250000000000005 
336.00010179366996 12.250000000000005 
337.00010179366996 12.250000000000005 
338.00010179366996 12.250000000000005 
339.00010179366996 12.250000000000005 
340.00010179366996 12.250000000000005 
341.00010179366996 12.250000000000005 
342.00010179366996 12.250000000000005 
#####################################################################
# End of data export. Simulation finished at: 2017-05-23T11:55+0000 #
#####################################################################
