#####################################################################
# Alchemist log file - simulation started at: 2017-05-20T18:25+0000 #
#####################################################################
# random = 1.0, targets = 31.622776601683793, density = 0.4483936332993466, gridShift = 0.0, perturbation = 0.0, connfactor = 0.75
#
# The columns have the following meaning: 
# time se[Mean] 
0.0 NaN 
1.0048855897957667 NaN 
2.0048855897957667 1.0712607613161833 
3.0048855897957667 1.110990490794785 
4.004885589795767 1.1260901344509717 
5.004885589795767 1.192315890519161 
6.004885589795767 1.2401181056465542 
7.004885589795767 1.3827805464829304 
8.004885589795766 1.3598107292431967 
9.004885589795766 1.3603369737930617 
10.004885589795766 1.319656644970221 
11.004885589795766 1.3008472507844897 
12.004885589795766 1.2010380467295003 
13.004885589795766 1.1670487281090893 
14.004885589795766 1.0415274185618855 
15.004885589795766 0.9972930451698265 
16.004885589795766 0.8939871373132809 
17.004885589795766 0.8202286591577852 
18.004885589795766 0.7473618477608385 
19.004885589795766 0.7049789474667917 
20.004885589795766 0.6594316636667658 
21.004885589795766 0.6149777277993638 
22.004885589795766 0.5941275609431169 
23.004885589795766 0.5624160434905887 
24.004885589795766 0.5068220389321774 
25.004885589795766 0.5001880315805429 
26.004885589795766 0.4524505514316655 
27.004885589795766 0.4393176066781939 
28.004885589795766 0.45369602865089165 
29.004885589795766 0.4321538943643778 
30.004885589795766 0.4207394677772091 
31.004885589795766 0.42400311047200434 
32.00488558979576 0.4219994126655965 
33.00488558979576 0.42434394085975247 
34.00488558979576 0.4252989147629564 
35.00488558979576 0.4252989147629564 
36.00488558979576 0.4252989147629564 
37.00488558979576 0.4252989147629564 
38.00488558979576 0.4252989147629564 
39.00488558979576 0.4252989147629564 
40.00488558979576 0.4252989147629564 
41.00488558979576 0.4252989147629564 
42.00488558979576 0.4252989147629564 
43.00488558979576 0.4252989147629564 
44.00488558979576 0.4252989147629564 
45.00488558979576 0.4252989147629564 
46.00488558979576 0.4252989147629564 
47.00488558979576 0.4252989147629564 
48.00488558979576 0.4252989147629564 
#####################################################################
# End of data export. Simulation finished at: 2017-05-20T18:26+0000 #
#####################################################################
