#####################################################################
# Alchemist log file - simulation started at: 2017-05-25T06:12+0000 #
#####################################################################
# random = 17.0, targets = 3.1622776601683795, density = 0.6332893950589894, gridShift = 1.0, perturbation = 0.5, connfactor = 0.75
#
# The columns have the following meaning: 
# time se[Mean] 
0.0 NaN 
1.0045647570182237 NaN 
2.0045647570182235 1.0 
3.0045647570182235 0.9977810288937025 
4.0045647570182235 0.9903898770659183 
5.0045647570182235 0.9911241155748097 
6.0045647570182235 0.9593405371573758 
7.0045647570182235 0.9600747756662671 
8.004564757018223 0.9408545297981037 
9.004564757018223 0.9186810743147514 
10.004564757018223 0.9241001686164849 
11.004564757018223 0.9519493853295915 
12.004564757018223 0.946767451260331 
13.004564757018223 0.9431872257505042 
14.004564757018223 0.9765789721517144 
15.004564757018223 0.9350261159461641 
16.004564757018223 0.9427973700883392 
17.004564757018223 0.9096297794559033 
18.004564757018223 0.8944251517864303 
19.004564757018223 0.8900391418136161 
20.004564757018223 0.8324564309913177 
21.004564757018223 0.8271964915436189 
22.004564757018223 0.8031906480964558 
23.004564757018223 0.7535058993223807 
24.004564757018223 0.7154325054367463 
25.004564757018223 0.6478042789915027 
26.004564757018223 0.8496335014544022 
27.004564757018223 0.571157226039151 
28.004564757018223 1.1248971414968467 
29.004564757018223 0.9109042383021223 
30.004564757018223 1.0580681972827413 
31.004564757018223 1.4402972213893597 
32.00456475701822 0.7538091092535089 
33.00456475701822 2.2079294052743905 
34.00456475701822 1.3847648517203446 
35.00456475701822 1.5232510731171502 
36.00456475701822 2.3785796498630747 
37.00456475701822 2.1895739134346774 
38.00456475701822 2.147722190005346 
39.00456475701822 1.261893390885846 
40.00456475701822 1.2347491312345562 
41.00456475701822 1.8518449237995245 
42.00456475701822 0.7944761873231581 
43.00456475701822 0.5354604407019476 
44.00456475701822 0.2981438505028967 
45.00456475701822 0.4920717741866347 
46.00456475701822 0.05179538652553248 
47.00456475701822 0.0347388427929475 
48.00456475701822 0.03692530273999848 
49.00456475701822 0.016808262566710856 
50.00456475701822 0.011600319570053062 
51.00456475701822 0.009355339536358236 
52.00456475701822 0.010086326929325002 
53.00456475701822 0.002636655014897064 
54.00456475701822 0.0026399061308217207 
55.00456475701822 0.002633403898972407 
56.00456475701822 0.002633403898972407 
57.00456475701822 0.002633403898972407 
58.00456475701822 0.002633403898972407 
59.00456475701822 0.002633403898972407 
60.00456475701822 0.002633403898972407 
61.00456475701822 0.002633403898972407 
62.00456475701822 0.002633403898972407 
63.00456475701822 0.002633403898972407 
64.00456475701822 0.002633403898972407 
65.00456475701822 0.002633403898972407 
66.00456475701822 0.002633403898972407 
67.00456475701822 0.002633403898972407 
#####################################################################
# End of data export. Simulation finished at: 2017-05-25T06:12+0000 #
#####################################################################
