#####################################################################
# Alchemist log file - simulation started at: 2017-05-23T22:07+0000 #
#####################################################################
# random = 6.0, targets = 1.0, density = 0.07978946395100113, gridShift = 0.0, perturbation = 0.0, connfactor = 1.0
#
# The columns have the following meaning: 
# time se[Mean] 
0.0 NaN 
1.0115592716150654 NaN 
2.0115592716150656 1.78125 
3.0115592716150656 2.302517361111111 
4.011559271615066 2.5638020833333335 
5.011559271615066 2.1519097222222223 
6.011559271615066 2.246961805555556 
7.011559271615066 2.1644965277777777 
8.011559271615067 0.9331597222222223 
9.011559271615067 0.25 
10.011559271615067 0.109375 
11.011559271615067 0.03125 
12.011559271615067 0.0 
13.011559271615067 0.0 
14.011559271615067 0.0 
15.011559271615067 0.0 
16.011559271615067 0.0 
#####################################################################
# End of data export. Simulation finished at: 2017-05-23T22:07+0000 #
#####################################################################
