#####################################################################
# Alchemist log file - simulation started at: 2017-05-20T10:30+0000 #
#####################################################################
# random = 1.0, targets = 1.0, density = 0.1591589639397027, gridShift = 0.0, perturbation = 0.0, connfactor = 0.5
#
# The columns have the following meaning: 
# time se[Mean] 
0.0 NaN 
1.016676366669265 NaN 
2.016676366669265 1.0 
3.016676366669265 0.97 
4.016676366669265 0.97 
5.016676366669265 0.88 
6.016676366669265 0.85 
7.016676366669265 0.91 
8.016676366669266 0.97 
9.016676366669266 1.0 
10.016676366669266 1.0 
11.016676366669266 0.97 
12.016676366669266 0.88 
13.016676366669266 1.17 
14.016676366669266 1.7700000000000002 
15.016676366669266 1.27 
16.016676366669266 0.7 
17.016676366669266 1.2 
18.016676366669266 1.14 
19.016676366669266 0.0 
20.016676366669266 0.0 
21.016676366669266 0.0 
22.016676366669266 0.0 
23.016676366669266 0.0 
24.016676366669266 0.0 
25.016676366669266 0.0 
#####################################################################
# End of data export. Simulation finished at: 2017-05-20T10:31+0000 #
#####################################################################
