#####################################################################
# Alchemist log file - simulation started at: 2017-05-23T13:17+0000 #
#####################################################################
# random = 5.0, targets = 31.622776601683793, density = 0.1591589639397027, gridShift = 1.0, perturbation = 0.5, connfactor = 1.5
#
# The columns have the following meaning: 
# time se[Mean] 
0.0 NaN 
1.0183713707442061 NaN 
2.018371370744206 1.196246030529317 
3.018371370744206 1.2190791963727179 
4.018371370744206 1.296147212421439 
5.018371370744206 1.4081623326113015 
6.018371370744206 1.2617517451935225 
7.018371370744206 1.475555183130247 
8.018371370744205 1.4220676173982523 
9.018371370744205 1.3845313407573654 
10.018371370744205 1.5584261508678041 
11.018371370744205 1.4736892338720047 
12.018371370744205 1.8295824461366315 
13.018371370744205 1.850246723875206 
14.018371370744205 1.4333734694069167 
15.018371370744205 1.8153819732716514 
16.018371370744205 1.4915016167710022 
17.018371370744205 1.9008455637472748 
18.018371370744205 1.3788758538740395 
19.018371370744205 1.2429688328155053 
20.018371370744205 1.3094718665594791 
21.018371370744205 1.32042049595389 
22.018371370744205 1.2390978438544133 
23.018371370744205 1.3223514961891092 
24.018371370744205 1.2119624007428755 
25.018371370744205 1.2971700962221093 
26.018371370744205 1.135374310776893 
27.018371370744205 1.0269853828205917 
28.018371370744205 0.9415643977798129 
29.018371370744205 0.8801247825605606 
30.018371370744205 0.8260774763230442 
31.018371370744205 0.8175360567006348 
32.018371370744205 0.7903945209573011 
33.018371370744205 0.8453874875971708 
34.018371370744205 0.8536322156524719 
35.018371370744205 0.8775088935932653 
36.018371370744205 0.8775088935932653 
37.018371370744205 0.8775088935932653 
38.018371370744205 0.8775088935932653 
39.018371370744205 0.8775088935932653 
40.018371370744205 0.8775088935932653 
41.018371370744205 0.8775088935932653 
42.018371370744205 0.8775088935932653 
#####################################################################
# End of data export. Simulation finished at: 2017-05-23T13:17+0000 #
#####################################################################
