#####################################################################
# Alchemist log file - simulation started at: 2017-05-24T05:55+0000 #
#####################################################################
# random = 14.0, targets = 1.0, density = 10.026386447354522, gridShift = 1.0, perturbation = 0.0, connfactor = 0.5
#
# The columns have the following meaning: 
# time se[Mean] 
0.0 NaN 
1.0015837731381736 NaN 
2.0015837731381736 1.0 
3.0015837731381736 0.9993087557603687 
4.001583773138174 0.995852534562212 
5.001583773138174 0.9951612903225806 
6.001583773138174 0.9889400921658987 
7.001583773138174 0.9882488479262672 
8.001583773138174 0.9868663594470046 
9.001583773138174 0.9827188940092164 
10.001583773138174 0.9813364055299539 
11.001583773138174 0.9785714285714288 
12.001583773138174 0.9834101382488478 
13.001583773138174 0.9882488479262672 
14.001583773138174 0.9951612903225806 
15.001583773138174 1.0006912442396314 
16.001583773138172 1.0131336405529954 
17.001583773138172 1.0235023041474653 
18.001583773138172 1.03778801843318 
19.001583773138172 1.0380184331797238 
20.001583773138172 1.0306451612903222 
21.001583773138172 1.069124423963134 
22.001583773138172 1.056682027649769 
23.001583773138172 1.0216589861751153 
24.001583773138172 1.035253456221198 
25.001583773138172 1.0142857142857145 
26.001583773138172 0.979723502304148 
27.001583773138172 0.9652073732718894 
28.001583773138172 0.9260368663594469 
29.001583773138172 0.8815668202764971 
30.001583773138172 0.8788018433179718 
31.001583773138172 0.8347926267281088 
32.00158377313817 0.8129032258064519 
33.00158377313817 0.7983870967741946 
34.00158377313817 0.7811059907834077 
35.00158377313817 0.7642857142857123 
36.00158377313817 0.7548387096774212 
37.00158377313817 0.7407834101382487 
38.00158377313817 0.7320276497695822 
39.00158377313817 0.7230414746543764 
40.00158377313817 0.7168202764976945 
41.00158377313817 0.7103686635944721 
42.00158377313817 0.7059907834101358 
43.00158377313817 0.7023041474654358 
44.00158377313817 0.6930875576036843 
45.00158377313817 0.6838709677419329 
46.00158377313817 0.6691244239631302 
47.00158377313817 0.6617511520737321 
48.00158377313817 0.6442396313364066 
49.00158377313817 0.6322580645161326 
50.00158377313817 0.6175115207373296 
51.00158377313817 0.6036866359447025 
52.00158377313817 0.588018433179721 
53.00158377313817 0.5714285714285728 
54.00158377313817 0.5566820276497685 
55.00158377313817 0.532718894009214 
56.00158377313817 0.5198156682027633 
57.00158377313817 0.5041474654377912 
58.00158377313817 0.49585253456220874 
59.00158377313817 0.48018433179723674 
60.00158377313817 0.47096774193548535 
61.00158377313817 0.4589861751152032 
62.00158377313817 0.450691244239629 
63.00158377313817 0.4423963133640539 
64.00158377313818 0.43225806451612625 
65.00158377313818 0.42580645161290614 
66.00158377313818 0.41658986175115476 
67.00158377313818 0.4101382488479244 
68.00158377313818 0.40460829493087225 
69.00158377313818 0.4027649769585268 
70.00158377313818 0.39631336405529943 
71.00158377313818 0.3926267281105989 
72.00158377313818 0.3889400921658973 
73.00158377313818 0.3843317972350211 
74.00158377313818 0.38156682027649347 
75.00158377313818 0.3824884792626745 
76.00158377313818 0.3797235023041446 
77.00158377313818 0.3806451612903261 
78.00158377313818 0.38986175115207733 
79.00158377313818 0.3917050691244263 
80.00158377313818 0.40184331797235023 
81.00158377313818 0.4046082949308718 
82.00158377313818 0.41290322580645583 
83.00158377313818 0.42027649769585307 
84.00158377313818 0.4341013824884801 
85.00158377313818 0.44331797235023157 
86.00158377313818 0.45253456221198296 
87.00158377313818 0.46728110599078165 
88.00158377313818 0.47557603686636124 
89.00158377313818 0.48940092165898835 
90.00158377313818 0.5050691244239647 
91.00158377313818 0.519815668202763 
92.00158377313818 0.5391705069124384 
93.00158377313818 0.5576036866359411 
94.00158377313818 0.5788018433179742 
95.00158377313818 0.5953917050691282 
96.00158377313818 0.6184331797235066 
97.00158377313818 0.6405529953917046 
98.00158377313818 0.6580645161290338 
99.00158377313818 0.6774193548387131 
100.00158377313818 0.6976958525345598 
101.00158377313818 0.7198156682027615 
102.00158377313818 0.7364055299539193 
103.00158377313818 0.7603686635944655 
104.00158377313818 0.7815668202764995 
105.00158377313818 0.8046082949308779 
106.00158377313818 0.826728110599079 
107.00158377313818 0.8488479262672799 
108.00158377313818 0.8654377880184321 
109.00158377313818 0.8866359447004621 
110.00158377313818 0.8986175115207359 
111.00158377313818 0.912442396313363 
112.00158377313818 0.9207373271889406 
113.00158377313818 0.9281105990783396 
114.00158377313818 0.939170506912443 
115.00158377313818 0.9447004608294921 
116.00158377313818 0.9539170506912436 
117.00158377313818 0.9585253456221192 
118.00158377313818 0.9668202764976956 
119.00158377313818 0.9714285714285713 
120.00158377313818 0.979723502304148 
121.00158377313818 0.9834101382488478 
122.00158377313818 0.9870967741935485 
123.00158377313818 0.9917050691244239 
124.00158377313818 0.9935483870967743 
125.00158377313818 0.9981566820276497 
126.00158377313818 1.0 
127.00158377313818 1.0 
128.00158377313818 1.0 
129.00158377313818 1.0 
130.00158377313818 1.0 
131.00158377313818 1.0 
132.00158377313818 1.0 
133.00158377313818 1.0 
134.00158377313818 1.0 
135.00158377313818 1.0 
136.00158377313818 1.0 
137.00158377313818 0.9990783410138249 
138.00158377313818 0.9990783410138249 
139.00158377313818 0.9972350230414747 
140.00158377313818 0.9963133640552996 
141.00158377313818 0.9944700460829493 
142.00158377313818 0.9900921658986176 
143.00158377313818 0.9940092165898617 
144.00158377313818 0.9880184331797235 
145.00158377313818 0.982488479262673 
146.00158377313818 0.9859447004608296 
147.00158377313818 0.9815668202764974 
148.00158377313818 0.9986175115207373 
149.00158377313818 1.0013824884792628 
150.00158377313818 1.059907834101384 
151.00158377313818 1.164285714285717 
152.00158377313818 1.5421658986175155 
153.00158377313818 1.7905529953916928 
154.00158377313818 2.5043778801843275 
155.00158377313818 3.1225806451613476 
156.00158377313818 3.7525345622119275 
157.00158377313818 4.807373271889363 
158.00158377313818 3.201152073732669 
159.00158377313818 4.509907834101417 
160.00158377313818 5.040092165898536 
161.00158377313818 4.074193548387128 
162.00158377313818 4.628801843318022 
163.00158377313818 4.445161290322543 
164.00158377313818 4.692396313364067 
165.00158377313818 4.4341013824885 
166.00158377313818 4.652304147465396 
167.00158377313818 3.8728110599078125 
168.00158377313818 3.502073732718911 
169.00158377313818 3.8675115207373434 
170.00158377313818 3.2421658986175337 
171.00158377313818 3.1154377880184394 
172.00158377313818 3.7767281105990613 
173.00158377313818 2.8147465437788 
174.00158377313818 3.10276497695855 
175.00158377313818 3.1921658986175 
176.00158377313818 3.067050691244229 
177.00158377313818 2.6377880184331755 
178.00158377313818 2.4410138248847972 
179.00158377313818 2.718663594470035 
180.00158377313818 2.814976958525355 
181.00158377313818 3.1914746543778785 
182.00158377313818 2.924193548387109 
183.00158377313818 2.3188940092165877 
184.00158377313818 2.6490783410138303 
185.00158377313818 2.1548387096774246 
186.00158377313818 2.3495391705069326 
187.00158377313818 2.129262672811054 
188.00158377313818 1.857373271889401 
189.00158377313818 2.0472350230414715 
190.00158377313818 2.0668202764976944 
191.00158377313818 2.2875576036866323 
192.00158377313818 1.641013824884791 
193.00158377313818 1.3599078341013857 
194.00158377313818 1.7347926267281124 
195.00158377313818 1.8523041474654354 
196.00158377313818 1.3168202764976886 
197.00158377313818 0.6470046082949278 
198.00158377313818 0.883640552995379 
199.00158377313818 0.932488479262689 
200.00158377313818 0.5380184331797189 
201.00158377313818 0.6601382488479196 
202.00158377313818 0.6412442396313237 
203.00158377313818 0.6559907834101468 
204.00158377313818 0.2315668202764972 
205.00158377313818 0.5711981566820208 
206.00158377313818 0.25944700460829817 
207.00158377313818 0.49746543778801083 
208.00158377313818 0.05161290322580698 
209.00158377313818 0.140322580645161 
210.00158377313818 0.03617511520737312 
211.00158377313818 0.12926267281105688 
212.00158377313818 0.024423963133640543 
213.00158377313818 0.01359447004608281 
214.00158377313818 0.00460829493087562 
215.00158377313818 0.0027649769585253343 
216.00158377313818 0.0013824884792626806 
217.00158377313818 6.912442396313418E-4 
218.00158377313818 2.3041474654377563E-4 
219.00158377313818 0.0 
220.00158377313818 0.0 
221.00158377313818 0.0 
222.00158377313818 0.0 
223.00158377313818 0.0 
224.00158377313818 0.0 
225.00158377313818 0.0 
226.00158377313818 0.0 
227.00158377313818 0.0 
228.00158377313818 0.0 
229.00158377313818 0.0 
230.00158377313818 0.0 
231.00158377313818 0.0 
232.00158377313818 0.0 
233.00158377313818 0.0 
234.00158377313818 0.0 
235.00158377313818 0.0 
236.00158377313818 0.0 
237.00158377313818 0.0 
238.00158377313818 0.0 
239.00158377313818 0.0 
240.00158377313818 0.0 
241.00158377313818 0.0 
242.00158377313818 0.0 
243.00158377313818 0.0 
244.00158377313818 0.0 
245.00158377313818 0.0 
246.00158377313818 0.0 
247.00158377313818 0.0 
248.00158377313818 0.0 
249.00158377313818 0.0 
250.00158377313818 0.0 
251.00158377313818 0.0 
252.00158377313818 0.0 
253.00158377313818 0.0 
254.00158377313818 0.0 
255.00158377313818 0.0 
256.0015837731382 0.0 
257.0015837731382 0.0 
258.0015837731382 0.0 
259.0015837731382 0.0 
260.0015837731382 0.0 
261.0015837731382 0.0 
262.0015837731382 0.0 
263.0015837731382 0.0 
264.0015837731382 0.0 
265.0015837731382 0.0 
266.0015837731382 0.0 
267.0015837731382 0.0 
268.0015837731382 0.0 
269.0015837731382 0.0 
270.0015837731382 0.0 
271.0015837731382 0.0 
272.0015837731382 0.0 
273.0015837731382 0.0 
274.0015837731382 0.0 
275.0015837731382 0.0 
276.0015837731382 0.0 
277.0015837731382 0.0 
278.0015837731382 0.0 
279.0015837731382 0.0 
280.0015837731382 0.0 
281.0015837731382 0.0 
282.0015837731382 0.0 
283.0015837731382 0.0 
284.0015837731382 0.0 
285.0015837731382 0.0 
286.0015837731382 0.0 
287.0015837731382 0.0 
288.0015837731382 0.0 
#####################################################################
# End of data export. Simulation finished at: 2017-05-24T05:57+0000 #
#####################################################################
