#####################################################################
# Alchemist log file - simulation started at: 2017-05-25T07:47+0000 #
#####################################################################
# random = 17.0, targets = 10.0, density = 10.026386447354522, gridShift = 0.0, perturbation = 0.0, connfactor = 1.5
#
# The columns have the following meaning: 
# time se[Mean] 
0.0 NaN 
1.0003034458253823 NaN 
2.0003034458253826 1.0262488521579431 
3.0003034458253826 1.0510107387001328 
4.0003034458253826 1.0700447658402203 
5.0003034458253826 1.0850848127742068 
6.0003034458253826 1.0675777344148554 
7.0003034458253826 1.0662577160493827 
8.000303445825383 1.0686127691051936 
9.000303445825383 1.0762748061422307 
10.000303445825383 1.0771249744923985 
11.000303445825383 1.0710607973676156 
12.000303445825383 1.0599204162840528 
13.000303445825383 1.0601621008060402 
14.000303445825383 1.0583133098663402 
15.000303445825383 1.0531530583613917 
16.00030344582538 1.0588556014692374 
17.00030344582538 1.0616886032037547 
18.00030344582538 1.061586445260688 
19.00030344582538 1.079852310988674 
20.00030344582538 1.0831660034690342 
21.00030344582538 1.0991998265483112 
22.00030344582538 1.1008446842158963 
23.00030344582538 1.1131286348331797 
24.00030344582538 1.1201515789205179 
25.00030344582538 1.1226256249362312 
26.00030344582538 1.1261144908682792 
27.00030344582538 1.1195471125395378 
28.00030344582538 1.0975017855320888 
29.00030344582538 1.0698121365166813 
30.00030344582538 1.0572282165085198 
31.00030344582538 1.0213493521069277 
32.00030344582538 0.9935985486174884 
33.00030344582538 0.9600320120395871 
34.00030344582538 0.9200806040199981 
35.00030344582538 0.8692164702581368 
36.00030344582538 0.8034217809407198 
37.00030344582538 0.7575767141108056 
38.00030344582538 0.7028889909192937 
39.00030344582538 0.6786114937251304 
40.00030344582538 0.6308785455565757 
41.00030344582538 0.6318562519130702 
42.00030344582538 0.6072157177838998 
43.00030344582538 0.6026657994082234 
44.00030344582538 0.6007254361799816 
45.00030344582538 0.5909769411284564 
46.00030344582538 0.5982365957555351 
47.00030344582538 0.5876237118661359 
48.00030344582538 0.6045107004387307 
49.00030344582538 0.5888679726558514 
50.00030344582538 0.609677520151005 
51.00030344582538 0.5978764284256708 
52.00030344582538 0.6252321191715132 
53.00030344582538 0.6093522982348737 
54.00030344582538 0.623284039893888 
55.00030344582538 0.6320703882256915 
56.00030344582538 0.6373849607182936 
57.00030344582538 0.6552305249464337 
58.00030344582538 0.6445063003775123 
59.00030344582538 0.6678554484236303 
60.00030344582538 0.669503813386389 
61.00030344582538 0.7082885037241097 
62.00030344582538 0.7167918452198757 
63.00030344582538 0.7482269666360576 
64.00030344582538 0.7439691102948682 
65.00030344582538 0.7523070349964289 
66.00030344582538 0.7562096342209977 
67.00030344582538 0.7648806244260788 
68.00030344582538 0.75890100499949 
69.00030344582538 0.7416526374859708 
70.00030344582538 0.7462902382409958 
71.00030344582538 0.7382998546066728 
72.00030344582538 0.7482320681563106 
73.00030344582538 0.7312299127640036 
74.00030344582538 0.735945503009897 
75.00030344582538 0.7348458065503521 
76.00030344582538 0.7414131848790939 
77.00030344582538 0.7243246862565045 
78.00030344582538 0.7153680746862565 
79.00030344582538 0.7038265228037955 
80.00030344582538 0.6943961075400469 
81.00030344582538 0.6733091011121313 
82.00030344582538 0.6492957988980717 
83.00030344582538 0.6302304611774309 
84.00030344582538 0.6092940771349861 
85.00030344582538 0.5953735588205287 
86.00030344582538 0.6156024895418833 
87.00030344582538 0.619079940822365 
88.00030344582538 0.6233704468931741 
89.00030344582538 0.6135079966329966 
90.00030344582538 0.6477009998979696 
91.00030344582538 0.675160123966942 
92.00030344582538 0.671540085195388 
93.00030344582538 0.6693278747066624 
94.00030344582538 0.628615447403326 
95.00030344582538 0.6779607310478525 
96.00030344582538 0.6563943092541579 
97.00030344582538 0.5903069839812264 
98.00030344582538 0.561326395265789 
99.00030344582538 0.45482374247525736 
100.00030344582538 0.46914804611774297 
101.00030344582538 0.434353892459953 
102.00030344582538 0.428016656463626 
103.00030344582538 0.4340127282930312 
104.00030344582538 0.3721573053770023 
105.00030344582538 0.395161718192021 
106.00030344582538 0.35437008978675666 
107.00030344582538 0.3645392689521477 
108.00030344582538 0.339717056932966 
109.00030344582538 0.3230156999285786 
110.00030344582538 0.3128781501887563 
111.00030344582538 0.29138072645648383 
112.00030344582538 0.2929112463013979 
113.00030344582538 0.2863279257218647 
114.00030344582538 0.2933870906029994 
115.00030344582538 0.250664154167942 
116.00030344582538 0.2770766375880011 
117.00030344582538 0.25893231558004287 
118.00030344582538 0.2401157407407405 
119.00030344582538 0.24238674625038248 
120.00030344582538 0.2181346928884806 
121.00030344582538 0.20259495204570957 
122.00030344582538 0.20353924344454644 
123.00030344582538 0.17439540608101214 
124.00030344582538 0.19432328333843482 
125.00030344582538 0.1788684828078767 
126.00030344582538 0.17176238394041424 
127.00030344582538 0.17338893990409143 
128.00030344582538 0.15598688909294967 
129.00030344582538 0.1658378609325579 
130.00030344582538 0.1474235409652076 
131.00030344582538 0.15882097490052033 
132.00030344582538 0.13848376441179477 
133.00030344582538 0.13528995765738197 
134.00030344582538 0.13306894704621972 
135.00030344582538 0.1296355601469237 
136.00030344582538 0.12602323742475258 
137.00030344582538 0.12475008927660439 
138.00030344582538 0.12184757932863989 
139.00030344582538 0.11795333384348541 
140.00030344582538 0.11704570962146714 
141.00030344582538 0.11297527038057341 
142.00030344582538 0.11105729007244158 
143.00030344582538 0.10931697020712174 
144.00030344582538 0.10602502295684112 
145.00030344582538 0.1052069941842669 
146.00030344582538 0.10397268135904499 
147.00030344582538 0.1005754514845424 
148.00030344582538 0.10135993776145291 
149.00030344582538 0.09891701101928375 
150.00030344582538 0.09801512600755023 
151.00030344582538 0.09652554586266707 
152.00030344582538 0.09579985460667279 
153.00030344582538 0.09446134323028262 
154.00030344582538 0.09283478726660545 
155.00030344582538 0.0926298974594429 
156.00030344582538 0.09132154882154882 
157.00030344582538 0.09075808590960106 
158.00030344582538 0.09020406081012142 
159.00030344582538 0.0901459034792368 
160.00030344582538 0.09 
161.00030344582538 0.09 
162.00030344582538 0.09 
163.00030344582538 0.09 
164.00030344582538 0.09 
165.00030344582538 0.09 
166.00030344582538 0.09 
167.00030344582538 0.09 
168.00030344582538 0.09 
169.00030344582538 0.09 
170.00030344582538 0.09 
171.00030344582538 0.09 
172.00030344582538 0.09 
173.00030344582538 0.09 
174.00030344582538 0.09 
175.00030344582538 0.09 
176.00030344582538 0.09 
177.00030344582538 0.09 
178.00030344582538 0.09 
179.00030344582538 0.09 
180.00030344582538 0.09 
181.00030344582538 0.09 
182.00030344582538 0.09 
183.00030344582538 0.09 
184.00030344582538 0.09 
185.00030344582538 0.09 
186.00030344582538 0.09 
187.00030344582538 0.09 
188.00030344582538 0.09 
189.00030344582538 0.09 
190.00030344582538 0.09 
191.00030344582538 0.09 
192.00030344582538 0.09 
193.00030344582538 0.09 
194.00030344582538 0.09 
195.00030344582538 0.09 
196.00030344582538 0.09 
197.00030344582538 0.09 
198.00030344582538 0.09 
199.00030344582538 0.09 
200.00030344582538 0.09 
201.00030344582538 0.09 
202.00030344582538 0.09 
203.00030344582538 0.09 
204.00030344582538 0.09 
205.00030344582538 0.09 
206.00030344582538 0.09 
207.00030344582538 0.09 
208.00030344582538 0.09 
209.00030344582538 0.09 
210.00030344582538 0.09 
211.00030344582538 0.09 
212.00030344582538 0.09 
213.00030344582538 0.09 
214.00030344582538 0.09 
215.00030344582538 0.09 
216.00030344582538 0.09 
217.00030344582538 0.09 
218.00030344582538 0.09 
219.00030344582538 0.09 
220.00030344582538 0.09 
221.00030344582538 0.09 
222.00030344582538 0.09 
223.00030344582538 0.09 
224.00030344582538 0.09 
225.00030344582538 0.09 
226.00030344582538 0.09 
227.00030344582538 0.09 
228.00030344582538 0.09 
229.00030344582538 0.09 
230.00030344582538 0.09 
231.00030344582538 0.09 
232.00030344582538 0.09 
233.00030344582538 0.09 
234.00030344582538 0.09 
#####################################################################
# End of data export. Simulation finished at: 2017-05-25T07:49+0000 #
#####################################################################
