#####################################################################
# Alchemist log file - simulation started at: 2017-05-25T07:28+0000 #
#####################################################################
# random = 17.0, targets = 10.0, density = 0.11269076455391362, gridShift = 1.0, perturbation = 0.0, connfactor = 0.5
#
# The columns have the following meaning: 
# time se[Mean] 
0.0 NaN 
1.0045647570182237 NaN 
2.0045647570182235 1.0 
3.0045647570182235 0.9934777777777778 
4.0045647570182235 0.9895777777777778 
5.0045647570182235 0.9882333333333333 
6.0045647570182235 0.9856111111111111 
7.0045647570182235 0.9908111111111111 
8.004564757018223 0.9881444444444445 
9.004564757018223 0.9868444444444445 
10.004564757018223 0.9700777777777778 
11.004564757018223 0.9482666666666667 
12.004564757018223 0.9327111111111112 
13.004564757018223 0.8851111111111112 
14.004564757018223 0.8079666666666667 
15.004564757018223 0.7764666666666666 
16.004564757018223 0.7334777777777778 
17.004564757018223 0.6486333333333334 
18.004564757018223 0.5465777777777778 
19.004564757018223 0.5151 
20.004564757018223 0.5123888888888889 
21.004564757018223 0.46866666666666673 
22.004564757018223 0.4564777777777778 
23.004564757018223 0.44883333333333336 
24.004564757018223 0.49 
25.004564757018223 0.49 
26.004564757018223 0.49 
27.004564757018223 0.49 
28.004564757018223 0.49 
29.004564757018223 0.49 
30.004564757018223 0.49 
#####################################################################
# End of data export. Simulation finished at: 2017-05-25T07:28+0000 #
#####################################################################
