0.000000000000000000e+00 nan
6.661338147750939243e-16 2.953311566839986746e-01
1.332267629550187849e-15 8.244340379476421399e-01
4.440892098500626162e-16 6.872978199501065255e-01
2.664535259100375697e-15 6.841971518238358918e-01
2.664535259100375697e-15 6.819698794977031575e-01
8.881784197001252323e-16 6.821416265094198961e-01
0.000000000000000000e+00 6.881542670446425536e-01
5.329070518200751394e-15 6.850547009731817738e-01
1.776356839400250465e-15 6.897890259353450793e-01
5.329070518200751394e-15 6.865565123544308257e-01
5.329070518200751394e-15 6.860648602491927761e-01
1.776356839400250465e-15 6.859208790024409197e-01
7.105427357601001859e-15 6.840143125856604778e-01
0.000000000000000000e+00 6.835589470366909559e-01
3.552713678800500929e-15 6.839265396746542214e-01
1.065814103640150279e-14 6.838119574217622620e-01
0.000000000000000000e+00 6.852321728643033794e-01
3.552713678800500929e-15 6.900556284049012001e-01
1.065814103640150279e-14 6.988370062708865182e-01
1.065814103640150279e-14 7.089218612871771574e-01
7.105427357601001859e-15 7.191554598672464937e-01
1.065814103640150279e-14 7.369900645858585841e-01
0.000000000000000000e+00 7.521542193048474934e-01
3.552713678800500929e-15 7.717788909299353461e-01
7.105427357601001859e-15 7.897954394805711820e-01
1.421085471520200372e-14 8.112908366464037790e-01
0.000000000000000000e+00 8.417741913745165894e-01
0.000000000000000000e+00 8.691830059449316970e-01
3.552713678800500929e-15 8.908861515082340254e-01
7.105427357601001859e-15 9.084692113855649120e-01
3.552713678800500929e-15 9.223628804874101084e-01
2.131628207280300558e-14 9.384001569176532165e-01
1.421085471520200372e-14 9.323006320502502664e-01
0.000000000000000000e+00 9.429539520747876047e-01
0.000000000000000000e+00 9.333723326917517937e-01
7.105427357601001859e-15 9.378481134126585017e-01
1.421085471520200372e-14 9.568893379356270268e-01
2.131628207280300558e-14 9.734122521675750983e-01
1.421085471520200372e-14 1.002525895518179722e+00
2.131628207280300558e-14 1.068334263953021779e+00
2.842170943040400743e-14 1.031904393726013280e+00
1.421085471520200372e-14 1.209856729660894636e+00
7.105427357601001859e-15 1.218225203835033854e+00
2.131628207280300558e-14 1.238210461598925116e+00
7.105427357601001859e-15 1.186301020605542211e+00
0.000000000000000000e+00 1.734567544567614750e+00
0.000000000000000000e+00 1.357293785610155012e+00
7.105427357601001859e-15 2.367106863732288513e+00
1.421085471520200372e-14 2.854523354841865146e+00
1.421085471520200372e-14 2.393115614505290090e+00
1.421085471520200372e-14 3.034192464258023136e+00
2.842170943040400743e-14 4.063108209640712509e+00
2.131628207280300558e-14 3.372997064861184224e+00
0.000000000000000000e+00 4.344954500485464166e+00
7.105427357601001859e-15 3.917860695412462846e+00
0.000000000000000000e+00 5.715509726799514745e+00
1.421085471520200372e-14 5.395511486296739712e+00
7.105427357601001859e-15 5.878226447172688829e+00
2.131628207280300558e-14 6.572562548038302310e+00
1.421085471520200372e-14 7.182999525589398360e+00
0.000000000000000000e+00 7.590907915119095684e+00
7.105427357601001859e-15 7.601241369460489672e+00
0.000000000000000000e+00 6.961971412469368126e+00
4.263256414560601115e-14 8.444344701916794094e+00
2.842170943040400743e-14 7.656328921016592126e+00
2.842170943040400743e-14 1.128824459849507811e+01
1.421085471520200372e-14 1.153066685203261876e+01
0.000000000000000000e+00 1.381434045041769210e+01
0.000000000000000000e+00 1.378834992564875428e+01
0.000000000000000000e+00 2.230222401410665256e+01
0.000000000000000000e+00 1.861689629179997141e+01
1.421085471520200372e-14 2.455096524693886906e+01
1.421085471520200372e-14 2.623807481039517242e+01
2.842170943040400743e-14 2.754177430496085677e+01
4.263256414560601115e-14 2.795655959003229185e+01
4.263256414560601115e-14 3.077964575170814854e+01
1.421085471520200372e-14 2.894912379952559434e+01
2.842170943040400743e-14 3.399650039569343107e+01
2.842170943040400743e-14 3.329666294118819536e+01
4.263256414560601115e-14 3.163416285196280597e+01
5.684341886080801487e-14 3.079890474474988338e+01
5.684341886080801487e-14 3.651817233103272997e+01
4.263256414560601115e-14 3.324620133067270444e+01
2.842170943040400743e-14 3.335258251407095997e+01
2.842170943040400743e-14 3.592633240234111724e+01
1.421085471520200372e-14 3.519546025721442106e+01
4.263256414560601115e-14 3.544388549989704273e+01
4.263256414560601115e-14 4.278465666020639446e+01
2.842170943040400743e-14 4.164669151519427004e+01
1.421085471520200372e-14 5.160301406787635159e+01
0.000000000000000000e+00 4.850077405879585513e+01
0.000000000000000000e+00 5.017604391966699495e+01
0.000000000000000000e+00 5.693108353279971112e+01
0.000000000000000000e+00 5.623936035523973942e+01
0.000000000000000000e+00 7.255031789698107048e+01
1.421085471520200372e-14 6.061206974108804246e+01
2.842170943040400743e-14 6.943445583550753497e+01
2.842170943040400743e-14 8.269730266390736517e+01
1.421085471520200372e-14 6.456005288807689624e+01
2.842170943040400743e-14 7.966037135069643682e+01
1.421085471520200372e-14 8.167568958619182240e+01
2.842170943040400743e-14 7.867428548685401779e+01
4.263256414560601115e-14 7.280559191042931388e+01
5.684341886080801487e-14 7.610524383292155903e+01
5.684341886080801487e-14 9.948004956569705826e+01
4.263256414560601115e-14 8.682379959296027039e+01
4.263256414560601115e-14 7.788950893911022888e+01
0.000000000000000000e+00 6.518471857761035437e+01
2.842170943040400743e-14 6.131613902599724497e+01
1.421085471520200372e-14 6.641863670232889660e+01
4.263256414560601115e-14 3.835574100943333065e+01
0.000000000000000000e+00 6.833749422576246957e+01
1.421085471520200372e-14 6.506308955951946871e+01
2.842170943040400743e-14 6.542822650389001637e+01
0.000000000000000000e+00 5.684065586279810844e+01
1.421085471520200372e-14 7.058127698519628268e+01
0.000000000000000000e+00 4.881928753671294885e+01
4.263256414560601115e-14 6.495144437497246770e+01
1.421085471520200372e-14 5.136716341725767876e+01
2.842170943040400743e-14 6.741414187647714584e+01
2.842170943040400743e-14 4.324074632369590176e+01
0.000000000000000000e+00 3.519785792903779509e+01
2.842170943040400743e-14 1.838526461619892416e+01
1.421085471520200372e-14 1.997943908807031121e+01
4.263256414560601115e-14 1.329843232499515260e+01
0.000000000000000000e+00 1.685669340344053069e+01
5.684341886080801487e-14 1.276342043455471398e+01
8.526512829121202230e-14 1.459884055017129256e+01
8.526512829121202230e-14 1.344924818510216191e+01
5.684341886080801487e-14 1.592266357972995117e+01
2.842170943040400743e-14 1.633667631269986487e+01
5.684341886080801487e-14 1.776938078844237978e+01
2.842170943040400743e-14 1.764768902382590809e+01
2.842170943040400743e-14 1.729902896154830572e+01
2.842170943040400743e-14 1.930174012965683517e+01
0.000000000000000000e+00 2.005595239487869463e+01
5.684341886080801487e-14 2.333876639598230796e+01
0.000000000000000000e+00 1.858358600642410607e+01
5.684341886080801487e-14 2.014206585243977443e+01
0.000000000000000000e+00 1.985084849551424568e+01
5.684341886080801487e-14 2.105060988848685355e+01
0.000000000000000000e+00 2.023838755888505858e+01
5.684341886080801487e-14 2.012291144941363186e+01
2.842170943040400743e-14 1.883841845161343187e+01
2.842170943040400743e-14 2.120249030350586850e+01
2.842170943040400743e-14 1.796031742113543928e+01
2.842170943040400743e-14 2.070781473377842374e+01
5.684341886080801487e-14 2.160915053981672074e+01
2.842170943040400743e-14 2.078123206541272339e+01
8.526512829121202230e-14 2.038464021666236192e+01
8.526512829121202230e-14 2.297800456586928419e+01
8.526512829121202230e-14 2.163766262732491796e+01
5.684341886080801487e-14 2.411186533676259103e+01
2.842170943040400743e-14 2.052324689165448390e+01
5.684341886080801487e-14 2.023643308686936493e+01
5.684341886080801487e-14 2.447841322674160836e+01
2.842170943040400743e-14 2.795990759287557026e+01
5.684341886080801487e-14 2.257693942719982161e+01
0.000000000000000000e+00 2.234514728596138511e+01
8.526512829121202230e-14 2.060242713534908532e+01
0.000000000000000000e+00 1.907261426749410305e+01
1.136868377216160297e-13 2.004094506471736636e+01
0.000000000000000000e+00 1.934392015574770340e+01
1.136868377216160297e-13 1.789090530944270796e+01
0.000000000000000000e+00 1.616895169302845048e+01
8.526512829121202230e-14 9.785971973851879113e+00
0.000000000000000000e+00 1.490198272316504635e+01
5.684341886080801487e-14 1.605785026265554549e+01
2.842170943040400743e-14 1.383038280728953850e+01
5.684341886080801487e-14 1.252855258477387146e+01
5.684341886080801487e-14 1.368526690148610037e+01
2.842170943040400743e-14 1.435323983024907690e+01
5.684341886080801487e-14 1.485779443027631075e+01
8.526512829121202230e-14 1.489134169933620022e+01
8.526512829121202230e-14 1.708262636324239025e+01
8.526512829121202230e-14 1.868717390976239656e+01
2.842170943040400743e-14 1.842050887533315517e+01
5.684341886080801487e-14 1.932838629806700226e+01
5.684341886080801487e-14 1.815136771651841485e+01
2.842170943040400743e-14 2.071597011312065106e+01
5.684341886080801487e-14 1.761314661162905892e+01
0.000000000000000000e+00 1.961173109268981563e+01
8.526512829121202230e-14 1.469596512135468380e+01
0.000000000000000000e+00 1.448618629314159634e+01
1.136868377216160297e-13 1.367520076834423826e+01
0.000000000000000000e+00 1.000575281502850977e+01
1.136868377216160297e-13 8.751071172852951108e+00
0.000000000000000000e+00 7.850461027185760443e+00
8.526512829121202230e-14 6.785403948896565396e+00
0.000000000000000000e+00 8.578511315611125454e+00
5.684341886080801487e-14 7.926972061567713723e+00
2.842170943040400743e-14 7.832490820147688382e+00
5.684341886080801487e-14 6.149403823235082278e+00
5.684341886080801487e-14 7.596693586910164164e+00
5.684341886080801487e-14 5.660595931123789448e+00
5.684341886080801487e-14 5.484753964590851183e+00
8.526512829121202230e-14 4.765679543909191018e+00
2.842170943040400743e-14 4.779600412179065394e+00
2.842170943040400743e-14 4.712848211581992963e+00
5.684341886080801487e-14 4.503509800277628372e+00
5.684341886080801487e-14 4.466875940306886505e+00
2.842170943040400743e-14 4.436182508429467042e+00
2.842170943040400743e-14 4.402383510835603531e+00
5.684341886080801487e-14 4.451067998862834330e+00
2.842170943040400743e-14 4.423276308555732506e+00
8.526512829121202230e-14 4.423367306270784560e+00
5.684341886080801487e-14 4.388194819286745485e+00
1.136868377216160297e-13 4.412213322976066721e+00
0.000000000000000000e+00 4.383643029085750875e+00
1.136868377216160297e-13 4.380805770026902302e+00
5.684341886080801487e-14 4.379621546290199952e+00
8.526512829121202230e-14 4.379622823053937353e+00
0.000000000000000000e+00 4.379622823053937353e+00
8.526512829121202230e-14 4.379622823053937353e+00
2.842170943040400743e-14 4.379622823053937353e+00
0.000000000000000000e+00 4.379622823053937353e+00
5.684341886080801487e-14 4.379622823053937353e+00
5.684341886080801487e-14 4.379622823053937353e+00
0.000000000000000000e+00 4.379622823053937353e+00
2.842170943040400743e-14 4.379622823053937353e+00
8.526512829121202230e-14 4.379622823053937353e+00
8.526512829121202230e-14 4.379622823053937353e+00
2.842170943040400743e-14 4.379622823053937353e+00
0.000000000000000000e+00 4.379622823053937353e+00
5.684341886080801487e-14 4.379622823053937353e+00
2.842170943040400743e-14 4.379622823053937353e+00
0.000000000000000000e+00 4.379622823053937353e+00
5.684341886080801487e-14 4.379622823053937353e+00
1.136868377216160297e-13 4.379622823053937353e+00
0.000000000000000000e+00 4.379622823053937353e+00
2.842170943040400743e-14 4.379622823053937353e+00
2.842170943040400743e-14 4.379622823053937353e+00
1.421085471520200372e-13 4.379622823053937353e+00
0.000000000000000000e+00 4.379622823053937353e+00
1.136868377216160297e-13 4.379622823053937353e+00
8.526512829121202230e-14 4.379622823053937353e+00
2.842170943040400743e-14 4.379622823053937353e+00
2.842170943040400743e-14 4.379622823053937353e+00
8.526512829121202230e-14 4.379622823053937353e+00
5.684341886080801487e-14 4.379622823053937353e+00
2.842170943040400743e-14 4.379622823053937353e+00
5.684341886080801487e-14 4.379622823053937353e+00
8.526512829121202230e-14 4.379622823053937353e+00
0.000000000000000000e+00 4.379622823053937353e+00
0.000000000000000000e+00 4.379622823053937353e+00
5.684341886080801487e-14 4.379622823053937353e+00
5.684341886080801487e-14 4.379622823053937353e+00
2.842170943040400743e-14 4.379622823053937353e+00
5.684341886080801487e-14 4.379622823053937353e+00
8.526512829121202230e-14 4.379622823053937353e+00
2.842170943040400743e-14 4.379622823053937353e+00
0.000000000000000000e+00 4.379622823053937353e+00
8.526512829121202230e-14 4.379622823053937353e+00
1.136868377216160297e-13 4.379622823053937353e+00
0.000000000000000000e+00 4.379622823053937353e+00
1.705302565824240446e-13 4.379622823053937353e+00
1.136868377216160297e-13 4.379622823053937353e+00
1.705302565824240446e-13 4.379622823053937353e+00
0.000000000000000000e+00 4.379622823053937353e+00
1.136868377216160297e-13 4.379622823053937353e+00
1.136868377216160297e-13 4.379622823053937353e+00
5.684341886080801487e-14 4.379622823053937353e+00
0.000000000000000000e+00 4.379622823053937353e+00
1.136868377216160297e-13 4.379622823053937353e+00
5.684341886080801487e-14 4.379622823053937353e+00
5.684341886080801487e-14 4.379622823053937353e+00
5.684341886080801487e-14 4.379622823053937353e+00
5.684341886080801487e-14 4.379622823053937353e+00
5.684341886080801487e-14 4.379622823053937353e+00
5.684341886080801487e-14 4.379622823053937353e+00
1.136868377216160297e-13 4.379622823053937353e+00
0.000000000000000000e+00 4.379622823053937353e+00
5.684341886080801487e-14 4.379622823053937353e+00
