#####################################################################
# Alchemist log file - simulation started at: 2017-05-24T03:06+0000 #
#####################################################################
# random = 6.0, targets = 10.0, density = 0.04, gridShift = 1.0, perturbation = 0.0, connfactor = 0.75
#
# The columns have the following meaning: 
# time se[Mean] 
0.0 NaN 
1.0115592716150654 NaN 
2.0115592716150656 0.9841666666666666 
3.0115592716150656 0.9519675925925926 
4.011559271615066 0.8881018518518519 
5.011559271615066 0.872800925925926 
6.011559271615066 0.8865277777777778 
7.011559271615066 0.9420601851851853 
8.011559271615067 0.9046064814814816 
9.011559271615067 0.8156944444444445 
10.011559271615067 0.6401157407407408 
11.011559271615067 0.3981944444444445 
12.011559271615067 0.32666666666666677 
13.011559271615067 0.20689814814814822 
14.011559271615067 0.15766203703703713 
15.011559271615067 0.09567129629629638 
16.011559271615067 0.07965277777777785 
17.011559271615067 0.05564814814814822 
18.011559271615067 0.05305555555555563 
19.011559271615067 0.04000000000000007 
20.011559271615067 0.04259259259259266 
21.011559271615067 0.04000000000000007 
22.011559271615067 0.04000000000000007 
23.011559271615067 0.04000000000000007 
#####################################################################
# End of data export. Simulation finished at: 2017-05-24T03:06+0000 #
#####################################################################
