#####################################################################
# Alchemist log file - simulation started at: 2017-05-25T07:59+0000 #
#####################################################################
# random = 8.0, targets = 1.0, density = 0.894427190999916, gridShift = 1.0, perturbation = 0.5, connfactor = 1.5
#
# The columns have the following meaning: 
# time se[Mean] 
0.0 NaN 
1.0447112257851685 NaN 
2.0447112257851687 1.04375 
3.0447112257851687 1.112037037037037 
4.044711225785169 1.1682870370370368 
5.044711225785169 1.0925925925925923 
6.044711225785169 1.0513888888888887 
7.044711225785169 1.1208333333333333 
8.044711225785168 1.075462962962963 
9.044711225785168 1.3025462962962968 
10.044711225785168 1.5918981481481487 
11.044711225785168 1.4344907407407408 
12.044711225785168 1.7740740740740746 
13.044711225785168 1.4502314814814818 
14.044711225785168 1.4060185185185192 
15.044711225785168 1.2456018518518523 
16.044711225785168 1.2199074074074074 
17.044711225785168 1.2138888888888888 
18.044711225785168 1.1293981481481483 
19.044711225785168 1.1414351851851854 
20.044711225785168 1.1173611111111112 
21.044711225785168 1.126388888888889 
22.044711225785168 1.102314814814815 
23.044711225785168 1.090277777777778 
24.044711225785168 1.10625 
25.044711225785168 1.119212962962963 
26.044711225785168 1.1601851851851852 
27.044711225785168 1.1865740740740742 
28.044711225785168 1.1 
29.044711225785168 1.2048611111111116 
30.044711225785168 1.1094907407407406 
31.044711225785168 1.1773148148148151 
32.044711225785164 1.1743055555555557 
33.044711225785164 1.1020833333333335 
34.044711225785164 1.0956018518518522 
35.044711225785164 1.1569444444444448 
36.044711225785164 1.139814814814815 
37.044711225785164 1.147916666666667 
38.044711225785164 0.9914351851851855 
39.044711225785164 1.0870370370370372 
40.044711225785164 1.02800925925926 
41.044711225785164 0.8928240740740747 
42.044711225785164 0.8997685185185196 
43.044711225785164 0.7710648148148156 
44.044711225785164 0.943750000000001 
45.044711225785164 0.8164351851851863 
46.044711225785164 0.8759259259259272 
47.044711225785164 0.9263888888888901 
48.044711225785164 0.888657407407409 
49.044711225785164 0.9842592592592607 
50.044711225785164 0.9687500000000018 
51.044711225785164 0.9733796296296309 
52.044711225785164 1.0043981481481496 
53.044711225785164 0.969907407407409 
54.044711225785164 1.0363425925925935 
55.044711225785164 1.0449074074074085 
56.044711225785164 0.9983796296296304 
57.044711225785164 1.0805555555555566 
58.044711225785164 1.0354166666666675 
59.044711225785164 1.0460648148148157 
60.044711225785164 1.0287037037037046 
61.044711225785164 1.0060185185185193 
62.044711225785164 1.0219907407407416 
63.044711225785164 1.0000000000000009 
64.04471122578516 1.0060185185185193 
65.04471122578516 1.0000000000000009 
66.04471122578516 1.0000000000000009 
67.04471122578516 1.0000000000000009 
68.04471122578516 1.0000000000000009 
69.04471122578516 1.0000000000000009 
70.04471122578516 1.0000000000000009 
71.04471122578516 1.0000000000000009 
72.04471122578516 1.0000000000000009 
73.04471122578516 1.0000000000000009 
74.04471122578516 1.0000000000000009 
75.04471122578516 1.0000000000000009 
76.04471122578516 1.0000000000000009 
77.04471122578516 1.0000000000000009 
78.04471122578516 1.0000000000000009 
79.04471122578516 1.0000000000000009 
80.04471122578516 1.0000000000000009 
81.04471122578516 1.0000000000000009 
82.04471122578516 1.0000000000000009 
#####################################################################
# End of data export. Simulation finished at: 2017-05-25T07:59+0000 #
#####################################################################
