#####################################################################
# Alchemist log file - simulation started at: 2017-05-23T16:30+0000 #
#####################################################################
# random = 12.0, targets = 10.0, density = 0.11269076455391362, gridShift = 0.0, perturbation = 0.5, connfactor = 0.75
#
# The columns have the following meaning: 
# time se[Mean] 
0.0 NaN 
1.0242474491697862 NaN 
2.024247449169786 1.05 
3.024247449169786 1.0579027777777779 
4.024247449169787 1.1204805555555555 
5.024247449169787 1.1312861111111112 
6.024247449169787 1.232013888888889 
7.024247449169787 1.2712333333333334 
8.024247449169787 1.2784 
9.024247449169787 1.3128027777777778 
10.024247449169787 1.3424694444444445 
11.024247449169787 1.2101666666666668 
12.024247449169787 1.1929611111111111 
13.024247449169787 1.059852777777778 
14.024247449169787 0.9342833333333334 
15.024247449169787 0.7606361111111112 
16.024247449169785 0.7248694444444446 
17.024247449169785 0.7067055555555556 
18.024247449169785 0.7464194444444444 
19.024247449169785 0.7067694444444445 
20.024247449169785 0.7704111111111112 
21.024247449169785 0.7832361111111111 
22.024247449169785 0.7788166666666667 
23.024247449169785 0.871963888888889 
24.024247449169785 0.89365 
25.024247449169785 0.9214611111111112 
26.024247449169785 1.0743194444444446 
27.024247449169785 0.9142277777777779 
28.024247449169785 1.1836805555555556 
29.024247449169785 1.249552777777778 
30.024247449169785 1.2576916666666669 
31.024247449169785 0.8082250000000001 
32.024247449169785 0.8843111111111112 
33.024247449169785 0.81 
34.024247449169785 0.81 
35.024247449169785 0.81 
36.024247449169785 0.81 
37.024247449169785 0.81 
38.024247449169785 0.81 
39.024247449169785 0.81 
#####################################################################
# End of data export. Simulation finished at: 2017-05-23T16:30+0000 #
#####################################################################
