#####################################################################
# Alchemist log file - simulation started at: 2017-05-25T03:16+0000 #
#####################################################################
# random = 16.0, targets = 100.0, density = 5.0264212595847235, gridShift = 0.0, perturbation = 0.5, connfactor = 0.25
#
# The columns have the following meaning: 
# time se[Mean] 
0.0 NaN 
1.0036381828704857 NaN 
2.0036381828704855 1.0 
3.0036381828704855 0.9999309027777777 
4.0036381828704855 0.999432421875 
5.0036381828704855 0.9985528645833334 
6.0036381828704855 0.9964556423611111 
7.0036381828704855 0.99449453125 
8.003638182870485 0.9929841145833334 
9.003638182870485 0.9903009114583333 
10.003638182870485 0.9885394097222222 
11.003638182870485 0.9849587673611111 
12.003638182870485 0.9821134548611111 
13.003638182870485 0.9799365885416667 
14.003638182870485 0.97780859375 
15.003638182870485 0.9746669270833334 
16.003638182870485 0.9729918402777777 
17.003638182870485 0.9725558159722222 
18.003638182870485 0.9707785590277778 
19.003638182870485 0.9678812934027777 
20.003638182870485 0.9674190972222222 
21.003638182870485 0.9644391059027778 
22.003638182870485 0.9643279079861111 
23.003638182870485 0.9628021701388889 
24.003638182870485 0.9612029947916667 
25.003638182870485 0.9600062065972222 
26.003638182870485 0.958934765625 
27.003638182870485 0.9561711805555556 
28.003638182870485 0.9549684027777778 
29.003638182870485 0.9533147135416666 
30.003638182870485 0.9519993923611111 
31.003638182870485 0.9509940538194445 
32.00363818287049 0.9495344184027777 
33.00363818287049 0.9487562934027778 
34.00363818287049 0.9479805121527778 
35.00363818287049 0.9469726128472222 
36.00363818287049 0.9439476996527778 
37.00363818287049 0.9428334635416666 
38.00363818287049 0.9396904947916667 
39.00363818287049 0.9351055989583335 
40.00363818287049 0.9351185329861111 
41.00363818287049 0.9271329427083334 
42.00363818287049 0.9211113281250001 
43.00363818287049 0.9215002170138888 
44.00363818287049 0.9103483072916667 
45.00363818287049 0.9064852864583333 
46.00363818287049 0.8992563368055555 
47.00363818287049 0.8893803819444445 
48.00363818287049 0.8828470052083333 
49.00363818287049 0.8751389322916664 
50.00363818287049 0.8657642795138891 
51.00363818287049 0.8590835069444445 
52.00363818287049 0.8521008246527776 
53.00363818287049 0.8476208767361112 
54.00363818287049 0.8356536458333333 
55.00363818287049 0.8380407118055554 
56.00363818287049 0.8314615451388889 
57.00363818287049 0.8204957465277777 
58.00363818287049 0.823265017361111 
59.00363818287049 0.8231879340277779 
60.00363818287049 0.8187122395833334 
61.00363818287049 0.8209124565972221 
62.00363818287049 0.8240686631944443 
63.00363818287049 0.810318967013889 
64.00363818287049 0.8134874565972222 
65.00363818287049 0.8008657552083335 
66.00363818287049 0.8027950520833331 
67.00363818287049 0.7990339843750001 
68.00363818287049 0.792107248263889 
69.00363818287049 0.7869453559027778 
70.00363818287049 0.7758014756944445 
71.00363818287049 0.7752757378472223 
72.00363818287049 0.7623548611111111 
73.00363818287049 0.7579976996527777 
74.00363818287049 0.7456969184027777 
75.00363818287049 0.7325174479166667 
76.00363818287049 0.7304575520833335 
77.00363818287049 0.719208376736111 
78.00363818287049 0.7077533854166669 
79.00363818287049 0.7031084201388889 
80.00363818287049 0.6924034288194442 
81.00363818287049 0.6846852430555556 
82.00363818287049 0.6735618923611112 
83.00363818287049 0.6721093750000002 
84.00363818287049 0.6604987413194444 
85.00363818287049 0.657427126736111 
86.00363818287049 0.6598206163194444 
87.00363818287049 0.6435282986111112 
88.00363818287049 0.6610117621527779 
89.00363818287049 0.6641623697916668 
90.00363818287049 0.6445897569444443 
91.00363818287049 0.6687290798611112 
92.00363818287049 0.6547629340277779 
93.00363818287049 0.6626509114583334 
94.00363818287049 0.6698235243055558 
95.00363818287049 0.6620658420138887 
96.00363818287049 0.6813498263888891 
97.00363818287049 0.6864426649305556 
98.00363818287049 0.6793815538194445 
99.00363818287049 0.7043130642361115 
100.00363818287049 0.6928151475694444 
101.00363818287049 0.7191237413194443 
102.00363818287049 0.6964142795138888 
103.00363818287049 0.707962673611111 
104.00363818287049 0.7291494357638889 
105.00363818287049 0.701923654513889 
106.00363818287049 0.7206608072916669 
107.00363818287049 0.7200217881944444 
108.00363818287049 0.7071985243055556 
109.00363818287049 0.6975694444444446 
110.00363818287049 0.712571310763889 
111.00363818287049 0.7011432291666667 
112.00363818287049 0.7193344618055553 
113.00363818287049 0.6978634982638888 
114.00363818287049 0.6846416666666665 
115.00363818287049 0.7293173611111116 
116.00363818287049 0.6876343749999999 
117.00363818287049 0.6675822482638888 
118.00363818287049 0.608563107638889 
119.00363818287049 0.6042937065972225 
120.00363818287049 0.5675793402777779 
121.00363818287049 0.5699678819444444 
122.00363818287049 0.5580989149305554 
123.00363818287049 0.5513489149305556 
124.00363818287049 0.5639350260416663 
125.00363818287049 0.5392336805555557 
126.00363818287049 0.5699222656249999 
127.00363818287049 0.5552520833333333 
128.00363818287047 0.5273170138888889 
129.00363818287047 0.5049817708333333 
130.00363818287047 0.510896267361111 
131.00363818287047 0.49038454861111114 
132.00363818287047 0.49010004340277774 
133.00363818287047 0.48283489583333333 
134.00363818287047 0.4842910590277778 
135.00363818287047 0.48440347222222224 
136.00363818287047 0.4846152777777778 
137.00363818287047 0.4833971354166667 
138.00363818287047 0.48446796875 
139.00363818287047 0.48656523437500004 
140.00363818287047 0.4876778211805555 
141.00363818287047 0.4879636284722222 
142.00363818287047 0.48898537326388886 
143.00363818287047 0.48948897569444444 
144.00363818287047 0.4898672309027778 
145.00363818287047 0.4898911892361111 
146.00363818287047 0.489939453125 
147.00363818287047 0.48997578124999996 
148.00363818287047 0.49 
149.00363818287047 0.49 
150.00363818287047 0.49 
151.00363818287047 0.49 
152.00363818287047 0.49 
153.00363818287047 0.49 
154.00363818287047 0.49 
155.00363818287047 0.49 
156.00363818287047 0.49 
157.00363818287047 0.49 
158.00363818287047 0.49 
159.00363818287047 0.49 
160.00363818287047 0.49 
161.00363818287047 0.49 
162.00363818287047 0.49 
163.00363818287047 0.49 
164.00363818287047 0.49 
165.00363818287047 0.49 
166.00363818287047 0.49 
167.00363818287047 0.49 
168.00363818287047 0.49 
169.00363818287047 0.49 
170.00363818287047 0.49 
171.00363818287047 0.49 
172.00363818287047 0.49 
173.00363818287047 0.49 
174.00363818287047 0.49 
175.00363818287047 0.49 
176.00363818287047 0.49 
177.00363818287047 0.49 
178.00363818287047 0.49 
179.00363818287047 0.49 
180.00363818287047 0.49 
181.00363818287047 0.49 
182.00363818287047 0.49 
183.00363818287047 0.49 
184.00363818287047 0.49 
185.00363818287047 0.49 
186.00363818287047 0.49 
187.00363818287047 0.49 
188.00363818287047 0.49 
189.00363818287047 0.49 
190.00363818287047 0.49 
191.00363818287047 0.49 
192.00363818287047 0.49 
193.00363818287047 0.49 
194.00363818287047 0.49 
195.00363818287047 0.49 
196.00363818287047 0.49 
197.00363818287047 0.49 
198.00363818287047 0.49 
199.00363818287047 0.49 
200.00363818287047 0.49 
#####################################################################
# End of data export. Simulation finished at: 2017-05-25T03:17+0000 #
#####################################################################
