#####################################################################
# Alchemist log file - simulation started at: 2017-05-23T02:20+0000 #
#####################################################################
# random = 10.0, targets = 31.622776601683793, density = 10.026386447354522, gridShift = 0.0, perturbation = 0.5, connfactor = 0.25
#
# The columns have the following meaning: 
# time se[Mean] 
0.0 NaN 
1.0007035023519422 NaN 
2.000703502351942 1.0 
3.000703502351942 1.0 
4.000703502351942 0.9996017273898773 
5.000703502351942 0.9983515876557414 
6.000703502351942 0.9966995022169005 
7.000703502351942 0.9930154242020072 
8.000703502351943 0.991156743526423 
9.000703502351943 0.9887744540548514 
10.000703502351943 0.9852799913810111 
11.000703502351943 0.9825012658466079 
12.000703502351943 0.9802771449271056 
13.000703502351943 0.9749439781128478 
14.000703502351943 0.9742397112272276 
15.000703502351943 0.9712341884358792 
16.000703502351943 0.9690360046634873 
17.000703502351943 0.9656225755554902 
18.000703502351943 0.9642066955950854 
19.000703502351943 0.96077100243456 
20.000703502351943 0.9584050164035731 
21.000703502351943 0.95679929561708 
22.000703502351943 0.9559364092093202 
23.000703502351943 0.9545258134057535 
24.000703502351943 0.9527167195070287 
25.000703502351943 0.9508190203682613 
26.000703502351943 0.949441256930899 
27.000703502351943 0.9469384644602301 
28.000703502351943 0.9449888910272416 
29.000703502351943 0.9426651455839498 
30.000703502351943 0.9395425674030511 
31.000703502351943 0.9373604615862087 
32.00070350235194 0.9318526299612712 
33.00070350235194 0.9297777203424178 
34.00070350235194 0.9252532781243373 
35.00070350235194 0.9203457066445334 
36.00070350235194 0.915634227421815 
37.00070350235194 0.9071326994124184 
38.00070350235194 0.9033422323226785 
39.00070350235194 0.8937349100260179 
40.00070350235194 0.8944314777534309 
41.00070350235194 0.8884699862805843 
42.00070350235194 0.8803045822764961 
43.00070350235194 0.8759151426178156 
44.00070350235194 0.8726936163682332 
45.00070350235194 0.8613972585699334 
46.00070350235194 0.869085094944319 
47.00070350235194 0.8591416255274289 
48.00070350235194 0.8601025875467114 
49.00070350235194 0.8559824438847158 
50.00070350235194 0.8510078874293008 
51.00070350235194 0.8506997331204493 
52.00070350235194 0.8439562645057078 
53.00070350235194 0.84623660608509 
54.00070350235194 0.8395611845371173 
55.00070350235194 0.8353037181313506 
56.00070350235194 0.8300415982073677 
57.00070350235194 0.8269586169437306 
58.00070350235194 0.8250538265838135 
59.00070350235194 0.8271787380985581 
60.00070350235194 0.8198409014325791 
61.00070350235194 0.8156734744312324 
62.00070350235194 0.8419524399854823 
63.00070350235194 0.8471021567980596 
64.00070350235194 0.8468827511334055 
65.00070350235194 0.8678203535152778 
66.00070350235194 0.8386410088874308 
67.00070350235194 0.8996472972867091 
68.00070350235194 0.8970386774484096 
69.00070350235194 0.8785109047259865 
70.00070350235194 0.9639388372821995 
71.00070350235194 0.8590938702147406 
72.00070350235194 0.9242305367248245 
73.00070350235194 0.8805378185765144 
74.00070350235194 0.8822563065261435 
75.00070350235194 0.8753889486260328 
76.00070350235194 0.8470922414560769 
77.00070350235194 0.884616857678534 
78.00070350235194 0.8315597323078416 
79.00070350235194 0.8493387832722646 
80.00070350235194 0.8348718611996593 
81.00070350235194 0.84871647170069 
82.00070350235194 0.8143278782002199 
83.00070350235194 0.7784759190298803 
84.00070350235194 0.7544972643954059 
85.00070350235194 0.7541855596385203 
86.00070350235194 0.8157836010748664 
87.00070350235194 0.7122432431190419 
88.00070350235194 0.7505413756051702 
89.00070350235194 0.705624223843456 
90.00070350235194 0.6786490123944278 
91.00070350235194 0.7210606905105698 
92.00070350235194 0.7188710130195279 
93.00070350235194 0.6636154226094783 
94.00070350235194 0.6577704526485156 
95.00070350235194 0.6828026399865511 
96.00070350235194 0.6832656944931191 
97.00070350235194 0.6408107112179775 
98.00070350235194 0.6510002938920214 
99.00070350235194 0.6612238832911725 
100.00070350235194 0.5828896038546431 
101.00070350235194 0.5454544804228226 
102.00070350235194 0.527390799652604 
103.00070350235194 0.5257804217505071 
104.00070350235194 0.5027030568551443 
105.00070350235194 0.4607226852587276 
106.00070350235194 0.4651425422822435 
107.00070350235194 0.4490050275471616 
108.00070350235194 0.4421785748981109 
109.00070350235194 0.44069871532694505 
110.00070350235194 0.4413470396356218 
111.00070350235194 0.4111291949154675 
112.00070350235194 0.4080845747640847 
113.00070350235194 0.4284484326020117 
114.00070350235194 0.3932764493795914 
115.00070350235194 0.3895405496683782 
116.00070350235194 0.3858689776995097 
117.00070350235194 0.37195477357675727 
118.00070350235194 0.3654786608690387 
119.00070350235194 0.3592370931636288 
120.00070350235194 0.3482854421915241 
121.00070350235194 0.3297344230489808 
122.00070350235194 0.33282177296648274 
123.00070350235194 0.3308255050270239 
124.00070350235194 0.3108897436165443 
125.00070350235194 0.31823648812007255 
126.00070350235194 0.3137327873412044 
127.00070350235194 0.29715717759370336 
128.00070350235194 0.28425224105895985 
129.00070350235194 0.28264702065640857 
130.00070350235194 0.28383220478025045 
131.00070350235194 0.27235179789141634 
132.00070350235194 0.26780598400886013 
133.00070350235194 0.2646596550131552 
134.00070350235194 0.26489063848474226 
135.00070350235194 0.26521776938759223 
136.00070350235194 0.26711981489201814 
137.00070350235194 0.2696233754507615 
138.00070350235194 0.2708932957180087 
139.00070350235194 0.27147580151131867 
140.00070350235194 0.27209252524805366 
141.00070350235194 0.2744563807286664 
142.00070350235194 0.27567861610036376 
143.00070350235194 0.2759684997533027 
144.00070350235194 0.2756891517470306 
145.00070350235194 0.2759095047549525 
146.00070350235194 0.27617048728831367 
147.00070350235194 0.2762870917077934 
148.00070350235194 0.27631670194948615 
149.00070350235194 0.27631670194948615 
150.00070350235194 0.27631670194948615 
151.00070350235194 0.27631670194948615 
152.00070350235194 0.27631670194948615 
153.00070350235194 0.27631670194948615 
154.00070350235194 0.27631670194948615 
155.00070350235194 0.27631670194948615 
156.00070350235194 0.27631670194948615 
157.00070350235194 0.27631670194948615 
158.00070350235194 0.27631670194948615 
159.00070350235194 0.27631670194948615 
160.00070350235194 0.27631670194948615 
161.00070350235194 0.27631670194948615 
162.00070350235194 0.27631670194948615 
163.00070350235194 0.27631670194948615 
164.00070350235194 0.27631670194948615 
165.00070350235194 0.27631670194948615 
166.00070350235194 0.27631670194948615 
167.00070350235194 0.27631670194948615 
168.00070350235194 0.27631670194948615 
169.00070350235194 0.27631670194948615 
170.00070350235194 0.27631670194948615 
171.00070350235194 0.27631670194948615 
172.00070350235194 0.27631670194948615 
173.00070350235194 0.27631670194948615 
174.00070350235194 0.27631670194948615 
175.00070350235194 0.27631670194948615 
176.00070350235194 0.27631670194948615 
177.00070350235194 0.27631670194948615 
178.00070350235194 0.27631670194948615 
179.00070350235194 0.27631670194948615 
180.00070350235194 0.27631670194948615 
181.00070350235194 0.27631670194948615 
182.00070350235194 0.27631670194948615 
183.00070350235194 0.27631670194948615 
184.00070350235194 0.27631670194948615 
185.00070350235194 0.27631670194948615 
186.00070350235194 0.27631670194948615 
187.00070350235194 0.27631670194948615 
188.00070350235194 0.27631670194948615 
189.00070350235194 0.27631670194948615 
190.00070350235194 0.27631670194948615 
191.00070350235194 0.27631670194948615 
192.00070350235194 0.27631670194948615 
193.00070350235194 0.27631670194948615 
194.00070350235194 0.27631670194948615 
195.00070350235194 0.27631670194948615 
196.00070350235194 0.27631670194948615 
197.00070350235194 0.27631670194948615 
198.00070350235194 0.27631670194948615 
199.00070350235194 0.27631670194948615 
200.00070350235194 0.27631670194948615 
201.00070350235194 0.27631670194948615 
202.00070350235194 0.27631670194948615 
203.00070350235194 0.27631670194948615 
204.00070350235194 0.27631670194948615 
205.00070350235194 0.27631670194948615 
206.00070350235194 0.27631670194948615 
207.00070350235194 0.27631670194948615 
208.00070350235194 0.27631670194948615 
209.00070350235194 0.27631670194948615 
210.00070350235194 0.27631670194948615 
211.00070350235194 0.27631670194948615 
212.00070350235194 0.27631670194948615 
213.00070350235194 0.27631670194948615 
214.00070350235194 0.27631670194948615 
215.00070350235194 0.27631670194948615 
216.00070350235194 0.27631670194948615 
217.00070350235194 0.27631670194948615 
218.00070350235194 0.27631670194948615 
219.00070350235194 0.27631670194948615 
220.00070350235194 0.27631670194948615 
221.00070350235194 0.27631670194948615 
#####################################################################
# End of data export. Simulation finished at: 2017-05-23T02:22+0000 #
#####################################################################
