#####################################################################
# Alchemist log file - simulation started at: 2017-05-22T15:03+0000 #
#####################################################################
# random = 4.0, targets = 3.1622776601683795, density = 1.7841466528270753, gridShift = 0.0, perturbation = 0.5, connfactor = 0.5
#
# The columns have the following meaning: 
# time se[Mean] 
0.0 NaN 
1.0035718759004084 NaN 
2.003571875900408 1.0 
3.003571875900408 1.0 
4.003571875900408 1.0 
5.003571875900408 0.9976335309687392 
6.003571875900408 0.9929005929062177 
7.003571875900408 0.9858011858124353 
8.003571875900409 0.9550370884060452 
9.003571875900409 0.9550370884060452 
10.003571875900409 0.9219065219683943 
11.003571875900409 0.8887759555307433 
12.003571875900409 0.9029747697183078 
13.003571875900409 0.8911424245620043 
14.003571875900409 0.9053412387495685 
15.003571875900409 0.9103743744474964 
16.00357187590041 0.9313723980934373 
17.00357187590041 0.9172321039925166 
18.00357187590041 0.9302067196038 
19.00357187590041 0.9590684018569381 
20.00357187590041 0.9428267243081758 
21.00357187590041 0.9543822798637317 
22.00357187590041 0.9392284594984475 
23.00357187590041 0.9163590259360981 
24.00357187590041 0.9489401199873947 
25.00357187590041 0.8992676783655759 
26.00357187590041 0.8593613105042062 
27.00357187590041 0.8539852679166994 
28.00357187590041 0.820924925583021 
29.00357187590041 0.8664689312282721 
30.00357187590041 0.7546444914882038 
31.00357187590041 0.8283637491793379 
32.003571875900406 0.8066875089564253 
33.003571875900406 0.75899941060916 
34.003571875900406 0.8552334909557353 
35.003571875900406 0.7229060866845785 
36.003571875900406 0.9127268819305779 
37.003571875900406 0.8066020904480792 
38.003571875900406 0.7654247079411133 
39.003571875900406 0.8253857972880336 
40.003571875900406 0.9037250596835432 
41.003571875900406 0.9120252573189495 
42.003571875900406 0.9758303958395024 
43.003571875900406 0.6722786388850394 
44.003571875900406 0.8242008175788818 
45.003571875900406 0.5716510369784777 
46.003571875900406 0.8611327239359893 
47.003571875900406 0.37838002233288215 
48.003571875900406 0.5323801764399065 
49.003571875900406 0.6418890700331683 
50.003571875900406 0.39910536319321566 
51.003571875900406 0.21764328566926758 
52.003571875900406 0.045635380253031065 
53.003571875900406 0.002633403898972407 
54.003571875900406 0.0029336015343782926 
55.003571875900406 0.002633403898972407 
56.003571875900406 0.003834194440595943 
57.003571875900406 0.0038341944405959434 
58.003571875900406 0.004134392076001833 
59.003571875900406 0.00503498498221948 
60.003571875900406 0.004434589711407715 
61.003571875900406 0.006235775523843027 
62.003571875900406 0.0056353802530312485 
63.003571875900406 0.005635380253031251 
64.0035718759004 0.006235775523843025 
65.0035718759004 0.007136368430060685 
66.0035718759004 0.007436566065466566 
67.0035718759004 0.00803696133627833 
68.0035718759004 0.0062357755238430165 
69.0035718759004 0.007436566065466565 
70.0035718759004 0.005935577888437133 
71.0035718759004 0.008036961336278335 
72.0035718759004 0.004734787346813599 
73.0035718759004 0.005935577888437131 
74.0035718759004 0.006836170794654779 
75.0035718759004 0.005335182617625377 
76.0035718759004 0.004134392076001831 
77.0035718759004 0.002933601534378291 
78.0035718759004 0.002633403898972407 
79.0035718759004 0.002633403898972407 
80.0035718759004 0.002633403898972407 
81.0035718759004 0.002633403898972407 
82.0035718759004 0.002633403898972407 
83.0035718759004 0.002633403898972407 
84.0035718759004 0.002633403898972407 
85.0035718759004 0.002633403898972407 
86.0035718759004 0.002633403898972407 
87.0035718759004 0.002633403898972407 
88.0035718759004 0.002633403898972407 
89.0035718759004 0.002633403898972407 
90.0035718759004 0.002633403898972407 
91.0035718759004 0.002633403898972407 
92.0035718759004 0.002633403898972407 
93.0035718759004 0.002633403898972407 
94.0035718759004 0.002633403898972407 
95.0035718759004 0.002633403898972407 
96.0035718759004 0.002633403898972407 
97.0035718759004 0.002633403898972407 
98.0035718759004 0.002633403898972407 
99.0035718759004 0.002633403898972407 
100.0035718759004 0.002633403898972407 
101.0035718759004 0.002633403898972407 
102.0035718759004 0.002633403898972407 
103.0035718759004 0.002633403898972407 
104.0035718759004 0.002633403898972407 
105.0035718759004 0.002633403898972407 
#####################################################################
# End of data export. Simulation finished at: 2017-05-22T15:03+0000 #
#####################################################################
