#####################################################################
# Alchemist log file - simulation started at: 2017-05-24T10:42+0000 #
#####################################################################
# random = 6.0, targets = 100.0, density = 3.5589026259761294, gridShift = 0.0, perturbation = 0.0, connfactor = 0.1
#
# The columns have the following meaning: 
# time se[Mean] 
0.0 NaN 
1.001281360956031 NaN 
2.001281360956031 1.0 
3.001281360956031 1.0 
4.001281360956031 0.9999253125 
5.001281360956031 0.99960175 
6.001281360956031 0.9995270625 
7.001281360956031 0.9987304375 
8.001281360956032 0.998556625 
9.001281360956032 0.998307375 
10.001281360956032 0.9982833125 
11.001281360956032 0.9986811875 
12.001281360956032 0.9986815625 
13.001281360956032 0.9995273125 
14.001281360956032 0.999502375 
15.001281360956032 0.9997015 
16.001281360956032 0.9999005 
17.001281360956032 0.9999005 
18.001281360956032 0.9999005 
19.001281360956032 0.99995025 
20.001281360956032 1.0 
21.001281360956032 1.0 
22.001281360956032 1.0 
23.001281360956032 0.99985225 
24.001281360956032 0.99931 
25.001281360956032 0.99867525 
26.001281360956032 0.9967745 
27.001281360956032 0.99563725 
28.001281360956032 0.9921734999999999 
29.001281360956032 0.9911785 
30.001281360956032 0.9888757499999999 
31.001281360956032 0.98844975 
32.00128136095603 0.9872965 
33.00128136095603 0.98615025 
34.00128136095603 0.9857875 
35.00128136095603 0.983997 
36.00128136095603 0.98157425 
37.00128136095603 0.9794705 
38.00128136095603 0.97665275 
39.00128136095603 0.973355 
40.00128136095603 0.971186 
41.00128136095603 0.96906125 
42.00128136095603 0.9664047499999999 
43.00128136095603 0.96432175 
44.00128136095603 0.96060275 
45.00128136095603 0.9590534999999999 
46.00128136095603 0.95538775 
47.00128136095603 0.9531785 
48.00128136095603 0.95029225 
49.00128136095603 0.94841875 
50.00128136095603 0.9460817499999999 
51.00128136095603 0.9440975625 
52.00128136095603 0.9423885624999999 
53.00128136095603 0.9416194999999999 
54.00128136095603 0.9403691875 
55.00128136095603 0.9393499375 
56.00128136095603 0.9376035625 
57.00128136095603 0.935491125 
58.00128136095603 0.9346469374999999 
59.00128136095603 0.93084675 
60.00128136095603 0.9294503125 
61.00128136095603 0.9263410624999999 
62.00128136095603 0.9269820624999999 
63.00128136095603 0.9249123125 
64.00128136095603 0.9233774375 
65.00128136095603 0.92128075 
66.00128136095603 0.9217470624999999 
67.00128136095603 0.9210956874999999 
68.00128136095603 0.9175723124999999 
69.00128136095603 0.9169698125 
70.00128136095603 0.9164920625 
71.00128136095603 0.9176996249999999 
72.00128136095603 0.9167351874999999 
73.00128136095603 0.9162601874999999 
74.00128136095603 0.9179111249999999 
75.00128136095603 0.9178644375 
76.00128136095603 0.91862975 
77.00128136095603 0.9171391875 
78.00128136095603 0.918947875 
79.00128136095603 0.9177134375 
80.00128136095603 0.919234625 
81.00128136095603 0.91859475 
82.00128136095603 0.9193573749999999 
83.00128136095603 0.92013 
84.00128136095603 0.9198833125 
85.00128136095603 0.920888125 
86.00128136095603 0.9209650625 
87.00128136095603 0.9210605625 
88.00128136095603 0.9214089999999999 
89.00128136095603 0.9216 
90.00128136095603 0.9216 
91.00128136095603 0.9216 
92.00128136095603 0.9216 
93.00128136095603 0.9216 
94.00128136095603 0.9216 
95.00128136095603 0.9216 
96.00128136095603 0.9216 
97.00128136095603 0.9216 
98.00128136095603 0.9216 
99.00128136095603 0.9216 
100.00128136095603 0.9216 
101.00128136095603 0.9216 
102.00128136095603 0.9216 
103.00128136095603 0.9216 
104.00128136095603 0.9216 
105.00128136095603 0.9216 
106.00128136095603 0.9216 
107.00128136095603 0.9216 
108.00128136095603 0.9216 
109.00128136095603 0.9216 
110.00128136095603 0.9216 
111.00128136095603 0.9216 
112.00128136095603 0.9216 
113.00128136095603 0.9216 
114.00128136095603 0.9216 
115.00128136095603 0.9216 
116.00128136095603 0.9216 
117.00128136095603 0.9216 
118.00128136095603 0.9216 
119.00128136095603 0.9216 
120.00128136095603 0.9216 
121.00128136095603 0.9216 
122.00128136095603 0.9216 
123.00128136095603 0.9216 
124.00128136095603 0.9216 
125.00128136095603 0.9216 
126.00128136095603 0.9216 
127.00128136095603 0.9216 
128.00128136095603 0.9216 
129.00128136095603 0.9216 
130.00128136095603 0.9216 
131.00128136095603 0.9216 
132.00128136095603 0.9216 
133.00128136095603 0.9216 
134.00128136095603 0.9216 
#####################################################################
# End of data export. Simulation finished at: 2017-05-24T10:45+0000 #
#####################################################################
