#####################################################################
# Alchemist log file - simulation started at: 2017-05-23T08:23+0000 #
#####################################################################
# random = 11.0, targets = 10.0, density = 1.7841466528270753, gridShift = 0.0, perturbation = 0.0, connfactor = 0.5
#
# The columns have the following meaning: 
# time se[Mean] 
0.0 NaN 
1.0028758930102715 NaN 
2.0028758930102715 1.0 
3.0028758930102715 1.0 
4.0028758930102715 0.9983111111111111 
5.0028758930102715 0.9936555555555555 
6.0028758930102715 0.9914888888888889 
7.0028758930102715 0.9714493827160493 
8.002875893010271 0.970937037037037 
9.002875893010271 0.9509382716049383 
10.002875893010271 0.9367296296296296 
11.002875893010271 0.9150753086419753 
12.002875893010271 0.8980037037037037 
13.002875893010271 0.8682160493827161 
14.002875893010271 0.8582666666666667 
15.002875893010271 0.8336 
16.00287589301027 0.8113913580246914 
17.00287589301027 0.7940123456790124 
18.00287589301027 0.7923271604938272 
19.00287589301027 0.7760506172839505 
20.00287589301027 0.7504827160493828 
21.00287589301027 0.7410234567901235 
22.00287589301027 0.7317012345679015 
23.00287589301027 0.7215691358024694 
24.00287589301027 0.716567901234568 
25.00287589301027 0.7258493827160494 
26.00287589301027 0.6973209876543209 
27.00287589301027 0.7058617283950619 
28.00287589301027 0.6828691358024691 
29.00287589301027 0.6791543209876542 
30.00287589301027 0.6756358024691358 
31.00287589301027 0.6453197530864198 
32.00287589301027 0.6239543209876545 
33.00287589301027 0.6219358024691358 
34.00287589301027 0.5929567901234566 
35.00287589301027 0.5759432098765433 
36.00287589301027 0.5672333333333333 
37.00287589301027 0.5708 
38.00287589301027 0.6102 
39.00287589301027 0.6068654320987655 
40.00287589301027 0.519298765432099 
41.00287589301027 0.5431234567901234 
42.00287589301027 0.5485296296296296 
43.00287589301027 0.46364320987654306 
44.00287589301027 0.4500271604938271 
45.00287589301027 0.3754308641975309 
46.00287589301027 0.2697592592592592 
47.00287589301027 0.24205555555555552 
48.00287589301027 0.22923456790123473 
49.00287589301027 0.193416049382716 
50.00287589301027 0.16328395061728387 
51.00287589301027 0.1242395061728395 
52.00287589301027 0.11680987654320991 
53.00287589301027 0.1065432098765433 
54.00287589301027 0.08723333333333326 
55.00287589301027 0.05818518518518517 
56.00287589301027 0.08002839506172832 
57.00287589301027 0.04678888888888889 
58.00287589301027 0.04594444444444444 
59.00287589301027 0.044933333333333325 
60.00287589301027 0.044288888888888885 
61.00287589301027 0.045388888888888895 
62.00287589301027 0.04661111111111112 
63.00287589301027 0.04606666666666667 
64.00287589301027 0.04467777777777779 
65.00287589301027 0.04408888888888889 
66.00287589301027 0.04176666666666667 
67.00287589301027 0.040999999999999995 
68.00287589301027 0.03952222222222222 
69.00287589301027 0.039844444444444446 
70.00287589301027 0.039844444444444446 
71.00287589301027 0.04 
72.00287589301027 0.039844444444444446 
73.00287589301027 0.04 
74.00287589301027 0.04 
75.00287589301027 0.04 
76.00287589301027 0.04 
77.00287589301027 0.04 
78.00287589301027 0.04 
79.00287589301027 0.04 
80.00287589301027 0.04 
81.00287589301027 0.04 
82.00287589301027 0.04 
83.00287589301027 0.04 
84.00287589301027 0.04 
85.00287589301027 0.04 
86.00287589301027 0.04 
87.00287589301027 0.04 
88.00287589301027 0.04 
89.00287589301027 0.04 
90.00287589301027 0.04 
91.00287589301027 0.04 
92.00287589301027 0.04 
93.00287589301027 0.04 
94.00287589301027 0.04 
95.00287589301027 0.04 
96.00287589301027 0.04 
97.00287589301027 0.04 
98.00287589301027 0.04 
99.00287589301027 0.04 
100.00287589301027 0.04 
101.00287589301027 0.04 
102.00287589301027 0.04 
#####################################################################
# End of data export. Simulation finished at: 2017-05-23T08:23+0000 #
#####################################################################
