#####################################################################
# Alchemist log file - simulation started at: 2017-05-21T14:43+0000 #
#####################################################################
# random = 2.0, targets = 100.0, density = 0.05649405772326896, gridShift = 0.0, perturbation = 0.0, connfactor = 1.5
#
# The columns have the following meaning: 
# time se[Mean] 
0.0 NaN 
1.003288451303821 NaN 
2.003288451303821 1.399365625 
3.003288451303821 1.5222557725694446 
4.0032884513038205 1.861969965277778 
5.0032884513038205 3.4502562500000007 
6.0032884513038205 3.9659372395833334 
7.0032884513038205 4.465954774305556 
8.00328845130382 2.168975651041667 
9.00328845130382 1.4499256510416672 
10.00328845130382 1.3887498263888893 
11.00328845130382 1.530230729166667 
12.00328845130382 0.5268696180555557 
13.00328845130382 0.00630039062499998 
14.00328845130382 8.077935669463161E-32 
15.00328845130382 8.077935669463161E-32 
16.00328845130382 8.077935669463161E-32 
17.00328845130382 8.077935669463161E-32 
18.00328845130382 8.077935669463161E-32 
19.00328845130382 8.077935669463161E-32 
20.00328845130382 8.077935669463161E-32 
#####################################################################
# End of data export. Simulation finished at: 2017-05-21T14:43+0000 #
#####################################################################
