#####################################################################
# Alchemist log file - simulation started at: 2017-05-24T09:40+0000 #
#####################################################################
# random = 14.0, targets = 31.622776601683793, density = 0.894427190999916, gridShift = 0.0, perturbation = 0.0, connfactor = 1.5
#
# The columns have the following meaning: 
# time se[Mean] 
0.0 NaN 
1.0090008223538587 NaN 
2.0090008223538587 1.1193287285251035 
3.0090008223538587 1.1761140006121622 
4.009000822353858 1.26479605340653 
5.009000822353858 1.4296172625271582 
6.009000822353858 1.6534365924805903 
7.009000822353858 2.056191355559961 
8.009000822353858 2.053045841404478 
9.009000822353858 2.1227069680594943 
10.009000822353858 1.9832293836578305 
11.009000822353858 1.7535336521581653 
12.009000822353858 1.5386985987250599 
13.009000822353858 1.4879410053087256 
14.009000822353858 1.6829630900822945 
15.009000822353858 1.7413589035154438 
16.00900082235386 1.8941014864271506 
17.00900082235386 2.5521994459820783 
18.00900082235386 2.405396128517464 
19.00900082235386 2.164978501028545 
20.00900082235386 2.2174774572036324 
21.00900082235386 2.277050935769507 
22.00900082235386 2.2462241420608158 
23.00900082235386 1.9630156848269793 
24.00900082235386 1.9263755671086285 
25.00900082235386 1.8550318360515214 
26.00900082235386 1.7412052184866262 
27.00900082235386 1.660015964791124 
28.00900082235386 1.3534956925254793 
29.00900082235386 1.3241299360140382 
30.00900082235386 1.1668354416080513 
31.00900082235386 0.9669450575458045 
32.009000822353855 0.8573894653362615 
33.009000822353855 0.8617225980129926 
34.009000822353855 0.877975265005026 
35.009000822353855 0.8765516501568728 
36.009000822353855 0.8591628569354633 
37.009000822353855 0.8662562297852607 
38.009000822353855 0.8561189283940334 
39.009000822353855 0.8338623592249956 
40.009000822353855 0.820094932478927 
41.009000822353855 0.8019212097006161 
42.009000822353855 0.7858761276780543 
43.009000822353855 0.7640762326789269 
44.009000822353855 0.7333225975497032 
45.009000822353855 0.7194334428280068 
46.009000822353855 0.6957073617902191 
47.009000822353855 0.6912215906201729 
48.009000822353855 0.67608988633523 
49.009000822353855 0.6762366095834125 
50.009000822353855 0.661968241655456 
51.009000822353855 0.648619783385232 
52.009000822353855 0.6507410382603964 
53.009000822353855 0.6542616135450245 
54.009000822353855 0.6556515277746858 
55.009000822353855 0.6565266807797943 
56.009000822353855 0.6565266807797943 
57.009000822353855 0.6565266807797943 
58.009000822353855 0.6565266807797943 
59.009000822353855 0.6565266807797943 
60.009000822353855 0.6565266807797943 
61.009000822353855 0.6565266807797943 
62.009000822353855 0.6565266807797943 
63.009000822353855 0.6565266807797943 
64.00900082235385 0.6565266807797943 
65.00900082235385 0.6565266807797943 
66.00900082235385 0.6565266807797943 
67.00900082235385 0.6565266807797943 
68.00900082235385 0.6565266807797943 
69.00900082235385 0.6565266807797943 
70.00900082235385 0.6565266807797943 
71.00900082235385 0.6565266807797943 
72.00900082235385 0.6565266807797943 
73.00900082235385 0.6565266807797943 
74.00900082235385 0.6565266807797943 
75.00900082235385 0.6565266807797943 
#####################################################################
# End of data export. Simulation finished at: 2017-05-24T09:40+0000 #
#####################################################################
