#####################################################################
# Alchemist log file - simulation started at: 2017-05-23T03:59+0000 #
#####################################################################
# random = 10.0, targets = 100.0, density = 3.5589026259761294, gridShift = 1.0, perturbation = 0.5, connfactor = 2.0
#
# The columns have the following meaning: 
# time se[Mean] 
0.0 NaN 
1.0007035023519422 NaN 
2.000703502351942 1.037994318181818 
3.000703502351942 1.0548638240962254 
4.000703502351942 1.0840751428761297 
5.000703502351942 1.1344369068979268 
6.000703502351942 1.1520821620813397 
7.000703502351942 1.243907519271664 
8.000703502351943 1.2554391563662946 
9.000703502351943 1.2906007625598086 
10.000703502351943 1.357475360513025 
11.000703502351943 1.3904437234183944 
12.000703502351943 1.4701426767676768 
13.000703502351943 1.4685931568979267 
14.000703502351943 1.4722547630914409 
15.000703502351943 1.4785845909755453 
16.000703502351943 1.4742077767809674 
17.000703502351943 1.4784304525518346 
18.000703502351943 1.4835336091174904 
19.000703502351943 1.5031644637161083 
20.000703502351943 1.522489957137161 
21.000703502351943 1.559580472488039 
22.000703502351943 1.60232543028974 
23.000703502351943 1.6619959662413606 
24.000703502351943 1.7434872890085051 
25.000703502351943 1.8704357921318453 
26.000703502351943 2.03295062300638 
27.000703502351943 2.183203126661351 
28.000703502351943 2.4397691304492293 
29.000703502351943 2.787152797713982 
30.000703502351943 2.9969842686735793 
31.000703502351943 3.4468265284423176 
32.00070350235194 3.695466669989368 
33.00070350235194 3.90985393906167 
34.00070350235194 4.260499091241362 
35.00070350235194 4.3933630914407225 
36.00070350235194 4.774103387493354 
37.00070350235194 5.0008271514486955 
38.00070350235194 5.423025385433283 
39.00070350235194 5.427764055023923 
40.00070350235194 5.565784225478471 
41.00070350235194 6.127870130582132 
42.00070350235194 5.936755864566718 
43.00070350235194 6.913053360911748 
44.00070350235194 7.093281073896861 
45.00070350235194 6.947993597155767 
46.00070350235194 8.00385073431685 
47.00070350235194 7.682661082868157 
48.00070350235194 7.656155224946837 
49.00070350235194 8.37338898524721 
50.00070350235194 8.637136209130782 
51.00070350235194 8.74565846125731 
52.00070350235194 8.774156570640617 
53.00070350235194 8.925983798511432 
54.00070350235194 9.352898506446042 
55.00070350235194 8.885409137426901 
56.00070350235194 8.638734449760767 
57.00070350235194 9.143019419524192 
58.00070350235194 8.67587258605795 
59.00070350235194 8.16056585758905 
60.00070350235194 8.26927490031898 
61.00070350235194 8.28923758639022 
62.00070350235194 8.183844585659227 
63.00070350235194 8.021633107389688 
64.00070350235194 8.104067035486446 
65.00070350235194 7.882721861709198 
66.00070350235194 7.429179445773526 
67.00070350235194 6.799005558878257 
68.00070350235194 6.832463267543861 
69.00070350235194 6.5327968833067525 
70.00070350235194 6.521869160353536 
71.00070350235194 6.606017984117491 
72.00070350235194 6.583754849481659 
73.00070350235194 6.690730017278044 
74.00070350235194 6.801058564261032 
75.00070350235194 6.8790564211190866 
76.00070350235194 7.0124005233253595 
77.00070350235194 7.201702824295588 
78.00070350235194 7.236527367424243 
79.00070350235194 7.393450053163212 
80.00070350235194 7.50709980396066 
81.00070350235194 7.524350282429559 
82.00070350235194 7.622275471823499 
83.00070350235194 7.656632220228603 
84.00070350235194 7.6202330658559285 
85.00070350235194 7.949699062998406 
86.00070350235194 8.471911968367893 
87.00070350235194 9.449247752192989 
88.00070350235194 10.849224222488038 
89.00070350235194 11.610492311270605 
90.00070350235194 12.626434356725152 
91.00070350235194 14.611308888224352 
92.00070350235194 13.825051865696443 
93.00070350235194 16.15604678030304 
94.00070350235194 17.369197253787895 
95.00070350235194 15.36284006678629 
96.00070350235194 17.14501370447901 
97.00070350235194 15.499690885832011 
98.00070350235194 13.750298976608192 
99.00070350235194 14.262913629718241 
100.00070350235194 15.669802968833078 
101.00070350235194 15.797806819843174 
102.00070350235194 14.304004047049443 
103.00070350235194 15.464243563928761 
104.00070350235194 16.079390571836786 
105.00070350235194 15.53433871943116 
106.00070350235194 15.615277578415732 
107.00070350235194 15.725660745614029 
108.00070350235194 13.783244683678916 
109.00070350235194 10.300135313662942 
110.00070350235194 10.131854937533221 
111.00070350235194 8.764632290005316 
112.00070350235194 8.997097049441784 
113.00070350235194 8.74216349681021 
114.00070350235194 8.263389327485381 
115.00070350235194 8.441242989101546 
116.00070350235194 7.9856522129186605 
117.00070350235194 7.784344969431153 
118.00070350235194 7.784233612440191 
119.00070350235194 7.784278203083466 
120.00070350235194 7.7841 
121.00070350235194 7.7841 
122.00070350235194 7.7841 
123.00070350235194 7.7841 
124.00070350235194 7.7841 
125.00070350235194 7.7841 
126.00070350235194 7.7841 
127.00070350235194 7.7841 
128.00070350235194 7.7841 
129.00070350235194 7.7841 
130.00070350235194 7.7841 
131.00070350235194 7.7841 
132.00070350235194 7.7841 
133.00070350235194 7.7841 
134.00070350235194 7.7841 
135.00070350235194 7.7841 
136.00070350235194 7.7841 
137.00070350235194 7.7841 
138.00070350235194 7.7841 
139.00070350235194 7.7841 
140.00070350235194 7.7841 
141.00070350235194 7.7841 
142.00070350235194 7.7841 
143.00070350235194 7.7841 
144.00070350235194 7.7841 
145.00070350235194 7.7841 
146.00070350235194 7.7841 
147.00070350235194 7.7841 
148.00070350235194 7.7841 
149.00070350235194 7.7841 
150.00070350235194 7.7841 
151.00070350235194 7.7841 
152.00070350235194 7.7841 
153.00070350235194 7.7841 
154.00070350235194 7.7841 
155.00070350235194 7.7841 
156.00070350235194 7.7841 
157.00070350235194 7.7841 
158.00070350235194 7.7841 
159.00070350235194 7.7841 
160.00070350235194 7.7841 
#####################################################################
# End of data export. Simulation finished at: 2017-05-23T04:00+0000 #
#####################################################################
