#####################################################################
# Alchemist log file - simulation started at: 2017-05-24T21:17+0000 #
#####################################################################
# random = 16.0, targets = 1.0, density = 1.7841466528270753, gridShift = 0.0, perturbation = 0.5, connfactor = 1.0
#
# The columns have the following meaning: 
# time se[Mean] 
0.0 NaN 
1.0066017814354276 NaN 
2.0066017814354273 1.0 
3.0066017814354273 1.0055555555555555 
4.006601781435427 1.0222222222222221 
5.006601781435427 1.0507716049382716 
6.006601781435427 1.0475308641975307 
7.006601781435427 1.0577160493827162 
8.006601781435428 1.0108024691358024 
9.006601781435428 1.0131172839506173 
10.006601781435428 1.0131172839506173 
11.006601781435428 1.0123456790123457 
12.006601781435428 1.0108024691358024 
13.006601781435428 1.0092592592592593 
14.006601781435428 1.0054012345679013 
15.006601781435428 1.003858024691358 
16.006601781435428 1.0007716049382716 
17.006601781435428 1.0007716049382716 
18.006601781435428 1.0 
19.006601781435428 1.0 
20.006601781435428 1.0 
21.006601781435428 1.0 
22.006601781435428 1.0 
23.006601781435428 1.0 
24.006601781435428 1.0 
25.006601781435428 1.0 
26.006601781435428 1.0 
27.006601781435428 1.0 
28.006601781435428 1.0 
29.006601781435428 1.0 
30.006601781435428 1.0 
31.006601781435428 1.0 
32.00660178143543 1.0 
33.00660178143543 0.9980555555555556 
34.00660178143543 0.9912345679012345 
35.00660178143543 0.9785493827160494 
36.00660178143543 0.9587654320987653 
37.00660178143543 0.9270370370370369 
38.00660178143543 0.8879320987654321 
39.00660178143543 0.8472839506172838 
40.00660178143543 0.8441666666666665 
41.00660178143543 0.8963888888888889 
42.00660178143543 0.944537037037037 
43.00660178143543 0.9799999999999999 
44.00660178143543 1.1937962962962962 
45.00660178143543 1.1811111111111114 
46.00660178143543 1.0496604938271603 
47.00660178143543 1.3203086419753083 
48.00660178143543 1.7120679012345679 
49.00660178143543 2.5521296296296296 
50.00660178143543 3.638796296296295 
51.00660178143543 4.525586419753085 
52.00660178143543 6.881790123456797 
53.00660178143543 7.6851851851851904 
54.00660178143543 6.6417283950617305 
55.00660178143543 9.924506172839507 
56.00660178143543 9.150308641975315 
57.00660178143543 8.4020987654321 
58.00660178143543 9.080000000000009 
59.00660178143543 8.306203703703702 
60.00660178143543 6.627993827160503 
61.00660178143543 9.651882716049387 
62.00660178143543 4.608333333333333 
63.00660178143543 7.116080246913583 
64.00660178143542 4.5969753086419765 
65.00660178143542 7.1153086419753135 
66.00660178143542 4.08774691358025 
67.00660178143542 1.5441975308641993 
68.00660178143542 0.01728395061728395 
69.00660178143542 0.011358024691358022 
70.00660178143542 0.01086419753086419 
71.00660178143542 0.005432098765432092 
72.00660178143542 0.0014814814814814792 
73.00660178143542 0.0 
74.00660178143542 0.0 
75.00660178143542 0.0 
76.00660178143542 0.0 
77.00660178143542 0.0 
78.00660178143542 0.0 
79.00660178143542 0.0 
80.00660178143542 0.0 
81.00660178143542 0.0 
82.00660178143542 0.0 
83.00660178143542 0.0 
84.00660178143542 0.0 
85.00660178143542 0.0 
86.00660178143542 0.0 
87.00660178143542 0.0 
88.00660178143542 0.0 
89.00660178143542 0.0 
90.00660178143542 0.0 
91.00660178143542 0.0 
92.00660178143542 0.0 
93.00660178143542 0.0 
94.00660178143542 0.0 
95.00660178143542 0.0 
96.00660178143542 0.0 
97.00660178143542 0.0 
98.00660178143542 0.0 
99.00660178143542 0.0 
100.00660178143542 0.0 
101.00660178143542 0.0 
#####################################################################
# End of data export. Simulation finished at: 2017-05-24T21:17+0000 #
#####################################################################
