#####################################################################
# Alchemist log file - simulation started at: 2017-05-22T17:47+0000 #
#####################################################################
# random = 4.0, targets = 10.0, density = 2.519842099789746, gridShift = 0.0, perturbation = 0.5, connfactor = 0.25
#
# The columns have the following meaning: 
# time se[Mean] 
0.0 NaN 
1.0022337669741583 NaN 
2.0022337669741583 1.0 
3.0022337669741583 1.0 
4.002233766974158 1.0 
5.002233766974158 1.0 
6.002233766974158 1.0 
7.002233766974158 0.9993425605536332 
8.002233766974157 0.9960553633217993 
9.002233766974157 0.9980276816608996 
10.002233766974157 0.9921107266435987 
11.002233766974157 0.9960553633217993 
12.002233766974157 0.9953979238754326 
13.002233766974157 0.9993425605536332 
14.002233766974157 1.0 
15.002233766974157 1.0 
16.002233766974157 1.0 
17.002233766974157 1.0 
18.002233766974157 1.0 
19.002233766974157 1.0 
20.002233766974157 1.0 
21.002233766974157 1.0 
22.002233766974157 1.0 
23.002233766974157 1.0 
24.002233766974157 1.0 
25.002233766974157 1.0 
26.002233766974157 1.0 
27.002233766974157 0.9977854671280277 
28.002233766974157 0.9955709342560554 
29.002233766974157 0.9911418685121107 
30.002233766974157 0.9778546712802768 
31.002233766974157 0.9712110726643599 
32.00223376697416 0.9734256055363322 
33.00223376697416 0.9734256055363323 
34.00223376697416 0.9639100346020761 
35.00223376697416 0.9625951557093426 
36.00223376697416 0.9488927335640138 
37.00223376697416 0.9363321799307959 
38.00223376697416 0.9412802768166091 
39.00223376697416 0.8966089965397924 
40.00223376697416 0.9050519031141869 
41.00223376697416 0.8760899653979238 
42.00223376697416 0.8524913494809688 
43.00223376697416 0.8479930795847751 
44.00223376697416 0.8310726643598616 
45.00223376697416 0.8016955017301038 
46.00223376697416 0.7969896193771626 
47.00223376697416 0.768477508650519 
48.00223376697416 0.7708304498269896 
49.00223376697416 0.763598615916955 
50.00223376697416 0.7433217993079585 
51.00223376697416 0.7765051903114187 
52.00223376697416 0.7633217993079585 
53.00223376697416 0.754083044982699 
54.00223376697416 0.7599307958477509 
55.00223376697416 0.7541868512110728 
56.00223376697416 0.7513494809688582 
57.00223376697416 0.7735640138408305 
58.00223376697416 0.7808996539792388 
59.00223376697416 0.7920069204152249 
60.00223376697416 0.8004498269896194 
61.00223376697416 0.8073356401384083 
62.00223376697416 0.81 
63.00223376697416 0.81 
64.00223376697416 0.81 
65.00223376697416 0.81 
66.00223376697416 0.81 
67.00223376697416 0.81 
68.00223376697416 0.81 
69.00223376697416 0.81 
70.00223376697416 0.81 
71.00223376697416 0.81 
72.00223376697416 0.81 
73.00223376697416 0.81 
74.00223376697416 0.81 
75.00223376697416 0.81 
76.00223376697416 0.81 
77.00223376697416 0.81 
78.00223376697416 0.81 
79.00223376697416 0.81 
80.00223376697416 0.81 
81.00223376697416 0.81 
82.00223376697416 0.81 
83.00223376697416 0.81 
84.00223376697416 0.81 
85.00223376697416 0.81 
86.00223376697416 0.81 
87.00223376697416 0.81 
88.00223376697416 0.81 
89.00223376697416 0.81 
90.00223376697416 0.81 
91.00223376697416 0.81 
92.00223376697416 0.81 
93.00223376697416 0.81 
94.00223376697416 0.81 
95.00223376697416 0.81 
96.00223376697416 0.81 
#####################################################################
# End of data export. Simulation finished at: 2017-05-22T17:47+0000 #
#####################################################################
