#####################################################################
# Alchemist log file - simulation started at: 2017-05-23T10:51+0000 #
#####################################################################
# random = 5.0, targets = 10.0, density = 5.0264212595847235, gridShift = 1.0, perturbation = 0.0, connfactor = 0.5
#
# The columns have the following meaning: 
# time se[Mean] 
0.0 NaN 
1.0031365367908396 NaN 
2.00313653679084 1.0 
3.00313653679084 0.9998295454545455 
4.00313653679084 0.9978977272727273 
5.00313653679084 0.9934615384615385 
6.00313653679084 0.9876651126651127 
7.00313653679084 0.9804103535353536 
8.00313653679084 0.971602564102564 
9.00313653679084 0.9581589937839936 
10.00313653679084 0.951408313908314 
11.00313653679084 0.9289117132867133 
12.00313653679084 0.9143614024864026 
13.00313653679084 0.9007765151515154 
14.00313653679084 0.8787961344211342 
15.00313653679084 0.8709299728049731 
16.00313653679084 0.8491346153846157 
17.00313653679084 0.8467764180264186 
18.00313653679084 0.8489879564879563 
19.00313653679084 0.8593730574980569 
20.00313653679084 0.8727102758352762 
21.00313653679084 0.8868371212121209 
22.00313653679084 0.8985591491841493 
23.00313653679084 0.9066525835275836 
24.00313653679084 0.9214840714840712 
25.00313653679084 0.9248246891996892 
26.00313653679084 0.9247683566433564 
27.00313653679084 0.9202947746697746 
28.00313653679084 0.9175315656565657 
29.00313653679084 0.9059008352758353 
30.00313653679084 0.8928239121989122 
31.00313653679084 0.877681623931624 
32.00313653679084 0.8622431041181041 
33.00313653679084 0.8451447163947164 
34.00313653679084 0.8258284770784771 
35.00313653679084 0.8036931818181818 
36.00313653679084 0.783219696969697 
37.00313653679084 0.7592560217560216 
38.00313653679084 0.7367166860916862 
39.00313653679084 0.7130706099456099 
40.00313653679084 0.6897848679098679 
41.00313653679084 0.6638403263403263 
42.00313653679084 0.6423450854700858 
43.00313653679084 0.6171697746697747 
44.00313653679084 0.5965943084693089 
45.00313653679084 0.5740263209013208 
46.00313653679084 0.5565549728049728 
47.00313653679084 0.5330171911421907 
48.00313653679084 0.5122508741258737 
49.00313653679084 0.48856886169386143 
50.00313653679084 0.46804292929292907 
51.00313653679084 0.44596639471639427 
52.00313653679084 0.4218186674436681 
53.00313653679084 0.3991909479409483 
54.00313653679084 0.37867472804972846 
55.00313653679084 0.3500539044289048 
56.00313653679084 0.3266185897435901 
57.00313653679084 0.3071027583527583 
58.00313653679084 0.2903515928515931 
59.00313653679084 0.2747950660450663 
60.00313653679084 0.2646047008547009 
61.00313653679084 0.2507731157731162 
62.00313653679084 0.24017871017870987 
63.00313653679084 0.2363039044289042 
64.00313653679083 0.26067987567987555 
65.00313653679083 0.2334081196581196 
66.00313653679083 0.24952991452991458 
67.00313653679083 0.2609722222222222 
68.00313653679083 0.23394036519036515 
69.00313653679083 0.23461587024087022 
70.00313653679083 0.2400305944055944 
71.00313653679083 0.2457128982128982 
72.00313653679083 0.301313616938617 
73.00313653679083 0.27641171328671343 
74.00313653679083 0.28963675213675233 
75.00313653679083 0.2838510101010102 
76.00313653679083 0.25760586635586646 
77.00313653679083 0.27481351981351987 
78.00313653679083 0.26105963480963484 
79.00313653679083 0.2489777583527584 
80.00313653679083 0.27236888111888113 
81.00313653679083 0.28238442113442114 
82.00313653679083 0.28254662004662023 
83.00313653679083 0.20464452214452206 
84.00313653679083 0.2118512043512045 
85.00313653679083 0.22310751748251725 
86.00313653679083 0.18522241647241638 
87.00313653679083 0.19061043123543128 
88.00313653679083 0.19320852758352722 
89.00313653679083 0.15467948717948735 
90.00313653679083 0.16142094017093972 
91.00313653679083 0.11342026029526076 
92.00313653679083 0.12015442890442865 
93.00313653679083 0.09216249028749002 
94.00313653679083 0.08895299145299186 
95.00313653679083 0.0952073620823623 
96.00313653679083 0.09119318181818127 
97.00313653679083 0.0650131118881118 
98.00313653679083 0.06680069930069953 
99.00313653679083 0.03319493006993002 
100.00313653679083 0.031088286713286655 
101.00313653679083 0.01670891608391609 
102.00313653679083 0.015030594405594361 
103.00313653679083 0.011739510489510465 
104.00313653679083 0.011228146853146829 
105.00313653679083 0.011035839160839122 
106.00313653679083 0.01047639860139856 
107.00313653679083 0.009847027972027937 
108.00313653679083 0.009916958041958007 
109.00313653679083 0.009973776223776187 
110.00313653679083 0.01002185314685311 
111.00313653679083 0.01003059440559437 
112.00313653679083 0.009978146853146817 
113.00313653679083 0.009973776223776187 
114.00313653679083 0.009999999999999964 
115.00313653679083 0.009986888111888076 
116.00313653679083 0.009986888111888076 
117.00313653679083 0.009999999999999964 
118.00313653679083 0.009999999999999964 
119.00313653679083 0.009999999999999964 
120.00313653679083 0.009999999999999964 
121.00313653679083 0.009999999999999964 
122.00313653679083 0.009999999999999964 
123.00313653679083 0.009999999999999964 
124.00313653679083 0.009999999999999964 
125.00313653679083 0.009999999999999964 
126.00313653679083 0.009999999999999964 
127.00313653679083 0.009999999999999964 
128.00313653679083 0.009999999999999964 
129.00313653679083 0.009999999999999964 
130.00313653679083 0.009999999999999964 
131.00313653679083 0.009999999999999964 
132.00313653679083 0.009999999999999964 
133.00313653679083 0.009999999999999964 
134.00313653679083 0.009999999999999964 
135.00313653679083 0.009999999999999964 
136.00313653679083 0.009999999999999964 
137.00313653679083 0.009999999999999964 
138.00313653679083 0.009999999999999964 
139.00313653679083 0.009999999999999964 
140.00313653679083 0.009999999999999964 
141.00313653679083 0.009999999999999964 
142.00313653679083 0.009999999999999964 
143.00313653679083 0.009999999999999964 
144.00313653679083 0.009999999999999964 
145.00313653679083 0.009999999999999964 
146.00313653679083 0.009999999999999964 
147.00313653679083 0.009999999999999964 
148.00313653679083 0.009999999999999964 
149.00313653679083 0.009999999999999964 
150.00313653679083 0.009999999999999964 
151.00313653679083 0.009999999999999964 
152.00313653679083 0.009999999999999964 
153.00313653679083 0.009999999999999964 
154.00313653679083 0.009999999999999964 
155.00313653679083 0.009999999999999964 
156.00313653679083 0.009999999999999964 
157.00313653679083 0.009999999999999964 
158.00313653679083 0.009999999999999964 
159.00313653679083 0.009999999999999964 
160.00313653679083 0.009999999999999964 
161.00313653679083 0.009999999999999964 
162.00313653679083 0.009999999999999964 
163.00313653679083 0.009999999999999964 
164.00313653679083 0.009999999999999964 
165.00313653679083 0.009999999999999964 
#####################################################################
# End of data export. Simulation finished at: 2017-05-23T10:53+0000 #
#####################################################################
