#####################################################################
# Alchemist log file - simulation started at: 2017-05-24T05:51+0000 #
#####################################################################
# random = 14.0, targets = 1.0, density = 10.026386447354522, gridShift = 0.0, perturbation = 0.0, connfactor = 0.25
#
# The columns have the following meaning: 
# time se[Mean] 
0.0 NaN 
1.0015837731381736 NaN 
2.0015837731381736 1.0 
3.0015837731381736 1.0 
4.001583773138174 1.0 
5.001583773138174 1.0 
6.001583773138174 1.0 
7.001583773138174 1.0 
8.001583773138174 1.0 
9.001583773138174 1.0 
10.001583773138174 1.0 
11.001583773138174 1.0 
12.001583773138174 1.0 
13.001583773138174 1.0 
14.001583773138174 1.0 
15.001583773138174 1.0 
16.001583773138172 1.0 
17.001583773138172 1.0 
18.001583773138172 1.0 
19.001583773138172 1.0 
20.001583773138172 1.0 
21.001583773138172 1.0 
22.001583773138172 1.0 
23.001583773138172 1.0 
24.001583773138172 1.0 
25.001583773138172 1.0 
26.001583773138172 1.0 
27.001583773138172 1.0 
28.001583773138172 1.0 
29.001583773138172 1.0 
30.001583773138172 1.0 
31.001583773138172 1.0 
32.00158377313817 1.0 
33.00158377313817 1.0 
34.00158377313817 1.0 
35.00158377313817 1.0 
36.00158377313817 1.0 
37.00158377313817 1.0 
38.00158377313817 1.0 
39.00158377313817 1.0 
40.00158377313817 1.0 
41.00158377313817 1.0 
42.00158377313817 1.0 
43.00158377313817 1.0 
44.00158377313817 1.0 
45.00158377313817 1.0 
46.00158377313817 1.0 
47.00158377313817 1.0 
48.00158377313817 1.0 
49.00158377313817 1.0 
50.00158377313817 1.0 
51.00158377313817 1.0 
52.00158377313817 1.0 
53.00158377313817 1.0 
54.00158377313817 1.0 
55.00158377313817 1.0 
56.00158377313817 1.0 
57.00158377313817 1.0 
58.00158377313817 1.0 
59.00158377313817 1.0 
60.00158377313817 1.0 
61.00158377313817 1.0 
62.00158377313817 1.0 
63.00158377313817 1.0 
64.00158377313818 1.0 
65.00158377313818 1.0 
66.00158377313818 1.0 
67.00158377313818 1.0 
68.00158377313818 1.0 
69.00158377313818 1.0 
70.00158377313818 1.0 
71.00158377313818 1.0 
72.00158377313818 1.0 
73.00158377313818 1.0 
74.00158377313818 1.0 
75.00158377313818 1.0 
#####################################################################
# End of data export. Simulation finished at: 2017-05-24T05:52+0000 #
#####################################################################
