#####################################################################
# Alchemist log file - simulation started at: 2017-05-25T19:35+0000 #
#####################################################################
# random = 8.0, targets = 100.0, density = 0.05649405772326896, gridShift = 0.0, perturbation = 0.5, connfactor = 1.0
#
# The columns have the following meaning: 
# time se[Mean] 
0.0 NaN 
1.0447112257851685 NaN 
2.0447112257851687 1.0232937500000001 
3.0447112257851687 1.0207319878472223 
4.044711225785169 1.016009939236111 
5.044711225785169 1.0024866319444445 
6.044711225785169 0.844000998263889 
7.044711225785169 0.8400614583333336 
8.044711225785168 0.8710175781250001 
9.044711225785168 0.7912937500000002 
10.044711225785168 0.8919696180555557 
11.044711225785168 0.8763251736111114 
12.044711225785168 0.8686192708333337 
13.044711225785168 0.9173482638888893 
14.044711225785168 0.9172315972222228 
15.044711225785168 1.1231880208333342 
16.044711225785168 1.253897786458335 
17.044711225785168 1.2979873263888904 
18.044711225785168 1.3754203559027796 
19.044711225785168 1.2811115451388904 
20.044711225785168 1.2447108506944455 
21.044711225785168 1.327989192708335 
22.044711225785168 1.1500734375000008 
23.044711225785168 1.0870667968750007 
24.044711225785168 1.1356937500000008 
25.044711225785168 1.1236000000000008 
26.044711225785168 1.1236000000000008 
27.044711225785168 1.1236000000000008 
28.044711225785168 1.1236000000000008 
29.044711225785168 1.1236000000000008 
30.044711225785168 1.1236000000000008 
31.044711225785168 1.1236000000000008 
#####################################################################
# End of data export. Simulation finished at: 2017-05-25T19:35+0000 #
#####################################################################
