#####################################################################
# Alchemist log file - simulation started at: 2017-05-24T14:42+0000 #
#####################################################################
# random = 15.0, targets = 3.1622776601683795, density = 1.7841466528270753, gridShift = 1.0, perturbation = 0.0, connfactor = 0.1
#
# The columns have the following meaning: 
# time se[Mean] 
0.0 NaN 
1.0063964355134196 NaN 
2.0063964355134196 1.0 
3.0063964355134196 1.0 
4.00639643551342 1.0 
5.00639643551342 1.0 
6.00639643551342 1.0 
7.00639643551342 1.0 
8.00639643551342 1.0 
9.00639643551342 1.0 
10.00639643551342 1.0 
11.00639643551342 1.0 
12.00639643551342 1.0 
13.00639643551342 1.0 
14.00639643551342 1.0 
15.00639643551342 1.0 
16.00639643551342 1.0 
17.00639643551342 1.0 
18.00639643551342 1.0 
19.00639643551342 1.0 
20.00639643551342 1.0 
21.00639643551342 1.0 
22.00639643551342 1.0 
23.00639643551342 1.0 
24.00639643551342 1.0 
25.00639643551342 1.0 
26.00639643551342 1.0 
27.00639643551342 1.0 
#####################################################################
# End of data export. Simulation finished at: 2017-05-24T14:42+0000 #
#####################################################################
