#####################################################################
# Alchemist log file - simulation started at: 2017-05-24T22:14+0000 #
#####################################################################
# random = 16.0, targets = 1.0, density = 20.0, gridShift = 1.0, perturbation = 0.0, connfactor = 0.75
#
# The columns have the following meaning: 
# time se[Mean] 
0.0 NaN 
1.000419502192421 NaN 
2.000419502192421 1.0 
3.000419502192421 1.0 
4.000419502192421 1.0 
5.000419502192421 1.0 
6.000419502192421 1.0 
7.000419502192421 1.0 
8.000419502192422 1.0 
9.000419502192422 1.0 
10.000419502192422 1.0 
11.000419502192422 1.0 
12.000419502192422 1.0 
13.000419502192422 1.0 
14.000419502192422 1.0 
15.000419502192422 1.0 
16.000419502192422 1.0 
17.000419502192422 1.0 
18.000419502192422 1.0 
19.000419502192422 1.0 
20.000419502192422 1.0 
21.000419502192422 1.0 
22.000419502192422 1.0 
23.000419502192422 1.0 
24.000419502192422 1.0 
25.000419502192422 1.0 
26.000419502192422 1.0 
27.000419502192422 1.0 
28.000419502192422 1.0 
29.000419502192422 1.0106127722406792 
30.000419502192422 1.0 
31.000419502192422 1.0636766334440755 
32.00041950219242 1.10612772240679 
33.00041950219242 1.0849021779254355 
34.00041950219242 1.148578811369512 
35.00041950219242 1.084902177925436 
36.00041950219242 1.0955149501661101 
37.00041950219242 1.084902177925436 
38.00041950219242 1.0955149501661092 
39.00041950219242 1.0636766334440755 
40.00041950219242 1.0742894056847563 
41.00041950219242 1.1061277224067896 
42.00041950219242 1.1061277224067896 
43.00041950219242 1.0742894056847556 
44.00041950219242 1.0742894056847558 
45.00041950219242 1.0849021779254344 
46.00041950219242 1.0742894056847552 
47.00041950219242 1.0530638612033951 
48.00041950219242 1.0636766334440755 
49.00041950219242 1.042451088962717 
50.00041950219242 1.0530638612033958 
51.00041950219242 1.0318383167220377 
52.00041950219242 1.0212255444813587 
53.00041950219242 1.0318383167220377 
54.00041950219242 1.0 
55.00041950219242 1.0318383167220377 
56.00041950219242 1.0106127722406792 
57.00041950219242 1.0212255444813583 
58.00041950219242 1.0 
59.00041950219242 1.0106127722406792 
60.00041950219242 1.0 
61.00041950219242 1.0 
62.00041950219242 1.0 
63.00041950219242 1.0 
64.00041950219241 1.0 
65.00041950219241 1.0 
66.00041950219241 1.0 
67.00041950219241 1.0 
68.00041950219241 1.0 
69.00041950219241 1.0 
70.00041950219241 1.0 
71.00041950219241 1.0 
72.00041950219241 1.0 
73.00041950219241 0.999578125823973 
74.00041950219241 0.999578125823973 
75.00041950219241 0.9988925802879292 
76.00041950219241 0.9934082159995781 
77.00041950219241 1.0093867004166008 
78.00041950219241 1.0027949164161787 
79.00041950219241 1.0492538100511508 
80.00041950219241 1.0833201497653329 
81.00041950219241 1.0658123714602126 
82.00041950219241 1.1067341665348287 
83.00041950219241 1.1064704951748119 
84.00041950219241 1.0754627432368307 
85.00041950219241 1.105890418182774 
86.00041950219241 1.108421663238937 
87.00041950219241 1.0807361704371687 
88.00041950219241 1.1044138585666792 
89.00041950219241 1.121605231239781 
90.00041950219241 1.0967146548541897 
91.00041950219241 1.0794178136370838 
92.00041950219241 1.1067341665348285 
93.00041950219241 1.0716131413805825 
94.00041950219241 1.088804514053684 
95.00041950219241 1.1135368876232645 
96.00041950219241 1.0582186362917259 
97.00041950219241 1.1096872857670177 
98.00041950219241 1.1279333438801864 
99.00041950219241 1.067658070980329 
100.00041950219241 1.10768338343089 
101.00041950219241 1.1190212519116154 
102.00041950219241 1.0696092390444543 
103.00041950219241 1.1142751674313125 
104.00041950219241 1.083900226757371 
105.00041950219241 1.1205505457997136 
106.00041950219241 1.0902283393977745 
107.00041950219241 1.1223435110478284 
108.00041950219241 1.1138532932552856 
109.00041950219241 1.1085798660549477 
110.00041950219241 1.140220429256975 
111.00041950219241 1.0517850551073145 
112.00041950219241 1.1054158097347442 
113.00041950219241 1.0898064652217496 
114.00041950219241 1.0302694721299375 
115.00041950219241 1.047566313347044 
116.00041950219241 1.0553182513315411 
117.00041950219241 1.0161366872330333 
118.00041950219241 1.045878816642935 
119.00041950219241 1.015556610240996 
120.00041950219241 1.0252069820176146 
121.00041950219241 1.0483573274270932 
122.00041950219241 1.0214101144333714 
123.00041950219241 1.0202499604492974 
124.00041950219241 1.019037072193219 
125.00041950219241 1.010757791488688 
126.00041950219241 0.9839687813109712 
127.00041950219241 0.9863418235511241 
128.00041950219241 0.9784844170226251 
129.00041950219241 0.9669883457258889 
130.00041950219241 0.9549649317091176 
131.00041950219241 0.9736855982703156 
132.00041950219241 0.9269630332753239 
133.00041950219241 0.9326583346516941 
134.00041950219241 0.9171017244106978 
135.00041950219241 0.8841428044085841 
136.00041950219241 0.8609924589991019 
137.00041950219241 0.8741760269999445 
138.00041950219241 0.8174866845963233 
139.00041950219241 0.8358382112534862 
140.00041950219241 0.8029847597953939 
141.00041950219241 0.7895902547065371 
142.00041950219241 0.7901175974265708 
143.00041950219241 0.755102040816324 
144.00041950219241 0.7478247112798587 
145.00041950219241 0.7549965722723168 
146.00041950219241 0.7353794230870602 
147.00041950219241 0.860517850551068 
148.00041950219241 0.7450825291356837 
149.00041950219241 1.4808310921267835 
150.00041950219241 1.7736117702894842 
151.00041950219241 1.6467331118493764 
152.00041950219241 2.0152402046089573 
153.00041950219241 1.697252544428607 
154.00041950219241 1.515635711648987 
155.00041950219241 1.7138638401096717 
156.00041950219241 2.570215683172451 
157.00041950219241 2.730791541422821 
158.00041950219241 2.834467120181457 
159.00041950219241 3.4308390022675974 
160.00041950219241 2.9352423139798454 
161.00041950219241 2.2800189843379384 
162.00041950219241 2.7525180614881894 
163.00041950219241 2.5653641301481382 
164.00041950219241 2.7433422981595954 
165.00041950219241 3.035912039234243 
166.00041950219241 2.7848441702261937 
167.00041950219241 3.0518905236513287 
168.00041950219241 2.8449085060380965 
169.00041950219241 2.410167167642281 
170.00041950219241 2.3280599061330025 
171.00041950219241 2.84142804408587 
172.00041950219241 2.600274218214391 
173.00041950219241 2.2678373675051424 
174.00041950219241 2.578178558244992 
175.00041950219241 3.2811791383220092 
176.00041950219241 2.1394294151769357 
177.00041950219241 2.968148499709954 
178.00041950219241 2.6362389917206897 
179.00041950219241 2.5609871855718684 
180.00041950219241 2.9949902441596983 
181.00041950219241 1.6093445129990027 
182.00041950219241 2.9211622633549648 
183.00041950219241 2.123661867847936 
184.00041950219241 2.321520856404593 
185.00041950219241 1.8995412118335546 
186.00041950219241 2.4190792596108497 
187.00041950219241 2.3173548489163305 
188.00041950219241 1.4536202077730336 
189.00041950219241 1.785793387122259 
190.00041950219241 1.8498655276063747 
191.00041950219241 1.4394346886041278 
192.00041950219241 1.2079839687813299 
193.00041950219241 1.3197806254284608 
194.00041950219241 0.9444180773084321 
195.00041950219241 1.4546221589411188 
196.00041950219241 0.8049886621315108 
197.00041950219241 1.1933765754363939 
198.00041950219241 1.2052417866371552 
199.00041950219241 1.0584823076517544 
200.00041950219241 0.9358751252438875 
201.00041950219241 1.0266308073617103 
202.00041950219241 0.8161155935242131 
203.00041950219241 1.0306386120339677 
204.00041950219241 0.7915414227706413 
205.00041950219241 0.7775668406897457 
206.00041950219241 0.588567209829679 
207.00041950219241 0.7711859937773328 
208.00041950219241 0.83072298686915 
209.00041950219241 0.6474186573854431 
210.00041950219241 0.7059536993091882 
211.00041950219241 0.7804144913779197 
212.00041950219241 0.6570690291620533 
213.00041950219241 0.15851922164214347 
214.00041950219241 0.6521120075937346 
215.00041950219241 0.39334493487315925 
216.00041950219241 0.651162790697673 
217.00041950219241 0.3582239097189243 
218.00041950219241 0.5443758898908483 
219.00041950219241 0.8525022412065393 
220.00041950219241 0.24832568686389245 
221.00041950219241 0.26367136001687674 
222.00041950219241 0.2636713600168756 
223.00041950219241 0.26367136001687574 
224.00041950219241 0.3955070400252968 
225.00041950219241 0.13183568000843726 
226.00041950219241 0.6591784000421791 
227.00041950219241 0.13183568000843668 
228.00041950219241 0.0 
229.00041950219241 0.0 
230.00041950219241 0.0 
231.00041950219241 0.0 
232.00041950219241 0.0 
233.00041950219241 0.0 
234.00041950219241 0.0 
235.00041950219241 0.0 
236.00041950219241 0.0 
237.00041950219241 0.0 
238.00041950219241 0.0 
239.00041950219241 0.0 
240.00041950219241 0.0 
241.00041950219241 0.0 
242.00041950219241 0.0 
243.00041950219241 0.0 
244.00041950219241 0.0 
245.00041950219241 0.0 
246.00041950219241 0.0 
247.00041950219241 0.0 
248.00041950219241 0.0 
249.00041950219241 0.0 
250.00041950219241 0.0 
251.00041950219241 0.0 
252.00041950219241 0.0 
253.00041950219241 0.0 
254.00041950219241 0.0 
255.00041950219241 0.0 
256.0004195021924 0.0 
257.0004195021924 0.0 
258.0004195021924 0.0 
259.0004195021924 0.0 
260.0004195021924 0.0 
261.0004195021924 0.0 
262.0004195021924 0.0 
263.0004195021924 0.0 
264.0004195021924 0.0 
265.0004195021924 0.0 
266.0004195021924 0.0 
267.0004195021924 0.0 
268.0004195021924 0.0 
269.0004195021924 0.0 
270.0004195021924 0.0 
271.0004195021924 0.0 
272.0004195021924 0.0 
273.0004195021924 0.0 
274.0004195021924 0.0 
275.0004195021924 0.0 
276.0004195021924 0.0 
277.0004195021924 0.0 
278.0004195021924 0.0 
279.0004195021924 0.0 
280.0004195021924 0.0 
281.0004195021924 0.0 
282.0004195021924 0.0 
283.0004195021924 0.0 
284.0004195021924 0.0 
285.0004195021924 0.0 
286.0004195021924 0.0 
287.0004195021924 0.0 
288.0004195021924 0.0 
289.0004195021924 0.0 
290.0004195021924 0.0 
291.0004195021924 0.0 
292.0004195021924 0.0 
293.0004195021924 0.0 
294.0004195021924 0.0 
295.0004195021924 0.0 
296.0004195021924 0.0 
297.0004195021924 0.0 
298.0004195021924 0.0 
299.0004195021924 0.0 
300.0004195021924 0.0 
301.0004195021924 0.0 
302.0004195021924 0.0 
303.0004195021924 0.0 
304.0004195021924 0.0 
305.0004195021924 0.0 
306.0004195021924 0.0 
307.0004195021924 0.0 
308.0004195021924 0.0 
309.0004195021924 0.0 
310.0004195021924 0.0 
311.0004195021924 0.0 
312.0004195021924 0.0 
313.0004195021924 0.0 
314.0004195021924 0.0 
315.0004195021924 0.0 
316.0004195021924 0.0 
317.0004195021924 0.0 
318.0004195021924 0.0 
319.0004195021924 0.0 
320.0004195021924 0.0 
321.0004195021924 0.0 
322.0004195021924 0.0 
323.0004195021924 0.0 
324.0004195021924 0.0 
325.0004195021924 0.0 
326.0004195021924 0.0 
327.0004195021924 0.0 
#####################################################################
# End of data export. Simulation finished at: 2017-05-24T22:22+0000 #
#####################################################################
