#####################################################################
# Alchemist log file - simulation started at: 2017-05-21T08:13+0000 #
#####################################################################
# random = 2.0, targets = 10.0, density = 0.04, gridShift = 0.0, perturbation = 0.5, connfactor = 1.5
#
# The columns have the following meaning: 
# time se[Mean] 
0.0 NaN 
1.003288451303821 NaN 
2.003288451303821 0.9328125 
3.003288451303821 0.9838888888888889 
4.0032884513038205 1.1872612847222224 
5.0032884513038205 2.032829861111111 
6.0032884513038205 1.549904513888889 
7.0032884513038205 1.9779036458333334 
8.00328845130382 1.1149522569444448 
9.00328845130382 1.6926996527777782 
10.00328845130382 1.1136241319444449 
11.00328845130382 1.7299739583333342 
12.00328845130382 0.1593055555555557 
13.00328845130382 0.6423003472222226 
14.00328845130382 0.11211805555555572 
15.00328845130382 0.09555555555555571 
16.00328845130382 0.09000000000000016 
17.00328845130382 0.09000000000000016 
18.00328845130382 0.09000000000000016 
#####################################################################
# End of data export. Simulation finished at: 2017-05-21T08:13+0000 #
#####################################################################
