#####################################################################
# Alchemist log file - simulation started at: 2017-05-25T15:48+0000 #
#####################################################################
# random = 8.0, targets = 31.622776601683793, density = 0.2247883923996312, gridShift = 0.0, perturbation = 0.0, connfactor = 0.75
#
# The columns have the following meaning: 
# time se[Mean] 
0.0 NaN 
1.0447112257851685 NaN 
2.0447112257851687 1.0088535490560233 
3.0447112257851687 1.0224830032876047 
4.044711225785169 1.0516932491721027 
5.044711225785169 1.0922558455311737 
6.044711225785169 1.079631020929222 
7.044711225785169 1.1439382872915682 
8.044711225785168 1.0757172146334384 
9.044711225785168 1.0404038672564506 
10.044711225785168 1.0441532035291918 
11.044711225785168 0.9256830898010232 
12.044711225785168 0.8968137854215616 
13.044711225785168 0.8269251254401043 
14.044711225785168 0.7524939505982607 
15.044711225785168 0.7271887973063554 
16.044711225785168 0.6736827500308078 
17.044711225785168 0.6298730967990717 
18.044711225785168 0.6991664228049753 
19.044711225785168 0.8615202403511901 
20.044711225785168 0.8335383899367865 
21.044711225785168 1.283279708465768 
22.044711225785168 1.0028733953952442 
23.044711225785168 1.1216801615014054 
24.044711225785168 1.1017529608136138 
25.044711225785168 0.9057253793870906 
26.044711225785168 0.7744135933146242 
27.044711225785168 0.5117900211696915 
28.044711225785168 0.5117900211696915 
29.044711225785168 0.5117900211696915 
30.044711225785168 0.5117900211696915 
31.044711225785168 0.5117900211696915 
32.044711225785164 0.5117900211696915 
33.044711225785164 0.5117900211696915 
34.044711225785164 0.5117900211696915 
35.044711225785164 0.5117900211696915 
36.044711225785164 0.5117900211696915 
37.044711225785164 0.5117900211696915 
38.044711225785164 0.5117900211696915 
#####################################################################
# End of data export. Simulation finished at: 2017-05-25T15:48+0000 #
#####################################################################
