#####################################################################
# Alchemist log file - simulation started at: 2017-05-23T16:29+0000 #
#####################################################################
# random = 12.0, targets = 10.0, density = 0.07978946395100113, gridShift = 1.0, perturbation = 0.0, connfactor = 0.25
#
# The columns have the following meaning: 
# time se[Mean] 
0.0 NaN 
1.0242474491697862 NaN 
2.024247449169786 1.0 
3.024247449169786 1.0 
4.024247449169787 0.9905 
5.024247449169787 0.9535 
6.024247449169787 0.927 
7.024247449169787 0.8965000000000001 
8.024247449169787 0.8625 
9.024247449169787 0.8575 
10.024247449169787 0.8215 
11.024247449169787 0.8015000000000001 
12.024247449169787 0.81 
13.024247449169787 0.81 
14.024247449169787 0.81 
#####################################################################
# End of data export. Simulation finished at: 2017-05-23T16:29+0000 #
#####################################################################
