#####################################################################
# Alchemist log file - simulation started at: 2017-05-25T08:56+0000 #
#####################################################################
# random = 17.0, targets = 31.622776601683793, density = 0.04, gridShift = 0.0, perturbation = 0.5, connfactor = 0.25
#
# The columns have the following meaning: 
# time se[Mean] 
0.0 NaN 
1.0045647570182237 NaN 
2.0045647570182235 0.9984767014623948 
3.0045647570182235 1.0112952194908742 
4.0045647570182235 1.0142880666028375 
5.0045647570182235 0.9967858682025673 
6.0045647570182235 0.9819423386857706 
7.0045647570182235 0.9071939506305685 
8.004564757018223 0.8271907479688183 
9.004564757018223 0.7221130676105189 
10.004564757018223 0.6285442753325436 
11.004564757018223 0.6716333932527182 
12.004564757018223 0.708772233983162 
13.004564757018223 0.708772233983162 
14.004564757018223 0.708772233983162 
15.004564757018223 0.708772233983162 
16.004564757018223 0.708772233983162 
17.004564757018223 0.708772233983162 
#####################################################################
# End of data export. Simulation finished at: 2017-05-25T08:56+0000 #
#####################################################################
