#####################################################################
# Alchemist log file - simulation started at: 2017-05-25T22:08+0000 #
#####################################################################
# random = 19.0, targets = 3.1622776601683795, density = 10.026386447354522, gridShift = 1.0, perturbation = 0.5, connfactor = 0.5
#
# The columns have the following meaning: 
# time se[Mean] 
0.0 NaN 
1.0036597452439835 NaN 
2.0036597452439837 1.0 
3.0036597452439837 0.9992408448865894 
4.003659745243984 0.99843560682387 
5.003659745243984 0.9956294011167713 
6.003659745243984 0.9897024940656922 
7.003659745243984 0.9880701900157828 
8.003659745243983 0.9896806661412215 
9.003659745243983 0.9856949008690218 
10.003659745243983 0.9881405279899299 
11.003659745243983 0.9901714085670592 
12.003659745243983 0.9900549876436032 
13.003659745243983 0.9874250287254602 
14.003659745243983 0.9847788997907584 
15.003659745243983 0.9860967082037858 
16.003659745243983 0.9810429500892051 
17.003659745243983 0.9800072972799422 
18.003659745243983 0.9774994171931667 
19.003659745243983 0.9739639693054071 
20.003659745243983 0.9736955566178338 
21.003659745243983 0.971279842429676 
22.003659745243983 0.9715482551172488 
23.003659745243983 0.9703606105438687 
24.003659745243983 0.971279842429676 
25.003659745243983 0.9652276257396856 
26.003659745243983 0.9669520956882124 
27.003659745243983 0.965422469645567 
28.003659745243983 0.96680495812483 
29.003659745243983 0.9619403860082195 
30.003659745243983 0.9611755729868978 
31.003659745243983 0.9596459469442528 
32.00365974524398 0.9626720552892487 
33.00365974524398 0.9597267970270476 
34.00365974524398 0.956090294525214 
35.00365974524398 0.9645178003619667 
36.00365974524398 0.9628337554548368 
37.00365974524398 0.9661007906550229 
38.00365974524398 0.9626461928500579 
39.00365974524398 0.966713611912228 
40.00365974524398 0.9657482970771116 
41.00365974524398 0.9595149793974298 
42.00365974524398 0.9558711955944943 
43.00365974524398 0.9516364184588239 
44.00365974524398 0.9459213290373625 
45.00365974524398 0.9384138587935937 
46.00365974524398 0.9367362914803908 
47.00365974524398 0.9201803931555482 
48.00365974524398 0.9526123093179428 
49.00365974524398 0.9391924946253027 
50.00365974524398 0.947561845926262 
51.00365974524398 0.9470590159351027 
52.00365974524398 0.9574956543187078 
53.00365974524398 0.9637815644993031 
54.00365974524398 0.9695379465846942 
55.00365974524398 0.9403359193251489 
56.00365974524398 0.9614241806141649 
57.00365974524398 0.9901306911413313 
58.00365974524398 0.9263494621976456 
59.00365974524398 0.9269065240617488 
60.00365974524398 0.9102786803484069 
61.00365974524398 0.9439087851505065 
62.00365974524398 0.915862078410064 
63.00365974524398 0.8975461552748711 
64.00365974524398 0.892812566683923 
65.00365974524398 0.8755896951231256 
66.00365974524398 0.8353487522890963 
67.00365974524398 0.8263723015541979 
68.00365974524398 0.8196571461429742 
69.00365974524398 0.8668348183558332 
70.00365974524398 0.8053440099402341 
71.00365974524398 1.092460248873239 
72.00365974524398 1.1164008307763402 
73.00365974524398 1.3008766146613968 
74.00365974524398 1.4129746663204898 
75.00365974524398 1.7193124132313395 
76.00365974524398 1.775021057016541 
77.00365974524398 2.0584459016771404 
78.00365974524398 1.8656971107140226 
79.00365974524398 2.228931885775296 
80.00365974524398 2.6415062450887214 
81.00365974524398 2.105368212263328 
82.00365974524398 2.3217002852874162 
83.00365974524398 2.2466327682778067 
84.00365974524398 2.694046577060477 
85.00365974524398 2.552838759913497 
86.00365974524398 2.5913617423506 
87.00365974524398 2.6145431052249375 
88.00365974524398 2.536112320644136 
89.00365974524398 2.212706152994651 
90.00365974524398 2.304900373109394 
91.00365974524398 2.358029207398178 
92.00365974524398 2.415546370064573 
93.00365974524398 2.4560687766470597 
94.00365974524398 2.598817551631347 
95.00365974524398 3.516351975640587 
96.00365974524398 3.4179009705496624 
97.00365974524398 3.8017356276591197 
98.00365974524398 4.681124669477681 
99.00365974524398 4.453229054921148 
100.00365974524398 5.576358080955988 
101.00365974524398 5.01153067111555 
102.00365974524398 5.5850273652916345 
103.00365974524398 7.053872364349284 
104.00365974524398 5.5047946033389 
105.00365974524398 5.888044712751868 
106.00365974524398 5.679505656171239 
107.00365974524398 6.594481135112937 
108.00365974524398 6.5419247449765 
109.00365974524398 6.58135400411156 
110.00365974524398 6.383135808909861 
111.00365974524398 5.706196540578799 
112.00365974524398 4.848160202137438 
113.00365974524398 4.872185540807353 
114.00365974524398 4.962546939079546 
115.00365974524398 4.8718136464053305 
116.00365974524398 5.104208336376191 
117.00365974524398 3.4898294447597786 
118.00365974524398 5.984912679613243 
119.00365974524398 4.304530001462322 
120.00365974524398 4.595019168431493 
121.00365974524398 4.876632103614965 
122.00365974524398 3.7209022918028976 
123.00365974524398 5.032378761320026 
124.00365974524398 4.7291383443296855 
125.00365974524398 3.6812005694866996 
126.00365974524398 5.13950703988181 
127.00365974524398 4.253112681934143 
128.00365974524397 3.8120890847326194 
129.00365974524397 3.667974747056241 
130.00365974524397 3.076435316739082 
131.00365974524397 4.104626925688581 
132.00365974524397 3.8077799191293074 
133.00365974524397 3.0742807339373925 
134.00365974524397 1.4653226086791649 
135.00365974524397 1.1727847677231162 
136.00365974524397 0.5877090858110636 
137.00365974524397 0.4414401653330311 
138.00365974524397 0.5877090858110676 
139.00365974524397 0.14890232437699133 
140.00365974524397 0.44144016533303115 
141.00365974524397 0.1489023243769914 
142.00365974524397 0.002633403898972407 
143.00365974524397 0.002633403898972407 
144.00365974524397 0.002633403898972407 
145.00365974524397 0.002633403898972407 
146.00365974524397 0.002633403898972407 
147.00365974524397 0.002633403898972407 
148.00365974524397 0.002633403898972407 
149.00365974524397 0.002633403898972407 
150.00365974524397 0.002633403898972407 
151.00365974524397 0.002633403898972407 
152.00365974524397 0.002633403898972407 
153.00365974524397 0.002633403898972407 
154.00365974524397 0.002633403898972407 
155.00365974524397 0.002633403898972407 
156.00365974524397 0.002633403898972407 
157.00365974524397 0.002633403898972407 
158.00365974524397 0.002633403898972407 
159.00365974524397 0.002633403898972407 
160.00365974524397 0.002633403898972407 
161.00365974524397 0.002633403898972407 
162.00365974524397 0.002633403898972407 
163.00365974524397 0.002633403898972407 
164.00365974524397 0.002633403898972407 
165.00365974524397 0.002633403898972407 
166.00365974524397 0.002633403898972407 
167.00365974524397 0.002633403898972407 
168.00365974524397 0.002633403898972407 
169.00365974524397 0.002633403898972407 
170.00365974524397 0.002633403898972407 
171.00365974524397 0.002633403898972407 
172.00365974524397 0.002633403898972407 
173.00365974524397 0.002633403898972407 
174.00365974524397 0.002633403898972407 
175.00365974524397 0.002633403898972407 
176.00365974524397 0.002633403898972407 
177.00365974524397 0.002633403898972407 
178.00365974524397 0.002633403898972407 
179.00365974524397 0.002633403898972407 
180.00365974524397 0.002633403898972407 
181.00365974524397 0.002633403898972407 
182.00365974524397 0.002633403898972407 
183.00365974524397 0.002633403898972407 
184.00365974524397 0.002633403898972407 
185.00365974524397 0.002633403898972407 
186.00365974524397 0.002633403898972407 
187.00365974524397 0.002633403898972407 
188.00365974524397 0.002633403898972407 
189.00365974524397 0.002633403898972407 
190.00365974524397 0.002633403898972407 
191.00365974524397 0.002633403898972407 
192.00365974524397 0.002633403898972407 
193.00365974524397 0.002633403898972407 
194.00365974524397 0.002633403898972407 
195.00365974524397 0.002633403898972407 
196.00365974524397 0.002633403898972407 
197.00365974524397 0.002633403898972407 
198.00365974524397 0.002633403898972407 
199.00365974524397 0.002633403898972407 
200.00365974524397 0.002633403898972407 
201.00365974524397 0.002633403898972407 
202.00365974524397 0.002633403898972407 
203.00365974524397 0.002633403898972407 
204.00365974524397 0.002633403898972407 
205.00365974524397 0.002633403898972407 
206.00365974524397 0.002633403898972407 
207.00365974524397 0.002633403898972407 
208.00365974524397 0.002633403898972407 
209.00365974524397 0.002633403898972407 
210.00365974524397 0.002633403898972407 
211.00365974524397 0.002633403898972407 
212.00365974524397 0.002633403898972407 
#####################################################################
# End of data export. Simulation finished at: 2017-05-25T22:10+0000 #
#####################################################################
