#####################################################################
# Alchemist log file - simulation started at: 2017-05-23T17:59+0000 #
#####################################################################
# random = 12.0, targets = 31.622776601683793, density = 0.05649405772326896, gridShift = 1.0, perturbation = 0.0, connfactor = 1.0
#
# The columns have the following meaning: 
# time se[Mean] 
0.0 NaN 
1.0242474491697862 NaN 
2.024247449169786 0.9983204514623948 
3.024247449169786 1.0182219322578214 
4.024247449169787 1.014561758867228 
5.024247449169787 1.0516918504797423 
6.024247449169787 1.0629762021355784 
7.024247449169787 1.1582829824358174 
8.024247449169787 1.141635126702266 
9.024247449169787 0.9496444547352668 
10.024247449169787 0.6299405588205181 
11.024247449169787 0.21405862806351839 
12.024247449169787 0.13647016230981307 
13.024247449169787 0.06979179770903357 
14.024247449169787 0.07775239524854083 
15.024247449169787 0.05463658717052401 
16.024247449169785 0.034852654239518964 
17.024247449169785 0.028635467107048337 
18.024247449169785 0.03138827879848373 
19.024247449169785 0.03161561671244278 
20.024247449169785 0.03161561671244278 
21.024247449169785 0.03161561671244278 
22.024247449169785 0.03161561671244278 
23.024247449169785 0.03161561671244278 
24.024247449169785 0.03161561671244278 
25.024247449169785 0.03161561671244278 
#####################################################################
# End of data export. Simulation finished at: 2017-05-23T17:59+0000 #
#####################################################################
