0.000000000000000000e+00 nan
1.000001624051114479e+00 5.207340614166014459e-03
2.000003248102228959e+00 9.543694099867270353e-01
3.000004872153340774e+00 9.565640636194039370e-01
4.000006496204457918e+00 9.578138299309877368e-01
5.000008120255571065e+00 9.587839713674705111e-01
6.000009744306681547e+00 9.577151389925145919e-01
7.000011368357800912e+00 9.601312400225129329e-01
8.000012992408915835e+00 9.596830206556306031e-01
9.000014616460022765e+00 9.609198864953379937e-01
1.000001624051114213e+01 9.564252564838505721e-01
1.100001786456225972e+01 9.579795483306473569e-01
1.200001948861336309e+01 9.542325150140821277e-01
1.300002111266447891e+01 9.529172235288411175e-01
1.400002273671560182e+01 9.493804579254504494e-01
1.500002436076670698e+01 9.478320686903988213e-01
1.600002598481783167e+01 9.440322987784376396e-01
1.700002760886894393e+01 9.419761595876454674e-01
1.800002923292004553e+01 9.398115333240483205e-01
1.900003085697117200e+01 9.384900473657050712e-01
2.000003248102228426e+01 9.360508406483893928e-01
2.100003410507338586e+01 9.349401814251948606e-01
2.200003572912451943e+01 9.334925942615822647e-01
2.300003735317562459e+01 9.330514449468014782e-01
2.400003897722672619e+01 9.310630912739348286e-01
2.500004060127785976e+01 9.311159287867856182e-01
2.600004222532895781e+01 9.294394666107558267e-01
2.700004384938006652e+01 9.295084455406006363e-01
2.800004547343120365e+01 9.275368308053305588e-01
2.900004709748231235e+01 9.278460277993836325e-01
3.000004872153341395e+01 9.258312505079512311e-01
3.100005034558454398e+01 9.254027016952801610e-01
3.200005196963566334e+01 9.235553080680816151e-01
3.300005359368675073e+01 9.231853615429692628e-01
3.400005521773788786e+01 9.219616653548906582e-01
3.500005684178900367e+01 9.207508189928564901e-01
3.600005846584009106e+01 9.221265653061391232e-01
3.700006008989122819e+01 9.194317194410427385e-01
3.800006171394234400e+01 9.209730592971528962e-01
3.900006333799343139e+01 9.179412315875499218e-01
4.000006496204456852e+01 9.189388283144332981e-01
4.100006658609569854e+01 9.166585257248459628e-01
4.200006821014677172e+01 9.171707359555250072e-01
4.300006983419790885e+01 9.183593599386967732e-01
4.400007145824903887e+01 9.178772557153386247e-01
4.500007308230011205e+01 9.177911073421032295e-01
4.600007470635124918e+01 9.189143480292666366e-01
4.700007633040237920e+01 9.212786488958616404e-01
4.800007795445345238e+01 9.142413249223600991e-01
4.900007957850458951e+01 9.159860691915036046e-01
5.000008120255571953e+01 9.129364765669166770e-01
5.100008282660679271e+01 9.107930985690557701e-01
5.200008445065791562e+01 9.069426724444134003e-01
5.300008607470906696e+01 9.052451221354693711e-01
5.400008769876013304e+01 9.030969984734376066e-01
5.500008932281125595e+01 8.994616777614239389e-01
5.600009094686240729e+01 8.984165514234372374e-01
5.700009257091348758e+01 8.962387879419643211e-01
5.800009419496462471e+01 8.962005331962917820e-01
5.900009581901574762e+01 8.866906734039790017e-01
6.000009744306682791e+01 8.890158755450557893e-01
6.100009906711792951e+01 8.811546598220726390e-01
6.200010069116908795e+01 8.819433050235828686e-01
6.300010231522016824e+01 8.762840408013276017e-01
6.400010393927132668e+01 8.814878132818979584e-01
6.500010556332243539e+01 8.856403995595062417e-01
6.600010718737350146e+01 8.756639208482560610e-01
6.700010881142461017e+01 8.831173164720437230e-01
6.800011043547577572e+01 8.839728464047875711e-01
6.900011205952684179e+01 8.709958674236578657e-01
7.000011368357800734e+01 8.710510498199982576e-01
7.100011530762911605e+01 8.600791757185155539e-01
7.200011693168018212e+01 8.496791437435450289e-01
7.300011855573129083e+01 8.456409333968334385e-01
7.400012017978245638e+01 8.337008224572226567e-01
7.500012180383352245e+01 8.310900015707431976e-01
7.600012342788468800e+01 8.229580659081313643e-01
7.700012505193579671e+01 8.217533809152567370e-01
7.800012667598686278e+01 8.335474311794471847e-01
7.900012830003805675e+01 8.102145573734074180e-01
8.000012992408913703e+01 8.158309534627538051e-01
8.100013154814020311e+01 8.151474990414936395e-01
8.200013317219139708e+01 7.957759050001100842e-01
8.300013479624247736e+01 7.871099490874505777e-01
8.400013642029354344e+01 7.806801175770118340e-01
8.500013804434473741e+01 7.766568428143394431e-01
8.600013966839581769e+01 7.514965399494045739e-01
8.700014129244688377e+01 7.537798346969136754e-01
8.800014291649807774e+01 7.274370763591377909e-01
8.900014454054915802e+01 7.321308316652547221e-01
9.000014616460022410e+01 7.151229753453928195e-01
9.100014778865141807e+01 7.188348244735259795e-01
9.200014941270249835e+01 7.043859658210144259e-01
9.300015103675356443e+01 6.905691530540324363e-01
9.400015266080475840e+01 6.975118998065551468e-01
9.500015428485583868e+01 6.753260373999080413e-01
9.600015590890690476e+01 6.669975401453329678e-01
9.700015753295809873e+01 6.693676089110095484e-01
9.800015915700917901e+01 6.461236090528170717e-01
9.900016078106027351e+01 6.437971793650275609e-01
1.000001624051114391e+02 6.268305826540176984e-01
1.010001640291625193e+02 6.157065392332080611e-01
1.020001656532135854e+02 6.205100660755935582e-01
1.030001672772647794e+02 6.381654883824146030e-01
1.040001689013158312e+02 7.052687021022179259e-01
1.050001705253669542e+02 7.228566945287979717e-01
1.060001721494181339e+02 8.646143634048534254e-01
1.070001737734692000e+02 8.264795319236224458e-01
1.080001753975202661e+02 7.989718126420158884e-01
1.090001770215714316e+02 9.581830256496973730e-01
1.100001786456225119e+02 8.948996370301777192e-01
1.110001802696736775e+02 8.480194975451383899e-01
1.120001818937248146e+02 8.999530799621099364e-01
1.130001835177758807e+02 8.763471412804425542e-01
1.140001851418269752e+02 7.925433128852911180e-01
1.150001867658781123e+02 8.419560960960773555e-01
1.160001883899292494e+02 7.909008909218946393e-01
1.170001900139803581e+02 7.460336097649740150e-01
1.180001916380314952e+02 7.425530767555436062e-01
1.190001932620825755e+02 7.311456705376438991e-01
1.200001948861336558e+02 6.904664756262541836e-01
1.210001965101847787e+02 7.308445822094050692e-01
1.220001981342358590e+02 7.485834111854446915e-01
1.230001997582870388e+02 6.724937158096608858e-01
1.240002013823381759e+02 6.595099782103992503e-01
1.250002030063892562e+02 7.160228174531512169e-01
1.260002046304403365e+02 6.794850960273473017e-01
1.270002062544914736e+02 6.209270062377441057e-01
1.280002078785426534e+02 6.848393305549452803e-01
1.290002095025937479e+02 6.089075360526086111e-01
1.300002111266448708e+02 6.327636813824775164e-01
1.310002127506959368e+02 5.954628190115807129e-01
1.320002143747470029e+02 6.285966364383646088e-01
1.330002159987981258e+02 6.760619230835701599e-01
1.340002176228492203e+02 6.812966089894462174e-01
1.350002192469004285e+02 7.305895666262671728e-01
1.360002208709515514e+02 7.139135727466797698e-01
1.370002224950026175e+02 7.926553278687666904e-01
1.380002241190536836e+02 7.349799046003386849e-01
1.390002257431048349e+02 7.253409301188481484e-01
1.400002273671560147e+02 7.619471267251644031e-01
1.410002289912071092e+02 7.459852744098530719e-01
1.420002306152582321e+02 7.672048398172554018e-01
1.430002322393092982e+02 1.017428206568810278e+00
1.440002338633603642e+02 9.945082245180916214e-01
1.450002354874115156e+02 9.425841956835031565e-01
1.460002371114625817e+02 1.103430590590005034e+00
1.470002387355137898e+02 1.020238413815076850e+00
1.480002403595649128e+02 1.026800075807511314e+00
1.490002419836159788e+02 1.039309742892100097e+00
1.500002436076670449e+02 9.345419079530480344e-01
1.510002452317181678e+02 1.007446913200886973e+00
1.520002468557693760e+02 9.955593836518196182e-01
1.530002484798204705e+02 9.031998931405046394e-01
1.540002501038715934e+02 7.561603576799885706e-01
1.550002517279226879e+02 8.273761961124992403e-01
1.560002533519737256e+02 6.786165210385213253e-01
1.570002549760248485e+02 6.244655837160378864e-01
1.580002566000761135e+02 5.766210496811796649e-01
1.590002582241271512e+02 5.843556731403447557e-01
1.600002598481782741e+02 5.267484818370337107e-01
1.610002614722293686e+02 5.480601164500872313e-01
1.620002630962804062e+02 4.894301536998257873e-01
1.630002647203315291e+02 5.512073519043853009e-01
1.640002663443827942e+02 4.755491021015995634e-01
1.650002679684338318e+02 5.092218066145153266e-01
1.660002695924849547e+02 5.423148620578266410e-01
1.670002712165360492e+02 4.295559896314605774e-01
1.680002728405870869e+02 4.961807731882761363e-01
1.690002744646382098e+02 4.208375582627281175e-01
1.700002760886894748e+02 4.484475105086562774e-01
1.710002777127405977e+02 5.009557257967003352e-01
1.720002793367916354e+02 4.423729884809960433e-01
1.730002809608427299e+02 4.398182729902918586e-01
1.740002825848937675e+02 3.985177674208137955e-01
1.750002842089448905e+02 5.069633339164361097e-01
1.760002858329961555e+02 3.652225522603088081e-01
1.770002874570472784e+02 5.031543609529338656e-01
1.780002890810983160e+02 4.410264184678799881e-01
1.790002907051494105e+02 3.477235368277234451e-01
1.800002923292004482e+02 4.308252821196866256e-01
1.810002939532515711e+02 3.999888021658929427e-01
1.820002955773028361e+02 4.094313624627798354e-01
1.830002972013539591e+02 4.725018051088660798e-01
1.840002988254049967e+02 4.922161677402305258e-01
1.850003004494560912e+02 6.139879514288341111e-01
1.860003020735071289e+02 5.837633960249940523e-01
1.870003036975582518e+02 6.085141974439329804e-01
1.880003053216095168e+02 5.229939299360316651e-01
1.890003069456606397e+02 6.013671980619214041e-01
1.900003085697116774e+02 4.309275276909317887e-01
1.910003101937627719e+02 4.198320599922977236e-01
1.920003118178138095e+02 5.151187940006926036e-01
1.930003134418649324e+02 3.772210623142051023e-01
1.940003150659161975e+02 3.887826536484745299e-01
1.950003166899673204e+02 4.539647310472077479e-01
1.960003183140183580e+02 3.490565093798686513e-01
1.970003199380694525e+02 3.380143865892966115e-01
1.980003215621205470e+02 3.902107734451883414e-01
1.990003231861716131e+02 2.809964380746615142e-01
2.000003248102228781e+02 3.714137821832251274e-01
2.010003264342740010e+02 3.765417075702666150e-01
2.020003280583250387e+02 3.877766508119519506e-01
2.030003296823761332e+02 2.973696611700589743e-01
2.040003313064271708e+02 3.430819147766370758e-01
2.050003329304782653e+02 2.968408033151759273e-01
2.060003345545295588e+02 3.109734746769229341e-01
2.070003361785806248e+02 2.860332478789744948e-01
2.080003378026316625e+02 2.781283644245404751e-01
2.090003394266828707e+02 2.317269493369959743e-01
2.100003410507339083e+02 2.299581087360477172e-01
2.110003426747849744e+02 1.997069541515952007e-01
2.120003442988362679e+02 2.122940249803765833e-01
2.130003459228873623e+02 2.260491742478750732e-01
2.140003475469384000e+02 1.622365124948389470e-01
2.150003491709894945e+02 2.010182589016295540e-01
2.160003507950405321e+02 1.766428839049586363e-01
2.170003524190916266e+02 1.827372266899533748e-01
2.180003540431428632e+02 1.830784677595977961e-01
2.190003556671939862e+02 1.861860797748517982e-01
2.200003572912450238e+02 1.368789715577507504e-01
2.210003589152962320e+02 2.034871294490255000e-01
2.220003605393473549e+02 1.723569913976170098e-01
2.230003621633983926e+02 1.403818226682122805e-01
2.240003637874496292e+02 1.791452481091579396e-01
2.250003654115007237e+02 1.697526754839196184e-01
2.260003670355517613e+02 1.063950565014219474e-01
2.270003686596028558e+02 1.763508494475794774e-01
2.280003702836539503e+02 1.137134919177833492e-01
2.290003719077049880e+02 1.373473467080382759e-01
2.300003735317562246e+02 8.145303583542079506e-02
2.310003751558073191e+02 1.134665771684665592e-01
2.320003767798584988e+02 9.354041581426292273e-02
2.330003784039096217e+02 6.825871836060676268e-02
2.340003800279607162e+02 6.219092287783382911e-02
2.350003816520119528e+02 6.484502747148458701e-02
2.360003832760629905e+02 4.217035577261152995e-02
2.370003849001140850e+02 4.509663982528464010e-02
2.380003865241651511e+02 3.680612936486105796e-02
2.390003881482162171e+02 4.046427688818421409e-02
2.400003897722673116e+02 5.072585200470623029e-02
2.410003913963183493e+02 1.447035207105236768e-02
2.420003930203695575e+02 4.552579020757599459e-02
2.430003946444206804e+02 4.557824465770956429e-02
2.440003962684717180e+02 8.569423394679960213e-03
2.450003978925229831e+02 4.107588461748223896e-02
2.460003995165740776e+02 2.534068514291481014e-02
2.470004011406253142e+02 2.210532450530675735e-02
2.480004027646763518e+02 8.400966321804039308e-03
2.490004043887274463e+02 1.788631508928413549e-02
2.500004060127785124e+02 2.185635369678286255e-02
2.510004076368295785e+02 7.392280289589488879e-03
2.520004092608806729e+02 1.979704450723036857e-02
2.530004108849317106e+02 2.106637599988037471e-02
2.540004125089829472e+02 1.658163454383988766e-02
2.550004141330340417e+02 2.151227584486571642e-02
2.560004157570853067e+02 3.962659567887715471e-03
2.570004173811364012e+02 1.778133405123141081e-02
2.580004190051874957e+02 2.123011092662903040e-02
2.590004206292387039e+02 3.118494067788879411e-03
2.600004222532897415e+02 2.111025119593086530e-02
2.610004238773407792e+02 1.741473223341006779e-02
2.620004255013918737e+02 2.028449880644201883e-02
2.630004271254429682e+02 2.381856139536181124e-03
2.640004287494940058e+02 1.790244272616257210e-02
2.650004303735450435e+02 2.373428502221415406e-03
2.660004319975962517e+02 1.746982401067191312e-02
2.670004336216473462e+02 1.274631578390112796e-04
2.680004352456984407e+02 2.252476300018891459e-03
2.690004368697497625e+02 2.373428502221415406e-03
2.700004384938008570e+02 2.252476300018891459e-03
2.710004401178520652e+02 1.260585516198859909e-04
2.720004417419031029e+02 2.252476300018891459e-03
2.730004433659541405e+02 3.701743198247518128e-06
2.740004449900052350e+02 2.251071693799746708e-03
2.750004466140563295e+02 3.701743198247518128e-06
2.760004482381073672e+02 3.701743198247518128e-06
2.770004498621584048e+02 3.701743198247518128e-06
2.780004514862096698e+02 3.701743198247518128e-06
2.790004531102607075e+02 3.701743198247518128e-06
2.800004547343120294e+02 3.701743198247518128e-06
2.810004563583631239e+02 3.701743198247518128e-06
2.820004579824142183e+02 3.701743198247518128e-06
2.830004596064654265e+02 3.701743198247518128e-06
2.840004612305164642e+02 3.701743198247518128e-06
2.850004628545675018e+02 3.701743198247518128e-06
2.860004644786185963e+02 3.701743198247518128e-06
2.870004661026696908e+02 3.701743198247518128e-06
2.880004677267207285e+02 3.701743198247518128e-06
2.890004693507717661e+02 3.701743198247518128e-06
2.900004709748230312e+02 3.701743198247518128e-06
2.910004725988740688e+02 3.701743198247518128e-06
2.920004742229251633e+02 3.701743198247518128e-06
2.930004758469765420e+02 3.701743198247518128e-06
2.940004774710275797e+02 3.701743198247518128e-06
2.950004790950787879e+02 3.701743198247518128e-06
2.960004807191298255e+02 3.701743198247518128e-06
2.970004823431808632e+02 3.701743198247518128e-06
2.980004839672319576e+02 3.701743198247518128e-06
2.990004855912830521e+02 3.701743198247518128e-06
3.000004872153340898e+02 3.701743198247518128e-06
3.010004888393851274e+02 3.701743198247518128e-06
3.020004904634363356e+02 3.701743198247518128e-06
3.030004920874873733e+02 3.701743198247518128e-06
3.040004937115387520e+02 3.701743198247518128e-06
3.050004953355899033e+02 3.701743198247518128e-06
3.060004969596409410e+02 3.701743198247518128e-06
3.070004985836921492e+02 3.701743198247518128e-06
3.080005002077431868e+02 3.701743198247518128e-06
3.090005018317942245e+02 3.701743198247518128e-06
3.100005034558453758e+02 3.701743198247518128e-06
3.110005050798964135e+02 3.701743198247518128e-06
3.120005067039474511e+02 3.701743198247518128e-06
3.130005083279986593e+02 3.701743198247518128e-06
3.140005099520496969e+02 3.701743198247518128e-06
3.150005115761007346e+02 3.701743198247518128e-06
3.160005132001522270e+02 3.701743198247518128e-06
3.170005148242032647e+02 3.701743198247518128e-06
3.180005164482543023e+02 3.701743198247518128e-06
3.190005180723055105e+02 3.701743198247518128e-06
3.200005196963565481e+02 3.701743198247518128e-06
3.210005213204075858e+02 3.701743198247518128e-06
3.220005229444587371e+02 3.701743198247518128e-06
3.230005245685097748e+02 3.701743198247518128e-06
3.240005261925608124e+02 3.701743198247518128e-06
3.250005278166120206e+02 3.701743198247518128e-06
3.260005294406630583e+02 3.701743198247518128e-06
3.270005310647140959e+02 3.701743198247518128e-06
3.280005326887655883e+02 3.701743198247518128e-06
3.290005343128166260e+02 3.701743198247518128e-06
3.300005359368676636e+02 3.701743198247518128e-06
3.310005375609188718e+02 3.701743198247518128e-06
3.320005391849699095e+02 3.701743198247518128e-06
3.330005408090209471e+02 3.701743198247518128e-06
3.340005424330720984e+02 3.701743198247518128e-06
3.350005440571231361e+02 3.701743198247518128e-06
3.360005456811741738e+02 3.701743198247518128e-06
3.370005473052253819e+02 3.701743198247518128e-06
3.380005489292764196e+02 3.701743198247518128e-06
3.390005505533279120e+02 3.701743198247518128e-06
3.400005521773789496e+02 3.701743198247518128e-06
3.410005538014299873e+02 3.701743198247518128e-06
3.420005554254811955e+02 3.701743198247518128e-06
3.430005570495322331e+02 3.701743198247518128e-06
3.440005586735832708e+02 3.701743198247518128e-06
3.450005602976343653e+02 3.701743198247518128e-06
3.460005619216854598e+02 3.701743198247518128e-06
3.470005635457364974e+02 3.701743198247518128e-06
3.480005651697875351e+02 3.701743198247518128e-06
3.490005667938387433e+02 3.701743198247518128e-06
3.500005684178897809e+02 3.701743198247518128e-06
3.510005700419408186e+02 3.701743198247518128e-06
3.520005716659923110e+02 3.701743198247518128e-06
3.530005732900433486e+02 3.701743198247518128e-06
3.540005749140945568e+02 3.701743198247518128e-06
3.550005765381455944e+02 3.701743198247518128e-06
3.560005781621966321e+02 3.701743198247518128e-06
3.570005797862477266e+02 3.701743198247518128e-06
3.580005814102988211e+02 3.701743198247518128e-06
3.590005830343498587e+02 3.701743198247518128e-06
3.600005846584008964e+02 3.701743198247518128e-06
3.610005862824521046e+02 3.701743198247518128e-06
3.620005879065031422e+02 3.701743198247518128e-06
3.630005895305546346e+02 3.701743198247518128e-06
3.640005911546056723e+02 3.701743198247518128e-06
3.650005927786567099e+02 3.701743198247518128e-06
3.660005944027079181e+02 3.701743198247518128e-06
3.670005960267589558e+02 3.701743198247518128e-06
3.680005976508099934e+02 3.701743198247518128e-06
3.690005992748610879e+02 3.701743198247518128e-06
3.700006008989121824e+02 3.701743198247518128e-06
3.710006025229632201e+02 3.701743198247518128e-06
3.720006041470142577e+02 3.701743198247518128e-06
3.730006057710654090e+02 3.701743198247518128e-06
3.740006073951165035e+02 3.701743198247518128e-06
3.750006090191675412e+02 3.701743198247518128e-06
3.760006106432190336e+02 3.701743198247518128e-06
3.770006122672701281e+02 3.701743198247518128e-06
3.780006138913212794e+02 3.701743198247518128e-06
3.790006155153723171e+02 3.701743198247518128e-06
3.800006171394233547e+02 3.701743198247518128e-06
3.810006187634744492e+02 3.701743198247518128e-06
3.820006203875255437e+02 3.701743198247518128e-06
