#####################################################################
# Alchemist log file - simulation started at: 2017-05-19T21:13+0000 #
#####################################################################
# random = 0.0, targets = 3.1622776601683795, density = 14.160781367816199, gridShift = 1.0, perturbation = 0.5, connfactor = 0.25
#
# The columns have the following meaning: 
# time se[Mean] 
0.0 NaN 
1.0006766750413718 NaN 
2.0006766750413716 1.0 
3.0006766750413716 1.0 
4.000676675041372 1.0 
5.000676675041372 1.0 
6.000676675041372 1.0 
7.000676675041372 0.9994279688729714 
8.000676675041372 0.9965678132378281 
9.000676675041372 0.9959957821107993 
10.000676675041372 0.9954237509837708 
11.000676675041372 0.9925635953486271 
12.000676675041372 0.9965678132378281 
13.000676675041372 0.998283906618914 
14.000676675041372 0.9988559377459426 
15.000676675041372 1.0 
16.000676675041372 1.0 
17.000676675041372 1.0 
18.000676675041372 1.0 
19.000676675041372 1.0 
20.000676675041372 1.0 
21.000676675041372 0.9994279688729714 
22.000676675041372 0.9990758157433194 
23.000676675041372 0.9958635069785241 
24.000676675041372 0.9931785570735843 
25.000676675041372 0.9912855162930493 
26.000676675041372 0.9851683796259373 
27.000676675041372 0.9811624200674914 
28.000676675041372 0.974648458003554 
29.000676675041372 0.9661538522939794 
30.000676675041372 0.9618473785500369 
31.000676675041372 0.9494361578163647 
32.000676675041376 0.9495191468069355 
33.000676675041376 0.9433196322824572 
34.000676675041376 0.92856690642727 
35.000676675041376 0.9343429511134086 
36.000676675041376 0.9203821343826247 
37.000676675041376 0.9186973910479558 
38.000676675041376 0.9242808133114357 
39.000676675041376 0.9137504416735811 
40.000676675041376 0.9324482603940002 
41.000676675041376 0.9295329824762105 
42.000676675041376 0.920670548613777 
43.000676675041376 0.934413840149634 
44.000676675041376 0.9188773023830621 
45.000676675041376 0.9265823517706796 
46.000676675041376 0.9202174703982651 
47.000676675041376 0.9084020530278518 
48.000676675041376 0.9019582771365603 
49.000676675041376 0.8882613995371247 
50.000676675041376 0.8735289625796749 
51.000676675041376 0.8735289625796746 
52.000676675041376 0.8570253099584944 
53.000676675041376 0.8573826880958803 
54.000676675041376 0.8460876629083391 
55.000676675041376 0.8375309682391405 
56.000676675041376 0.8311869868976722 
57.000676675041376 0.8253633977390752 
58.000676675041376 0.8213162492519439 
59.000676675041376 0.8183098851305645 
60.000676675041376 0.8121550428732592 
61.000676675041376 0.8114402865984833 
62.000676675041376 0.8074772576379631 
63.000676675041376 0.8005287645870094 
64.00067667504138 0.7982267067249342 
65.00067667504138 0.7934752519784981 
66.00067667504138 0.7885451081633744 
67.00067667504138 0.782027662760944 
68.00067667504138 0.7777966001973866 
69.00067667504138 0.7715471883980005 
70.00067667504138 0.7657340492548718 
71.00067667504138 0.759747446050791 
72.00067667504138 0.7549066467700115 
73.00067667504138 0.7477742396426278 
74.00067667504138 0.7408205215839362 
75.00067667504138 0.7350073824408115 
76.00067667504138 0.7265557073291653 
77.00067667504138 0.7208319127203887 
78.00067667504138 0.7128217352727411 
79.00067667504138 0.705074366420401 
80.00067667504138 0.6997027249412738 
81.00067667504138 0.6925703178138903 
82.00067667504138 0.6827100301836376 
83.00067667504138 0.6742583550719916 
84.00067667504138 0.6679195987382566 
85.00067667504138 0.6615808424045215 
86.00067667504138 0.6531291672928753 
87.00067667504138 0.644325339051578 
88.00067667504138 0.6362258170695866 
89.00067667504138 0.625661223180028 
90.00067667504138 0.6158009355497734 
91.00067667504138 0.6052363416602159 
92.00067667504138 0.5950239009003137 
93.00067667504138 0.5865722257886682 
94.00067667504138 0.5788248569363235 
95.00067667504138 0.5686124161764201 
96.00067667504138 0.5608650473240766 
97.00067667504138 0.550652606564174 
98.00067667504138 0.5432573908414832 
99.00067667504138 0.535510021989143 
100.00067667504138 0.5291712656554078 
101.00067667504138 0.5210717436734117 
102.00067667504138 0.5140286810803746 
103.00067667504138 0.5098028435245517 
104.00067667504138 0.5066334653576864 
105.00067667504138 0.5020554746722105 
106.00067667504138 0.4978296371163876 
107.00067667504138 0.4936037995605657 
108.00067667504138 0.49078657452334906 
109.00067667504138 0.48867365574543853 
110.00067667504138 0.48691289009717825 
111.00067667504138 0.4858564307082234 
112.00067667504138 0.4840956650599634 
113.00067667504138 0.48198274628205207 
114.00067667504138 0.4816305931524003 
115.00067667504138 0.4812784400227484 
116.00067667504138 0.4802219806337928 
117.00067667504138 0.47951767437448856 
118.00067667504138 0.4784612149855327 
119.00067667504138 0.47775690872622933 
120.00067667504138 0.47599614307796984 
121.00067667504138 0.4745875305593622 
122.00067667504138 0.47317891804075457 
123.00067667504138 0.47177030552214705 
124.00067667504138 0.4707138461331911 
125.00067667504138 0.4700095398738874 
126.00067667504138 0.46895308048493173 
127.00067667504138 0.467896621095976 
128.00067667504138 0.467896621095976 
129.00067667504138 0.4675444679663241 
130.00067667504138 0.4675444679663241 
131.00067667504138 0.4675444679663241 
132.00067667504138 0.4675444679663241 
133.00067667504138 0.4675444679663241 
134.00067667504138 0.4675444679663241 
135.00067667504138 0.4675444679663241 
136.00067667504138 0.4675444679663241 
137.00067667504138 0.4675444679663241 
138.00067667504138 0.4675444679663241 
139.00067667504138 0.4675444679663241 
140.00067667504138 0.4675444679663241 
141.00067667504138 0.4675444679663241 
142.00067667504138 0.4675444679663241 
143.00067667504138 0.4675444679663241 
144.00067667504138 0.4675444679663241 
145.00067667504138 0.4675444679663241 
146.00067667504138 0.4675444679663241 
147.00067667504138 0.4675444679663241 
148.00067667504138 0.4675444679663241 
149.00067667504138 0.4675444679663241 
150.00067667504138 0.4675444679663241 
151.00067667504138 0.4675444679663241 
152.00067667504138 0.4675444679663241 
153.00067667504138 0.4675444679663241 
154.00067667504138 0.4675444679663241 
155.00067667504138 0.4675444679663241 
156.00067667504138 0.4675444679663241 
157.00067667504138 0.4675444679663241 
158.00067667504138 0.4675444679663241 
159.00067667504138 0.4675444679663241 
160.00067667504138 0.4675444679663241 
161.00067667504138 0.4675444679663241 
162.00067667504138 0.4675444679663241 
163.00067667504138 0.4675444679663241 
164.00067667504138 0.4675444679663241 
165.00067667504138 0.4675444679663241 
166.00067667504138 0.4675444679663241 
167.00067667504138 0.4675444679663241 
168.00067667504138 0.4675444679663241 
169.00067667504138 0.4675444679663241 
170.00067667504138 0.4675444679663241 
171.00067667504138 0.4675444679663241 
172.00067667504138 0.4675444679663241 
173.00067667504138 0.4675444679663241 
174.00067667504138 0.4675444679663241 
175.00067667504138 0.4675444679663241 
176.00067667504138 0.4675444679663241 
177.00067667504138 0.4675444679663241 
178.00067667504138 0.4675444679663241 
179.00067667504138 0.4675444679663241 
180.00067667504138 0.4675444679663241 
181.00067667504138 0.4675444679663241 
182.00067667504138 0.4675444679663241 
183.00067667504138 0.4675444679663241 
184.00067667504138 0.4675444679663241 
185.00067667504138 0.4675444679663241 
186.00067667504138 0.4675444679663241 
187.00067667504138 0.4675444679663241 
188.00067667504138 0.4675444679663241 
189.00067667504138 0.4675444679663241 
190.00067667504138 0.4675444679663241 
191.00067667504138 0.4675444679663241 
192.00067667504138 0.4675444679663241 
193.00067667504138 0.4675444679663241 
194.00067667504138 0.4675444679663241 
195.00067667504138 0.4675444679663241 
196.00067667504138 0.4675444679663241 
197.00067667504138 0.4675444679663241 
198.00067667504138 0.4675444679663241 
199.00067667504138 0.4675444679663241 
200.00067667504138 0.4675444679663241 
201.00067667504138 0.4675444679663241 
202.00067667504138 0.4675444679663241 
203.00067667504138 0.4675444679663241 
204.00067667504138 0.4675444679663241 
205.00067667504138 0.4675444679663241 
206.00067667504138 0.4675444679663241 
207.00067667504138 0.4675444679663241 
208.00067667504138 0.4675444679663241 
209.00067667504138 0.4675444679663241 
210.00067667504138 0.4675444679663241 
#####################################################################
# End of data export. Simulation finished at: 2017-05-19T21:26+0000 #
#####################################################################
