#####################################################################
# Alchemist log file - simulation started at: 2017-05-25T02:52+0000 #
#####################################################################
# random = 7.0, targets = 100.0, density = 0.4483936332993466, gridShift = 1.0, perturbation = 0.5, connfactor = 0.75
#
# The columns have the following meaning: 
# time se[Mean] 
0.0 NaN 
1.001616958347866 NaN 
2.0016169583478662 1.020635763888889 
3.0016169583478662 1.031312461419753 
4.001616958347866 1.0367063368055556 
5.001616958347866 1.0499714699074074 
6.001616958347866 1.0509223090277777 
7.001616958347866 1.063419068287037 
8.001616958347867 1.0779966917438273 
9.001616958347867 1.078943364197531 
10.001616958347867 1.0643101562500001 
11.001616958347867 1.071155295138889 
12.001616958347867 1.0406613522376544 
13.001616958347867 1.0117591049382717 
14.001616958347867 0.9847326388888891 
15.001616958347867 0.9763338252314816 
16.001616958347867 0.9706629436728397 
17.001616958347867 0.9692057002314816 
18.001616958347867 0.9617426408179014 
19.001616958347867 0.9602435956790124 
20.001616958347867 0.9593354745370372 
21.001616958347867 0.9601259162808643 
22.001616958347867 0.9610814332561729 
23.001616958347867 0.9612600790895063 
24.001616958347867 0.9581767554012346 
25.001616958347867 0.9583888213734568 
26.001616958347867 0.9587971450617284 
27.001616958347867 0.9586698302469137 
28.001616958347867 0.9571069444444446 
29.001616958347867 0.9627984567901235 
30.001616958347867 0.9622486207561729 
31.001616958347867 0.9759089988425927 
32.00161695834787 0.9700599440586422 
33.00161695834787 0.9956682388117286 
34.00161695834787 0.9807285686728396 
35.00161695834787 0.995029234182099 
36.00161695834787 0.9970737461419755 
37.00161695834787 1.0070006944444447 
38.00161695834787 1.006878771219136 
39.00161695834787 1.0213839120370372 
40.00161695834787 1.0052541377314816 
41.00161695834787 1.0417056520061732 
42.00161695834787 1.04089397183642 
43.00161695834787 1.046040354938272 
44.00161695834787 0.978595640432099 
45.00161695834787 1.047753809799383 
46.00161695834787 0.9643544174382718 
47.00161695834787 0.9185266685956791 
48.00161695834787 0.9282096643518519 
49.00161695834787 0.8834055844907408 
50.00161695834787 0.886656037808642 
51.00161695834787 0.8932995081018519 
52.00161695834787 0.8936334297839506 
53.00161695834787 0.8992372106481481 
54.00161695834787 0.9012334297839506 
55.00161695834787 0.9020621141975308 
56.00161695834787 0.9025 
57.00161695834787 0.9025 
58.00161695834787 0.9025 
59.00161695834787 0.9025 
60.00161695834787 0.9025 
61.00161695834787 0.9025 
62.00161695834787 0.9025 
63.00161695834787 0.9025 
64.00161695834787 0.9025 
65.00161695834787 0.9025 
66.00161695834787 0.9025 
67.00161695834787 0.9025 
68.00161695834787 0.9025 
69.00161695834787 0.9025 
70.00161695834787 0.9025 
71.00161695834787 0.9025 
#####################################################################
# End of data export. Simulation finished at: 2017-05-25T02:52+0000 #
#####################################################################
