#####################################################################
# Alchemist log file - simulation started at: 2017-05-25T13:51+0000 #
#####################################################################
# random = 18.0, targets = 3.1622776601683795, density = 0.11269076455391362, gridShift = 1.0, perturbation = 0.0, connfactor = 1.5
#
# The columns have the following meaning: 
# time se[Mean] 
0.0 NaN 
1.0067713218599703 NaN 
2.0067713218599703 0.9787017787186529 
3.0067713218599703 1.3499647338409893 
4.00677132185997 1.3712746591396652 
5.00677132185997 2.6569465613868983 
6.00677132185997 2.4517185642095245 
7.00677132185997 2.1121984289200038 
8.00677132185997 1.7166197735438395 
9.00677132185997 0.5263632098047527 
10.00677132185997 0.29596588964367204 
11.00677132185997 0.16266789952286148 
12.00677132185997 0.09148679546831431 
13.00677132185997 0.05628236043262167 
14.00677132185997 0.043814585007031843 
15.00677132185997 0.022481328727210648 
16.006771321859972 0.01738207574045257 
17.006771321859972 0.006504813815380314 
18.006771321859972 0.004399477659421447 
19.006771321859972 0.002551552831183232 
20.006771321859972 0.0024228856940789766 
21.006771321859972 0.0026334038989724354 
22.006771321859972 0.0026334038989724354 
23.006771321859972 0.0026334038989724354 
24.006771321859972 0.0026334038989724354 
25.006771321859972 0.0026334038989724354 
26.006771321859972 0.0026334038989724354 
27.006771321859972 0.0026334038989724354 
#####################################################################
# End of data export. Simulation finished at: 2017-05-25T13:51+0000 #
#####################################################################
