#####################################################################
# Alchemist log file - simulation started at: 2017-05-23T13:43+0000 #
#####################################################################
# random = 12.0, targets = 1.0, density = 0.2247883923996312, gridShift = 1.0, perturbation = 0.0, connfactor = 2.0
#
# The columns have the following meaning: 
# time se[Mean] 
0.0 NaN 
1.0242474491697862 NaN 
2.024247449169786 2.410714285714286 
3.024247449169786 3.6190476190476195 
4.024247449169787 4.303571428571429 
5.024247449169787 3.9689153439153437 
6.024247449169787 3.1746031746031744 
7.024247449169787 2.7195767195767195 
8.024247449169787 2.8273809523809526 
9.024247449169787 4.549603174603173 
10.024247449169787 3.3247354497354493 
11.024247449169787 3.921957671957672 
12.024247449169787 4.006613756613756 
13.024247449169787 5.690476190476189 
14.024247449169787 5.637566137566135 
15.024247449169787 5.572089947089943 
16.024247449169785 3.150793650793651 
17.024247449169785 1.8716931216931219 
18.024247449169785 0.5800264550264553 
19.024247449169785 0.3716931216931219 
20.024247449169785 0.2321428571428573 
21.024247449169785 1.272486772486772 
22.024247449169785 2.4087301587301577 
23.024247449169785 3.5615079365079354 
24.024247449169785 7.042989417989415 
25.024247449169785 4.703703703703701 
26.024247449169785 5.855820105820101 
27.024247449169785 5.849206349206345 
28.024247449169785 9.339947089947083 
29.024247449169785 9.337962962962955 
30.024247449169785 9.335978835978826 
31.024247449169785 4.668650793650794 
32.024247449169785 2.334656084656083 
33.024247449169785 6.613756613756562E-4 
34.024247449169785 1.9721522630525295E-31 
35.024247449169785 1.9721522630525295E-31 
36.024247449169785 1.9721522630525295E-31 
37.024247449169785 1.9721522630525295E-31 
38.024247449169785 1.9721522630525295E-31 
39.024247449169785 1.9721522630525295E-31 
40.024247449169785 1.9721522630525295E-31 
#####################################################################
# End of data export. Simulation finished at: 2017-05-23T13:43+0000 #
#####################################################################
