#####################################################################
# Alchemist log file - simulation started at: 2017-05-24T00:21+0000 #
#####################################################################
# random = 13.0, targets = 10.0, density = 0.4483936332993466, gridShift = 1.0, perturbation = 0.0, connfactor = 0.5
#
# The columns have the following meaning: 
# time se[Mean] 
0.0 NaN 
1.0093475742791087 NaN 
2.0093475742791087 1.0 
3.0093475742791087 1.001423611111111 
4.009347574279109 1.0071875 
5.009347574279109 1.0061805555555556 
6.009347574279109 1.001369598765432 
7.009347574279109 0.9954861111111111 
8.009347574279108 0.9646643518518518 
9.009347574279108 0.9634490740740741 
10.009347574279108 0.9477854938271605 
11.009347574279108 0.9193827160493827 
12.009347574279108 0.9177932098765432 
13.009347574279108 0.8835763888888889 
14.009347574279108 0.8661265432098765 
15.009347574279108 0.8572878086419753 
16.009347574279108 0.8400694444444444 
17.009347574279108 0.8184374999999999 
18.009347574279108 0.8002006172839505 
19.009347574279108 0.7727353395061728 
20.009347574279108 0.7626967592592592 
21.009347574279108 0.7160223765432098 
22.009347574279108 0.7032793209876543 
23.009347574279108 0.6512422839506172 
24.009347574279108 0.6205555555555555 
25.009347574279108 0.5873726851851852 
26.009347574279108 0.5746257716049383 
27.009347574279108 0.5338001543209877 
28.009347574279108 0.4988387345679013 
29.009347574279108 0.5084645061728396 
30.009347574279108 0.47917052469135807 
31.009347574279108 0.48149691358024693 
32.009347574279104 0.4633564814814815 
33.009347574279104 0.45582175925925933 
34.009347574279104 0.43974922839506175 
35.009347574279104 0.4261535493827161 
36.009347574279104 0.4023495370370371 
37.009347574279104 0.3907600308641975 
38.009347574279104 0.3626234567901235 
39.009347574279104 0.3411304012345679 
40.009347574279104 0.3289853395061728 
41.009347574279104 0.30269675925925926 
42.009347574279104 0.3061226851851852 
43.009347574279104 0.2798533950617284 
44.009347574279104 0.2823263888888889 
45.009347574279104 0.26371527777777776 
46.009347574279104 0.2662847222222222 
47.009347574279104 0.2579166666666667 
48.009347574279104 0.2551736111111111 
49.009347574279104 0.2521875 
50.009347574279104 0.25072916666666667 
51.009347574279104 0.25 
52.009347574279104 0.25 
53.009347574279104 0.25 
54.009347574279104 0.25 
55.009347574279104 0.25 
56.009347574279104 0.25 
57.009347574279104 0.25 
58.009347574279104 0.25 
59.009347574279104 0.25 
60.009347574279104 0.25 
61.009347574279104 0.25 
62.009347574279104 0.25 
63.009347574279104 0.25 
#####################################################################
# End of data export. Simulation finished at: 2017-05-24T00:21+0000 #
#####################################################################
