#####################################################################
# Alchemist log file - simulation started at: 2017-05-21T14:43+0000 #
#####################################################################
# random = 2.0, targets = 100.0, density = 0.05649405772326896, gridShift = 0.0, perturbation = 0.5, connfactor = 1.5
#
# The columns have the following meaning: 
# time se[Mean] 
0.0 NaN 
1.003288451303821 NaN 
2.003288451303821 1.095075 
3.003288451303821 1.133548263888889 
4.0032884513038205 1.4226010850694446 
5.0032884513038205 2.219486675347223 
6.0032884513038205 2.29129982638889 
7.0032884513038205 2.8260521701388903 
8.00328845130382 1.728432335069446 
9.00328845130382 1.3000460069444455 
10.00328845130382 0.6258427083333341 
11.00328845130382 0.46503598090277853 
12.00328845130382 0.1552718750000004 
13.00328845130382 0.23351076388888942 
14.00328845130382 0.20069592013888934 
15.00328845130382 0.1444000000000004 
16.00328845130382 0.16791805555555597 
17.00328845130382 0.1444000000000004 
18.00328845130382 0.1444000000000004 
19.00328845130382 0.1444000000000004 
20.00328845130382 0.1444000000000004 
21.00328845130382 0.1444000000000004 
22.00328845130382 0.1444000000000004 
23.00328845130382 0.1444000000000004 
24.00328845130382 0.1444000000000004 
25.00328845130382 0.1444000000000004 
#####################################################################
# End of data export. Simulation finished at: 2017-05-21T14:44+0000 #
#####################################################################
