#####################################################################
# Alchemist log file - simulation started at: 2017-05-22T23:06+0000 #
#####################################################################
# random = 10.0, targets = 3.1622776601683795, density = 3.5589026259761294, gridShift = 0.0, perturbation = 0.0, connfactor = 0.5
#
# The columns have the following meaning: 
# time se[Mean] 
0.0 NaN 
1.0007035023519422 NaN 
2.000703502351942 1.0 
3.000703502351942 1.0 
4.000703502351942 0.9978377223398316 
5.000703502351942 0.994344305849579 
6.000703502351942 0.9830329175487372 
7.000703502351942 0.9642346962673901 
8.000703502351943 0.9550790021169691 
9.000703502351943 0.9420987526462113 
10.000703502351943 0.9398706832311695 
11.000703502351943 0.9211097396099905 
12.000703502351943 0.916491323119738 
13.000703502351943 0.9107917677994015 
14.000703502351943 0.9043860736489806 
15.000703502351943 0.9093356289693174 
16.000703502351943 0.9066952818941068 
17.000703502351943 0.9079014207241908 
18.000703502351943 0.8805571582172125 
19.000703502351943 0.8805132970472968 
20.000703502351943 0.8393795768244342 
21.000703502351943 0.8317172991642658 
22.000703502351943 0.7879651624511509 
23.000703502351943 0.7952831342617401 
24.000703502351943 0.7718818435653511 
25.000703502351943 0.7739783294706458 
26.000703502351943 0.7482524834539197 
27.000703502351943 0.7517458999441721 
28.000703502351943 0.7249542621725724 
29.000703502351943 0.7259542621725728 
30.000703502351943 0.701162624400973 
31.000703502351943 0.698331485570889 
32.00070350235194 0.6780332642895419 
33.00070350235194 0.6588973206683632 
34.00070350235194 0.6509104876878585 
35.00070350235194 0.6269499887463423 
36.00070350235194 0.6051517674649954 
37.00070350235194 0.5817131991084384 
38.00070350235194 0.5652176025624699 
39.00070350235194 0.5454193812811227 
40.00070350235194 0.5290707153201128 
41.00070350235194 0.5107505634538075 
42.00070350235194 0.5004106610582604 
43.00070350235194 0.47264535732565066 
44.00070350235194 0.45717169136464014 
45.00070350235194 0.4457704006682513 
46.00070350235194 0.43371559587715675 
47.00070350235194 0.40782311208883104 
48.00070350235194 0.3927069189968948 
49.00070350235194 0.39084290596067434 
50.00070350235194 0.3736894352085695 
51.00070350235194 0.5009636758770446 
52.00070350235194 0.3376303136486445 
53.00070350235194 1.5179267016150817 
54.00070350235194 1.0584157146513 
55.00070350235194 2.2531529377152104 
56.00070350235194 0.7635583284674282 
57.00070350235194 2.395892167464433 
58.00070350235194 1.7666333172137727 
59.00070350235194 1.3445587185508328 
60.00070350235194 0.560341462729169 
61.00070350235194 1.1030894127012545 
62.00070350235194 0.7769205081887378 
63.00070350235194 0.4744841198878964 
64.00070350235194 0.739495193536877 
65.00070350235194 0.7162825145396469 
66.00070350235194 0.41062900044494066 
67.00070350235194 0.686376907074426 
68.00070350235194 0.5293023517540888 
69.00070350235194 0.3677365599992153 
70.00070350235194 0.505475659720638 
71.00070350235194 0.20339447754795317 
72.00070350235194 0.6401906488013869 
73.00070350235194 0.4809822865729853 
74.00070350235194 0.1927936315312266 
75.00070350235194 0.17771026930282674 
76.00070350235194 0.012795724901741337 
77.00070350235194 0.008006223843256768 
78.00070350235194 0.0029711262388040257 
79.00070350235194 0.002633403898972407 
80.00070350235194 0.002633403898972407 
81.00070350235194 0.002633403898972407 
82.00070350235194 0.002633403898972407 
83.00070350235194 0.002633403898972407 
84.00070350235194 0.002633403898972407 
85.00070350235194 0.002633403898972407 
86.00070350235194 0.002633403898972407 
87.00070350235194 0.002633403898972407 
88.00070350235194 0.002633403898972407 
89.00070350235194 0.002633403898972407 
90.00070350235194 0.002633403898972407 
91.00070350235194 0.002633403898972407 
92.00070350235194 0.002633403898972407 
93.00070350235194 0.002633403898972407 
94.00070350235194 0.002633403898972407 
95.00070350235194 0.002633403898972407 
96.00070350235194 0.002633403898972407 
97.00070350235194 0.002633403898972407 
98.00070350235194 0.002633403898972407 
99.00070350235194 0.002633403898972407 
100.00070350235194 0.002633403898972407 
101.00070350235194 0.002633403898972407 
102.00070350235194 0.002633403898972407 
103.00070350235194 0.002633403898972407 
104.00070350235194 0.002633403898972407 
105.00070350235194 0.002633403898972407 
106.00070350235194 0.002633403898972407 
107.00070350235194 0.002633403898972407 
108.00070350235194 0.002633403898972407 
109.00070350235194 0.002633403898972407 
110.00070350235194 0.002633403898972407 
111.00070350235194 0.002633403898972407 
112.00070350235194 0.002633403898972407 
113.00070350235194 0.002633403898972407 
114.00070350235194 0.002633403898972407 
115.00070350235194 0.002633403898972407 
116.00070350235194 0.002633403898972407 
117.00070350235194 0.002633403898972407 
118.00070350235194 0.002633403898972407 
119.00070350235194 0.002633403898972407 
120.00070350235194 0.002633403898972407 
121.00070350235194 0.002633403898972407 
122.00070350235194 0.002633403898972407 
#####################################################################
# End of data export. Simulation finished at: 2017-05-22T23:07+0000 #
#####################################################################
