#####################################################################
# Alchemist log file - simulation started at: 2017-05-21T08:16+0000 #
#####################################################################
# random = 2.0, targets = 10.0, density = 0.6332893950589894, gridShift = 0.0, perturbation = 0.0, connfactor = 0.1
#
# The columns have the following meaning: 
# time se[Mean] 
0.0 NaN 
1.003288451303821 NaN 
2.003288451303821 1.0 
3.003288451303821 1.0 
4.0032884513038205 1.0 
5.0032884513038205 1.0 
6.0032884513038205 0.9976543209876543 
7.0032884513038205 1.0 
8.00328845130382 0.9812345679012345 
9.00328845130382 0.9765432098765432 
10.00328845130382 0.9648148148148148 
11.00328845130382 0.9577777777777778 
12.00328845130382 0.9554320987654321 
13.00328845130382 0.941358024691358 
14.00328845130382 0.9695061728395061 
15.00328845130382 0.9366666666666666 
16.00328845130382 0.9718518518518519 
17.00328845130382 0.941358024691358 
18.00328845130382 0.9812345679012345 
19.00328845130382 0.9648148148148148 
20.00328845130382 0.9835802469135803 
21.00328845130382 0.9882716049382716 
22.00328845130382 0.9906172839506173 
23.00328845130382 0.9906172839506173 
24.00328845130382 0.9814814814814815 
25.00328845130382 0.9564197530864197 
26.00328845130382 0.9428395061728395 
27.00328845130382 0.908888888888889 
28.00328845130382 0.8674074074074074 
29.00328845130382 0.8177777777777778 
30.00328845130382 0.7698765432098765 
31.00328845130382 0.7053086419753087 
32.00328845130382 0.6940740740740742 
33.00328845130382 0.6269135802469135 
34.00328845130382 0.5388888888888889 
35.00328845130382 0.5133333333333333 
36.00328845130382 0.5691358024691358 
37.00328845130382 0.552716049382716 
38.00328845130382 0.558395061728395 
39.00328845130382 0.5686419753086419 
40.00328845130382 0.5688888888888889 
41.00328845130382 0.5741975308641976 
42.00328845130382 0.6307407407407407 
43.00328845130382 0.6330864197530864 
44.00328845130382 0.6330864197530864 
45.00328845130382 0.64 
46.00328845130382 0.64 
47.00328845130382 0.64 
48.00328845130382 0.64 
49.00328845130382 0.64 
50.00328845130382 0.64 
51.00328845130382 0.64 
52.00328845130382 0.64 
53.00328845130382 0.64 
54.00328845130382 0.64 
55.00328845130382 0.64 
56.00328845130382 0.64 
57.00328845130382 0.64 
58.00328845130382 0.64 
59.00328845130382 0.64 
60.00328845130382 0.64 
61.00328845130382 0.64 
62.00328845130382 0.64 
#####################################################################
# End of data export. Simulation finished at: 2017-05-21T08:16+0000 #
#####################################################################
