#####################################################################
# Alchemist log file - simulation started at: 2017-05-26T00:49+0000 #
#####################################################################
# random = 19.0, targets = 31.622776601683793, density = 7.099073319511142, gridShift = 0.0, perturbation = 0.5, connfactor = 0.25
#
# The columns have the following meaning: 
# time se[Mean] 
0.0 NaN 
1.0036597452439835 NaN 
2.0036597452439837 1.0 
3.0036597452439837 0.9999206051617304 
4.003659745243984 0.9992854464555736 
5.003659745243984 0.9985708929111472 
6.003659745243984 0.9967448116309463 
7.003659745243984 0.9950775200272847 
8.003659745243983 0.9942118298675436 
9.003659745243983 0.9927033279404212 
10.003659745243983 0.9913791258939195 
11.003659745243983 0.9907720284122525 
12.003659745243983 0.9895246701836123 
13.003659745243983 0.9878136980273954 
14.003659745243983 0.9870146476038831 
15.003659745243983 0.9841357120572956 
16.003659745243983 0.9826861968051775 
17.003659745243983 0.9800582008754396 
18.003659745243983 0.9763464252288004 
19.003659745243983 0.9706950705815353 
20.003659745243983 0.9647915234949541 
21.003659745243983 0.954534687192295 
22.003659745243983 0.9454725773065538 
23.003659745243983 0.9291897903131974 
24.003659745243983 0.9173259472798228 
25.003659745243983 0.8990831731225752 
26.003659745243983 0.8798806796315767 
27.003659745243983 0.8602885518048374 
28.003659745243983 0.8451169793416393 
29.003659745243983 0.8299266101187338 
30.003659745243983 0.8204192529602397 
31.003659745243983 0.8110353297736625 
32.00365974524398 0.8046036385949316 
33.00365974524398 0.8010336295434266 
34.00365974524398 0.7928005524542854 
35.00365974524398 0.7824128708003096 
36.00365974524398 0.7723592716871196 
37.00365974524398 0.7644914363878127 
38.00365974524398 0.7556129930503048 
39.00365974524398 0.7502273869363778 
40.00365974524398 0.7420369111959378 
41.00365974524398 0.7304039147460379 
42.00365974524398 0.7250773022282699 
43.00365974524398 0.716350422150383 
44.00365974524398 0.7035886410847695 
45.00365974524398 0.702147487210632 
46.00365974524398 0.6984257718519237 
47.00365974524398 0.6877730607510684 
48.00365974524398 0.6926056222512766 
49.00365974524398 0.6861055299640214 
50.00365974524398 0.6886849524869095 
51.00365974524398 0.6741335304344228 
52.00365974524398 0.6773780023234666 
53.00365974524398 0.6722705699105824 
54.00365974524398 0.6680459064960526 
55.00365974524398 0.6650449713019166 
56.00365974524398 0.6583481974175388 
57.00365974524398 0.6518944901325623 
58.00365974524398 0.6475669824112833 
59.00365974524398 0.6437521163533552 
60.00365974524398 0.6450573505199791 
61.00365974524398 0.6430548143040169 
62.00365974524398 0.6370025829882864 
63.00365974524398 0.6351236351356925 
64.00365974524398 0.633949051550339 
65.00365974524398 0.6325782810753825 
66.00365974524398 0.6310225739268401 
67.00365974524398 0.6285011763485351 
68.00365974524398 0.6242762120343944 
69.00365974524398 0.6204363610509348 
70.00365974524398 0.6163762507587373 
71.00365974524398 0.6125191350120467 
72.00365974524398 0.6034166171790577 
73.00365974524398 0.6012309214283885 
74.00365974524398 0.5973066416290567 
75.00365974524398 0.5889658825619141 
76.00365974524398 0.5894930791539226 
77.00365974524398 0.584755348393872 
78.00365974524398 0.5785390753920491 
79.00365974524398 0.5807730738330161 
80.00365974524398 0.5733987510045765 
81.00365974524398 0.5748737720380618 
82.00365974524398 0.5618767604724789 
83.00365974524398 0.5657336187707608 
84.00365974524398 0.5627253210332795 
85.00365974524398 0.5615923661103076 
86.00365974524398 0.5595447613550337 
87.00365974524398 0.5551355311918792 
88.00365974524398 0.5534570243659441 
89.00365974524398 0.5497507547166895 
90.00365974524398 0.5423961386559139 
91.00365974524398 0.5607207248576568 
92.00365974524398 0.5574111502257406 
93.00365974524398 0.6161343076059149 
94.00365974524398 0.6770100384242131 
95.00365974524398 0.7155753097888168 
96.00365974524398 0.777968357666978 
97.00365974524398 0.7928602598143724 
98.00365974524398 0.9441146921945278 
99.00365974524398 0.956460604450787 
100.00365974524398 1.0234340686895893 
101.00365974524398 1.191140970724673 
102.00365974524398 1.105295717561149 
103.00365974524398 1.1143604453821803 
104.00365974524398 1.2001510119573982 
105.00365974524398 1.0106838785440313 
106.00365974524398 1.101136173044045 
107.00365974524398 0.9402131379821124 
108.00365974524398 1.227234247944531 
109.00365974524398 0.9983502507201409 
110.00365974524398 1.0186452506220736 
111.00365974524398 0.9636692313281194 
112.00365974524398 0.9849197802565441 
113.00365974524398 1.0400328373041587 
114.00365974524398 1.0394331058264143 
115.00365974524398 1.0355178863022245 
116.00365974524398 1.1417738774013393 
117.00365974524398 1.1190625708880722 
118.00365974524398 1.0736592379848908 
119.00365974524398 1.0971707787187888 
120.00365974524398 1.0286136210913233 
121.00365974524398 0.9442567408656625 
122.00365974524398 0.8064558060097954 
123.00365974524398 0.7906767594050105 
124.00365974524398 0.5681949010911495 
125.00365974524398 0.7036554867954594 
126.00365974524398 0.5037142050505758 
127.00365974524398 0.5068606993388509 
128.00365974524397 0.4381458618097294 
129.00365974524397 0.46630564782246325 
130.00365974524397 0.4866096818512213 
131.00365974524397 0.5130716547663462 
132.00365974524397 0.4684312357793743 
133.00365974524397 0.46895540241003897 
134.00365974524397 0.4240503490873261 
135.00365974524397 0.42413515917202854 
136.00365974524397 0.4237576535270962 
137.00365974524397 0.4247594420098438 
138.00365974524397 0.4247594420098438 
139.00365974524397 0.42529891476295656 
140.00365974524397 0.42529891476295656 
141.00365974524397 0.42529891476295656 
142.00365974524397 0.42529891476295656 
143.00365974524397 0.42529891476295656 
144.00365974524397 0.42529891476295656 
145.00365974524397 0.42529891476295656 
146.00365974524397 0.42529891476295656 
147.00365974524397 0.42529891476295656 
148.00365974524397 0.42529891476295656 
149.00365974524397 0.42529891476295656 
150.00365974524397 0.42529891476295656 
151.00365974524397 0.42529891476295656 
152.00365974524397 0.42529891476295656 
153.00365974524397 0.42529891476295656 
154.00365974524397 0.42529891476295656 
155.00365974524397 0.42529891476295656 
156.00365974524397 0.42529891476295656 
157.00365974524397 0.42529891476295656 
158.00365974524397 0.42529891476295656 
159.00365974524397 0.42529891476295656 
160.00365974524397 0.42529891476295656 
161.00365974524397 0.42529891476295656 
162.00365974524397 0.42529891476295656 
163.00365974524397 0.42529891476295656 
164.00365974524397 0.42529891476295656 
165.00365974524397 0.42529891476295656 
166.00365974524397 0.42529891476295656 
167.00365974524397 0.42529891476295656 
168.00365974524397 0.42529891476295656 
169.00365974524397 0.42529891476295656 
170.00365974524397 0.42529891476295656 
171.00365974524397 0.42529891476295656 
172.00365974524397 0.42529891476295656 
173.00365974524397 0.42529891476295656 
174.00365974524397 0.42529891476295656 
175.00365974524397 0.42529891476295656 
176.00365974524397 0.42529891476295656 
177.00365974524397 0.42529891476295656 
178.00365974524397 0.42529891476295656 
179.00365974524397 0.42529891476295656 
180.00365974524397 0.42529891476295656 
181.00365974524397 0.42529891476295656 
182.00365974524397 0.42529891476295656 
183.00365974524397 0.42529891476295656 
184.00365974524397 0.42529891476295656 
185.00365974524397 0.42529891476295656 
186.00365974524397 0.42529891476295656 
187.00365974524397 0.42529891476295656 
188.00365974524397 0.42529891476295656 
189.00365974524397 0.42529891476295656 
190.00365974524397 0.42529891476295656 
191.00365974524397 0.42529891476295656 
192.00365974524397 0.42529891476295656 
193.00365974524397 0.42529891476295656 
194.00365974524397 0.42529891476295656 
195.00365974524397 0.42529891476295656 
196.00365974524397 0.42529891476295656 
197.00365974524397 0.42529891476295656 
198.00365974524397 0.42529891476295656 
199.00365974524397 0.42529891476295656 
200.00365974524397 0.42529891476295656 
#####################################################################
# End of data export. Simulation finished at: 2017-05-26T00:50+0000 #
#####################################################################
