#####################################################################
# Alchemist log file - simulation started at: 2017-05-24T15:17+0000 #
#####################################################################
# random = 7.0, targets = 1.0, density = 2.519842099789746, gridShift = 1.0, perturbation = 0.0, connfactor = 1.5
#
# The columns have the following meaning: 
# time se[Mean] 
0.0 NaN 
1.001616958347866 NaN 
2.0016169583478662 1.0246710526315792 
3.0016169583478662 1.0370065789473686 
4.001616958347866 1.0889071637426904 
5.001616958347866 1.1161366959064323 
6.001616958347866 1.1253654970760225 
7.001616958347866 1.2260599415204674 
8.001616958347867 1.0734649122807014 
9.001616958347867 1.2979714912280713 
10.001616958347867 1.0503472222222223 
11.001616958347867 1.1618238304093564 
12.001616958347867 1.0693530701754388 
13.001616958347867 1.0 
14.001616958347867 1.0 
15.001616958347867 1.0 
16.001616958347867 1.0 
17.001616958347867 1.0 
18.001616958347867 1.0 
19.001616958347867 1.0 
20.001616958347867 1.0 
21.001616958347867 1.0 
22.001616958347867 1.0 
23.001616958347867 1.0 
24.001616958347867 1.0 
25.001616958347867 1.0 
26.001616958347867 1.0 
27.001616958347867 1.0 
28.001616958347867 1.0 
29.001616958347867 1.0 
30.001616958347867 1.0 
31.001616958347867 1.0 
32.00161695834787 1.0 
33.00161695834787 1.0 
34.00161695834787 1.0 
35.00161695834787 1.0 
36.00161695834787 1.0 
37.00161695834787 1.0 
38.00161695834787 1.0 
39.00161695834787 1.0 
40.00161695834787 1.0 
41.00161695834787 1.0 
42.00161695834787 1.0 
43.00161695834787 1.0 
44.00161695834787 1.0 
45.00161695834787 1.0 
#####################################################################
# End of data export. Simulation finished at: 2017-05-24T15:17+0000 #
#####################################################################
