0.000000000000000000e+00 nan
1.000162703339847248e+00 1.903989801853255837e-01
2.000325406679694495e+00 9.565031858589690961e-01
3.000488110019544408e+00 9.597096992105016433e-01
4.000650813359388991e+00 9.547029029770700559e-01
5.000813516699238015e+00 9.521204589617480174e-01
6.000976220039088815e+00 9.468066030000460431e-01
7.001138923378932510e+00 9.383960957436173755e-01
8.001301626718777982e+00 9.334451954220945868e-01
9.001464330058629670e+00 9.264033969951647185e-01
1.000162703339847603e+01 9.147005752681206525e-01
1.100178973673831884e+01 9.079865546107313001e-01
1.200195244007817763e+01 8.977663525589772986e-01
1.300211514341801866e+01 8.868846221807572539e-01
1.400227784675786502e+01 8.718621693707793163e-01
1.500244055009771316e+01 8.566172637652035293e-01
1.600260325343755596e+01 8.535972483911694608e-01
1.700276595677740588e+01 8.424342707594643098e-01
1.800292866011725934e+01 8.348477314509863412e-01
1.900309136345709149e+01 8.284461833516219009e-01
2.000325406679695206e+01 8.335837766693309225e-01
2.100341677013680908e+01 8.351566247200310489e-01
2.200357947347663767e+01 8.365593805474678124e-01
2.300374217681649824e+01 8.386460625857951046e-01
2.400390488015635526e+01 8.414532760379329623e-01
2.500406758349618386e+01 8.392293081003132649e-01
2.600423028683603732e+01 8.382633331421861511e-01
2.700439299017588013e+01 8.392961065282205091e-01
2.800455569351573004e+01 8.413269585264638861e-01
2.900471839685557285e+01 8.408404082410004809e-01
3.000488110019542631e+01 8.427498834276495598e-01
3.100504380353527267e+01 8.443819102172850366e-01
3.200520650687511193e+01 8.445206344157919487e-01
3.300536921021497250e+01 8.446593586142987498e-01
3.400553191355481175e+01 8.449368070113123519e-01
3.500569461689463679e+01 8.450755312098191530e-01
3.600585732023451868e+01 8.450755312098191530e-01
3.700602002357435794e+01 8.450755312098191530e-01
3.800618272691418298e+01 8.450755312098191530e-01
3.900634543025407197e+01 8.450755312098191530e-01
4.000650813359390412e+01 8.450755312098191530e-01
4.100667083693372916e+01 8.450755312098191530e-01
