0.000000000000000000e+00 nan
2.220446049250313081e-16 1.024995831779345375e-33
4.440892098500626162e-16 2.219154050198426098e-01
0.000000000000000000e+00 2.401618905422996109e-01
8.881784197001252323e-16 2.671694765000015570e-01
8.881784197001252323e-16 2.671753083938999684e-01
0.000000000000000000e+00 3.440151378322704456e-01
1.776356839400250465e-15 4.828387041355906573e-01
1.776356839400250465e-15 7.639845314759801109e-01
5.329070518200751394e-15 9.670689031179861006e-01
1.776356839400250465e-15 9.142743580455814367e-01
5.329070518200751394e-15 1.068114256753191826e+00
0.000000000000000000e+00 8.350778439193812241e-01
3.552713678800500929e-15 7.908613345420919538e-01
3.552713678800500929e-15 6.262527005944431568e-01
3.552713678800500929e-15 5.414421625172518571e-01
3.552713678800500929e-15 4.396294955439632446e-01
7.105427357601001859e-15 4.229728969367551605e-01
1.065814103640150279e-14 4.856588411144326378e-01
0.000000000000000000e+00 4.392585527439831772e-01
3.552713678800500929e-15 4.872550891951730190e-01
7.105427357601001859e-15 4.231672151149565853e-01
1.065814103640150279e-14 4.537082871697139530e-01
1.065814103640150279e-14 3.918563532138286121e-01
0.000000000000000000e+00 4.274096319488947526e-01
7.105427357601001859e-15 3.447266532999473387e-01
7.105427357601001859e-15 3.816200026357824959e-01
1.421085471520200372e-14 3.917099511296540659e-01
7.105427357601001859e-15 3.072899719933429030e-01
0.000000000000000000e+00 3.830569922471545596e-01
7.105427357601001859e-15 2.714902101044173177e-01
1.421085471520200372e-14 3.733883479153612406e-01
7.105427357601001859e-15 2.566305919174642902e-01
1.421085471520200372e-14 3.693553507061049790e-01
1.421085471520200372e-14 2.496928958974883594e-01
7.105427357601001859e-15 3.097198666539606737e-01
2.131628207280300558e-14 2.585548916387639395e-01
1.421085471520200372e-14 3.011937709916036043e-01
0.000000000000000000e+00 2.878513585090152760e-01
0.000000000000000000e+00 3.101698167073571044e-01
7.105427357601001859e-15 3.478457810575358300e-01
2.131628207280300558e-14 3.519031987982627618e-01
1.421085471520200372e-14 3.952361433884703512e-01
2.131628207280300558e-14 4.352888578356416405e-01
2.131628207280300558e-14 4.865722978509153251e-01
7.105427357601001859e-15 5.433272044663095546e-01
2.131628207280300558e-14 5.996976914639694511e-01
7.105427357601001859e-15 6.615172310009924672e-01
0.000000000000000000e+00 7.248130570703604780e-01
0.000000000000000000e+00 7.808191234991070928e-01
1.421085471520200372e-14 8.390518993392439562e-01
7.105427357601001859e-15 9.188836151314053735e-01
1.421085471520200372e-14 9.560650252369691238e-01
2.842170943040400743e-14 1.018861791770098169e+00
2.842170943040400743e-14 1.023295255159227590e+00
1.421085471520200372e-14 1.010285048361383442e+00
1.421085471520200372e-14 9.914181566289558267e-01
7.105427357601001859e-15 9.585644552717512701e-01
0.000000000000000000e+00 9.617507244587917281e-01
7.105427357601001859e-15 8.736764152269753669e-01
1.421085471520200372e-14 8.298715810899754963e-01
1.421085471520200372e-14 7.323845896208124318e-01
2.842170943040400743e-14 6.380462519708206548e-01
3.552713678800500929e-14 5.768890635885655094e-01
1.421085471520200372e-14 5.243706355345569836e-01
1.421085471520200372e-14 4.665827498665009454e-01
2.842170943040400743e-14 4.138661051900454080e-01
2.842170943040400743e-14 4.159025303915891980e-01
2.842170943040400743e-14 3.673265577079073974e-01
2.842170943040400743e-14 3.642867257993143149e-01
1.421085471520200372e-14 3.559913023526842246e-01
1.421085471520200372e-14 3.715799806386168025e-01
4.263256414560601115e-14 3.971278722343108414e-01
4.263256414560601115e-14 3.993931995866130125e-01
2.842170943040400743e-14 3.823326751242839827e-01
1.421085471520200372e-14 4.231361908929755500e-01
0.000000000000000000e+00 4.212287981035211515e-01
0.000000000000000000e+00 3.857670395099951355e-01
0.000000000000000000e+00 4.027123232234585126e-01
0.000000000000000000e+00 4.203037223737866590e-01
1.421085471520200372e-14 3.649275798853272024e-01
2.842170943040400743e-14 3.986401310066308157e-01
4.263256414560601115e-14 3.792052811466526396e-01
1.421085471520200372e-14 3.831739930473834210e-01
2.842170943040400743e-14 3.805598506395428959e-01
2.842170943040400743e-14 4.086919924700834206e-01
4.263256414560601115e-14 4.801410962807001193e-01
5.684341886080801487e-14 8.318885906207167391e-01
4.263256414560601115e-14 1.194571330275312926e+00
2.842170943040400743e-14 1.472918664494699881e+00
1.421085471520200372e-14 1.909541091103106991e+00
1.421085471520200372e-14 2.738635696888738646e+00
4.263256414560601115e-14 3.355027113258630678e+00
2.842170943040400743e-14 3.692927558530064935e+00
1.421085471520200372e-14 4.805808721284932084e+00
0.000000000000000000e+00 5.698845064878884870e+00
0.000000000000000000e+00 6.930298736927039016e+00
0.000000000000000000e+00 7.880411729142489996e+00
0.000000000000000000e+00 8.668388992047887598e+00
1.421085471520200372e-14 9.952490395844577620e+00
2.842170943040400743e-14 1.085493190298223531e+01
1.421085471520200372e-14 1.213793286919242043e+01
1.421085471520200372e-14 1.253905661521703330e+01
1.421085471520200372e-14 1.288468553258559979e+01
2.842170943040400743e-14 1.395172446768050634e+01
4.263256414560601115e-14 1.462831468523037159e+01
5.684341886080801487e-14 1.585650012020981769e+01
5.684341886080801487e-14 1.715081853788801070e+01
5.684341886080801487e-14 1.798826859468116268e+01
4.263256414560601115e-14 1.894460444639885921e+01
2.842170943040400743e-14 1.855485027781131890e+01
4.263256414560601115e-14 1.828275444057162247e+01
2.842170943040400743e-14 1.728232978105074125e+01
1.421085471520200372e-14 1.633916028160335898e+01
1.421085471520200372e-14 1.516854027907862523e+01
0.000000000000000000e+00 1.355319469426839518e+01
0.000000000000000000e+00 1.272795270377773313e+01
0.000000000000000000e+00 1.194959840709784693e+01
1.421085471520200372e-14 1.177814389566879782e+01
2.842170943040400743e-14 1.154479514942879881e+01
2.842170943040400743e-14 1.072636544245223966e+01
4.263256414560601115e-14 9.682692055636302086e+00
2.842170943040400743e-14 8.540629086219816202e+00
4.263256414560601115e-14 7.442399910047170053e+00
5.684341886080801487e-14 6.333987654838346693e+00
7.105427357601001859e-14 4.922134588955740853e+00
7.105427357601001859e-14 4.168245328935693550e+00
0.000000000000000000e+00 3.225366073438776127e+00
2.842170943040400743e-14 2.946743337744643476e+00
2.842170943040400743e-14 2.619117080257681973e+00
2.842170943040400743e-14 2.644389547539521157e+00
2.842170943040400743e-14 2.805539298830183270e+00
5.684341886080801487e-14 2.884145649533922828e+00
5.684341886080801487e-14 3.128592454169815795e+00
5.684341886080801487e-14 3.194652970603234721e+00
5.684341886080801487e-14 3.078758968224678316e+00
5.684341886080801487e-14 2.912437682489311452e+00
5.684341886080801487e-14 2.774502869912067293e+00
5.684341886080801487e-14 2.651002235156064479e+00
2.842170943040400743e-14 2.833090316473273695e+00
2.842170943040400743e-14 2.838982578408801860e+00
2.842170943040400743e-14 3.105220284782617135e+00
2.842170943040400743e-14 3.245436093083718276e+00
2.842170943040400743e-14 3.578753448292441686e+00
8.526512829121202230e-14 3.677807282921750076e+00
8.526512829121202230e-14 3.808846239377103871e+00
8.526512829121202230e-14 4.110550338062328279e+00
5.684341886080801487e-14 4.168065278452556477e+00
5.684341886080801487e-14 4.361846788598599645e+00
2.842170943040400743e-14 4.241817653079254846e+00
2.842170943040400743e-14 3.987063360493459996e+00
0.000000000000000000e+00 4.023618398771320770e+00
0.000000000000000000e+00 3.726517896507124394e+00
0.000000000000000000e+00 3.703057441832446894e+00
0.000000000000000000e+00 3.533726519565482338e+00
0.000000000000000000e+00 3.502051399303927504e+00
0.000000000000000000e+00 3.357222432966881165e+00
0.000000000000000000e+00 3.171368959310232327e+00
0.000000000000000000e+00 3.082347959626139833e+00
2.842170943040400743e-14 2.785421476792844242e+00
2.842170943040400743e-14 2.824714398943237281e+00
5.684341886080801487e-14 3.191855683289893442e+00
5.684341886080801487e-14 2.628725784116829445e+00
5.684341886080801487e-14 1.783944206046967906e+00
8.526512829121202230e-14 3.061305307580903801e+00
8.526512829121202230e-14 2.107510147519592980e+00
2.842170943040400743e-14 2.025328251448058392e+00
2.842170943040400743e-14 1.070344965079802702e+00
5.684341886080801487e-14 1.522894500145326013e+00
5.684341886080801487e-14 1.508064394072196723e+00
5.684341886080801487e-14 1.964716119166808328e+00
8.526512829121202230e-14 2.429106130362926219e+00
8.526512829121202230e-14 1.500780909956462406e+00
1.136868377216160297e-13 1.949418269851353580e+00
1.136868377216160297e-13 1.036141266652499393e+00
1.136868377216160297e-13 1.476793222589896315e+00
8.526512829121202230e-14 1.478939359829068989e+00
8.526512829121202230e-14 1.483355257914382053e+00
5.684341886080801487e-14 1.926775357922531740e+00
5.684341886080801487e-14 1.924831284474538773e+00
2.842170943040400743e-14 1.004707385179013368e+00
2.842170943040400743e-14 1.461730752817420154e+00
2.842170943040400743e-14 5.232691525365508189e-01
8.526512829121202230e-14 9.968181991428561872e-01
8.526512829121202230e-14 1.447856741699504068e+00
5.684341886080801487e-14 5.123969097649543336e-01
5.684341886080801487e-14 9.811237696224998084e-01
5.684341886080801487e-14 1.438580702671362177e+00
2.842170943040400743e-14 9.658980554318118417e-01
2.842170943040400743e-14 9.623289758673305716e-01
0.000000000000000000e+00 9.604856586470105206e-01
0.000000000000000000e+00 9.531710893723577271e-01
0.000000000000000000e+00 9.482427710477226990e-01
0.000000000000000000e+00 4.848909909967562548e-01
0.000000000000000000e+00 1.410227159565471178e+00
0.000000000000000000e+00 9.414896044301230837e-01
0.000000000000000000e+00 9.415363676867788412e-01
2.842170943040400743e-14 9.400434953824766682e-01
2.842170943040400743e-14 4.717199647214261327e-01
2.842170943040400743e-14 1.981011153595798810e-02
5.684341886080801487e-14 4.695920042037188824e-01
5.684341886080801487e-14 4.704968127977237069e-01
2.842170943040400743e-14 9.724564424721230185e-03
8.526512829121202230e-14 4.672449589861583652e-01
2.842170943040400743e-14 4.685582099906857034e-01
5.684341886080801487e-14 9.092356449421854989e-03
2.842170943040400743e-14 4.682810356546772690e-01
8.526512829121202230e-14 3.434160772089111732e-03
5.684341886080801487e-14 4.678874024435210055e-01
1.136868377216160297e-13 4.677822305112853130e-01
8.526512829121202230e-14 1.706047358336522162e-03
1.136868377216160297e-13 4.655042399324664792e-01
1.136868377216160297e-13 1.705063664778499110e-03
1.136868377216160297e-13 4.654814410275847081e-01
1.136868377216160297e-13 1.705017577989642336e-03
8.526512829121202230e-14 4.654783342399385626e-01
1.136868377216160297e-13 4.654783342399384516e-01
0.000000000000000000e+00 1.674445290636764690e-31
8.526512829121202230e-14 1.705017577989642336e-03
2.842170943040400743e-14 1.674445290636764690e-31
5.684341886080801487e-14 1.705017577989642336e-03
2.842170943040400743e-14 1.674445290636764690e-31
8.526512829121202230e-14 1.705017577989642336e-03
2.842170943040400743e-14 1.674445290636764690e-31
5.684341886080801487e-14 1.705017577989642770e-03
0.000000000000000000e+00 1.705017577989642770e-03
2.842170943040400743e-14 1.674445290636764690e-31
2.842170943040400743e-14 1.705017577989642770e-03
2.842170943040400743e-14 1.674445290636764690e-31
8.526512829121202230e-14 1.674445290636764690e-31
0.000000000000000000e+00 1.674445290636764690e-31
2.842170943040400743e-14 1.674445290636764690e-31
0.000000000000000000e+00 1.674445290636764690e-31
2.842170943040400743e-14 1.674445290636764690e-31
0.000000000000000000e+00 1.674445290636764690e-31
8.526512829121202230e-14 1.674445290636764690e-31
2.842170943040400743e-14 1.674445290636764690e-31
5.684341886080801487e-14 1.674445290636764690e-31
5.684341886080801487e-14 1.674445290636764690e-31
2.842170943040400743e-14 1.674445290636764690e-31
5.684341886080801487e-14 1.674445290636764690e-31
0.000000000000000000e+00 1.674445290636764690e-31
8.526512829121202230e-14 1.674445290636764690e-31
2.842170943040400743e-14 1.674445290636764690e-31
5.684341886080801487e-14 1.674445290636764690e-31
2.842170943040400743e-14 1.674445290636764690e-31
8.526512829121202230e-14 1.674445290636764690e-31
2.842170943040400743e-14 1.674445290636764690e-31
1.136868377216160297e-13 1.674445290636764690e-31
0.000000000000000000e+00 1.674445290636764690e-31
1.421085471520200372e-13 1.674445290636764690e-31
1.421085471520200372e-13 1.674445290636764690e-31
1.421085471520200372e-13 1.674445290636764690e-31
1.136868377216160297e-13 1.674445290636764690e-31
0.000000000000000000e+00 1.674445290636764690e-31
8.526512829121202230e-14 1.674445290636764690e-31
5.684341886080801487e-14 1.674445290636764690e-31
1.136868377216160297e-13 1.674445290636764690e-31
5.684341886080801487e-14 1.674445290636764690e-31
5.684341886080801487e-14 1.674445290636764690e-31
5.684341886080801487e-14 1.674445290636764690e-31
5.684341886080801487e-14 1.674445290636764690e-31
5.684341886080801487e-14 1.674445290636764690e-31
5.684341886080801487e-14 1.674445290636764690e-31
1.136868377216160297e-13 1.674445290636764690e-31
0.000000000000000000e+00 1.674445290636764690e-31
1.136868377216160297e-13 1.674445290636764690e-31
0.000000000000000000e+00 1.674445290636764690e-31
1.136868377216160297e-13 1.674445290636764690e-31
0.000000000000000000e+00 1.674445290636764690e-31
1.136868377216160297e-13 1.674445290636764690e-31
0.000000000000000000e+00 1.674445290636764690e-31
1.136868377216160297e-13 1.674445290636764690e-31
0.000000000000000000e+00 1.674445290636764690e-31
1.136868377216160297e-13 1.674445290636764690e-31
0.000000000000000000e+00 1.674445290636764690e-31
1.136868377216160297e-13 1.674445290636764690e-31
0.000000000000000000e+00 1.674445290636764690e-31
5.684341886080801487e-14 1.674445290636764690e-31
5.684341886080801487e-14 1.674445290636764690e-31
5.684341886080801487e-14 1.674445290636764690e-31
5.684341886080801487e-14 1.674445290636764690e-31
5.684341886080801487e-14 1.674445290636764690e-31
1.136868377216160297e-13 1.674445290636764690e-31
5.684341886080801487e-14 1.674445290636764690e-31
1.136868377216160297e-13 1.674445290636764690e-31
5.684341886080801487e-14 1.674445290636764690e-31
1.136868377216160297e-13 1.674445290636764690e-31
1.705302565824240446e-13 1.674445290636764690e-31
1.705302565824240446e-13 1.674445290636764690e-31
1.705302565824240446e-13 1.674445290636764690e-31
1.705302565824240446e-13 1.674445290636764690e-31
1.705302565824240446e-13 1.674445290636764690e-31
5.684341886080801487e-14 1.674445290636764690e-31
1.136868377216160297e-13 1.674445290636764690e-31
5.684341886080801487e-14 1.674445290636764690e-31
1.136868377216160297e-13 1.674445290636764690e-31
5.684341886080801487e-14 1.674445290636764690e-31
5.684341886080801487e-14 1.674445290636764690e-31
1.136868377216160297e-13 1.674445290636764690e-31
5.684341886080801487e-14 1.674445290636764690e-31
1.136868377216160297e-13 1.674445290636764690e-31
0.000000000000000000e+00 1.674445290636764690e-31
1.705302565824240446e-13 1.674445290636764690e-31
0.000000000000000000e+00 1.674445290636764690e-31
1.705302565824240446e-13 1.674445290636764690e-31
0.000000000000000000e+00 1.674445290636764690e-31
1.136868377216160297e-13 1.674445290636764690e-31
0.000000000000000000e+00 1.674445290636764690e-31
1.136868377216160297e-13 1.674445290636764690e-31
0.000000000000000000e+00 1.674445290636764690e-31
1.136868377216160297e-13 1.674445290636764690e-31
0.000000000000000000e+00 1.674445290636764690e-31
1.705302565824240446e-13 1.674445290636764690e-31
0.000000000000000000e+00 1.674445290636764690e-31
