#####################################################################
# Alchemist log file - simulation started at: 2017-05-26T00:49+0000 #
#####################################################################
# random = 19.0, targets = 31.622776601683793, density = 7.099073319511142, gridShift = 0.0, perturbation = 0.0, connfactor = 2.0
#
# The columns have the following meaning: 
# time se[Mean] 
0.0 NaN 
1.0036597452439835 NaN 
2.0036597452439837 1.0512265960931921 
3.0036597452439837 1.0795651733691458 
4.003659745243984 1.1054990330372934 
5.003659745243984 1.1335163460947209 
6.003659745243984 1.1673854738844693 
7.003659745243984 1.2223856156588864 
8.003659745243983 1.229926918584627 
9.003659745243983 1.2428096383324587 
10.003659745243983 1.2185117839105628 
11.003659745243983 1.2075483830199927 
12.003659745243983 1.1540645077257128 
13.003659745243983 1.1707787282541287 
14.003659745243983 1.146788408467448 
15.003659745243983 1.1553247682622325 
16.003659745243983 1.1805110482861552 
17.003659745243983 1.225262382813688 
18.003659745243983 1.2547977886074573 
19.003659745243983 1.2950269617303647 
20.003659745243983 1.3162080562005125 
21.003659745243983 1.3216477628196643 
22.003659745243983 1.2992601392053857 
23.003659745243983 1.2652111992061479 
24.003659745243983 1.163381203303222 
25.003659745243983 1.0825719845115085 
26.003659745243983 1.0129228490590525 
27.003659745243983 0.9486232145213659 
28.003659745243983 0.9043799825183616 
29.003659745243983 0.8970816170953836 
30.003659745243983 0.8928300651326913 
31.003659745243983 0.8814366354018502 
32.00365974524398 0.8793446790444313 
33.00365974524398 0.8621587670173223 
34.00365974524398 0.8501340858985 
35.00365974524398 0.8328148903719373 
36.00365974524398 0.8239334404436242 
37.00365974524398 0.8091777489302809 
38.00365974524398 0.799657596020882 
39.00365974524398 0.7913931214426931 
40.00365974524398 0.7836553550811033 
41.00365974524398 0.7754034185390152 
42.00365974524398 0.7700243846207052 
43.00365974524398 0.7621951804899203 
44.00365974524398 0.7518161295163669 
45.00365974524398 0.7460820209828418 
46.00365974524398 0.734132212808162 
47.00365974524398 0.7281466050999874 
48.00365974524398 0.7142355118279323 
49.00365974524398 0.7016618098738019 
50.00365974524398 0.6875867831007533 
51.00365974524398 0.6724871758708417 
52.00365974524398 0.6590166223528194 
53.00365974524398 0.6436503628930347 
54.00365974524398 0.6316155982399388 
55.00365974524398 0.6190193157432015 
56.00365974524398 0.6060071987881075 
57.00365974524398 0.5958758696716111 
58.00365974524398 0.584659917587996 
59.00365974524398 0.5736498059358824 
60.00365974524398 0.5630912178435991 
61.00365974524398 0.552865368776875 
62.00365974524398 0.5417470907983469 
63.00365974524398 0.5300767080272796 
64.00365974524398 0.5195096640454624 
65.00365974524398 0.50797615092811 
66.00365974524398 0.4952229755313149 
67.00365974524398 0.4850911542206167 
68.00365974524398 0.476384644986448 
69.00365974524398 0.46833674468472275 
70.00365974524398 0.4570650489412693 
71.00365974524398 0.4502546807842562 
72.00365974524398 0.44538911253360347 
73.00365974524398 0.4361138093512566 
74.00365974524398 0.428696100931543 
75.00365974524398 0.4257070051951229 
76.00365974524398 0.4181445341923463 
77.00365974524398 0.41957728917369386 
78.00365974524398 0.4179766450654225 
79.00365974524398 0.417870514413882 
80.00365974524398 0.4145982748171473 
81.00365974524398 0.40745192579300565 
82.00365974524398 0.3971287095787732 
83.00365974524398 0.38704971726940385 
84.00365974524398 0.36587326143876425 
85.00365974524398 0.3608196397632862 
86.00365974524398 0.3310736589165898 
87.00365974524398 0.3308359528810603 
88.00365974524398 0.31642943004303525 
89.00365974524398 0.3115439592155921 
90.00365974524398 0.30905718019475586 
91.00365974524398 0.30771160621003707 
92.00365974524398 0.30671595827071607 
93.00365974524398 0.30360951378375545 
94.00365974524398 0.3025509197253243 
95.00365974524398 0.3002389633645914 
96.00365974524398 0.2896570459742215 
97.00365974524398 0.28106632451564556 
98.00365974524398 0.2701672902074944 
99.00365974524398 0.2544850747873572 
100.00365974524398 0.24610159762032197 
101.00365974524398 0.23535428609332062 
102.00365974524398 0.2328073921416219 
103.00365974524398 0.22239435970746232 
104.00365974524398 0.21975809228231605 
105.00365974524398 0.21944885594843713 
106.00365974524398 0.2156745590941089 
107.00365974524398 0.21746065701195952 
108.00365974524398 0.21648259225757358 
109.00365974524398 0.21737088086479311 
110.00365974524398 0.2172783298413847 
111.00365974524398 0.21664831170730833 
112.00365974524398 0.217286210348344 
113.00365974524398 0.21613365825691666 
114.00365974524398 0.21587870102112994 
115.00365974524398 0.21584770257258626 
116.00365974524398 0.21503818520961898 
117.00365974524398 0.21487502360575264 
118.00365974524398 0.2144524501793158 
119.00365974524398 0.21423146569190413 
120.00365974524398 0.21399489399863747 
121.00365974524398 0.21391024477069415 
122.00365974524398 0.2138255955427508 
123.00365974524398 0.2138255955427508 
124.00365974524398 0.2138255955427508 
125.00365974524398 0.2138255955427508 
126.00365974524398 0.2138255955427508 
127.00365974524398 0.2138255955427508 
128.00365974524397 0.2138255955427508 
129.00365974524397 0.2138255955427508 
130.00365974524397 0.2138255955427508 
131.00365974524397 0.2138255955427508 
132.00365974524397 0.2138255955427508 
133.00365974524397 0.2138255955427508 
134.00365974524397 0.2138255955427508 
135.00365974524397 0.2138255955427508 
136.00365974524397 0.2138255955427508 
137.00365974524397 0.2138255955427508 
138.00365974524397 0.2138255955427508 
139.00365974524397 0.2138255955427508 
140.00365974524397 0.2138255955427508 
141.00365974524397 0.2138255955427508 
142.00365974524397 0.2138255955427508 
143.00365974524397 0.2138255955427508 
144.00365974524397 0.2138255955427508 
145.00365974524397 0.2138255955427508 
146.00365974524397 0.2138255955427508 
147.00365974524397 0.2138255955427508 
148.00365974524397 0.2138255955427508 
149.00365974524397 0.2138255955427508 
150.00365974524397 0.2138255955427508 
151.00365974524397 0.2138255955427508 
152.00365974524397 0.2138255955427508 
153.00365974524397 0.2138255955427508 
154.00365974524397 0.2138255955427508 
155.00365974524397 0.2138255955427508 
156.00365974524397 0.2138255955427508 
157.00365974524397 0.2138255955427508 
158.00365974524397 0.2138255955427508 
159.00365974524397 0.2138255955427508 
160.00365974524397 0.2138255955427508 
161.00365974524397 0.2138255955427508 
162.00365974524397 0.2138255955427508 
163.00365974524397 0.2138255955427508 
164.00365974524397 0.2138255955427508 
165.00365974524397 0.2138255955427508 
166.00365974524397 0.2138255955427508 
167.00365974524397 0.2138255955427508 
168.00365974524397 0.2138255955427508 
169.00365974524397 0.2138255955427508 
170.00365974524397 0.2138255955427508 
171.00365974524397 0.2138255955427508 
172.00365974524397 0.2138255955427508 
173.00365974524397 0.2138255955427508 
174.00365974524397 0.2138255955427508 
175.00365974524397 0.2138255955427508 
176.00365974524397 0.2138255955427508 
177.00365974524397 0.2138255955427508 
178.00365974524397 0.2138255955427508 
179.00365974524397 0.2138255955427508 
180.00365974524397 0.2138255955427508 
181.00365974524397 0.2138255955427508 
182.00365974524397 0.2138255955427508 
183.00365974524397 0.2138255955427508 
184.00365974524397 0.2138255955427508 
#####################################################################
# End of data export. Simulation finished at: 2017-05-26T00:50+0000 #
#####################################################################
