#####################################################################
# Alchemist log file - simulation started at: 2017-05-26T00:34+0000 #
#####################################################################
# random = 19.0, targets = 31.622776601683793, density = 0.3174802103936399, gridShift = 0.0, perturbation = 0.0, connfactor = 0.5
#
# The columns have the following meaning: 
# time se[Mean] 
0.0 NaN 
1.029399693434633 NaN 
2.029399693434633 1.0359924476834883 
3.029399693434633 1.0699314600648326 
4.029399693434633 1.0958622679167112 
5.029399693434633 1.0826525593940397 
6.029399693434633 1.0505801984941987 
7.029399693434633 1.0458741442284425 
8.029399693434634 1.0197067264352426 
9.029399693434634 1.012465744091996 
10.029399693434634 1.003743866117144 
11.029399693434634 0.9892117691755203 
12.029399693434634 0.9862893694427012 
13.029399693434634 0.9778186781927526 
14.029399693434634 0.9492667027684389 
15.029399693434634 0.9225950145181226 
16.029399693434634 0.8620745975611922 
17.029399693434634 0.8233481780764647 
18.029399693434634 0.7849456664890825 
19.029399693434634 0.7535400745007407 
20.029399693434634 0.7224155255242933 
21.029399693434634 0.6872497031353033 
22.029399693434634 0.6435118365747312 
23.029399693434634 0.6385602115802569 
24.029399693434634 0.6376319614112941 
25.029399693434634 0.6532231510954213 
26.029399693434634 0.6569342469013594 
27.029399693434634 0.6547377239477015 
28.029399693434634 0.6554910572450319 
29.029399693434634 0.6554910572450319 
30.029399693434634 0.6565266807797945 
31.029399693434634 0.6565266807797945 
32.029399693434634 0.6565266807797945 
33.029399693434634 0.6565266807797945 
34.029399693434634 0.6565266807797945 
35.029399693434634 0.6565266807797945 
36.029399693434634 0.6565266807797945 
37.029399693434634 0.6565266807797945 
38.029399693434634 0.6565266807797945 
39.029399693434634 0.6565266807797945 
40.029399693434634 0.6565266807797945 
41.029399693434634 0.6565266807797945 
#####################################################################
# End of data export. Simulation finished at: 2017-05-26T00:34+0000 #
#####################################################################
