#####################################################################
# Alchemist log file - simulation started at: 2017-05-21T06:01+0000 #
#####################################################################
# random = 2.0, targets = 3.1622776601683795, density = 7.099073319511142, gridShift = 0.0, perturbation = 0.5, connfactor = 1.5
#
# The columns have the following meaning: 
# time se[Mean] 
0.0 NaN 
1.0021051854459069 NaN 
2.002105185445907 1.0026114369848227 
3.002105185445907 1.0023755892604496 
4.002105185445907 1.020814439946411 
5.002105185445907 1.0615283270217217 
6.002105185445907 1.0825678909085625 
7.002105185445907 1.2066167490138986 
8.002105185445906 1.1607652135040956 
9.002105185445906 1.1960612986723396 
10.002105185445906 1.1436403816551013 
11.002105185445906 1.0871706914433983 
12.002105185445906 1.0294552849776413 
13.002105185445906 1.010565066766303 
14.002105185445906 0.9820615798482698 
15.002105185445906 0.9754796084827015 
16.002105185445906 0.9685053338788926 
17.002105185445906 0.9638862285369864 
18.002105185445906 0.9579526875627487 
19.002105185445906 0.9570261711228394 
20.002105185445906 0.9559575120744939 
21.002105185445906 0.9540496559264628 
22.002105185445906 0.9513963538322728 
23.002105185445906 0.9487666416056914 
24.002105185445906 0.9449183896570926 
25.002105185445906 0.9407252468504791 
26.002105185445906 0.9397652116833478 
27.002105185445906 0.9365966259837459 
28.002105185445906 0.9324831565272989 
29.002105185445906 0.9388877435099117 
30.002105185445906 0.9796047955401567 
31.002105185445906 0.9504622957628008 
32.002105185445906 0.9915754243031315 
33.002105185445906 0.994812920902559 
34.002105185445906 1.0063068182735342 
35.002105185445906 1.0090349953337725 
36.002105185445906 1.006689616818716 
37.002105185445906 1.0252311733572588 
38.002105185445906 1.0199209364668635 
39.002105185445906 0.9948013758132073 
40.002105185445906 1.0202643418367157 
41.002105185445906 0.9570194514453048 
42.002105185445906 1.0476993636850127 
43.002105185445906 0.9805906967198793 
44.002105185445906 1.0232520025265248 
45.002105185445906 1.044718702001954 
46.002105185445906 0.9572757191682251 
47.002105185445906 0.9729952020090462 
48.002105185445906 0.9304559386183487 
49.002105185445906 0.929555530017675 
50.002105185445906 0.919924264751819 
51.002105185445906 0.9197431918010052 
52.002105185445906 0.9338842792589278 
53.002105185445906 0.9180058180184852 
54.002105185445906 0.9280490987578516 
55.002105185445906 0.9295731846572064 
56.002105185445906 0.9459483976922763 
57.002105185445906 0.9481523603720646 
58.002105185445906 0.954297342811784 
59.002105185445906 0.9708399481331634 
60.002105185445906 0.977404206536294 
61.002105185445906 0.9726370890519709 
62.002105185445906 0.9804728443711398 
63.002105185445906 0.9885333191206939 
64.00210518544591 0.9876922099092283 
65.00210518544591 1.0005423883653946 
66.00210518544591 1.0046879033462188 
67.00210518544591 1.0037835925425695 
68.00210518544591 1.0042130601419823 
69.00210518544591 1.005984432037503 
70.00210518544591 1.0139818267548137 
71.00210518544591 1.0139673690120434 
72.00210518544591 1.0158414952547978 
73.00210518544591 1.0176186108568503 
74.00210518544591 1.0126209651881315 
75.00210518544591 1.014165999613083 
76.00210518544591 1.0180804455971444 
77.00210518544591 1.0179584467617215 
78.00210518544591 1.017387777608777 
79.00210518544591 1.0176357787394117 
80.00210518544591 1.0145077279732264 
81.00210518544591 1.0117635419879583 
82.00210518544591 1.0090913176687013 
83.00210518544591 1.009623870413488 
84.00210518544591 1.0110362497236174 
85.00210518544591 1.020158364858259 
86.00210518544591 1.020664819592064 
87.00210518544591 1.0230338413835087 
88.00210518544591 1.0526898145579278 
89.00210518544591 1.0746822740353215 
90.00210518544591 1.070950865876014 
91.00210518544591 1.1035316836482139 
92.00210518544591 1.1318958319832255 
93.00210518544591 1.154473867093525 
94.00210518544591 1.1728025500872021 
95.00210518544591 1.4836828874369727 
96.00210518544591 3.2678617519179602 
97.00210518544591 2.1134731981672545 
98.00210518544591 3.593527356269828 
99.00210518544591 4.177132650712526 
100.00210518544591 4.494495663460535 
101.00210518544591 4.8473212936913335 
102.00210518544591 4.812983098933411 
103.00210518544591 5.726458809640982 
104.00210518544591 5.7845017598459805 
105.00210518544591 4.917890991347682 
106.00210518544591 6.137408178157252 
107.00210518544591 4.169829317913796 
108.00210518544591 7.72981947295617 
109.00210518544591 6.041463202635568 
110.00210518544591 6.685869679776714 
111.00210518544591 9.333579825309766 
112.00210518544591 7.892432990917573 
113.00210518544591 6.823189032156287 
114.00210518544591 7.447948709474733 
115.00210518544591 8.616746032754058 
116.00210518544591 8.298838441492883 
117.00210518544591 8.658048517390307 
118.00210518544591 8.671771608109056 
119.00210518544591 7.878176031244444 
120.00210518544591 9.354725194827225 
121.00210518544591 10.964080185933888 
122.00210518544591 11.247344305114162 
123.00210518544591 10.049474510144758 
124.00210518544591 10.37929383528976 
125.00210518544591 8.985945228365535 
126.00210518544591 9.033877390172577 
127.00210518544591 9.001169200616197 
128.0021051854459 9.623475246296152 
129.0021051854459 10.500309573560278 
130.0021051854459 8.08445472818076 
131.0021051854459 7.917148086132882 
132.0021051854459 9.021120422057558 
133.0021051854459 7.99157249703591 
134.0021051854459 7.561234745444117 
135.0021051854459 5.79765175706694 
136.0021051854459 6.469864596673246 
137.0021051854459 3.774116120186556 
138.0021051854459 3.179361339198458 
139.0021051854459 3.498466490360851 
140.0021051854459 3.8222882350811718 
141.0021051854459 2.590087217332925 
142.0021051854459 2.315011576927313 
143.0021051854459 2.3269252861599377 
144.0021051854459 2.228896775437897 
145.0021051854459 2.275331434303076 
146.0021051854459 2.2825305154983186 
147.0021051854459 2.2586310334636237 
148.0021051854459 2.1137700158243686 
149.0021051854459 2.126673544345903 
150.0021051854459 2.060815752948458 
151.0021051854459 2.0464438948328794 
152.0021051854459 2.0170827415947934 
153.0021051854459 2.0342927529413477 
154.0021051854459 2.0855007794108613 
155.0021051854459 1.9736282306280015 
156.0021051854459 1.977464588196432 
157.0021051854459 2.033955401255831 
158.0021051854459 1.9837240468518977 
159.0021051854459 1.9699823414288256 
160.0021051854459 1.89268104338815 
161.0021051854459 1.9207565684980585 
162.0021051854459 1.8002175444200714 
163.0021051854459 1.7735034480702936 
164.0021051854459 1.787186086749166 
165.0021051854459 1.800868725428038 
166.0021051854459 1.7461381707125487 
167.0021051854459 1.7324555320336767 
168.0021051854459 1.7324555320336767 
169.0021051854459 1.7324555320336767 
170.0021051854459 1.7324555320336767 
171.0021051854459 1.7324555320336767 
172.0021051854459 1.7324555320336767 
173.0021051854459 1.7324555320336767 
174.0021051854459 1.7324555320336767 
175.0021051854459 1.7324555320336767 
176.0021051854459 1.7324555320336767 
177.0021051854459 1.7324555320336767 
178.0021051854459 1.7324555320336767 
179.0021051854459 1.7324555320336767 
180.0021051854459 1.7324555320336767 
181.0021051854459 1.7324555320336767 
182.0021051854459 1.7324555320336767 
183.0021051854459 1.7324555320336767 
184.0021051854459 1.7324555320336767 
185.0021051854459 1.7324555320336767 
186.0021051854459 1.7324555320336767 
187.0021051854459 1.7324555320336767 
188.0021051854459 1.7324555320336767 
189.0021051854459 1.7324555320336767 
190.0021051854459 1.7324555320336767 
191.0021051854459 1.7324555320336767 
192.0021051854459 1.7324555320336767 
193.0021051854459 1.7324555320336767 
194.0021051854459 1.7324555320336767 
195.0021051854459 1.7324555320336767 
196.0021051854459 1.7324555320336767 
197.0021051854459 1.7324555320336767 
198.0021051854459 1.7324555320336767 
199.0021051854459 1.7324555320336767 
200.0021051854459 1.7324555320336767 
201.0021051854459 1.7324555320336767 
202.0021051854459 1.7324555320336767 
203.0021051854459 1.7324555320336767 
204.0021051854459 1.7324555320336767 
205.0021051854459 1.7324555320336767 
206.0021051854459 1.7324555320336767 
207.0021051854459 1.7324555320336767 
208.0021051854459 1.7324555320336767 
209.0021051854459 1.7324555320336767 
210.0021051854459 1.7324555320336767 
211.0021051854459 1.7324555320336767 
212.0021051854459 1.7324555320336767 
213.0021051854459 1.7324555320336767 
214.0021051854459 1.7324555320336767 
215.0021051854459 1.7324555320336767 
216.0021051854459 1.7324555320336767 
217.0021051854459 1.7324555320336767 
218.0021051854459 1.7324555320336767 
219.0021051854459 1.7324555320336767 
220.0021051854459 1.7324555320336767 
221.0021051854459 1.7324555320336767 
222.0021051854459 1.7324555320336767 
223.0021051854459 1.7324555320336767 
224.0021051854459 1.7324555320336767 
225.0021051854459 1.7324555320336767 
226.0021051854459 1.7324555320336767 
227.0021051854459 1.7324555320336767 
228.0021051854459 1.7324555320336767 
#####################################################################
# End of data export. Simulation finished at: 2017-05-21T06:04+0000 #
#####################################################################
