#####################################################################
# Alchemist log file - simulation started at: 2017-05-22T12:23+0000 #
#####################################################################
# random = 4.0, targets = 1.0, density = 0.1591589639397027, gridShift = 0.0, perturbation = 0.0, connfactor = 0.5
#
# The columns have the following meaning: 
# time se[Mean] 
0.0 NaN 
1.007462068749906 NaN 
2.007462068749906 1.0 
3.007462068749906 0.97 
4.007462068749906 0.81 
5.007462068749906 0.6399999999999999 
6.007462068749906 0.3899999999999999 
7.007462068749906 0.11999999999999995 
8.007462068749906 0.02 
9.007462068749906 0.0 
10.007462068749906 0.0 
11.007462068749906 0.0 
12.007462068749906 0.0 
13.007462068749906 0.0 
14.007462068749906 0.0 
15.007462068749906 0.0 
16.007462068749906 0.0 
#####################################################################
# End of data export. Simulation finished at: 2017-05-22T12:23+0000 #
#####################################################################
