#####################################################################
# Alchemist log file - simulation started at: 2017-05-23T07:52+0000 #
#####################################################################
# random = 5.0, targets = 3.1622776601683795, density = 0.894427190999916, gridShift = 1.0, perturbation = 0.0, connfactor = 1.5
#
# The columns have the following meaning: 
# time se[Mean] 
0.0 NaN 
1.0052461206074068 NaN 
2.005246120607407 1.092317172887683 
3.005246120607407 1.167551028494848 
4.005246120607406 1.228437924976863 
5.005246120607406 1.3413106694729167 
6.005246120607406 1.1925022938616083 
7.005246120607406 1.276495918869362 
8.005246120607406 1.179678251893164 
9.005246120607406 1.1427216478696323 
10.005246120607406 0.9581896480346326 
11.005246120607406 0.9864352333436303 
12.005246120607406 0.9257968867017011 
13.005246120607406 0.8699343575363061 
14.005246120607406 0.8719056076343139 
15.005246120607406 0.8576268737851368 
16.005246120607406 0.7951391296811144 
17.005246120607406 0.8385771991333127 
18.005246120607406 0.720185538347116 
19.005246120607406 0.7164014176827221 
20.005246120607406 0.6812503852675609 
21.005246120607406 0.6783556315277555 
22.005246120607406 0.6380730412873509 
23.005246120607406 0.5947738607240416 
24.005246120607406 0.6250272390795695 
25.005246120607406 0.5537018111624714 
26.005246120607406 0.5534386473535395 
27.005246120607406 0.5506657301968337 
28.005246120607406 0.6266990071595334 
29.005246120607406 0.6378076478280709 
30.005246120607406 1.079810788940124 
31.005246120607406 0.8166577320124588 
32.00524612060741 0.8307927002988604 
33.00524612060741 0.4654880205506294 
34.00524612060741 0.7675447890226245 
35.00524612060741 0.6412484927263283 
36.00524612060741 0.6162241575153385 
37.00524612060741 1.0914901770344043 
38.00524612060741 0.9558591132976756 
39.00524612060741 0.49862206842001255 
40.00524612060741 1.1966050357157887 
41.00524612060741 0.7505522038990967 
42.00524612060741 0.39626123020675696 
43.00524612060741 0.8106206218088496 
44.00524612060741 0.35896110962486305 
45.00524612060741 0.7741515406986809 
46.00524612060741 0.23462146551054405 
47.00524612060741 0.20355424446441578 
48.00524612060741 0.10537200775750392 
49.00524612060741 0.07830572672996004 
50.00524612060741 0.06652699288078291 
51.00524612060741 0.0637760207565685 
52.00524612060741 0.044704401072252965 
53.00524612060741 0.0517195091296136 
54.00524612060741 0.035488983719531485 
55.00524612060741 0.03486520288800324 
56.00524612060741 0.031658566758841336 
57.00524612060741 0.025060173526592462 
58.00524612060741 0.028858892107017205 
59.00524612060741 0.021202983017968975 
60.00524612060741 0.020145483213984648 
61.00524612060741 0.014122136180024242 
62.00524612060741 0.010964250736917154 
63.00524612060741 0.00866162760681979 
64.00524612060741 0.006926751716995471 
65.00524612060741 0.005469637552133881 
66.00524612060741 0.00413681436013029 
67.00524612060741 0.0034131259251789672 
68.00524612060741 0.002823465758044578 
69.00524612060741 0.0026797001952687033 
70.00524612060741 0.002611474919296005 
71.00524612060741 0.002633403898972407 
72.00524612060741 0.002633403898972407 
73.00524612060741 0.002633403898972407 
74.00524612060741 0.002633403898972407 
75.00524612060741 0.002633403898972407 
76.00524612060741 0.002633403898972407 
77.00524612060741 0.002633403898972407 
78.00524612060741 0.002633403898972407 
79.00524612060741 0.002633403898972407 
80.00524612060741 0.002633403898972407 
81.00524612060741 0.002633403898972407 
82.00524612060741 0.002633403898972407 
83.00524612060741 0.002633403898972407 
84.00524612060741 0.002633403898972407 
85.00524612060741 0.002633403898972407 
86.00524612060741 0.002633403898972407 
87.00524612060741 0.002633403898972407 
88.00524612060741 0.002633403898972407 
#####################################################################
# End of data export. Simulation finished at: 2017-05-23T07:52+0000 #
#####################################################################
